mediciones/iman/10-16/pos/no filtrar/10.2/WaveData7884.csv

#timebase=4000000(ps)
,#voltbase=2000000(mv/100)
#size=4000
-4.665E-05,0.080
-4.663E-05,0.240
-4.661E-05,0.160
-4.659E-05,0.160
-4.657E-05,0.160
-4.655E-05,0.160
-4.653E-05,0.160
-4.651E-05,0.000
-4.649E-05,0.080
-4.647E-05,0.160
-4.645E-05,0.160
-4.643E-05,0.160
-4.641E-05,0.160
-4.639E-05,0.000
-4.637E-05,0.080
-4.635E-05,0.000
-4.633E-05,0.240
-4.631E-05,0.240
-4.629E-05,0.160
-4.627E-05,0.080
-4.625E-05,0.080
-4.623E-05,0.240
-4.621E-05,0.080
-4.619E-05,0.160
-4.617E-05,0.160
-4.615E-05,0.160
-4.613E-05,0.160
-4.611E-05,0.240
-4.609E-05,0.240
-4.607E-05,0.080
-4.605E-05,0.080
-4.603E-05,0.240
-4.601E-05,0.160
-4.599E-05,0.160
-4.597E-05,0.160
-4.595E-05,0.240
-4.593E-05,0.160
-4.591E-05,0.320
-4.589E-05,0.160
-4.587E-05,0.080
-4.585E-05,0.240
-4.583E-05,0.240
-4.581E-05,0.080
-4.579E-05,0.240
-4.577E-05,0.240
-4.575E-05,0.160
-4.573E-05,0.080
-4.571E-05,0.080
-4.569E-05,0.240
-4.567E-05,0.240
-4.565E-05,0.160
-4.563E-05,0.240
-4.561E-05,0.160
-4.559E-05,0.080
-4.557E-05,0.240
-4.555E-05,0.160
-4.553E-05,0.160
-4.551E-05,0.000
-4.549E-05,0.160
-4.547E-05,0.160
-4.545E-05,0.160
-4.543E-05,0.160
-4.541E-05,0.000
-4.539E-05,0.160
-4.537E-05,0.160
-4.535E-05,0.160
-4.533E-05,0.160
-4.531E-05,0.160
-4.529E-05,0.080
-4.527E-05,0.160
-4.525E-05,0.160
-4.523E-05,0.080
-4.521E-05,0.160
-4.519E-05,0.080
-4.517E-05,0.160
-4.515E-05,0.160
-4.513E-05,0.000
-4.511E-05,0.080
-4.509E-05,0.240
-4.507E-05,0.160
-4.505E-05,0.160
-4.503E-05,0.160
-4.501E-05,0.160
-4.499E-05,0.160
-4.497E-05,0.160
-4.495E-05,0.160
-4.493E-05,0.160
-4.491E-05,0.240
-4.489E-05,0.160
-4.487E-05,0.240
-4.485E-05,0.160
-4.483E-05,0.160
-4.481E-05,0.080
-4.479E-05,0.240
-4.477E-05,0.240
-4.475E-05,0.160
-4.473E-05,0.160
-4.471E-05,0.160
-4.469E-05,0.160
-4.467E-05,0.080
-4.465E-05,0.160
-4.463E-05,0.160
-4.461E-05,0.160
-4.459E-05,0.160
-4.457E-05,0.160
-4.455E-05,0.080
-4.453E-05,0.240
-4.451E-05,0.160
-4.449E-05,0.160
-4.447E-05,0.080
-4.445E-05,0.160
-4.443E-05,0.160
-4.441E-05,0.160
-4.439E-05,0.240
-4.437E-05,0.160
-4.435E-05,0.240
-4.433E-05,0.160
-4.431E-05,0.240
-4.429E-05,0.160
-4.427E-05,0.080
-4.425E-05,0.160
-4.423E-05,0.080
-4.421E-05,0.240
-4.419E-05,0.160
-4.417E-05,0.080
-4.415E-05,0.080
-4.413E-05,0.080
-4.411E-05,0.000
-4.409E-05,0.080
-4.407E-05,0.080
-4.405E-05,0.080
-4.403E-05,0.240
-4.401E-05,0.240
-4.399E-05,0.160
-4.397E-05,0.160
-4.395E-05,0.160
-4.393E-05,0.160
-4.391E-05,0.160
-4.389E-05,0.160
-4.387E-05,0.160
-4.385E-05,0.160
-4.383E-05,0.080
-4.381E-05,0.000
-4.379E-05,0.160
-4.377E-05,0.160
-4.375E-05,0.160
-4.373E-05,0.160
-4.371E-05,0.160
-4.369E-05,0.080
-4.367E-05,0.160
-4.365E-05,0.160
-4.363E-05,0.160
-4.361E-05,0.160
-4.359E-05,0.160
-4.357E-05,0.160
-4.355E-05,0.160
-4.353E-05,0.160
-4.351E-05,0.240
-4.349E-05,0.240
-4.347E-05,0.160
-4.345E-05,0.160
-4.343E-05,0.160
-4.341E-05,0.160
-4.339E-05,0.080
-4.337E-05,0.240
-4.335E-05,0.240
-4.333E-05,0.160
-4.331E-05,0.080
-4.329E-05,0.160
-4.327E-05,0.160
-4.325E-05,0.000
-4.323E-05,0.160
-4.321E-05,0.240
-4.319E-05,0.160
-4.317E-05,0.080
-4.315E-05,0.240
-4.313E-05,0.240
-4.311E-05,0.160
-4.309E-05,0.080
-4.307E-05,0.160
-4.305E-05,0.160
-4.303E-05,0.080
-4.301E-05,0.240
-4.299E-05,0.240
-4.297E-05,0.160
-4.295E-05,0.080
-4.293E-05,0.080
-4.291E-05,0.080
-4.289E-05,0.240
-4.287E-05,0.160
-4.285E-05,0.160
-4.283E-05,0.080
-4.281E-05,0.080
-4.279E-05,0.240
-4.277E-05,0.240
-4.275E-05,0.160
-4.273E-05,0.000
-4.271E-05,0.240
-4.269E-05,0.240
-4.267E-05,0.160
-4.265E-05,0.080
-4.263E-05,0.080
-4.261E-05,0.240
-4.259E-05,0.160
-4.257E-05,0.080
-4.255E-05,0.160
-4.253E-05,0.160
-4.251E-05,0.080
-4.249E-05,0.080
-4.247E-05,0.080
-4.245E-05,0.080
-4.243E-05,0.000
-4.241E-05,0.240
-4.239E-05,0.160
-4.237E-05,0.160
-4.235E-05,0.160
-4.233E-05,0.160
-4.231E-05,0.160
-4.229E-05,0.240
-4.227E-05,0.160
-4.225E-05,0.160
-4.223E-05,0.160
-4.221E-05,0.160
-4.219E-05,0.160
-4.217E-05,0.160
-4.215E-05,0.240
-4.213E-05,0.160
-4.211E-05,0.160
-4.209E-05,0.240
-4.207E-05,0.160
-4.205E-05,0.240
-4.203E-05,0.080
-4.201E-05,0.160
-4.199E-05,0.160
-4.197E-05,0.160
-4.195E-05,0.160
-4.193E-05,0.160
-4.191E-05,0.160
-4.189E-05,0.160
-4.187E-05,0.080
-4.185E-05,0.080
-4.183E-05,0.000
-4.181E-05,0.080
-4.179E-05,0.160
-4.177E-05,0.240
-4.175E-05,0.160
-4.173E-05,0.160
-4.171E-05,0.160
-4.169E-05,0.160
-4.167E-05,0.160
-4.165E-05,0.160
-4.163E-05,0.160
-4.161E-05,0.160
-4.159E-05,0.160
-4.157E-05,0.240
-4.155E-05,0.160
-4.153E-05,0.160
-4.151E-05,0.160
-4.149E-05,0.160
-4.147E-05,0.000
-4.145E-05,0.160
-4.143E-05,0.080
-4.141E-05,0.080
-4.139E-05,0.080
-4.137E-05,0.080
-4.135E-05,0.240
-4.133E-05,0.240
-4.131E-05,0.160
-4.129E-05,0.160
-4.127E-05,0.160
-4.125E-05,0.160
-4.123E-05,0.160
-4.121E-05,0.160
-4.119E-05,0.240
-4.117E-05,0.160
-4.115E-05,0.160
-4.113E-05,0.160
-4.111E-05,0.160
-4.109E-05,0.240
-4.107E-05,0.080
-4.105E-05,0.240
-4.103E-05,0.080
-4.101E-05,0.240
-4.099E-05,0.240
-4.097E-05,0.160
-4.095E-05,0.080
-4.093E-05,0.160
-4.091E-05,0.160
-4.089E-05,0.160
-4.087E-05,0.160
-4.085E-05,0.240
-4.083E-05,0.160
-4.081E-05,0.000
-4.079E-05,0.160
-4.077E-05,0.240
-4.075E-05,0.240
-4.073E-05,0.160
-4.071E-05,0.240
-4.069E-05,0.160
-4.067E-05,0.240
-4.065E-05,0.160
-4.063E-05,0.240
-4.061E-05,0.160
-4.059E-05,0.240
-4.057E-05,0.160
-4.055E-05,0.160
-4.053E-05,0.160
-4.051E-05,0.160
-4.049E-05,0.080
-4.047E-05,0.240
-4.045E-05,0.160
-4.043E-05,0.240
-4.041E-05,0.080
-4.039E-05,0.160
-4.037E-05,0.080
-4.035E-05,0.080
-4.033E-05,0.000
-4.031E-05,0.240
-4.029E-05,0.160
-4.027E-05,0.160
-4.025E-05,0.080
-4.023E-05,0.080
-4.021E-05,0.160
-4.019E-05,0.160
-4.017E-05,0.160
-4.015E-05,0.160
-4.013E-05,0.160
-4.011E-05,0.240
-4.009E-05,0.160
-4.007E-05,0.240
-4.005E-05,0.160
-4.003E-05,0.240
-4.001E-05,0.160
-3.999E-05,0.160
-3.997E-05,0.240
-3.995E-05,0.160
-3.993E-05,0.160
-3.991E-05,0.160
-3.989E-05,0.080
-3.987E-05,0.160
-3.985E-05,0.160
-3.983E-05,0.160
-3.981E-05,0.160
-3.979E-05,0.160
-3.977E-05,0.160
-3.975E-05,0.240
-3.973E-05,0.240
-3.971E-05,0.080
-3.969E-05,0.240
-3.967E-05,0.160
-3.965E-05,0.160
-3.963E-05,0.160
-3.961E-05,0.160
-3.959E-05,0.160
-3.957E-05,0.080
-3.955E-05,0.000
-3.953E-05,0.080
-3.951E-05,0.000
-3.949E-05,0.080
-3.947E-05,0.080
-3.945E-05,0.160
-3.943E-05,0.240
-3.941E-05,0.080
-3.939E-05,0.240
-3.937E-05,0.240
-3.935E-05,0.080
-3.933E-05,0.160
-3.931E-05,0.160
-3.929E-05,0.160
-3.927E-05,0.160
-3.925E-05,0.160
-3.923E-05,0.160
-3.921E-05,0.080
-3.919E-05,0.160
-3.917E-05,0.160
-3.915E-05,0.160
-3.913E-05,0.160
-3.911E-05,0.160
-3.909E-05,0.160
-3.907E-05,0.000
-3.905E-05,0.160
-3.903E-05,0.080
-3.901E-05,0.240
-3.899E-05,0.160
-3.897E-05,0.160
-3.895E-05,0.160
-3.893E-05,0.000
-3.891E-05,0.080
-3.889E-05,0.240
-3.887E-05,0.160
-3.885E-05,0.240
-3.883E-05,0.160
-3.881E-05,0.160
-3.879E-05,0.240
-3.877E-05,0.160
-3.875E-05,0.160
-3.873E-05,0.160
-3.871E-05,0.240
-3.869E-05,0.160
-3.867E-05,0.160
-3.865E-05,0.240
-3.863E-05,0.160
-3.861E-05,0.160
-3.859E-05,0.160
-3.857E-05,0.160
-3.855E-05,0.080
-3.853E-05,0.160
-3.851E-05,0.160
-3.849E-05,0.160
-3.847E-05,0.240
-3.845E-05,0.240
-3.843E-05,0.160
-3.841E-05,0.240
-3.839E-05,0.160
-3.837E-05,0.160
-3.835E-05,0.160
-3.833E-05,0.160
-3.831E-05,0.080
-3.829E-05,0.160
-3.827E-05,0.160
-3.825E-05,0.160
-3.823E-05,0.240
-3.821E-05,0.160
-3.819E-05,0.080
-3.817E-05,0.240
-3.815E-05,0.240
-3.813E-05,0.160
-3.811E-05,0.080
-3.809E-05,0.080
-3.807E-05,0.240
-3.805E-05,0.240
-3.803E-05,0.160
-3.801E-05,0.240
-3.799E-05,0.160
-3.797E-05,0.240
-3.795E-05,0.160
-3.793E-05,0.160
-3.791E-05,0.080
-3.789E-05,0.000
-3.787E-05,0.240
-3.785E-05,0.160
-3.783E-05,0.080
-3.781E-05,0.160
-3.779E-05,0.160
-3.777E-05,0.160
-3.775E-05,0.000
-3.773E-05,0.240
-3.771E-05,0.160
-3.769E-05,0.160
-3.767E-05,0.160
-3.765E-05,0.160
-3.763E-05,0.160
-3.761E-05,0.160
-3.759E-05,0.160
-3.757E-05,0.160
-3.755E-05,0.240
-3.753E-05,0.080
-3.751E-05,0.160
-3.749E-05,0.160
-3.747E-05,0.160
-3.745E-05,0.160
-3.743E-05,0.160
-3.741E-05,0.160
-3.739E-05,0.160
-3.737E-05,0.160
-3.735E-05,0.160
-3.733E-05,0.240
-3.731E-05,0.160
-3.729E-05,0.000
-3.727E-05,0.080
-3.725E-05,0.240
-3.723E-05,0.160
-3.721E-05,0.240
-3.719E-05,0.160
-3.717E-05,0.160
-3.715E-05,0.160
-3.713E-05,0.160
-3.711E-05,0.160
-3.709E-05,0.160
-3.707E-05,0.160
-3.705E-05,0.000
-3.703E-05,0.160
-3.701E-05,0.080
-3.699E-05,0.240
-3.697E-05,0.160
-3.695E-05,0.080
-3.693E-05,0.160
-3.691E-05,0.000
-3.689E-05,0.160
-3.687E-05,0.240
-3.685E-05,0.080
-3.683E-05,0.160
-3.681E-05,0.000
-3.679E-05,0.160
-3.677E-05,0.240
-3.675E-05,0.080
-3.673E-05,0.160
-3.671E-05,0.160
-3.669E-05,0.240
-3.667E-05,0.240
-3.665E-05,0.160
-3.663E-05,0.240
-3.661E-05,0.240
-3.659E-05,0.080
-3.657E-05,0.080
-3.655E-05,0.160
-3.653E-05,0.160
-3.651E-05,0.160
-3.649E-05,0.160
-3.647E-05,0.160
-3.645E-05,0.160
-3.643E-05,0.160
-3.641E-05,0.160
-3.639E-05,0.160
-3.637E-05,0.240
-3.635E-05,0.160
-3.633E-05,0.160
-3.631E-05,0.080
-3.629E-05,0.160
-3.627E-05,0.160
-3.625E-05,0.240
-3.623E-05,0.160
-3.621E-05,0.160
-3.619E-05,0.160
-3.617E-05,0.160
-3.615E-05,0.240
-3.613E-05,0.160
-3.611E-05,0.240
-3.609E-05,0.160
-3.607E-05,0.080
-3.605E-05,0.160
-3.603E-05,0.160
-3.601E-05,0.000
-3.599E-05,0.240
-3.597E-05,0.080
-3.595E-05,0.160
-3.593E-05,0.160
-3.591E-05,0.080
-3.589E-05,0.080
-3.587E-05,0.000
-3.585E-05,0.160
-3.583E-05,0.160
-3.581E-05,0.160
-3.579E-05,0.160
-3.577E-05,0.160
-3.575E-05,0.160
-3.573E-05,0.160
-3.571E-05,0.160
-3.569E-05,0.160
-3.567E-05,0.160
-3.565E-05,0.240
-3.563E-05,0.240
-3.561E-05,0.160
-3.559E-05,0.160
-3.557E-05,0.160
-3.555E-05,0.160
-3.553E-05,0.080
-3.551E-05,0.240
-3.549E-05,0.160
-3.547E-05,0.160
-3.545E-05,0.160
-3.543E-05,0.080
-3.541E-05,0.080
-3.539E-05,0.080
-3.537E-05,0.240
-3.535E-05,0.240
-3.533E-05,0.160
-3.531E-05,0.080
-3.529E-05,0.240
-3.527E-05,0.160
-3.525E-05,0.160
-3.523E-05,0.160
-3.521E-05,0.240
-3.519E-05,0.160
-3.517E-05,0.080
-3.515E-05,0.080
-3.513E-05,0.240
-3.511E-05,0.240
-3.509E-05,0.160
-3.507E-05,0.000
-3.505E-05,0.240
-3.503E-05,0.240
-3.501E-05,0.160
-3.499E-05,0.160
-3.497E-05,0.240
-3.495E-05,0.160
-3.493E-05,0.080
-3.491E-05,0.160
-3.489E-05,0.160
-3.487E-05,0.160
-3.485E-05,0.160
-3.483E-05,0.080
-3.481E-05,0.080
-3.479E-05,0.080
-3.477E-05,0.080
-3.475E-05,0.080
-3.473E-05,0.240
-3.471E-05,0.160
-3.469E-05,0.160
-3.467E-05,0.160
-3.465E-05,0.080
-3.463E-05,0.080
-3.461E-05,0.240
-3.459E-05,0.240
-3.457E-05,0.080
-3.455E-05,0.240
-3.453E-05,0.160
-3.451E-05,0.160
-3.449E-05,0.160
-3.447E-05,0.080
-3.445E-05,0.240
-3.443E-05,0.240
-3.441E-05,0.160
-3.439E-05,0.240
-3.437E-05,0.160
-3.435E-05,0.160
-3.433E-05,0.160
-3.431E-05,0.240
-3.429E-05,0.160
-3.427E-05,0.160
-3.425E-05,0.160
-3.423E-05,0.080
-3.421E-05,0.240
-3.419E-05,0.160
-3.417E-05,0.240
-3.415E-05,0.240
-3.413E-05,0.160
-3.411E-05,0.240
-3.409E-05,0.160
-3.407E-05,0.080
-3.405E-05,0.080
-3.403E-05,0.000
-3.401E-05,0.240
-3.399E-05,0.240
-3.397E-05,0.160
-3.395E-05,0.160
-3.393E-05,0.160
-3.391E-05,0.240
-3.389E-05,0.160
-3.387E-05,0.080
-3.385E-05,0.240
-3.383E-05,0.160
-3.381E-05,0.000
-3.379E-05,0.160
-3.377E-05,0.240
-3.375E-05,0.160
-3.373E-05,0.160
-3.371E-05,0.160
-3.369E-05,0.160
-3.367E-05,0.160
-3.365E-05,0.080
-3.363E-05,0.160
-3.361E-05,0.160
-3.359E-05,0.240
-3.357E-05,0.160
-3.355E-05,0.160
-3.353E-05,0.160
-3.351E-05,0.080
-3.349E-05,0.160
-3.347E-05,0.160
-3.345E-05,0.160
-3.343E-05,0.160
-3.341E-05,0.160
-3.339E-05,0.160
-3.337E-05,0.160
-3.335E-05,0.080
-3.333E-05,0.160
-3.331E-05,0.160
-3.329E-05,0.080
-3.327E-05,0.160
-3.325E-05,0.080
-3.323E-05,0.160
-3.321E-05,0.160
-3.319E-05,0.080
-3.317E-05,0.240
-3.315E-05,0.240
-3.313E-05,0.160
-3.311E-05,0.160
-3.309E-05,0.160
-3.307E-05,0.160
-3.305E-05,0.240
-3.303E-05,0.160
-3.301E-05,0.160
-3.299E-05,0.160
-3.297E-05,0.160
-3.295E-05,0.080
-3.293E-05,0.000
-3.291E-05,0.160
-3.289E-05,0.160
-3.287E-05,0.160
-3.285E-05,0.160
-3.283E-05,0.240
-3.281E-05,0.160
-3.279E-05,0.080
-3.277E-05,0.080
-3.275E-05,0.240
-3.273E-05,0.160
-3.271E-05,0.160
-3.269E-05,0.160
-3.267E-05,0.160
-3.265E-05,0.160
-3.263E-05,0.160
-3.261E-05,0.000
-3.259E-05,0.080
-3.257E-05,0.080
-3.255E-05,0.080
-3.253E-05,0.160
-3.251E-05,0.160
-3.249E-05,0.160
-3.247E-05,0.240
-3.245E-05,0.160
-3.243E-05,0.160
-3.241E-05,0.160
-3.239E-05,0.000
-3.237E-05,0.160
-3.235E-05,0.240
-3.233E-05,0.160
-3.231E-05,0.240
-3.229E-05,0.160
-3.227E-05,0.160
-3.225E-05,0.080
-3.223E-05,0.160
-3.221E-05,0.000
-3.219E-05,0.080
-3.217E-05,0.240
-3.215E-05,0.240
-3.213E-05,0.080
-3.211E-05,0.240
-3.209E-05,0.240
-3.207E-05,0.160
-3.205E-05,0.080
-3.203E-05,0.080
-3.201E-05,0.080
-3.199E-05,0.080
-3.197E-05,0.080
-3.195E-05,0.080
-3.193E-05,0.080
-3.191E-05,0.240
-3.189E-05,0.160
-3.187E-05,0.160
-3.185E-05,0.160
-3.183E-05,0.160
-3.181E-05,0.160
-3.179E-05,0.240
-3.177E-05,0.160
-3.175E-05,0.160
-3.173E-05,0.160
-3.171E-05,0.160
-3.169E-05,0.160
-3.167E-05,0.160
-3.165E-05,0.240
-3.163E-05,0.240
-3.161E-05,0.160
-3.159E-05,0.160
-3.157E-05,0.160
-3.155E-05,0.160
-3.153E-05,0.160
-3.151E-05,0.240
-3.149E-05,0.160
-3.147E-05,0.080
-3.145E-05,0.160
-3.143E-05,0.160
-3.141E-05,0.080
-3.139E-05,0.080
-3.137E-05,0.240
-3.135E-05,0.160
-3.133E-05,0.160
-3.131E-05,0.160
-3.129E-05,0.240
-3.127E-05,0.080
-3.125E-05,0.240
-3.123E-05,0.160
-3.121E-05,0.160
-3.119E-05,0.160
-3.117E-05,0.160
-3.115E-05,0.080
-3.113E-05,0.160
-3.111E-05,0.160
-3.109E-05,0.080
-3.107E-05,0.080
-3.105E-05,0.080
-3.103E-05,0.240
-3.101E-05,0.080
-3.099E-05,0.160
-3.097E-05,0.160
-3.095E-05,0.240
-3.093E-05,0.160
-3.091E-05,0.160
-3.089E-05,0.160
-3.087E-05,0.080
-3.085E-05,0.160
-3.083E-05,0.160
-3.081E-05,0.160
-3.079E-05,0.000
-3.077E-05,0.080
-3.075E-05,0.080
-3.073E-05,0.080
-3.071E-05,0.240
-3.069E-05,0.240
-3.067E-05,0.160
-3.065E-05,0.080
-3.063E-05,0.080
-3.061E-05,0.240
-3.059E-05,0.240
-3.057E-05,0.160
-3.055E-05,0.240
-3.053E-05,0.080
-3.051E-05,0.240
-3.049E-05,0.160
-3.047E-05,0.160
-3.045E-05,0.160
-3.043E-05,0.160
-3.041E-05,0.240
-3.039E-05,0.160
-3.037E-05,0.160
-3.035E-05,0.080
-3.033E-05,0.160
-3.031E-05,0.160
-3.029E-05,0.080
-3.027E-05,0.240
-3.025E-05,0.240
-3.023E-05,0.160
-3.021E-05,0.080
-3.019E-05,0.080
-3.017E-05,0.080
-3.015E-05,0.080
-3.013E-05,0.080
-3.011E-05,0.240
-3.009E-05,0.240
-3.007E-05,0.160
-3.005E-05,0.080
-3.003E-05,0.000
-3.001E-05,0.080
-2.999E-05,0.080
-2.997E-05,0.240
-2.995E-05,0.240
-2.993E-05,0.160
-2.991E-05,0.080
-2.989E-05,0.160
-2.987E-05,0.160
-2.985E-05,0.160
-2.983E-05,0.160
-2.981E-05,0.160
-2.979E-05,0.160
-2.977E-05,0.080
-2.975E-05,0.240
-2.973E-05,0.240
-2.971E-05,0.160
-2.969E-05,0.160
-2.967E-05,0.160
-2.965E-05,0.160
-2.963E-05,0.160
-2.961E-05,0.160
-2.959E-05,0.080
-2.957E-05,0.240
-2.955E-05,0.160
-2.953E-05,0.160
-2.951E-05,0.160
-2.949E-05,0.160
-2.947E-05,0.080
-2.945E-05,0.160
-2.943E-05,0.160
-2.941E-05,0.160
-2.939E-05,0.080
-2.937E-05,0.160
-2.935E-05,0.160
-2.933E-05,0.160
-2.931E-05,0.160
-2.929E-05,0.160
-2.927E-05,0.240
-2.925E-05,0.160
-2.923E-05,0.240
-2.921E-05,0.080
-2.919E-05,0.160
-2.917E-05,0.160
-2.915E-05,0.160
-2.913E-05,0.080
-2.911E-05,0.000
-2.909E-05,0.240
-2.907E-05,0.160
-2.905E-05,0.160
-2.903E-05,0.160
-2.901E-05,0.240
-2.899E-05,0.080
-2.897E-05,0.000
-2.895E-05,0.240
-2.893E-05,0.160
-2.891E-05,0.160
-2.889E-05,0.160
-2.887E-05,0.160
-2.885E-05,0.240
-2.883E-05,0.160
-2.881E-05,0.000
-2.879E-05,0.080
-2.877E-05,0.240
-2.875E-05,0.080
-2.873E-05,0.160
-2.871E-05,0.160
-2.869E-05,0.160
-2.867E-05,0.160
-2.865E-05,0.160
-2.863E-05,0.080
-2.861E-05,0.160
-2.859E-05,0.160
-2.857E-05,0.160
-2.855E-05,0.160
-2.853E-05,0.000
-2.851E-05,0.160
-2.849E-05,0.080
-2.847E-05,0.240
-2.845E-05,0.240
-2.843E-05,0.160
-2.841E-05,0.080
-2.839E-05,0.000
-2.837E-05,0.080
-2.835E-05,0.160
-2.833E-05,0.240
-2.831E-05,0.080
-2.829E-05,0.000
-2.827E-05,0.240
-2.825E-05,0.080
-2.823E-05,0.000
-2.821E-05,0.080
-2.819E-05,0.080
-2.817E-05,0.160
-2.815E-05,0.240
-2.813E-05,0.080
-2.811E-05,0.240
-2.809E-05,0.240
-2.807E-05,0.160
-2.805E-05,0.080
-2.803E-05,0.240
-2.801E-05,0.240
-2.799E-05,0.240
-2.797E-05,0.240
-2.795E-05,0.160
-2.793E-05,0.160
-2.791E-05,0.160
-2.789E-05,0.240
-2.787E-05,0.160
-2.785E-05,0.160
-2.783E-05,0.160
-2.781E-05,0.160
-2.779E-05,0.080
-2.777E-05,0.240
-2.775E-05,0.240
-2.773E-05,0.160
-2.771E-05,0.080
-2.769E-05,0.160
-2.767E-05,0.160
-2.765E-05,0.080
-2.763E-05,0.080
-2.761E-05,0.240
-2.759E-05,0.080
-2.757E-05,0.160
-2.755E-05,0.160
-2.753E-05,0.160
-2.751E-05,0.160
-2.749E-05,0.160
-2.747E-05,0.160
-2.745E-05,0.160
-2.743E-05,0.000
-2.741E-05,0.080
-2.739E-05,0.160
-2.737E-05,0.240
-2.735E-05,0.160
-2.733E-05,0.240
-2.731E-05,0.160
-2.729E-05,0.160
-2.727E-05,0.160
-2.725E-05,0.160
-2.723E-05,0.240
-2.721E-05,0.160
-2.719E-05,0.080
-2.717E-05,0.240
-2.715E-05,0.160
-2.713E-05,0.160
-2.711E-05,0.000
-2.709E-05,0.160
-2.707E-05,0.240
-2.705E-05,0.160
-2.703E-05,0.240
-2.701E-05,0.240
-2.699E-05,0.160
-2.697E-05,0.080
-2.695E-05,0.160
-2.693E-05,0.160
-2.691E-05,0.160
-2.689E-05,0.240
-2.687E-05,0.160
-2.685E-05,0.160
-2.683E-05,0.160
-2.681E-05,0.160
-2.679E-05,0.160
-2.677E-05,0.240
-2.675E-05,0.160
-2.673E-05,0.240
-2.671E-05,0.080
-2.669E-05,0.160
-2.667E-05,0.160
-2.665E-05,0.160
-2.663E-05,0.080
-2.661E-05,0.000
-2.659E-05,0.160
-2.657E-05,0.160
-2.655E-05,0.160
-2.653E-05,0.160
-2.651E-05,0.240
-2.649E-05,0.080
-2.647E-05,0.160
-2.645E-05,0.160
-2.643E-05,0.080
-2.641E-05,0.080
-2.639E-05,0.080
-2.637E-05,0.240
-2.635E-05,0.240
-2.633E-05,0.160
-2.631E-05,0.240
-2.629E-05,0.160
-2.627E-05,0.080
-2.625E-05,0.160
-2.623E-05,0.160
-2.621E-05,0.160
-2.619E-05,0.160
-2.617E-05,0.080
-2.615E-05,0.080
-2.613E-05,0.240
-2.611E-05,0.240
-2.609E-05,0.160
-2.607E-05,0.160
-2.605E-05,0.160
-2.603E-05,0.080
-2.601E-05,0.080
-2.599E-05,0.080
-2.597E-05,0.000
-2.595E-05,0.240
-2.593E-05,0.240
-2.591E-05,0.160
-2.589E-05,0.160
-2.587E-05,0.080
-2.585E-05,0.160
-2.583E-05,0.160
-2.581E-05,0.240
-2.579E-05,0.160
-2.577E-05,0.160
-2.575E-05,0.160
-2.573E-05,0.240
-2.571E-05,0.160
-2.569E-05,0.160
-2.567E-05,0.160
-2.565E-05,0.160
-2.563E-05,0.160
-2.561E-05,0.160
-2.559E-05,0.240
-2.557E-05,0.160
-2.555E-05,0.160
-2.553E-05,0.160
-2.551E-05,0.160
-2.549E-05,0.080
-2.547E-05,0.080
-2.545E-05,0.240
-2.543E-05,0.080
-2.541E-05,0.160
-2.539E-05,0.160
-2.537E-05,0.160
-2.535E-05,0.160
-2.533E-05,0.160
-2.531E-05,0.000
-2.529E-05,0.080
-2.527E-05,0.080
-2.525E-05,0.080
-2.523E-05,0.240
-2.521E-05,0.240
-2.519E-05,0.160
-2.517E-05,0.240
-2.515E-05,0.080
-2.513E-05,0.000
-2.511E-05,0.080
-2.509E-05,0.240
-2.507E-05,0.240
-2.505E-05,0.160
-2.503E-05,0.160
-2.501E-05,0.240
-2.499E-05,0.160
-2.497E-05,0.080
-2.495E-05,0.160
-2.493E-05,0.240
-2.491E-05,0.240
-2.489E-05,0.080
-2.487E-05,0.160
-2.485E-05,0.160
-2.483E-05,0.000
-2.481E-05,0.160
-2.479E-05,0.160
-2.477E-05,0.160
-2.475E-05,0.080
-2.473E-05,0.240
-2.471E-05,0.160
-2.469E-05,0.240
-2.467E-05,0.160
-2.465E-05,0.160
-2.463E-05,0.080
-2.461E-05,0.240
-2.459E-05,0.160
-2.457E-05,0.160
-2.455E-05,0.160
-2.453E-05,0.160
-2.451E-05,0.160
-2.449E-05,0.160
-2.447E-05,0.240
-2.445E-05,0.160
-2.443E-05,0.160
-2.441E-05,0.160
-2.439E-05,0.160
-2.437E-05,0.160
-2.435E-05,0.160
-2.433E-05,0.160
-2.431E-05,0.320
-2.429E-05,0.960
-2.427E-05,1.200
-2.425E-05,0.640
-2.423E-05,0.080
-2.421E-05,-0.640
-2.419E-05,-1.120
-2.417E-05,-1.120
-2.415E-05,-0.320
-2.413E-05,0.160
-2.411E-05,0.080
-2.409E-05,0.160
-2.407E-05,0.240
-2.405E-05,0.240
-2.403E-05,0.720
-2.401E-05,1.040
-2.399E-05,1.040
-2.397E-05,0.240
-2.395E-05,-0.080
-2.393E-05,-0.240
-2.391E-05,-0.080
-2.389E-05,0.400
-2.387E-05,0.400
-2.385E-05,-0.240
-2.383E-05,-0.720
-2.381E-05,-0.640
-2.379E-05,0.000
-2.377E-05,0.480
-2.375E-05,0.880
-2.373E-05,0.640
-2.371E-05,0.240
-2.369E-05,-0.160
-2.367E-05,0.160
-2.365E-05,0.480
-2.363E-05,0.480
-2.361E-05,0.240
-2.359E-05,-0.240
-2.357E-05,-0.480
-2.355E-05,-0.160
-2.353E-05,0.160
-2.351E-05,0.320
-2.349E-05,0.080
-2.347E-05,-0.160
-2.345E-05,-0.160
-2.343E-05,0.160
-2.341E-05,0.400
-2.339E-05,0.480
-2.337E-05,0.480
-2.335E-05,0.240
-2.333E-05,0.240
-2.331E-05,0.320
-2.329E-05,0.480
-2.327E-05,0.480
-2.325E-05,0.000
-2.323E-05,0.080
