mediciones/curva carac 8-28 limpias/-25/WaveData65767.csv

#timebase=2000000(ps)
,#voltbase=500000(mv/100)
#size=4000
-8.350E-06,0.040
-8.340E-06,0.060
-8.330E-06,0.040
-8.320E-06,0.000
-8.310E-06,0.040
-8.300E-06,0.020
-8.290E-06,0.020
-8.280E-06,0.040
-8.270E-06,0.040
-8.260E-06,0.040
-8.250E-06,0.040
-8.240E-06,0.020
-8.230E-06,0.040
-8.220E-06,0.060
-8.210E-06,0.020
-8.200E-06,0.040
-8.190E-06,0.060
-8.180E-06,0.020
-8.170E-06,0.020
-8.160E-06,0.060
-8.150E-06,0.040
-8.140E-06,0.060
-8.130E-06,0.060
-8.120E-06,0.040
-8.110E-06,0.020
-8.100E-06,0.060
-8.090E-06,0.040
-8.080E-06,0.040
-8.070E-06,0.000
-8.060E-06,0.040
-8.050E-06,0.060
-8.040E-06,0.060
-8.030E-06,0.040
-8.020E-06,0.040
-8.010E-06,0.060
-8.000E-06,0.000
-7.990E-06,0.000
-7.980E-06,0.020
-7.970E-06,0.000
-7.960E-06,0.040
-7.950E-06,0.060
-7.940E-06,0.060
-7.930E-06,0.000
-7.920E-06,0.040
-7.910E-06,0.020
-7.900E-06,0.080
-7.890E-06,0.040
-7.880E-06,0.060
-7.870E-06,0.040
-7.860E-06,0.060
-7.850E-06,0.060
-7.840E-06,0.040
-7.830E-06,0.020
-7.820E-06,0.060
-7.810E-06,0.060
-7.800E-06,0.060
-7.790E-06,0.060
-7.780E-06,0.060
-7.770E-06,0.040
-7.760E-06,0.060
-7.750E-06,0.040
-7.740E-06,0.040
-7.730E-06,0.000
-7.720E-06,0.040
-7.710E-06,0.000
-7.700E-06,0.040
-7.690E-06,0.020
-7.680E-06,0.040
-7.670E-06,0.040
-7.660E-06,0.000
-7.650E-06,0.020
-7.640E-06,0.080
-7.630E-06,0.020
-7.620E-06,0.040
-7.610E-06,0.060
-7.600E-06,0.060
-7.590E-06,0.060
-7.580E-06,0.040
-7.570E-06,0.080
-7.560E-06,0.060
-7.550E-06,0.020
-7.540E-06,0.060
-7.530E-06,0.080
-7.520E-06,0.040
-7.510E-06,0.040
-7.500E-06,0.040
-7.490E-06,0.040
-7.480E-06,0.060
-7.470E-06,0.060
-7.460E-06,0.060
-7.450E-06,0.020
-7.440E-06,0.000
-7.430E-06,0.020
-7.420E-06,0.060
-7.410E-06,0.060
-7.400E-06,0.020
-7.390E-06,0.040
-7.380E-06,0.080
-7.370E-06,0.040
-7.360E-06,0.040
-7.350E-06,0.080
-7.340E-06,0.060
-7.330E-06,0.040
-7.320E-06,0.020
-7.310E-06,0.040
-7.300E-06,0.040
-7.290E-06,0.080
-7.280E-06,0.020
-7.270E-06,0.020
-7.260E-06,0.040
-7.250E-06,0.020
-7.240E-06,0.040
-7.230E-06,0.040
-7.220E-06,0.040
-7.210E-06,0.020
-7.200E-06,0.040
-7.190E-06,0.060
-7.180E-06,0.040
-7.170E-06,0.060
-7.160E-06,0.060
-7.150E-06,0.040
-7.140E-06,0.040
-7.130E-06,0.040
-7.120E-06,0.040
-7.110E-06,0.060
-7.100E-06,0.040
-7.090E-06,0.080
-7.080E-06,0.060
-7.070E-06,0.060
-7.060E-06,0.020
-7.050E-06,0.040
-7.040E-06,0.040
-7.030E-06,0.060
-7.020E-06,0.040
-7.010E-06,0.020
-7.000E-06,0.020
-6.990E-06,0.060
-6.980E-06,0.040
-6.970E-06,0.080
-6.960E-06,0.040
-6.950E-06,0.080
-6.940E-06,0.080
-6.930E-06,0.020
-6.920E-06,0.060
-6.910E-06,0.060
-6.900E-06,0.020
-6.890E-06,0.040
-6.880E-06,0.060
-6.870E-06,0.040
-6.860E-06,0.040
-6.850E-06,0.040
-6.840E-06,0.060
-6.830E-06,0.040
-6.820E-06,0.020
-6.810E-06,0.020
-6.800E-06,0.060
-6.790E-06,0.020
-6.780E-06,0.060
-6.770E-06,0.040
-6.760E-06,0.040
-6.750E-06,0.060
-6.740E-06,0.060
-6.730E-06,0.060
-6.720E-06,0.020
-6.710E-06,0.040
-6.700E-06,0.060
-6.690E-06,0.060
-6.680E-06,0.040
-6.670E-06,0.040
-6.660E-06,0.020
-6.650E-06,0.060
-6.640E-06,0.020
-6.630E-06,0.060
-6.620E-06,0.020
-6.610E-06,0.040
-6.600E-06,0.040
-6.590E-06,0.040
-6.580E-06,0.060
-6.570E-06,0.040
-6.560E-06,0.000
-6.550E-06,0.040
-6.540E-06,0.060
-6.530E-06,0.020
-6.520E-06,0.020
-6.510E-06,0.040
-6.500E-06,0.020
-6.490E-06,0.040
-6.480E-06,0.060
-6.470E-06,0.060
-6.460E-06,0.020
-6.450E-06,0.040
-6.440E-06,0.020
-6.430E-06,0.020
-6.420E-06,0.040
-6.410E-06,0.040
-6.400E-06,0.040
-6.390E-06,0.060
-6.380E-06,0.040
-6.370E-06,0.000
-6.360E-06,0.020
-6.350E-06,0.060
-6.340E-06,0.020
-6.330E-06,0.060
-6.320E-06,0.040
-6.310E-06,0.080
-6.300E-06,0.040
-6.290E-06,0.060
-6.280E-06,0.060
-6.270E-06,0.080
-6.260E-06,0.060
-6.250E-06,0.020
-6.240E-06,0.040
-6.230E-06,0.060
-6.220E-06,0.040
-6.210E-06,0.020
-6.200E-06,0.040
-6.190E-06,0.040
-6.180E-06,0.040
-6.170E-06,0.000
-6.160E-06,0.060
-6.150E-06,0.060
-6.140E-06,0.060
-6.130E-06,0.020
-6.120E-06,0.040
-6.110E-06,0.020
-6.100E-06,0.060
-6.090E-06,0.080
-6.080E-06,0.060
-6.070E-06,0.080
-6.060E-06,0.080
-6.050E-06,0.080
-6.040E-06,0.080
-6.030E-06,0.000
-6.020E-06,0.020
-6.010E-06,0.040
-6.000E-06,0.020
-5.990E-06,0.040
-5.980E-06,0.060
-5.970E-06,0.060
-5.960E-06,0.080
-5.950E-06,0.060
-5.940E-06,0.060
-5.930E-06,0.040
-5.920E-06,0.020
-5.910E-06,0.060
-5.900E-06,0.060
-5.890E-06,0.080
-5.880E-06,0.020
-5.870E-06,0.020
-5.860E-06,0.040
-5.850E-06,0.060
-5.840E-06,0.040
-5.830E-06,0.060
-5.820E-06,0.080
-5.810E-06,0.040
-5.800E-06,0.040
-5.790E-06,0.020
-5.780E-06,0.060
-5.770E-06,0.020
-5.760E-06,0.020
-5.750E-06,0.040
-5.740E-06,0.040
-5.730E-06,0.020
-5.720E-06,0.040
-5.710E-06,0.040
-5.700E-06,0.060
-5.690E-06,0.020
-5.680E-06,0.060
-5.670E-06,0.060
-5.660E-06,0.020
-5.650E-06,0.040
-5.640E-06,0.020
-5.630E-06,0.020
-5.620E-06,0.040
-5.610E-06,0.000
-5.600E-06,0.060
-5.590E-06,0.060
-5.580E-06,0.000
-5.570E-06,0.040
-5.560E-06,0.020
-5.550E-06,0.040
-5.540E-06,0.080
-5.530E-06,0.060
-5.520E-06,0.080
-5.510E-06,0.020
-5.500E-06,0.020
-5.490E-06,0.060
-5.480E-06,0.060
-5.470E-06,0.020
-5.460E-06,0.040
-5.450E-06,0.000
-5.440E-06,0.020
-5.430E-06,0.020
-5.420E-06,0.040
-5.410E-06,0.060
-5.400E-06,0.040
-5.390E-06,0.060
-5.380E-06,0.060
-5.370E-06,0.060
-5.360E-06,0.080
-5.350E-06,0.060
-5.340E-06,0.040
-5.330E-06,0.040
-5.320E-06,0.020
-5.310E-06,0.080
-5.300E-06,0.040
-5.290E-06,0.040
-5.280E-06,0.060
-5.270E-06,0.020
-5.260E-06,0.040
-5.250E-06,0.060
-5.240E-06,0.040
-5.230E-06,0.020
-5.220E-06,0.020
-5.210E-06,0.020
-5.200E-06,0.040
-5.190E-06,0.060
-5.180E-06,0.060
-5.170E-06,0.020
-5.160E-06,0.040
-5.150E-06,0.040
-5.140E-06,0.080
-5.130E-06,0.040
-5.120E-06,0.040
-5.110E-06,0.080
-5.100E-06,0.060
-5.090E-06,0.020
-5.080E-06,0.060
-5.070E-06,0.020
-5.060E-06,0.040
-5.050E-06,0.060
-5.040E-06,0.080
-5.030E-06,0.040
-5.020E-06,0.020
-5.010E-06,0.060
-5.000E-06,0.040
-4.990E-06,0.020
-4.980E-06,0.060
-4.970E-06,0.040
-4.960E-06,0.060
-4.950E-06,0.040
-4.940E-06,0.060
-4.930E-06,0.060
-4.920E-06,0.020
-4.910E-06,0.020
-4.900E-06,0.040
-4.890E-06,0.060
-4.880E-06,0.020
-4.870E-06,0.020
-4.860E-06,0.060
-4.850E-06,0.020
-4.840E-06,0.060
-4.830E-06,0.040
-4.820E-06,0.080
-4.810E-06,0.040
-4.800E-06,0.040
-4.790E-06,0.040
-4.780E-06,0.040
-4.770E-06,0.080
-4.760E-06,0.040
-4.750E-06,0.020
-4.740E-06,0.020
-4.730E-06,0.020
-4.720E-06,0.060
-4.710E-06,0.060
-4.700E-06,0.040
-4.690E-06,0.060
-4.680E-06,0.040
-4.670E-06,0.020
-4.660E-06,0.060
-4.650E-06,0.060
-4.640E-06,0.040
-4.630E-06,0.040
-4.620E-06,0.020
-4.610E-06,0.020
-4.600E-06,0.060
-4.590E-06,0.040
-4.580E-06,0.060
-4.570E-06,0.020
-4.560E-06,0.060
-4.550E-06,0.020
-4.540E-06,0.040
-4.530E-06,0.060
-4.520E-06,0.020
-4.510E-06,0.080
-4.500E-06,0.060
-4.490E-06,0.020
-4.480E-06,0.020
-4.470E-06,0.040
-4.460E-06,0.040
-4.450E-06,0.060
-4.440E-06,0.060
-4.430E-06,0.040
-4.420E-06,0.080
-4.410E-06,0.020
-4.400E-06,0.020
-4.390E-06,0.040
-4.380E-06,0.040
-4.370E-06,0.040
-4.360E-06,0.040
-4.350E-06,0.020
-4.340E-06,0.040
-4.330E-06,0.080
-4.320E-06,0.040
-4.310E-06,0.060
-4.300E-06,0.060
-4.290E-06,0.060
-4.280E-06,0.020
-4.270E-06,0.020
-4.260E-06,0.020
-4.250E-06,0.020
-4.240E-06,0.040
-4.230E-06,0.040
-4.220E-06,0.040
-4.210E-06,0.060
-4.200E-06,0.000
-4.190E-06,0.020
-4.180E-06,0.060
-4.170E-06,0.080
-4.160E-06,0.020
-4.150E-06,0.060
-4.140E-06,0.020
-4.130E-06,0.060
-4.120E-06,0.020
-4.110E-06,0.060
-4.100E-06,0.060
-4.090E-06,0.040
-4.080E-06,0.040
-4.070E-06,0.060
-4.060E-06,0.060
-4.050E-06,0.060
-4.040E-06,0.000
-4.030E-06,0.040
-4.020E-06,0.060
-4.010E-06,0.040
-4.000E-06,0.020
-3.990E-06,0.020
-3.980E-06,0.020
-3.970E-06,0.040
-3.960E-06,0.060
-3.950E-06,0.040
-3.940E-06,0.000
-3.930E-06,0.040
-3.920E-06,0.060
-3.910E-06,0.040
-3.900E-06,0.020
-3.890E-06,0.040
-3.880E-06,0.000
-3.870E-06,0.040
-3.860E-06,0.060
-3.850E-06,0.040
-3.840E-06,0.040
-3.830E-06,0.040
-3.820E-06,0.020
-3.810E-06,0.040
-3.800E-06,0.060
-3.790E-06,0.040
-3.780E-06,0.000
-3.770E-06,0.040
-3.760E-06,0.040
-3.750E-06,0.020
-3.740E-06,0.020
-3.730E-06,0.040
-3.720E-06,0.040
-3.710E-06,0.020
-3.700E-06,0.040
-3.690E-06,0.040
-3.680E-06,0.020
-3.670E-06,0.020
-3.660E-06,0.020
-3.650E-06,0.040
-3.640E-06,0.040
-3.630E-06,0.040
-3.620E-06,0.060
-3.610E-06,0.060
-3.600E-06,0.040
-3.590E-06,0.040
-3.580E-06,0.020
-3.570E-06,0.020
-3.560E-06,0.040
-3.550E-06,0.020
-3.540E-06,0.000
-3.530E-06,0.060
-3.520E-06,0.060
-3.510E-06,0.020
-3.500E-06,0.040
-3.490E-06,0.100
-3.480E-06,0.040
-3.470E-06,0.020
-3.460E-06,0.080
-3.450E-06,0.020
-3.440E-06,0.060
-3.430E-06,0.060
-3.420E-06,0.040
-3.410E-06,0.000
-3.400E-06,0.040
-3.390E-06,0.060
-3.380E-06,0.020
-3.370E-06,0.060
-3.360E-06,0.040
-3.350E-06,0.080
-3.340E-06,0.060
-3.330E-06,0.040
-3.320E-06,0.020
-3.310E-06,0.040
-3.300E-06,0.060
-3.290E-06,0.060
-3.280E-06,0.040
-3.270E-06,0.080
-3.260E-06,0.020
-3.250E-06,0.040
-3.240E-06,0.040
-3.230E-06,0.060
-3.220E-06,0.040
-3.210E-06,0.020
-3.200E-06,0.060
-3.190E-06,0.040
-3.180E-06,0.040
-3.170E-06,0.060
-3.160E-06,0.060
-3.150E-06,0.020
-3.140E-06,0.060
-3.130E-06,0.040
-3.120E-06,0.060
-3.110E-06,0.060
-3.100E-06,0.060
-3.090E-06,0.060
-3.080E-06,0.020
-3.070E-06,0.040
-3.060E-06,0.000
-3.050E-06,0.000
-3.040E-06,0.040
-3.030E-06,0.020
-3.020E-06,0.020
-3.010E-06,0.060
-3.000E-06,0.060
-2.990E-06,0.080
-2.980E-06,0.040
-2.970E-06,0.060
-2.960E-06,0.020
-2.950E-06,0.060
-2.940E-06,0.060
-2.930E-06,0.060
-2.920E-06,0.060
-2.910E-06,0.060
-2.900E-06,0.020
-2.890E-06,0.060
-2.880E-06,0.040
-2.870E-06,0.040
-2.860E-06,0.080
-2.850E-06,0.040
-2.840E-06,0.040
-2.830E-06,0.080
-2.820E-06,0.060
-2.810E-06,0.040
-2.800E-06,0.000
-2.790E-06,0.040
-2.780E-06,0.040
-2.770E-06,0.020
-2.760E-06,0.020
-2.750E-06,0.060
-2.740E-06,0.060
-2.730E-06,0.020
-2.720E-06,0.000
-2.710E-06,0.060
-2.700E-06,0.040
-2.690E-06,0.040
-2.680E-06,0.020
-2.670E-06,0.040
-2.660E-06,0.020
-2.650E-06,0.060
-2.640E-06,0.060
-2.630E-06,-0.120
-2.620E-06,-0.620
-2.610E-06,-1.520
-2.600E-06,-2.560
-2.590E-06,-3.340
-2.580E-06,-3.340
-2.570E-06,-3.360
-2.560E-06,-2.740
-2.550E-06,-1.400
-2.540E-06,0.240
-2.530E-06,1.820
-2.520E-06,2.080
-2.510E-06,2.100
-2.500E-06,2.080
-2.490E-06,2.100
-2.480E-06,2.080
-2.470E-06,2.100
-2.460E-06,2.100
-2.450E-06,1.860
-2.440E-06,0.760
-2.430E-06,-0.140
-2.420E-06,-0.680
-2.410E-06,-0.920
-2.400E-06,-0.820
-2.390E-06,-0.660
-2.380E-06,-0.520
-2.370E-06,-0.460
-2.360E-06,-0.640
-2.350E-06,-1.000
-2.340E-06,-1.460
-2.330E-06,-1.940
-2.320E-06,-2.320
-2.310E-06,-2.540
-2.300E-06,-2.520
-2.290E-06,-2.320
-2.280E-06,-1.840
-2.270E-06,-1.180
-2.260E-06,-0.440
-2.250E-06,0.360
-2.240E-06,1.120
-2.230E-06,1.720
-2.220E-06,2.080
-2.210E-06,2.080
-2.200E-06,2.020
-2.190E-06,1.600
-2.180E-06,1.120
-2.170E-06,0.520
-2.160E-06,-0.060
-2.150E-06,-0.560
-2.140E-06,-0.940
-2.130E-06,-1.200
-2.120E-06,-1.260
-2.110E-06,-1.220
-2.100E-06,-1.100
-2.090E-06,-0.900
-2.080E-06,-0.680
-2.070E-06,-0.420
-2.060E-06,-0.180
-2.050E-06,0.080
-2.040E-06,0.360
-2.030E-06,0.520
-2.020E-06,0.840
-2.010E-06,1.080
-2.000E-06,1.280
-1.990E-06,1.340
-1.980E-06,1.360
-1.970E-06,1.400
-1.960E-06,1.200
-1.950E-06,1.020
-1.940E-06,0.780
-1.930E-06,0.380
-1.920E-06,0.000
-1.910E-06,-0.160
-1.900E-06,-0.400
-1.890E-06,-0.600
-1.880E-06,-0.580
-1.870E-06,-0.600
-1.860E-06,-0.740
-1.850E-06,-0.900
-1.840E-06,-0.880
-1.830E-06,-1.120
-1.820E-06,-0.820
-1.810E-06,-1.020
-1.800E-06,-0.340
-1.790E-06,-0.440
-1.780E-06,0.300
-1.770E-06,0.160
-1.760E-06,0.660
-1.750E-06,0.800
-1.740E-06,0.980
-1.730E-06,1.020
-1.720E-06,1.040
-1.710E-06,1.100
-1.700E-06,0.860
-1.690E-06,0.500
-1.680E-06,0.360
-1.670E-06,-0.100
-1.660E-06,-0.340
-1.650E-06,-0.660
-1.640E-06,-0.680
-1.630E-06,-0.820
-1.620E-06,-0.800
-1.610E-06,-0.720
-1.600E-06,-0.660
-1.590E-06,-0.560
-1.580E-06,-0.200
-1.570E-06,-0.300
-1.560E-06,0.080
-1.550E-06,-0.240
-1.540E-06,0.080
-1.530E-06,-0.140
-1.520E-06,0.060
-1.510E-06,-0.160
-1.500E-06,0.140
-1.490E-06,0.040
-1.480E-06,0.220
-1.470E-06,0.360
-1.460E-06,0.360
-1.450E-06,0.520
-1.440E-06,0.480
-1.430E-06,0.260
-1.420E-06,0.180
-1.410E-06,-0.700
-1.400E-06,-0.080
-1.390E-06,-0.720
-1.380E-06,0.040
-1.370E-06,-0.100
-1.360E-06,-0.420
-1.350E-06,-0.140
-1.340E-06,-0.400
-1.330E-06,-0.700
-1.320E-06,-0.160
-1.310E-06,-0.440
-1.300E-06,0.360
-1.290E-06,0.060
-1.280E-06,0.200
-1.270E-06,0.240
-1.260E-06,0.160
-1.250E-06,0.240
-1.240E-06,0.080
-1.230E-06,0.160
-1.220E-06,0.020
-1.210E-06,0.200
-1.200E-06,0.040
-1.190E-06,0.080
-1.180E-06,0.000
-1.170E-06,-0.040
-1.160E-06,0.200
-1.150E-06,-0.120
-1.140E-06,-0.200
-1.130E-06,-0.380
-1.120E-06,-0.580
-1.110E-06,-0.580
-1.100E-06,-0.580
-1.090E-06,-0.360
-1.080E-06,-0.200
-1.070E-06,-0.320
-1.060E-06,0.360
-1.050E-06,-0.280
-1.040E-06,0.500
-1.030E-06,-0.320
-1.020E-06,0.220
-1.010E-06,-0.780
-1.000E-06,-0.100
-9.900E-07,-0.660
-9.800E-07,-0.320
-9.700E-07,-0.400
-9.600E-07,-0.280
-9.500E-07,-0.180
-9.400E-07,-0.080
-9.300E-07,0.080
-9.200E-07,0.020
-9.100E-07,0.060
-9.000E-07,0.040
-8.900E-07,-0.120
-8.800E-07,-0.220
-8.700E-07,-0.200
-8.600E-07,-0.120
-8.500E-07,-0.020
-8.400E-07,-0.100
-8.300E-07,0.040
-8.200E-07,0.060
-8.100E-07,0.160
-8.000E-07,-0.440
-7.900E-07,0.020
-7.800E-07,-0.820
-7.700E-07,0.580
-7.600E-07,-1.720
-7.500E-07,0.400
-7.400E-07,0.000
-7.300E-07,-0.680
-7.200E-07,1.640
-7.100E-07,-0.400
-7.000E-07,1.540
-6.900E-07,0.320
-6.800E-07,0.840
-6.700E-07,0.880
-6.600E-07,-0.680
-6.500E-07,-0.380
-6.400E-07,-1.000
-6.300E-07,-1.120
-6.200E-07,-1.160
-6.100E-07,-1.060
-6.000E-07,-1.160
-5.900E-07,-0.380
-5.800E-07,-0.820
-5.700E-07,0.120
-5.600E-07,0.300
-5.500E-07,0.440
-5.400E-07,-0.320
-5.300E-07,-1.020
-5.200E-07,-2.340
-5.100E-07,-2.360
-5.000E-07,-2.820
-4.900E-07,-2.280
-4.800E-07,-2.540
-4.700E-07,-3.020
-4.600E-07,-3.280
-4.500E-07,-2.720
-4.400E-07,-3.360
-4.300E-07,-2.220
-4.200E-07,-2.340
-4.100E-07,-1.200
-4.000E-07,-0.680
-3.900E-07,-0.520
-3.800E-07,-0.220
-3.700E-07,-0.360
-3.600E-07,-0.200
-3.500E-07,-0.180
-3.400E-07,-0.220
-3.300E-07,0.080
-3.200E-07,0.360
-3.100E-07,0.560
-3.000E-07,0.780
-2.900E-07,0.900
-2.800E-07,1.140
-2.700E-07,0.980
-2.600E-07,0.840
-2.500E-07,0.640
-2.400E-07,1.200
-2.300E-07,0.460
-2.200E-07,0.700
-2.100E-07,0.760
-2.000E-07,0.680
-1.900E-07,-0.340
-1.800E-07,-0.600
-1.700E-07,-2.320
-1.600E-07,-2.060
-1.500E-07,-2.840
-1.400E-07,-2.460
-1.300E-07,-2.080
-1.200E-07,-1.780
-1.100E-07,-0.920
-1.000E-07,-0.760
-9.000E-08,-0.460
-8.000E-08,-0.320
-7.000E-08,-0.360
-6.000E-08,-0.260
-5.000E-08,-0.300
-4.000E-08,-0.420
-3.000E-08,-0.400
-2.000E-08,-0.620
-1.000E-08,-0.700
0.000E+00,-0.860
1.000E-08,-0.960
2.000E-08,-0.960
3.000E-08,-0.680
4.000E-08,-0.560
5.000E-08,-0.640
6.000E-08,-0.500
7.000E-08,-0.680
8.000E-08,-0.700
9.000E-08,-0.740
1.000E-07,-0.660
1.100E-07,-0.520
1.200E-07,-0.380
1.300E-07,0.060
1.400E-07,-0.020
1.500E-07,-0.300
1.600E-07,-0.600
1.700E-07,0.000
1.800E-07,-0.680
1.900E-07,0.060
2.000E-07,-0.680
2.100E-07,-0.440
2.200E-07,-0.580
2.300E-07,-0.880
2.400E-07,-1.180
2.500E-07,-1.420
2.600E-07,-1.140
2.700E-07,-1.480
2.800E-07,-1.520
2.900E-07,-1.560
3.000E-07,-1.680
3.100E-07,-1.680
3.200E-07,-1.700
3.300E-07,-1.580
3.400E-07,-1.360
3.500E-07,-1.340
3.600E-07,-1.040
3.700E-07,-0.840
3.800E-07,-0.520
3.900E-07,-0.360
4.000E-07,0.000
4.100E-07,0.480
4.200E-07,0.920
4.300E-07,1.800
4.400E-07,0.420
4.500E-07,-0.360
4.600E-07,-1.500
4.700E-07,-3.340
4.800E-07,-3.340
4.900E-07,-3.340
5.000E-07,-3.340
5.100E-07,-3.340
5.200E-07,-3.340
5.300E-07,-3.340
5.400E-07,-3.340
5.500E-07,-3.340
5.600E-07,-3.340
5.700E-07,-2.540
5.800E-07,-2.280
5.900E-07,-2.080
6.000E-07,-2.020
6.100E-07,-1.780
6.200E-07,-1.380
6.300E-07,-0.740
6.400E-07,-0.040
6.500E-07,0.300
6.600E-07,0.640
6.700E-07,0.800
6.800E-07,0.920
6.900E-07,1.020
7.000E-07,0.960
7.100E-07,1.080
7.200E-07,0.900
7.300E-07,0.900
7.400E-07,0.540
7.500E-07,-0.020
7.600E-07,-0.740
7.700E-07,-1.740
7.800E-07,-2.220
7.900E-07,-3.280
8.000E-07,-2.680
8.100E-07,-3.160
8.200E-07,-2.320
8.300E-07,-2.340
8.400E-07,-1.800
8.500E-07,-1.100
8.600E-07,-0.700
8.700E-07,-0.160
8.800E-07,0.260
8.900E-07,0.540
9.000E-07,0.700
9.100E-07,0.640
9.200E-07,0.660
9.300E-07,0.520
9.400E-07,0.240
9.500E-07,-0.040
9.600E-07,-0.340
9.700E-07,-0.740
9.800E-07,-1.160
9.900E-07,-1.500
1.000E-06,-1.680
1.010E-06,-1.760
1.020E-06,-1.780
1.030E-06,-1.740
1.040E-06,-1.880
1.050E-06,-1.960
1.060E-06,-2.000
1.070E-06,-2.040
1.080E-06,-1.900
1.090E-06,-1.600
1.100E-06,-1.220
1.110E-06,-0.900
1.120E-06,-0.580
1.130E-06,-0.260
1.140E-06,-0.020
1.150E-06,0.320
1.160E-06,0.600
1.170E-06,0.820
1.180E-06,0.880
1.190E-06,0.720
1.200E-06,0.520
1.210E-06,0.260
1.220E-06,-0.240
1.230E-06,-0.900
1.240E-06,-1.360
1.250E-06,-1.860
1.260E-06,-2.000
1.270E-06,-2.180
1.280E-06,-2.100
1.290E-06,-1.940
1.300E-06,-1.620
1.310E-06,-1.380
1.320E-06,-1.000
1.330E-06,-0.820
1.340E-06,-0.500
1.350E-06,-0.460
1.360E-06,-0.300
1.370E-06,-0.120
1.380E-06,-0.220
1.390E-06,-0.300
1.400E-06,-0.460
1.410E-06,-0.580
1.420E-06,-0.680
1.430E-06,-0.680
1.440E-06,-0.640
1.450E-06,-0.560
1.460E-06,-0.460
1.470E-06,-0.400
1.480E-06,-0.180
1.490E-06,-0.160
1.500E-06,-0.040
1.510E-06,-0.420
1.520E-06,-0.120
1.530E-06,-0.500
1.540E-06,-0.160
1.550E-06,-0.300
1.560E-06,-0.260
1.570E-06,-0.160
1.580E-06,-0.180
1.590E-06,-0.120
1.600E-06,0.000
1.610E-06,0.060
1.620E-06,0.280
1.630E-06,0.340
1.640E-06,0.420
1.650E-06,0.580
1.660E-06,0.540
1.670E-06,0.600
1.680E-06,0.460
1.690E-06,0.420
1.700E-06,0.320
1.710E-06,0.140
1.720E-06,0.140
1.730E-06,-0.020
1.740E-06,-0.040
1.750E-06,-0.100
1.760E-06,-0.180
1.770E-06,-0.180
1.780E-06,-0.300
1.790E-06,-0.300
1.800E-06,-0.340
1.810E-06,-0.440
1.820E-06,-0.520
1.830E-06,-0.620
1.840E-06,-0.780
1.850E-06,-0.920
1.860E-06,-1.060
1.870E-06,-1.240
1.880E-06,-1.380
1.890E-06,-1.400
1.900E-06,-1.580
1.910E-06,-1.580
1.920E-06,-2.100
1.930E-06,-1.880
1.940E-06,-2.140
1.950E-06,-2.200
1.960E-06,-2.160
1.970E-06,-2.340
1.980E-06,-2.400
1.990E-06,-2.480
2.000E-06,-2.480
2.010E-06,-2.480
2.020E-06,-2.460
2.030E-06,-2.380
2.040E-06,-2.440
2.050E-06,-2.400
2.060E-06,-2.280
2.070E-06,-2.380
2.080E-06,-2.240
2.090E-06,-2.240
2.100E-06,-2.140
2.110E-06,-1.940
2.120E-06,-1.960
2.130E-06,-1.780
2.140E-06,-2.100
2.150E-06,-1.840
2.160E-06,-1.920
2.170E-06,-1.800
2.180E-06,-1.740
2.190E-06,-1.700
2.200E-06,-1.520
2.210E-06,-1.440
2.220E-06,-1.220
2.230E-06,-1.120
2.240E-06,-0.920
2.250E-06,-0.700
2.260E-06,-0.620
2.270E-06,-0.300
2.280E-06,-0.120
2.290E-06,-0.100
2.300E-06,0.120
2.310E-06,-0.080
2.320E-06,0.180
2.330E-06,0.100
2.340E-06,0.160
2.350E-06,0.300
2.360E-06,0.180
2.370E-06,0.160
2.380E-06,0.140
2.390E-06,0.160
2.400E-06,0.160
2.410E-06,0.100
2.420E-06,0.180
2.430E-06,0.100
2.440E-06,0.060
2.450E-06,0.100
2.460E-06,0.000
2.470E-06,0.080
2.480E-06,0.060
2.490E-06,-0.040
2.500E-06,-0.080
2.510E-06,-0.180
2.520E-06,0.100
2.530E-06,-0.140
2.540E-06,-0.040
2.550E-06,-0.220
2.560E-06,-0.080
2.570E-06,-0.080
2.580E-06,-0.220
2.590E-06,-0.120
2.600E-06,-0.260
2.610E-06,-0.160
2.620E-06,-0.320
2.630E-06,-0.240
2.640E-06,-0.260
2.650E-06,-0.340
2.660E-06,-0.180
2.670E-06,-0.240
2.680E-06,-0.360
2.690E-06,-0.380
2.700E-06,-0.380
2.710E-06,-0.200
2.720E-06,-0.260
2.730E-06,-0.280
2.740E-06,-0.060
2.750E-06,-0.160
2.760E-06,-0.080
2.770E-06,-0.140
2.780E-06,0.060
2.790E-06,-0.040
2.800E-06,-0.020
2.810E-06,0.020
2.820E-06,0.040
2.830E-06,0.080
2.840E-06,0.120
2.850E-06,0.180
2.860E-06,0.060
2.870E-06,0.100
2.880E-06,0.060
2.890E-06,0.160
2.900E-06,0.000
2.910E-06,-0.020
2.920E-06,0.180
2.930E-06,-0.080
2.940E-06,0.120
2.950E-06,0.000
2.960E-06,0.120
2.970E-06,0.080
2.980E-06,0.040
2.990E-06,0.080
3.000E-06,0.060
3.010E-06,0.040
3.020E-06,0.040
3.030E-06,0.080
3.040E-06,0.040
3.050E-06,0.080
3.060E-06,0.080
3.070E-06,0.080
3.080E-06,0.120
3.090E-06,0.100
3.100E-06,0.160
3.110E-06,0.120
3.120E-06,0.120
3.130E-06,0.160
3.140E-06,0.120
3.150E-06,0.120
3.160E-06,0.160
3.170E-06,0.140
3.180E-06,0.120
3.190E-06,0.120
3.200E-06,0.120
3.210E-06,0.120
3.220E-06,0.120
3.230E-06,0.160
3.240E-06,0.180
3.250E-06,0.160
3.260E-06,0.180
3.270E-06,0.220
3.280E-06,0.280
3.290E-06,0.220
3.300E-06,0.180
3.310E-06,0.100
3.320E-06,0.300
3.330E-06,0.160
3.340E-06,0.300
