mediciones/8-28/13/WaveData66107.csv

#timebase=2000000(ps)
,#voltbase=500000(mv/100)
#size=4000
-1.215E-05,0.080
-1.214E-05,0.060
-1.213E-05,0.040
-1.212E-05,0.060
-1.211E-05,0.060
-1.210E-05,0.080
-1.209E-05,0.040
-1.208E-05,0.040
-1.207E-05,0.060
-1.206E-05,0.040
-1.205E-05,0.040
-1.204E-05,0.020
-1.203E-05,0.060
-1.202E-05,0.040
-1.201E-05,0.060
-1.200E-05,0.060
-1.199E-05,0.040
-1.198E-05,0.060
-1.197E-05,0.040
-1.196E-05,0.040
-1.195E-05,0.060
-1.194E-05,0.040
-1.193E-05,0.040
-1.192E-05,0.060
-1.191E-05,0.040
-1.190E-05,0.060
-1.189E-05,0.020
-1.188E-05,0.060
-1.187E-05,0.040
-1.186E-05,0.060
-1.185E-05,0.060
-1.184E-05,0.040
-1.183E-05,0.060
-1.182E-05,0.060
-1.181E-05,0.040
-1.180E-05,0.060
-1.179E-05,0.060
-1.178E-05,0.060
-1.177E-05,0.040
-1.176E-05,0.060
-1.175E-05,0.060
-1.174E-05,0.060
-1.173E-05,0.060
-1.172E-05,0.040
-1.171E-05,0.040
-1.170E-05,0.040
-1.169E-05,0.040
-1.168E-05,0.020
-1.167E-05,0.080
-1.166E-05,0.060
-1.165E-05,0.040
-1.164E-05,0.060
-1.163E-05,0.040
-1.162E-05,0.040
-1.161E-05,0.060
-1.160E-05,0.060
-1.159E-05,0.060
-1.158E-05,0.080
-1.157E-05,0.040
-1.156E-05,0.060
-1.155E-05,0.020
-1.154E-05,0.040
-1.153E-05,0.060
-1.152E-05,0.060
-1.151E-05,0.040
-1.150E-05,0.060
-1.149E-05,0.040
-1.148E-05,0.060
-1.147E-05,0.060
-1.146E-05,0.040
-1.145E-05,0.040
-1.144E-05,0.060
-1.143E-05,0.040
-1.142E-05,0.060
-1.141E-05,0.040
-1.140E-05,0.040
-1.139E-05,0.060
-1.138E-05,0.060
-1.137E-05,0.040
-1.136E-05,0.040
-1.135E-05,0.020
-1.134E-05,0.040
-1.133E-05,0.040
-1.132E-05,0.060
-1.131E-05,0.040
-1.130E-05,0.060
-1.129E-05,0.060
-1.128E-05,0.040
-1.127E-05,0.040
-1.126E-05,0.060
-1.125E-05,0.060
-1.124E-05,0.040
-1.123E-05,0.060
-1.122E-05,0.060
-1.121E-05,0.060
-1.120E-05,0.040
-1.119E-05,0.060
-1.118E-05,0.020
-1.117E-05,0.020
-1.116E-05,0.040
-1.115E-05,0.080
-1.114E-05,0.040
-1.113E-05,0.040
-1.112E-05,0.040
-1.111E-05,0.060
-1.110E-05,0.020
-1.109E-05,0.020
-1.108E-05,0.060
-1.107E-05,0.040
-1.106E-05,0.040
-1.105E-05,0.060
-1.104E-05,0.040
-1.103E-05,0.060
-1.102E-05,0.060
-1.101E-05,0.080
-1.100E-05,0.060
-1.099E-05,0.040
-1.098E-05,0.040
-1.097E-05,0.040
-1.096E-05,0.060
-1.095E-05,0.020
-1.094E-05,0.020
-1.093E-05,0.040
-1.092E-05,0.060
-1.091E-05,0.060
-1.090E-05,0.020
-1.089E-05,0.060
-1.088E-05,0.060
-1.087E-05,0.080
-1.086E-05,0.060
-1.085E-05,0.060
-1.084E-05,0.060
-1.083E-05,0.060
-1.082E-05,0.060
-1.081E-05,0.040
-1.080E-05,0.040
-1.079E-05,0.040
-1.078E-05,0.040
-1.077E-05,0.040
-1.076E-05,0.080
-1.075E-05,0.040
-1.074E-05,0.040
-1.073E-05,0.040
-1.072E-05,0.060
-1.071E-05,0.060
-1.070E-05,0.060
-1.069E-05,0.040
-1.068E-05,0.040
-1.067E-05,0.080
-1.066E-05,0.040
-1.065E-05,0.040
-1.064E-05,0.040
-1.063E-05,0.060
-1.062E-05,0.040
-1.061E-05,0.040
-1.060E-05,0.040
-1.059E-05,0.040
-1.058E-05,0.020
-1.057E-05,0.040
-1.056E-05,0.060
-1.055E-05,0.060
-1.054E-05,0.060
-1.053E-05,0.060
-1.052E-05,0.040
-1.051E-05,0.080
-1.050E-05,0.060
-1.049E-05,0.040
-1.048E-05,0.060
-1.047E-05,0.020
-1.046E-05,0.060
-1.045E-05,0.040
-1.044E-05,0.060
-1.043E-05,0.080
-1.042E-05,0.020
-1.041E-05,0.040
-1.040E-05,0.040
-1.039E-05,0.040
-1.038E-05,0.040
-1.037E-05,0.060
-1.036E-05,0.060
-1.035E-05,0.040
-1.034E-05,0.040
-1.033E-05,0.060
-1.032E-05,0.060
-1.031E-05,0.060
-1.030E-05,0.040
-1.029E-05,0.060
-1.028E-05,0.060
-1.027E-05,0.060
-1.026E-05,0.060
-1.025E-05,0.040
-1.024E-05,0.040
-1.023E-05,0.040
-1.022E-05,0.060
-1.021E-05,0.040
-1.020E-05,0.040
-1.019E-05,0.040
-1.018E-05,0.040
-1.017E-05,0.060
-1.016E-05,0.040
-1.015E-05,0.040
-1.014E-05,0.020
-1.013E-05,0.040
-1.012E-05,0.060
-1.011E-05,0.040
-1.010E-05,0.060
-1.009E-05,0.060
-1.008E-05,0.040
-1.007E-05,0.040
-1.006E-05,0.040
-1.005E-05,0.060
-1.004E-05,0.060
-1.003E-05,0.040
-1.002E-05,0.040
-1.001E-05,0.020
-1.000E-05,0.060
-9.990E-06,0.040
-9.980E-06,0.040
-9.970E-06,0.040
-9.960E-06,0.040
-9.950E-06,0.060
-9.940E-06,0.080
-9.930E-06,0.060
-9.920E-06,0.060
-9.910E-06,0.040
-9.900E-06,0.040
-9.890E-06,0.040
-9.880E-06,0.060
-9.870E-06,0.060
-9.860E-06,0.080
-9.850E-06,0.080
-9.840E-06,0.060
-9.830E-06,0.060
-9.820E-06,0.020
-9.810E-06,0.040
-9.800E-06,0.060
-9.790E-06,0.060
-9.780E-06,0.060
-9.770E-06,0.020
-9.760E-06,0.020
-9.750E-06,0.060
-9.740E-06,-0.100
-9.730E-06,-0.600
-9.720E-06,-1.460
-9.710E-06,-2.460
-9.700E-06,-3.140
-9.690E-06,-3.240
-9.680E-06,-3.060
-9.670E-06,-0.540
-9.660E-06,0.060
-9.650E-06,0.400
-9.640E-06,1.820
-9.630E-06,1.840
-9.620E-06,1.820
-9.610E-06,1.820
-9.600E-06,1.840
-9.590E-06,1.840
-9.580E-06,1.820
-9.570E-06,1.360
-9.560E-06,0.480
-9.550E-06,-1.040
-9.540E-06,-0.780
-9.530E-06,-1.060
-9.520E-06,-0.940
-9.510E-06,-0.600
-9.500E-06,-0.400
-9.490E-06,-0.280
-9.480E-06,-0.540
-9.470E-06,-0.540
-9.460E-06,-0.860
-9.450E-06,-1.280
-9.440E-06,-1.480
-9.430E-06,-1.780
-9.420E-06,-1.600
-9.410E-06,-1.580
-9.400E-06,-1.180
-9.390E-06,-0.620
-9.380E-06,-0.100
-9.370E-06,0.620
-9.360E-06,1.240
-9.350E-06,1.620
-9.340E-06,1.820
-9.330E-06,1.780
-9.320E-06,1.520
-9.310E-06,1.040
-9.300E-06,0.660
-9.290E-06,0.120
-9.280E-06,-0.380
-9.270E-06,-0.700
-9.260E-06,-0.940
-9.250E-06,-1.020
-9.240E-06,-1.040
-9.230E-06,-0.880
-9.220E-06,-0.700
-9.210E-06,-0.540
-9.200E-06,-0.340
-9.190E-06,-0.220
-9.180E-06,-0.060
-9.170E-06,0.120
-9.160E-06,0.340
-9.150E-06,0.520
-9.140E-06,0.680
-9.130E-06,0.840
-9.120E-06,0.900
-9.110E-06,0.940
-9.100E-06,0.980
-9.090E-06,0.920
-9.080E-06,0.820
-9.070E-06,0.720
-9.060E-06,0.520
-9.050E-06,0.340
-9.040E-06,0.140
-9.030E-06,-0.060
-9.020E-06,-0.240
-9.010E-06,-0.400
-9.000E-06,-0.520
-8.990E-06,-0.580
-8.980E-06,-0.680
-8.970E-06,-0.680
-8.960E-06,-0.680
-8.950E-06,-0.640
-8.940E-06,-0.540
-8.930E-06,-0.400
-8.920E-06,-0.140
-8.910E-06,0.080
-8.900E-06,0.320
-8.890E-06,0.540
-8.880E-06,0.720
-8.870E-06,0.880
-8.860E-06,0.880
-8.850E-06,0.860
-8.840E-06,0.800
-8.830E-06,0.620
-8.820E-06,0.400
-8.810E-06,0.220
-8.800E-06,-0.040
-8.790E-06,-0.220
-8.780E-06,-0.360
-8.770E-06,-0.480
-8.760E-06,-0.520
-8.750E-06,-0.520
-8.740E-06,-0.500
-8.730E-06,-0.440
-8.720E-06,-0.380
-8.710E-06,-0.300
-8.700E-06,-0.240
-8.690E-06,-0.140
-8.680E-06,-0.120
-8.670E-06,-0.040
-8.660E-06,0.020
-8.650E-06,0.080
-8.640E-06,0.160
-8.630E-06,0.200
-8.620E-06,0.240
-8.610E-06,0.300
-8.600E-06,0.320
-8.590E-06,0.380
-8.580E-06,0.340
-8.570E-06,0.340
-8.560E-06,0.300
-8.550E-06,0.260
-8.540E-06,0.180
-8.530E-06,0.100
-8.520E-06,0.040
-8.510E-06,-0.020
-8.500E-06,-0.060
-8.490E-06,-0.060
-8.480E-06,-0.080
-8.470E-06,-0.080
-8.460E-06,-0.080
-8.450E-06,-0.100
-8.440E-06,-0.100
-8.430E-06,-0.080
-8.420E-06,-0.080
-8.410E-06,-0.120
-8.400E-06,-0.140
-8.390E-06,-0.080
-8.380E-06,-0.080
-8.370E-06,-0.040
-8.360E-06,0.020
-8.350E-06,0.080
-8.340E-06,0.080
-8.330E-06,0.120
-8.320E-06,0.160
-8.310E-06,0.100
-8.300E-06,0.060
-8.290E-06,0.060
-8.280E-06,0.000
-8.270E-06,-0.040
-8.260E-06,-0.080
-8.250E-06,-0.080
-8.240E-06,-0.080
-8.230E-06,-0.120
-8.220E-06,-0.120
-8.210E-06,-0.100
-8.200E-06,-0.060
-8.190E-06,-0.040
-8.180E-06,-0.060
-8.170E-06,-0.080
-8.160E-06,-0.100
-8.150E-06,-0.120
-8.140E-06,-0.120
-8.130E-06,-0.100
-8.120E-06,-0.160
-8.110E-06,-0.120
-8.100E-06,-0.080
-8.090E-06,-0.060
-8.080E-06,0.000
-8.070E-06,0.000
-8.060E-06,0.060
-8.050E-06,0.080
-8.040E-06,0.120
-8.030E-06,0.100
-8.020E-06,0.100
-8.010E-06,0.100
-8.000E-06,0.020
-7.990E-06,0.020
-7.980E-06,0.000
-7.970E-06,-0.060
-7.960E-06,-0.100
-7.950E-06,-0.100
-7.940E-06,-0.140
-7.930E-06,-0.160
-7.920E-06,-0.180
-7.910E-06,-0.180
-7.900E-06,-0.180
-7.890E-06,-0.160
-7.880E-06,-0.140
-7.870E-06,-0.160
-7.860E-06,-0.120
-7.850E-06,-0.100
-7.840E-06,-0.080
-7.830E-06,-0.060
-7.820E-06,-0.040
-7.810E-06,0.000
-7.800E-06,0.060
-7.790E-06,0.060
-7.780E-06,0.120
-7.770E-06,0.100
-7.760E-06,0.080
-7.750E-06,0.100
-7.740E-06,0.100
-7.730E-06,0.060
-7.720E-06,0.080
-7.710E-06,0.040
-7.700E-06,-0.020
-7.690E-06,-0.020
-7.680E-06,-0.060
-7.670E-06,-0.080
-7.660E-06,-0.100
-7.650E-06,-0.140
-7.640E-06,-0.160
-7.630E-06,-0.160
-7.620E-06,-0.160
-7.610E-06,-0.160
-7.600E-06,-0.140
-7.590E-06,-0.100
-7.580E-06,-0.100
-7.570E-06,-0.100
-7.560E-06,-0.080
-7.550E-06,-0.080
-7.540E-06,-0.080
-7.530E-06,-0.080
-7.520E-06,-0.060
-7.510E-06,-0.100
-7.500E-06,-0.020
-7.490E-06,0.080
-7.480E-06,0.420
-7.470E-06,0.860
-7.460E-06,1.300
-7.450E-06,1.520
-7.440E-06,1.540
-7.430E-06,1.180
-7.420E-06,0.580
-7.410E-06,-0.160
-7.400E-06,-0.960
-7.390E-06,-1.680
-7.380E-06,-2.380
-7.370E-06,-2.780
-7.360E-06,-3.000
-7.350E-06,-3.000
-7.340E-06,-2.760
-7.330E-06,-2.400
-7.320E-06,-2.020
-7.310E-06,-1.600
-7.300E-06,-1.400
-7.290E-06,-1.180
-7.280E-06,-1.100
-7.270E-06,-0.980
-7.260E-06,-0.860
-7.250E-06,-0.720
-7.240E-06,-0.560
-7.230E-06,-0.420
-7.220E-06,-0.260
-7.210E-06,-0.060
-7.200E-06,0.160
-7.190E-06,0.340
-7.180E-06,0.420
-7.170E-06,0.400
-7.160E-06,0.320
-7.150E-06,0.180
-7.140E-06,-0.100
-7.130E-06,-0.360
-7.120E-06,-0.540
-7.110E-06,-0.800
-7.100E-06,-1.060
-7.090E-06,-1.260
-7.080E-06,-1.300
-7.070E-06,-1.260
-7.060E-06,-1.100
-7.050E-06,-0.720
-7.040E-06,-0.340
-7.030E-06,0.000
-7.020E-06,0.400
-7.010E-06,0.660
-7.000E-06,0.800
-6.990E-06,0.900
-6.980E-06,0.880
-6.970E-06,0.720
-6.960E-06,0.560
-6.950E-06,0.300
-6.940E-06,0.080
-6.930E-06,-0.240
-6.920E-06,-0.460
-6.910E-06,-0.680
-6.900E-06,-0.820
-6.890E-06,-0.900
-6.880E-06,-0.860
-6.870E-06,-0.780
-6.860E-06,-0.700
-6.850E-06,-0.660
-6.840E-06,-0.600
-6.830E-06,-0.580
-6.820E-06,-0.620
-6.810E-06,-0.580
-6.800E-06,-0.640
-6.790E-06,-0.700
-6.780E-06,-0.720
-6.770E-06,-0.800
-6.760E-06,-0.940
-6.750E-06,-1.080
-6.740E-06,-1.160
-6.730E-06,-1.160
-6.720E-06,-1.280
-6.710E-06,-1.260
-6.700E-06,-1.520
-6.690E-06,-1.580
-6.680E-06,-1.780
-6.670E-06,-1.720
-6.660E-06,-1.820
-6.650E-06,-1.840
-6.640E-06,-1.960
-6.630E-06,-2.000
-6.620E-06,-2.060
-6.610E-06,-2.080
-6.600E-06,-1.960
-6.590E-06,-1.840
-6.580E-06,-1.720
-6.570E-06,-1.520
-6.560E-06,-1.420
-6.550E-06,-1.340
-6.540E-06,-1.240
-6.530E-06,-1.120
-6.520E-06,-1.080
-6.510E-06,-1.060
-6.500E-06,-1.040
-6.490E-06,-1.120
-6.480E-06,-1.260
-6.470E-06,-1.360
-6.460E-06,-1.360
-6.450E-06,-1.440
-6.440E-06,-1.460
-6.430E-06,-1.460
-6.420E-06,-1.460
-6.410E-06,-1.380
-6.400E-06,-1.360
-6.390E-06,-1.300
-6.380E-06,-1.180
-6.370E-06,-1.080
-6.360E-06,-1.020
-6.350E-06,-1.020
-6.340E-06,-1.020
-6.330E-06,-1.040
-6.320E-06,-1.080
-6.310E-06,-1.120
-6.300E-06,-1.180
-6.290E-06,-1.200
-6.280E-06,-1.280
-6.270E-06,-1.280
-6.260E-06,-1.280
-6.250E-06,-1.280
-6.240E-06,-1.260
-6.230E-06,-1.220
-6.220E-06,-1.180
-6.210E-06,-1.200
-6.200E-06,-1.200
-6.190E-06,-1.220
-6.180E-06,-1.220
-6.170E-06,-1.240
-6.160E-06,-1.220
-6.150E-06,-1.240
-6.140E-06,-1.240
-6.130E-06,-1.220
-6.120E-06,-1.180
-6.110E-06,-1.140
-6.100E-06,-1.200
-6.090E-06,-1.160
-6.080E-06,-1.180
-6.070E-06,-1.200
-6.060E-06,-1.180
-6.050E-06,-1.160
-6.040E-06,-1.240
-6.030E-06,-1.280
-6.020E-06,-1.380
-6.010E-06,-1.380
-6.000E-06,-1.420
-5.990E-06,-1.420
-5.980E-06,-1.380
-5.970E-06,-1.300
-5.960E-06,-1.280
-5.950E-06,-1.220
-5.940E-06,-1.160
-5.930E-06,-1.080
-5.920E-06,-0.960
-5.910E-06,-0.900
-5.900E-06,-0.800
-5.890E-06,-0.740
-5.880E-06,-0.700
-5.870E-06,-0.640
-5.860E-06,-0.620
-5.850E-06,-0.620
-5.840E-06,-0.700
-5.830E-06,-0.700
-5.820E-06,-0.740
-5.810E-06,-0.780
-5.800E-06,-0.840
-5.790E-06,-0.840
-5.780E-06,-0.840
-5.770E-06,-0.860
-5.760E-06,-0.860
-5.750E-06,-0.840
-5.740E-06,-0.820
-5.730E-06,-0.820
-5.720E-06,-0.800
-5.710E-06,-0.800
-5.700E-06,-0.780
-5.690E-06,-0.780
-5.680E-06,-0.760
-5.670E-06,-0.680
-5.660E-06,-0.640
-5.650E-06,-0.580
-5.640E-06,-0.560
-5.630E-06,-0.540
-5.620E-06,-0.520
-5.610E-06,-0.520
-5.600E-06,-0.540
-5.590E-06,-0.580
-5.580E-06,-0.560
-5.570E-06,-0.600
-5.560E-06,-0.740
-5.550E-06,-0.800
-5.540E-06,-0.860
-5.530E-06,-0.880
-5.520E-06,-0.920
-5.510E-06,-0.980
-5.500E-06,-1.020
-5.490E-06,-1.020
-5.480E-06,-1.000
-5.470E-06,-0.960
-5.460E-06,-0.940
-5.450E-06,-0.860
-5.440E-06,-0.880
-5.430E-06,-0.880
-5.420E-06,-0.940
-5.410E-06,-0.980
-5.400E-06,-1.040
-5.390E-06,-1.120
-5.380E-06,-1.180
-5.370E-06,-1.260
-5.360E-06,-1.300
-5.350E-06,-1.340
-5.340E-06,-1.500
-5.330E-06,-1.620
-5.320E-06,-1.820
-5.310E-06,-2.000
-5.300E-06,-2.180
-5.290E-06,-2.360
-5.280E-06,-2.500
-5.270E-06,-2.600
-5.260E-06,-2.620
-5.250E-06,-2.700
-5.240E-06,-2.780
-5.230E-06,-2.840
-5.220E-06,-2.960
-5.210E-06,-3.080
-5.200E-06,-3.220
-5.190E-06,-3.220
-5.180E-06,-3.160
-5.170E-06,-3.160
-5.160E-06,-3.100
-5.150E-06,-3.100
-5.140E-06,-3.080
-5.130E-06,-2.980
-5.120E-06,-2.940
-5.110E-06,-2.880
-5.100E-06,-2.800
-5.090E-06,-2.760
-5.080E-06,-2.620
-5.070E-06,-2.480
-5.060E-06,-2.360
-5.050E-06,-2.280
-5.040E-06,-2.220
-5.030E-06,-2.100
-5.020E-06,-1.960
-5.010E-06,-1.880
-5.000E-06,-1.820
-4.990E-06,-1.620
-4.980E-06,-1.440
-4.970E-06,-1.200
-4.960E-06,-1.080
-4.950E-06,-0.920
-4.940E-06,-0.820
-4.930E-06,-0.680
-4.920E-06,-0.520
-4.910E-06,-0.380
-4.900E-06,-0.260
-4.890E-06,-0.040
-4.880E-06,0.140
-4.870E-06,0.300
-4.860E-06,0.440
-4.850E-06,0.540
-4.840E-06,0.640
-4.830E-06,0.720
-4.820E-06,0.760
-4.810E-06,0.780
-4.800E-06,0.760
-4.790E-06,0.740
-4.780E-06,0.660
-4.770E-06,0.620
-4.760E-06,0.520
-4.750E-06,0.480
-4.740E-06,0.400
-4.730E-06,0.400
-4.720E-06,0.360
-4.710E-06,0.280
-4.700E-06,0.240
-4.690E-06,0.180
-4.680E-06,0.160
-4.670E-06,0.080
-4.660E-06,0.060
-4.650E-06,-0.020
-4.640E-06,-0.020
-4.630E-06,-0.060
-4.620E-06,-0.100
-4.610E-06,-0.200
-4.600E-06,-0.240
-4.590E-06,-0.200
-4.580E-06,-0.200
-4.570E-06,-0.160
-4.560E-06,-0.120
-4.550E-06,-0.100
-4.540E-06,-0.080
-4.530E-06,-0.120
-4.520E-06,-0.080
-4.510E-06,-0.080
-4.500E-06,-0.100
-4.490E-06,-0.060
-4.480E-06,-0.040
-4.470E-06,-0.020
-4.460E-06,-0.020
-4.450E-06,-0.020
-4.440E-06,0.000
-4.430E-06,0.000
-4.420E-06,0.040
-4.410E-06,0.020
-4.400E-06,0.000
-4.390E-06,0.000
-4.380E-06,0.020
-4.370E-06,0.060
-4.360E-06,0.060
-4.350E-06,0.080
-4.340E-06,0.100
-4.330E-06,0.140
-4.320E-06,0.140
-4.310E-06,0.120
-4.300E-06,0.180
-4.290E-06,0.160
-4.280E-06,0.200
-4.270E-06,0.180
-4.260E-06,0.180
-4.250E-06,0.100
-4.240E-06,0.100
-4.230E-06,0.060
-4.220E-06,0.040
-4.210E-06,0.000
-4.200E-06,-0.040
-4.190E-06,-0.060
-4.180E-06,-0.100
-4.170E-06,-0.180
-4.160E-06,-0.240
-4.150E-06,-0.260
-4.140E-06,-0.260
-4.130E-06,-0.260
-4.120E-06,-0.220
-4.110E-06,-0.200
-4.100E-06,-0.160
-4.090E-06,-0.120
-4.080E-06,-0.060
-4.070E-06,-0.020
-4.060E-06,0.040
-4.050E-06,0.060
-4.040E-06,0.100
-4.030E-06,0.160
-4.020E-06,0.180
-4.010E-06,0.160
-4.000E-06,0.180
-3.990E-06,0.180
-3.980E-06,0.220
-3.970E-06,0.240
-3.960E-06,0.260
-3.950E-06,0.320
-3.940E-06,0.360
-3.930E-06,0.380
-3.920E-06,0.380
-3.910E-06,0.380
-3.900E-06,0.320
-3.890E-06,0.340
-3.880E-06,0.340
-3.870E-06,0.280
-3.860E-06,0.260
-3.850E-06,0.200
-3.840E-06,0.180
-3.830E-06,0.140
-3.820E-06,0.100
-3.810E-06,0.060
-3.800E-06,0.040
-3.790E-06,0.040
-3.780E-06,0.060
-3.770E-06,0.060
-3.760E-06,0.060
-3.750E-06,0.060
-3.740E-06,0.120
-3.730E-06,0.160
-3.720E-06,0.220
-3.710E-06,0.300
-3.700E-06,0.380
-3.690E-06,0.460
-3.680E-06,0.500
-3.670E-06,0.500
-3.660E-06,0.520
-3.650E-06,0.540
-3.640E-06,0.560
-3.630E-06,0.600
-3.620E-06,0.620
-3.610E-06,0.600
-3.600E-06,0.520
-3.590E-06,0.480
-3.580E-06,0.380
-3.570E-06,0.320
-3.560E-06,0.240
-3.550E-06,0.120
-3.540E-06,0.080
-3.530E-06,0.000
-3.520E-06,-0.020
-3.510E-06,-0.060
-3.500E-06,-0.060
-3.490E-06,-0.080
-3.480E-06,-0.100
-3.470E-06,-0.100
-3.460E-06,-0.060
-3.450E-06,0.000
-3.440E-06,0.040
-3.430E-06,0.100
-3.420E-06,0.200
-3.410E-06,0.300
-3.400E-06,0.420
-3.390E-06,0.480
-3.380E-06,0.540
-3.370E-06,0.620
-3.360E-06,0.620
-3.350E-06,0.580
-3.340E-06,0.540
-3.330E-06,0.460
-3.320E-06,0.400
-3.310E-06,0.380
-3.300E-06,0.340
-3.290E-06,0.300
-3.280E-06,0.320
-3.270E-06,0.360
-3.260E-06,0.380
-3.250E-06,0.420
-3.240E-06,0.400
-3.230E-06,0.420
-3.220E-06,0.400
-3.210E-06,0.320
-3.200E-06,0.260
-3.190E-06,0.180
-3.180E-06,0.080
-3.170E-06,0.040
-3.160E-06,-0.040
-3.150E-06,-0.080
-3.140E-06,-0.140
-3.130E-06,-0.180
-3.120E-06,-0.260
-3.110E-06,-0.280
-3.100E-06,-0.280
-3.090E-06,-0.300
-3.080E-06,-0.320
-3.070E-06,-0.360
-3.060E-06,-0.360
-3.050E-06,-0.380
-3.040E-06,-0.380
-3.030E-06,-0.340
-3.020E-06,-0.340
-3.010E-06,-0.380
-3.000E-06,-0.340
-2.990E-06,-0.360
-2.980E-06,-0.380
-2.970E-06,-0.400
-2.960E-06,-0.360
-2.950E-06,-0.360
-2.940E-06,-0.260
-2.930E-06,-0.280
-2.920E-06,-0.220
-2.910E-06,-0.120
-2.900E-06,-0.100
-2.890E-06,-0.080
-2.880E-06,-0.040
-2.870E-06,-0.020
-2.860E-06,0.000
-2.850E-06,0.040
-2.840E-06,0.060
-2.830E-06,0.100
-2.820E-06,0.160
-2.810E-06,0.200
-2.800E-06,0.260
-2.790E-06,0.320
-2.780E-06,0.340
-2.770E-06,0.400
-2.760E-06,0.400
-2.750E-06,0.420
-2.740E-06,0.420
-2.730E-06,0.380
-2.720E-06,0.400
-2.710E-06,0.360
-2.700E-06,0.340
-2.690E-06,0.300
-2.680E-06,0.240
-2.670E-06,0.200
-2.660E-06,0.160
-2.650E-06,0.140
-2.640E-06,0.080
-2.630E-06,0.020
-2.620E-06,-0.020
-2.610E-06,-0.020
-2.600E-06,-0.040
-2.590E-06,-0.040
-2.580E-06,-0.060
-2.570E-06,-0.060
-2.560E-06,-0.100
-2.550E-06,-0.100
-2.540E-06,-0.100
-2.530E-06,-0.080
-2.520E-06,-0.020
-2.510E-06,0.000
-2.500E-06,0.080
-2.490E-06,0.180
-2.480E-06,0.260
-2.470E-06,0.340
-2.460E-06,0.420
-2.450E-06,0.540
-2.440E-06,0.580
-2.430E-06,0.620
-2.420E-06,0.640
-2.410E-06,0.680
-2.400E-06,0.680
-2.390E-06,0.620
-2.380E-06,0.620
-2.370E-06,0.540
-2.360E-06,0.500
-2.350E-06,0.460
-2.340E-06,0.400
-2.330E-06,0.340
-2.320E-06,0.260
-2.310E-06,0.200
-2.300E-06,0.120
-2.290E-06,0.080
-2.280E-06,0.000
-2.270E-06,-0.060
-2.260E-06,-0.140
-2.250E-06,-0.180
-2.240E-06,-0.220
-2.230E-06,-0.280
-2.220E-06,-0.320
-2.210E-06,-0.340
-2.200E-06,-0.340
-2.190E-06,-0.340
-2.180E-06,-0.360
-2.170E-06,-0.360
-2.160E-06,-0.340
-2.150E-06,-0.320
-2.140E-06,-0.300
-2.130E-06,-0.260
-2.120E-06,-0.220
-2.110E-06,-0.200
-2.100E-06,-0.180
-2.090E-06,-0.100
-2.080E-06,-0.040
-2.070E-06,0.000
-2.060E-06,0.080
-2.050E-06,0.180
-2.040E-06,0.240
-2.030E-06,0.280
-2.020E-06,0.320
-2.010E-06,0.380
-2.000E-06,0.380
-1.990E-06,0.420
-1.980E-06,0.440
-1.970E-06,0.480
-1.960E-06,0.560
-1.950E-06,0.660
-1.940E-06,0.760
-1.930E-06,0.920
-1.920E-06,1.060
-1.910E-06,1.200
-1.900E-06,1.360
-1.890E-06,1.520
-1.880E-06,1.600
-1.870E-06,1.740
-1.860E-06,1.800
-1.850E-06,1.820
-1.840E-06,1.820
-1.830E-06,1.820
-1.820E-06,1.820
-1.810E-06,1.840
-1.800E-06,1.840
-1.790E-06,1.820
-1.780E-06,1.820
-1.770E-06,1.820
-1.760E-06,1.820
-1.750E-06,1.820
-1.740E-06,1.820
-1.730E-06,1.820
-1.720E-06,1.800
-1.710E-06,1.740
-1.700E-06,1.620
-1.690E-06,1.580
-1.680E-06,1.540
-1.670E-06,1.500
-1.660E-06,1.440
-1.650E-06,1.360
-1.640E-06,1.320
-1.630E-06,1.200
-1.620E-06,1.100
-1.610E-06,0.980
-1.600E-06,0.920
-1.590E-06,0.860
-1.580E-06,0.820
-1.570E-06,0.760
-1.560E-06,0.720
-1.550E-06,0.700
-1.540E-06,0.680
-1.530E-06,0.640
-1.520E-06,0.620
-1.510E-06,0.620
-1.500E-06,0.640
-1.490E-06,0.620
-1.480E-06,0.620
-1.470E-06,0.620
-1.460E-06,0.580
-1.450E-06,0.580
-1.440E-06,0.580
-1.430E-06,0.520
-1.420E-06,0.540
-1.410E-06,0.540
-1.400E-06,0.500
-1.390E-06,0.500
-1.380E-06,0.480
-1.370E-06,0.500
-1.360E-06,0.480
-1.350E-06,0.520
-1.340E-06,0.520
-1.330E-06,0.520
-1.320E-06,0.540
-1.310E-06,0.540
-1.300E-06,0.580
-1.290E-06,0.600
-1.280E-06,0.600
-1.270E-06,0.640
-1.260E-06,0.600
-1.250E-06,0.600
-1.240E-06,0.540
-1.230E-06,0.520
-1.220E-06,0.500
-1.210E-06,0.460
-1.200E-06,0.420
-1.190E-06,0.380
-1.180E-06,0.360
-1.170E-06,0.320
-1.160E-06,0.340
-1.150E-06,0.320
-1.140E-06,0.300
-1.130E-06,0.340
-1.120E-06,0.320
-1.110E-06,0.300
-1.100E-06,0.280
-1.090E-06,0.280
-1.080E-06,0.260
-1.070E-06,0.220
-1.060E-06,0.240
-1.050E-06,0.160
-1.040E-06,0.160
-1.030E-06,0.100
-1.020E-06,0.080
-1.010E-06,0.060
-1.000E-06,0.060
-9.900E-07,0.000
-9.800E-07,-0.020
-9.700E-07,-0.040
-9.600E-07,-0.080
-9.500E-07,-0.080
-9.400E-07,-0.120
-9.300E-07,-0.140
-9.200E-07,-0.140
-9.100E-07,-0.160
-9.000E-07,-0.200
-8.900E-07,-0.200
-8.800E-07,-0.240
-8.700E-07,-0.200
-8.600E-07,-0.220
-8.500E-07,-0.220
-8.400E-07,-0.180
-8.300E-07,-0.200
-8.200E-07,-0.160
-8.100E-07,-0.180
-8.000E-07,-0.180
-7.900E-07,-0.180
-7.800E-07,-0.180
-7.700E-07,-0.160
-7.600E-07,-0.120
-7.500E-07,-0.160
-7.400E-07,-0.180
-7.300E-07,-0.140
