mediciones/8-28/-63/WaveData651049.csv

#timebase=2000000(ps)
,#voltbase=500000(mv/100)
#size=4000
-8.350E-06,0.040
-8.340E-06,0.000
-8.330E-06,0.040
-8.320E-06,0.040
-8.310E-06,0.040
-8.300E-06,0.040
-8.290E-06,0.040
-8.280E-06,0.060
-8.270E-06,0.060
-8.260E-06,0.020
-8.250E-06,0.040
-8.240E-06,0.040
-8.230E-06,0.060
-8.220E-06,0.060
-8.210E-06,0.060
-8.200E-06,0.040
-8.190E-06,0.020
-8.180E-06,0.000
-8.170E-06,0.020
-8.160E-06,0.040
-8.150E-06,0.040
-8.140E-06,0.040
-8.130E-06,0.040
-8.120E-06,0.080
-8.110E-06,0.060
-8.100E-06,0.060
-8.090E-06,0.060
-8.080E-06,0.040
-8.070E-06,0.060
-8.060E-06,0.060
-8.050E-06,0.060
-8.040E-06,0.040
-8.030E-06,0.060
-8.020E-06,0.020
-8.010E-06,0.020
-8.000E-06,0.040
-7.990E-06,0.060
-7.980E-06,0.040
-7.970E-06,0.060
-7.960E-06,0.060
-7.950E-06,0.080
-7.940E-06,0.060
-7.930E-06,0.060
-7.920E-06,0.060
-7.910E-06,0.040
-7.900E-06,0.040
-7.890E-06,0.040
-7.880E-06,0.040
-7.870E-06,0.000
-7.860E-06,0.040
-7.850E-06,0.040
-7.840E-06,0.040
-7.830E-06,0.040
-7.820E-06,0.040
-7.810E-06,0.000
-7.800E-06,0.040
-7.790E-06,0.020
-7.780E-06,0.000
-7.770E-06,0.060
-7.760E-06,0.040
-7.750E-06,0.040
-7.740E-06,0.040
-7.730E-06,0.040
-7.720E-06,0.040
-7.710E-06,0.040
-7.700E-06,0.040
-7.690E-06,0.060
-7.680E-06,0.040
-7.670E-06,0.000
-7.660E-06,0.020
-7.650E-06,0.040
-7.640E-06,0.040
-7.630E-06,0.040
-7.620E-06,0.040
-7.610E-06,0.060
-7.600E-06,0.040
-7.590E-06,0.040
-7.580E-06,0.020
-7.570E-06,0.040
-7.560E-06,0.060
-7.550E-06,0.060
-7.540E-06,0.040
-7.530E-06,0.060
-7.520E-06,0.020
-7.510E-06,0.040
-7.500E-06,0.020
-7.490E-06,0.040
-7.480E-06,0.040
-7.470E-06,0.040
-7.460E-06,0.020
-7.450E-06,0.020
-7.440E-06,0.040
-7.430E-06,0.020
-7.420E-06,0.000
-7.410E-06,0.020
-7.400E-06,0.020
-7.390E-06,0.040
-7.380E-06,0.060
-7.370E-06,0.040
-7.360E-06,0.040
-7.350E-06,0.060
-7.340E-06,0.040
-7.330E-06,0.060
-7.320E-06,0.020
-7.310E-06,0.060
-7.300E-06,0.020
-7.290E-06,0.060
-7.280E-06,0.040
-7.270E-06,0.040
-7.260E-06,0.040
-7.250E-06,0.060
-7.240E-06,0.020
-7.230E-06,0.040
-7.220E-06,0.060
-7.210E-06,0.040
-7.200E-06,0.060
-7.190E-06,0.040
-7.180E-06,0.040
-7.170E-06,0.040
-7.160E-06,0.040
-7.150E-06,0.020
-7.140E-06,0.040
-7.130E-06,0.000
-7.120E-06,0.020
-7.110E-06,0.020
-7.100E-06,0.020
-7.090E-06,0.060
-7.080E-06,0.040
-7.070E-06,0.060
-7.060E-06,0.020
-7.050E-06,0.040
-7.040E-06,0.040
-7.030E-06,0.060
-7.020E-06,0.060
-7.010E-06,0.040
-7.000E-06,0.060
-6.990E-06,0.040
-6.980E-06,0.060
-6.970E-06,0.040
-6.960E-06,0.060
-6.950E-06,0.040
-6.940E-06,0.060
-6.930E-06,0.040
-6.920E-06,0.040
-6.910E-06,0.040
-6.900E-06,0.020
-6.890E-06,0.040
-6.880E-06,0.060
-6.870E-06,0.060
-6.860E-06,0.060
-6.850E-06,0.040
-6.840E-06,0.020
-6.830E-06,0.040
-6.820E-06,0.040
-6.810E-06,0.040
-6.800E-06,0.040
-6.790E-06,0.060
-6.780E-06,0.040
-6.770E-06,0.040
-6.760E-06,0.060
-6.750E-06,0.060
-6.740E-06,0.020
-6.730E-06,0.020
-6.720E-06,0.020
-6.710E-06,0.040
-6.700E-06,0.040
-6.690E-06,0.040
-6.680E-06,0.040
-6.670E-06,0.040
-6.660E-06,0.040
-6.650E-06,0.040
-6.640E-06,0.060
-6.630E-06,0.040
-6.620E-06,0.060
-6.610E-06,0.060
-6.600E-06,0.060
-6.590E-06,0.060
-6.580E-06,0.040
-6.570E-06,0.060
-6.560E-06,0.040
-6.550E-06,0.020
-6.540E-06,0.040
-6.530E-06,0.020
-6.520E-06,0.060
-6.510E-06,0.020
-6.500E-06,0.040
-6.490E-06,0.040
-6.480E-06,0.060
-6.470E-06,0.040
-6.460E-06,0.020
-6.450E-06,0.040
-6.440E-06,0.040
-6.430E-06,0.040
-6.420E-06,0.040
-6.410E-06,0.040
-6.400E-06,0.060
-6.390E-06,0.040
-6.380E-06,0.040
-6.370E-06,0.020
-6.360E-06,0.040
-6.350E-06,0.040
-6.340E-06,0.000
-6.330E-06,0.020
-6.320E-06,0.060
-6.310E-06,0.040
-6.300E-06,0.080
-6.290E-06,0.040
-6.280E-06,0.040
-6.270E-06,0.040
-6.260E-06,0.040
-6.250E-06,0.040
-6.240E-06,0.060
-6.230E-06,0.020
-6.220E-06,0.040
-6.210E-06,0.060
-6.200E-06,0.040
-6.190E-06,0.040
-6.180E-06,0.040
-6.170E-06,0.040
-6.160E-06,0.060
-6.150E-06,0.040
-6.140E-06,0.020
-6.130E-06,0.060
-6.120E-06,0.060
-6.110E-06,0.040
-6.100E-06,0.040
-6.090E-06,0.040
-6.080E-06,0.040
-6.070E-06,0.060
-6.060E-06,0.020
-6.050E-06,0.020
-6.040E-06,0.040
-6.030E-06,0.040
-6.020E-06,0.040
-6.010E-06,0.040
-6.000E-06,0.040
-5.990E-06,0.040
-5.980E-06,0.040
-5.970E-06,0.040
-5.960E-06,0.060
-5.950E-06,0.040
-5.940E-06,0.040
-5.930E-06,0.020
-5.920E-06,0.020
-5.910E-06,0.040
-5.900E-06,0.040
-5.890E-06,0.040
-5.880E-06,0.060
-5.870E-06,0.060
-5.860E-06,0.040
-5.850E-06,0.060
-5.840E-06,0.040
-5.830E-06,0.040
-5.820E-06,0.040
-5.810E-06,0.040
-5.800E-06,0.020
-5.790E-06,0.020
-5.780E-06,0.020
-5.770E-06,0.040
-5.760E-06,0.060
-5.750E-06,0.020
-5.740E-06,0.040
-5.730E-06,0.060
-5.720E-06,0.040
-5.710E-06,0.040
-5.700E-06,0.060
-5.690E-06,0.020
-5.680E-06,0.020
-5.670E-06,0.060
-5.660E-06,0.040
-5.650E-06,0.060
-5.640E-06,0.040
-5.630E-06,0.040
-5.620E-06,0.040
-5.610E-06,0.060
-5.600E-06,0.040
-5.590E-06,0.060
-5.580E-06,0.060
-5.570E-06,0.060
-5.560E-06,0.040
-5.550E-06,0.040
-5.540E-06,0.020
-5.530E-06,0.040
-5.520E-06,0.040
-5.510E-06,0.040
-5.500E-06,0.060
-5.490E-06,0.040
-5.480E-06,0.040
-5.470E-06,0.020
-5.460E-06,0.020
-5.450E-06,0.060
-5.440E-06,0.060
-5.430E-06,0.040
-5.420E-06,0.060
-5.410E-06,0.060
-5.400E-06,0.060
-5.390E-06,0.060
-5.380E-06,0.020
-5.370E-06,0.020
-5.360E-06,0.040
-5.350E-06,0.040
-5.340E-06,0.040
-5.330E-06,0.040
-5.320E-06,0.020
-5.310E-06,0.060
-5.300E-06,0.060
-5.290E-06,0.040
-5.280E-06,0.040
-5.270E-06,0.040
-5.260E-06,0.040
-5.250E-06,0.000
-5.240E-06,0.020
-5.230E-06,0.040
-5.220E-06,0.040
-5.210E-06,0.020
-5.200E-06,0.040
-5.190E-06,0.060
-5.180E-06,0.040
-5.170E-06,0.040
-5.160E-06,0.000
-5.150E-06,0.020
-5.140E-06,0.020
-5.130E-06,0.040
-5.120E-06,0.020
-5.110E-06,0.020
-5.100E-06,0.000
-5.090E-06,0.020
-5.080E-06,0.000
-5.070E-06,0.040
-5.060E-06,0.060
-5.050E-06,0.040
-5.040E-06,0.040
-5.030E-06,0.040
-5.020E-06,0.040
-5.010E-06,0.040
-5.000E-06,0.000
-4.990E-06,0.040
-4.980E-06,0.020
-4.970E-06,0.020
-4.960E-06,0.060
-4.950E-06,0.020
-4.940E-06,0.040
-4.930E-06,0.040
-4.920E-06,0.060
-4.910E-06,0.020
-4.900E-06,0.040
-4.890E-06,0.040
-4.880E-06,0.040
-4.870E-06,0.080
-4.860E-06,0.040
-4.850E-06,0.020
-4.840E-06,0.060
-4.830E-06,0.040
-4.820E-06,0.060
-4.810E-06,0.040
-4.800E-06,0.060
-4.790E-06,0.020
-4.780E-06,0.040
-4.770E-06,0.080
-4.760E-06,0.060
-4.750E-06,0.040
-4.740E-06,0.060
-4.730E-06,0.040
-4.720E-06,0.040
-4.710E-06,0.040
-4.700E-06,0.040
-4.690E-06,0.060
-4.680E-06,0.020
-4.670E-06,0.040
-4.660E-06,0.040
-4.650E-06,0.060
-4.640E-06,0.040
-4.630E-06,0.040
-4.620E-06,0.040
-4.610E-06,0.020
-4.600E-06,0.040
-4.590E-06,0.060
-4.580E-06,0.040
-4.570E-06,0.020
-4.560E-06,0.040
-4.550E-06,0.060
-4.540E-06,0.060
-4.530E-06,0.020
-4.520E-06,0.020
-4.510E-06,0.020
-4.500E-06,0.020
-4.490E-06,0.040
-4.480E-06,0.040
-4.470E-06,0.020
-4.460E-06,0.020
-4.450E-06,0.040
-4.440E-06,0.040
-4.430E-06,0.020
-4.420E-06,0.040
-4.410E-06,0.040
-4.400E-06,0.080
-4.390E-06,0.060
-4.380E-06,0.040
-4.370E-06,0.040
-4.360E-06,0.060
-4.350E-06,0.040
-4.340E-06,0.040
-4.330E-06,0.040
-4.320E-06,0.080
-4.310E-06,0.060
-4.300E-06,0.060
-4.290E-06,0.080
-4.280E-06,0.080
-4.270E-06,0.040
-4.260E-06,0.020
-4.250E-06,0.020
-4.240E-06,0.020
-4.230E-06,0.060
-4.220E-06,0.020
-4.210E-06,0.060
-4.200E-06,0.060
-4.190E-06,0.000
-4.180E-06,0.000
-4.170E-06,-0.020
-4.160E-06,-0.420
-4.150E-06,-1.260
-4.140E-06,-2.280
-4.130E-06,-3.180
-4.120E-06,-3.340
-4.110E-06,-2.280
-4.100E-06,-1.660
-4.090E-06,-1.400
-4.080E-06,1.160
-4.070E-06,1.620
-4.060E-06,1.820
-4.050E-06,1.820
-4.040E-06,1.800
-4.030E-06,1.820
-4.020E-06,1.840
-4.010E-06,1.820
-4.000E-06,1.820
-3.990E-06,0.920
-3.980E-06,0.500
-3.970E-06,-0.360
-3.960E-06,-0.840
-3.950E-06,-0.800
-3.940E-06,-0.500
-3.930E-06,-0.260
-3.920E-06,-0.120
-3.910E-06,-0.040
-3.900E-06,-0.200
-3.890E-06,-0.620
-3.880E-06,-1.040
-3.870E-06,-1.520
-3.860E-06,-1.900
-3.850E-06,-2.060
-3.840E-06,-1.940
-3.830E-06,-1.860
-3.820E-06,-1.440
-3.810E-06,-0.780
-3.800E-06,-0.200
-3.790E-06,0.420
-3.780E-06,1.060
-3.770E-06,1.500
-3.760E-06,1.680
-3.750E-06,1.740
-3.740E-06,1.620
-3.730E-06,1.220
-3.720E-06,0.800
-3.710E-06,0.320
-3.700E-06,-0.180
-3.690E-06,-0.500
-3.680E-06,-0.760
-3.670E-06,-0.900
-3.660E-06,-0.920
-3.650E-06,-0.840
-3.640E-06,-0.740
-3.630E-06,-0.620
-3.620E-06,-0.500
-3.610E-06,-0.340
-3.600E-06,-0.160
-3.590E-06,-0.020
-3.580E-06,0.200
-3.570E-06,0.400
-3.560E-06,0.600
-3.550E-06,0.760
-3.540E-06,0.860
-3.530E-06,0.920
-3.520E-06,0.920
-3.510E-06,0.880
-3.500E-06,0.800
-3.490E-06,0.680
-3.480E-06,0.500
-3.470E-06,0.320
-3.460E-06,0.200
-3.450E-06,0.060
-3.440E-06,-0.100
-3.430E-06,-0.240
-3.420E-06,-0.340
-3.410E-06,-0.440
-3.400E-06,-0.520
-3.390E-06,-0.600
-3.380E-06,-0.600
-3.370E-06,-0.620
-3.360E-06,-0.580
-3.350E-06,-0.500
-3.340E-06,-0.360
-3.330E-06,-0.140
-3.320E-06,0.060
-3.310E-06,0.300
-3.300E-06,0.520
-3.290E-06,0.680
-3.280E-06,0.780
-3.270E-06,0.820
-3.260E-06,0.800
-3.250E-06,0.720
-3.240E-06,0.520
-3.230E-06,0.320
-3.220E-06,0.060
-3.210E-06,-0.040
-3.200E-06,-0.360
-3.190E-06,-0.440
-3.180E-06,-0.480
-3.170E-06,-0.500
-3.160E-06,-0.520
-3.150E-06,-0.460
-3.140E-06,-0.380
-3.130E-06,-0.280
-3.120E-06,-0.200
-3.110E-06,-0.100
-3.100E-06,-0.040
-3.090E-06,0.000
-3.080E-06,0.040
-3.070E-06,0.080
-3.060E-06,0.100
-3.050E-06,0.100
-3.040E-06,0.120
-3.030E-06,0.140
-3.020E-06,0.200
-3.010E-06,0.200
-3.000E-06,0.280
-2.990E-06,0.240
-2.980E-06,0.200
-2.970E-06,0.120
-2.960E-06,0.080
-2.950E-06,0.040
-2.940E-06,-0.020
-2.930E-06,-0.120
-2.920E-06,-0.240
-2.910E-06,-0.180
-2.900E-06,-0.260
-2.890E-06,-0.240
-2.880E-06,-0.280
-2.870E-06,-0.180
-2.860E-06,-0.140
-2.850E-06,-0.100
-2.840E-06,-0.060
-2.830E-06,0.060
-2.820E-06,0.060
-2.810E-06,0.100
-2.800E-06,0.120
-2.790E-06,0.160
-2.780E-06,0.160
-2.770E-06,0.100
-2.760E-06,0.140
-2.750E-06,0.060
-2.740E-06,0.080
-2.730E-06,-0.020
-2.720E-06,0.060
-2.710E-06,0.080
-2.700E-06,0.020
-2.690E-06,0.020
-2.680E-06,-0.020
-2.670E-06,0.000
-2.660E-06,-0.020
-2.650E-06,-0.060
-2.640E-06,-0.040
-2.630E-06,-0.020
-2.620E-06,0.000
-2.610E-06,-0.040
-2.600E-06,-0.020
-2.590E-06,0.020
-2.580E-06,0.000
-2.570E-06,-0.060
-2.560E-06,-0.080
-2.550E-06,-0.060
-2.540E-06,-0.080
-2.530E-06,-0.100
-2.520E-06,-0.140
-2.510E-06,-0.180
-2.500E-06,-0.160
-2.490E-06,-0.180
-2.480E-06,-0.180
-2.470E-06,-0.160
-2.460E-06,-0.060
-2.450E-06,-0.040
-2.440E-06,-0.020
-2.430E-06,0.000
-2.420E-06,0.020
-2.410E-06,0.060
-2.400E-06,0.040
-2.390E-06,0.040
-2.380E-06,0.020
-2.370E-06,-0.020
-2.360E-06,-0.040
-2.350E-06,-0.100
-2.340E-06,-0.120
-2.330E-06,-0.200
-2.320E-06,-0.180
-2.310E-06,-0.160
-2.300E-06,-0.180
-2.290E-06,-0.100
-2.280E-06,0.140
-2.270E-06,0.620
-2.260E-06,1.180
-2.250E-06,1.640
-2.240E-06,1.820
-2.230E-06,1.760
-2.220E-06,1.340
-2.210E-06,0.920
-2.200E-06,0.020
-2.190E-06,-0.440
-2.180E-06,-1.220
-2.170E-06,-1.520
-2.160E-06,-1.840
-2.150E-06,-1.820
-2.140E-06,-1.780
-2.130E-06,-1.500
-2.120E-06,-1.180
-2.110E-06,-0.920
-2.100E-06,-0.740
-2.090E-06,-0.640
-2.080E-06,-0.560
-2.070E-06,-0.440
-2.060E-06,-0.380
-2.050E-06,-0.240
-2.040E-06,-0.260
-2.030E-06,-0.240
-2.020E-06,-0.220
-2.010E-06,-0.040
-2.000E-06,0.160
-1.990E-06,0.520
-1.980E-06,0.880
-1.970E-06,1.060
-1.960E-06,1.340
-1.950E-06,1.240
-1.940E-06,1.040
-1.930E-06,0.760
-1.920E-06,0.420
-1.910E-06,0.120
-1.900E-06,-0.200
-1.890E-06,-0.600
-1.880E-06,-0.880
-1.870E-06,-1.120
-1.860E-06,-1.180
-1.850E-06,-1.220
-1.840E-06,-0.980
-1.830E-06,-0.860
-1.820E-06,-0.520
-1.810E-06,-0.240
-1.800E-06,0.060
-1.790E-06,0.220
-1.780E-06,0.340
-1.770E-06,0.380
-1.760E-06,0.280
-1.750E-06,0.200
-1.740E-06,0.140
-1.730E-06,-0.020
-1.720E-06,-0.120
-1.710E-06,-0.260
-1.700E-06,-0.460
-1.690E-06,-0.540
-1.680E-06,-0.440
-1.670E-06,-0.620
-1.660E-06,-0.480
-1.650E-06,-0.620
-1.640E-06,-0.480
-1.630E-06,-0.600
-1.620E-06,-0.600
-1.610E-06,-0.600
-1.600E-06,-0.640
-1.590E-06,-0.700
-1.580E-06,-0.600
-1.570E-06,-0.600
-1.560E-06,-0.540
-1.550E-06,-0.500
-1.540E-06,-0.420
-1.530E-06,-0.260
-1.520E-06,-0.040
-1.510E-06,0.140
-1.500E-06,0.260
-1.490E-06,0.360
-1.480E-06,0.380
-1.470E-06,0.320
-1.460E-06,0.160
-1.450E-06,0.000
-1.440E-06,-0.060
-1.430E-06,-0.440
-1.420E-06,-0.340
-1.410E-06,-0.640
-1.400E-06,-0.560
-1.390E-06,-0.720
-1.380E-06,-0.620
-1.370E-06,-0.600
-1.360E-06,-0.500
-1.350E-06,-0.400
-1.340E-06,-0.220
-1.330E-06,-0.120
-1.320E-06,-0.180
-1.310E-06,-0.200
-1.300E-06,-0.220
-1.290E-06,-0.020
-1.280E-06,0.080
-1.270E-06,0.140
-1.260E-06,0.140
-1.250E-06,0.080
-1.240E-06,-0.020
-1.230E-06,-0.120
-1.220E-06,-0.180
-1.210E-06,-0.220
-1.200E-06,-0.280
-1.190E-06,-0.260
-1.180E-06,-0.260
-1.170E-06,-0.280
-1.160E-06,-0.280
-1.150E-06,-0.300
-1.140E-06,-0.420
-1.130E-06,-0.520
-1.120E-06,-0.640
-1.110E-06,-0.780
-1.100E-06,-0.820
-1.090E-06,-0.800
-1.080E-06,-0.780
-1.070E-06,-0.780
-1.060E-06,-0.760
-1.050E-06,-0.620
-1.040E-06,-0.580
-1.030E-06,-0.480
-1.020E-06,-0.440
-1.010E-06,-0.320
-1.000E-06,-0.380
-9.900E-07,-0.340
-9.800E-07,-0.400
-9.700E-07,-0.520
-9.600E-07,-0.500
-9.500E-07,-0.580
-9.400E-07,-0.600
-9.300E-07,-0.640
-9.200E-07,-0.660
-9.100E-07,-0.660
-9.000E-07,-0.700
-8.900E-07,-0.680
-8.800E-07,-0.600
-8.700E-07,-0.640
-8.600E-07,-0.600
-8.500E-07,-0.560
-8.400E-07,-0.540
-8.300E-07,-0.500
-8.200E-07,-0.500
-8.100E-07,-0.580
-8.000E-07,-0.580
-7.900E-07,-0.620
-7.800E-07,-0.560
-7.700E-07,-0.560
-7.600E-07,-0.560
-7.500E-07,-0.560
-7.400E-07,-0.480
-7.300E-07,-0.520
-7.200E-07,-0.460
-7.100E-07,-0.480
-7.000E-07,-0.440
-6.900E-07,-0.460
-6.800E-07,-0.440
-6.700E-07,-0.420
-6.600E-07,-0.280
-6.500E-07,-0.360
-6.400E-07,-0.500
-6.300E-07,-0.500
-6.200E-07,-0.500
-6.100E-07,-0.440
-6.000E-07,-0.480
-5.900E-07,-0.440
-5.800E-07,-0.360
-5.700E-07,-0.400
-5.600E-07,-0.260
-5.500E-07,-0.300
-5.400E-07,-0.440
-5.300E-07,-0.380
-5.200E-07,-0.420
-5.100E-07,-0.380
-5.000E-07,-0.380
-4.900E-07,-0.300
-4.800E-07,-0.200
-4.700E-07,-0.160
-4.600E-07,-0.280
-4.500E-07,-0.280
-4.400E-07,-0.400
-4.300E-07,-0.520
-4.200E-07,-0.400
-4.100E-07,-0.580
-4.000E-07,-0.600
-3.900E-07,-0.800
-3.800E-07,-0.560
-3.700E-07,-0.480
-3.600E-07,-0.780
-3.500E-07,-0.940
-3.400E-07,-0.660
-3.300E-07,-1.060
-3.200E-07,-1.000
-3.100E-07,-1.280
-3.000E-07,-1.120
-2.900E-07,-0.860
-2.800E-07,-1.000
-2.700E-07,-1.080
-2.600E-07,-0.520
-2.500E-07,-1.040
-2.400E-07,-1.520
-2.300E-07,-0.620
-2.200E-07,0.940
-2.100E-07,1.800
-2.000E-07,1.820
-1.900E-07,1.440
-1.800E-07,1.460
-1.700E-07,-3.600
-1.600E-07,-3.000
-1.500E-07,-3.600
-1.400E-07,-3.600
-1.300E-07,-3.600
-1.200E-07,-3.600
-1.100E-07,-3.160
-1.000E-07,-2.980
-9.000E-08,-2.880
-8.000E-08,-2.960
-7.000E-08,-3.000
-6.000E-08,-2.120
-5.000E-08,-1.100
-4.000E-08,-0.140
-3.000E-08,0.700
-2.000E-08,1.240
-1.000E-08,1.340
0.000E+00,1.360
1.000E-08,1.160
2.000E-08,1.080
3.000E-08,1.200
4.000E-08,1.540
5.000E-08,1.780
6.000E-08,1.820
7.000E-08,1.560
8.000E-08,1.160
9.000E-08,0.600
1.000E-07,-0.020
1.100E-07,-0.520
1.200E-07,-0.920
1.300E-07,-1.320
1.400E-07,-1.820
1.500E-07,-2.120
1.600E-07,-2.540
1.700E-07,-2.800
1.800E-07,-2.900
1.900E-07,-2.920
2.000E-07,-2.600
2.100E-07,-2.160
2.200E-07,-1.760
2.300E-07,-1.060
2.400E-07,-0.420
2.500E-07,-0.180
2.600E-07,0.220
2.700E-07,-0.020
2.800E-07,-0.060
2.900E-07,-0.340
3.000E-07,-0.600
3.100E-07,-0.840
3.200E-07,-1.020
3.300E-07,-1.200
3.400E-07,-1.400
3.500E-07,-1.580
3.600E-07,-1.600
3.700E-07,-1.660
3.800E-07,-1.560
3.900E-07,-1.500
4.000E-07,-1.240
4.100E-07,-1.100
4.200E-07,-0.740
4.300E-07,-0.600
4.400E-07,-0.260
4.500E-07,-0.200
4.600E-07,-0.200
4.700E-07,-0.160
4.800E-07,0.000
4.900E-07,0.220
5.000E-07,0.480
5.100E-07,0.700
5.200E-07,0.940
5.300E-07,1.040
5.400E-07,1.100
5.500E-07,0.960
5.600E-07,0.780
5.700E-07,0.600
5.800E-07,0.260
5.900E-07,-0.100
6.000E-07,-0.500
6.100E-07,-1.020
6.200E-07,-1.440
6.300E-07,-1.860
6.400E-07,-1.940
6.500E-07,-2.120
6.600E-07,-2.040
6.700E-07,-1.960
6.800E-07,-1.880
6.900E-07,-1.780
7.000E-07,-1.600
7.100E-07,-1.560
7.200E-07,-1.460
7.300E-07,-1.480
7.400E-07,-1.520
7.500E-07,-1.600
7.600E-07,-1.680
7.700E-07,-1.920
7.800E-07,-1.960
7.900E-07,-1.980
8.000E-07,-2.100
8.100E-07,-2.220
8.200E-07,-2.460
8.300E-07,-2.820
8.400E-07,-2.800
8.500E-07,-2.720
8.600E-07,-2.720
8.700E-07,-2.700
8.800E-07,-2.740
8.900E-07,-2.940
9.000E-07,-3.060
9.100E-07,-3.100
9.200E-07,-3.020
9.300E-07,-3.480
9.400E-07,-3.600
9.500E-07,-3.600
9.600E-07,-3.600
9.700E-07,-3.600
9.800E-07,-3.600
9.900E-07,-3.600
1.000E-06,-3.600
1.010E-06,-3.500
1.020E-06,-3.480
1.030E-06,-3.060
1.040E-06,-2.840
1.050E-06,-2.480
1.060E-06,-2.240
1.070E-06,-2.040
1.080E-06,-1.880
1.090E-06,-1.720
1.100E-06,-1.420
1.110E-06,-1.020
1.120E-06,-0.640
1.130E-06,-0.320
1.140E-06,-0.020
1.150E-06,0.160
1.160E-06,0.280
1.170E-06,0.400
1.180E-06,0.400
1.190E-06,0.400
1.200E-06,0.260
1.210E-06,0.120
1.220E-06,-0.020
1.230E-06,-0.120
1.240E-06,-0.180
1.250E-06,-0.280
1.260E-06,-0.280
1.270E-06,-0.200
1.280E-06,-0.340
1.290E-06,-0.400
1.300E-06,-0.340
1.310E-06,-0.260
1.320E-06,-0.080
1.330E-06,0.040
1.340E-06,0.120
1.350E-06,0.180
1.360E-06,0.120
1.370E-06,0.100
1.380E-06,0.040
1.390E-06,0.000
1.400E-06,-0.120
1.410E-06,-0.240
1.420E-06,-0.440
1.430E-06,-0.620
1.440E-06,-0.740
1.450E-06,-0.900
1.460E-06,-0.980
1.470E-06,-1.020
1.480E-06,-1.060
1.490E-06,-1.040
1.500E-06,-1.020
1.510E-06,-1.000
1.520E-06,-0.980
1.530E-06,-0.920
1.540E-06,-0.880
1.550E-06,-0.820
1.560E-06,-0.700
1.570E-06,-0.500
1.580E-06,-0.320
1.590E-06,-0.080
1.600E-06,0.040
1.610E-06,0.160
1.620E-06,0.260
1.630E-06,0.360
1.640E-06,0.460
1.650E-06,0.480
1.660E-06,0.560
1.670E-06,0.560
1.680E-06,0.500
1.690E-06,0.440
1.700E-06,0.360
1.710E-06,0.240
1.720E-06,0.120
1.730E-06,-0.020
1.740E-06,-0.120
1.750E-06,-0.240
1.760E-06,-0.260
1.770E-06,-0.280
1.780E-06,-0.280
1.790E-06,-0.280
1.800E-06,-0.260
1.810E-06,-0.180
1.820E-06,-0.160
1.830E-06,-0.080
1.840E-06,0.040
1.850E-06,0.080
1.860E-06,0.140
1.870E-06,0.200
1.880E-06,0.180
1.890E-06,0.240
1.900E-06,0.240
1.910E-06,0.300
1.920E-06,0.340
1.930E-06,0.360
1.940E-06,0.340
1.950E-06,0.320
1.960E-06,0.340
1.970E-06,0.300
1.980E-06,0.300
1.990E-06,0.260
2.000E-06,0.240
2.010E-06,0.220
2.020E-06,0.200
2.030E-06,0.220
2.040E-06,0.200
2.050E-06,0.200
2.060E-06,0.160
2.070E-06,0.180
2.080E-06,0.100
2.090E-06,0.140
2.100E-06,0.120
2.110E-06,0.180
2.120E-06,0.200
2.130E-06,0.240
2.140E-06,0.260
2.150E-06,0.200
2.160E-06,0.220
2.170E-06,0.180
2.180E-06,0.120
2.190E-06,0.120
2.200E-06,0.060
2.210E-06,0.000
2.220E-06,0.000
2.230E-06,0.000
2.240E-06,-0.040
2.250E-06,0.020
2.260E-06,0.040
2.270E-06,0.020
2.280E-06,0.020
2.290E-06,0.040
2.300E-06,0.060
2.310E-06,0.100
2.320E-06,0.080
2.330E-06,0.080
2.340E-06,0.120
2.350E-06,0.160
2.360E-06,0.160
2.370E-06,0.160
2.380E-06,0.160
2.390E-06,0.140
2.400E-06,0.160
2.410E-06,0.220
2.420E-06,0.220
2.430E-06,0.220
2.440E-06,0.260
2.450E-06,0.200
2.460E-06,0.160
2.470E-06,0.080
2.480E-06,0.000
2.490E-06,-0.080
2.500E-06,-0.120
2.510E-06,-0.100
2.520E-06,-0.120
2.530E-06,-0.140
2.540E-06,-0.140
2.550E-06,-0.200
2.560E-06,-0.180
2.570E-06,-0.140
2.580E-06,-0.140
2.590E-06,-0.100
2.600E-06,-0.040
2.610E-06,-0.060
2.620E-06,-0.060
2.630E-06,0.000
2.640E-06,-0.020
2.650E-06,0.000
2.660E-06,0.000
2.670E-06,0.000
2.680E-06,-0.060
2.690E-06,-0.100
2.700E-06,-0.100
2.710E-06,-0.100
2.720E-06,-0.080
2.730E-06,-0.100
2.740E-06,-0.060
2.750E-06,-0.080
2.760E-06,-0.040
2.770E-06,-0.080
2.780E-06,-0.060
2.790E-06,-0.100
2.800E-06,-0.120
2.810E-06,-0.160
2.820E-06,-0.160
2.830E-06,-0.140
2.840E-06,-0.140
2.850E-06,-0.080
2.860E-06,-0.040
2.870E-06,0.000
2.880E-06,0.020
2.890E-06,0.080
2.900E-06,0.120
2.910E-06,0.160
2.920E-06,0.240
2.930E-06,0.220
2.940E-06,0.240
2.950E-06,0.260
2.960E-06,0.260
2.970E-06,0.260
2.980E-06,0.300
2.990E-06,0.260
3.000E-06,0.300
3.010E-06,0.280
3.020E-06,0.300
3.030E-06,0.320
3.040E-06,0.340
3.050E-06,0.400
3.060E-06,0.440
3.070E-06,0.460
3.080E-06,0.500
3.090E-06,0.500
3.100E-06,0.500
3.110E-06,0.480
3.120E-06,0.420
3.130E-06,0.380
3.140E-06,0.340
3.150E-06,0.300
3.160E-06,0.220
3.170E-06,0.140
3.180E-06,0.100
3.190E-06,0.080
3.200E-06,0.140
3.210E-06,0.080
3.220E-06,0.120
3.230E-06,0.180
3.240E-06,0.180
3.250E-06,0.180
3.260E-06,0.160
3.270E-06,0.080
3.280E-06,0.060
3.290E-06,-0.040
