mediciones/8-28/-63/WaveData651045.csv

#timebase=2000000(ps)
,#voltbase=500000(mv/100)
#size=4000
-8.350E-06,0.040
-8.340E-06,0.040
-8.330E-06,0.040
-8.320E-06,0.060
-8.310E-06,0.040
-8.300E-06,0.040
-8.290E-06,0.060
-8.280E-06,0.040
-8.270E-06,0.060
-8.260E-06,0.060
-8.250E-06,0.040
-8.240E-06,0.040
-8.230E-06,0.060
-8.220E-06,0.040
-8.210E-06,0.060
-8.200E-06,0.060
-8.190E-06,0.060
-8.180E-06,0.000
-8.170E-06,0.020
-8.160E-06,0.040
-8.150E-06,0.060
-8.140E-06,0.040
-8.130E-06,0.040
-8.120E-06,0.060
-8.110E-06,0.040
-8.100E-06,0.040
-8.090E-06,0.040
-8.080E-06,0.040
-8.070E-06,0.060
-8.060E-06,0.060
-8.050E-06,0.040
-8.040E-06,0.040
-8.030E-06,0.000
-8.020E-06,0.060
-8.010E-06,0.060
-8.000E-06,0.040
-7.990E-06,0.040
-7.980E-06,0.040
-7.970E-06,0.040
-7.960E-06,0.020
-7.950E-06,0.020
-7.940E-06,0.040
-7.930E-06,0.040
-7.920E-06,0.040
-7.910E-06,0.040
-7.900E-06,0.060
-7.890E-06,0.020
-7.880E-06,0.060
-7.870E-06,0.040
-7.860E-06,0.040
-7.850E-06,0.040
-7.840E-06,0.040
-7.830E-06,0.040
-7.820E-06,0.000
-7.810E-06,0.060
-7.800E-06,0.040
-7.790E-06,0.060
-7.780E-06,0.080
-7.770E-06,0.080
-7.760E-06,0.000
-7.750E-06,0.040
-7.740E-06,0.040
-7.730E-06,0.040
-7.720E-06,0.040
-7.710E-06,0.060
-7.700E-06,0.040
-7.690E-06,0.040
-7.680E-06,0.040
-7.670E-06,0.060
-7.660E-06,0.060
-7.650E-06,0.000
-7.640E-06,0.000
-7.630E-06,0.060
-7.620E-06,0.060
-7.610E-06,0.040
-7.600E-06,0.040
-7.590E-06,0.040
-7.580E-06,0.040
-7.570E-06,0.040
-7.560E-06,0.040
-7.550E-06,0.060
-7.540E-06,0.080
-7.530E-06,0.040
-7.520E-06,0.040
-7.510E-06,0.040
-7.500E-06,0.060
-7.490E-06,0.040
-7.480E-06,0.040
-7.470E-06,0.040
-7.460E-06,0.040
-7.450E-06,0.040
-7.440E-06,0.040
-7.430E-06,0.020
-7.420E-06,0.040
-7.410E-06,0.020
-7.400E-06,0.020
-7.390E-06,0.020
-7.380E-06,0.040
-7.370E-06,0.060
-7.360E-06,0.040
-7.350E-06,0.060
-7.340E-06,0.040
-7.330E-06,0.060
-7.320E-06,0.040
-7.310E-06,0.040
-7.300E-06,0.040
-7.290E-06,0.040
-7.280E-06,0.040
-7.270E-06,0.040
-7.260E-06,0.060
-7.250E-06,0.080
-7.240E-06,0.000
-7.230E-06,0.040
-7.220E-06,0.040
-7.210E-06,0.040
-7.200E-06,0.060
-7.190E-06,0.040
-7.180E-06,0.040
-7.170E-06,0.020
-7.160E-06,0.040
-7.150E-06,0.060
-7.140E-06,0.060
-7.130E-06,0.060
-7.120E-06,0.060
-7.110E-06,0.040
-7.100E-06,0.040
-7.090E-06,0.060
-7.080E-06,0.060
-7.070E-06,0.040
-7.060E-06,0.040
-7.050E-06,0.040
-7.040E-06,0.040
-7.030E-06,0.040
-7.020E-06,0.000
-7.010E-06,0.060
-7.000E-06,0.040
-6.990E-06,0.060
-6.980E-06,0.020
-6.970E-06,0.040
-6.960E-06,0.080
-6.950E-06,0.060
-6.940E-06,0.040
-6.930E-06,0.040
-6.920E-06,0.060
-6.910E-06,0.040
-6.900E-06,0.040
-6.890E-06,0.040
-6.880E-06,0.040
-6.870E-06,0.040
-6.860E-06,0.060
-6.850E-06,0.060
-6.840E-06,0.040
-6.830E-06,0.020
-6.820E-06,0.020
-6.810E-06,0.040
-6.800E-06,0.040
-6.790E-06,0.040
-6.780E-06,0.020
-6.770E-06,0.020
-6.760E-06,0.020
-6.750E-06,0.040
-6.740E-06,0.020
-6.730E-06,0.040
-6.720E-06,0.060
-6.710E-06,0.060
-6.700E-06,0.040
-6.690E-06,0.060
-6.680E-06,0.060
-6.670E-06,0.060
-6.660E-06,0.040
-6.650E-06,0.060
-6.640E-06,0.040
-6.630E-06,0.040
-6.620E-06,0.060
-6.610E-06,0.040
-6.600E-06,0.040
-6.590E-06,0.060
-6.580E-06,0.020
-6.570E-06,0.040
-6.560E-06,0.040
-6.550E-06,0.040
-6.540E-06,0.020
-6.530E-06,0.040
-6.520E-06,0.000
-6.510E-06,0.060
-6.500E-06,0.040
-6.490E-06,0.040
-6.480E-06,0.020
-6.470E-06,0.060
-6.460E-06,0.040
-6.450E-06,0.040
-6.440E-06,0.040
-6.430E-06,0.060
-6.420E-06,0.060
-6.410E-06,0.040
-6.400E-06,0.040
-6.390E-06,0.040
-6.380E-06,0.040
-6.370E-06,0.040
-6.360E-06,0.040
-6.350E-06,0.040
-6.340E-06,0.040
-6.330E-06,0.040
-6.320E-06,0.040
-6.310E-06,0.040
-6.300E-06,0.040
-6.290E-06,0.060
-6.280E-06,0.040
-6.270E-06,0.020
-6.260E-06,0.060
-6.250E-06,0.040
-6.240E-06,0.040
-6.230E-06,0.020
-6.220E-06,0.040
-6.210E-06,0.040
-6.200E-06,0.040
-6.190E-06,0.040
-6.180E-06,0.060
-6.170E-06,0.060
-6.160E-06,0.060
-6.150E-06,0.020
-6.140E-06,0.040
-6.130E-06,0.040
-6.120E-06,0.040
-6.110E-06,0.040
-6.100E-06,0.040
-6.090E-06,0.040
-6.080E-06,0.060
-6.070E-06,0.040
-6.060E-06,0.060
-6.050E-06,0.020
-6.040E-06,0.060
-6.030E-06,0.020
-6.020E-06,0.020
-6.010E-06,0.060
-6.000E-06,0.060
-5.990E-06,0.040
-5.980E-06,0.040
-5.970E-06,0.040
-5.960E-06,0.060
-5.950E-06,0.040
-5.940E-06,0.040
-5.930E-06,0.040
-5.920E-06,0.060
-5.910E-06,0.040
-5.900E-06,0.020
-5.890E-06,0.020
-5.880E-06,0.040
-5.870E-06,0.040
-5.860E-06,0.060
-5.850E-06,0.040
-5.840E-06,0.040
-5.830E-06,0.040
-5.820E-06,0.060
-5.810E-06,0.040
-5.800E-06,0.040
-5.790E-06,0.060
-5.780E-06,0.000
-5.770E-06,0.060
-5.760E-06,0.040
-5.750E-06,0.040
-5.740E-06,0.040
-5.730E-06,0.040
-5.720E-06,0.080
-5.710E-06,0.040
-5.700E-06,0.040
-5.690E-06,0.040
-5.680E-06,0.040
-5.670E-06,0.020
-5.660E-06,0.060
-5.650E-06,0.020
-5.640E-06,0.060
-5.630E-06,0.020
-5.620E-06,0.020
-5.610E-06,0.040
-5.600E-06,0.060
-5.590E-06,0.080
-5.580E-06,0.040
-5.570E-06,0.040
-5.560E-06,0.020
-5.550E-06,0.060
-5.540E-06,0.040
-5.530E-06,0.060
-5.520E-06,0.060
-5.510E-06,0.060
-5.500E-06,0.040
-5.490E-06,0.060
-5.480E-06,0.040
-5.470E-06,0.060
-5.460E-06,0.020
-5.450E-06,0.020
-5.440E-06,0.020
-5.430E-06,0.020
-5.420E-06,0.020
-5.410E-06,0.040
-5.400E-06,0.040
-5.390E-06,0.040
-5.380E-06,0.040
-5.370E-06,0.060
-5.360E-06,0.040
-5.350E-06,0.040
-5.340E-06,0.020
-5.330E-06,0.040
-5.320E-06,0.040
-5.310E-06,0.040
-5.300E-06,0.060
-5.290E-06,0.060
-5.280E-06,0.040
-5.270E-06,0.020
-5.260E-06,0.000
-5.250E-06,0.040
-5.240E-06,0.040
-5.230E-06,0.040
-5.220E-06,0.060
-5.210E-06,0.040
-5.200E-06,0.040
-5.190E-06,0.040
-5.180E-06,-0.120
-5.170E-06,-0.660
-5.160E-06,-1.600
-5.150E-06,-2.620
-5.140E-06,-3.280
-5.130E-06,-3.300
-5.120E-06,-1.540
-5.110E-06,-1.040
-5.100E-06,-1.180
-5.090E-06,1.560
-5.080E-06,1.820
-5.070E-06,1.820
-5.060E-06,1.820
-5.050E-06,1.800
-5.040E-06,1.820
-5.030E-06,1.840
-5.020E-06,1.820
-5.010E-06,1.840
-5.000E-06,0.440
-4.990E-06,0.240
-4.980E-06,-0.580
-4.970E-06,-0.920
-4.960E-06,-0.780
-4.950E-06,-0.380
-4.940E-06,-0.160
-4.930E-06,-0.260
-4.920E-06,-0.320
-4.910E-06,-0.520
-4.900E-06,-0.860
-4.890E-06,-1.260
-4.880E-06,-1.640
-4.870E-06,-1.860
-4.860E-06,-1.960
-4.850E-06,-1.820
-4.840E-06,-1.660
-4.830E-06,-1.200
-4.820E-06,-0.500
-4.810E-06,0.100
-4.800E-06,0.780
-4.790E-06,1.340
-4.780E-06,1.720
-4.770E-06,1.760
-4.760E-06,1.700
-4.750E-06,1.520
-4.740E-06,1.060
-4.730E-06,0.600
-4.720E-06,0.180
-4.710E-06,-0.260
-4.700E-06,-0.600
-4.690E-06,-0.840
-4.680E-06,-0.920
-4.670E-06,-0.960
-4.660E-06,-0.940
-4.650E-06,-0.740
-4.640E-06,-0.560
-4.630E-06,-0.520
-4.620E-06,-0.280
-4.610E-06,-0.120
-4.600E-06,0.040
-4.590E-06,0.260
-4.580E-06,0.460
-4.570E-06,0.680
-4.560E-06,0.880
-4.550E-06,0.920
-4.540E-06,0.980
-4.530E-06,0.960
-4.520E-06,0.840
-4.510E-06,0.760
-4.500E-06,0.580
-4.490E-06,0.420
-4.480E-06,0.260
-4.470E-06,0.080
-4.460E-06,-0.100
-4.450E-06,-0.220
-4.440E-06,-0.340
-4.430E-06,-0.460
-4.420E-06,-0.540
-4.410E-06,-0.620
-4.400E-06,-0.680
-4.390E-06,-0.720
-4.380E-06,-0.680
-4.370E-06,-0.580
-4.360E-06,-0.460
-4.350E-06,-0.240
-4.340E-06,-0.040
-4.330E-06,0.180
-4.320E-06,0.440
-4.310E-06,0.660
-4.300E-06,0.760
-4.290E-06,0.840
-4.280E-06,0.900
-4.270E-06,0.860
-4.260E-06,0.700
-4.250E-06,0.500
-4.240E-06,0.260
-4.230E-06,0.080
-4.220E-06,-0.160
-4.210E-06,-0.340
-4.200E-06,-0.460
-4.190E-06,-0.520
-4.180E-06,-0.540
-4.170E-06,-0.520
-4.160E-06,-0.420
-4.150E-06,-0.300
-4.140E-06,-0.200
-4.130E-06,-0.100
-4.120E-06,0.000
-4.110E-06,0.040
-4.100E-06,0.060
-4.090E-06,0.120
-4.080E-06,0.120
-4.070E-06,0.140
-4.060E-06,0.120
-4.050E-06,0.140
-4.040E-06,0.140
-4.030E-06,0.200
-4.020E-06,0.220
-4.010E-06,0.220
-4.000E-06,0.180
-3.990E-06,0.200
-3.980E-06,0.160
-3.970E-06,0.140
-3.960E-06,0.060
-3.950E-06,0.040
-3.940E-06,-0.020
-3.930E-06,-0.040
-3.920E-06,-0.080
-3.910E-06,-0.080
-3.900E-06,-0.060
-3.890E-06,-0.020
-3.880E-06,-0.020
-3.870E-06,0.080
-3.860E-06,0.060
-3.850E-06,0.120
-3.840E-06,0.120
-3.830E-06,0.180
-3.820E-06,0.100
-3.810E-06,0.100
-3.800E-06,0.060
-3.790E-06,0.040
-3.780E-06,0.040
-3.770E-06,0.020
-3.760E-06,0.040
-3.750E-06,0.000
-3.740E-06,0.020
-3.730E-06,0.020
-3.720E-06,0.000
-3.710E-06,-0.020
-3.700E-06,-0.020
-3.690E-06,-0.040
-3.680E-06,-0.040
-3.670E-06,-0.040
-3.660E-06,-0.060
-3.650E-06,-0.080
-3.640E-06,-0.080
-3.630E-06,-0.040
-3.620E-06,-0.040
-3.610E-06,0.000
-3.600E-06,0.000
-3.590E-06,0.000
-3.580E-06,0.000
-3.570E-06,0.000
-3.560E-06,-0.040
-3.550E-06,-0.040
-3.540E-06,-0.060
-3.530E-06,-0.040
-3.520E-06,-0.060
-3.510E-06,-0.020
-3.500E-06,-0.020
-3.490E-06,0.000
-3.480E-06,0.060
-3.470E-06,0.080
-3.460E-06,0.100
-3.450E-06,0.120
-3.440E-06,0.160
-3.430E-06,0.140
-3.420E-06,0.180
-3.410E-06,0.160
-3.400E-06,0.120
-3.390E-06,0.120
-3.380E-06,0.080
-3.370E-06,0.040
-3.360E-06,-0.020
-3.350E-06,-0.060
-3.340E-06,-0.100
-3.330E-06,-0.100
-3.320E-06,-0.100
-3.310E-06,-0.020
-3.300E-06,0.280
-3.290E-06,0.760
-3.280E-06,1.360
-3.270E-06,1.780
-3.260E-06,1.820
-3.250E-06,1.800
-3.240E-06,1.300
-3.230E-06,0.640
-3.220E-06,-0.100
-3.210E-06,-0.760
-3.200E-06,-1.320
-3.190E-06,-1.680
-3.180E-06,-1.880
-3.170E-06,-1.900
-3.160E-06,-1.720
-3.150E-06,-1.360
-3.140E-06,-0.960
-3.130E-06,-0.680
-3.120E-06,-0.520
-3.110E-06,-0.500
-3.100E-06,-0.420
-3.090E-06,-0.380
-3.080E-06,-0.280
-3.070E-06,-0.200
-3.060E-06,-0.120
-3.050E-06,-0.020
-3.040E-06,0.080
-3.030E-06,0.260
-3.020E-06,0.500
-3.010E-06,0.740
-3.000E-06,0.940
-2.990E-06,1.080
-2.980E-06,1.080
-2.970E-06,0.980
-2.960E-06,0.820
-2.950E-06,0.560
-2.940E-06,0.300
-2.930E-06,0.000
-2.920E-06,-0.260
-2.910E-06,-0.560
-2.900E-06,-0.780
-2.890E-06,-0.900
-2.880E-06,-0.880
-2.870E-06,-0.700
-2.860E-06,-0.520
-2.850E-06,-0.200
-2.840E-06,0.080
-2.830E-06,0.400
-2.820E-06,0.580
-2.810E-06,0.740
-2.800E-06,0.740
-2.790E-06,0.740
-2.780E-06,0.640
-2.770E-06,0.520
-2.760E-06,0.360
-2.750E-06,0.160
-2.740E-06,0.000
-2.730E-06,-0.200
-2.720E-06,-0.400
-2.710E-06,-0.480
-2.700E-06,-0.540
-2.690E-06,-0.580
-2.680E-06,-0.540
-2.670E-06,-0.520
-2.660E-06,-0.480
-2.650E-06,-0.440
-2.640E-06,-0.400
-2.630E-06,-0.380
-2.620E-06,-0.400
-2.610E-06,-0.400
-2.600E-06,-0.380
-2.590E-06,-0.360
-2.580E-06,-0.300
-2.570E-06,-0.180
-2.560E-06,-0.080
-2.550E-06,0.060
-2.540E-06,0.140
-2.530E-06,0.340
-2.520E-06,0.460
-2.510E-06,0.480
-2.500E-06,0.540
-2.490E-06,0.440
-2.480E-06,0.320
-2.470E-06,0.120
-2.460E-06,-0.060
-2.450E-06,-0.200
-2.440E-06,-0.400
-2.430E-06,-0.500
-2.420E-06,-0.540
-2.410E-06,-0.540
-2.400E-06,-0.540
-2.390E-06,-0.460
-2.380E-06,-0.340
-2.370E-06,-0.220
-2.360E-06,-0.080
-2.350E-06,0.000
-2.340E-06,0.100
-2.330E-06,0.180
-2.320E-06,0.220
-2.310E-06,0.240
-2.300E-06,0.200
-2.290E-06,0.200
-2.280E-06,0.100
-2.270E-06,0.040
-2.260E-06,-0.020
-2.250E-06,-0.060
-2.240E-06,-0.020
-2.230E-06,0.000
-2.220E-06,0.020
-2.210E-06,0.060
-2.200E-06,0.060
-2.190E-06,0.060
-2.180E-06,0.040
-2.170E-06,0.040
-2.160E-06,0.040
-2.150E-06,0.020
-2.140E-06,-0.020
-2.130E-06,-0.060
-2.120E-06,-0.080
-2.110E-06,-0.160
-2.100E-06,-0.140
-2.090E-06,-0.120
-2.080E-06,-0.080
-2.070E-06,-0.080
-2.060E-06,-0.020
-2.050E-06,0.020
-2.040E-06,-0.020
-2.030E-06,0.000
-2.020E-06,-0.040
-2.010E-06,-0.040
-2.000E-06,-0.100
-1.990E-06,-0.160
-1.980E-06,-0.200
-1.970E-06,-0.240
-1.960E-06,-0.340
-1.950E-06,-0.280
-1.940E-06,-0.400
-1.930E-06,-0.320
-1.920E-06,-0.340
-1.910E-06,-0.300
-1.900E-06,-0.280
-1.890E-06,-0.280
-1.880E-06,-0.220
-1.870E-06,-0.240
-1.860E-06,-0.200
-1.850E-06,-0.240
-1.840E-06,-0.240
-1.830E-06,-0.200
-1.820E-06,-0.200
-1.810E-06,-0.160
-1.800E-06,-0.180
-1.790E-06,-0.140
-1.780E-06,-0.120
-1.770E-06,-0.160
-1.760E-06,-0.180
-1.750E-06,-0.120
-1.740E-06,-0.100
-1.730E-06,-0.100
-1.720E-06,-0.060
-1.710E-06,-0.080
-1.700E-06,-0.080
-1.690E-06,-0.040
-1.680E-06,-0.040
-1.670E-06,-0.080
-1.660E-06,-0.060
-1.650E-06,-0.100
-1.640E-06,-0.080
-1.630E-06,-0.120
-1.620E-06,-0.140
-1.610E-06,-0.160
-1.600E-06,-0.060
-1.590E-06,-0.220
-1.580E-06,-0.180
-1.570E-06,-0.160
-1.560E-06,-0.200
-1.550E-06,-0.120
-1.540E-06,-0.140
-1.530E-06,-0.080
-1.520E-06,-0.100
-1.510E-06,0.240
-1.500E-06,0.380
-1.490E-06,0.360
-1.480E-06,0.140
-1.470E-06,0.320
-1.460E-06,0.460
-1.450E-06,0.360
-1.440E-06,0.140
-1.430E-06,-0.300
-1.420E-06,-0.640
-1.410E-06,-0.820
-1.400E-06,-0.500
-1.390E-06,-0.780
-1.380E-06,-0.760
-1.370E-06,-0.680
-1.360E-06,-1.060
-1.350E-06,-1.120
-1.340E-06,-0.960
-1.330E-06,-0.800
-1.320E-06,-0.620
-1.310E-06,-0.600
-1.300E-06,-0.500
-1.290E-06,-0.480
-1.280E-06,-0.600
-1.270E-06,-0.380
-1.260E-06,-0.400
-1.250E-06,-0.140
-1.240E-06,0.040
-1.230E-06,0.300
-1.220E-06,0.040
-1.210E-06,0.480
-1.200E-06,0.180
-1.190E-06,0.480
-1.180E-06,0.360
-1.170E-06,0.340
-1.160E-06,0.140
-1.150E-06,-0.340
-1.140E-06,-0.680
-1.130E-06,-0.860
-1.120E-06,-0.980
-1.110E-06,-0.940
-1.100E-06,-1.000
-1.090E-06,-1.160
-1.080E-06,-0.880
-1.070E-06,-0.960
-1.060E-06,-0.760
-1.050E-06,-0.720
-1.040E-06,-0.680
-1.030E-06,-0.620
-1.020E-06,-0.460
-1.010E-06,-0.360
-1.000E-06,-0.040
-9.900E-07,-0.120
-9.800E-07,-0.160
-9.700E-07,-0.480
-9.600E-07,-0.620
-9.500E-07,-0.860
-9.400E-07,-0.680
-9.300E-07,-0.820
-9.200E-07,-0.760
-9.100E-07,-0.780
-9.000E-07,-0.940
-8.900E-07,-0.980
-8.800E-07,-1.140
-8.700E-07,-1.000
-8.600E-07,-1.040
-8.500E-07,-1.160
-8.400E-07,-1.060
-8.300E-07,-1.020
-8.200E-07,-1.020
-8.100E-07,-0.900
-8.000E-07,-0.880
-7.900E-07,-0.860
-7.800E-07,-0.740
-7.700E-07,-0.600
-7.600E-07,-0.440
-7.500E-07,-0.420
-7.400E-07,-0.360
-7.300E-07,-0.340
-7.200E-07,-0.140
-7.100E-07,-0.300
-7.000E-07,-0.340
-6.900E-07,-0.400
-6.800E-07,-0.540
-6.700E-07,-0.500
-6.600E-07,-0.740
-6.500E-07,-1.000
-6.400E-07,-0.900
-6.300E-07,-1.120
-6.200E-07,-1.160
-6.100E-07,-1.440
-6.000E-07,-1.280
-5.900E-07,-1.200
-5.800E-07,-1.360
-5.700E-07,-1.000
-5.600E-07,-0.940
-5.500E-07,-0.720
-5.400E-07,-0.660
-5.300E-07,-0.520
-5.200E-07,-0.320
-5.100E-07,-0.440
-5.000E-07,-0.500
-4.900E-07,-0.420
-4.800E-07,-0.480
-4.700E-07,-0.320
-4.600E-07,-0.520
-4.500E-07,-0.380
-4.400E-07,-0.440
-4.300E-07,-0.460
-4.200E-07,-0.460
-4.100E-07,-0.420
-4.000E-07,-0.600
-3.900E-07,-0.580
-3.800E-07,-0.720
-3.700E-07,-0.680
-3.600E-07,-0.680
-3.500E-07,-0.600
-3.400E-07,-0.500
-3.300E-07,-0.420
-3.200E-07,-0.480
-3.100E-07,-0.360
-3.000E-07,-0.460
-2.900E-07,-0.320
-2.800E-07,-0.340
-2.700E-07,-0.440
-2.600E-07,-0.600
-2.500E-07,-0.340
-2.400E-07,-0.440
-2.300E-07,-0.860
-2.200E-07,-0.840
-2.100E-07,-1.240
-2.000E-07,-1.100
-1.900E-07,-1.100
-1.800E-07,-0.160
-1.700E-07,-0.480
-1.600E-07,-1.180
-1.500E-07,-1.780
-1.400E-07,-2.480
-1.300E-07,0.100
-1.200E-07,1.820
-1.100E-07,1.800
-1.000E-07,1.820
-9.000E-08,-0.260
-8.000E-08,-2.260
-7.000E-08,-3.600
-6.000E-08,-3.600
-5.000E-08,-3.600
-4.000E-08,-2.460
-3.000E-08,-3.000
-2.000E-08,-0.880
-1.000E-08,-1.240
0.000E+00,-1.620
1.000E-08,-1.660
2.000E-08,-1.860
3.000E-08,-1.640
4.000E-08,-0.260
5.000E-08,0.560
6.000E-08,1.000
7.000E-08,1.560
8.000E-08,1.460
9.000E-08,0.800
1.000E-07,1.060
1.100E-07,0.560
1.200E-07,1.340
1.300E-07,1.200
1.400E-07,1.460
1.500E-07,1.300
1.600E-07,1.300
1.700E-07,0.540
1.800E-07,0.660
1.900E-07,0.120
2.000E-07,-0.240
2.100E-07,-0.460
2.200E-07,-0.600
2.300E-07,-1.020
2.400E-07,-1.160
2.500E-07,-1.460
2.600E-07,-1.260
2.700E-07,-1.400
2.800E-07,-1.220
2.900E-07,-0.960
3.000E-07,-0.660
3.100E-07,-0.440
3.200E-07,-0.100
3.300E-07,0.080
3.400E-07,0.180
3.500E-07,-0.020
3.600E-07,-0.220
3.700E-07,-0.560
3.800E-07,-0.880
3.900E-07,-1.260
4.000E-07,-1.480
4.100E-07,-1.320
4.200E-07,-1.360
4.300E-07,-1.060
4.400E-07,-0.740
4.500E-07,-0.380
4.600E-07,0.120
4.700E-07,0.220
4.800E-07,1.580
4.900E-07,-0.140
5.000E-07,0.500
5.100E-07,-0.920
5.200E-07,-1.880
5.300E-07,-2.540
5.400E-07,-3.000
5.500E-07,-2.460
5.600E-07,-1.960
5.700E-07,-0.960
5.800E-07,-0.460
5.900E-07,1.020
6.000E-07,1.840
6.100E-07,1.820
6.200E-07,1.440
6.300E-07,0.300
6.400E-07,-0.380
6.500E-07,-1.800
6.600E-07,-1.640
6.700E-07,-2.240
6.800E-07,-1.940
6.900E-07,-1.580
7.000E-07,-1.440
7.100E-07,-1.280
7.200E-07,-1.280
7.300E-07,-1.160
7.400E-07,-1.060
7.500E-07,-0.640
7.600E-07,-0.440
7.700E-07,-0.120
7.800E-07,0.220
7.900E-07,0.200
8.000E-07,0.080
8.100E-07,-0.160
8.200E-07,-0.300
8.300E-07,-0.280
8.400E-07,-0.240
8.500E-07,-0.120
8.600E-07,0.040
8.700E-07,-0.100
8.800E-07,-0.220
8.900E-07,-0.400
9.000E-07,-0.520
9.100E-07,-0.560
9.200E-07,-0.660
9.300E-07,-0.600
9.400E-07,-0.620
9.500E-07,-0.780
9.600E-07,-0.960
9.700E-07,-1.240
9.800E-07,-1.620
9.900E-07,-1.440
1.000E-06,-1.700
1.010E-06,-1.520
1.020E-06,-1.420
1.030E-06,-1.760
1.040E-06,-1.780
1.050E-06,-2.000
1.060E-06,-1.900
1.070E-06,-1.740
1.080E-06,-1.620
1.090E-06,-1.320
1.100E-06,-1.200
1.110E-06,-1.180
1.120E-06,-1.260
1.130E-06,-1.260
1.140E-06,-1.320
1.150E-06,-1.460
1.160E-06,-1.520
1.170E-06,-1.360
1.180E-06,-0.940
1.190E-06,-0.680
1.200E-06,-0.260
1.210E-06,0.060
1.220E-06,0.400
1.230E-06,-0.220
1.240E-06,-0.420
1.250E-06,-0.720
1.260E-06,-0.080
1.270E-06,-0.340
1.280E-06,-0.500
1.290E-06,-0.120
1.300E-06,-0.360
1.310E-06,-0.140
1.320E-06,-0.620
1.330E-06,-1.000
1.340E-06,-0.980
1.350E-06,-2.560
1.360E-06,-3.260
1.370E-06,-3.600
1.380E-06,-3.600
1.390E-06,-3.600
1.400E-06,-3.600
1.410E-06,-3.600
1.420E-06,-3.600
1.430E-06,-3.620
1.440E-06,-3.620
1.450E-06,-3.620
1.460E-06,-3.600
1.470E-06,-3.600
1.480E-06,-3.140
1.490E-06,-2.820
1.500E-06,-2.580
1.510E-06,-2.360
1.520E-06,-2.220
1.530E-06,-2.200
1.540E-06,-2.220
1.550E-06,-2.240
1.560E-06,-2.240
1.570E-06,-2.300
1.580E-06,-2.220
1.590E-06,-2.220
1.600E-06,-2.120
1.610E-06,-1.980
1.620E-06,-1.700
1.630E-06,-1.580
1.640E-06,-1.540
1.650E-06,-1.660
1.660E-06,-1.780
1.670E-06,-1.800
1.680E-06,-1.740
1.690E-06,-1.560
1.700E-06,-1.300
1.710E-06,-1.060
1.720E-06,-0.720
1.730E-06,-0.440
1.740E-06,-0.180
1.750E-06,0.060
1.760E-06,0.160
1.770E-06,0.240
1.780E-06,0.260
1.790E-06,0.220
1.800E-06,0.180
1.810E-06,0.000
1.820E-06,-0.180
1.830E-06,-0.500
1.840E-06,-0.800
1.850E-06,-0.960
1.860E-06,-1.200
1.870E-06,-1.260
1.880E-06,-1.340
1.890E-06,-1.380
1.900E-06,-1.340
1.910E-06,-1.280
1.920E-06,-1.120
1.930E-06,-0.920
1.940E-06,-0.720
1.950E-06,-0.500
1.960E-06,-0.340
1.970E-06,-0.220
1.980E-06,-0.120
1.990E-06,0.000
2.000E-06,0.060
2.010E-06,0.120
2.020E-06,0.140
2.030E-06,0.160
2.040E-06,0.100
2.050E-06,0.040
2.060E-06,-0.080
2.070E-06,-0.240
2.080E-06,-0.420
2.090E-06,-0.640
2.100E-06,-0.840
2.110E-06,-1.080
2.120E-06,-1.260
2.130E-06,-1.380
2.140E-06,-1.480
2.150E-06,-1.500
2.160E-06,-1.520
2.170E-06,-1.420
2.180E-06,-1.320
2.190E-06,-1.180
2.200E-06,-1.060
2.210E-06,-0.880
2.220E-06,-0.780
2.230E-06,-0.600
2.240E-06,-0.500
2.250E-06,-0.440
2.260E-06,-0.380
2.270E-06,-0.360
2.280E-06,-0.400
2.290E-06,-0.440
2.300E-06,-0.600
2.310E-06,-0.700
2.320E-06,-0.880
2.330E-06,-1.060
2.340E-06,-1.160
2.350E-06,-1.280
2.360E-06,-1.320
2.370E-06,-1.440
2.380E-06,-1.460
2.390E-06,-1.420
2.400E-06,-1.440
2.410E-06,-1.400
2.420E-06,-1.340
2.430E-06,-1.260
2.440E-06,-1.260
2.450E-06,-1.220
2.460E-06,-1.140
2.470E-06,-0.980
2.480E-06,-0.820
2.490E-06,-0.680
2.500E-06,-0.600
2.510E-06,-0.480
2.520E-06,-0.380
2.530E-06,-0.320
2.540E-06,-0.300
2.550E-06,-0.300
2.560E-06,-0.280
2.570E-06,-0.280
2.580E-06,-0.340
2.590E-06,-0.300
2.600E-06,-0.320
2.610E-06,-0.360
2.620E-06,-0.400
2.630E-06,-0.460
2.640E-06,-0.540
2.650E-06,-0.600
2.660E-06,-0.720
2.670E-06,-0.820
2.680E-06,-0.860
2.690E-06,-0.780
2.700E-06,-0.640
2.710E-06,-0.480
2.720E-06,-0.340
2.730E-06,-0.240
2.740E-06,-0.100
2.750E-06,-0.040
2.760E-06,-0.020
2.770E-06,0.000
2.780E-06,0.100
2.790E-06,0.200
2.800E-06,0.240
2.810E-06,0.240
2.820E-06,0.260
2.830E-06,0.260
2.840E-06,0.240
2.850E-06,0.240
2.860E-06,0.200
2.870E-06,0.220
2.880E-06,0.240
2.890E-06,0.160
2.900E-06,0.160
2.910E-06,0.140
2.920E-06,0.080
2.930E-06,0.060
2.940E-06,0.080
2.950E-06,0.080
2.960E-06,0.080
2.970E-06,0.140
2.980E-06,0.180
2.990E-06,0.180
3.000E-06,0.200
3.010E-06,0.240
3.020E-06,0.260
3.030E-06,0.300
3.040E-06,0.380
3.050E-06,0.420
3.060E-06,0.380
3.070E-06,0.260
3.080E-06,0.180
3.090E-06,0.140
3.100E-06,0.160
3.110E-06,0.140
3.120E-06,0.140
3.130E-06,0.140
3.140E-06,0.120
3.150E-06,0.080
3.160E-06,0.020
3.170E-06,0.040
3.180E-06,0.060
3.190E-06,0.020
3.200E-06,0.040
3.210E-06,0.080
3.220E-06,0.080
