mediciones/8-28/-5/WaveData6671.csv

#timebase=2000000(ps)
,#voltbase=500000(mv/100)
#size=4000
-1.215E-05,0.100
-1.214E-05,0.160
-1.213E-05,0.180
-1.212E-05,0.180
-1.211E-05,0.220
-1.210E-05,0.180
-1.209E-05,0.140
-1.208E-05,0.140
-1.207E-05,0.140
-1.206E-05,0.120
-1.205E-05,0.100
-1.204E-05,0.120
-1.203E-05,0.140
-1.202E-05,0.140
-1.201E-05,0.120
-1.200E-05,0.080
-1.199E-05,0.040
-1.198E-05,-0.020
-1.197E-05,-0.040
-1.196E-05,-0.080
-1.195E-05,-0.120
-1.194E-05,-0.140
-1.193E-05,-0.120
-1.192E-05,-0.120
-1.191E-05,-0.140
-1.190E-05,-0.120
-1.189E-05,-0.140
-1.188E-05,-0.100
-1.187E-05,-0.080
-1.186E-05,-0.040
-1.185E-05,-0.020
-1.184E-05,0.000
-1.183E-05,-0.060
-1.182E-05,-0.120
-1.181E-05,-0.180
-1.180E-05,-0.220
-1.179E-05,-0.220
-1.178E-05,-0.200
-1.177E-05,-0.160
-1.176E-05,-0.240
-1.175E-05,-0.200
-1.174E-05,-0.200
-1.173E-05,-0.180
-1.172E-05,-0.200
-1.171E-05,-0.160
-1.170E-05,-0.120
-1.169E-05,-0.140
-1.168E-05,-0.100
-1.167E-05,-0.060
-1.166E-05,-0.040
-1.165E-05,-0.060
-1.164E-05,0.000
-1.163E-05,-0.020
-1.162E-05,-0.040
-1.161E-05,-0.040
-1.160E-05,-0.060
-1.159E-05,-0.020
-1.158E-05,-0.060
-1.157E-05,-0.080
-1.156E-05,0.000
-1.155E-05,0.080
-1.154E-05,0.100
-1.153E-05,0.080
-1.152E-05,0.120
-1.151E-05,0.080
-1.150E-05,0.080
-1.149E-05,0.040
-1.148E-05,-0.200
-1.147E-05,-0.280
-1.146E-05,-0.140
-1.145E-05,-0.220
-1.144E-05,-0.140
-1.143E-05,-0.260
-1.142E-05,-0.340
-1.141E-05,-0.480
-1.140E-05,0.060
-1.139E-05,0.100
-1.138E-05,0.260
-1.137E-05,-0.040
-1.136E-05,-0.300
-1.135E-05,-0.720
-1.134E-05,-0.900
-1.133E-05,-1.120
-1.132E-05,-1.060
-1.131E-05,-0.940
-1.130E-05,-0.020
-1.129E-05,0.080
-1.128E-05,-0.820
-1.127E-05,-0.360
-1.126E-05,-0.740
-1.125E-05,-0.680
-1.124E-05,-0.680
-1.123E-05,-0.260
-1.122E-05,-0.060
-1.121E-05,-0.200
-1.120E-05,-0.520
-1.119E-05,-0.400
-1.118E-05,-0.420
-1.117E-05,-0.220
-1.116E-05,0.120
-1.115E-05,0.220
-1.114E-05,0.240
-1.113E-05,0.900
-1.112E-05,0.440
-1.111E-05,0.420
-1.110E-05,0.200
-1.109E-05,0.180
-1.108E-05,-0.120
-1.107E-05,-0.040
-1.106E-05,0.280
-1.105E-05,-0.020
-1.104E-05,-0.020
-1.103E-05,-0.180
-1.102E-05,-0.260
-1.101E-05,-0.320
-1.100E-05,-0.180
-1.099E-05,0.060
-1.098E-05,0.080
-1.097E-05,0.020
-1.096E-05,0.120
-1.095E-05,0.180
-1.094E-05,0.140
-1.093E-05,0.340
-1.092E-05,0.180
-1.091E-05,0.100
-1.090E-05,0.060
-1.089E-05,-0.100
-1.088E-05,-0.160
-1.087E-05,-0.240
-1.086E-05,-0.200
-1.085E-05,-0.160
-1.084E-05,-0.260
-1.083E-05,-0.260
-1.082E-05,-0.280
-1.081E-05,-0.240
-1.080E-05,-0.300
-1.079E-05,-0.280
-1.078E-05,-0.280
-1.077E-05,-0.240
-1.076E-05,-0.280
-1.075E-05,-0.240
-1.074E-05,-0.240
-1.073E-05,-0.240
-1.072E-05,-0.100
-1.071E-05,-0.060
-1.070E-05,-0.020
-1.069E-05,0.160
-1.068E-05,0.160
-1.067E-05,0.200
-1.066E-05,0.140
-1.065E-05,0.020
-1.064E-05,0.040
-1.063E-05,0.020
-1.062E-05,0.020
-1.061E-05,0.060
-1.060E-05,0.020
-1.059E-05,0.000
-1.058E-05,-0.100
-1.057E-05,-0.180
-1.056E-05,-0.220
-1.055E-05,-0.180
-1.054E-05,-0.160
-1.053E-05,-0.120
-1.052E-05,-0.160
-1.051E-05,-0.140
-1.050E-05,-0.220
-1.049E-05,-0.180
-1.048E-05,-0.220
-1.047E-05,-0.160
-1.046E-05,-0.180
-1.045E-05,-0.080
-1.044E-05,-0.140
-1.043E-05,-0.180
-1.042E-05,-0.200
-1.041E-05,-0.240
-1.040E-05,-0.180
-1.039E-05,-0.180
-1.038E-05,-0.080
-1.037E-05,-0.060
-1.036E-05,-0.040
-1.035E-05,-0.040
-1.034E-05,-0.160
-1.033E-05,-0.160
-1.032E-05,-0.240
-1.031E-05,-0.260
-1.030E-05,-0.180
-1.029E-05,-0.340
-1.028E-05,-0.260
-1.027E-05,-0.340
-1.026E-05,-0.240
-1.025E-05,-0.140
-1.024E-05,-0.260
-1.023E-05,-0.180
-1.022E-05,-0.300
-1.021E-05,-0.240
-1.020E-05,-0.120
-1.019E-05,-0.200
-1.018E-05,0.000
-1.017E-05,-0.140
-1.016E-05,-0.200
-1.015E-05,-0.280
-1.014E-05,-0.340
-1.013E-05,-0.380
-1.012E-05,-0.320
-1.011E-05,-0.220
-1.010E-05,-0.260
-1.009E-05,-0.160
-1.008E-05,-0.160
-1.007E-05,-0.120
-1.006E-05,-0.360
-1.005E-05,-0.140
-1.004E-05,-0.280
-1.003E-05,0.120
-1.002E-05,0.160
-1.001E-05,0.160
-1.000E-05,0.020
-9.990E-06,-0.180
-9.980E-06,-0.400
-9.970E-06,-0.440
-9.960E-06,-0.320
-9.950E-06,-0.320
-9.940E-06,-0.260
-9.930E-06,-0.280
-9.920E-06,-0.160
-9.910E-06,0.060
-9.900E-06,0.040
-9.890E-06,-0.160
-9.880E-06,-0.140
-9.870E-06,-0.080
-9.860E-06,-0.080
-9.850E-06,-0.140
-9.840E-06,-0.120
-9.830E-06,-0.060
-9.820E-06,-0.060
-9.810E-06,-0.180
-9.800E-06,-0.280
-9.790E-06,-0.240
-9.780E-06,-0.200
-9.770E-06,-0.220
-9.760E-06,-0.260
-9.750E-06,-0.260
-9.740E-06,-0.200
-9.730E-06,-0.260
-9.720E-06,-0.240
-9.710E-06,-0.300
-9.700E-06,-0.280
-9.690E-06,-0.280
-9.680E-06,-0.240
-9.670E-06,-0.280
-9.660E-06,-0.080
-9.650E-06,-0.020
-9.640E-06,0.140
-9.630E-06,0.140
-9.620E-06,0.120
-9.610E-06,0.040
-9.600E-06,-0.160
-9.590E-06,-0.120
-9.580E-06,-0.120
-9.570E-06,-0.180
-9.560E-06,-0.100
-9.550E-06,-0.120
-9.540E-06,-0.180
-9.530E-06,-0.260
-9.520E-06,-0.280
-9.510E-06,-0.340
-9.500E-06,-0.360
-9.490E-06,-0.420
-9.480E-06,-0.360
-9.470E-06,-0.340
-9.460E-06,-0.220
-9.450E-06,-0.200
-9.440E-06,-0.040
-9.430E-06,0.000
-9.420E-06,0.020
-9.410E-06,-0.040
-9.400E-06,-0.080
-9.390E-06,-0.180
-9.380E-06,-0.160
-9.370E-06,-0.280
-9.360E-06,-0.260
-9.350E-06,-0.240
-9.340E-06,-0.260
-9.330E-06,-0.200
-9.320E-06,-0.280
-9.310E-06,-0.280
-9.300E-06,-0.140
-9.290E-06,-0.280
-9.280E-06,0.240
-9.270E-06,0.700
-9.260E-06,0.520
-9.250E-06,0.200
-9.240E-06,0.000
-9.230E-06,-0.540
-9.220E-06,-0.780
-9.210E-06,-0.920
-9.200E-06,-0.620
-9.190E-06,-0.400
-9.180E-06,-0.480
-9.170E-06,-0.380
-9.160E-06,-0.300
-9.150E-06,-0.220
-9.140E-06,0.080
-9.130E-06,0.140
-9.120E-06,0.280
-9.110E-06,0.580
-9.100E-06,0.760
-9.090E-06,0.600
-9.080E-06,0.560
-9.070E-06,0.400
-9.060E-06,0.400
-9.050E-06,0.360
-9.040E-06,0.360
-9.030E-06,0.420
-9.020E-06,0.520
-9.010E-06,0.220
-9.000E-06,0.600
-8.990E-06,-0.200
-8.980E-06,-0.040
-8.970E-06,-0.440
-8.960E-06,-0.260
-8.950E-06,-0.520
-8.940E-06,-0.600
-8.930E-06,-0.480
-8.920E-06,-0.580
-8.910E-06,-0.640
-8.900E-06,-0.620
-8.890E-06,-0.740
-8.880E-06,-0.620
-8.870E-06,-0.540
-8.860E-06,-0.280
-8.850E-06,-0.200
-8.840E-06,-0.180
-8.830E-06,-0.020
-8.820E-06,0.060
-8.810E-06,0.080
-8.800E-06,-0.020
-8.790E-06,0.000
-8.780E-06,-0.140
-8.770E-06,-0.320
-8.760E-06,-0.420
-8.750E-06,-0.420
-8.740E-06,-0.520
-8.730E-06,-0.640
-8.720E-06,-0.360
-8.710E-06,-0.180
-8.700E-06,-0.040
-8.690E-06,-0.180
-8.680E-06,-0.220
-8.670E-06,-0.420
-8.660E-06,-0.400
-8.650E-06,-0.300
-8.640E-06,0.820
-8.630E-06,0.960
-8.620E-06,0.960
-8.610E-06,0.380
-8.600E-06,-0.420
-8.590E-06,-0.820
-8.580E-06,-1.080
-8.570E-06,-0.900
-8.560E-06,-0.360
-8.550E-06,-0.100
-8.540E-06,-0.020
-8.530E-06,-0.220
-8.520E-06,-0.240
-8.510E-06,0.000
-8.500E-06,0.160
-8.490E-06,-0.440
-8.480E-06,-0.240
-8.470E-06,-0.040
-8.460E-06,0.060
-8.450E-06,0.300
-8.440E-06,0.400
-8.430E-06,0.040
-8.420E-06,-0.100
-8.410E-06,-0.720
-8.400E-06,-0.780
-8.390E-06,-0.800
-8.380E-06,-0.480
-8.370E-06,-0.160
-8.360E-06,-0.240
-8.350E-06,-0.400
-8.340E-06,-0.320
-8.330E-06,-0.400
-8.320E-06,-0.320
-8.310E-06,-0.360
-8.300E-06,0.200
-8.290E-06,-0.420
-8.280E-06,-0.180
-8.270E-06,-0.600
-8.260E-06,-0.100
-8.250E-06,0.100
-8.240E-06,0.400
-8.230E-06,0.360
-8.220E-06,0.260
-8.210E-06,-0.120
-8.200E-06,-0.080
-8.190E-06,-0.440
-8.180E-06,-0.220
-8.170E-06,-0.180
-8.160E-06,-0.140
-8.150E-06,-0.260
-8.140E-06,-0.280
-8.130E-06,-0.260
-8.120E-06,-0.160
-8.110E-06,-0.200
-8.100E-06,-0.140
-8.090E-06,-0.120
-8.080E-06,-0.120
-8.070E-06,-0.240
-8.060E-06,-0.260
-8.050E-06,-0.180
-8.040E-06,-0.080
-8.030E-06,-0.100
-8.020E-06,0.040
-8.010E-06,0.220
-8.000E-06,0.160
-7.990E-06,0.200
-7.980E-06,-0.080
-7.970E-06,-0.120
-7.960E-06,-0.200
-7.950E-06,-0.180
-7.940E-06,0.320
-7.930E-06,-0.040
-7.920E-06,0.040
-7.910E-06,-0.360
-7.900E-06,-0.740
-7.890E-06,-0.900
-7.880E-06,-1.000
-7.870E-06,-0.980
-7.860E-06,-0.600
-7.850E-06,-0.680
-7.840E-06,-0.680
-7.830E-06,-0.620
-7.820E-06,-0.560
-7.810E-06,-0.180
-7.800E-06,-0.280
-7.790E-06,-0.080
-7.780E-06,0.060
-7.770E-06,0.180
-7.760E-06,0.240
-7.750E-06,0.440
-7.740E-06,0.500
-7.730E-06,0.640
-7.720E-06,0.640
-7.710E-06,0.640
-7.700E-06,0.660
-7.690E-06,0.680
-7.680E-06,0.680
-7.670E-06,0.660
-7.660E-06,0.600
-7.650E-06,0.400
-7.640E-06,0.360
-7.630E-06,0.140
-7.620E-06,-0.300
-7.610E-06,-0.520
-7.600E-06,-0.680
-7.590E-06,-0.720
-7.580E-06,-0.740
-7.570E-06,-0.700
-7.560E-06,-0.660
-7.550E-06,-0.660
-7.540E-06,-0.740
-7.530E-06,-0.700
-7.520E-06,-0.600
-7.510E-06,-0.500
-7.500E-06,-0.400
-7.490E-06,-0.340
-7.480E-06,-0.340
-7.470E-06,-0.320
-7.460E-06,-0.500
-7.450E-06,-0.580
-7.440E-06,-0.740
-7.430E-06,-0.780
-7.420E-06,-0.800
-7.410E-06,-0.880
-7.400E-06,-0.820
-7.390E-06,-0.580
-7.380E-06,-0.580
-7.370E-06,-0.520
-7.360E-06,-0.340
-7.350E-06,-0.440
-7.340E-06,-0.340
-7.330E-06,-0.420
-7.320E-06,-0.460
-7.310E-06,-0.520
-7.300E-06,0.060
-7.290E-06,0.920
-7.280E-06,1.100
-7.270E-06,1.080
-7.260E-06,0.440
-7.250E-06,-0.280
-7.240E-06,-0.520
-7.230E-06,-0.100
-7.220E-06,0.560
-7.210E-06,1.040
-7.200E-06,0.240
-7.190E-06,-0.720
-7.180E-06,-2.440
-7.170E-06,-3.060
-7.160E-06,-3.340
-7.150E-06,-2.760
-7.140E-06,-1.960
-7.130E-06,-1.740
-7.120E-06,-1.440
-7.110E-06,-1.460
-7.100E-06,-1.280
-7.090E-06,-1.020
-7.080E-06,-0.900
-7.070E-06,-0.440
-7.060E-06,-0.260
-7.050E-06,-0.040
-7.040E-06,0.080
-7.030E-06,0.040
-7.020E-06,0.000
-7.010E-06,-0.140
-7.000E-06,-0.260
-6.990E-06,-0.120
-6.980E-06,0.160
-6.970E-06,0.440
-6.960E-06,0.540
-6.950E-06,0.380
-6.940E-06,0.080
-6.930E-06,-0.260
-6.920E-06,-0.480
-6.910E-06,-0.620
-6.900E-06,-0.800
-6.890E-06,-1.040
-6.880E-06,-1.260
-6.870E-06,-1.600
-6.860E-06,-1.740
-6.850E-06,-1.620
-6.840E-06,-1.360
-6.830E-06,-1.000
-6.820E-06,-0.780
-6.810E-06,-0.520
-6.800E-06,-0.260
-6.790E-06,-0.100
-6.780E-06,-0.040
-6.770E-06,-0.040
-6.760E-06,-0.020
-6.750E-06,-0.260
-6.740E-06,-0.320
-6.730E-06,-0.500
-6.720E-06,-0.540
-6.710E-06,-0.500
-6.700E-06,-0.500
-6.690E-06,-0.080
-6.680E-06,0.380
-6.670E-06,1.240
-6.660E-06,0.160
-6.650E-06,-1.460
-6.640E-06,-3.040
-6.630E-06,-3.240
-6.620E-06,-3.600
-6.610E-06,-3.400
-6.600E-06,-3.600
-6.590E-06,-3.620
-6.580E-06,-3.600
-6.570E-06,-3.600
-6.560E-06,-3.580
-6.550E-06,-3.580
-6.540E-06,-3.580
-6.530E-06,-3.600
-6.520E-06,-2.240
-6.510E-06,-1.940
-6.500E-06,-1.180
-6.490E-06,-0.220
-6.480E-06,0.040
-6.470E-06,0.340
-6.460E-06,0.000
-6.450E-06,-0.640
-6.440E-06,-1.200
-6.430E-06,-1.700
-6.420E-06,-1.960
-6.410E-06,-2.520
-6.400E-06,-2.380
-6.390E-06,-2.680
-6.380E-06,-2.640
-6.370E-06,-2.680
-6.360E-06,-2.300
-6.350E-06,-2.380
-6.340E-06,-2.220
-6.330E-06,-1.960
-6.320E-06,-1.840
-6.310E-06,-1.720
-6.300E-06,-1.520
-6.290E-06,-1.420
-6.280E-06,-1.200
-6.270E-06,-0.940
-6.260E-06,-0.540
-6.250E-06,-0.100
-6.240E-06,0.420
-6.230E-06,0.680
-6.220E-06,0.800
-6.210E-06,0.800
-6.200E-06,0.680
-6.190E-06,0.480
-6.180E-06,0.160
-6.170E-06,-0.180
-6.160E-06,-0.520
-6.150E-06,-0.980
-6.140E-06,-1.420
-6.130E-06,-1.780
-6.120E-06,-1.900
-6.110E-06,-1.920
-6.100E-06,-1.920
-6.090E-06,-1.980
-6.080E-06,-1.980
-6.070E-06,-1.820
-6.060E-06,-1.700
-6.050E-06,-1.440
-6.040E-06,-1.140
-6.030E-06,-0.860
-6.020E-06,-0.520
-6.010E-06,-0.360
-6.000E-06,-0.220
-5.990E-06,-0.400
-5.980E-06,-0.880
-5.970E-06,-1.280
-5.960E-06,-1.740
-5.950E-06,-1.840
-5.940E-06,-1.340
-5.930E-06,-0.800
-5.920E-06,-0.820
-5.910E-06,-0.440
-5.900E-06,-0.480
-5.890E-06,-0.580
-5.880E-06,-0.880
-5.870E-06,-1.980
-5.860E-06,-3.060
-5.850E-06,-3.600
-5.840E-06,-3.600
-5.830E-06,-3.620
-5.820E-06,-3.600
-5.810E-06,-3.600
-5.800E-06,-3.600
-5.790E-06,-3.600
-5.780E-06,-3.060
-5.770E-06,-2.320
-5.760E-06,-1.620
-5.750E-06,-1.080
-5.740E-06,-0.560
-5.730E-06,-0.140
-5.720E-06,0.040
-5.710E-06,0.220
-5.700E-06,0.140
-5.690E-06,0.080
-5.680E-06,-0.020
-5.670E-06,-0.240
-5.660E-06,-0.400
-5.650E-06,-0.460
-5.640E-06,-0.520
-5.630E-06,-0.600
-5.620E-06,-0.660
-5.610E-06,-0.740
-5.600E-06,-0.820
-5.590E-06,-0.860
-5.580E-06,-0.900
-5.570E-06,-0.920
-5.560E-06,-0.980
-5.550E-06,-0.980
-5.540E-06,-0.960
-5.530E-06,-0.940
-5.520E-06,-0.820
-5.510E-06,-0.680
-5.500E-06,-0.500
-5.490E-06,-0.300
-5.480E-06,-0.120
-5.470E-06,0.080
-5.460E-06,0.200
-5.450E-06,0.260
-5.440E-06,0.260
-5.430E-06,0.160
-5.420E-06,-0.060
-5.410E-06,-0.320
-5.400E-06,-0.540
-5.390E-06,-0.860
-5.380E-06,-1.100
-5.370E-06,-1.300
-5.360E-06,-1.500
-5.350E-06,-1.580
-5.340E-06,-1.620
-5.330E-06,-1.580
-5.320E-06,-1.540
-5.310E-06,-1.460
-5.300E-06,-1.280
-5.290E-06,-1.120
-5.280E-06,-1.000
-5.270E-06,-0.860
-5.260E-06,-0.760
-5.250E-06,-0.680
-5.240E-06,-0.680
-5.230E-06,-0.600
-5.220E-06,-0.540
-5.210E-06,-0.500
-5.200E-06,-0.420
-5.190E-06,-0.360
-5.180E-06,-0.260
-5.170E-06,-0.240
-5.160E-06,-0.220
-5.150E-06,-0.280
-5.140E-06,-0.340
-5.130E-06,-0.420
-5.120E-06,-0.500
-5.110E-06,-0.600
-5.100E-06,-0.760
-5.090E-06,-0.840
-5.080E-06,-0.940
-5.070E-06,-0.980
-5.060E-06,-1.000
-5.050E-06,-0.960
-5.040E-06,-0.880
-5.030E-06,-0.800
-5.020E-06,-0.680
-5.010E-06,-0.580
-5.000E-06,-0.460
-4.990E-06,-0.380
-4.980E-06,-0.200
-4.970E-06,-0.140
-4.960E-06,-0.060
-4.950E-06,0.000
-4.940E-06,0.000
-4.930E-06,0.020
-4.920E-06,0.020
-4.910E-06,0.020
-4.900E-06,0.040
-4.890E-06,0.040
-4.880E-06,0.020
-4.870E-06,0.020
-4.860E-06,0.000
-4.850E-06,0.000
-4.840E-06,-0.040
-4.830E-06,-0.060
-4.820E-06,-0.080
-4.810E-06,-0.100
-4.800E-06,-0.180
-4.790E-06,-0.160
-4.780E-06,-0.180
-4.770E-06,-0.220
-4.760E-06,-0.220
-4.750E-06,-0.160
-4.740E-06,-0.160
-4.730E-06,-0.120
-4.720E-06,-0.060
-4.710E-06,-0.020
-4.700E-06,0.020
-4.690E-06,0.040
-4.680E-06,0.080
-4.670E-06,0.120
-4.660E-06,0.100
-4.650E-06,0.100
-4.640E-06,0.140
-4.630E-06,0.100
-4.620E-06,0.100
-4.610E-06,0.080
-4.600E-06,0.080
-4.590E-06,0.080
-4.580E-06,0.060
-4.570E-06,0.060
-4.560E-06,0.060
-4.550E-06,0.060
-4.540E-06,0.040
-4.530E-06,0.040
-4.520E-06,0.020
-4.510E-06,-0.020
-4.500E-06,0.020
-4.490E-06,0.000
-4.480E-06,0.020
-4.470E-06,0.000
-4.460E-06,0.020
-4.450E-06,0.020
-4.440E-06,0.040
-4.430E-06,0.060
-4.420E-06,0.080
-4.410E-06,0.120
-4.400E-06,0.160
-4.390E-06,0.180
-4.380E-06,0.200
-4.370E-06,0.220
-4.360E-06,0.220
-4.350E-06,0.260
-4.340E-06,0.260
-4.330E-06,0.240
-4.320E-06,0.240
-4.310E-06,0.240
-4.300E-06,0.240
-4.290E-06,0.200
-4.280E-06,0.200
-4.270E-06,0.220
-4.260E-06,0.240
-4.250E-06,0.200
-4.240E-06,0.240
-4.230E-06,0.240
-4.220E-06,0.240
-4.210E-06,0.280
-4.200E-06,0.280
-4.190E-06,0.260
-4.180E-06,0.280
-4.170E-06,0.280
-4.160E-06,0.280
-4.150E-06,0.300
-4.140E-06,0.280
-4.130E-06,0.300
-4.120E-06,0.320
-4.110E-06,0.320
-4.100E-06,0.320
-4.090E-06,0.320
-4.080E-06,0.320
-4.070E-06,0.320
-4.060E-06,0.320
-4.050E-06,0.320
-4.040E-06,0.300
-4.030E-06,0.280
-4.020E-06,0.260
-4.010E-06,0.260
-4.000E-06,0.220
-3.990E-06,0.200
-3.980E-06,0.160
-3.970E-06,0.160
-3.960E-06,0.160
-3.950E-06,0.160
-3.940E-06,0.160
-3.930E-06,0.160
-3.920E-06,0.120
-3.910E-06,0.160
-3.900E-06,0.180
-3.890E-06,0.200
-3.880E-06,0.180
-3.870E-06,0.240
-3.860E-06,0.220
-3.850E-06,0.240
-3.840E-06,0.240
-3.830E-06,0.220
-3.820E-06,0.220
-3.810E-06,0.260
-3.800E-06,0.220
-3.790E-06,0.220
-3.780E-06,0.220
-3.770E-06,0.200
-3.760E-06,0.200
-3.750E-06,0.200
-3.740E-06,0.200
-3.730E-06,0.180
-3.720E-06,0.220
-3.710E-06,0.200
-3.700E-06,0.240
-3.690E-06,0.200
-3.680E-06,0.220
-3.670E-06,0.220
-3.660E-06,0.240
-3.650E-06,0.240
-3.640E-06,0.240
-3.630E-06,0.240
-3.620E-06,0.260
-3.610E-06,0.320
-3.600E-06,0.340
-3.590E-06,0.320
-3.580E-06,0.340
-3.570E-06,0.360
-3.560E-06,0.360
-3.550E-06,0.360
-3.540E-06,0.380
-3.530E-06,0.360
-3.520E-06,0.360
-3.510E-06,0.340
-3.500E-06,0.320
-3.490E-06,0.300
-3.480E-06,0.280
-3.470E-06,0.300
-3.460E-06,0.340
-3.450E-06,0.320
-3.440E-06,0.380
-3.430E-06,0.400
-3.420E-06,0.440
-3.410E-06,0.440
-3.400E-06,0.440
-3.390E-06,0.440
-3.380E-06,0.520
-3.370E-06,0.520
-3.360E-06,0.560
-3.350E-06,0.540
-3.340E-06,0.580
-3.330E-06,0.620
-3.320E-06,0.640
-3.310E-06,0.640
-3.300E-06,0.660
-3.290E-06,0.700
-3.280E-06,0.700
-3.270E-06,0.760
-3.260E-06,0.820
-3.250E-06,0.840
-3.240E-06,0.840
-3.230E-06,0.840
-3.220E-06,0.780
-3.210E-06,0.720
-3.200E-06,0.660
-3.190E-06,0.520
-3.180E-06,0.460
-3.170E-06,0.360
-3.160E-06,0.300
-3.150E-06,0.240
-3.140E-06,0.140
-3.130E-06,0.100
-3.120E-06,0.060
-3.110E-06,0.040
-3.100E-06,0.020
-3.090E-06,-0.020
-3.080E-06,-0.020
-3.070E-06,0.000
-3.060E-06,-0.020
-3.050E-06,0.020
-3.040E-06,0.060
-3.030E-06,0.100
-3.020E-06,0.120
-3.010E-06,0.160
-3.000E-06,0.200
-2.990E-06,0.220
-2.980E-06,0.240
-2.970E-06,0.300
-2.960E-06,0.300
-2.950E-06,0.340
-2.940E-06,0.360
-2.930E-06,0.360
-2.920E-06,0.360
-2.910E-06,0.400
-2.900E-06,0.340
-2.890E-06,0.380
-2.880E-06,0.340
-2.870E-06,0.320
-2.860E-06,0.300
-2.850E-06,0.240
-2.840E-06,0.240
-2.830E-06,0.260
-2.820E-06,0.260
-2.810E-06,0.240
-2.800E-06,0.240
-2.790E-06,0.260
-2.780E-06,0.320
-2.770E-06,0.360
-2.760E-06,0.340
-2.750E-06,0.360
-2.740E-06,0.380
-2.730E-06,0.380
-2.720E-06,0.380
-2.710E-06,0.360
-2.700E-06,0.380
-2.690E-06,0.340
-2.680E-06,0.340
-2.670E-06,0.300
-2.660E-06,0.300
-2.650E-06,0.260
-2.640E-06,0.240
-2.630E-06,0.240
-2.620E-06,0.240
-2.610E-06,0.220
-2.600E-06,0.220
-2.590E-06,0.240
-2.580E-06,0.240
-2.570E-06,0.220
-2.560E-06,0.240
-2.550E-06,0.240
-2.540E-06,0.260
-2.530E-06,0.260
-2.520E-06,0.240
-2.510E-06,0.260
-2.500E-06,0.240
-2.490E-06,0.260
-2.480E-06,0.280
-2.470E-06,0.240
-2.460E-06,0.280
-2.450E-06,0.280
-2.440E-06,0.280
-2.430E-06,0.300
-2.420E-06,0.300
-2.410E-06,0.340
-2.400E-06,0.360
-2.390E-06,0.340
-2.380E-06,0.340
-2.370E-06,0.400
-2.360E-06,0.420
-2.350E-06,0.440
-2.340E-06,0.460
-2.330E-06,0.520
-2.320E-06,0.580
-2.310E-06,0.580
-2.300E-06,0.660
-2.290E-06,0.660
-2.280E-06,0.680
-2.270E-06,0.720
-2.260E-06,0.740
-2.250E-06,0.740
-2.240E-06,0.760
-2.230E-06,0.740
-2.220E-06,0.800
-2.210E-06,0.840
-2.200E-06,0.900
-2.190E-06,0.940
-2.180E-06,0.980
-2.170E-06,0.960
-2.160E-06,0.980
-2.150E-06,0.980
-2.140E-06,0.940
-2.130E-06,0.880
-2.120E-06,0.860
-2.110E-06,0.780
-2.100E-06,0.740
-2.090E-06,0.620
-2.080E-06,0.540
-2.070E-06,0.440
-2.060E-06,0.400
-2.050E-06,0.280
-2.040E-06,0.220
-2.030E-06,0.160
-2.020E-06,0.100
-2.010E-06,0.080
-2.000E-06,0.020
-1.990E-06,0.020
-1.980E-06,0.000
-1.970E-06,-0.020
-1.960E-06,-0.020
-1.950E-06,-0.040
-1.940E-06,-0.080
-1.930E-06,-0.060
-1.920E-06,-0.080
-1.910E-06,-0.080
-1.900E-06,-0.140
-1.890E-06,-0.140
-1.880E-06,-0.120
-1.870E-06,-0.120
-1.860E-06,-0.160
-1.850E-06,-0.140
-1.840E-06,-0.140
-1.830E-06,-0.100
-1.820E-06,-0.060
-1.810E-06,-0.020
-1.800E-06,0.000
-1.790E-06,0.040
-1.780E-06,0.060
-1.770E-06,0.100
-1.760E-06,0.140
-1.750E-06,0.240
-1.740E-06,0.280
-1.730E-06,0.340
-1.720E-06,0.420
-1.710E-06,0.440
-1.700E-06,0.520
-1.690E-06,0.580
-1.680E-06,0.620
-1.670E-06,0.680
-1.660E-06,0.760
-1.650E-06,0.860
-1.640E-06,0.960
-1.630E-06,1.060
-1.620E-06,1.220
-1.610E-06,1.340
-1.600E-06,1.440
-1.590E-06,1.600
-1.580E-06,1.720
-1.570E-06,1.820
-1.560E-06,1.840
-1.550E-06,1.840
-1.540E-06,1.820
-1.530E-06,1.820
-1.520E-06,1.840
-1.510E-06,1.840
-1.500E-06,1.820
-1.490E-06,1.840
-1.480E-06,1.820
-1.470E-06,1.840
-1.460E-06,1.820
-1.450E-06,1.840
-1.440E-06,1.820
-1.430E-06,1.820
-1.420E-06,1.820
-1.410E-06,1.820
-1.400E-06,1.820
-1.390E-06,1.800
-1.380E-06,1.820
-1.370E-06,1.840
-1.360E-06,1.820
-1.350E-06,1.840
-1.340E-06,1.820
-1.330E-06,1.820
-1.320E-06,1.740
-1.310E-06,1.600
-1.300E-06,1.520
-1.290E-06,1.400
-1.280E-06,1.300
-1.270E-06,1.240
-1.260E-06,1.140
-1.250E-06,1.080
-1.240E-06,1.040
-1.230E-06,0.980
-1.220E-06,0.920
-1.210E-06,0.900
-1.200E-06,0.860
-1.190E-06,0.820
-1.180E-06,0.780
-1.170E-06,0.780
-1.160E-06,0.740
-1.150E-06,0.680
-1.140E-06,0.660
-1.130E-06,0.640
-1.120E-06,0.660
-1.110E-06,0.580
-1.100E-06,0.600
-1.090E-06,0.580
-1.080E-06,0.520
-1.070E-06,0.480
-1.060E-06,0.480
-1.050E-06,0.460
-1.040E-06,0.460
-1.030E-06,0.460
-1.020E-06,0.440
-1.010E-06,0.440
-1.000E-06,0.460
-9.900E-07,0.440
-9.800E-07,0.420
-9.700E-07,0.440
-9.600E-07,0.440
-9.500E-07,0.460
-9.400E-07,0.460
-9.300E-07,0.480
-9.200E-07,0.440
-9.100E-07,0.440
-9.000E-07,0.420
-8.900E-07,0.420
-8.800E-07,0.420
-8.700E-07,0.400
-8.600E-07,0.380
-8.500E-07,0.380
-8.400E-07,0.380
-8.300E-07,0.340
-8.200E-07,0.340
-8.100E-07,0.340
-8.000E-07,0.340
-7.900E-07,0.320
-7.800E-07,0.320
