mediciones/curva carac 8-28 limpias/-42/WaveData65921.csv

#timebase=2000000(ps)
,#voltbase=500000(mv/100)
#size=4000
-8.350E-06,0.060
-8.340E-06,0.060
-8.330E-06,0.020
-8.320E-06,0.020
-8.310E-06,0.060
-8.300E-06,0.040
-8.290E-06,0.060
-8.280E-06,0.060
-8.270E-06,0.060
-8.260E-06,0.060
-8.250E-06,0.040
-8.240E-06,0.080
-8.230E-06,0.040
-8.220E-06,0.000
-8.210E-06,0.020
-8.200E-06,0.040
-8.190E-06,0.020
-8.180E-06,0.020
-8.170E-06,0.020
-8.160E-06,0.020
-8.150E-06,0.040
-8.140E-06,0.020
-8.130E-06,0.020
-8.120E-06,0.060
-8.110E-06,0.020
-8.100E-06,0.060
-8.090E-06,0.060
-8.080E-06,0.060
-8.070E-06,0.040
-8.060E-06,0.060
-8.050E-06,0.020
-8.040E-06,0.040
-8.030E-06,0.040
-8.020E-06,0.060
-8.010E-06,0.040
-8.000E-06,0.040
-7.990E-06,0.080
-7.980E-06,0.060
-7.970E-06,0.060
-7.960E-06,0.020
-7.950E-06,0.040
-7.940E-06,0.060
-7.930E-06,0.060
-7.920E-06,0.020
-7.910E-06,0.020
-7.900E-06,0.060
-7.890E-06,0.040
-7.880E-06,0.000
-7.870E-06,0.040
-7.860E-06,0.040
-7.850E-06,0.020
-7.840E-06,0.040
-7.830E-06,0.060
-7.820E-06,0.020
-7.810E-06,0.020
-7.800E-06,0.040
-7.790E-06,0.040
-7.780E-06,0.040
-7.770E-06,0.040
-7.760E-06,0.020
-7.750E-06,0.020
-7.740E-06,0.040
-7.730E-06,0.060
-7.720E-06,0.040
-7.710E-06,0.040
-7.700E-06,0.040
-7.690E-06,0.040
-7.680E-06,0.040
-7.670E-06,0.040
-7.660E-06,0.040
-7.650E-06,0.000
-7.640E-06,0.040
-7.630E-06,0.020
-7.620E-06,0.060
-7.610E-06,0.020
-7.600E-06,0.060
-7.590E-06,0.060
-7.580E-06,0.020
-7.570E-06,0.040
-7.560E-06,0.060
-7.550E-06,0.040
-7.540E-06,0.020
-7.530E-06,0.060
-7.520E-06,0.060
-7.510E-06,0.040
-7.500E-06,0.060
-7.490E-06,0.060
-7.480E-06,0.080
-7.470E-06,0.020
-7.460E-06,0.040
-7.450E-06,0.020
-7.440E-06,0.060
-7.430E-06,0.060
-7.420E-06,0.020
-7.410E-06,0.060
-7.400E-06,0.040
-7.390E-06,0.060
-7.380E-06,0.040
-7.370E-06,0.020
-7.360E-06,0.040
-7.350E-06,0.040
-7.340E-06,0.000
-7.330E-06,0.040
-7.320E-06,0.000
-7.310E-06,0.040
-7.300E-06,0.040
-7.290E-06,0.060
-7.280E-06,0.040
-7.270E-06,0.020
-7.260E-06,0.080
-7.250E-06,0.060
-7.240E-06,0.020
-7.230E-06,0.060
-7.220E-06,0.020
-7.210E-06,0.040
-7.200E-06,0.020
-7.190E-06,0.040
-7.180E-06,0.020
-7.170E-06,0.040
-7.160E-06,0.020
-7.150E-06,0.040
-7.140E-06,0.020
-7.130E-06,0.040
-7.120E-06,0.060
-7.110E-06,0.040
-7.100E-06,0.040
-7.090E-06,0.020
-7.080E-06,0.060
-7.070E-06,0.040
-7.060E-06,0.060
-7.050E-06,0.040
-7.040E-06,0.040
-7.030E-06,0.040
-7.020E-06,0.040
-7.010E-06,0.020
-7.000E-06,0.020
-6.990E-06,0.060
-6.980E-06,0.040
-6.970E-06,0.060
-6.960E-06,0.020
-6.950E-06,0.040
-6.940E-06,0.060
-6.930E-06,0.040
-6.920E-06,0.040
-6.910E-06,0.020
-6.900E-06,0.060
-6.890E-06,0.060
-6.880E-06,0.020
-6.870E-06,0.040
-6.860E-06,0.020
-6.850E-06,0.060
-6.840E-06,0.040
-6.830E-06,0.080
-6.820E-06,0.060
-6.810E-06,0.060
-6.800E-06,0.060
-6.790E-06,0.060
-6.780E-06,0.040
-6.770E-06,0.020
-6.760E-06,0.060
-6.750E-06,0.040
-6.740E-06,0.020
-6.730E-06,0.060
-6.720E-06,0.040
-6.710E-06,0.060
-6.700E-06,0.060
-6.690E-06,0.020
-6.680E-06,0.020
-6.670E-06,0.060
-6.660E-06,0.020
-6.650E-06,0.020
-6.640E-06,0.020
-6.630E-06,0.060
-6.620E-06,0.000
-6.610E-06,0.040
-6.600E-06,0.020
-6.590E-06,0.020
-6.580E-06,0.060
-6.570E-06,0.020
-6.560E-06,0.060
-6.550E-06,0.020
-6.540E-06,0.040
-6.530E-06,0.080
-6.520E-06,0.020
-6.510E-06,0.020
-6.500E-06,0.060
-6.490E-06,0.020
-6.480E-06,0.020
-6.470E-06,0.060
-6.460E-06,0.060
-6.450E-06,0.020
-6.440E-06,0.040
-6.430E-06,0.060
-6.420E-06,0.040
-6.410E-06,0.020
-6.400E-06,0.060
-6.390E-06,0.040
-6.380E-06,0.020
-6.370E-06,0.040
-6.360E-06,0.040
-6.350E-06,0.060
-6.340E-06,0.020
-6.330E-06,0.060
-6.320E-06,0.020
-6.310E-06,0.040
-6.300E-06,0.060
-6.290E-06,0.020
-6.280E-06,0.060
-6.270E-06,0.040
-6.260E-06,0.060
-6.250E-06,0.040
-6.240E-06,0.040
-6.230E-06,0.040
-6.220E-06,0.020
-6.210E-06,0.040
-6.200E-06,0.040
-6.190E-06,0.020
-6.180E-06,0.040
-6.170E-06,0.020
-6.160E-06,0.020
-6.150E-06,0.040
-6.140E-06,0.020
-6.130E-06,0.020
-6.120E-06,0.020
-6.110E-06,0.040
-6.100E-06,0.020
-6.090E-06,0.060
-6.080E-06,0.000
-6.070E-06,0.020
-6.060E-06,0.040
-6.050E-06,0.040
-6.040E-06,0.000
-6.030E-06,0.040
-6.020E-06,0.040
-6.010E-06,0.020
-6.000E-06,0.060
-5.990E-06,0.020
-5.980E-06,0.040
-5.970E-06,0.040
-5.960E-06,0.040
-5.950E-06,0.020
-5.940E-06,0.040
-5.930E-06,0.060
-5.920E-06,0.020
-5.910E-06,0.040
-5.900E-06,0.060
-5.890E-06,0.040
-5.880E-06,0.040
-5.870E-06,0.020
-5.860E-06,0.040
-5.850E-06,0.040
-5.840E-06,0.020
-5.830E-06,0.040
-5.820E-06,0.060
-5.810E-06,0.060
-5.800E-06,-0.020
-5.790E-06,0.040
-5.780E-06,0.040
-5.770E-06,0.040
-5.760E-06,0.060
-5.750E-06,0.060
-5.740E-06,0.040
-5.730E-06,0.000
-5.720E-06,0.040
-5.710E-06,0.000
-5.700E-06,0.020
-5.690E-06,0.060
-5.680E-06,0.040
-5.670E-06,0.040
-5.660E-06,0.020
-5.650E-06,0.040
-5.640E-06,0.040
-5.630E-06,0.040
-5.620E-06,0.080
-5.610E-06,0.060
-5.600E-06,0.060
-5.590E-06,0.020
-5.580E-06,0.060
-5.570E-06,0.080
-5.560E-06,0.040
-5.550E-06,0.040
-5.540E-06,0.060
-5.530E-06,0.060
-5.520E-06,0.060
-5.510E-06,0.000
-5.500E-06,0.040
-5.490E-06,0.080
-5.480E-06,0.040
-5.470E-06,0.060
-5.460E-06,0.020
-5.450E-06,0.000
-5.440E-06,0.060
-5.430E-06,0.060
-5.420E-06,0.020
-5.410E-06,0.020
-5.400E-06,0.040
-5.390E-06,0.040
-5.380E-06,0.060
-5.370E-06,0.020
-5.360E-06,0.000
-5.350E-06,0.040
-5.340E-06,0.020
-5.330E-06,0.020
-5.320E-06,0.060
-5.310E-06,0.060
-5.300E-06,0.060
-5.290E-06,0.040
-5.280E-06,0.040
-5.270E-06,0.060
-5.260E-06,0.040
-5.250E-06,0.020
-5.240E-06,0.020
-5.230E-06,0.020
-5.220E-06,0.020
-5.210E-06,0.040
-5.200E-06,0.060
-5.190E-06,0.060
-5.180E-06,0.020
-5.170E-06,0.060
-5.160E-06,0.040
-5.150E-06,0.060
-5.140E-06,0.060
-5.130E-06,0.020
-5.120E-06,0.000
-5.110E-06,0.040
-5.100E-06,0.020
-5.090E-06,0.040
-5.080E-06,0.020
-5.070E-06,0.040
-5.060E-06,0.080
-5.050E-06,0.060
-5.040E-06,0.040
-5.030E-06,0.040
-5.020E-06,0.000
-5.010E-06,0.040
-5.000E-06,0.040
-4.990E-06,0.080
-4.980E-06,0.020
-4.970E-06,0.040
-4.960E-06,0.060
-4.950E-06,0.040
-4.940E-06,0.060
-4.930E-06,0.020
-4.920E-06,0.020
-4.910E-06,0.020
-4.900E-06,0.040
-4.890E-06,0.040
-4.880E-06,0.080
-4.870E-06,0.040
-4.860E-06,0.060
-4.850E-06,0.060
-4.840E-06,0.040
-4.830E-06,0.060
-4.820E-06,0.040
-4.810E-06,0.020
-4.800E-06,0.060
-4.790E-06,0.020
-4.780E-06,0.060
-4.770E-06,0.040
-4.760E-06,0.020
-4.750E-06,0.040
-4.740E-06,0.040
-4.730E-06,0.020
-4.720E-06,0.020
-4.710E-06,0.040
-4.700E-06,0.020
-4.690E-06,0.040
-4.680E-06,0.000
-4.670E-06,0.040
-4.660E-06,0.040
-4.650E-06,0.060
-4.640E-06,0.020
-4.630E-06,0.040
-4.620E-06,0.080
-4.610E-06,0.020
-4.600E-06,0.040
-4.590E-06,0.020
-4.580E-06,0.060
-4.570E-06,0.040
-4.560E-06,0.060
-4.550E-06,0.060
-4.540E-06,0.040
-4.530E-06,0.000
-4.520E-06,0.040
-4.510E-06,0.040
-4.500E-06,0.060
-4.490E-06,0.040
-4.480E-06,0.020
-4.470E-06,0.040
-4.460E-06,0.020
-4.450E-06,0.040
-4.440E-06,0.060
-4.430E-06,0.040
-4.420E-06,0.040
-4.410E-06,0.040
-4.400E-06,0.040
-4.390E-06,0.060
-4.380E-06,0.040
-4.370E-06,0.060
-4.360E-06,0.040
-4.350E-06,0.020
-4.340E-06,0.040
-4.330E-06,0.020
-4.320E-06,0.020
-4.310E-06,0.040
-4.300E-06,0.060
-4.290E-06,0.020
-4.280E-06,0.040
-4.270E-06,0.040
-4.260E-06,0.020
-4.250E-06,0.060
-4.240E-06,0.000
-4.230E-06,0.060
-4.220E-06,0.020
-4.210E-06,0.040
-4.200E-06,0.040
-4.190E-06,0.020
-4.180E-06,0.060
-4.170E-06,0.040
-4.160E-06,0.040
-4.150E-06,0.060
-4.140E-06,0.020
-4.130E-06,-0.020
-4.120E-06,0.040
-4.110E-06,0.040
-4.100E-06,0.080
-4.090E-06,0.020
-4.080E-06,0.020
-4.070E-06,0.020
-4.060E-06,0.060
-4.050E-06,0.080
-4.040E-06,0.020
-4.030E-06,0.020
-4.020E-06,0.060
-4.010E-06,0.080
-4.000E-06,0.060
-3.990E-06,0.060
-3.980E-06,0.020
-3.970E-06,0.040
-3.960E-06,0.040
-3.950E-06,0.040
-3.940E-06,0.040
-3.930E-06,0.020
-3.920E-06,0.040
-3.910E-06,0.060
-3.900E-06,0.040
-3.890E-06,-0.020
-3.880E-06,-0.240
-3.870E-06,-0.840
-3.860E-06,-1.760
-3.850E-06,-2.740
-3.840E-06,-3.320
-3.830E-06,-3.060
-3.820E-06,-2.380
-3.810E-06,-1.600
-3.800E-06,0.180
-3.790E-06,1.440
-3.780E-06,2.080
-3.770E-06,2.080
-3.760E-06,2.060
-3.750E-06,2.080
-3.740E-06,2.100
-3.730E-06,2.080
-3.720E-06,2.080
-3.710E-06,1.740
-3.700E-06,0.680
-3.690E-06,0.000
-3.680E-06,-0.620
-3.670E-06,-0.900
-3.660E-06,-0.660
-3.650E-06,-0.520
-3.640E-06,-0.300
-3.630E-06,-0.220
-3.620E-06,-0.300
-3.610E-06,-0.580
-3.600E-06,-1.040
-3.590E-06,-1.280
-3.580E-06,-1.720
-3.570E-06,-2.020
-3.560E-06,-2.000
-3.550E-06,-1.860
-3.540E-06,-1.640
-3.530E-06,-1.160
-3.520E-06,-0.480
-3.510E-06,0.160
-3.500E-06,0.820
-3.490E-06,1.460
-3.480E-06,1.780
-3.470E-06,1.880
-3.460E-06,1.820
-3.450E-06,1.580
-3.440E-06,1.100
-3.430E-06,0.660
-3.420E-06,0.180
-3.410E-06,-0.320
-3.400E-06,-0.660
-3.390E-06,-0.860
-3.380E-06,-1.020
-3.370E-06,-0.980
-3.360E-06,-0.940
-3.350E-06,-0.800
-3.340E-06,-0.660
-3.330E-06,-0.480
-3.320E-06,-0.240
-3.310E-06,-0.040
-3.300E-06,0.140
-3.290E-06,0.360
-3.280E-06,0.600
-3.270E-06,0.800
-3.260E-06,0.920
-3.250E-06,1.000
-3.240E-06,0.980
-3.230E-06,0.940
-3.220E-06,0.820
-3.210E-06,0.700
-3.200E-06,0.500
-3.190E-06,0.340
-3.180E-06,0.160
-3.170E-06,0.020
-3.160E-06,-0.140
-3.150E-06,-0.240
-3.140E-06,-0.360
-3.130E-06,-0.400
-3.120E-06,-0.480
-3.110E-06,-0.520
-3.100E-06,-0.600
-3.090E-06,-0.600
-3.080E-06,-0.640
-3.070E-06,-0.560
-3.060E-06,-0.380
-3.050E-06,-0.200
-3.040E-06,0.020
-3.030E-06,0.260
-3.020E-06,0.520
-3.010E-06,0.720
-3.000E-06,0.860
-2.990E-06,0.940
-2.980E-06,0.940
-2.970E-06,0.840
-2.960E-06,0.720
-2.950E-06,0.480
-2.940E-06,0.220
-2.930E-06,-0.040
-2.920E-06,-0.260
-2.910E-06,-0.440
-2.900E-06,-0.600
-2.890E-06,-0.620
-2.880E-06,-0.640
-2.870E-06,-0.540
-2.860E-06,-0.440
-2.850E-06,-0.340
-2.840E-06,-0.180
-2.830E-06,-0.100
-2.820E-06,-0.040
-2.810E-06,0.080
-2.800E-06,0.060
-2.790E-06,0.160
-2.780E-06,0.020
-2.770E-06,0.060
-2.760E-06,0.000
-2.750E-06,0.020
-2.740E-06,0.020
-2.730E-06,0.100
-2.720E-06,0.160
-2.710E-06,0.240
-2.700E-06,0.220
-2.690E-06,0.220
-2.680E-06,0.160
-2.670E-06,0.140
-2.660E-06,0.100
-2.650E-06,0.060
-2.640E-06,-0.020
-2.630E-06,-0.020
-2.620E-06,-0.100
-2.610E-06,-0.120
-2.600E-06,-0.140
-2.590E-06,-0.120
-2.580E-06,-0.120
-2.570E-06,-0.100
-2.560E-06,-0.060
-2.550E-06,0.060
-2.540E-06,0.140
-2.530E-06,-0.180
-2.520E-06,-0.100
-2.510E-06,-0.180
-2.500E-06,-0.180
-2.490E-06,-0.200
-2.480E-06,-0.120
-2.470E-06,0.000
-2.460E-06,0.000
-2.450E-06,0.000
-2.440E-06,0.000
-2.430E-06,-0.040
-2.420E-06,0.000
-2.410E-06,0.060
-2.400E-06,0.060
-2.390E-06,0.040
-2.380E-06,0.060
-2.370E-06,-0.020
-2.360E-06,-0.080
-2.350E-06,-0.080
-2.340E-06,-0.080
-2.330E-06,-0.060
-2.320E-06,-0.020
-2.310E-06,0.000
-2.300E-06,-0.020
-2.290E-06,-0.020
-2.280E-06,-0.040
-2.270E-06,-0.040
-2.260E-06,-0.020
-2.250E-06,-0.060
-2.240E-06,-0.040
-2.230E-06,-0.020
-2.220E-06,-0.040
-2.210E-06,-0.020
-2.200E-06,-0.020
-2.190E-06,-0.020
-2.180E-06,0.000
-2.170E-06,0.040
-2.160E-06,0.080
-2.150E-06,0.060
-2.140E-06,0.100
-2.130E-06,0.100
-2.120E-06,0.060
-2.110E-06,0.000
-2.100E-06,-0.060
-2.090E-06,-0.040
-2.080E-06,-0.120
-2.070E-06,-0.180
-2.060E-06,-0.220
-2.050E-06,-0.260
-2.040E-06,-0.280
-2.030E-06,-0.300
-2.020E-06,-0.260
-2.010E-06,-0.120
-2.000E-06,0.220
-1.990E-06,0.740
-1.980E-06,1.280
-1.970E-06,1.760
-1.960E-06,1.880
-1.950E-06,1.740
-1.940E-06,1.180
-1.930E-06,0.500
-1.920E-06,-0.260
-1.910E-06,-0.900
-1.900E-06,-1.440
-1.890E-06,-1.760
-1.880E-06,-1.840
-1.870E-06,-1.800
-1.860E-06,-1.540
-1.850E-06,-1.180
-1.840E-06,-0.900
-1.830E-06,-0.740
-1.820E-06,-0.640
-1.810E-06,-0.640
-1.800E-06,-0.520
-1.790E-06,-0.340
-1.780E-06,-0.240
-1.770E-06,-0.160
-1.760E-06,-0.180
-1.750E-06,-0.160
-1.740E-06,0.020
-1.730E-06,0.160
-1.720E-06,0.500
-1.710E-06,0.800
-1.700E-06,1.020
-1.690E-06,1.060
-1.680E-06,0.940
-1.670E-06,0.800
-1.660E-06,0.600
-1.650E-06,0.360
-1.640E-06,0.240
-1.630E-06,0.020
-1.620E-06,-0.100
-1.610E-06,-0.360
-1.600E-06,-0.580
-1.590E-06,-0.680
-1.580E-06,-0.680
-1.570E-06,-0.680
-1.560E-06,-0.740
-1.550E-06,-0.600
-1.540E-06,-0.600
-1.530E-06,-0.480
-1.520E-06,-0.260
-1.510E-06,-0.140
-1.500E-06,-0.060
-1.490E-06,0.020
-1.480E-06,-0.120
-1.470E-06,-0.040
-1.460E-06,-0.120
-1.450E-06,-0.220
-1.440E-06,-0.200
-1.430E-06,-0.140
-1.420E-06,-0.280
-1.410E-06,-0.180
-1.400E-06,-0.360
-1.390E-06,-0.220
-1.380E-06,-0.440
-1.370E-06,-0.340
-1.360E-06,-0.400
-1.350E-06,-0.320
-1.340E-06,-0.360
-1.330E-06,-0.160
-1.320E-06,-0.320
-1.310E-06,-0.200
-1.300E-06,-0.440
-1.290E-06,-0.440
-1.280E-06,-0.420
-1.270E-06,-0.380
-1.260E-06,-0.300
-1.250E-06,-0.120
-1.240E-06,-0.120
-1.230E-06,-0.040
-1.220E-06,-0.160
-1.210E-06,-0.120
-1.200E-06,-0.020
-1.190E-06,-0.160
-1.180E-06,-0.100
-1.170E-06,-0.320
-1.160E-06,-0.200
-1.150E-06,-0.240
-1.140E-06,-0.380
-1.130E-06,-0.360
-1.120E-06,-0.420
-1.110E-06,-0.440
-1.100E-06,-0.600
-1.090E-06,-0.580
-1.080E-06,-0.520
-1.070E-06,-0.500
-1.060E-06,-0.400
-1.050E-06,-0.340
-1.040E-06,-0.420
-1.030E-06,-0.420
-1.020E-06,-0.540
-1.010E-06,-0.520
-1.000E-06,-0.560
-9.900E-07,-0.620
-9.800E-07,-0.720
-9.700E-07,-0.780
-9.600E-07,-0.700
-9.500E-07,-0.620
-9.400E-07,-0.460
-9.300E-07,-0.360
-9.200E-07,-0.340
-9.100E-07,-0.300
-9.000E-07,-0.240
-8.900E-07,-0.180
-8.800E-07,-0.120
-8.700E-07,0.000
-8.600E-07,0.000
-8.500E-07,0.040
-8.400E-07,-0.040
-8.300E-07,-0.100
-8.200E-07,-0.220
-8.100E-07,-0.280
-8.000E-07,-0.320
-7.900E-07,-0.400
-7.800E-07,-0.460
-7.700E-07,-0.460
-7.600E-07,-0.520
-7.500E-07,-0.560
-7.400E-07,-0.600
-7.300E-07,-0.620
-7.200E-07,-0.600
-7.100E-07,-0.560
-7.000E-07,-0.460
-6.900E-07,-0.460
-6.800E-07,-0.440
-6.700E-07,-0.380
-6.600E-07,-0.340
-6.500E-07,-0.240
-6.400E-07,-0.200
-6.300E-07,-0.200
-6.200E-07,-0.200
-6.100E-07,-0.180
-6.000E-07,-0.180
-5.900E-07,-0.160
-5.800E-07,-0.260
-5.700E-07,-0.320
-5.600E-07,-0.400
-5.500E-07,-0.400
-5.400E-07,-0.460
-5.300E-07,-0.420
-5.200E-07,-0.420
-5.100E-07,-0.420
-5.000E-07,-0.420
-4.900E-07,-0.360
-4.800E-07,-0.340
-4.700E-07,-0.380
-4.600E-07,-0.400
-4.500E-07,-0.560
-4.400E-07,-0.500
-4.300E-07,-0.420
-4.200E-07,-0.540
-4.100E-07,-0.440
-4.000E-07,-0.380
-3.900E-07,-0.440
-3.800E-07,-0.440
-3.700E-07,-0.440
-3.600E-07,-0.500
-3.500E-07,-0.440
-3.400E-07,-0.440
-3.300E-07,-0.540
-3.200E-07,-0.440
-3.100E-07,-0.620
-3.000E-07,-0.760
-2.900E-07,-0.860
-2.800E-07,-0.960
-2.700E-07,-0.980
-2.600E-07,-1.000
-2.500E-07,-0.860
-2.400E-07,-0.820
-2.300E-07,-0.620
-2.200E-07,-0.700
-2.100E-07,-0.260
-2.000E-07,-0.360
-1.900E-07,-1.000
-1.800E-07,-0.520
-1.700E-07,-0.300
-1.600E-07,-1.480
-1.500E-07,-0.120
-1.400E-07,-0.200
-1.300E-07,2.080
-1.200E-07,2.060
-1.100E-07,2.080
-1.000E-07,1.280
-9.000E-08,2.100
-8.000E-08,-3.180
-7.000E-08,-0.460
-6.000E-08,-3.320
-5.000E-08,-1.720
-4.000E-08,-3.340
-3.000E-08,-3.120
-2.000E-08,-3.340
-1.000E-08,-3.260
0.000E+00,-2.260
1.000E-08,-2.920
2.000E-08,-2.120
3.000E-08,-2.680
4.000E-08,-1.620
5.000E-08,-1.000
6.000E-08,-0.620
7.000E-08,0.340
8.000E-08,0.520
9.000E-08,0.300
1.000E-07,0.380
1.100E-07,0.320
1.200E-07,0.440
1.300E-07,0.440
1.400E-07,0.540
1.500E-07,0.480
1.600E-07,0.560
1.700E-07,0.320
1.800E-07,0.000
1.900E-07,-0.340
2.000E-07,-0.560
2.100E-07,-0.900
2.200E-07,-1.120
2.300E-07,-1.480
2.400E-07,-1.720
2.500E-07,-1.920
2.600E-07,-2.080
2.700E-07,-2.280
2.800E-07,-2.280
2.900E-07,-2.220
3.000E-07,-1.900
3.100E-07,-1.440
3.200E-07,-1.040
3.300E-07,-0.440
3.400E-07,-0.100
3.500E-07,0.120
3.600E-07,0.380
3.700E-07,0.240
3.800E-07,0.120
3.900E-07,-0.160
4.000E-07,-0.340
4.100E-07,-0.520
4.200E-07,-0.720
4.300E-07,-0.940
4.400E-07,-1.060
4.500E-07,-1.200
4.600E-07,-1.620
4.700E-07,-1.500
4.800E-07,-1.460
4.900E-07,-1.320
5.000E-07,-1.520
5.100E-07,-1.240
5.200E-07,-1.060
5.300E-07,-0.840
5.400E-07,-1.040
5.500E-07,-0.780
5.600E-07,-0.820
5.700E-07,-0.620
5.800E-07,-0.500
5.900E-07,-0.120
6.000E-07,0.660
6.100E-07,0.760
6.200E-07,2.080
6.300E-07,2.060
6.400E-07,2.080
6.500E-07,2.080
6.600E-07,-0.800
6.700E-07,-2.700
6.800E-07,-3.340
6.900E-07,-3.340
7.000E-07,-3.340
7.100E-07,-3.340
7.200E-07,-3.340
7.300E-07,-3.340
7.400E-07,-3.340
7.500E-07,-3.320
7.600E-07,-3.320
7.700E-07,-3.320
7.800E-07,-3.320
7.900E-07,-3.320
8.000E-07,-3.320
8.100E-07,-3.060
8.200E-07,-3.100
8.300E-07,-2.460
8.400E-07,-2.620
8.500E-07,-2.280
8.600E-07,-2.320
8.700E-07,-1.880
8.800E-07,-1.880
8.900E-07,-1.620
9.000E-07,-1.860
9.100E-07,-1.760
9.200E-07,-1.960
9.300E-07,-1.960
9.400E-07,-2.180
9.500E-07,-2.100
9.600E-07,-2.100
9.700E-07,-2.140
9.800E-07,-2.400
9.900E-07,-2.700
1.000E-06,-3.060
1.010E-06,-3.160
1.020E-06,-3.220
1.030E-06,-3.040
1.040E-06,-2.780
1.050E-06,-2.300
1.060E-06,-1.880
1.070E-06,-1.480
1.080E-06,-1.240
1.090E-06,-1.000
1.100E-06,-0.920
1.110E-06,-0.900
1.120E-06,-0.940
1.130E-06,-1.080
1.140E-06,-1.320
1.150E-06,-1.620
1.160E-06,-1.940
1.170E-06,-2.200
1.180E-06,-2.440
1.190E-06,-2.520
1.200E-06,-2.480
1.210E-06,-2.380
1.220E-06,-2.220
1.230E-06,-1.980
1.240E-06,-1.780
1.250E-06,-1.660
1.260E-06,-1.540
1.270E-06,-1.440
1.280E-06,-1.400
1.290E-06,-1.360
1.300E-06,-1.280
1.310E-06,-1.200
1.320E-06,-1.080
1.330E-06,-0.960
1.340E-06,-0.780
1.350E-06,-0.620
1.360E-06,-0.500
1.370E-06,-0.360
1.380E-06,-0.300
1.390E-06,-0.260
1.400E-06,-0.260
1.410E-06,-0.340
1.420E-06,-0.500
1.430E-06,-0.700
1.440E-06,-1.020
1.450E-06,-1.260
1.460E-06,-1.500
1.470E-06,-1.680
1.480E-06,-1.680
1.490E-06,-1.720
1.500E-06,-1.660
1.510E-06,-1.580
1.520E-06,-1.480
1.530E-06,-1.360
1.540E-06,-1.300
1.550E-06,-1.280
1.560E-06,-1.260
1.570E-06,-1.360
1.580E-06,-1.480
1.590E-06,-1.580
1.600E-06,-1.620
1.610E-06,-1.720
1.620E-06,-1.780
1.630E-06,-1.840
1.640E-06,-1.840
1.650E-06,-1.840
1.660E-06,-1.760
1.670E-06,-1.620
1.680E-06,-1.480
1.690E-06,-1.340
1.700E-06,-1.180
1.710E-06,-1.020
1.720E-06,-0.920
1.730E-06,-0.860
1.740E-06,-0.780
1.750E-06,-0.760
1.760E-06,-0.700
1.770E-06,-0.680
1.780E-06,-0.660
1.790E-06,-0.620
1.800E-06,-0.520
1.810E-06,-0.400
1.820E-06,-0.360
1.830E-06,-0.260
1.840E-06,-0.200
1.850E-06,-0.140
1.860E-06,-0.140
1.870E-06,-0.180
1.880E-06,-0.200
1.890E-06,-0.320
1.900E-06,-0.440
1.910E-06,-0.500
1.920E-06,-0.560
1.930E-06,-0.520
1.940E-06,-0.440
1.950E-06,-0.380
1.960E-06,-0.320
1.970E-06,-0.220
1.980E-06,-0.120
1.990E-06,-0.020
2.000E-06,0.040
2.010E-06,0.080
2.020E-06,0.100
2.030E-06,0.120
2.040E-06,0.140
2.050E-06,0.120
2.060E-06,0.140
2.070E-06,0.100
2.080E-06,0.120
2.090E-06,0.120
2.100E-06,0.160
2.110E-06,0.160
2.120E-06,0.200
2.130E-06,0.220
2.140E-06,0.240
2.150E-06,0.280
2.160E-06,0.280
2.170E-06,0.300
2.180E-06,0.280
2.190E-06,0.280
2.200E-06,0.300
2.210E-06,0.300
2.220E-06,0.260
2.230E-06,0.220
2.240E-06,0.180
2.250E-06,0.200
2.260E-06,0.180
2.270E-06,0.160
2.280E-06,0.180
2.290E-06,0.160
2.300E-06,0.180
2.310E-06,0.140
2.320E-06,0.140
2.330E-06,0.140
2.340E-06,0.120
2.350E-06,0.060
2.360E-06,0.080
2.370E-06,0.080
2.380E-06,0.100
2.390E-06,0.140
2.400E-06,0.180
2.410E-06,0.200
2.420E-06,0.240
2.430E-06,0.220
2.440E-06,0.260
2.450E-06,0.240
2.460E-06,0.200
2.470E-06,0.160
2.480E-06,0.120
2.490E-06,0.100
2.500E-06,0.060
2.510E-06,0.060
2.520E-06,0.080
2.530E-06,0.100
2.540E-06,0.160
2.550E-06,0.200
2.560E-06,0.200
2.570E-06,0.260
2.580E-06,0.240
2.590E-06,0.280
2.600E-06,0.280
2.610E-06,0.300
2.620E-06,0.280
2.630E-06,0.200
2.640E-06,0.160
2.650E-06,0.060
2.660E-06,0.000
2.670E-06,-0.060
2.680E-06,-0.080
2.690E-06,-0.020
2.700E-06,0.040
2.710E-06,-0.100
2.720E-06,-0.320
2.730E-06,-0.620
2.740E-06,-0.460
2.750E-06,-0.160
2.760E-06,-0.060
2.770E-06,-0.100
2.780E-06,-0.100
2.790E-06,-0.020
2.800E-06,0.020
2.810E-06,0.100
2.820E-06,0.040
2.830E-06,0.120
2.840E-06,0.080
2.850E-06,0.080
2.860E-06,0.000
2.870E-06,-0.020
2.880E-06,0.000
2.890E-06,0.040
2.900E-06,0.080
2.910E-06,0.160
2.920E-06,0.200
2.930E-06,0.240
2.940E-06,0.260
2.950E-06,0.300
2.960E-06,0.340
2.970E-06,0.400
2.980E-06,0.400
2.990E-06,0.420
3.000E-06,0.440
3.010E-06,0.420
3.020E-06,0.440
3.030E-06,0.440
3.040E-06,0.460
3.050E-06,0.480
3.060E-06,0.480
3.070E-06,0.480
3.080E-06,0.500
3.090E-06,0.520
3.100E-06,0.520
3.110E-06,0.500
3.120E-06,0.500
3.130E-06,0.540
3.140E-06,0.540
3.150E-06,0.540
3.160E-06,0.520
3.170E-06,0.520
3.180E-06,0.420
3.190E-06,0.340
3.200E-06,0.260
3.210E-06,0.180
3.220E-06,0.100
3.230E-06,0.040
3.240E-06,0.000
3.250E-06,0.000
3.260E-06,0.000
3.270E-06,0.020
3.280E-06,0.040
