mediciones/curva carac 8-28 limpias/-42/WaveData65909.csv

#timebase=2000000(ps)
,#voltbase=500000(mv/100)
#size=4000
-8.350E-06,0.040
-8.340E-06,0.060
-8.330E-06,0.040
-8.320E-06,0.080
-8.310E-06,0.060
-8.300E-06,0.020
-8.290E-06,0.000
-8.280E-06,0.040
-8.270E-06,0.040
-8.260E-06,0.020
-8.250E-06,0.020
-8.240E-06,0.040
-8.230E-06,0.040
-8.220E-06,0.020
-8.210E-06,0.020
-8.200E-06,0.040
-8.190E-06,0.040
-8.180E-06,0.040
-8.170E-06,0.040
-8.160E-06,0.060
-8.150E-06,0.060
-8.140E-06,0.020
-8.130E-06,0.020
-8.120E-06,0.060
-8.110E-06,0.020
-8.100E-06,0.060
-8.090E-06,0.040
-8.080E-06,0.020
-8.070E-06,0.040
-8.060E-06,0.060
-8.050E-06,0.040
-8.040E-06,0.060
-8.030E-06,0.060
-8.020E-06,0.060
-8.010E-06,0.020
-8.000E-06,0.040
-7.990E-06,0.040
-7.980E-06,0.080
-7.970E-06,0.060
-7.960E-06,0.040
-7.950E-06,0.060
-7.940E-06,0.060
-7.930E-06,0.020
-7.920E-06,0.000
-7.910E-06,0.040
-7.900E-06,0.020
-7.890E-06,0.040
-7.880E-06,0.020
-7.870E-06,0.060
-7.860E-06,0.060
-7.850E-06,0.040
-7.840E-06,0.040
-7.830E-06,0.020
-7.820E-06,0.020
-7.810E-06,0.040
-7.800E-06,0.020
-7.790E-06,0.020
-7.780E-06,0.040
-7.770E-06,0.080
-7.760E-06,0.040
-7.750E-06,0.000
-7.740E-06,0.000
-7.730E-06,0.040
-7.720E-06,0.040
-7.710E-06,0.000
-7.700E-06,0.020
-7.690E-06,0.020
-7.680E-06,0.020
-7.670E-06,0.020
-7.660E-06,0.020
-7.650E-06,0.040
-7.640E-06,0.040
-7.630E-06,0.040
-7.620E-06,0.040
-7.610E-06,0.060
-7.600E-06,0.020
-7.590E-06,0.060
-7.580E-06,0.020
-7.570E-06,0.020
-7.560E-06,0.040
-7.550E-06,0.020
-7.540E-06,0.020
-7.530E-06,0.040
-7.520E-06,0.040
-7.510E-06,0.040
-7.500E-06,0.040
-7.490E-06,0.060
-7.480E-06,0.040
-7.470E-06,0.040
-7.460E-06,0.060
-7.450E-06,0.040
-7.440E-06,0.060
-7.430E-06,0.040
-7.420E-06,0.040
-7.410E-06,0.020
-7.400E-06,0.040
-7.390E-06,0.020
-7.380E-06,0.040
-7.370E-06,0.040
-7.360E-06,0.060
-7.350E-06,0.040
-7.340E-06,0.020
-7.330E-06,0.040
-7.320E-06,0.040
-7.310E-06,0.080
-7.300E-06,0.060
-7.290E-06,0.020
-7.280E-06,0.040
-7.270E-06,0.060
-7.260E-06,0.080
-7.250E-06,0.060
-7.240E-06,0.040
-7.230E-06,0.020
-7.220E-06,0.040
-7.210E-06,0.020
-7.200E-06,0.040
-7.190E-06,-0.020
-7.180E-06,0.060
-7.170E-06,0.020
-7.160E-06,0.040
-7.150E-06,0.060
-7.140E-06,0.020
-7.130E-06,0.020
-7.120E-06,0.060
-7.110E-06,0.040
-7.100E-06,0.080
-7.090E-06,0.040
-7.080E-06,0.040
-7.070E-06,0.040
-7.060E-06,0.060
-7.050E-06,0.060
-7.040E-06,0.040
-7.030E-06,0.000
-7.020E-06,0.040
-7.010E-06,0.000
-7.000E-06,0.060
-6.990E-06,0.040
-6.980E-06,0.040
-6.970E-06,0.060
-6.960E-06,0.040
-6.950E-06,0.040
-6.940E-06,0.040
-6.930E-06,0.040
-6.920E-06,0.000
-6.910E-06,0.040
-6.900E-06,0.040
-6.890E-06,0.060
-6.880E-06,0.020
-6.870E-06,0.020
-6.860E-06,0.060
-6.850E-06,0.020
-6.840E-06,0.040
-6.830E-06,0.020
-6.820E-06,0.040
-6.810E-06,0.040
-6.800E-06,0.040
-6.790E-06,0.080
-6.780E-06,0.060
-6.770E-06,0.040
-6.760E-06,0.040
-6.750E-06,0.020
-6.740E-06,0.000
-6.730E-06,0.060
-6.720E-06,0.020
-6.710E-06,0.060
-6.700E-06,0.040
-6.690E-06,0.040
-6.680E-06,0.020
-6.670E-06,0.020
-6.660E-06,0.000
-6.650E-06,0.020
-6.640E-06,0.020
-6.630E-06,0.040
-6.620E-06,0.020
-6.610E-06,0.040
-6.600E-06,0.020
-6.590E-06,0.040
-6.580E-06,0.040
-6.570E-06,0.040
-6.560E-06,0.020
-6.550E-06,0.040
-6.540E-06,0.020
-6.530E-06,0.000
-6.520E-06,0.060
-6.510E-06,0.040
-6.500E-06,0.020
-6.490E-06,0.040
-6.480E-06,0.060
-6.470E-06,0.040
-6.460E-06,0.020
-6.450E-06,0.020
-6.440E-06,0.040
-6.430E-06,-0.020
-6.420E-06,0.020
-6.410E-06,0.020
-6.400E-06,0.040
-6.390E-06,0.040
-6.380E-06,0.040
-6.370E-06,0.040
-6.360E-06,0.060
-6.350E-06,0.040
-6.340E-06,0.040
-6.330E-06,0.040
-6.320E-06,0.060
-6.310E-06,0.040
-6.300E-06,0.040
-6.290E-06,0.020
-6.280E-06,0.040
-6.270E-06,0.060
-6.260E-06,0.020
-6.250E-06,0.040
-6.240E-06,0.040
-6.230E-06,0.080
-6.220E-06,0.040
-6.210E-06,0.040
-6.200E-06,0.040
-6.190E-06,0.060
-6.180E-06,0.040
-6.170E-06,0.060
-6.160E-06,0.060
-6.150E-06,0.000
-6.140E-06,0.020
-6.130E-06,0.040
-6.120E-06,0.000
-6.110E-06,0.040
-6.100E-06,0.040
-6.090E-06,0.040
-6.080E-06,0.020
-6.070E-06,0.060
-6.060E-06,0.080
-6.050E-06,0.060
-6.040E-06,0.060
-6.030E-06,0.060
-6.020E-06,0.080
-6.010E-06,0.060
-6.000E-06,0.040
-5.990E-06,0.040
-5.980E-06,0.060
-5.970E-06,0.020
-5.960E-06,0.060
-5.950E-06,0.060
-5.940E-06,0.060
-5.930E-06,0.060
-5.920E-06,0.040
-5.910E-06,0.040
-5.900E-06,0.040
-5.890E-06,0.060
-5.880E-06,0.060
-5.870E-06,0.020
-5.860E-06,0.020
-5.850E-06,0.040
-5.840E-06,0.080
-5.830E-06,0.060
-5.820E-06,0.020
-5.810E-06,0.060
-5.800E-06,0.020
-5.790E-06,0.020
-5.780E-06,0.040
-5.770E-06,0.040
-5.760E-06,0.000
-5.750E-06,0.060
-5.740E-06,0.080
-5.730E-06,0.040
-5.720E-06,0.020
-5.710E-06,0.040
-5.700E-06,0.020
-5.690E-06,0.060
-5.680E-06,0.040
-5.670E-06,0.020
-5.660E-06,0.020
-5.650E-06,0.060
-5.640E-06,0.040
-5.630E-06,0.020
-5.620E-06,0.020
-5.610E-06,0.060
-5.600E-06,0.000
-5.590E-06,0.040
-5.580E-06,0.020
-5.570E-06,0.060
-5.560E-06,0.020
-5.550E-06,0.000
-5.540E-06,0.020
-5.530E-06,0.040
-5.520E-06,0.060
-5.510E-06,0.040
-5.500E-06,0.020
-5.490E-06,0.060
-5.480E-06,0.000
-5.470E-06,0.040
-5.460E-06,0.060
-5.450E-06,0.040
-5.440E-06,0.080
-5.430E-06,0.040
-5.420E-06,0.000
-5.410E-06,0.040
-5.400E-06,0.040
-5.390E-06,0.040
-5.380E-06,0.060
-5.370E-06,0.040
-5.360E-06,0.080
-5.350E-06,0.060
-5.340E-06,0.000
-5.330E-06,0.020
-5.320E-06,0.020
-5.310E-06,0.020
-5.300E-06,0.040
-5.290E-06,0.060
-5.280E-06,0.060
-5.270E-06,0.020
-5.260E-06,0.020
-5.250E-06,0.020
-5.240E-06,0.020
-5.230E-06,0.020
-5.220E-06,0.040
-5.210E-06,0.020
-5.200E-06,0.060
-5.190E-06,0.040
-5.180E-06,0.020
-5.170E-06,0.060
-5.160E-06,0.020
-5.150E-06,0.080
-5.140E-06,0.020
-5.130E-06,0.040
-5.120E-06,0.020
-5.110E-06,0.040
-5.100E-06,0.040
-5.090E-06,0.020
-5.080E-06,0.020
-5.070E-06,0.060
-5.060E-06,0.060
-5.050E-06,0.020
-5.040E-06,0.020
-5.030E-06,0.060
-5.020E-06,0.040
-5.010E-06,0.060
-5.000E-06,0.020
-4.990E-06,0.040
-4.980E-06,0.040
-4.970E-06,0.040
-4.960E-06,0.020
-4.950E-06,0.020
-4.940E-06,0.040
-4.930E-06,0.040
-4.920E-06,0.040
-4.910E-06,0.040
-4.900E-06,0.040
-4.890E-06,0.060
-4.880E-06,0.020
-4.870E-06,0.020
-4.860E-06,0.040
-4.850E-06,0.020
-4.840E-06,0.060
-4.830E-06,0.040
-4.820E-06,0.040
-4.810E-06,0.060
-4.800E-06,0.060
-4.790E-06,0.060
-4.780E-06,0.040
-4.770E-06,0.020
-4.760E-06,0.020
-4.750E-06,0.040
-4.740E-06,0.020
-4.730E-06,0.060
-4.720E-06,0.020
-4.710E-06,0.060
-4.700E-06,0.040
-4.690E-06,0.060
-4.680E-06,0.040
-4.670E-06,0.020
-4.660E-06,0.060
-4.650E-06,0.060
-4.640E-06,0.040
-4.630E-06,0.060
-4.620E-06,0.040
-4.610E-06,0.060
-4.600E-06,0.000
-4.590E-06,0.040
-4.580E-06,0.040
-4.570E-06,0.040
-4.560E-06,0.020
-4.550E-06,0.020
-4.540E-06,0.040
-4.530E-06,0.020
-4.520E-06,0.040
-4.510E-06,0.020
-4.500E-06,0.040
-4.490E-06,0.000
-4.480E-06,0.040
-4.470E-06,0.040
-4.460E-06,0.060
-4.450E-06,0.040
-4.440E-06,0.020
-4.430E-06,0.040
-4.420E-06,0.040
-4.410E-06,0.040
-4.400E-06,0.020
-4.390E-06,0.040
-4.380E-06,0.040
-4.370E-06,-0.020
-4.360E-06,0.000
-4.350E-06,0.020
-4.340E-06,0.040
-4.330E-06,0.080
-4.320E-06,0.020
-4.310E-06,0.020
-4.300E-06,0.040
-4.290E-06,0.020
-4.280E-06,0.000
-4.270E-06,0.040
-4.260E-06,0.040
-4.250E-06,0.020
-4.240E-06,0.040
-4.230E-06,0.020
-4.220E-06,0.080
-4.210E-06,0.040
-4.200E-06,0.020
-4.190E-06,0.040
-4.180E-06,-0.020
-4.170E-06,0.040
-4.160E-06,0.040
-4.150E-06,0.060
-4.140E-06,0.000
-4.130E-06,0.040
-4.120E-06,0.040
-4.110E-06,0.040
-4.100E-06,0.040
-4.090E-06,0.020
-4.080E-06,0.040
-4.070E-06,0.040
-4.060E-06,0.060
-4.050E-06,0.040
-4.040E-06,0.040
-4.030E-06,0.020
-4.020E-06,0.060
-4.010E-06,0.060
-4.000E-06,0.020
-3.990E-06,0.060
-3.980E-06,0.040
-3.970E-06,0.020
-3.960E-06,0.040
-3.950E-06,-0.020
-3.940E-06,0.020
-3.930E-06,0.040
-3.920E-06,0.060
-3.910E-06,0.000
-3.900E-06,0.020
-3.890E-06,0.020
-3.880E-06,0.020
-3.870E-06,0.040
-3.860E-06,0.060
-3.850E-06,0.040
-3.840E-06,0.020
-3.830E-06,0.040
-3.820E-06,0.020
-3.810E-06,0.040
-3.800E-06,0.040
-3.790E-06,0.060
-3.780E-06,0.020
-3.770E-06,0.000
-3.760E-06,0.060
-3.750E-06,0.020
-3.740E-06,0.020
-3.730E-06,0.060
-3.720E-06,0.080
-3.710E-06,0.000
-3.700E-06,-0.080
-3.690E-06,-0.460
-3.680E-06,-1.300
-3.670E-06,-2.400
-3.660E-06,-3.360
-3.650E-06,-3.360
-3.640E-06,-3.000
-3.630E-06,-2.140
-3.620E-06,-1.480
-3.610E-06,0.820
-3.600E-06,1.640
-3.590E-06,2.060
-3.580E-06,2.080
-3.570E-06,2.080
-3.560E-06,2.080
-3.550E-06,2.080
-3.540E-06,2.100
-3.530E-06,2.100
-3.520E-06,1.420
-3.510E-06,0.680
-3.500E-06,-0.180
-3.490E-06,-0.680
-3.480E-06,-0.820
-3.470E-06,-0.580
-3.460E-06,-0.500
-3.450E-06,-0.400
-3.440E-06,-0.300
-3.430E-06,-0.500
-3.420E-06,-0.840
-3.410E-06,-1.240
-3.400E-06,-1.600
-3.390E-06,-1.960
-3.380E-06,-2.140
-3.370E-06,-2.100
-3.360E-06,-1.980
-3.350E-06,-1.600
-3.340E-06,-1.020
-3.330E-06,-0.340
-3.320E-06,0.380
-3.310E-06,1.100
-3.300E-06,1.660
-3.290E-06,1.880
-3.280E-06,1.920
-3.270E-06,1.780
-3.260E-06,1.460
-3.250E-06,0.980
-3.240E-06,0.500
-3.230E-06,-0.020
-3.220E-06,-0.460
-3.210E-06,-0.800
-3.200E-06,-1.020
-3.190E-06,-1.140
-3.180E-06,-1.100
-3.170E-06,-1.000
-3.160E-06,-0.840
-3.150E-06,-0.680
-3.140E-06,-0.480
-3.130E-06,-0.240
-3.120E-06,-0.060
-3.110E-06,0.220
-3.100E-06,0.420
-3.090E-06,0.740
-3.080E-06,0.920
-3.070E-06,1.080
-3.060E-06,1.180
-3.050E-06,1.200
-3.040E-06,1.140
-3.030E-06,1.000
-3.020E-06,0.800
-3.010E-06,0.560
-3.000E-06,0.400
-2.990E-06,0.180
-2.980E-06,-0.040
-2.970E-06,-0.260
-2.960E-06,-0.440
-2.950E-06,-0.560
-2.940E-06,-0.620
-2.930E-06,-0.680
-2.920E-06,-0.700
-2.910E-06,-0.780
-2.900E-06,-0.740
-2.890E-06,-0.680
-2.880E-06,-0.580
-2.870E-06,-0.420
-2.860E-06,-0.160
-2.850E-06,0.140
-2.840E-06,0.360
-2.830E-06,0.620
-2.820E-06,0.820
-2.810E-06,0.940
-2.800E-06,1.000
-2.790E-06,0.960
-2.780E-06,0.860
-2.770E-06,0.680
-2.760E-06,0.480
-2.750E-06,0.220
-2.740E-06,-0.040
-2.730E-06,-0.240
-2.720E-06,-0.440
-2.710E-06,-0.560
-2.700E-06,-0.600
-2.690E-06,-0.600
-2.680E-06,-0.580
-2.670E-06,-0.500
-2.660E-06,-0.380
-2.650E-06,-0.280
-2.640E-06,-0.200
-2.630E-06,-0.080
-2.620E-06,0.000
-2.610E-06,0.020
-2.600E-06,0.040
-2.590E-06,0.080
-2.580E-06,0.040
-2.570E-06,0.100
-2.560E-06,0.120
-2.550E-06,0.180
-2.540E-06,0.180
-2.530E-06,0.180
-2.520E-06,0.240
-2.510E-06,0.200
-2.500E-06,0.220
-2.490E-06,0.180
-2.480E-06,0.080
-2.470E-06,0.080
-2.460E-06,0.000
-2.450E-06,-0.060
-2.440E-06,-0.100
-2.430E-06,-0.100
-2.420E-06,-0.080
-2.410E-06,-0.060
-2.400E-06,-0.020
-2.390E-06,0.040
-2.380E-06,0.080
-2.370E-06,0.100
-2.360E-06,0.140
-2.350E-06,0.160
-2.340E-06,0.140
-2.330E-06,0.120
-2.320E-06,0.120
-2.310E-06,0.080
-2.300E-06,0.100
-2.290E-06,0.080
-2.280E-06,0.040
-2.270E-06,0.020
-2.260E-06,0.020
-2.250E-06,-0.020
-2.240E-06,-0.040
-2.230E-06,-0.040
-2.220E-06,-0.020
-2.210E-06,-0.020
-2.200E-06,-0.040
-2.190E-06,-0.040
-2.180E-06,-0.100
-2.170E-06,-0.140
-2.160E-06,-0.180
-2.150E-06,-0.160
-2.140E-06,-0.200
-2.130E-06,-0.160
-2.120E-06,-0.140
-2.110E-06,-0.020
-2.100E-06,-0.020
-2.090E-06,-0.080
-2.080E-06,-0.080
-2.070E-06,-0.040
-2.060E-06,-0.060
-2.050E-06,-0.080
-2.040E-06,-0.080
-2.030E-06,-0.060
-2.020E-06,0.000
-2.010E-06,0.020
-2.000E-06,0.060
-1.990E-06,0.100
-1.980E-06,0.160
-1.970E-06,0.220
-1.960E-06,0.240
-1.950E-06,0.260
-1.940E-06,0.260
-1.930E-06,0.220
-1.920E-06,0.220
-1.910E-06,0.180
-1.900E-06,0.180
-1.890E-06,0.140
-1.880E-06,0.060
-1.870E-06,-0.020
-1.860E-06,-0.060
-1.850E-06,-0.120
-1.840E-06,-0.120
-1.830E-06,-0.020
-1.820E-06,0.340
-1.810E-06,0.880
-1.800E-06,1.420
-1.790E-06,1.820
-1.780E-06,1.920
-1.770E-06,1.640
-1.760E-06,1.080
-1.750E-06,0.360
-1.740E-06,-0.320
-1.730E-06,-0.960
-1.720E-06,-1.400
-1.710E-06,-1.700
-1.700E-06,-1.860
-1.690E-06,-1.820
-1.680E-06,-1.620
-1.670E-06,-1.260
-1.660E-06,-0.860
-1.650E-06,-0.620
-1.640E-06,-0.520
-1.630E-06,-0.440
-1.620E-06,-0.400
-1.610E-06,-0.320
-1.600E-06,-0.200
-1.590E-06,-0.160
-1.580E-06,-0.100
-1.570E-06,-0.060
-1.560E-06,0.140
-1.550E-06,0.300
-1.540E-06,0.520
-1.530E-06,0.780
-1.520E-06,0.980
-1.510E-06,1.060
-1.500E-06,1.000
-1.490E-06,0.880
-1.480E-06,0.640
-1.470E-06,0.420
-1.460E-06,0.160
-1.450E-06,-0.120
-1.440E-06,-0.380
-1.430E-06,-0.620
-1.420E-06,-0.800
-1.410E-06,-0.920
-1.400E-06,-0.880
-1.390E-06,-0.720
-1.380E-06,-0.440
-1.370E-06,-0.160
-1.360E-06,0.140
-1.350E-06,0.340
-1.340E-06,0.500
-1.330E-06,0.600
-1.320E-06,0.620
-1.310E-06,0.560
-1.300E-06,0.500
-1.290E-06,0.380
-1.280E-06,0.220
-1.270E-06,0.060
-1.260E-06,-0.120
-1.250E-06,-0.300
-1.240E-06,-0.420
-1.230E-06,-0.520
-1.220E-06,-0.580
-1.210E-06,-0.620
-1.200E-06,-0.600
-1.190E-06,-0.600
-1.180E-06,-0.520
-1.170E-06,-0.480
-1.160E-06,-0.460
-1.150E-06,-0.460
-1.140E-06,-0.420
-1.130E-06,-0.420
-1.120E-06,-0.360
-1.110E-06,-0.340
-1.100E-06,-0.220
-1.090E-06,-0.140
-1.080E-06,-0.020
-1.070E-06,0.100
-1.060E-06,0.240
-1.050E-06,0.360
-1.040E-06,0.440
-1.030E-06,0.420
-1.020E-06,0.380
-1.010E-06,0.340
-1.000E-06,0.260
-9.900E-07,0.140
-9.800E-07,-0.020
-9.700E-07,-0.200
-9.600E-07,-0.360
-9.500E-07,-0.540
-9.400E-07,-0.600
-9.300E-07,-0.640
-9.200E-07,-0.580
-9.100E-07,-0.520
-9.000E-07,-0.420
-8.900E-07,-0.340
-8.800E-07,-0.260
-8.700E-07,-0.100
-8.600E-07,-0.020
-8.500E-07,0.040
-8.400E-07,0.040
-8.300E-07,-0.020
-8.200E-07,-0.060
-8.100E-07,-0.020
-8.000E-07,0.020
-7.900E-07,0.040
-7.800E-07,-0.060
-7.700E-07,-0.120
-7.600E-07,-0.140
-7.500E-07,-0.200
-7.400E-07,-0.140
-7.300E-07,-0.080
-7.200E-07,-0.020
-7.100E-07,-0.020
-7.000E-07,-0.040
-6.900E-07,-0.120
-6.800E-07,-0.140
-6.700E-07,-0.220
-6.600E-07,-0.220
-6.500E-07,-0.200
-6.400E-07,-0.260
-6.300E-07,-0.260
-6.200E-07,-0.220
-6.100E-07,-0.260
-6.000E-07,-0.200
-5.900E-07,-0.180
-5.800E-07,-0.080
-5.700E-07,0.000
-5.600E-07,0.000
-5.500E-07,0.000
-5.400E-07,-0.060
-5.300E-07,-0.120
-5.200E-07,-0.180
-5.100E-07,-0.200
-5.000E-07,-0.220
-4.900E-07,-0.220
-4.800E-07,-0.200
-4.700E-07,-0.200
-4.600E-07,-0.180
-4.500E-07,-0.200
-4.400E-07,-0.200
-4.300E-07,-0.160
-4.200E-07,-0.180
-4.100E-07,-0.140
-4.000E-07,-0.080
-3.900E-07,-0.040
-3.800E-07,-0.020
-3.700E-07,0.000
-3.600E-07,0.060
-3.500E-07,0.060
-3.400E-07,0.060
-3.300E-07,0.060
-3.200E-07,0.040
-3.100E-07,0.040
-3.000E-07,-0.020
-2.900E-07,0.000
-2.800E-07,0.020
-2.700E-07,-0.020
-2.600E-07,-0.020
-2.500E-07,-0.020
-2.400E-07,-0.020
-2.300E-07,-0.080
-2.200E-07,-0.100
-2.100E-07,-0.100
-2.000E-07,-0.120
-1.900E-07,-0.040
-1.800E-07,-0.020
-1.700E-07,-0.040
-1.600E-07,-0.080
-1.500E-07,0.420
-1.400E-07,0.640
-1.300E-07,0.820
-1.200E-07,0.560
-1.100E-07,0.360
-1.000E-07,-0.380
-9.000E-08,-0.860
-8.000E-08,-1.080
-7.000E-08,-1.180
-6.000E-08,-0.820
-5.000E-08,-0.360
-4.000E-08,-0.300
-3.000E-08,-0.420
-2.000E-08,-0.260
-1.000E-08,-0.600
0.000E+00,-0.500
1.000E-08,-0.680
2.000E-08,-0.420
3.000E-08,0.120
4.000E-08,-0.340
5.000E-08,0.320
6.000E-08,-0.020
7.000E-08,0.180
8.000E-08,0.160
9.000E-08,0.400
1.000E-07,-0.140
1.100E-07,0.380
1.200E-07,-0.260
1.300E-07,0.280
1.400E-07,-0.560
1.500E-07,0.100
1.600E-07,-0.240
1.700E-07,-0.440
1.800E-07,0.060
1.900E-07,-0.500
2.000E-07,-0.300
2.100E-07,-0.300
2.200E-07,-0.320
2.300E-07,-0.400
2.400E-07,-0.420
2.500E-07,-0.540
2.600E-07,-0.320
2.700E-07,-0.580
2.800E-07,-0.220
2.900E-07,-0.120
3.000E-07,0.080
3.100E-07,0.100
3.200E-07,0.160
3.300E-07,0.160
3.400E-07,0.080
3.500E-07,0.000
3.600E-07,-0.060
3.700E-07,-0.120
3.800E-07,-0.180
3.900E-07,-0.240
4.000E-07,-0.360
4.100E-07,-0.420
4.200E-07,-0.520
4.300E-07,-0.580
4.400E-07,-0.580
4.500E-07,-0.560
4.600E-07,-0.560
4.700E-07,-0.460
4.800E-07,-0.440
4.900E-07,-0.360
5.000E-07,-0.360
5.100E-07,-0.340
5.200E-07,-0.320
5.300E-07,-0.260
5.400E-07,-0.320
5.500E-07,-0.240
5.600E-07,-0.140
5.700E-07,-0.180
5.800E-07,-0.080
5.900E-07,0.000
6.000E-07,-0.040
6.100E-07,0.080
6.200E-07,0.080
6.300E-07,-0.200
6.400E-07,0.600
6.500E-07,1.080
6.600E-07,0.420
6.700E-07,2.080
6.800E-07,-0.100
6.900E-07,0.480
7.000E-07,-2.400
7.100E-07,-2.280
7.200E-07,-1.880
7.300E-07,-1.460
7.400E-07,-0.920
7.500E-07,-0.700
7.600E-07,-0.480
7.700E-07,-0.560
7.800E-07,-0.760
7.900E-07,-0.580
8.000E-07,-0.340
8.100E-07,0.080
8.200E-07,0.420
8.300E-07,0.080
8.400E-07,-0.440
8.500E-07,-0.340
8.600E-07,-0.400
8.700E-07,-0.080
8.800E-07,-0.120
8.900E-07,0.160
9.000E-07,-0.200
9.100E-07,-0.140
9.200E-07,-0.460
9.300E-07,-0.680
9.400E-07,-0.920
9.500E-07,-0.700
9.600E-07,-0.260
9.700E-07,0.320
9.800E-07,0.320
9.900E-07,2.080
1.000E-06,2.080
1.010E-06,2.060
1.020E-06,0.440
1.030E-06,-1.300
1.040E-06,-2.160
1.050E-06,-3.080
1.060E-06,-2.940
1.070E-06,-1.980
1.080E-06,-1.480
1.090E-06,-0.880
1.100E-06,-0.820
1.110E-06,-1.000
1.120E-06,-1.380
1.130E-06,-1.600
1.140E-06,-1.700
1.150E-06,-0.320
1.160E-06,0.500
1.170E-06,0.540
1.180E-06,0.420
1.190E-06,0.080
1.200E-06,-0.440
1.210E-06,-0.840
1.220E-06,-0.660
1.230E-06,0.020
1.240E-06,0.240
1.250E-06,0.540
1.260E-06,0.640
1.270E-06,0.320
1.280E-06,0.420
1.290E-06,0.180
1.300E-06,0.140
1.310E-06,-0.180
1.320E-06,-0.480
1.330E-06,0.420
1.340E-06,0.480
1.350E-06,0.680
1.360E-06,0.440
1.370E-06,0.120
1.380E-06,-0.540
1.390E-06,-0.620
1.400E-06,-1.100
1.410E-06,-0.600
1.420E-06,-0.200
1.430E-06,0.100
1.440E-06,0.260
1.450E-06,0.060
1.460E-06,0.140
1.470E-06,-0.100
1.480E-06,-0.260
1.490E-06,-0.500
1.500E-06,-0.620
1.510E-06,-0.720
1.520E-06,-0.820
1.530E-06,-0.880
1.540E-06,-0.860
1.550E-06,-0.900
1.560E-06,-0.820
1.570E-06,-0.760
1.580E-06,-0.180
1.590E-06,0.540
1.600E-06,0.420
1.610E-06,0.500
1.620E-06,-0.040
1.630E-06,-0.040
1.640E-06,-1.080
1.650E-06,0.180
1.660E-06,-0.620
1.670E-06,-0.180
1.680E-06,-0.660
1.690E-06,-0.280
1.700E-06,-0.860
1.710E-06,-0.460
1.720E-06,-0.200
1.730E-06,0.360
1.740E-06,0.360
1.750E-06,0.560
1.760E-06,0.540
1.770E-06,0.340
1.780E-06,0.080
1.790E-06,-0.020
1.800E-06,-0.040
1.810E-06,-0.360
1.820E-06,-0.020
1.830E-06,-0.440
1.840E-06,-0.480
1.850E-06,-0.600
1.860E-06,-0.500
1.870E-06,-0.440
1.880E-06,-0.440
1.890E-06,-0.220
1.900E-06,0.100
1.910E-06,-0.040
1.920E-06,-0.020
1.930E-06,-0.240
1.940E-06,-0.380
1.950E-06,-0.540
1.960E-06,-0.680
1.970E-06,-0.720
1.980E-06,-0.840
1.990E-06,-0.760
2.000E-06,-0.720
2.010E-06,-0.580
2.020E-06,-0.540
2.030E-06,-0.500
2.040E-06,-0.520
2.050E-06,-0.160
2.060E-06,-0.280
2.070E-06,0.020
2.080E-06,-0.020
2.090E-06,0.000
2.100E-06,-0.160
2.110E-06,-0.300
2.120E-06,-0.560
2.130E-06,-0.760
2.140E-06,-0.800
2.150E-06,-0.800
2.160E-06,-0.740
2.170E-06,-0.760
2.180E-06,-0.700
2.190E-06,-0.540
2.200E-06,-0.460
2.210E-06,-0.500
2.220E-06,-0.460
2.230E-06,-0.460
2.240E-06,-0.480
2.250E-06,-0.500
2.260E-06,-0.360
2.270E-06,-0.440
2.280E-06,-0.500
2.290E-06,-0.580
2.300E-06,-0.580
2.310E-06,-0.460
2.320E-06,-0.560
2.330E-06,-0.380
2.340E-06,-0.420
2.350E-06,-0.260
2.360E-06,-0.200
2.370E-06,-0.140
2.380E-06,-0.160
2.390E-06,-0.160
2.400E-06,-0.120
2.410E-06,-0.080
2.420E-06,0.020
2.430E-06,-0.060
2.440E-06,-0.300
2.450E-06,0.020
2.460E-06,-0.820
2.470E-06,0.080
2.480E-06,0.320
2.490E-06,1.720
2.500E-06,0.200
2.510E-06,1.800
2.520E-06,-1.660
2.530E-06,-1.620
2.540E-06,-3.340
2.550E-06,-2.740
2.560E-06,-1.000
2.570E-06,-1.040
2.580E-06,0.340
2.590E-06,-0.560
2.600E-06,-0.540
2.610E-06,-1.540
2.620E-06,-1.800
2.630E-06,-1.280
2.640E-06,-1.060
2.650E-06,-1.020
2.660E-06,-1.480
2.670E-06,-1.880
2.680E-06,-1.200
2.690E-06,-0.920
2.700E-06,-0.600
2.710E-06,-0.180
2.720E-06,-0.860
2.730E-06,-0.840
2.740E-06,-1.480
2.750E-06,-1.480
2.760E-06,-1.620
2.770E-06,-1.340
2.780E-06,-1.320
2.790E-06,-0.820
2.800E-06,-0.320
2.810E-06,0.280
2.820E-06,0.740
2.830E-06,0.480
2.840E-06,0.320
2.850E-06,-0.020
2.860E-06,0.060
2.870E-06,0.880
2.880E-06,0.080
2.890E-06,0.720
2.900E-06,-0.240
2.910E-06,-0.680
2.920E-06,-1.500
2.930E-06,-1.720
2.940E-06,-2.300
2.950E-06,-1.820
2.960E-06,-1.940
2.970E-06,-1.540
2.980E-06,-1.640
2.990E-06,-1.580
3.000E-06,-1.280
3.010E-06,-1.460
3.020E-06,-1.120
3.030E-06,-1.200
3.040E-06,-1.240
3.050E-06,-0.980
3.060E-06,-0.920
3.070E-06,-0.920
3.080E-06,-0.920
3.090E-06,-0.800
3.100E-06,-0.620
3.110E-06,-0.240
3.120E-06,0.180
3.130E-06,1.700
3.140E-06,2.080
3.150E-06,2.100
3.160E-06,2.080
3.170E-06,1.680
3.180E-06,-0.180
3.190E-06,-1.160
3.200E-06,-2.600
3.210E-06,-2.480
3.220E-06,-2.920
3.230E-06,-2.560
3.240E-06,-2.560
3.250E-06,-2.080
3.260E-06,-1.580
3.270E-06,-1.340
3.280E-06,-1.080
