mediciones/curva carac 8-28 limpias/-42/WaveData65918.csv

#timebase=2000000(ps)
,#voltbase=200000(mv/100)
#size=4000
-8.350E-06,0.008
-8.340E-06,0.008
-8.330E-06,0.000
-8.320E-06,0.000
-8.310E-06,-0.008
-8.300E-06,0.000
-8.290E-06,0.000
-8.280E-06,0.008
-8.270E-06,0.000
-8.260E-06,0.000
-8.250E-06,0.000
-8.240E-06,0.008
-8.230E-06,0.000
-8.220E-06,0.000
-8.210E-06,0.008
-8.200E-06,0.008
-8.190E-06,0.000
-8.180E-06,0.000
-8.170E-06,0.000
-8.160E-06,0.000
-8.150E-06,0.008
-8.140E-06,0.008
-8.130E-06,0.008
-8.120E-06,0.008
-8.110E-06,0.008
-8.100E-06,0.008
-8.090E-06,0.000
-8.080E-06,0.008
-8.070E-06,0.008
-8.060E-06,0.008
-8.050E-06,0.000
-8.040E-06,0.008
-8.030E-06,0.008
-8.020E-06,0.008
-8.010E-06,0.016
-8.000E-06,0.016
-7.990E-06,0.000
-7.980E-06,0.008
-7.970E-06,0.000
-7.960E-06,0.008
-7.950E-06,0.008
-7.940E-06,0.008
-7.930E-06,0.008
-7.920E-06,0.008
-7.910E-06,0.008
-7.900E-06,0.000
-7.890E-06,0.008
-7.880E-06,0.000
-7.870E-06,0.000
-7.860E-06,0.000
-7.850E-06,0.008
-7.840E-06,0.000
-7.830E-06,0.000
-7.820E-06,0.000
-7.810E-06,0.008
-7.800E-06,0.000
-7.790E-06,0.008
-7.780E-06,0.000
-7.770E-06,0.008
-7.760E-06,0.000
-7.750E-06,0.000
-7.740E-06,0.008
-7.730E-06,0.008
-7.720E-06,0.016
-7.710E-06,0.000
-7.700E-06,0.000
-7.690E-06,0.008
-7.680E-06,0.008
-7.670E-06,0.000
-7.660E-06,0.008
-7.650E-06,0.008
-7.640E-06,0.000
-7.630E-06,0.000
-7.620E-06,0.000
-7.610E-06,0.000
-7.600E-06,0.000
-7.590E-06,0.000
-7.580E-06,0.008
-7.570E-06,0.000
-7.560E-06,0.008
-7.550E-06,0.008
-7.540E-06,0.000
-7.530E-06,0.000
-7.520E-06,0.000
-7.510E-06,0.000
-7.500E-06,0.000
-7.490E-06,0.008
-7.480E-06,0.000
-7.470E-06,0.008
-7.460E-06,0.000
-7.450E-06,0.008
-7.440E-06,0.000
-7.430E-06,0.000
-7.420E-06,0.000
-7.410E-06,0.000
-7.400E-06,0.000
-7.390E-06,0.000
-7.380E-06,0.000
-7.370E-06,0.008
-7.360E-06,0.008
-7.350E-06,0.000
-7.340E-06,0.008
-7.330E-06,0.016
-7.320E-06,0.008
-7.310E-06,0.000
-7.300E-06,0.008
-7.290E-06,0.000
-7.280E-06,0.008
-7.270E-06,0.008
-7.260E-06,0.008
-7.250E-06,0.000
-7.240E-06,0.000
-7.230E-06,0.000
-7.220E-06,0.000
-7.210E-06,0.000
-7.200E-06,0.032
-7.190E-06,0.056
-7.180E-06,0.032
-7.170E-06,-0.072
-7.160E-06,-0.072
-7.150E-06,-0.144
-7.140E-06,-0.112
-7.130E-06,-0.064
-7.120E-06,0.080
-7.110E-06,0.112
-7.100E-06,0.064
-7.090E-06,0.072
-7.080E-06,-0.064
-7.070E-06,-0.104
-7.060E-06,-0.056
-7.050E-06,-0.008
-7.040E-06,0.072
-7.030E-06,0.080
-7.020E-06,0.104
-7.010E-06,0.024
-7.000E-06,-0.024
-6.990E-06,-0.080
-6.980E-06,-0.112
-6.970E-06,-0.064
-6.960E-06,0.032
-6.950E-06,0.088
-6.940E-06,0.096
-6.930E-06,0.080
-6.920E-06,0.024
-6.910E-06,-0.056
-6.900E-06,-0.072
-6.890E-06,-0.040
-6.880E-06,-0.016
-6.870E-06,0.056
-6.860E-06,0.056
-6.850E-06,0.048
-6.840E-06,0.000
-6.830E-06,-0.048
-6.820E-06,-0.064
-6.810E-06,-0.056
-6.800E-06,-0.016
-6.790E-06,0.032
-6.780E-06,0.064
-6.770E-06,0.064
-6.760E-06,0.024
-6.750E-06,0.000
-6.740E-06,-0.032
-6.730E-06,-0.024
-6.720E-06,-0.008
-6.710E-06,0.016
-6.700E-06,0.024
-6.690E-06,0.032
-6.680E-06,0.032
-6.670E-06,-0.008
-6.660E-06,-0.008
-6.650E-06,-0.008
-6.640E-06,-0.008
-6.630E-06,0.000
-6.620E-06,0.016
-6.610E-06,0.032
-6.600E-06,0.032
-6.590E-06,0.024
-6.580E-06,0.016
-6.570E-06,0.000
-6.560E-06,-0.008
-6.550E-06,-0.008
-6.540E-06,0.000
-6.530E-06,0.008
-6.520E-06,-0.008
-6.510E-06,0.008
-6.500E-06,0.000
-6.490E-06,-0.008
-6.480E-06,0.008
-6.470E-06,-0.008
-6.460E-06,-0.008
-6.450E-06,0.008
-6.440E-06,0.016
-6.430E-06,0.008
-6.420E-06,0.024
-6.410E-06,0.016
-6.400E-06,0.000
-6.390E-06,0.008
-6.380E-06,0.008
-6.370E-06,-0.008
-6.360E-06,-0.008
-6.350E-06,0.000
-6.340E-06,0.016
-6.330E-06,0.008
-6.320E-06,0.008
-6.310E-06,0.008
-6.300E-06,0.008
-6.290E-06,0.008
-6.280E-06,0.008
-6.270E-06,0.016
-6.260E-06,0.000
-6.250E-06,0.000
-6.240E-06,0.000
-6.230E-06,0.008
-6.220E-06,0.008
-6.210E-06,-0.008
-6.200E-06,0.000
-6.190E-06,0.000
-6.180E-06,0.000
-6.170E-06,0.008
-6.160E-06,0.008
-6.150E-06,-0.008
-6.140E-06,-0.008
-6.130E-06,0.008
-6.120E-06,0.000
-6.110E-06,0.008
-6.100E-06,0.000
-6.090E-06,0.008
-6.080E-06,0.008
-6.070E-06,0.000
-6.060E-06,0.008
-6.050E-06,0.008
-6.040E-06,0.000
-6.030E-06,0.000
-6.020E-06,0.000
-6.010E-06,0.016
-6.000E-06,0.008
-5.990E-06,0.000
-5.980E-06,0.008
-5.970E-06,0.008
-5.960E-06,0.008
-5.950E-06,-0.008
-5.940E-06,-0.016
-5.930E-06,0.008
-5.920E-06,0.000
-5.910E-06,-0.008
-5.900E-06,0.024
-5.890E-06,0.024
-5.880E-06,0.000
-5.870E-06,0.008
-5.860E-06,0.000
-5.850E-06,-0.008
-5.840E-06,0.000
-5.830E-06,0.000
-5.820E-06,0.000
-5.810E-06,0.016
-5.800E-06,0.008
-5.790E-06,0.008
-5.780E-06,0.000
-5.770E-06,0.000
-5.760E-06,0.000
-5.750E-06,0.000
-5.740E-06,0.016
-5.730E-06,0.024
-5.720E-06,0.008
-5.710E-06,0.008
-5.700E-06,0.000
-5.690E-06,0.000
-5.680E-06,0.016
-5.670E-06,0.000
-5.660E-06,0.000
-5.650E-06,0.000
-5.640E-06,-0.008
-5.630E-06,0.000
-5.620E-06,-0.008
-5.610E-06,-0.008
-5.600E-06,0.000
-5.590E-06,0.016
-5.580E-06,0.008
-5.570E-06,0.000
-5.560E-06,-0.008
-5.550E-06,-0.008
-5.540E-06,0.008
-5.530E-06,0.008
-5.520E-06,0.000
-5.510E-06,0.008
-5.500E-06,0.008
-5.490E-06,0.024
-5.480E-06,0.016
-5.470E-06,-0.008
-5.460E-06,-0.008
-5.450E-06,0.000
-5.440E-06,0.008
-5.430E-06,0.008
-5.420E-06,0.008
-5.410E-06,0.008
-5.400E-06,0.000
-5.390E-06,0.008
-5.380E-06,0.016
-5.370E-06,0.000
-5.360E-06,0.000
-5.350E-06,-0.008
-5.340E-06,0.000
-5.330E-06,0.008
-5.320E-06,0.016
-5.310E-06,0.024
-5.300E-06,0.008
-5.290E-06,0.000
-5.280E-06,0.000
-5.270E-06,0.000
-5.260E-06,0.000
-5.250E-06,0.008
-5.240E-06,0.016
-5.230E-06,0.000
-5.220E-06,0.000
-5.210E-06,0.000
-5.200E-06,-0.008
-5.190E-06,0.000
-5.180E-06,0.008
-5.170E-06,0.008
-5.160E-06,0.024
-5.150E-06,0.016
-5.140E-06,0.016
-5.130E-06,0.000
-5.120E-06,0.008
-5.110E-06,0.008
-5.100E-06,0.000
-5.090E-06,0.000
-5.080E-06,0.016
-5.070E-06,0.016
-5.060E-06,0.016
-5.050E-06,0.024
-5.040E-06,0.016
-5.030E-06,0.000
-5.020E-06,0.000
-5.010E-06,0.000
-5.000E-06,0.000
-4.990E-06,0.008
-4.980E-06,0.024
-4.970E-06,0.024
-4.960E-06,0.024
-4.950E-06,0.000
-4.940E-06,0.008
-4.930E-06,0.008
-4.920E-06,0.024
-4.910E-06,0.016
-4.900E-06,0.032
-4.890E-06,0.024
-4.880E-06,0.016
-4.870E-06,0.008
-4.860E-06,-0.016
-4.850E-06,-0.048
-4.840E-06,-0.040
-4.830E-06,-0.016
-4.820E-06,0.016
-4.810E-06,0.064
-4.800E-06,0.072
-4.790E-06,0.056
-4.780E-06,0.024
-4.770E-06,-0.040
-4.760E-06,-0.040
-4.750E-06,-0.024
-4.740E-06,-0.008
-4.730E-06,0.016
-4.720E-06,0.056
-4.710E-06,0.056
-4.700E-06,0.056
-4.690E-06,-0.008
-4.680E-06,-0.040
-4.670E-06,-0.040
-4.660E-06,-0.016
-4.650E-06,0.016
-4.640E-06,0.040
-4.630E-06,0.056
-4.620E-06,0.024
-4.610E-06,0.024
-4.600E-06,-0.024
-4.590E-06,-0.040
-4.580E-06,-0.024
-4.570E-06,-0.008
-4.560E-06,0.008
-4.550E-06,0.000
-4.540E-06,0.008
-4.530E-06,0.024
-4.520E-06,0.032
-4.510E-06,0.000
-4.500E-06,0.008
-4.490E-06,-0.008
-4.480E-06,0.000
-4.470E-06,0.008
-4.460E-06,0.008
-4.450E-06,0.024
-4.440E-06,0.016
-4.430E-06,0.016
-4.420E-06,0.000
-4.410E-06,-0.008
-4.400E-06,-0.008
-4.390E-06,-0.008
-4.380E-06,-0.008
-4.370E-06,0.000
-4.360E-06,0.000
-4.350E-06,0.016
-4.340E-06,0.008
-4.330E-06,0.008
-4.320E-06,0.016
-4.310E-06,0.000
-4.300E-06,0.000
-4.290E-06,-0.008
-4.280E-06,0.000
-4.270E-06,0.000
-4.260E-06,0.000
-4.250E-06,-0.008
-4.240E-06,-0.008
-4.230E-06,0.000
-4.220E-06,0.000
-4.210E-06,0.000
-4.200E-06,0.000
-4.190E-06,0.000
-4.180E-06,0.016
-4.170E-06,0.000
-4.160E-06,0.000
-4.150E-06,0.008
-4.140E-06,0.000
-4.130E-06,0.008
-4.120E-06,-0.008
-4.110E-06,0.000
-4.100E-06,0.000
-4.090E-06,0.016
-4.080E-06,0.000
-4.070E-06,0.008
-4.060E-06,0.008
-4.050E-06,0.000
-4.040E-06,0.008
-4.030E-06,0.000
-4.020E-06,0.008
-4.010E-06,0.000
-4.000E-06,0.008
-3.990E-06,0.008
-3.980E-06,0.008
-3.970E-06,0.000
-3.960E-06,0.008
-3.950E-06,0.000
-3.940E-06,0.000
-3.930E-06,0.000
-3.920E-06,0.000
-3.910E-06,0.000
-3.900E-06,0.000
-3.890E-06,0.016
-3.880E-06,0.000
-3.870E-06,0.008
-3.860E-06,0.000
-3.850E-06,0.016
-3.840E-06,0.008
-3.830E-06,0.008
-3.820E-06,0.000
-3.810E-06,0.000
-3.800E-06,0.000
-3.790E-06,0.016
-3.780E-06,0.000
-3.770E-06,0.008
-3.760E-06,0.024
-3.750E-06,0.016
-3.740E-06,0.024
-3.730E-06,0.008
-3.720E-06,-0.008
-3.710E-06,-0.008
-3.700E-06,0.000
-3.690E-06,0.000
-3.680E-06,0.016
-3.670E-06,0.024
-3.660E-06,0.024
-3.650E-06,0.016
-3.640E-06,-0.008
-3.630E-06,-0.008
-3.620E-06,0.000
-3.610E-06,0.016
-3.600E-06,0.024
-3.590E-06,0.016
-3.580E-06,0.024
-3.570E-06,0.000
-3.560E-06,0.008
-3.550E-06,0.008
-3.540E-06,0.016
-3.530E-06,0.024
-3.520E-06,0.032
-3.510E-06,0.040
-3.500E-06,0.024
-3.490E-06,0.016
-3.480E-06,-0.016
-3.470E-06,-0.016
-3.460E-06,-0.024
-3.450E-06,-0.008
-3.440E-06,0.016
-3.430E-06,0.024
-3.420E-06,0.016
-3.410E-06,0.008
-3.400E-06,-0.008
-3.390E-06,-0.016
-3.380E-06,-0.008
-3.370E-06,0.000
-3.360E-06,0.024
-3.350E-06,0.024
-3.340E-06,0.032
-3.330E-06,0.024
-3.320E-06,0.008
-3.310E-06,0.000
-3.300E-06,-0.008
-3.290E-06,-0.008
-3.280E-06,-0.008
-3.270E-06,0.016
-3.260E-06,0.000
-3.250E-06,0.024
-3.240E-06,0.000
-3.230E-06,0.000
-3.220E-06,-0.008
-3.210E-06,0.000
-3.200E-06,0.016
-3.190E-06,0.024
-3.180E-06,0.008
-3.170E-06,0.016
-3.160E-06,0.008
-3.150E-06,0.000
-3.140E-06,0.016
-3.130E-06,0.000
-3.120E-06,-0.008
-3.110E-06,0.000
-3.100E-06,0.000
-3.090E-06,0.024
-3.080E-06,0.016
-3.070E-06,0.016
-3.060E-06,0.008
-3.050E-06,0.008
-3.040E-06,0.008
-3.030E-06,0.008
-3.020E-06,0.024
-3.010E-06,0.024
-3.000E-06,0.024
-2.990E-06,0.016
-2.980E-06,0.008
-2.970E-06,0.000
-2.960E-06,0.008
-2.950E-06,0.024
-2.940E-06,0.032
-2.930E-06,0.032
-2.920E-06,0.032
-2.910E-06,0.024
-2.900E-06,0.024
-2.890E-06,0.008
-2.880E-06,0.040
-2.870E-06,0.056
-2.860E-06,0.080
-2.850E-06,0.072
-2.840E-06,0.016
-2.830E-06,-0.064
-2.820E-06,-0.296
-2.810E-06,-0.176
-2.800E-06,-0.168
-2.790E-06,0.120
-2.780E-06,0.160
-2.770E-06,0.152
-2.760E-06,0.080
-2.750E-06,-0.112
-2.740E-06,-0.216
-2.730E-06,-0.272
-2.720E-06,-0.040
-2.710E-06,0.160
-2.700E-06,0.232
-2.690E-06,0.144
-2.680E-06,-0.016
-2.670E-06,-0.072
-2.660E-06,-0.088
-2.650E-06,-0.048
-2.640E-06,-0.072
-2.630E-06,0.032
-2.620E-06,0.112
-2.610E-06,0.152
-2.600E-06,0.072
-2.590E-06,-0.080
-2.580E-06,-0.096
-2.570E-06,-0.104
-2.560E-06,-0.048
-2.550E-06,-0.016
-2.540E-06,0.080
-2.530E-06,0.120
-2.520E-06,0.080
-2.510E-06,-0.008
-2.500E-06,-0.088
-2.490E-06,-0.104
-2.480E-06,-0.056
-2.470E-06,0.016
-2.460E-06,0.056
-2.450E-06,0.096
-2.440E-06,0.088
-2.430E-06,0.024
-2.420E-06,-0.056
-2.410E-06,-0.088
-2.400E-06,-0.064
-2.390E-06,-0.016
-2.380E-06,0.064
-2.370E-06,0.088
-2.360E-06,0.096
-2.350E-06,0.056
-2.340E-06,-0.024
-2.330E-06,-0.120
-2.320E-06,-0.136
-2.310E-06,-0.056
-2.300E-06,0.024
-2.290E-06,0.080
-2.280E-06,0.080
-2.270E-06,0.056
-2.260E-06,0.024
-2.250E-06,-0.056
-2.240E-06,-0.088
-2.230E-06,-0.080
-2.220E-06,-0.016
-2.210E-06,0.056
-2.200E-06,0.088
-2.190E-06,0.056
-2.180E-06,0.024
-2.170E-06,-0.024
-2.160E-06,-0.048
-2.150E-06,-0.048
-2.140E-06,-0.024
-2.130E-06,0.016
-2.120E-06,0.048
-2.110E-06,0.064
-2.100E-06,0.048
-2.090E-06,0.000
-2.080E-06,-0.024
-2.070E-06,-0.024
-2.060E-06,-0.016
-2.050E-06,0.008
-2.040E-06,0.032
-2.030E-06,0.040
-2.020E-06,0.040
-2.010E-06,0.008
-2.000E-06,-0.016
-1.990E-06,-0.008
-1.980E-06,-0.008
-1.970E-06,0.000
-1.960E-06,0.024
-1.950E-06,0.032
-1.940E-06,0.024
-1.930E-06,0.024
-1.920E-06,0.000
-1.910E-06,0.000
-1.900E-06,-0.008
-1.890E-06,0.000
-1.880E-06,0.024
-1.870E-06,0.032
-1.860E-06,0.032
-1.850E-06,0.024
-1.840E-06,0.008
-1.830E-06,0.008
-1.820E-06,0.016
-1.810E-06,0.032
-1.800E-06,0.024
-1.790E-06,0.040
-1.780E-06,0.008
-1.770E-06,0.000
-1.760E-06,-0.032
-1.750E-06,-0.032
-1.740E-06,-0.008
-1.730E-06,0.016
-1.720E-06,0.048
-1.710E-06,0.048
-1.700E-06,0.032
-1.690E-06,-0.008
-1.680E-06,-0.008
-1.670E-06,-0.016
-1.660E-06,-0.008
-1.650E-06,0.032
-1.640E-06,0.024
-1.630E-06,0.048
-1.620E-06,0.024
-1.610E-06,0.008
-1.600E-06,0.008
-1.590E-06,-0.024
-1.580E-06,-0.016
-1.570E-06,-0.008
-1.560E-06,0.032
-1.550E-06,0.056
-1.540E-06,0.040
-1.530E-06,0.032
-1.520E-06,-0.048
-1.510E-06,0.008
-1.500E-06,-0.008
-1.490E-06,-0.008
-1.480E-06,0.024
-1.470E-06,0.016
-1.460E-06,0.032
-1.450E-06,0.024
-1.440E-06,0.008
-1.430E-06,-0.016
-1.420E-06,-0.008
-1.410E-06,0.016
-1.400E-06,0.024
-1.390E-06,0.024
-1.380E-06,0.016
-1.370E-06,0.000
-1.360E-06,-0.008
-1.350E-06,0.000
-1.340E-06,0.008
-1.330E-06,0.008
-1.320E-06,0.024
-1.310E-06,0.024
-1.300E-06,0.032
-1.290E-06,0.024
-1.280E-06,0.000
-1.270E-06,0.000
-1.260E-06,0.000
-1.250E-06,0.008
-1.240E-06,0.008
-1.230E-06,0.032
-1.220E-06,0.032
-1.210E-06,0.024
-1.200E-06,0.024
-1.190E-06,0.008
-1.180E-06,0.000
-1.170E-06,0.000
-1.160E-06,0.008
-1.150E-06,0.024
-1.140E-06,0.032
-1.130E-06,0.032
-1.120E-06,0.032
-1.110E-06,0.008
-1.100E-06,0.024
-1.090E-06,0.008
-1.080E-06,0.016
-1.070E-06,0.032
-1.060E-06,0.056
-1.050E-06,0.048
-1.040E-06,0.048
-1.030E-06,0.056
-1.020E-06,0.040
-1.010E-06,0.032
-1.000E-06,0.008
-9.900E-07,0.024
-9.800E-07,0.032
-9.700E-07,0.040
-9.600E-07,0.024
-9.500E-07,0.000
-9.400E-07,0.056
-9.300E-07,0.040
-9.200E-07,-0.008
-9.100E-07,-0.208
-9.000E-07,-0.400
-8.900E-07,-0.488
-8.800E-07,-0.080
-8.700E-07,0.160
-8.600E-07,0.312
-8.500E-07,0.344
-8.400E-07,0.152
-8.300E-07,0.016
-8.200E-07,-0.200
-8.100E-07,-0.160
-8.000E-07,-0.152
-7.900E-07,-0.008
-7.800E-07,0.056
-7.700E-07,0.032
-7.600E-07,0.104
-7.500E-07,-0.008
-7.400E-07,0.048
-7.300E-07,-0.024
-7.200E-07,0.048
-7.100E-07,0.056
-7.000E-07,0.120
-6.900E-07,0.120
-6.800E-07,0.088
-6.700E-07,-0.176
-6.600E-07,-0.224
-6.500E-07,-0.240
-6.400E-07,-0.072
-6.300E-07,0.048
-6.200E-07,0.160
-6.100E-07,0.208
-6.000E-07,0.128
-5.900E-07,0.056
-5.800E-07,-0.112
-5.700E-07,-0.200
-5.600E-07,-0.160
-5.500E-07,-0.048
-5.400E-07,0.112
-5.300E-07,0.144
-5.200E-07,0.136
-5.100E-07,0.048
-5.000E-07,-0.008
-4.900E-07,-0.072
-4.800E-07,-0.080
-4.700E-07,-0.040
-4.600E-07,0.048
-4.500E-07,0.120
-4.400E-07,0.144
-4.300E-07,0.120
-4.200E-07,0.040
-4.100E-07,-0.024
-4.000E-07,-0.040
-3.900E-07,-0.016
-3.800E-07,0.064
-3.700E-07,0.136
-3.600E-07,0.192
-3.500E-07,0.168
-3.400E-07,0.048
-3.300E-07,-0.048
-3.200E-07,-0.128
-3.100E-07,-0.064
-3.000E-07,0.016
-2.900E-07,0.136
-2.800E-07,0.192
-2.700E-07,0.128
-2.600E-07,0.008
-2.500E-07,-0.104
-2.400E-07,-0.160
-2.300E-07,-0.120
-2.200E-07,-0.032
-2.100E-07,0.072
-2.000E-07,0.144
-1.900E-07,0.136
-1.800E-07,0.064
-1.700E-07,-0.016
-1.600E-07,-0.080
-1.500E-07,-0.064
-1.400E-07,-0.016
-1.300E-07,0.056
-1.200E-07,0.136
-1.100E-07,0.160
-1.000E-07,0.160
-9.000E-08,0.088
-8.000E-08,-0.016
-7.000E-08,-0.016
-6.000E-08,-0.280
-5.000E-08,-0.384
-4.000E-08,-0.192
-3.000E-08,0.064
-2.000E-08,0.288
-1.000E-08,0.368
0.000E+00,0.192
1.000E-08,-0.304
2.000E-08,-0.648
3.000E-08,-0.640
4.000E-08,-0.192
5.000E-08,0.208
6.000E-08,0.624
7.000E-08,0.544
8.000E-08,0.192
9.000E-08,-0.312
1.000E-07,-0.760
1.100E-07,-0.736
1.200E-07,-0.320
1.300E-07,0.304
1.400E-07,0.664
1.500E-07,0.616
1.600E-07,0.248
1.700E-07,-0.248
1.800E-07,-0.456
1.900E-07,-0.472
2.000E-07,-0.216
2.100E-07,0.152
2.200E-07,0.424
2.300E-07,0.488
2.400E-07,0.288
2.500E-07,-0.024
2.600E-07,-0.320
2.700E-07,-0.352
2.800E-07,-0.208
2.900E-07,0.112
3.000E-07,0.384
3.100E-07,0.472
3.200E-07,0.368
3.300E-07,0.136
3.400E-07,-0.144
3.500E-07,-0.216
3.600E-07,-0.232
3.700E-07,-0.032
3.800E-07,0.184
3.900E-07,0.344
4.000E-07,0.360
4.100E-07,0.152
4.200E-07,-0.008
4.300E-07,-0.144
4.400E-07,-0.216
4.500E-07,-0.168
4.600E-07,-0.064
4.700E-07,0.152
4.800E-07,0.248
4.900E-07,0.200
5.000E-07,0.064
5.100E-07,-0.240
5.200E-07,-0.456
5.300E-07,-0.496
5.400E-07,-0.312
5.500E-07,0.056
5.600E-07,0.408
5.700E-07,0.504
5.800E-07,0.216
5.900E-07,-0.160
6.000E-07,-0.456
6.100E-07,-0.416
6.200E-07,-0.392
6.300E-07,-0.016
6.400E-07,0.328
6.500E-07,0.528
6.600E-07,0.416
6.700E-07,0.128
6.800E-07,-0.136
6.900E-07,-0.320
7.000E-07,-0.240
7.100E-07,-0.232
7.200E-07,-0.128
7.300E-07,0.128
7.400E-07,0.248
7.500E-07,0.312
7.600E-07,0.144
7.700E-07,-0.072
7.800E-07,-0.088
7.900E-07,-0.096
8.000E-07,-0.120
8.100E-07,-0.152
8.200E-07,-0.016
8.300E-07,0.056
8.400E-07,0.064
8.500E-07,0.056
8.600E-07,-0.024
8.700E-07,-0.040
8.800E-07,-0.080
8.900E-07,-0.032
9.000E-07,0.016
9.100E-07,0.104
9.200E-07,0.144
9.300E-07,0.120
9.400E-07,0.072
9.500E-07,0.048
9.600E-07,0.048
9.700E-07,0.056
9.800E-07,0.080
9.900E-07,0.120
1.000E-06,0.184
1.010E-06,0.184
1.020E-06,0.144
1.030E-06,0.072
1.040E-06,0.064
1.050E-06,0.048
1.060E-06,0.064
1.070E-06,0.056
1.080E-06,0.024
1.090E-06,0.000
1.100E-06,-0.016
1.110E-06,-0.072
1.120E-06,-0.032
1.130E-06,0.000
1.140E-06,0.040
1.150E-06,-0.016
1.160E-06,-0.064
1.170E-06,-0.088
1.180E-06,-0.072
1.190E-06,-0.048
1.200E-06,-0.024
1.210E-06,0.016
1.220E-06,0.072
1.230E-06,0.096
1.240E-06,0.000
1.250E-06,-0.024
1.260E-06,-0.024
1.270E-06,0.024
1.280E-06,0.048
1.290E-06,0.064
1.300E-06,0.112
1.310E-06,0.184
1.320E-06,0.240
1.330E-06,0.216
1.340E-06,0.184
1.350E-06,0.096
1.360E-06,0.088
1.370E-06,0.088
1.380E-06,0.160
1.390E-06,0.216
1.400E-06,0.224
1.410E-06,0.216
1.420E-06,0.184
1.430E-06,0.152
1.440E-06,0.104
1.450E-06,0.064
1.460E-06,0.000
1.470E-06,-0.056
1.480E-06,-0.128
1.490E-06,-0.184
1.500E-06,-0.160
1.510E-06,-0.040
1.520E-06,0.104
1.530E-06,0.296
1.540E-06,0.408
1.550E-06,0.416
1.560E-06,0.200
1.570E-06,0.048
1.580E-06,-0.144
1.590E-06,-0.112
1.600E-06,0.032
1.610E-06,0.200
1.620E-06,0.352
1.630E-06,0.360
1.640E-06,0.248
1.650E-06,0.088
1.660E-06,-0.040
1.670E-06,-0.104
1.680E-06,-0.016
1.690E-06,0.152
1.700E-06,0.312
1.710E-06,0.400
1.720E-06,0.352
1.730E-06,0.200
1.740E-06,0.024
1.750E-06,-0.072
1.760E-06,-0.032
1.770E-06,0.104
1.780E-06,0.248
1.790E-06,0.344
1.800E-06,0.320
1.810E-06,0.152
1.820E-06,-0.136
1.830E-06,-0.328
1.840E-06,-0.408
1.850E-06,-0.272
1.860E-06,-0.168
1.870E-06,-0.024
1.880E-06,0.048
1.890E-06,0.152
1.900E-06,0.280
1.910E-06,0.344
1.920E-06,0.392
1.930E-06,0.272
1.940E-06,0.152
1.950E-06,-0.008
1.960E-06,-0.120
1.970E-06,-0.056
1.980E-06,0.080
1.990E-06,0.280
2.000E-06,0.432
2.010E-06,0.448
2.020E-06,0.304
2.030E-06,0.120
2.040E-06,-0.008
2.050E-06,-0.048
2.060E-06,0.064
2.070E-06,0.224
2.080E-06,0.368
2.090E-06,0.424
2.100E-06,0.368
2.110E-06,0.208
2.120E-06,0.072
2.130E-06,0.000
2.140E-06,0.040
2.150E-06,0.160
2.160E-06,0.296
2.170E-06,0.384
2.180E-06,0.360
2.190E-06,0.264
2.200E-06,0.136
2.210E-06,0.056
2.220E-06,0.048
2.230E-06,0.104
2.240E-06,0.192
2.250E-06,0.288
2.260E-06,0.312
2.270E-06,0.264
2.280E-06,0.192
2.290E-06,0.120
2.300E-06,0.096
2.310E-06,0.112
2.320E-06,0.176
2.330E-06,0.248
2.340E-06,0.264
2.350E-06,0.248
2.360E-06,0.208
2.370E-06,0.160
2.380E-06,0.128
2.390E-06,0.128
2.400E-06,0.160
2.410E-06,0.192
2.420E-06,0.232
2.430E-06,0.224
2.440E-06,0.216
2.450E-06,0.176
2.460E-06,0.168
2.470E-06,0.152
2.480E-06,0.160
2.490E-06,0.176
2.500E-06,0.224
2.510E-06,0.232
2.520E-06,0.208
2.530E-06,0.200
2.540E-06,0.176
2.550E-06,0.152
2.560E-06,0.168
2.570E-06,0.184
2.580E-06,0.192
2.590E-06,0.208
2.600E-06,0.216
2.610E-06,0.200
2.620E-06,0.192
2.630E-06,0.168
2.640E-06,0.168
2.650E-06,0.184
2.660E-06,0.184
2.670E-06,0.184
2.680E-06,0.208
2.690E-06,0.184
2.700E-06,0.176
2.710E-06,0.184
2.720E-06,0.160
2.730E-06,0.168
2.740E-06,0.176
2.750E-06,0.184
2.760E-06,0.184
2.770E-06,0.184
2.780E-06,0.184
2.790E-06,0.176
2.800E-06,0.168
2.810E-06,0.160
2.820E-06,0.176
2.830E-06,0.176
2.840E-06,0.192
2.850E-06,0.184
2.860E-06,0.176
2.870E-06,0.160
2.880E-06,0.152
2.890E-06,0.152
2.900E-06,0.152
2.910E-06,0.176
2.920E-06,0.184
2.930E-06,0.176
2.940E-06,0.176
2.950E-06,0.160
2.960E-06,0.152
2.970E-06,0.168
2.980E-06,0.160
2.990E-06,0.168
3.000E-06,0.160
3.010E-06,0.152
3.020E-06,0.144
3.030E-06,0.160
3.040E-06,0.152
3.050E-06,0.144
3.060E-06,0.160
3.070E-06,0.176
3.080E-06,0.176
3.090E-06,0.176
3.100E-06,0.184
3.110E-06,0.160
3.120E-06,0.168
3.130E-06,0.152
3.140E-06,0.152
3.150E-06,0.160
3.160E-06,0.152
3.170E-06,0.168
3.180E-06,0.160
3.190E-06,0.152
3.200E-06,0.152
3.210E-06,0.144
3.220E-06,0.152
3.230E-06,0.144
3.240E-06,0.144
3.250E-06,0.160
3.260E-06,0.160
3.270E-06,0.152
3.280E-06,0.152
3.290E-06,0.144
3.300E-06,0.144
3.310E-06,0.144
3.320E-06,0.136
3.330E-06,0.152
3.340E-06,0.152
3.350E-06,0.144
3.360E-06,0.144
3.370E-06,0.144
3.380E-06,0.144
3.390E-06,0.128
3.400E-06,0.136
