mediciones/curva carac 8-28 limpias/-42/WaveData65913.csv

#timebase=2000000(ps)
,#voltbase=500000(mv/100)
#size=4000
-8.350E-06,0.060
-8.340E-06,0.060
-8.330E-06,0.020
-8.320E-06,0.000
-8.310E-06,0.040
-8.300E-06,0.020
-8.290E-06,0.020
-8.280E-06,0.060
-8.270E-06,0.040
-8.260E-06,0.060
-8.250E-06,0.020
-8.240E-06,0.060
-8.230E-06,0.060
-8.220E-06,0.020
-8.210E-06,0.060
-8.200E-06,0.060
-8.190E-06,0.040
-8.180E-06,0.060
-8.170E-06,0.040
-8.160E-06,0.060
-8.150E-06,0.060
-8.140E-06,0.060
-8.130E-06,0.060
-8.120E-06,0.040
-8.110E-06,0.060
-8.100E-06,0.040
-8.090E-06,0.040
-8.080E-06,0.040
-8.070E-06,0.060
-8.060E-06,0.060
-8.050E-06,0.040
-8.040E-06,0.040
-8.030E-06,0.060
-8.020E-06,0.000
-8.010E-06,0.020
-8.000E-06,0.060
-7.990E-06,0.020
-7.980E-06,0.060
-7.970E-06,0.060
-7.960E-06,0.020
-7.950E-06,0.060
-7.940E-06,0.020
-7.930E-06,0.100
-7.920E-06,0.020
-7.910E-06,0.000
-7.900E-06,0.020
-7.890E-06,0.020
-7.880E-06,0.040
-7.870E-06,0.020
-7.860E-06,0.040
-7.850E-06,0.020
-7.840E-06,0.000
-7.830E-06,0.020
-7.820E-06,0.000
-7.810E-06,0.040
-7.800E-06,0.020
-7.790E-06,0.060
-7.780E-06,0.040
-7.770E-06,0.020
-7.760E-06,0.040
-7.750E-06,0.040
-7.740E-06,0.020
-7.730E-06,0.060
-7.720E-06,0.040
-7.710E-06,0.020
-7.700E-06,0.020
-7.690E-06,0.020
-7.680E-06,0.060
-7.670E-06,0.060
-7.660E-06,0.020
-7.650E-06,0.000
-7.640E-06,0.060
-7.630E-06,0.060
-7.620E-06,0.020
-7.610E-06,0.060
-7.600E-06,0.060
-7.590E-06,0.060
-7.580E-06,0.020
-7.570E-06,0.040
-7.560E-06,0.020
-7.550E-06,0.040
-7.540E-06,0.060
-7.530E-06,0.040
-7.520E-06,0.080
-7.510E-06,0.080
-7.500E-06,0.040
-7.490E-06,0.020
-7.480E-06,0.000
-7.470E-06,0.040
-7.460E-06,0.060
-7.450E-06,0.020
-7.440E-06,0.040
-7.430E-06,0.060
-7.420E-06,0.060
-7.410E-06,0.060
-7.400E-06,0.020
-7.390E-06,0.040
-7.380E-06,0.040
-7.370E-06,0.060
-7.360E-06,0.040
-7.350E-06,0.020
-7.340E-06,0.060
-7.330E-06,0.060
-7.320E-06,0.040
-7.310E-06,0.060
-7.300E-06,0.000
-7.290E-06,0.060
-7.280E-06,0.080
-7.270E-06,0.040
-7.260E-06,0.040
-7.250E-06,0.020
-7.240E-06,0.040
-7.230E-06,0.060
-7.220E-06,0.040
-7.210E-06,0.060
-7.200E-06,0.020
-7.190E-06,0.040
-7.180E-06,0.040
-7.170E-06,0.080
-7.160E-06,0.040
-7.150E-06,0.040
-7.140E-06,0.000
-7.130E-06,0.060
-7.120E-06,0.020
-7.110E-06,0.080
-7.100E-06,0.040
-7.090E-06,0.020
-7.080E-06,0.000
-7.070E-06,0.060
-7.060E-06,0.040
-7.050E-06,0.040
-7.040E-06,0.060
-7.030E-06,0.060
-7.020E-06,0.040
-7.010E-06,0.020
-7.000E-06,0.040
-6.990E-06,0.040
-6.980E-06,0.040
-6.970E-06,0.080
-6.960E-06,0.060
-6.950E-06,0.000
-6.940E-06,0.060
-6.930E-06,0.020
-6.920E-06,0.040
-6.910E-06,0.020
-6.900E-06,0.020
-6.890E-06,0.060
-6.880E-06,0.040
-6.870E-06,0.040
-6.860E-06,0.060
-6.850E-06,0.040
-6.840E-06,0.020
-6.830E-06,0.040
-6.820E-06,0.020
-6.810E-06,0.020
-6.800E-06,0.040
-6.790E-06,0.060
-6.780E-06,0.040
-6.770E-06,0.020
-6.760E-06,0.060
-6.750E-06,0.060
-6.740E-06,0.060
-6.730E-06,0.080
-6.720E-06,0.040
-6.710E-06,0.040
-6.700E-06,0.060
-6.690E-06,0.040
-6.680E-06,0.020
-6.670E-06,0.020
-6.660E-06,0.080
-6.650E-06,0.020
-6.640E-06,0.040
-6.630E-06,0.060
-6.620E-06,0.080
-6.610E-06,0.020
-6.600E-06,0.020
-6.590E-06,0.020
-6.580E-06,0.060
-6.570E-06,0.060
-6.560E-06,0.060
-6.550E-06,0.060
-6.540E-06,0.040
-6.530E-06,0.040
-6.520E-06,0.020
-6.510E-06,0.020
-6.500E-06,0.060
-6.490E-06,0.060
-6.480E-06,0.060
-6.470E-06,0.020
-6.460E-06,0.020
-6.450E-06,0.060
-6.440E-06,-0.020
-6.430E-06,0.040
-6.420E-06,0.040
-6.410E-06,0.040
-6.400E-06,0.020
-6.390E-06,0.020
-6.380E-06,0.080
-6.370E-06,0.080
-6.360E-06,0.040
-6.350E-06,0.060
-6.340E-06,0.080
-6.330E-06,0.060
-6.320E-06,0.060
-6.310E-06,0.000
-6.300E-06,0.020
-6.290E-06,0.040
-6.280E-06,0.080
-6.270E-06,0.060
-6.260E-06,0.000
-6.250E-06,0.040
-6.240E-06,0.060
-6.230E-06,0.040
-6.220E-06,0.040
-6.210E-06,0.040
-6.200E-06,0.060
-6.190E-06,0.040
-6.180E-06,0.020
-6.170E-06,0.020
-6.160E-06,0.020
-6.150E-06,0.040
-6.140E-06,0.040
-6.130E-06,0.060
-6.120E-06,0.040
-6.110E-06,0.040
-6.100E-06,0.040
-6.090E-06,0.020
-6.080E-06,0.060
-6.070E-06,0.040
-6.060E-06,0.040
-6.050E-06,0.060
-6.040E-06,0.020
-6.030E-06,0.060
-6.020E-06,0.040
-6.010E-06,0.060
-6.000E-06,0.020
-5.990E-06,0.040
-5.980E-06,0.040
-5.970E-06,0.040
-5.960E-06,0.040
-5.950E-06,0.040
-5.940E-06,0.060
-5.930E-06,0.040
-5.920E-06,0.020
-5.910E-06,0.020
-5.900E-06,0.040
-5.890E-06,0.060
-5.880E-06,0.040
-5.870E-06,0.020
-5.860E-06,0.020
-5.850E-06,0.060
-5.840E-06,0.020
-5.830E-06,0.020
-5.820E-06,0.060
-5.810E-06,0.040
-5.800E-06,0.080
-5.790E-06,0.020
-5.780E-06,0.020
-5.770E-06,-0.020
-5.760E-06,-0.340
-5.750E-06,-0.960
-5.740E-06,-1.920
-5.730E-06,-2.840
-5.720E-06,-3.340
-5.710E-06,-3.080
-5.700E-06,-2.160
-5.690E-06,-1.020
-5.680E-06,-0.520
-5.670E-06,1.840
-5.660E-06,2.080
-5.650E-06,2.080
-5.640E-06,2.080
-5.630E-06,2.100
-5.620E-06,2.080
-5.610E-06,2.080
-5.600E-06,2.080
-5.590E-06,1.860
-5.580E-06,0.580
-5.570E-06,0.180
-5.560E-06,-0.620
-5.550E-06,-0.940
-5.540E-06,-0.820
-5.530E-06,-0.500
-5.520E-06,-0.200
-5.510E-06,-0.180
-5.500E-06,-0.160
-5.490E-06,-0.480
-5.480E-06,-0.940
-5.470E-06,-1.340
-5.460E-06,-1.800
-5.450E-06,-2.080
-5.440E-06,-2.180
-5.430E-06,-1.960
-5.420E-06,-1.700
-5.410E-06,-1.200
-5.400E-06,-0.460
-5.390E-06,0.140
-5.380E-06,0.840
-5.370E-06,1.440
-5.360E-06,1.740
-5.350E-06,1.880
-5.340E-06,1.880
-5.330E-06,1.560
-5.320E-06,1.080
-5.310E-06,0.640
-5.300E-06,0.120
-5.290E-06,-0.360
-5.280E-06,-0.680
-5.270E-06,-0.900
-5.260E-06,-1.020
-5.250E-06,-0.960
-5.240E-06,-0.860
-5.230E-06,-0.740
-5.220E-06,-0.600
-5.210E-06,-0.420
-5.200E-06,-0.280
-5.190E-06,-0.080
-5.180E-06,0.120
-5.170E-06,0.380
-5.160E-06,0.540
-5.150E-06,0.760
-5.140E-06,0.940
-5.130E-06,1.000
-5.120E-06,1.020
-5.110E-06,1.000
-5.100E-06,0.880
-5.090E-06,0.740
-5.080E-06,0.660
-5.070E-06,0.420
-5.060E-06,0.300
-5.050E-06,0.120
-5.040E-06,-0.080
-5.030E-06,-0.200
-5.020E-06,-0.340
-5.010E-06,-0.420
-5.000E-06,-0.480
-4.990E-06,-0.600
-4.980E-06,-0.620
-4.970E-06,-0.600
-4.960E-06,-0.620
-4.950E-06,-0.560
-4.940E-06,-0.380
-4.930E-06,-0.280
-4.920E-06,-0.020
-4.910E-06,0.280
-4.900E-06,0.460
-4.890E-06,0.660
-4.880E-06,0.880
-4.870E-06,0.940
-4.860E-06,0.940
-4.850E-06,0.840
-4.840E-06,0.680
-4.830E-06,0.480
-4.820E-06,0.280
-4.810E-06,0.000
-4.800E-06,-0.220
-4.790E-06,-0.420
-4.780E-06,-0.520
-4.770E-06,-0.560
-4.760E-06,-0.600
-4.750E-06,-0.540
-4.740E-06,-0.440
-4.730E-06,-0.340
-4.720E-06,-0.260
-4.710E-06,-0.160
-4.700E-06,-0.060
-4.690E-06,0.000
-4.680E-06,0.060
-4.670E-06,0.060
-4.660E-06,0.060
-4.650E-06,0.140
-4.640E-06,0.180
-4.630E-06,0.080
-4.620E-06,0.180
-4.610E-06,0.240
-4.600E-06,0.200
-4.590E-06,0.240
-4.580E-06,0.300
-4.570E-06,0.260
-4.560E-06,0.240
-4.550E-06,0.180
-4.540E-06,0.160
-4.530E-06,0.080
-4.520E-06,0.000
-4.510E-06,0.000
-4.500E-06,-0.040
-4.490E-06,-0.080
-4.480E-06,-0.020
-4.470E-06,-0.020
-4.460E-06,0.020
-4.450E-06,0.040
-4.440E-06,0.080
-4.430E-06,0.100
-4.420E-06,0.120
-4.410E-06,0.140
-4.400E-06,0.100
-4.390E-06,0.100
-4.380E-06,0.060
-4.370E-06,0.060
-4.360E-06,0.040
-4.350E-06,0.060
-4.340E-06,0.040
-4.330E-06,0.000
-4.320E-06,0.060
-4.310E-06,0.020
-4.300E-06,0.000
-4.290E-06,0.000
-4.280E-06,-0.040
-4.270E-06,-0.060
-4.260E-06,-0.080
-4.250E-06,-0.100
-4.240E-06,-0.100
-4.230E-06,-0.080
-4.220E-06,-0.080
-4.210E-06,-0.100
-4.200E-06,-0.060
-4.190E-06,-0.060
-4.180E-06,-0.040
-4.170E-06,-0.040
-4.160E-06,0.000
-4.150E-06,0.020
-4.140E-06,-0.080
-4.130E-06,-0.040
-4.120E-06,-0.060
-4.110E-06,-0.100
-4.100E-06,-0.080
-4.090E-06,-0.020
-4.080E-06,0.000
-4.070E-06,0.040
-4.060E-06,0.080
-4.050E-06,0.120
-4.040E-06,0.160
-4.030E-06,0.220
-4.020E-06,0.220
-4.010E-06,0.260
-4.000E-06,0.240
-3.990E-06,0.260
-3.980E-06,0.180
-3.970E-06,0.160
-3.960E-06,0.060
-3.950E-06,0.040
-3.940E-06,0.000
-3.930E-06,-0.080
-3.920E-06,-0.020
-3.910E-06,-0.020
-3.900E-06,0.220
-3.890E-06,0.640
-3.880E-06,1.180
-3.870E-06,1.680
-3.860E-06,1.960
-3.850E-06,1.900
-3.840E-06,1.460
-3.830E-06,0.860
-3.820E-06,0.140
-3.810E-06,-0.600
-3.800E-06,-1.160
-3.790E-06,-1.580
-3.780E-06,-1.780
-3.770E-06,-1.880
-3.760E-06,-1.800
-3.750E-06,-1.500
-3.740E-06,-1.120
-3.730E-06,-0.820
-3.720E-06,-0.600
-3.710E-06,-0.520
-3.700E-06,-0.360
-3.690E-06,-0.260
-3.680E-06,-0.140
-3.670E-06,-0.020
-3.660E-06,-0.020
-3.650E-06,-0.020
-3.640E-06,0.000
-3.630E-06,0.140
-3.620E-06,0.360
-3.610E-06,0.660
-3.600E-06,0.940
-3.590E-06,1.120
-3.580E-06,1.160
-3.570E-06,1.100
-3.560E-06,0.920
-3.550E-06,0.660
-3.540E-06,0.400
-3.530E-06,0.160
-3.520E-06,-0.140
-3.510E-06,-0.340
-3.500E-06,-0.520
-3.490E-06,-0.680
-3.480E-06,-0.760
-3.470E-06,-0.680
-3.460E-06,-0.500
-3.450E-06,-0.300
-3.440E-06,0.000
-3.430E-06,0.300
-3.420E-06,0.560
-3.410E-06,0.740
-3.400E-06,0.820
-3.390E-06,0.820
-3.380E-06,0.740
-3.370E-06,0.600
-3.360E-06,0.420
-3.350E-06,0.260
-3.340E-06,0.080
-3.330E-06,-0.120
-3.320E-06,-0.300
-3.310E-06,-0.360
-3.300E-06,-0.480
-3.290E-06,-0.460
-3.280E-06,-0.460
-3.270E-06,-0.440
-3.260E-06,-0.380
-3.250E-06,-0.320
-3.240E-06,-0.320
-3.230E-06,-0.320
-3.220E-06,-0.280
-3.210E-06,-0.320
-3.200E-06,-0.300
-3.190E-06,-0.280
-3.180E-06,-0.280
-3.170E-06,-0.220
-3.160E-06,-0.100
-3.150E-06,0.040
-3.140E-06,0.200
-3.130E-06,0.340
-3.120E-06,0.440
-3.110E-06,0.500
-3.100E-06,0.520
-3.090E-06,0.480
-3.080E-06,0.400
-3.070E-06,0.300
-3.060E-06,0.140
-3.050E-06,-0.100
-3.040E-06,-0.260
-3.030E-06,-0.460
-3.020E-06,-0.540
-3.010E-06,-0.540
-3.000E-06,-0.480
-2.990E-06,-0.420
-2.980E-06,-0.320
-2.970E-06,-0.220
-2.960E-06,-0.140
-2.950E-06,-0.020
-2.940E-06,0.040
-2.930E-06,0.140
-2.920E-06,0.160
-2.910E-06,0.200
-2.900E-06,0.180
-2.890E-06,0.120
-2.880E-06,0.100
-2.870E-06,0.040
-2.860E-06,0.000
-2.850E-06,-0.040
-2.840E-06,-0.040
-2.830E-06,0.000
-2.820E-06,0.040
-2.810E-06,0.080
-2.800E-06,0.140
-2.790E-06,0.180
-2.780E-06,0.200
-2.770E-06,0.160
-2.760E-06,0.120
-2.750E-06,0.100
-2.740E-06,0.060
-2.730E-06,-0.020
-2.720E-06,-0.020
-2.710E-06,-0.080
-2.700E-06,-0.080
-2.690E-06,-0.060
-2.680E-06,-0.020
-2.670E-06,0.000
-2.660E-06,0.020
-2.650E-06,0.060
-2.640E-06,0.100
-2.630E-06,0.100
-2.620E-06,0.140
-2.610E-06,0.140
-2.600E-06,0.100
-2.590E-06,0.080
-2.580E-06,-0.020
-2.570E-06,-0.040
-2.560E-06,-0.100
-2.550E-06,-0.100
-2.540E-06,-0.100
-2.530E-06,-0.160
-2.520E-06,-0.100
-2.510E-06,-0.080
-2.500E-06,-0.080
-2.490E-06,-0.060
-2.480E-06,-0.020
-2.470E-06,0.000
-2.460E-06,-0.020
-2.450E-06,0.020
-2.440E-06,0.000
-2.430E-06,0.020
-2.420E-06,0.060
-2.410E-06,0.000
-2.400E-06,-0.060
-2.390E-06,0.000
-2.380E-06,-0.080
-2.370E-06,0.000
-2.360E-06,0.040
-2.350E-06,0.000
-2.340E-06,0.140
-2.330E-06,0.100
-2.320E-06,0.060
-2.310E-06,0.160
-2.300E-06,0.180
-2.290E-06,0.160
-2.280E-06,0.140
-2.270E-06,0.100
-2.260E-06,0.100
-2.250E-06,0.060
-2.240E-06,0.020
-2.230E-06,-0.020
-2.220E-06,-0.040
-2.210E-06,-0.080
-2.200E-06,-0.080
-2.190E-06,-0.100
-2.180E-06,-0.140
-2.170E-06,-0.160
-2.160E-06,-0.160
-2.150E-06,-0.160
-2.140E-06,-0.180
-2.130E-06,-0.160
-2.120E-06,-0.140
-2.110E-06,-0.140
-2.100E-06,-0.140
-2.090E-06,-0.140
-2.080E-06,-0.080
-2.070E-06,-0.080
-2.060E-06,-0.060
-2.050E-06,0.060
-2.040E-06,-0.020
-2.030E-06,0.140
-2.020E-06,-0.020
-2.010E-06,0.100
-2.000E-06,0.100
-1.990E-06,0.080
-1.980E-06,0.100
-1.970E-06,0.080
-1.960E-06,0.040
-1.950E-06,-0.020
-1.940E-06,-0.020
-1.930E-06,-0.020
-1.920E-06,-0.060
-1.910E-06,-0.080
-1.900E-06,-0.080
-1.890E-06,-0.080
-1.880E-06,-0.080
-1.870E-06,-0.060
-1.860E-06,-0.040
-1.850E-06,-0.020
-1.840E-06,-0.020
-1.830E-06,-0.020
-1.820E-06,0.000
-1.810E-06,0.000
-1.800E-06,0.020
-1.790E-06,0.040
-1.780E-06,0.020
-1.770E-06,0.040
-1.760E-06,0.020
-1.750E-06,0.060
-1.740E-06,0.000
-1.730E-06,0.000
-1.720E-06,0.040
-1.710E-06,0.020
-1.700E-06,0.000
-1.690E-06,-0.020
-1.680E-06,-0.160
-1.670E-06,-0.160
-1.660E-06,-0.160
-1.650E-06,0.000
-1.640E-06,-0.080
-1.630E-06,0.100
-1.620E-06,-0.180
-1.610E-06,0.220
-1.600E-06,0.180
-1.590E-06,0.100
-1.580E-06,0.220
-1.570E-06,0.000
-1.560E-06,-0.060
-1.550E-06,-0.100
-1.540E-06,-0.280
-1.530E-06,-0.220
-1.520E-06,-0.400
-1.510E-06,-0.300
-1.500E-06,-0.320
-1.490E-06,-0.320
-1.480E-06,-0.240
-1.470E-06,-0.160
-1.460E-06,-0.140
-1.450E-06,-0.020
-1.440E-06,0.140
-1.430E-06,0.100
-1.420E-06,0.000
-1.410E-06,0.100
-1.400E-06,-0.020
-1.390E-06,-0.020
-1.380E-06,0.000
-1.370E-06,0.140
-1.360E-06,0.280
-1.350E-06,0.180
-1.340E-06,0.260
-1.330E-06,0.220
-1.320E-06,0.040
-1.310E-06,-0.060
-1.300E-06,-0.120
-1.290E-06,-0.280
-1.280E-06,-0.120
-1.270E-06,-0.340
-1.260E-06,-0.280
-1.250E-06,-0.400
-1.240E-06,-0.460
-1.230E-06,-0.360
-1.220E-06,-0.500
-1.210E-06,-0.180
-1.200E-06,-0.420
-1.190E-06,-0.340
-1.180E-06,-0.160
-1.170E-06,-0.240
-1.160E-06,-0.080
-1.150E-06,-0.020
-1.140E-06,0.020
-1.130E-06,-0.080
-1.120E-06,-0.140
-1.110E-06,-0.180
-1.100E-06,-0.240
-1.090E-06,-0.240
-1.080E-06,-0.200
-1.070E-06,-0.300
-1.060E-06,-0.220
-1.050E-06,-0.280
-1.040E-06,-0.380
-1.030E-06,-0.340
-1.020E-06,-0.380
-1.010E-06,-0.340
-1.000E-06,-0.320
-9.900E-07,-0.320
-9.800E-07,-0.300
-9.700E-07,-0.280
-9.600E-07,-0.260
-9.500E-07,-0.260
-9.400E-07,-0.280
-9.300E-07,-0.200
-9.200E-07,-0.180
-9.100E-07,-0.220
-9.000E-07,-0.160
-8.900E-07,-0.240
-8.800E-07,-0.060
-8.700E-07,-0.300
-8.600E-07,-0.040
-8.500E-07,-0.300
-8.400E-07,-0.040
-8.300E-07,-0.340
-8.200E-07,-0.180
-8.100E-07,-0.260
-8.000E-07,-0.320
-7.900E-07,-0.340
-7.800E-07,-0.420
-7.700E-07,-0.360
-7.600E-07,-0.420
-7.500E-07,-0.440
-7.400E-07,-0.360
-7.300E-07,-0.340
-7.200E-07,-0.300
-7.100E-07,-0.260
-7.000E-07,-0.260
-6.900E-07,-0.260
-6.800E-07,-0.260
-6.700E-07,-0.220
-6.600E-07,-0.180
-6.500E-07,-0.320
-6.400E-07,-0.340
-6.300E-07,-0.420
-6.200E-07,-0.400
-6.100E-07,-0.080
-6.000E-07,-0.340
-5.900E-07,-0.040
-5.800E-07,-0.320
-5.700E-07,-0.380
-5.600E-07,-0.200
-5.500E-07,-0.440
-5.400E-07,-0.280
-5.300E-07,-0.300
-5.200E-07,-0.240
-5.100E-07,-0.280
-5.000E-07,-0.280
-4.900E-07,-0.260
-4.800E-07,-0.240
-4.700E-07,-0.240
-4.600E-07,-0.200
-4.500E-07,-0.220
-4.400E-07,-0.180
-4.300E-07,-0.120
-4.200E-07,-0.100
-4.100E-07,-0.100
-4.000E-07,-0.080
-3.900E-07,-0.080
-3.800E-07,-0.080
-3.700E-07,-0.060
-3.600E-07,-0.100
-3.500E-07,-0.100
-3.400E-07,-0.160
-3.300E-07,-0.160
-3.200E-07,-0.200
-3.100E-07,-0.200
-3.000E-07,-0.260
-2.900E-07,-0.380
-2.800E-07,-0.220
-2.700E-07,-0.180
-2.600E-07,-0.180
-2.500E-07,-0.340
-2.400E-07,-0.240
-2.300E-07,-0.400
-2.200E-07,-0.100
-2.100E-07,0.300
-2.000E-07,0.460
-1.900E-07,1.480
-1.800E-07,-0.220
-1.700E-07,-0.080
-1.600E-07,-1.800
-1.500E-07,-0.780
-1.400E-07,-1.620
-1.300E-07,-0.900
-1.200E-07,-0.620
-1.100E-07,0.000
-1.000E-07,-0.660
-9.000E-08,-0.120
-8.000E-08,-0.500
-7.000E-08,-0.480
-6.000E-08,-0.020
-5.000E-08,0.260
-4.000E-08,0.280
-3.000E-08,0.440
-2.000E-08,-0.320
-1.000E-08,-0.320
0.000E+00,-0.800
1.000E-08,-1.140
2.000E-08,-0.800
3.000E-08,-0.380
4.000E-08,0.140
5.000E-08,0.240
6.000E-08,0.040
7.000E-08,-0.760
8.000E-08,-0.620
9.000E-08,-1.360
1.000E-07,-0.860
1.100E-07,-1.080
1.200E-07,0.500
1.300E-07,0.060
1.400E-07,0.220
1.500E-07,1.960
1.600E-07,0.660
1.700E-07,0.180
1.800E-07,0.340
1.900E-07,-0.760
2.000E-07,-2.220
2.100E-07,-1.240
2.200E-07,-1.940
2.300E-07,0.160
2.400E-07,-0.560
2.500E-07,-0.280
2.600E-07,-0.200
2.700E-07,-0.840
2.800E-07,-0.820
2.900E-07,-0.580
3.000E-07,-0.680
3.100E-07,-0.220
3.200E-07,-0.020
3.300E-07,0.020
3.400E-07,-0.120
3.500E-07,-0.300
3.600E-07,-0.340
3.700E-07,-0.420
3.800E-07,0.000
3.900E-07,0.060
4.000E-07,0.540
4.100E-07,0.620
4.200E-07,0.860
4.300E-07,0.480
4.400E-07,0.540
4.500E-07,0.220
4.600E-07,0.200
4.700E-07,0.240
4.800E-07,0.300
4.900E-07,0.360
5.000E-07,0.180
5.100E-07,0.000
5.200E-07,-0.020
5.300E-07,-0.160
5.400E-07,-0.240
5.500E-07,-0.240
5.600E-07,-0.300
5.700E-07,-0.320
5.800E-07,-0.440
5.900E-07,-0.460
6.000E-07,-0.440
6.100E-07,-0.180
6.200E-07,-0.160
6.300E-07,-0.320
6.400E-07,-0.380
6.500E-07,-0.440
6.600E-07,0.260
6.700E-07,1.120
6.800E-07,1.340
6.900E-07,1.100
7.000E-07,0.840
7.100E-07,-0.580
7.200E-07,-1.380
7.300E-07,-2.240
7.400E-07,-2.500
7.500E-07,-2.440
7.600E-07,-2.040
7.700E-07,-2.120
7.800E-07,-1.200
7.900E-07,-1.620
8.000E-07,-1.340
8.100E-07,-1.700
8.200E-07,-1.680
8.300E-07,-1.500
8.400E-07,-1.060
8.500E-07,0.060
8.600E-07,1.200
8.700E-07,1.720
8.800E-07,2.080
8.900E-07,1.660
9.000E-07,1.680
9.100E-07,0.480
9.200E-07,-0.280
9.300E-07,-0.420
9.400E-07,-0.700
9.500E-07,-0.320
9.600E-07,-0.020
9.700E-07,-0.020
9.800E-07,0.080
9.900E-07,-0.300
1.000E-06,-0.620
1.010E-06,-0.700
1.020E-06,-1.080
1.030E-06,-0.880
1.040E-06,-0.940
1.050E-06,-0.920
1.060E-06,-0.860
1.070E-06,-0.660
1.080E-06,-0.760
1.090E-06,-0.620
1.100E-06,-0.440
1.110E-06,-0.020
1.120E-06,0.360
1.130E-06,1.080
1.140E-06,1.760
1.150E-06,1.800
1.160E-06,1.960
1.170E-06,0.740
1.180E-06,0.040
1.190E-06,-1.200
1.200E-06,-2.020
1.210E-06,-1.960
1.220E-06,-2.340
1.230E-06,-1.620
1.240E-06,-1.660
1.250E-06,-1.400
1.260E-06,-1.660
1.270E-06,-1.820
1.280E-06,-1.860
1.290E-06,-1.960
1.300E-06,-1.540
1.310E-06,-1.080
1.320E-06,-0.760
1.330E-06,-0.480
1.340E-06,-0.560
1.350E-06,-0.520
1.360E-06,-0.820
1.370E-06,-0.920
1.380E-06,-1.000
1.390E-06,-0.540
1.400E-06,-0.300
1.410E-06,0.160
1.420E-06,0.280
1.430E-06,0.560
1.440E-06,0.440
1.450E-06,-0.080
1.460E-06,0.080
1.470E-06,-0.100
1.480E-06,-0.460
1.490E-06,-0.320
1.500E-06,-1.460
1.510E-06,-1.460
1.520E-06,-2.040
1.530E-06,-2.320
1.540E-06,-2.480
1.550E-06,-2.380
1.560E-06,-2.280
1.570E-06,-1.940
1.580E-06,-1.680
1.590E-06,-1.220
1.600E-06,-0.920
1.610E-06,-0.640
1.620E-06,-0.440
1.630E-06,-0.420
1.640E-06,-0.320
1.650E-06,-0.540
1.660E-06,-0.280
1.670E-06,-0.260
1.680E-06,-0.360
1.690E-06,-0.540
1.700E-06,-0.460
1.710E-06,-0.500
1.720E-06,-0.380
1.730E-06,-0.340
1.740E-06,-0.360
1.750E-06,-0.760
1.760E-06,-1.160
1.770E-06,-1.780
1.780E-06,-2.260
1.790E-06,-2.700
1.800E-06,-3.020
1.810E-06,-2.520
1.820E-06,-2.040
1.830E-06,-1.420
1.840E-06,-1.080
1.850E-06,-0.620
1.860E-06,-0.940
1.870E-06,-1.100
1.880E-06,-1.600
1.890E-06,-1.340
1.900E-06,-1.460
1.910E-06,-1.780
1.920E-06,-1.760
1.930E-06,-1.960
1.940E-06,-2.560
1.950E-06,-2.720
1.960E-06,-3.140
1.970E-06,-3.020
1.980E-06,-2.960
1.990E-06,-3.120
2.000E-06,-2.960
2.010E-06,-2.980
2.020E-06,-3.000
2.030E-06,-2.880
2.040E-06,-2.760
2.050E-06,-2.360
2.060E-06,-2.140
2.070E-06,-1.680
2.080E-06,-1.320
2.090E-06,-1.080
2.100E-06,-0.880
2.110E-06,-0.700
2.120E-06,-0.580
2.130E-06,-0.480
2.140E-06,-0.360
2.150E-06,-0.220
2.160E-06,-0.100
2.170E-06,0.020
2.180E-06,0.080
2.190E-06,0.180
2.200E-06,0.080
2.210E-06,0.320
2.220E-06,0.560
2.230E-06,0.740
2.240E-06,0.520
2.250E-06,0.300
2.260E-06,-0.300
2.270E-06,-0.360
2.280E-06,-0.720
2.290E-06,-0.600
2.300E-06,-0.380
2.310E-06,-0.900
2.320E-06,-1.120
2.330E-06,-2.560
2.340E-06,-3.320
2.350E-06,-3.320
2.360E-06,-3.320
2.370E-06,-3.320
2.380E-06,-3.340
2.390E-06,-3.340
2.400E-06,-3.360
2.410E-06,-2.620
2.420E-06,-2.420
2.430E-06,-1.860
2.440E-06,-1.360
2.450E-06,-0.920
2.460E-06,-0.460
2.470E-06,-0.060
2.480E-06,-0.200
2.490E-06,-0.700
2.500E-06,-1.000
2.510E-06,-1.900
2.520E-06,-2.880
2.530E-06,-3.320
2.540E-06,-3.340
2.550E-06,-3.340
2.560E-06,-2.740
2.570E-06,-2.160
2.580E-06,-1.740
2.590E-06,-1.480
2.600E-06,-1.540
2.610E-06,-1.500
2.620E-06,-1.340
2.630E-06,-1.340
2.640E-06,-1.020
2.650E-06,-0.800
2.660E-06,-0.240
2.670E-06,-0.040
2.680E-06,0.400
2.690E-06,0.760
2.700E-06,1.000
2.710E-06,1.160
2.720E-06,1.360
2.730E-06,1.360
2.740E-06,1.440
2.750E-06,1.360
2.760E-06,1.220
2.770E-06,1.000
2.780E-06,0.700
2.790E-06,0.420
2.800E-06,0.180
2.810E-06,-0.180
2.820E-06,-0.380
2.830E-06,-0.520
2.840E-06,-0.680
2.850E-06,-0.840
2.860E-06,-0.820
2.870E-06,-0.860
2.880E-06,-0.680
2.890E-06,-0.480
2.900E-06,-0.280
2.910E-06,0.100
2.920E-06,0.180
2.930E-06,0.380
2.940E-06,0.480
2.950E-06,0.320
2.960E-06,0.300
2.970E-06,0.260
2.980E-06,0.160
2.990E-06,0.100
3.000E-06,0.000
3.010E-06,-0.020
3.020E-06,-0.120
3.030E-06,-0.240
3.040E-06,-0.320
3.050E-06,-0.520
3.060E-06,-0.680
3.070E-06,-0.880
3.080E-06,-0.880
3.090E-06,-1.020
3.100E-06,-1.020
3.110E-06,-1.040
3.120E-06,-0.940
3.130E-06,-0.860
3.140E-06,-0.700
3.150E-06,-0.680
3.160E-06,-0.240
3.170E-06,-0.140
3.180E-06,0.380
3.190E-06,0.500
3.200E-06,0.780
3.210E-06,0.980
3.220E-06,1.060
