mediciones/iman/10-9/mal ubicado/WaveData7780.csv

#timebase=4000000(ps)
,#voltbase=50000(mv/100)
#size=4000
-4.665E-05,0.002
-4.663E-05,0.000
-4.661E-05,0.000
-4.659E-05,0.002
-4.657E-05,0.004
-4.655E-05,0.006
-4.653E-05,0.004
-4.651E-05,0.004
-4.649E-05,0.004
-4.647E-05,0.004
-4.645E-05,0.000
-4.643E-05,0.002
-4.641E-05,0.002
-4.639E-05,0.004
-4.637E-05,0.002
-4.635E-05,0.002
-4.633E-05,0.002
-4.631E-05,0.000
-4.629E-05,0.002
-4.627E-05,0.004
-4.625E-05,0.002
-4.623E-05,0.002
-4.621E-05,0.004
-4.619E-05,0.004
-4.617E-05,0.004
-4.615E-05,0.000
-4.613E-05,0.002
-4.611E-05,0.002
-4.609E-05,0.002
-4.607E-05,0.002
-4.605E-05,0.004
-4.603E-05,0.002
-4.601E-05,0.000
-4.599E-05,0.004
-4.597E-05,0.002
-4.595E-05,0.002
-4.593E-05,0.002
-4.591E-05,0.000
-4.589E-05,0.002
-4.587E-05,0.002
-4.585E-05,0.002
-4.583E-05,0.002
-4.581E-05,0.002
-4.579E-05,0.002
-4.577E-05,0.002
-4.575E-05,0.002
-4.573E-05,0.002
-4.571E-05,0.002
-4.569E-05,0.000
-4.567E-05,0.004
-4.565E-05,0.004
-4.563E-05,0.000
-4.561E-05,0.002
-4.559E-05,0.002
-4.557E-05,0.002
-4.555E-05,0.000
-4.553E-05,0.000
-4.551E-05,0.004
-4.549E-05,0.002
-4.547E-05,0.002
-4.545E-05,0.002
-4.543E-05,0.002
-4.541E-05,0.002
-4.539E-05,0.002
-4.537E-05,0.000
-4.535E-05,0.002
-4.533E-05,0.002
-4.531E-05,0.002
-4.529E-05,0.002
-4.527E-05,0.000
-4.525E-05,0.000
-4.523E-05,0.004
-4.521E-05,0.002
-4.519E-05,0.002
-4.517E-05,0.002
-4.515E-05,0.004
-4.513E-05,0.002
-4.511E-05,0.006
-4.509E-05,0.004
-4.507E-05,0.004
-4.505E-05,0.000
-4.503E-05,0.002
-4.501E-05,0.002
-4.499E-05,0.000
-4.497E-05,0.002
-4.495E-05,0.002
-4.493E-05,0.002
-4.491E-05,0.002
-4.489E-05,0.002
-4.487E-05,0.000
-4.485E-05,0.002
-4.483E-05,0.004
-4.481E-05,0.000
-4.479E-05,0.002
-4.477E-05,0.002
-4.475E-05,0.004
-4.473E-05,0.002
-4.471E-05,0.006
-4.469E-05,0.000
-4.467E-05,0.002
-4.465E-05,0.002
-4.463E-05,0.004
-4.461E-05,0.002
-4.459E-05,0.002
-4.457E-05,0.004
-4.455E-05,0.000
-4.453E-05,0.000
-4.451E-05,0.002
-4.449E-05,0.000
-4.447E-05,0.000
-4.445E-05,0.002
-4.443E-05,0.004
-4.441E-05,0.002
-4.439E-05,0.002
-4.437E-05,0.004
-4.435E-05,0.006
-4.433E-05,0.004
-4.431E-05,0.006
-4.429E-05,0.000
-4.427E-05,0.004
-4.425E-05,0.002
-4.423E-05,0.002
-4.421E-05,0.002
-4.419E-05,0.000
-4.417E-05,0.002
-4.415E-05,0.004
-4.413E-05,0.004
-4.411E-05,0.006
-4.409E-05,0.000
-4.407E-05,0.002
-4.405E-05,0.004
-4.403E-05,0.000
-4.401E-05,0.002
-4.399E-05,0.002
-4.397E-05,0.002
-4.395E-05,0.002
-4.393E-05,0.002
-4.391E-05,0.002
-4.389E-05,0.002
-4.387E-05,0.002
-4.385E-05,0.000
-4.383E-05,0.002
-4.381E-05,0.002
-4.379E-05,0.000
-4.377E-05,0.002
-4.375E-05,0.002
-4.373E-05,0.002
-4.371E-05,0.002
-4.369E-05,0.002
-4.367E-05,0.002
-4.365E-05,0.002
-4.363E-05,0.002
-4.361E-05,0.004
-4.359E-05,0.006
-4.357E-05,0.004
-4.355E-05,0.000
-4.353E-05,0.002
-4.351E-05,0.002
-4.349E-05,0.004
-4.347E-05,0.004
-4.345E-05,0.002
-4.343E-05,0.004
-4.341E-05,0.004
-4.339E-05,0.004
-4.337E-05,0.004
-4.335E-05,0.004
-4.333E-05,0.004
-4.331E-05,0.004
-4.329E-05,0.000
-4.327E-05,0.000
-4.325E-05,0.002
-4.323E-05,0.004
-4.321E-05,0.004
-4.319E-05,0.002
-4.317E-05,0.000
-4.315E-05,0.002
-4.313E-05,0.000
-4.311E-05,0.004
-4.309E-05,0.002
-4.307E-05,0.002
-4.305E-05,0.002
-4.303E-05,0.000
-4.301E-05,0.002
-4.299E-05,0.000
-4.297E-05,0.002
-4.295E-05,0.002
-4.293E-05,0.002
-4.291E-05,0.002
-4.289E-05,0.000
-4.287E-05,0.002
-4.285E-05,0.000
-4.283E-05,0.002
-4.281E-05,0.002
-4.279E-05,0.002
-4.277E-05,0.002
-4.275E-05,0.004
-4.273E-05,0.004
-4.271E-05,0.000
-4.269E-05,0.000
-4.267E-05,0.004
-4.265E-05,0.002
-4.263E-05,0.002
-4.261E-05,0.002
-4.259E-05,0.000
-4.257E-05,0.002
-4.255E-05,0.002
-4.253E-05,0.002
-4.251E-05,0.004
-4.249E-05,0.000
-4.247E-05,0.000
-4.245E-05,0.002
-4.243E-05,0.002
-4.241E-05,0.002
-4.239E-05,0.004
-4.237E-05,0.000
-4.235E-05,0.002
-4.233E-05,0.000
-4.231E-05,0.002
-4.229E-05,0.002
-4.227E-05,0.000
-4.225E-05,0.002
-4.223E-05,0.000
-4.221E-05,0.002
-4.219E-05,0.004
-4.217E-05,0.002
-4.215E-05,0.002
-4.213E-05,0.002
-4.211E-05,0.000
-4.209E-05,0.002
-4.207E-05,0.000
-4.205E-05,0.002
-4.203E-05,0.004
-4.201E-05,0.004
-4.199E-05,0.006
-4.197E-05,0.000
-4.195E-05,0.002
-4.193E-05,0.002
-4.191E-05,0.004
-4.189E-05,0.000
-4.187E-05,0.002
-4.185E-05,0.002
-4.183E-05,0.002
-4.181E-05,0.002
-4.179E-05,0.002
-4.177E-05,0.002
-4.175E-05,0.002
-4.173E-05,0.000
-4.171E-05,0.002
-4.169E-05,0.002
-4.167E-05,0.006
-4.165E-05,0.000
-4.163E-05,0.002
-4.161E-05,0.002
-4.159E-05,0.004
-4.157E-05,0.002
-4.155E-05,0.000
-4.153E-05,0.002
-4.151E-05,0.002
-4.149E-05,0.000
-4.147E-05,0.002
-4.145E-05,0.000
-4.143E-05,0.002
-4.141E-05,0.000
-4.139E-05,0.002
-4.137E-05,0.002
-4.135E-05,0.004
-4.133E-05,0.002
-4.131E-05,0.002
-4.129E-05,0.004
-4.127E-05,0.004
-4.125E-05,0.000
-4.123E-05,0.002
-4.121E-05,0.004
-4.119E-05,0.002
-4.117E-05,0.004
-4.115E-05,0.004
-4.113E-05,0.006
-4.111E-05,0.000
-4.109E-05,0.000
-4.107E-05,0.002
-4.105E-05,0.000
-4.103E-05,0.004
-4.101E-05,0.000
-4.099E-05,0.002
-4.097E-05,0.000
-4.095E-05,0.000
-4.093E-05,0.002
-4.091E-05,0.004
-4.089E-05,0.004
-4.087E-05,0.000
-4.085E-05,0.002
-4.083E-05,0.004
-4.081E-05,0.002
-4.079E-05,0.004
-4.077E-05,0.002
-4.075E-05,0.002
-4.073E-05,0.000
-4.071E-05,0.002
-4.069E-05,0.002
-4.067E-05,0.002
-4.065E-05,0.002
-4.063E-05,0.002
-4.061E-05,0.004
-4.059E-05,0.004
-4.057E-05,0.000
-4.055E-05,0.002
-4.053E-05,0.002
-4.051E-05,0.002
-4.049E-05,0.002
-4.047E-05,0.004
-4.045E-05,0.002
-4.043E-05,0.004
-4.041E-05,0.002
-4.039E-05,0.002
-4.037E-05,0.002
-4.035E-05,0.000
-4.033E-05,0.002
-4.031E-05,0.002
-4.029E-05,0.002
-4.027E-05,0.002
-4.025E-05,0.000
-4.023E-05,0.004
-4.021E-05,0.004
-4.019E-05,0.006
-4.017E-05,0.000
-4.015E-05,0.002
-4.013E-05,0.004
-4.011E-05,0.002
-4.009E-05,0.002
-4.007E-05,0.002
-4.005E-05,0.002
-4.003E-05,0.002
-4.001E-05,0.002
-3.999E-05,0.000
-3.997E-05,0.002
-3.995E-05,0.002
-3.993E-05,0.002
-3.991E-05,0.004
-3.989E-05,0.002
-3.987E-05,0.002
-3.985E-05,0.002
-3.983E-05,0.002
-3.981E-05,0.002
-3.979E-05,0.002
-3.977E-05,0.002
-3.975E-05,0.002
-3.973E-05,0.002
-3.971E-05,0.002
-3.969E-05,0.002
-3.967E-05,0.002
-3.965E-05,0.002
-3.963E-05,0.002
-3.961E-05,0.002
-3.959E-05,0.002
-3.957E-05,0.004
-3.955E-05,0.000
-3.953E-05,0.002
-3.951E-05,0.004
-3.949E-05,0.002
-3.947E-05,0.002
-3.945E-05,0.002
-3.943E-05,0.002
-3.941E-05,0.002
-3.939E-05,0.002
-3.937E-05,0.002
-3.935E-05,0.002
-3.933E-05,0.000
-3.931E-05,0.004
-3.929E-05,0.002
-3.927E-05,0.002
-3.925E-05,0.002
-3.923E-05,0.002
-3.921E-05,0.000
-3.919E-05,0.004
-3.917E-05,0.002
-3.915E-05,0.002
-3.913E-05,0.000
-3.911E-05,0.004
-3.909E-05,0.002
-3.907E-05,0.002
-3.905E-05,0.002
-3.903E-05,0.004
-3.901E-05,0.002
-3.899E-05,0.002
-3.897E-05,0.004
-3.895E-05,0.004
-3.893E-05,0.000
-3.891E-05,0.002
-3.889E-05,0.002
-3.887E-05,0.002
-3.885E-05,0.002
-3.883E-05,0.000
-3.881E-05,0.002
-3.879E-05,0.002
-3.877E-05,0.002
-3.875E-05,0.002
-3.873E-05,0.004
-3.871E-05,0.000
-3.869E-05,0.000
-3.867E-05,0.002
-3.865E-05,0.002
-3.863E-05,0.004
-3.861E-05,0.002
-3.859E-05,0.002
-3.857E-05,0.000
-3.855E-05,0.002
-3.853E-05,0.002
-3.851E-05,0.002
-3.849E-05,0.004
-3.847E-05,0.002
-3.845E-05,0.002
-3.843E-05,0.002
-3.841E-05,0.002
-3.839E-05,0.002
-3.837E-05,0.004
-3.835E-05,0.000
-3.833E-05,0.000
-3.831E-05,0.002
-3.829E-05,0.002
-3.827E-05,0.002
-3.825E-05,0.002
-3.823E-05,0.002
-3.821E-05,0.004
-3.819E-05,0.002
-3.817E-05,0.004
-3.815E-05,0.000
-3.813E-05,0.002
-3.811E-05,0.002
-3.809E-05,0.000
-3.807E-05,0.002
-3.805E-05,0.002
-3.803E-05,0.002
-3.801E-05,0.004
-3.799E-05,0.000
-3.797E-05,0.000
-3.795E-05,0.002
-3.793E-05,0.002
-3.791E-05,0.002
-3.789E-05,0.002
-3.787E-05,0.000
-3.785E-05,0.000
-3.783E-05,0.002
-3.781E-05,0.002
-3.779E-05,0.002
-3.777E-05,0.002
-3.775E-05,0.000
-3.773E-05,0.002
-3.771E-05,0.002
-3.769E-05,0.002
-3.767E-05,0.004
-3.765E-05,0.000
-3.763E-05,0.002
-3.761E-05,0.002
-3.759E-05,0.000
-3.757E-05,0.000
-3.755E-05,0.002
-3.753E-05,0.000
-3.751E-05,0.004
-3.749E-05,0.004
-3.747E-05,0.004
-3.745E-05,0.004
-3.743E-05,0.000
-3.741E-05,0.000
-3.739E-05,0.002
-3.737E-05,0.002
-3.735E-05,0.002
-3.733E-05,0.002
-3.731E-05,0.002
-3.729E-05,0.004
-3.727E-05,0.002
-3.725E-05,0.002
-3.723E-05,0.002
-3.721E-05,0.002
-3.719E-05,0.000
-3.717E-05,0.002
-3.715E-05,0.004
-3.713E-05,0.002
-3.711E-05,0.002
-3.709E-05,0.002
-3.707E-05,0.002
-3.705E-05,0.002
-3.703E-05,0.004
-3.701E-05,0.002
-3.699E-05,0.004
-3.697E-05,0.004
-3.695E-05,0.004
-3.693E-05,0.002
-3.691E-05,0.002
-3.689E-05,0.000
-3.687E-05,0.002
-3.685E-05,0.002
-3.683E-05,0.002
-3.681E-05,0.002
-3.679E-05,0.004
-3.677E-05,0.004
-3.675E-05,0.002
-3.673E-05,0.004
-3.671E-05,0.004
-3.669E-05,0.000
-3.667E-05,0.000
-3.665E-05,0.004
-3.663E-05,0.002
-3.661E-05,0.002
-3.659E-05,0.004
-3.657E-05,0.002
-3.655E-05,0.002
-3.653E-05,0.002
-3.651E-05,0.002
-3.649E-05,0.002
-3.647E-05,0.002
-3.645E-05,0.002
-3.643E-05,0.002
-3.641E-05,0.002
-3.639E-05,0.002
-3.637E-05,0.004
-3.635E-05,0.002
-3.633E-05,0.002
-3.631E-05,0.000
-3.629E-05,0.000
-3.627E-05,0.002
-3.625E-05,0.002
-3.623E-05,0.002
-3.621E-05,0.002
-3.619E-05,0.002
-3.617E-05,0.002
-3.615E-05,0.000
-3.613E-05,0.002
-3.611E-05,0.004
-3.609E-05,0.002
-3.607E-05,0.004
-3.605E-05,0.000
-3.603E-05,0.002
-3.601E-05,0.002
-3.599E-05,0.002
-3.597E-05,0.000
-3.595E-05,0.002
-3.593E-05,0.002
-3.591E-05,0.002
-3.589E-05,0.002
-3.587E-05,0.002
-3.585E-05,0.002
-3.583E-05,0.002
-3.581E-05,0.002
-3.579E-05,0.002
-3.577E-05,0.004
-3.575E-05,0.002
-3.573E-05,0.002
-3.571E-05,0.002
-3.569E-05,0.002
-3.567E-05,0.002
-3.565E-05,0.000
-3.563E-05,0.002
-3.561E-05,0.004
-3.559E-05,0.004
-3.557E-05,0.002
-3.555E-05,0.002
-3.553E-05,0.004
-3.551E-05,0.002
-3.549E-05,0.004
-3.547E-05,0.002
-3.545E-05,0.002
-3.543E-05,0.004
-3.541E-05,0.002
-3.539E-05,0.002
-3.537E-05,0.004
-3.535E-05,0.002
-3.533E-05,0.004
-3.531E-05,0.002
-3.529E-05,0.002
-3.527E-05,0.002
-3.525E-05,0.002
-3.523E-05,0.004
-3.521E-05,0.002
-3.519E-05,0.000
-3.517E-05,0.002
-3.515E-05,0.004
-3.513E-05,0.002
-3.511E-05,0.004
-3.509E-05,0.002
-3.507E-05,0.002
-3.505E-05,0.002
-3.503E-05,0.000
-3.501E-05,0.002
-3.499E-05,0.000
-3.497E-05,0.000
-3.495E-05,0.002
-3.493E-05,0.004
-3.491E-05,0.002
-3.489E-05,0.002
-3.487E-05,0.004
-3.485E-05,0.000
-3.483E-05,0.002
-3.481E-05,0.002
-3.479E-05,0.002
-3.477E-05,0.002
-3.475E-05,0.000
-3.473E-05,0.002
-3.471E-05,0.004
-3.469E-05,0.004
-3.467E-05,0.002
-3.465E-05,0.002
-3.463E-05,0.002
-3.461E-05,0.002
-3.459E-05,0.004
-3.457E-05,0.004
-3.455E-05,0.004
-3.453E-05,0.004
-3.451E-05,0.000
-3.449E-05,0.000
-3.447E-05,0.002
-3.445E-05,0.002
-3.443E-05,0.004
-3.441E-05,0.000
-3.439E-05,0.002
-3.437E-05,0.002
-3.435E-05,0.002
-3.433E-05,0.002
-3.431E-05,0.002
-3.429E-05,0.002
-3.427E-05,0.002
-3.425E-05,0.002
-3.423E-05,0.002
-3.421E-05,0.002
-3.419E-05,0.002
-3.417E-05,0.002
-3.415E-05,0.004
-3.413E-05,0.002
-3.411E-05,0.000
-3.409E-05,0.002
-3.407E-05,0.000
-3.405E-05,0.000
-3.403E-05,0.002
-3.401E-05,0.004
-3.399E-05,0.000
-3.397E-05,0.004
-3.395E-05,0.002
-3.393E-05,0.002
-3.391E-05,0.004
-3.389E-05,0.002
-3.387E-05,0.002
-3.385E-05,0.002
-3.383E-05,0.002
-3.381E-05,0.002
-3.379E-05,0.002
-3.377E-05,0.002
-3.375E-05,0.000
-3.373E-05,0.000
-3.371E-05,0.002
-3.369E-05,0.000
-3.367E-05,0.002
-3.365E-05,0.002
-3.363E-05,0.004
-3.361E-05,0.002
-3.359E-05,0.000
-3.357E-05,0.002
-3.355E-05,0.002
-3.353E-05,0.004
-3.351E-05,0.000
-3.349E-05,0.002
-3.347E-05,0.004
-3.345E-05,0.000
-3.343E-05,0.000
-3.341E-05,0.004
-3.339E-05,0.004
-3.337E-05,0.000
-3.335E-05,0.002
-3.333E-05,0.002
-3.331E-05,0.002
-3.329E-05,0.002
-3.327E-05,0.000
-3.325E-05,0.004
-3.323E-05,0.002
-3.321E-05,0.004
-3.319E-05,0.004
-3.317E-05,0.004
-3.315E-05,0.004
-3.313E-05,0.000
-3.311E-05,0.002
-3.309E-05,0.002
-3.307E-05,0.002
-3.305E-05,0.002
-3.303E-05,0.002
-3.301E-05,0.002
-3.299E-05,0.004
-3.297E-05,0.002
-3.295E-05,0.002
-3.293E-05,0.004
-3.291E-05,0.004
-3.289E-05,0.004
-3.287E-05,0.000
-3.285E-05,0.002
-3.283E-05,0.002
-3.281E-05,0.004
-3.279E-05,0.004
-3.277E-05,0.004
-3.275E-05,0.004
-3.273E-05,0.002
-3.271E-05,0.002
-3.269E-05,0.002
-3.267E-05,0.002
-3.265E-05,0.004
-3.263E-05,0.000
-3.261E-05,0.004
-3.259E-05,0.002
-3.257E-05,0.002
-3.255E-05,0.002
-3.253E-05,0.004
-3.251E-05,0.002
-3.249E-05,0.002
-3.247E-05,0.002
-3.245E-05,0.004
-3.243E-05,0.000
-3.241E-05,0.002
-3.239E-05,0.002
-3.237E-05,0.002
-3.235E-05,0.002
-3.233E-05,0.002
-3.231E-05,0.002
-3.229E-05,0.004
-3.227E-05,0.002
-3.225E-05,0.004
-3.223E-05,0.002
-3.221E-05,0.004
-3.219E-05,0.004
-3.217E-05,0.004
-3.215E-05,0.000
-3.213E-05,0.004
-3.211E-05,0.002
-3.209E-05,0.002
-3.207E-05,0.002
-3.205E-05,0.002
-3.203E-05,0.004
-3.201E-05,0.002
-3.199E-05,0.000
-3.197E-05,0.000
-3.195E-05,0.004
-3.193E-05,0.004
-3.191E-05,0.004
-3.189E-05,0.004
-3.187E-05,0.004
-3.185E-05,0.000
-3.183E-05,0.002
-3.181E-05,0.002
-3.179E-05,0.002
-3.177E-05,0.002
-3.175E-05,0.002
-3.173E-05,0.002
-3.171E-05,0.000
-3.169E-05,0.004
-3.167E-05,0.002
-3.165E-05,0.004
-3.163E-05,0.000
-3.161E-05,0.002
-3.159E-05,0.000
-3.157E-05,0.002
-3.155E-05,0.002
-3.153E-05,0.004
-3.151E-05,0.002
-3.149E-05,0.002
-3.147E-05,0.002
-3.145E-05,0.004
-3.143E-05,0.000
-3.141E-05,0.004
-3.139E-05,0.002
-3.137E-05,0.004
-3.135E-05,0.002
-3.133E-05,0.002
-3.131E-05,0.002
-3.129E-05,0.004
-3.127E-05,0.002
-3.125E-05,0.004
-3.123E-05,0.004
-3.121E-05,0.004
-3.119E-05,0.002
-3.117E-05,0.002
-3.115E-05,0.002
-3.113E-05,0.004
-3.111E-05,0.004
-3.109E-05,0.002
-3.107E-05,0.000
-3.105E-05,0.004
-3.103E-05,0.000
-3.101E-05,0.002
-3.099E-05,0.004
-3.097E-05,0.002
-3.095E-05,0.002
-3.093E-05,0.004
-3.091E-05,0.002
-3.089E-05,0.000
-3.087E-05,0.002
-3.085E-05,0.004
-3.083E-05,0.002
-3.081E-05,0.002
-3.079E-05,0.002
-3.077E-05,0.000
-3.075E-05,0.000
-3.073E-05,0.004
-3.071E-05,0.000
-3.069E-05,0.002
-3.067E-05,0.002
-3.065E-05,0.002
-3.063E-05,0.002
-3.061E-05,0.006
-3.059E-05,0.000
-3.057E-05,0.000
-3.055E-05,0.002
-3.053E-05,0.004
-3.051E-05,0.004
-3.049E-05,0.004
-3.047E-05,0.000
-3.045E-05,0.000
-3.043E-05,0.002
-3.041E-05,0.000
-3.039E-05,0.002
-3.037E-05,0.000
-3.035E-05,0.002
-3.033E-05,0.000
-3.031E-05,0.000
-3.029E-05,0.002
-3.027E-05,0.000
-3.025E-05,0.002
-3.023E-05,0.000
-3.021E-05,0.004
-3.019E-05,0.002
-3.017E-05,0.002
-3.015E-05,0.002
-3.013E-05,0.002
-3.011E-05,0.002
-3.009E-05,0.002
-3.007E-05,0.000
-3.005E-05,0.002
-3.003E-05,0.004
-3.001E-05,0.004
-2.999E-05,0.004
-2.997E-05,0.000
-2.995E-05,0.000
-2.993E-05,0.002
-2.991E-05,0.002
-2.989E-05,0.002
-2.987E-05,0.002
-2.985E-05,0.000
-2.983E-05,0.002
-2.981E-05,0.000
-2.979E-05,0.002
-2.977E-05,0.000
-2.975E-05,0.004
-2.973E-05,0.002
-2.971E-05,0.002
-2.969E-05,0.004
-2.967E-05,0.002
-2.965E-05,0.002
-2.963E-05,0.000
-2.961E-05,0.002
-2.959E-05,0.000
-2.957E-05,0.002
-2.955E-05,0.002
-2.953E-05,0.002
-2.951E-05,0.004
-2.949E-05,0.006
-2.947E-05,0.004
-2.945E-05,0.000
-2.943E-05,0.000
-2.941E-05,0.002
-2.939E-05,0.002
-2.937E-05,0.002
-2.935E-05,0.002
-2.933E-05,0.004
-2.931E-05,0.000
-2.929E-05,0.004
-2.927E-05,0.004
-2.925E-05,0.004
-2.923E-05,0.002
-2.921E-05,0.004
-2.919E-05,0.002
-2.917E-05,0.002
-2.915E-05,0.002
-2.913E-05,0.002
-2.911E-05,0.004
-2.909E-05,0.000
-2.907E-05,0.002
-2.905E-05,0.002
-2.903E-05,0.002
-2.901E-05,0.004
-2.899E-05,0.002
-2.897E-05,0.006
-2.895E-05,0.000
-2.893E-05,0.004
-2.891E-05,0.002
-2.889E-05,0.002
-2.887E-05,0.002
-2.885E-05,0.002
-2.883E-05,0.002
-2.881E-05,0.002
-2.879E-05,0.002
-2.877E-05,0.000
-2.875E-05,0.004
-2.873E-05,0.002
-2.871E-05,0.002
-2.869E-05,0.004
-2.867E-05,0.002
-2.865E-05,0.002
-2.863E-05,0.002
-2.861E-05,0.002
-2.859E-05,0.002
-2.857E-05,0.002
-2.855E-05,0.002
-2.853E-05,0.004
-2.851E-05,0.004
-2.849E-05,0.002
-2.847E-05,0.000
-2.845E-05,0.002
-2.843E-05,0.000
-2.841E-05,0.002
-2.839E-05,0.004
-2.837E-05,0.000
-2.835E-05,0.002
-2.833E-05,0.004
-2.831E-05,0.002
-2.829E-05,0.004
-2.827E-05,0.002
-2.825E-05,0.004
-2.823E-05,0.006
-2.821E-05,0.004
-2.819E-05,0.004
-2.817E-05,0.002
-2.815E-05,0.000
-2.813E-05,0.002
-2.811E-05,0.002
-2.809E-05,0.002
-2.807E-05,0.002
-2.805E-05,0.000
-2.803E-05,0.002
-2.801E-05,0.002
-2.799E-05,0.002
-2.797E-05,0.000
-2.795E-05,0.000
-2.793E-05,0.002
-2.791E-05,0.002
-2.789E-05,0.002
-2.787E-05,0.002
-2.785E-05,0.002
-2.783E-05,0.000
-2.781E-05,0.002
-2.779E-05,0.000
-2.777E-05,0.002
-2.775E-05,0.004
-2.773E-05,0.000
-2.771E-05,0.000
-2.769E-05,0.004
-2.767E-05,0.002
-2.765E-05,0.004
-2.763E-05,0.002
-2.761E-05,0.002
-2.759E-05,0.002
-2.757E-05,0.002
-2.755E-05,0.002
-2.753E-05,0.004
-2.751E-05,0.002
-2.749E-05,0.004
-2.747E-05,0.002
-2.745E-05,0.004
-2.743E-05,0.000
-2.741E-05,0.002
-2.739E-05,0.000
-2.737E-05,0.004
-2.735E-05,0.002
-2.733E-05,0.002
-2.731E-05,0.002
-2.729E-05,0.000
-2.727E-05,0.002
-2.725E-05,0.002
-2.723E-05,0.002
-2.721E-05,0.002
-2.719E-05,0.002
-2.717E-05,0.002
-2.715E-05,0.002
-2.713E-05,0.006
-2.711E-05,0.000
-2.709E-05,0.002
-2.707E-05,0.004
-2.705E-05,0.000
-2.703E-05,0.002
-2.701E-05,0.002
-2.699E-05,0.002
-2.697E-05,0.002
-2.695E-05,0.002
-2.693E-05,0.004
-2.691E-05,0.000
-2.689E-05,0.004
-2.687E-05,0.002
-2.685E-05,0.004
-2.683E-05,0.000
-2.681E-05,0.002
-2.679E-05,0.004
-2.677E-05,0.006
-2.675E-05,0.000
-2.673E-05,0.002
-2.671E-05,0.002
-2.669E-05,0.004
-2.667E-05,0.002
-2.665E-05,0.004
-2.663E-05,0.002
-2.661E-05,0.004
-2.659E-05,0.002
-2.657E-05,0.004
-2.655E-05,0.002
-2.653E-05,0.002
-2.651E-05,0.002
-2.649E-05,0.004
-2.647E-05,0.004
-2.645E-05,0.000
-2.643E-05,0.002
-2.641E-05,0.002
-2.639E-05,0.002
-2.637E-05,0.000
-2.635E-05,0.002
-2.633E-05,0.002
-2.631E-05,0.002
-2.629E-05,0.002
-2.627E-05,0.000
-2.625E-05,0.002
-2.623E-05,0.002
-2.621E-05,0.002
-2.619E-05,0.002
-2.617E-05,0.004
-2.615E-05,0.002
-2.613E-05,0.002
-2.611E-05,0.002
-2.609E-05,0.002
-2.607E-05,0.000
-2.605E-05,0.004
-2.603E-05,0.000
-2.601E-05,0.004
-2.599E-05,0.000
-2.597E-05,0.000
-2.595E-05,0.004
-2.593E-05,0.004
-2.591E-05,0.004
-2.589E-05,0.004
-2.587E-05,0.004
-2.585E-05,0.002
-2.583E-05,0.000
-2.581E-05,0.004
-2.579E-05,0.000
-2.577E-05,0.004
-2.575E-05,0.000
-2.573E-05,0.002
-2.571E-05,0.002
-2.569E-05,0.002
-2.567E-05,0.000
-2.565E-05,0.004
-2.563E-05,0.000
-2.561E-05,0.004
-2.559E-05,0.002
-2.557E-05,0.004
-2.555E-05,0.002
-2.553E-05,0.006
-2.551E-05,0.004
-2.549E-05,0.000
-2.547E-05,-0.002
-2.545E-05,0.052
-2.543E-05,0.008
-2.541E-05,0.026
-2.539E-05,-0.014
-2.537E-05,0.108
-2.535E-05,-0.022
-2.533E-05,0.030
-2.531E-05,-0.066
-2.529E-05,0.034
-2.527E-05,-0.018
-2.525E-05,0.022
-2.523E-05,-0.190
-2.521E-05,0.034
-2.519E-05,-0.010
-2.517E-05,-0.214
-2.515E-05,0.222
-2.513E-05,-0.076
-2.511E-05,-0.008
-2.509E-05,0.050
-2.507E-05,-0.056
-2.505E-05,0.010
-2.503E-05,0.068
-2.501E-05,-0.072
-2.499E-05,0.066
-2.497E-05,-0.022
-2.495E-05,0.010
-2.493E-05,0.006
-2.491E-05,0.000
-2.489E-05,-0.006
-2.487E-05,0.014
-2.485E-05,0.000
-2.483E-05,0.000
-2.481E-05,0.002
-2.479E-05,0.008
-2.477E-05,0.000
-2.475E-05,0.012
-2.473E-05,0.004
-2.471E-05,0.000
-2.469E-05,0.002
-2.467E-05,0.000
-2.465E-05,0.014
-2.463E-05,0.008
-2.461E-05,0.008
-2.459E-05,-0.004
-2.457E-05,-0.002
-2.455E-05,-0.002
-2.453E-05,0.008
-2.451E-05,0.008
-2.449E-05,0.012
-2.447E-05,0.002
-2.445E-05,0.002
-2.443E-05,-0.002
-2.441E-05,-0.002
-2.439E-05,0.012
-2.437E-05,-0.006
-2.435E-05,-0.006
-2.433E-05,0.010
-2.431E-05,0.014
-2.429E-05,-0.002
-2.427E-05,0.018
-2.425E-05,-0.016
-2.423E-05,-0.022
-2.421E-05,0.024
-2.419E-05,-0.006
-2.417E-05,0.010
-2.415E-05,0.020
-2.413E-05,0.000
-2.411E-05,0.012
-2.409E-05,-0.004
-2.407E-05,-0.008
-2.405E-05,0.008
-2.403E-05,-0.008
-2.401E-05,0.012
-2.399E-05,0.016
-2.397E-05,-0.004
-2.395E-05,0.006
-2.393E-05,0.008
-2.391E-05,0.002
-2.389E-05,0.008
-2.387E-05,-0.004
-2.385E-05,0.002
-2.383E-05,-0.006
-2.381E-05,0.010
-2.379E-05,0.006
-2.377E-05,-0.002
-2.375E-05,0.016
-2.373E-05,-0.010
-2.371E-05,0.006
-2.369E-05,0.000
-2.367E-05,0.002
-2.365E-05,-0.002
-2.363E-05,0.010
-2.361E-05,0.002
-2.359E-05,0.010
-2.357E-05,-0.002
-2.355E-05,0.006
-2.353E-05,0.000
-2.351E-05,0.002
-2.349E-05,0.002
-2.347E-05,0.004
-2.345E-05,-0.002
-2.343E-05,0.008
-2.341E-05,0.002
-2.339E-05,-0.006
-2.337E-05,0.008
-2.335E-05,0.000
-2.333E-05,0.008
-2.331E-05,0.008
-2.329E-05,0.008
-2.327E-05,-0.002
