mediciones/8-28/-48/WaveData65958.csv

#timebase=2000000(ps)
,#voltbase=500000(mv/100)
#size=4000
-8.350E-06,0.040
-8.340E-06,0.040
-8.330E-06,0.060
-8.320E-06,0.040
-8.310E-06,0.020
-8.300E-06,0.060
-8.290E-06,0.060
-8.280E-06,0.040
-8.270E-06,0.000
-8.260E-06,0.040
-8.250E-06,0.020
-8.240E-06,0.060
-8.230E-06,0.060
-8.220E-06,0.020
-8.210E-06,0.040
-8.200E-06,0.020
-8.190E-06,0.020
-8.180E-06,0.040
-8.170E-06,0.080
-8.160E-06,0.040
-8.150E-06,0.040
-8.140E-06,0.020
-8.130E-06,0.060
-8.120E-06,0.060
-8.110E-06,0.060
-8.100E-06,0.040
-8.090E-06,0.020
-8.080E-06,0.040
-8.070E-06,0.080
-8.060E-06,0.040
-8.050E-06,0.040
-8.040E-06,0.040
-8.030E-06,0.020
-8.020E-06,0.060
-8.010E-06,0.020
-8.000E-06,0.040
-7.990E-06,0.040
-7.980E-06,0.000
-7.970E-06,0.020
-7.960E-06,0.060
-7.950E-06,0.040
-7.940E-06,0.060
-7.930E-06,0.040
-7.920E-06,0.080
-7.910E-06,0.040
-7.900E-06,0.020
-7.890E-06,0.040
-7.880E-06,0.040
-7.870E-06,0.060
-7.860E-06,0.040
-7.850E-06,0.020
-7.840E-06,0.040
-7.830E-06,0.040
-7.820E-06,0.060
-7.810E-06,0.040
-7.800E-06,0.040
-7.790E-06,0.060
-7.780E-06,0.020
-7.770E-06,0.020
-7.760E-06,0.060
-7.750E-06,0.040
-7.740E-06,0.060
-7.730E-06,0.040
-7.720E-06,0.020
-7.710E-06,0.060
-7.700E-06,0.040
-7.690E-06,0.060
-7.680E-06,0.060
-7.670E-06,0.060
-7.660E-06,0.020
-7.650E-06,0.060
-7.640E-06,0.040
-7.630E-06,0.060
-7.620E-06,0.040
-7.610E-06,0.000
-7.600E-06,0.040
-7.590E-06,0.060
-7.580E-06,0.040
-7.570E-06,0.040
-7.560E-06,0.040
-7.550E-06,0.060
-7.540E-06,0.060
-7.530E-06,0.000
-7.520E-06,0.040
-7.510E-06,0.060
-7.500E-06,0.040
-7.490E-06,0.040
-7.480E-06,0.040
-7.470E-06,0.080
-7.460E-06,0.040
-7.450E-06,0.060
-7.440E-06,0.080
-7.430E-06,0.040
-7.420E-06,0.040
-7.410E-06,0.060
-7.400E-06,0.020
-7.390E-06,0.020
-7.380E-06,0.060
-7.370E-06,0.020
-7.360E-06,0.020
-7.350E-06,0.040
-7.340E-06,0.040
-7.330E-06,0.020
-7.320E-06,0.040
-7.310E-06,0.040
-7.300E-06,0.000
-7.290E-06,0.080
-7.280E-06,0.080
-7.270E-06,0.020
-7.260E-06,0.040
-7.250E-06,0.060
-7.240E-06,0.040
-7.230E-06,0.060
-7.220E-06,0.060
-7.210E-06,0.060
-7.200E-06,0.060
-7.190E-06,0.060
-7.180E-06,0.040
-7.170E-06,0.060
-7.160E-06,0.020
-7.150E-06,0.060
-7.140E-06,0.040
-7.130E-06,0.020
-7.120E-06,0.060
-7.110E-06,0.020
-7.100E-06,0.040
-7.090E-06,0.020
-7.080E-06,0.060
-7.070E-06,0.040
-7.060E-06,0.060
-7.050E-06,0.060
-7.040E-06,0.020
-7.030E-06,0.040
-7.020E-06,0.020
-7.010E-06,0.060
-7.000E-06,0.060
-6.990E-06,0.060
-6.980E-06,0.060
-6.970E-06,0.040
-6.960E-06,0.020
-6.950E-06,0.040
-6.940E-06,0.020
-6.930E-06,0.040
-6.920E-06,0.060
-6.910E-06,0.040
-6.900E-06,0.020
-6.890E-06,0.040
-6.880E-06,0.060
-6.870E-06,0.020
-6.860E-06,0.040
-6.850E-06,0.040
-6.840E-06,0.060
-6.830E-06,0.060
-6.820E-06,0.040
-6.810E-06,0.020
-6.800E-06,0.060
-6.790E-06,0.040
-6.780E-06,0.060
-6.770E-06,0.020
-6.760E-06,0.040
-6.750E-06,0.060
-6.740E-06,0.040
-6.730E-06,0.080
-6.720E-06,0.020
-6.710E-06,0.020
-6.700E-06,0.060
-6.690E-06,0.040
-6.680E-06,0.020
-6.670E-06,0.040
-6.660E-06,0.020
-6.650E-06,0.020
-6.640E-06,0.020
-6.630E-06,0.000
-6.620E-06,0.060
-6.610E-06,0.040
-6.600E-06,0.020
-6.590E-06,0.040
-6.580E-06,0.020
-6.570E-06,0.060
-6.560E-06,0.080
-6.550E-06,0.040
-6.540E-06,0.060
-6.530E-06,0.080
-6.520E-06,0.020
-6.510E-06,0.040
-6.500E-06,0.060
-6.490E-06,0.040
-6.480E-06,0.020
-6.470E-06,0.040
-6.460E-06,0.080
-6.450E-06,0.040
-6.440E-06,0.020
-6.430E-06,0.060
-6.420E-06,0.020
-6.410E-06,0.020
-6.400E-06,0.020
-6.390E-06,0.040
-6.380E-06,0.040
-6.370E-06,0.040
-6.360E-06,0.020
-6.350E-06,0.040
-6.340E-06,0.040
-6.330E-06,-0.020
-6.320E-06,0.060
-6.310E-06,0.020
-6.300E-06,0.040
-6.290E-06,0.020
-6.280E-06,0.060
-6.270E-06,0.060
-6.260E-06,0.060
-6.250E-06,0.080
-6.240E-06,0.020
-6.230E-06,0.040
-6.220E-06,0.040
-6.210E-06,0.040
-6.200E-06,0.040
-6.190E-06,0.040
-6.180E-06,0.060
-6.170E-06,0.080
-6.160E-06,0.060
-6.150E-06,0.040
-6.140E-06,0.060
-6.130E-06,0.040
-6.120E-06,0.020
-6.110E-06,0.020
-6.100E-06,0.040
-6.090E-06,0.020
-6.080E-06,0.020
-6.070E-06,0.060
-6.060E-06,0.020
-6.050E-06,0.040
-6.040E-06,0.060
-6.030E-06,0.060
-6.020E-06,0.020
-6.010E-06,0.020
-6.000E-06,0.040
-5.990E-06,0.040
-5.980E-06,0.080
-5.970E-06,0.080
-5.960E-06,0.040
-5.950E-06,0.020
-5.940E-06,0.040
-5.930E-06,0.020
-5.920E-06,0.020
-5.910E-06,0.060
-5.900E-06,0.080
-5.890E-06,0.020
-5.880E-06,0.020
-5.870E-06,0.060
-5.860E-06,0.020
-5.850E-06,0.060
-5.840E-06,0.040
-5.830E-06,0.060
-5.820E-06,0.080
-5.810E-06,0.020
-5.800E-06,0.020
-5.790E-06,0.040
-5.780E-06,0.040
-5.770E-06,0.040
-5.760E-06,0.060
-5.750E-06,0.060
-5.740E-06,0.060
-5.730E-06,0.040
-5.720E-06,0.060
-5.710E-06,0.040
-5.700E-06,0.080
-5.690E-06,0.040
-5.680E-06,0.000
-5.670E-06,0.020
-5.660E-06,0.040
-5.650E-06,0.040
-5.640E-06,0.020
-5.630E-06,0.040
-5.620E-06,0.040
-5.610E-06,0.080
-5.600E-06,0.020
-5.590E-06,0.020
-5.580E-06,0.000
-5.570E-06,0.020
-5.560E-06,0.040
-5.550E-06,0.080
-5.540E-06,0.040
-5.530E-06,0.080
-5.520E-06,0.040
-5.510E-06,0.060
-5.500E-06,0.040
-5.490E-06,0.020
-5.480E-06,0.060
-5.470E-06,0.060
-5.460E-06,0.060
-5.450E-06,0.020
-5.440E-06,0.000
-5.430E-06,0.040
-5.420E-06,0.080
-5.410E-06,0.020
-5.400E-06,0.020
-5.390E-06,0.060
-5.380E-06,0.080
-5.370E-06,0.040
-5.360E-06,0.040
-5.350E-06,0.020
-5.340E-06,0.000
-5.330E-06,0.060
-5.320E-06,0.060
-5.310E-06,0.080
-5.300E-06,0.060
-5.290E-06,0.020
-5.280E-06,0.060
-5.270E-06,0.060
-5.260E-06,0.060
-5.250E-06,0.060
-5.240E-06,0.020
-5.230E-06,0.040
-5.220E-06,0.080
-5.210E-06,0.080
-5.200E-06,0.060
-5.190E-06,0.080
-5.180E-06,0.020
-5.170E-06,0.000
-5.160E-06,0.040
-5.150E-06,0.020
-5.140E-06,0.080
-5.130E-06,0.040
-5.120E-06,0.060
-5.110E-06,0.040
-5.100E-06,0.060
-5.090E-06,0.080
-5.080E-06,0.020
-5.070E-06,0.020
-5.060E-06,0.040
-5.050E-06,0.060
-5.040E-06,0.040
-5.030E-06,0.060
-5.020E-06,0.040
-5.010E-06,0.060
-5.000E-06,0.080
-4.990E-06,0.020
-4.980E-06,0.040
-4.970E-06,0.040
-4.960E-06,0.040
-4.950E-06,0.060
-4.940E-06,0.040
-4.930E-06,-0.020
-4.920E-06,0.020
-4.910E-06,0.040
-4.900E-06,0.060
-4.890E-06,0.020
-4.880E-06,0.040
-4.870E-06,0.060
-4.860E-06,0.080
-4.850E-06,0.040
-4.840E-06,0.040
-4.830E-06,0.020
-4.820E-06,0.060
-4.810E-06,0.060
-4.800E-06,0.020
-4.790E-06,0.020
-4.780E-06,0.020
-4.770E-06,0.020
-4.760E-06,0.040
-4.750E-06,0.060
-4.740E-06,0.060
-4.730E-06,0.040
-4.720E-06,0.040
-4.710E-06,0.020
-4.700E-06,0.060
-4.690E-06,0.020
-4.680E-06,0.040
-4.670E-06,0.040
-4.660E-06,0.020
-4.650E-06,0.020
-4.640E-06,0.060
-4.630E-06,0.000
-4.620E-06,0.040
-4.610E-06,0.060
-4.600E-06,0.060
-4.590E-06,0.040
-4.580E-06,0.020
-4.570E-06,0.060
-4.560E-06,0.020
-4.550E-06,0.060
-4.540E-06,0.040
-4.530E-06,0.060
-4.520E-06,0.060
-4.510E-06,0.080
-4.500E-06,0.040
-4.490E-06,0.020
-4.480E-06,0.040
-4.470E-06,0.040
-4.460E-06,0.060
-4.450E-06,0.040
-4.440E-06,0.060
-4.430E-06,0.020
-4.420E-06,0.040
-4.410E-06,0.060
-4.400E-06,0.060
-4.390E-06,0.060
-4.380E-06,0.040
-4.370E-06,0.060
-4.360E-06,0.040
-4.350E-06,0.040
-4.340E-06,0.020
-4.330E-06,0.040
-4.320E-06,0.040
-4.310E-06,0.040
-4.300E-06,0.020
-4.290E-06,0.060
-4.280E-06,0.060
-4.270E-06,0.040
-4.260E-06,0.040
-4.250E-06,0.060
-4.240E-06,0.040
-4.230E-06,0.020
-4.220E-06,0.020
-4.210E-06,0.040
-4.200E-06,0.020
-4.190E-06,0.060
-4.180E-06,0.020
-4.170E-06,0.040
-4.160E-06,0.020
-4.150E-06,0.040
-4.140E-06,0.040
-4.130E-06,0.020
-4.120E-06,0.040
-4.110E-06,0.020
-4.100E-06,0.020
-4.090E-06,0.080
-4.080E-06,0.000
-4.070E-06,0.040
-4.060E-06,0.020
-4.050E-06,-0.080
-4.040E-06,-0.540
-4.030E-06,-1.360
-4.020E-06,-2.460
-4.010E-06,-3.280
-4.000E-06,-3.140
-3.990E-06,-2.300
-3.980E-06,-1.400
-3.970E-06,-1.240
-3.960E-06,1.460
-3.950E-06,1.860
-3.940E-06,2.000
-3.930E-06,2.080
-3.920E-06,2.100
-3.910E-06,2.100
-3.900E-06,2.080
-3.890E-06,2.100
-3.880E-06,2.000
-3.870E-06,0.700
-3.860E-06,0.300
-3.850E-06,-0.580
-3.840E-06,-0.840
-3.830E-06,-0.820
-3.820E-06,-0.500
-3.810E-06,-0.200
-3.800E-06,-0.360
-3.790E-06,-0.240
-3.780E-06,-0.480
-3.770E-06,-0.840
-3.760E-06,-1.200
-3.750E-06,-1.560
-3.740E-06,-1.800
-3.730E-06,-1.960
-3.720E-06,-1.820
-3.710E-06,-1.680
-3.700E-06,-1.340
-3.690E-06,-0.640
-3.680E-06,-0.080
-3.670E-06,0.620
-3.660E-06,1.260
-3.650E-06,1.680
-3.640E-06,1.840
-3.630E-06,1.820
-3.620E-06,1.620
-3.610E-06,1.180
-3.600E-06,0.760
-3.590E-06,0.320
-3.580E-06,-0.200
-3.570E-06,-0.540
-3.560E-06,-0.800
-3.550E-06,-0.960
-3.540E-06,-1.000
-3.530E-06,-0.960
-3.520E-06,-0.820
-3.510E-06,-0.680
-3.500E-06,-0.520
-3.490E-06,-0.340
-3.480E-06,-0.140
-3.470E-06,0.060
-3.460E-06,0.260
-3.450E-06,0.500
-3.440E-06,0.720
-3.430E-06,0.880
-3.420E-06,1.000
-3.410E-06,1.040
-3.400E-06,1.020
-3.390E-06,0.920
-3.380E-06,0.780
-3.370E-06,0.580
-3.360E-06,0.440
-3.350E-06,0.240
-3.340E-06,-0.020
-3.330E-06,-0.120
-3.320E-06,-0.260
-3.310E-06,-0.420
-3.300E-06,-0.500
-3.290E-06,-0.500
-3.280E-06,-0.600
-3.270E-06,-0.600
-3.260E-06,-0.620
-3.250E-06,-0.640
-3.240E-06,-0.560
-3.230E-06,-0.400
-3.220E-06,-0.260
-3.210E-06,-0.060
-3.200E-06,0.240
-3.190E-06,0.480
-3.180E-06,0.660
-3.170E-06,0.800
-3.160E-06,0.920
-3.150E-06,0.940
-3.140E-06,0.860
-3.130E-06,0.720
-3.120E-06,0.560
-3.110E-06,0.340
-3.100E-06,0.100
-3.090E-06,-0.120
-3.080E-06,-0.320
-3.070E-06,-0.480
-3.060E-06,-0.540
-3.050E-06,-0.580
-3.040E-06,-0.560
-3.030E-06,-0.460
-3.020E-06,-0.360
-3.010E-06,-0.280
-3.000E-06,-0.180
-2.990E-06,-0.080
-2.980E-06,0.020
-2.970E-06,0.080
-2.960E-06,0.080
-2.950E-06,0.080
-2.940E-06,0.080
-2.930E-06,0.100
-2.920E-06,0.080
-2.910E-06,0.080
-2.900E-06,0.120
-2.890E-06,0.180
-2.880E-06,0.140
-2.870E-06,0.080
-2.860E-06,0.080
-2.850E-06,0.040
-2.840E-06,0.000
-2.830E-06,-0.040
-2.820E-06,-0.040
-2.810E-06,-0.040
-2.800E-06,-0.080
-2.790E-06,-0.100
-2.780E-06,-0.120
-2.770E-06,-0.080
-2.760E-06,-0.040
-2.750E-06,-0.020
-2.740E-06,0.060
-2.730E-06,0.040
-2.720E-06,0.120
-2.710E-06,0.100
-2.700E-06,0.120
-2.690E-06,0.180
-2.680E-06,0.160
-2.670E-06,0.120
-2.660E-06,0.080
-2.650E-06,0.000
-2.640E-06,0.000
-2.630E-06,-0.040
-2.620E-06,-0.060
-2.610E-06,-0.020
-2.600E-06,-0.060
-2.590E-06,-0.060
-2.580E-06,-0.140
-2.570E-06,-0.120
-2.560E-06,-0.140
-2.550E-06,-0.160
-2.540E-06,-0.200
-2.530E-06,-0.200
-2.520E-06,-0.240
-2.510E-06,-0.200
-2.500E-06,-0.240
-2.490E-06,-0.180
-2.480E-06,-0.200
-2.470E-06,-0.120
-2.460E-06,-0.120
-2.450E-06,-0.160
-2.440E-06,-0.160
-2.430E-06,-0.160
-2.420E-06,-0.120
-2.410E-06,-0.140
-2.400E-06,-0.200
-2.390E-06,-0.160
-2.380E-06,-0.160
-2.370E-06,-0.080
-2.360E-06,-0.100
-2.350E-06,-0.020
-2.340E-06,0.080
-2.330E-06,0.100
-2.320E-06,0.160
-2.310E-06,0.160
-2.300E-06,0.260
-2.290E-06,0.220
-2.280E-06,0.240
-2.270E-06,0.240
-2.260E-06,0.180
-2.250E-06,0.140
-2.240E-06,0.060
-2.230E-06,0.040
-2.220E-06,-0.060
-2.210E-06,-0.080
-2.200E-06,-0.100
-2.190E-06,-0.020
-2.180E-06,0.140
-2.170E-06,0.540
-2.160E-06,1.100
-2.150E-06,1.600
-2.140E-06,1.920
-2.130E-06,1.920
-2.120E-06,1.600
-2.110E-06,0.920
-2.100E-06,0.180
-2.090E-06,-0.640
-2.080E-06,-1.260
-2.070E-06,-1.800
-2.060E-06,-2.140
-2.050E-06,-2.200
-2.040E-06,-2.180
-2.030E-06,-1.880
-2.020E-06,-1.540
-2.010E-06,-1.100
-2.000E-06,-0.820
-1.990E-06,-0.680
-1.980E-06,-0.440
-1.970E-06,-0.260
-1.960E-06,-0.120
-1.950E-06,0.080
-1.940E-06,0.080
-1.930E-06,0.080
-1.920E-06,0.140
-1.910E-06,0.180
-1.900E-06,0.440
-1.890E-06,0.620
-1.880E-06,0.920
-1.870E-06,1.080
-1.860E-06,1.080
-1.850E-06,0.920
-1.840E-06,0.700
-1.830E-06,0.420
-1.820E-06,0.080
-1.810E-06,-0.140
-1.800E-06,-0.320
-1.790E-06,-0.560
-1.780E-06,-0.760
-1.770E-06,-0.940
-1.760E-06,-1.040
-1.750E-06,-0.940
-1.740E-06,-0.740
-1.730E-06,-0.440
-1.720E-06,-0.180
-1.710E-06,0.160
-1.700E-06,0.340
-1.690E-06,0.460
-1.680E-06,0.560
-1.670E-06,0.520
-1.660E-06,0.440
-1.650E-06,0.380
-1.640E-06,0.200
-1.630E-06,-0.100
-1.620E-06,-0.380
-1.610E-06,-0.700
-1.600E-06,-0.920
-1.590E-06,-1.180
-1.580E-06,-1.280
-1.570E-06,-1.360
-1.560E-06,-1.360
-1.550E-06,-1.320
-1.540E-06,-1.240
-1.530E-06,-1.180
-1.520E-06,-1.100
-1.510E-06,-1.040
-1.500E-06,-0.980
-1.490E-06,-0.860
-1.480E-06,-0.800
-1.470E-06,-0.800
-1.460E-06,-0.800
-1.450E-06,-0.700
-1.440E-06,-0.620
-1.430E-06,-0.420
-1.420E-06,-0.180
-1.410E-06,0.120
-1.400E-06,0.340
-1.390E-06,0.640
-1.380E-06,0.620
-1.370E-06,0.620
-1.360E-06,0.380
-1.350E-06,0.060
-1.340E-06,-0.340
-1.330E-06,-0.600
-1.320E-06,-0.900
-1.310E-06,-1.100
-1.300E-06,-1.260
-1.290E-06,-1.360
-1.280E-06,-1.360
-1.270E-06,-1.360
-1.260E-06,-1.080
-1.250E-06,-0.880
-1.240E-06,-0.660
-1.230E-06,-0.480
-1.220E-06,-0.260
-1.210E-06,-0.020
-1.200E-06,0.080
-1.190E-06,0.080
-1.180E-06,0.120
-1.170E-06,0.220
-1.160E-06,0.340
-1.150E-06,0.380
-1.140E-06,0.180
-1.130E-06,0.100
-1.120E-06,-0.100
-1.110E-06,-0.240
-1.100E-06,-0.260
-1.090E-06,-0.440
-1.080E-06,-0.280
-1.070E-06,-0.300
-1.060E-06,-0.260
-1.050E-06,-0.280
-1.040E-06,-0.380
-1.030E-06,-0.500
-1.020E-06,-0.580
-1.010E-06,-0.700
-1.000E-06,-0.720
-9.900E-07,-0.820
-9.800E-07,-0.720
-9.700E-07,-0.700
-9.600E-07,-0.620
-9.500E-07,-0.500
-9.400E-07,-0.220
-9.300E-07,-0.280
-9.200E-07,-0.120
-9.100E-07,0.000
-9.000E-07,0.220
-8.900E-07,0.160
-8.800E-07,0.340
-8.700E-07,0.400
-8.600E-07,0.220
-8.500E-07,-0.100
-8.400E-07,-0.400
-8.300E-07,-0.560
-8.200E-07,-0.680
-8.100E-07,-0.800
-8.000E-07,-0.760
-7.900E-07,-0.840
-7.800E-07,-0.660
-7.700E-07,-0.660
-7.600E-07,-0.600
-7.500E-07,-0.440
-7.400E-07,-0.340
-7.300E-07,-0.280
-7.200E-07,-0.260
-7.100E-07,-0.560
-7.000E-07,-0.640
-6.900E-07,-0.600
-6.800E-07,-0.520
-6.700E-07,-0.320
-6.600E-07,-0.260
-6.500E-07,-0.180
-6.400E-07,-0.180
-6.300E-07,-0.180
-6.200E-07,-0.140
-6.100E-07,-0.160
-6.000E-07,-0.200
-5.900E-07,-0.240
-5.800E-07,-0.280
-5.700E-07,-0.360
-5.600E-07,-0.440
-5.500E-07,-0.640
-5.400E-07,-0.780
-5.300E-07,-1.000
-5.200E-07,-1.100
-5.100E-07,-1.040
-5.000E-07,-1.000
-4.900E-07,-0.920
-4.800E-07,-1.020
-4.700E-07,-1.020
-4.600E-07,-1.100
-4.500E-07,-0.940
-4.400E-07,-0.860
-4.300E-07,-0.500
-4.200E-07,-0.500
-4.100E-07,-0.500
-4.000E-07,-0.780
-3.900E-07,-1.060
-3.800E-07,-0.760
-3.700E-07,-0.940
-3.600E-07,-0.760
-3.500E-07,-0.660
-3.400E-07,-0.660
-3.300E-07,-0.400
-3.200E-07,-0.340
-3.100E-07,-0.700
-3.000E-07,-0.180
-2.900E-07,-0.820
-2.800E-07,-0.980
-2.700E-07,-2.020
-2.600E-07,-2.100
-2.500E-07,-1.880
-2.400E-07,-1.440
-2.300E-07,-0.800
-2.200E-07,-0.480
-2.100E-07,-0.500
-2.000E-07,-0.780
-1.900E-07,-1.400
-1.800E-07,-1.720
-1.700E-07,-2.000
-1.600E-07,-3.300
-1.500E-07,-3.360
-1.400E-07,-3.340
-1.300E-07,-3.340
-1.200E-07,-3.340
-1.100E-07,-3.080
-1.000E-07,-2.340
-9.000E-08,-2.240
-8.000E-08,-2.200
-7.000E-08,-1.820
-6.000E-08,-1.280
-5.000E-08,-0.420
-4.000E-08,0.400
-3.000E-08,0.980
-2.000E-08,0.060
-1.000E-08,-1.040
0.000E+00,-3.060
1.000E-08,-3.340
2.000E-08,-3.340
3.000E-08,-3.340
4.000E-08,-2.700
5.000E-08,-1.480
6.000E-08,-0.600
7.000E-08,-0.520
8.000E-08,-0.940
9.000E-08,-2.000
1.000E-07,-2.520
1.100E-07,-2.920
1.200E-07,-2.640
1.300E-07,-2.300
1.400E-07,-1.900
1.500E-07,-1.200
1.600E-07,-0.860
1.700E-07,-0.620
1.800E-07,-0.520
1.900E-07,0.020
2.000E-07,0.520
2.100E-07,1.340
2.200E-07,1.280
2.300E-07,1.440
2.400E-07,0.660
2.500E-07,0.280
2.600E-07,-0.900
2.700E-07,-2.040
2.800E-07,-3.040
2.900E-07,-3.340
3.000E-07,-3.340
3.100E-07,-3.340
3.200E-07,-3.360
3.300E-07,-3.340
3.400E-07,-2.980
3.500E-07,-2.720
3.600E-07,-2.400
3.700E-07,-2.160
3.800E-07,-1.780
3.900E-07,-1.040
4.000E-07,-0.260
4.100E-07,0.420
4.200E-07,0.980
4.300E-07,1.100
4.400E-07,1.160
4.500E-07,1.040
4.600E-07,1.120
4.700E-07,1.020
4.800E-07,0.880
4.900E-07,0.640
5.000E-07,0.480
5.100E-07,0.260
5.200E-07,-0.080
5.300E-07,-0.320
5.400E-07,-0.460
5.500E-07,-0.660
5.600E-07,-0.800
5.700E-07,-0.900
5.800E-07,-0.940
5.900E-07,-0.960
6.000E-07,-1.020
6.100E-07,-0.920
6.200E-07,-0.900
6.300E-07,-0.660
6.400E-07,-0.500
6.500E-07,-0.140
6.600E-07,0.240
6.700E-07,0.440
6.800E-07,0.580
6.900E-07,0.720
7.000E-07,0.600
7.100E-07,0.480
7.200E-07,-0.060
7.300E-07,-0.720
7.400E-07,-1.380
7.500E-07,-1.860
7.600E-07,-2.320
7.700E-07,-2.720
7.800E-07,-3.200
7.900E-07,-3.340
8.000E-07,-3.360
8.100E-07,-3.360
8.200E-07,-3.340
8.300E-07,-3.340
8.400E-07,-3.340
8.500E-07,-3.340
8.600E-07,-3.360
8.700E-07,-3.340
8.800E-07,-3.340
8.900E-07,-3.340
9.000E-07,-3.340
9.100E-07,-3.320
9.200E-07,-3.320
9.300E-07,-3.320
9.400E-07,-3.340
9.500E-07,-3.340
9.600E-07,-3.100
9.700E-07,-2.900
9.800E-07,-2.800
9.900E-07,-2.700
1.000E-06,-2.700
1.010E-06,-2.700
1.020E-06,-2.640
1.030E-06,-2.700
1.040E-06,-2.720
1.050E-06,-2.720
1.060E-06,-2.760
1.070E-06,-2.740
1.080E-06,-2.620
1.090E-06,-2.480
1.100E-06,-2.360
1.110E-06,-2.100
1.120E-06,-1.980
1.130E-06,-1.760
1.140E-06,-1.580
1.150E-06,-1.380
1.160E-06,-1.280
1.170E-06,-1.160
1.180E-06,-1.020
1.190E-06,-0.920
1.200E-06,-0.760
1.210E-06,-0.600
1.220E-06,-0.460
1.230E-06,-0.340
1.240E-06,-0.320
1.250E-06,-0.280
1.260E-06,-0.220
1.270E-06,-0.160
1.280E-06,-0.100
1.290E-06,-0.120
1.300E-06,-0.080
1.310E-06,-0.100
1.320E-06,-0.120
1.330E-06,-0.180
1.340E-06,-0.300
1.350E-06,-0.420
1.360E-06,-0.520
1.370E-06,-0.580
1.380E-06,-0.660
1.390E-06,-0.700
1.400E-06,-0.720
1.410E-06,-0.680
1.420E-06,-0.700
1.430E-06,-0.680
1.440E-06,-0.680
1.450E-06,-0.660
1.460E-06,-0.680
1.470E-06,-0.760
1.480E-06,-0.760
1.490E-06,-0.840
1.500E-06,-0.860
1.510E-06,-0.840
1.520E-06,-0.800
1.530E-06,-0.740
1.540E-06,-0.740
1.550E-06,-0.680
1.560E-06,-0.700
1.570E-06,-0.680
1.580E-06,-0.620
1.590E-06,-0.600
1.600E-06,-0.560
1.610E-06,-0.540
1.620E-06,-0.520
1.630E-06,-0.520
1.640E-06,-0.520
1.650E-06,-0.500
1.660E-06,-0.460
1.670E-06,-0.420
1.680E-06,-0.400
1.690E-06,-0.340
1.700E-06,-0.340
1.710E-06,-0.320
1.720E-06,-0.240
1.730E-06,-0.220
1.740E-06,-0.180
1.750E-06,-0.140
1.760E-06,-0.060
1.770E-06,0.020
1.780E-06,0.020
1.790E-06,0.020
1.800E-06,0.040
1.810E-06,0.060
1.820E-06,0.100
1.830E-06,0.120
1.840E-06,0.120
1.850E-06,0.100
1.860E-06,0.080
1.870E-06,0.080
1.880E-06,0.060
1.890E-06,0.020
1.900E-06,0.040
1.910E-06,0.000
1.920E-06,0.000
1.930E-06,0.020
1.940E-06,0.020
1.950E-06,0.020
1.960E-06,-0.020
1.970E-06,-0.020
1.980E-06,-0.060
1.990E-06,-0.100
2.000E-06,-0.120
2.010E-06,-0.120
2.020E-06,-0.120
2.030E-06,-0.040
2.040E-06,0.020
2.050E-06,0.040
2.060E-06,0.100
2.070E-06,0.100
2.080E-06,0.120
2.090E-06,0.140
2.100E-06,0.140
2.110E-06,0.100
2.120E-06,0.080
2.130E-06,0.020
2.140E-06,0.000
2.150E-06,0.020
2.160E-06,0.000
2.170E-06,0.000
2.180E-06,0.060
2.190E-06,0.040
2.200E-06,0.020
2.210E-06,-0.160
2.220E-06,-0.080
2.230E-06,-0.080
2.240E-06,0.000
2.250E-06,0.020
2.260E-06,0.100
2.270E-06,0.120
2.280E-06,0.160
2.290E-06,0.120
2.300E-06,0.120
2.310E-06,0.140
2.320E-06,0.080
2.330E-06,0.100
2.340E-06,0.180
2.350E-06,0.220
2.360E-06,0.220
2.370E-06,0.260
2.380E-06,0.260
2.390E-06,0.320
2.400E-06,0.320
2.410E-06,0.320
2.420E-06,0.340
2.430E-06,0.340
2.440E-06,0.380
2.450E-06,0.380
2.460E-06,0.340
2.470E-06,0.320
2.480E-06,0.340
2.490E-06,0.320
2.500E-06,0.320
2.510E-06,0.300
2.520E-06,0.320
2.530E-06,0.320
2.540E-06,0.280
2.550E-06,0.300
2.560E-06,0.300
2.570E-06,0.300
2.580E-06,0.340
2.590E-06,0.340
2.600E-06,0.340
2.610E-06,0.340
2.620E-06,0.260
2.630E-06,0.240
2.640E-06,0.240
2.650E-06,0.200
2.660E-06,0.120
2.670E-06,0.000
2.680E-06,-0.080
2.690E-06,-0.120
2.700E-06,-0.140
2.710E-06,-0.120
2.720E-06,-0.060
2.730E-06,-0.040
2.740E-06,-0.020
2.750E-06,-0.080
2.760E-06,-0.160
2.770E-06,-0.220
2.780E-06,-0.240
2.790E-06,-0.240
2.800E-06,-0.220
2.810E-06,-0.240
2.820E-06,-0.260
2.830E-06,-0.260
2.840E-06,-0.300
2.850E-06,-0.260
2.860E-06,-0.320
2.870E-06,-0.320
2.880E-06,-0.300
2.890E-06,-0.240
2.900E-06,-0.180
2.910E-06,-0.120
2.920E-06,-0.080
2.930E-06,-0.040
2.940E-06,-0.020
2.950E-06,-0.080
2.960E-06,-0.080
2.970E-06,0.060
2.980E-06,0.160
2.990E-06,0.240
3.000E-06,0.320
3.010E-06,0.360
3.020E-06,0.340
3.030E-06,0.320
3.040E-06,0.180
3.050E-06,0.120
3.060E-06,0.000
3.070E-06,-0.140
3.080E-06,-0.180
3.090E-06,-0.280
3.100E-06,-0.340
3.110E-06,-0.380
3.120E-06,-0.440
3.130E-06,-0.400
3.140E-06,-0.420
3.150E-06,-0.360
3.160E-06,-0.340
3.170E-06,-0.340
3.180E-06,-0.300
3.190E-06,-0.320
3.200E-06,-0.300
3.210E-06,-0.320
3.220E-06,-0.460
3.230E-06,-0.520
3.240E-06,-0.560
3.250E-06,-0.560
3.260E-06,-0.600
3.270E-06,-0.580
