mediciones/8-28/New folder (4)/WaveData65608.csv

#timebase=2000000(ps)
,#voltbase=500000(mv/100)
#size=4000
-8.350E-06,0.080
-8.340E-06,0.060
-8.330E-06,0.060
-8.320E-06,0.100
-8.310E-06,0.040
-8.300E-06,0.020
-8.290E-06,0.060
-8.280E-06,0.040
-8.270E-06,0.080
-8.260E-06,0.060
-8.250E-06,0.040
-8.240E-06,0.040
-8.230E-06,0.060
-8.220E-06,0.060
-8.210E-06,0.060
-8.200E-06,0.080
-8.190E-06,0.060
-8.180E-06,0.060
-8.170E-06,0.080
-8.160E-06,0.040
-8.150E-06,0.080
-8.140E-06,0.060
-8.130E-06,0.080
-8.120E-06,0.040
-8.110E-06,0.060
-8.100E-06,0.080
-8.090E-06,0.080
-8.080E-06,0.040
-8.070E-06,0.040
-8.060E-06,0.060
-8.050E-06,0.060
-8.040E-06,0.060
-8.030E-06,0.040
-8.020E-06,0.060
-8.010E-06,0.100
-8.000E-06,0.060
-7.990E-06,0.080
-7.980E-06,0.060
-7.970E-06,0.060
-7.960E-06,0.080
-7.950E-06,0.080
-7.940E-06,0.060
-7.930E-06,0.060
-7.920E-06,0.100
-7.910E-06,0.040
-7.900E-06,0.040
-7.890E-06,0.060
-7.880E-06,0.080
-7.870E-06,0.060
-7.860E-06,0.100
-7.850E-06,0.060
-7.840E-06,0.080
-7.830E-06,0.080
-7.820E-06,0.040
-7.810E-06,0.060
-7.800E-06,0.060
-7.790E-06,0.040
-7.780E-06,0.060
-7.770E-06,0.060
-7.760E-06,0.060
-7.750E-06,0.060
-7.740E-06,0.060
-7.730E-06,0.020
-7.720E-06,0.040
-7.710E-06,0.060
-7.700E-06,0.060
-7.690E-06,0.080
-7.680E-06,0.080
-7.670E-06,0.040
-7.660E-06,0.080
-7.650E-06,0.060
-7.640E-06,0.080
-7.630E-06,0.040
-7.620E-06,0.060
-7.610E-06,0.060
-7.600E-06,0.060
-7.590E-06,0.060
-7.580E-06,0.080
-7.570E-06,0.060
-7.560E-06,0.040
-7.550E-06,0.060
-7.540E-06,0.040
-7.530E-06,0.060
-7.520E-06,0.080
-7.510E-06,0.040
-7.500E-06,0.080
-7.490E-06,0.040
-7.480E-06,0.060
-7.470E-06,0.080
-7.460E-06,0.040
-7.450E-06,0.040
-7.440E-06,0.080
-7.430E-06,0.040
-7.420E-06,0.040
-7.410E-06,0.100
-7.400E-06,0.060
-7.390E-06,0.080
-7.380E-06,0.060
-7.370E-06,0.060
-7.360E-06,0.060
-7.350E-06,0.060
-7.340E-06,0.080
-7.330E-06,0.080
-7.320E-06,0.060
-7.310E-06,0.040
-7.300E-06,0.080
-7.290E-06,0.060
-7.280E-06,0.060
-7.270E-06,0.060
-7.260E-06,0.060
-7.250E-06,0.080
-7.240E-06,0.080
-7.230E-06,0.080
-7.220E-06,0.080
-7.210E-06,0.060
-7.200E-06,0.040
-7.190E-06,0.060
-7.180E-06,0.080
-7.170E-06,0.060
-7.160E-06,0.060
-7.150E-06,0.080
-7.140E-06,0.080
-7.130E-06,0.040
-7.120E-06,0.080
-7.110E-06,0.020
-7.100E-06,0.060
-7.090E-06,0.080
-7.080E-06,0.040
-7.070E-06,0.060
-7.060E-06,0.060
-7.050E-06,0.060
-7.040E-06,0.080
-7.030E-06,0.080
-7.020E-06,0.060
-7.010E-06,0.040
-7.000E-06,0.040
-6.990E-06,0.060
-6.980E-06,0.080
-6.970E-06,0.060
-6.960E-06,0.060
-6.950E-06,0.060
-6.940E-06,0.060
-6.930E-06,0.060
-6.920E-06,0.040
-6.910E-06,0.040
-6.900E-06,0.080
-6.890E-06,0.040
-6.880E-06,0.060
-6.870E-06,0.060
-6.860E-06,0.060
-6.850E-06,0.080
-6.840E-06,0.020
-6.830E-06,0.060
-6.820E-06,0.020
-6.810E-06,0.060
-6.800E-06,0.080
-6.790E-06,0.080
-6.780E-06,0.040
-6.770E-06,0.040
-6.760E-06,0.060
-6.750E-06,0.060
-6.740E-06,0.080
-6.730E-06,0.040
-6.720E-06,0.040
-6.710E-06,0.060
-6.700E-06,0.020
-6.690E-06,0.080
-6.680E-06,0.040
-6.670E-06,0.040
-6.660E-06,0.060
-6.650E-06,0.080
-6.640E-06,0.060
-6.630E-06,0.080
-6.620E-06,0.040
-6.610E-06,0.060
-6.600E-06,0.060
-6.590E-06,0.080
-6.580E-06,0.080
-6.570E-06,0.080
-6.560E-06,0.060
-6.550E-06,0.060
-6.540E-06,0.080
-6.530E-06,0.060
-6.520E-06,0.040
-6.510E-06,0.060
-6.500E-06,0.080
-6.490E-06,0.040
-6.480E-06,0.060
-6.470E-06,0.060
-6.460E-06,0.060
-6.450E-06,0.080
-6.440E-06,0.040
-6.430E-06,0.060
-6.420E-06,0.040
-6.410E-06,0.040
-6.400E-06,0.100
-6.390E-06,0.040
-6.380E-06,0.020
-6.370E-06,0.060
-6.360E-06,0.040
-6.350E-06,0.060
-6.340E-06,0.080
-6.330E-06,0.040
-6.320E-06,0.060
-6.310E-06,0.040
-6.300E-06,0.060
-6.290E-06,0.080
-6.280E-06,0.040
-6.270E-06,0.060
-6.260E-06,0.040
-6.250E-06,0.100
-6.240E-06,0.060
-6.230E-06,0.080
-6.220E-06,0.040
-6.210E-06,0.020
-6.200E-06,0.080
-6.190E-06,0.080
-6.180E-06,0.060
-6.170E-06,0.080
-6.160E-06,0.060
-6.150E-06,0.040
-6.140E-06,0.060
-6.130E-06,0.080
-6.120E-06,0.040
-6.110E-06,0.040
-6.100E-06,0.040
-6.090E-06,0.060
-6.080E-06,0.080
-6.070E-06,0.060
-6.060E-06,0.060
-6.050E-06,0.040
-6.040E-06,0.060
-6.030E-06,0.020
-6.020E-06,0.060
-6.010E-06,0.080
-6.000E-06,0.060
-5.990E-06,0.100
-5.980E-06,0.060
-5.970E-06,0.060
-5.960E-06,0.040
-5.950E-06,0.100
-5.940E-06,0.060
-5.930E-06,0.080
-5.920E-06,0.040
-5.910E-06,0.060
-5.900E-06,0.040
-5.890E-06,0.100
-5.880E-06,0.060
-5.870E-06,0.080
-5.860E-06,0.060
-5.850E-06,0.060
-5.840E-06,0.080
-5.830E-06,0.060
-5.820E-06,0.080
-5.810E-06,0.040
-5.800E-06,0.040
-5.790E-06,0.040
-5.780E-06,0.040
-5.770E-06,0.100
-5.760E-06,0.060
-5.750E-06,0.080
-5.740E-06,0.060
-5.730E-06,0.060
-5.720E-06,0.080
-5.710E-06,0.060
-5.700E-06,0.060
-5.690E-06,0.020
-5.680E-06,0.080
-5.670E-06,0.020
-5.660E-06,0.060
-5.650E-06,0.040
-5.640E-06,0.060
-5.630E-06,0.080
-5.620E-06,0.060
-5.610E-06,0.040
-5.600E-06,0.040
-5.590E-06,0.060
-5.580E-06,0.020
-5.570E-06,0.060
-5.560E-06,0.080
-5.550E-06,0.060
-5.540E-06,0.060
-5.530E-06,0.060
-5.520E-06,0.080
-5.510E-06,0.060
-5.500E-06,0.060
-5.490E-06,0.080
-5.480E-06,0.040
-5.470E-06,0.060
-5.460E-06,0.060
-5.450E-06,0.040
-5.440E-06,0.040
-5.430E-06,0.040
-5.420E-06,0.020
-5.410E-06,0.060
-5.400E-06,0.040
-5.390E-06,0.040
-5.380E-06,0.060
-5.370E-06,0.040
-5.360E-06,0.080
-5.350E-06,0.080
-5.340E-06,0.020
-5.330E-06,0.040
-5.320E-06,0.080
-5.310E-06,0.080
-5.300E-06,0.040
-5.290E-06,0.060
-5.280E-06,0.080
-5.270E-06,0.080
-5.260E-06,0.080
-5.250E-06,0.060
-5.240E-06,0.060
-5.230E-06,0.060
-5.220E-06,0.040
-5.210E-06,0.080
-5.200E-06,0.080
-5.190E-06,0.060
-5.180E-06,0.080
-5.170E-06,0.060
-5.160E-06,0.040
-5.150E-06,0.060
-5.140E-06,0.060
-5.130E-06,0.080
-5.120E-06,0.060
-5.110E-06,0.040
-5.100E-06,0.040
-5.090E-06,0.060
-5.080E-06,0.060
-5.070E-06,0.060
-5.060E-06,0.020
-5.050E-06,0.060
-5.040E-06,0.080
-5.030E-06,0.040
-5.020E-06,0.100
-5.010E-06,0.060
-5.000E-06,0.080
-4.990E-06,0.060
-4.980E-06,0.060
-4.970E-06,0.040
-4.960E-06,0.060
-4.950E-06,0.060
-4.940E-06,0.040
-4.930E-06,0.040
-4.920E-06,0.040
-4.910E-06,0.060
-4.900E-06,0.060
-4.890E-06,0.020
-4.880E-06,0.080
-4.870E-06,0.060
-4.860E-06,0.040
-4.850E-06,0.060
-4.840E-06,0.100
-4.830E-06,0.040
-4.820E-06,0.080
-4.810E-06,0.060
-4.800E-06,0.060
-4.790E-06,0.060
-4.780E-06,0.060
-4.770E-06,0.080
-4.760E-06,0.060
-4.750E-06,0.060
-4.740E-06,0.060
-4.730E-06,0.060
-4.720E-06,0.060
-4.710E-06,0.060
-4.700E-06,0.040
-4.690E-06,0.060
-4.680E-06,0.040
-4.670E-06,0.040
-4.660E-06,0.040
-4.650E-06,0.100
-4.640E-06,0.080
-4.630E-06,0.060
-4.620E-06,0.040
-4.610E-06,0.040
-4.600E-06,0.080
-4.590E-06,0.060
-4.580E-06,0.080
-4.570E-06,0.080
-4.560E-06,0.080
-4.550E-06,0.060
-4.540E-06,0.080
-4.530E-06,0.060
-4.520E-06,0.060
-4.510E-06,0.060
-4.500E-06,0.020
-4.490E-06,0.060
-4.480E-06,0.060
-4.470E-06,0.020
-4.460E-06,0.040
-4.450E-06,0.040
-4.440E-06,0.080
-4.430E-06,0.060
-4.420E-06,0.040
-4.410E-06,0.060
-4.400E-06,0.040
-4.390E-06,0.060
-4.380E-06,0.060
-4.370E-06,0.060
-4.360E-06,0.040
-4.350E-06,0.060
-4.340E-06,0.060
-4.330E-06,0.080
-4.320E-06,0.060
-4.310E-06,0.080
-4.300E-06,0.060
-4.290E-06,0.040
-4.280E-06,0.040
-4.270E-06,0.100
-4.260E-06,0.060
-4.250E-06,0.080
-4.240E-06,0.080
-4.230E-06,0.040
-4.220E-06,0.040
-4.210E-06,0.080
-4.200E-06,0.040
-4.190E-06,0.060
-4.180E-06,0.040
-4.170E-06,0.060
-4.160E-06,0.100
-4.150E-06,0.020
-4.140E-06,0.080
-4.130E-06,0.060
-4.120E-06,0.040
-4.110E-06,0.060
-4.100E-06,0.080
-4.090E-06,0.040
-4.080E-06,0.040
-4.070E-06,0.060
-4.060E-06,0.080
-4.050E-06,0.060
-4.040E-06,0.060
-4.030E-06,0.060
-4.020E-06,0.060
-4.010E-06,0.040
-4.000E-06,0.080
-3.990E-06,0.060
-3.980E-06,0.040
-3.970E-06,0.060
-3.960E-06,0.060
-3.950E-06,0.040
-3.940E-06,0.060
-3.930E-06,0.060
-3.920E-06,0.080
-3.910E-06,0.020
-3.900E-06,0.060
-3.890E-06,0.040
-3.880E-06,0.080
-3.870E-06,0.040
-3.860E-06,0.080
-3.850E-06,0.060
-3.840E-06,0.080
-3.830E-06,0.020
-3.820E-06,-0.060
-3.810E-06,-0.480
-3.800E-06,-1.300
-3.790E-06,-2.100
-3.780E-06,-2.100
-3.770E-06,-2.100
-3.760E-06,-2.120
-3.750E-06,-1.940
-3.740E-06,-0.620
-3.730E-06,0.720
-3.720E-06,1.880
-3.710E-06,2.840
-3.700E-06,3.300
-3.690E-06,3.300
-3.680E-06,3.320
-3.670E-06,3.300
-3.660E-06,3.080
-3.650E-06,2.220
-3.640E-06,1.240
-3.630E-06,0.360
-3.620E-06,-0.340
-3.610E-06,-0.720
-3.600E-06,-0.760
-3.590E-06,-0.620
-3.580E-06,-0.120
-3.570E-06,-0.120
-3.560E-06,-0.120
-3.550E-06,-0.860
-3.540E-06,-0.780
-3.530E-06,-1.380
-3.520E-06,-2.080
-3.510E-06,-1.820
-3.500E-06,-1.940
-3.490E-06,-1.800
-3.480E-06,-1.840
-3.470E-06,-1.360
-3.460E-06,-0.660
-3.450E-06,-0.240
-3.440E-06,0.640
-3.430E-06,1.200
-3.420E-06,1.540
-3.410E-06,1.780
-3.400E-06,1.860
-3.390E-06,1.620
-3.380E-06,1.180
-3.370E-06,0.800
-3.360E-06,0.280
-3.350E-06,-0.140
-3.340E-06,-0.440
-3.330E-06,-0.760
-3.320E-06,-0.940
-3.310E-06,-0.960
-3.300E-06,-0.920
-3.290E-06,-0.820
-3.280E-06,-0.620
-3.270E-06,-0.440
-3.260E-06,-0.260
-3.250E-06,-0.060
-3.240E-06,0.140
-3.230E-06,0.360
-3.220E-06,0.560
-3.210E-06,0.820
-3.200E-06,1.000
-3.190E-06,1.080
-3.180E-06,1.180
-3.170E-06,1.140
-3.160E-06,1.040
-3.150E-06,0.920
-3.140E-06,0.740
-3.130E-06,0.500
-3.120E-06,0.320
-3.110E-06,0.120
-3.100E-06,-0.080
-3.090E-06,-0.240
-3.080E-06,-0.380
-3.070E-06,-0.480
-3.060E-06,-0.580
-3.050E-06,-0.660
-3.040E-06,-0.700
-3.030E-06,-0.700
-3.020E-06,-0.680
-3.010E-06,-0.620
-3.000E-06,-0.460
-2.990E-06,-0.300
-2.980E-06,-0.080
-2.970E-06,0.160
-2.960E-06,0.420
-2.950E-06,0.660
-2.940E-06,0.840
-2.930E-06,0.940
-2.920E-06,0.960
-2.910E-06,0.920
-2.900E-06,0.840
-2.890E-06,0.680
-2.880E-06,0.440
-2.870E-06,0.220
-2.860E-06,-0.020
-2.850E-06,-0.240
-2.840E-06,-0.420
-2.830E-06,-0.460
-2.820E-06,-0.540
-2.810E-06,-0.460
-2.800E-06,-0.460
-2.790E-06,-0.360
-2.780E-06,-0.260
-2.770E-06,-0.160
-2.760E-06,-0.100
-2.750E-06,-0.020
-2.740E-06,0.040
-2.730E-06,0.100
-2.720E-06,0.100
-2.710E-06,0.140
-2.700E-06,0.160
-2.690E-06,0.160
-2.680E-06,0.180
-2.670E-06,0.180
-2.660E-06,0.200
-2.650E-06,0.280
-2.640E-06,0.260
-2.630E-06,0.280
-2.620E-06,0.260
-2.610E-06,0.240
-2.600E-06,0.200
-2.590E-06,0.100
-2.580E-06,0.020
-2.570E-06,0.040
-2.560E-06,-0.060
-2.550E-06,-0.060
-2.540E-06,-0.020
-2.530E-06,-0.020
-2.520E-06,0.000
-2.510E-06,0.060
-2.500E-06,0.100
-2.490E-06,0.140
-2.480E-06,0.120
-2.470E-06,0.160
-2.460E-06,0.140
-2.450E-06,0.100
-2.440E-06,0.100
-2.430E-06,0.120
-2.420E-06,0.100
-2.410E-06,0.100
-2.400E-06,0.120
-2.390E-06,0.140
-2.380E-06,0.080
-2.370E-06,0.100
-2.360E-06,0.080
-2.350E-06,0.040
-2.340E-06,0.040
-2.330E-06,0.020
-2.320E-06,0.020
-2.310E-06,0.140
-2.300E-06,0.100
-2.290E-06,-0.040
-2.280E-06,-0.120
-2.270E-06,-0.200
-2.260E-06,-0.320
-2.250E-06,-0.300
-2.240E-06,-0.140
-2.230E-06,-0.140
-2.220E-06,-0.120
-2.210E-06,0.020
-2.200E-06,-0.020
-2.190E-06,-0.100
-2.180E-06,-0.080
-2.170E-06,-0.040
-2.160E-06,-0.060
-2.150E-06,0.020
-2.140E-06,0.020
-2.130E-06,0.080
-2.120E-06,0.080
-2.110E-06,0.100
-2.100E-06,0.180
-2.090E-06,0.180
-2.080E-06,0.240
-2.070E-06,0.320
-2.060E-06,0.300
-2.050E-06,0.280
-2.040E-06,0.300
-2.030E-06,0.240
-2.020E-06,0.180
-2.010E-06,0.140
-2.000E-06,0.120
-1.990E-06,0.040
-1.980E-06,0.020
-1.970E-06,0.020
-1.960E-06,0.040
-1.950E-06,0.320
-1.940E-06,0.760
-1.930E-06,1.340
-1.920E-06,1.720
-1.910E-06,1.820
-1.900E-06,1.580
-1.890E-06,1.120
-1.880E-06,0.580
-1.870E-06,0.000
-1.860E-06,-0.400
-1.850E-06,-0.660
-1.840E-06,-0.840
-1.830E-06,-0.680
-1.820E-06,-0.780
-1.810E-06,-1.000
-1.800E-06,-1.400
-1.790E-06,-1.560
-1.780E-06,-1.600
-1.770E-06,-1.500
-1.760E-06,-1.320
-1.750E-06,-1.200
-1.740E-06,-1.140
-1.730E-06,-1.280
-1.720E-06,-1.220
-1.710E-06,-1.120
-1.700E-06,-0.880
-1.690E-06,-0.340
-1.680E-06,0.240
-1.670E-06,0.700
-1.660E-06,0.920
-1.650E-06,0.960
-1.640E-06,0.960
-1.630E-06,0.980
-1.620E-06,0.900
-1.610E-06,0.880
-1.600E-06,0.920
-1.590E-06,0.840
-1.580E-06,0.640
-1.570E-06,0.260
-1.560E-06,-0.100
-1.550E-06,-0.340
-1.540E-06,-0.580
-1.530E-06,-0.640
-1.520E-06,-0.540
-1.510E-06,-0.460
-1.500E-06,-0.380
-1.490E-06,-0.320
-1.480E-06,-0.280
-1.470E-06,-0.240
-1.460E-06,-0.140
-1.450E-06,0.000
-1.440E-06,0.140
-1.430E-06,0.260
-1.420E-06,0.340
-1.410E-06,0.300
-1.400E-06,0.380
-1.390E-06,0.220
-1.380E-06,0.220
-1.370E-06,0.140
-1.360E-06,0.000
-1.350E-06,0.080
-1.340E-06,-0.080
-1.330E-06,0.140
-1.320E-06,0.120
-1.310E-06,0.080
-1.300E-06,-0.040
-1.290E-06,-0.120
-1.280E-06,-0.360
-1.270E-06,-0.620
-1.260E-06,-0.820
-1.250E-06,-0.840
-1.240E-06,-1.120
-1.230E-06,-0.980
-1.220E-06,-0.940
-1.210E-06,-0.920
-1.200E-06,-0.860
-1.190E-06,-0.680
-1.180E-06,-0.400
-1.170E-06,-0.120
-1.160E-06,-0.040
-1.150E-06,0.180
-1.140E-06,0.240
-1.130E-06,0.180
-1.120E-06,0.100
-1.110E-06,0.060
-1.100E-06,-0.020
-1.090E-06,-0.160
-1.080E-06,-0.280
-1.070E-06,-0.360
-1.060E-06,0.020
-1.050E-06,0.280
-1.040E-06,0.360
-1.030E-06,0.300
-1.020E-06,0.160
-1.010E-06,-0.040
-1.000E-06,-0.140
-9.900E-07,-0.100
-9.800E-07,-0.020
-9.700E-07,0.020
-9.600E-07,-0.060
-9.500E-07,-0.100
-9.400E-07,-0.240
-9.300E-07,-0.320
-9.200E-07,-0.300
-9.100E-07,-0.260
-9.000E-07,-0.240
-8.900E-07,-0.240
-8.800E-07,-0.100
-8.700E-07,-0.320
-8.600E-07,-0.360
-8.500E-07,-0.340
-8.400E-07,-0.320
-8.300E-07,-0.360
-8.200E-07,-0.440
-8.100E-07,-0.760
-8.000E-07,-0.840
-7.900E-07,-1.060
-7.800E-07,-1.320
-7.700E-07,-1.320
-7.600E-07,-1.220
-7.500E-07,-1.160
-7.400E-07,-1.120
-7.300E-07,-0.940
-7.200E-07,-0.700
-7.100E-07,-0.420
-7.000E-07,-0.440
-6.900E-07,-0.440
-6.800E-07,-0.480
-6.700E-07,-0.400
-6.600E-07,-0.400
-6.500E-07,-0.400
-6.400E-07,-0.420
-6.300E-07,-0.240
-6.200E-07,-0.260
-6.100E-07,-0.100
-6.000E-07,0.160
-5.900E-07,0.120
-5.800E-07,0.360
-5.700E-07,0.440
-5.600E-07,0.280
-5.500E-07,0.040
-5.400E-07,-0.380
-5.300E-07,-0.580
-5.200E-07,-0.860
-5.100E-07,-0.920
-5.000E-07,-0.920
-4.900E-07,-0.800
-4.800E-07,-1.000
-4.700E-07,-0.940
-4.600E-07,-1.080
-4.500E-07,-1.140
-4.400E-07,-1.200
-4.300E-07,-1.260
-4.200E-07,-1.240
-4.100E-07,-1.160
-4.000E-07,-1.260
-3.900E-07,-1.380
-3.800E-07,-1.260
-3.700E-07,-1.320
-3.600E-07,-1.280
-3.500E-07,-1.380
-3.400E-07,-1.220
-3.300E-07,-1.200
-3.200E-07,-1.060
-3.100E-07,-0.840
-3.000E-07,-0.560
-2.900E-07,-0.260
-2.800E-07,-0.280
-2.700E-07,-0.460
-2.600E-07,-0.820
-2.500E-07,-1.000
-2.400E-07,-0.580
-2.300E-07,-0.280
-2.200E-07,0.640
-2.100E-07,0.260
-2.000E-07,-0.180
-1.900E-07,-1.180
-1.800E-07,-1.480
-1.700E-07,-2.140
-1.600E-07,-2.120
-1.500E-07,-2.120
-1.400E-07,-2.120
-1.300E-07,-2.120
-1.200E-07,-2.140
-1.100E-07,-2.140
-1.000E-07,-2.120
-9.000E-08,-2.000
-8.000E-08,-1.520
-7.000E-08,-1.220
-6.000E-08,-0.700
-5.000E-08,-0.340
-4.000E-08,-0.100
-3.000E-08,-0.200
-2.000E-08,-0.460
-1.000E-08,-0.920
0.000E+00,-1.000
1.000E-08,-0.880
2.000E-08,-0.460
3.000E-08,-0.040
4.000E-08,0.340
5.000E-08,0.200
6.000E-08,0.040
7.000E-08,-0.360
8.000E-08,-0.820
9.000E-08,-0.940
1.000E-07,-0.680
1.100E-07,-0.620
1.200E-07,-0.520
1.300E-07,-1.000
1.400E-07,-1.200
1.500E-07,-1.380
1.600E-07,-2.040
1.700E-07,-2.140
1.800E-07,-2.120
1.900E-07,-2.120
2.000E-07,-2.120
2.100E-07,-2.120
2.200E-07,-2.120
2.300E-07,-2.080
2.400E-07,-1.700
2.500E-07,-1.380
2.600E-07,-1.180
2.700E-07,-1.020
2.800E-07,-1.060
2.900E-07,-1.060
3.000E-07,-1.020
3.100E-07,-0.900
3.200E-07,-1.060
3.300E-07,-1.060
3.400E-07,-0.740
3.500E-07,-0.480
3.600E-07,0.380
3.700E-07,-0.320
3.800E-07,-0.520
3.900E-07,-1.080
4.000E-07,-2.100
4.100E-07,-2.100
4.200E-07,-2.100
4.300E-07,-2.100
4.400E-07,-2.120
4.500E-07,-2.120
4.600E-07,-2.120
4.700E-07,-2.120
4.800E-07,-2.120
4.900E-07,-2.120
5.000E-07,-2.120
5.100E-07,-2.120
5.200E-07,-2.120
5.300E-07,-2.100
5.400E-07,-0.980
5.500E-07,0.440
5.600E-07,1.320
5.700E-07,1.720
5.800E-07,1.620
5.900E-07,1.600
6.000E-07,1.720
6.100E-07,2.320
6.200E-07,2.620
6.300E-07,2.080
6.400E-07,2.420
6.500E-07,1.400
6.600E-07,0.000
6.700E-07,-2.120
6.800E-07,-2.120
6.900E-07,-2.100
7.000E-07,-2.120
7.100E-07,-2.120
7.200E-07,-2.120
7.300E-07,-2.100
7.400E-07,-2.100
7.500E-07,-2.100
7.600E-07,-2.100
7.700E-07,-2.100
7.800E-07,-1.940
7.900E-07,-0.380
8.000E-07,0.920
8.100E-07,2.000
8.200E-07,2.780
8.300E-07,2.980
8.400E-07,2.880
8.500E-07,2.200
8.600E-07,1.860
8.700E-07,1.040
8.800E-07,0.820
8.900E-07,0.760
9.000E-07,-0.100
9.100E-07,-1.320
9.200E-07,-2.120
9.300E-07,-2.140
9.400E-07,-2.120
9.500E-07,-2.120
9.600E-07,-2.100
9.700E-07,-2.120
9.800E-07,-2.120
9.900E-07,-2.120
1.000E-06,-2.120
1.010E-06,-2.120
1.020E-06,-2.120
1.030E-06,-2.120
1.040E-06,-2.120
1.050E-06,-2.120
1.060E-06,-2.120
1.070E-06,-1.540
1.080E-06,-0.900
1.090E-06,-0.140
1.100E-06,0.160
1.110E-06,0.400
1.120E-06,0.660
1.130E-06,0.740
1.140E-06,-0.180
1.150E-06,-0.580
1.160E-06,-0.980
1.170E-06,-0.840
1.180E-06,-1.580
1.190E-06,-2.120
1.200E-06,-2.120
1.210E-06,-2.120
1.220E-06,-2.120
1.230E-06,-2.120
1.240E-06,-2.120
1.250E-06,-2.100
1.260E-06,-2.120
1.270E-06,-2.120
1.280E-06,-2.080
1.290E-06,-1.860
1.300E-06,-1.420
1.310E-06,-0.800
1.320E-06,-0.500
1.330E-06,0.400
1.340E-06,1.260
1.350E-06,2.060
1.360E-06,2.800
1.370E-06,2.880
1.380E-06,2.860
1.390E-06,2.340
1.400E-06,1.880
1.410E-06,1.420
1.420E-06,1.060
1.430E-06,0.720
1.440E-06,0.440
1.450E-06,0.300
1.460E-06,-0.080
1.470E-06,-0.480
1.480E-06,-0.900
1.490E-06,-1.000
1.500E-06,-0.960
1.510E-06,-0.640
1.520E-06,-0.260
1.530E-06,0.060
1.540E-06,0.320
1.550E-06,0.440
1.560E-06,0.480
1.570E-06,0.520
1.580E-06,0.800
1.590E-06,1.100
1.600E-06,1.500
1.610E-06,1.720
1.620E-06,1.940
1.630E-06,1.940
1.640E-06,1.740
1.650E-06,1.520
1.660E-06,1.060
1.670E-06,0.620
1.680E-06,0.120
1.690E-06,-0.360
1.700E-06,-0.840
1.710E-06,-1.320
1.720E-06,-1.660
1.730E-06,-1.920
1.740E-06,-2.120
1.750E-06,-2.120
1.760E-06,-2.140
1.770E-06,-2.000
1.780E-06,-1.720
1.790E-06,-1.300
1.800E-06,-0.920
1.810E-06,-0.500
1.820E-06,-0.160
1.830E-06,0.180
1.840E-06,0.420
1.850E-06,0.660
1.860E-06,0.940
1.870E-06,1.100
1.880E-06,1.260
1.890E-06,1.380
1.900E-06,1.420
1.910E-06,1.400
1.920E-06,1.340
1.930E-06,1.220
1.940E-06,1.040
1.950E-06,0.880
1.960E-06,0.660
1.970E-06,0.480
1.980E-06,0.220
1.990E-06,-0.020
2.000E-06,-0.240
2.010E-06,-0.400
2.020E-06,-0.500
2.030E-06,-0.540
2.040E-06,-0.520
2.050E-06,-0.480
2.060E-06,-0.360
2.070E-06,-0.180
2.080E-06,-0.020
2.090E-06,0.200
2.100E-06,0.360
2.110E-06,0.480
2.120E-06,0.660
2.130E-06,0.720
2.140E-06,0.800
2.150E-06,0.820
2.160E-06,0.820
2.170E-06,0.760
2.180E-06,0.680
2.190E-06,0.600
2.200E-06,0.500
2.210E-06,0.400
2.220E-06,0.300
2.230E-06,0.240
2.240E-06,0.160
2.250E-06,0.080
2.260E-06,0.000
2.270E-06,-0.080
2.280E-06,-0.140
2.290E-06,-0.160
2.300E-06,-0.200
2.310E-06,-0.240
2.320E-06,-0.200
2.330E-06,-0.120
2.340E-06,-0.120
2.350E-06,-0.020
2.360E-06,0.080
2.370E-06,0.180
2.380E-06,0.260
2.390E-06,0.380
2.400E-06,0.460
2.410E-06,0.540
2.420E-06,0.580
2.430E-06,0.640
2.440E-06,0.600
2.450E-06,0.600
2.460E-06,0.540
2.470E-06,0.480
2.480E-06,0.420
2.490E-06,0.380
2.500E-06,0.320
2.510E-06,0.240
2.520E-06,0.180
2.530E-06,0.140
2.540E-06,0.140
2.550E-06,0.080
2.560E-06,0.060
2.570E-06,0.100
2.580E-06,0.120
2.590E-06,0.140
2.600E-06,0.260
2.610E-06,0.860
2.620E-06,1.800
2.630E-06,2.900
2.640E-06,3.300
2.650E-06,2.940
2.660E-06,1.380
2.670E-06,0.460
2.680E-06,-0.200
2.690E-06,-0.880
2.700E-06,-1.520
2.710E-06,-1.880
2.720E-06,-1.880
2.730E-06,-1.560
2.740E-06,-1.280
2.750E-06,-0.560
2.760E-06,-0.020
2.770E-06,0.620
2.780E-06,1.180
2.790E-06,1.740
2.800E-06,2.020
2.810E-06,1.840
2.820E-06,1.460
2.830E-06,1.080
2.840E-06,0.760
2.850E-06,0.520
2.860E-06,0.500
2.870E-06,0.440
2.880E-06,0.360
2.890E-06,0.380
2.900E-06,0.340
2.910E-06,0.300
2.920E-06,0.320
2.930E-06,0.420
2.940E-06,0.500
2.950E-06,0.520
2.960E-06,0.540
2.970E-06,0.500
2.980E-06,0.460
2.990E-06,0.440
3.000E-06,0.420
3.010E-06,0.460
3.020E-06,0.480
3.030E-06,0.580
3.040E-06,0.760
3.050E-06,0.920
3.060E-06,1.060
3.070E-06,1.180
3.080E-06,1.260
3.090E-06,1.240
3.100E-06,1.160
3.110E-06,1.060
3.120E-06,0.860
3.130E-06,0.620
3.140E-06,0.380
3.150E-06,0.120
3.160E-06,-0.060
3.170E-06,-0.240
3.180E-06,-0.300
3.190E-06,-0.320
3.200E-06,-0.280
3.210E-06,-0.180
3.220E-06,-0.020
3.230E-06,0.160
3.240E-06,0.280
3.250E-06,0.400
3.260E-06,0.500
3.270E-06,0.580
3.280E-06,0.580
3.290E-06,0.600
3.300E-06,0.620
3.310E-06,0.580
3.320E-06,0.540
3.330E-06,0.560
3.340E-06,0.560
