mediciones/8-28/New folder (4)/WaveData65594.csv

#timebase=2000000(ps)
,#voltbase=500000(mv/100)
#size=4000
-8.350E-06,0.080
-8.340E-06,0.080
-8.330E-06,0.040
-8.320E-06,0.080
-8.310E-06,0.040
-8.300E-06,0.060
-8.290E-06,0.040
-8.280E-06,0.060
-8.270E-06,0.060
-8.260E-06,0.040
-8.250E-06,0.100
-8.240E-06,0.060
-8.230E-06,0.040
-8.220E-06,0.040
-8.210E-06,0.040
-8.200E-06,0.060
-8.190E-06,0.040
-8.180E-06,0.040
-8.170E-06,0.060
-8.160E-06,0.060
-8.150E-06,0.040
-8.140E-06,0.040
-8.130E-06,0.040
-8.120E-06,0.060
-8.110E-06,0.060
-8.100E-06,0.040
-8.090E-06,0.060
-8.080E-06,0.040
-8.070E-06,0.060
-8.060E-06,0.060
-8.050E-06,0.060
-8.040E-06,0.060
-8.030E-06,0.080
-8.020E-06,0.040
-8.010E-06,0.080
-8.000E-06,0.040
-7.990E-06,0.060
-7.980E-06,0.080
-7.970E-06,0.080
-7.960E-06,0.040
-7.950E-06,0.060
-7.940E-06,0.060
-7.930E-06,0.080
-7.920E-06,0.060
-7.910E-06,0.060
-7.900E-06,0.060
-7.890E-06,0.060
-7.880E-06,0.060
-7.870E-06,0.060
-7.860E-06,0.060
-7.850E-06,0.080
-7.840E-06,0.060
-7.830E-06,0.040
-7.820E-06,0.060
-7.810E-06,0.080
-7.800E-06,0.040
-7.790E-06,0.060
-7.780E-06,0.080
-7.770E-06,0.060
-7.760E-06,0.080
-7.750E-06,0.060
-7.740E-06,0.060
-7.730E-06,0.060
-7.720E-06,0.080
-7.710E-06,0.060
-7.700E-06,0.080
-7.690E-06,0.060
-7.680E-06,0.040
-7.670E-06,0.020
-7.660E-06,0.080
-7.650E-06,0.100
-7.640E-06,0.040
-7.630E-06,0.060
-7.620E-06,0.040
-7.610E-06,0.060
-7.600E-06,0.080
-7.590E-06,0.060
-7.580E-06,0.060
-7.570E-06,0.060
-7.560E-06,0.080
-7.550E-06,0.080
-7.540E-06,0.080
-7.530E-06,0.020
-7.520E-06,0.080
-7.510E-06,0.040
-7.500E-06,0.060
-7.490E-06,0.060
-7.480E-06,0.060
-7.470E-06,0.080
-7.460E-06,0.080
-7.450E-06,0.060
-7.440E-06,0.060
-7.430E-06,0.060
-7.420E-06,0.040
-7.410E-06,0.060
-7.400E-06,0.060
-7.390E-06,0.040
-7.380E-06,0.060
-7.370E-06,0.080
-7.360E-06,0.060
-7.350E-06,0.060
-7.340E-06,0.100
-7.330E-06,0.080
-7.320E-06,0.060
-7.310E-06,0.060
-7.300E-06,0.080
-7.290E-06,0.060
-7.280E-06,0.040
-7.270E-06,0.060
-7.260E-06,0.080
-7.250E-06,0.060
-7.240E-06,0.060
-7.230E-06,0.060
-7.220E-06,0.060
-7.210E-06,0.060
-7.200E-06,0.040
-7.190E-06,0.060
-7.180E-06,0.040
-7.170E-06,0.060
-7.160E-06,0.060
-7.150E-06,0.080
-7.140E-06,0.060
-7.130E-06,0.080
-7.120E-06,0.060
-7.110E-06,0.020
-7.100E-06,0.040
-7.090E-06,0.060
-7.080E-06,0.040
-7.070E-06,0.040
-7.060E-06,0.080
-7.050E-06,0.040
-7.040E-06,0.040
-7.030E-06,0.100
-7.020E-06,0.080
-7.010E-06,0.040
-7.000E-06,0.020
-6.990E-06,0.040
-6.980E-06,0.080
-6.970E-06,0.080
-6.960E-06,0.040
-6.950E-06,0.040
-6.940E-06,0.060
-6.930E-06,0.060
-6.920E-06,0.060
-6.910E-06,0.040
-6.900E-06,0.060
-6.890E-06,0.080
-6.880E-06,0.040
-6.870E-06,0.040
-6.860E-06,0.040
-6.850E-06,0.060
-6.840E-06,0.060
-6.830E-06,0.040
-6.820E-06,0.060
-6.810E-06,0.080
-6.800E-06,0.100
-6.790E-06,0.060
-6.780E-06,0.080
-6.770E-06,0.040
-6.760E-06,0.060
-6.750E-06,0.040
-6.740E-06,0.040
-6.730E-06,0.060
-6.720E-06,0.020
-6.710E-06,0.060
-6.700E-06,0.060
-6.690E-06,0.040
-6.680E-06,0.040
-6.670E-06,0.040
-6.660E-06,0.040
-6.650E-06,0.060
-6.640E-06,0.080
-6.630E-06,0.080
-6.620E-06,0.060
-6.610E-06,0.060
-6.600E-06,0.060
-6.590E-06,0.040
-6.580E-06,0.080
-6.570E-06,0.040
-6.560E-06,0.080
-6.550E-06,0.060
-6.540E-06,0.060
-6.530E-06,0.040
-6.520E-06,0.060
-6.510E-06,0.040
-6.500E-06,0.040
-6.490E-06,0.060
-6.480E-06,0.040
-6.470E-06,0.060
-6.460E-06,0.060
-6.450E-06,0.060
-6.440E-06,0.080
-6.430E-06,0.080
-6.420E-06,0.080
-6.410E-06,0.080
-6.400E-06,0.080
-6.390E-06,0.040
-6.380E-06,0.040
-6.370E-06,0.060
-6.360E-06,0.060
-6.350E-06,0.060
-6.340E-06,0.060
-6.330E-06,0.080
-6.320E-06,0.060
-6.310E-06,0.060
-6.300E-06,0.040
-6.290E-06,0.060
-6.280E-06,0.040
-6.270E-06,0.060
-6.260E-06,0.080
-6.250E-06,0.080
-6.240E-06,0.040
-6.230E-06,0.060
-6.220E-06,0.080
-6.210E-06,0.040
-6.200E-06,0.080
-6.190E-06,0.060
-6.180E-06,0.060
-6.170E-06,0.060
-6.160E-06,0.080
-6.150E-06,0.060
-6.140E-06,0.040
-6.130E-06,0.080
-6.120E-06,0.080
-6.110E-06,0.060
-6.100E-06,0.040
-6.090E-06,0.020
-6.080E-06,0.080
-6.070E-06,0.060
-6.060E-06,0.080
-6.050E-06,0.060
-6.040E-06,0.060
-6.030E-06,0.080
-6.020E-06,0.040
-6.010E-06,0.060
-6.000E-06,0.080
-5.990E-06,0.060
-5.980E-06,0.040
-5.970E-06,0.080
-5.960E-06,0.040
-5.950E-06,0.060
-5.940E-06,0.040
-5.930E-06,0.100
-5.920E-06,0.080
-5.910E-06,0.060
-5.900E-06,0.060
-5.890E-06,0.040
-5.880E-06,0.080
-5.870E-06,0.060
-5.860E-06,0.060
-5.850E-06,0.080
-5.840E-06,0.040
-5.830E-06,0.080
-5.820E-06,0.060
-5.810E-06,0.060
-5.800E-06,0.040
-5.790E-06,0.060
-5.780E-06,0.060
-5.770E-06,0.060
-5.760E-06,0.060
-5.750E-06,0.020
-5.740E-06,0.080
-5.730E-06,0.080
-5.720E-06,0.060
-5.710E-06,0.080
-5.700E-06,0.080
-5.690E-06,0.060
-5.680E-06,0.060
-5.670E-06,0.040
-5.660E-06,0.080
-5.650E-06,0.060
-5.640E-06,0.040
-5.630E-06,0.080
-5.620E-06,0.060
-5.610E-06,0.080
-5.600E-06,0.040
-5.590E-06,0.060
-5.580E-06,0.100
-5.570E-06,0.040
-5.560E-06,0.080
-5.550E-06,0.060
-5.540E-06,0.060
-5.530E-06,0.060
-5.520E-06,0.020
-5.510E-06,0.060
-5.500E-06,0.060
-5.490E-06,0.040
-5.480E-06,0.060
-5.470E-06,0.060
-5.460E-06,0.040
-5.450E-06,0.060
-5.440E-06,0.080
-5.430E-06,0.040
-5.420E-06,0.040
-5.410E-06,0.060
-5.400E-06,0.060
-5.390E-06,0.040
-5.380E-06,0.060
-5.370E-06,0.080
-5.360E-06,0.040
-5.350E-06,0.040
-5.340E-06,0.060
-5.330E-06,0.040
-5.320E-06,0.060
-5.310E-06,0.080
-5.300E-06,0.060
-5.290E-06,0.060
-5.280E-06,0.040
-5.270E-06,0.040
-5.260E-06,0.080
-5.250E-06,0.060
-5.240E-06,0.080
-5.230E-06,0.040
-5.220E-06,0.080
-5.210E-06,0.060
-5.200E-06,0.080
-5.190E-06,0.080
-5.180E-06,0.080
-5.170E-06,0.060
-5.160E-06,0.020
-5.150E-06,0.060
-5.140E-06,0.060
-5.130E-06,0.080
-5.120E-06,0.060
-5.110E-06,0.060
-5.100E-06,0.080
-5.090E-06,0.060
-5.080E-06,0.040
-5.070E-06,0.080
-5.060E-06,0.040
-5.050E-06,0.060
-5.040E-06,0.060
-5.030E-06,0.040
-5.020E-06,0.060
-5.010E-06,0.040
-5.000E-06,0.040
-4.990E-06,0.080
-4.980E-06,0.040
-4.970E-06,0.060
-4.960E-06,0.060
-4.950E-06,0.040
-4.940E-06,0.040
-4.930E-06,0.080
-4.920E-06,0.060
-4.910E-06,0.060
-4.900E-06,0.080
-4.890E-06,0.060
-4.880E-06,0.080
-4.870E-06,0.040
-4.860E-06,0.080
-4.850E-06,0.040
-4.840E-06,0.080
-4.830E-06,0.040
-4.820E-06,0.040
-4.810E-06,0.080
-4.800E-06,0.020
-4.790E-06,0.080
-4.780E-06,0.100
-4.770E-06,0.060
-4.760E-06,0.060
-4.750E-06,0.040
-4.740E-06,0.040
-4.730E-06,0.040
-4.720E-06,0.040
-4.710E-06,0.040
-4.700E-06,0.100
-4.690E-06,0.040
-4.680E-06,0.060
-4.670E-06,0.080
-4.660E-06,0.060
-4.650E-06,0.040
-4.640E-06,0.040
-4.630E-06,0.040
-4.620E-06,0.060
-4.610E-06,0.080
-4.600E-06,0.080
-4.590E-06,0.060
-4.580E-06,0.080
-4.570E-06,0.080
-4.560E-06,0.080
-4.550E-06,0.100
-4.540E-06,0.040
-4.530E-06,0.060
-4.520E-06,0.080
-4.510E-06,0.060
-4.500E-06,0.080
-4.490E-06,0.060
-4.480E-06,0.060
-4.470E-06,0.060
-4.460E-06,0.080
-4.450E-06,0.100
-4.440E-06,0.080
-4.430E-06,0.060
-4.420E-06,0.040
-4.410E-06,0.040
-4.400E-06,0.080
-4.390E-06,0.040
-4.380E-06,0.060
-4.370E-06,0.060
-4.360E-06,0.060
-4.350E-06,0.060
-4.340E-06,0.080
-4.330E-06,0.060
-4.320E-06,0.040
-4.310E-06,0.080
-4.300E-06,0.060
-4.290E-06,0.060
-4.280E-06,0.060
-4.270E-06,0.040
-4.260E-06,0.060
-4.250E-06,0.080
-4.240E-06,0.080
-4.230E-06,0.060
-4.220E-06,0.020
-4.210E-06,0.080
-4.200E-06,0.080
-4.190E-06,0.080
-4.180E-06,0.100
-4.170E-06,0.060
-4.160E-06,0.040
-4.150E-06,0.060
-4.140E-06,0.040
-4.130E-06,0.040
-4.120E-06,0.080
-4.110E-06,0.080
-4.100E-06,0.080
-4.090E-06,0.060
-4.080E-06,0.060
-4.070E-06,0.040
-4.060E-06,0.060
-4.050E-06,0.060
-4.040E-06,0.060
-4.030E-06,0.080
-4.020E-06,0.040
-4.010E-06,0.040
-4.000E-06,0.060
-3.990E-06,0.080
-3.980E-06,0.060
-3.970E-06,0.040
-3.960E-06,0.080
-3.950E-06,0.080
-3.940E-06,0.060
-3.930E-06,0.060
-3.920E-06,0.040
-3.910E-06,0.080
-3.900E-06,0.040
-3.890E-06,0.040
-3.880E-06,0.080
-3.870E-06,0.020
-3.860E-06,0.040
-3.850E-06,0.060
-3.840E-06,0.040
-3.830E-06,0.060
-3.820E-06,0.040
-3.810E-06,0.060
-3.800E-06,0.080
-3.790E-06,0.080
-3.780E-06,0.060
-3.770E-06,0.040
-3.760E-06,0.040
-3.750E-06,0.080
-3.740E-06,0.060
-3.730E-06,0.040
-3.720E-06,0.080
-3.710E-06,0.060
-3.700E-06,0.100
-3.690E-06,0.080
-3.680E-06,0.040
-3.670E-06,0.060
-3.660E-06,0.020
-3.650E-06,0.040
-3.640E-06,0.080
-3.630E-06,0.080
-3.620E-06,0.060
-3.610E-06,0.060
-3.600E-06,0.060
-3.590E-06,0.040
-3.580E-06,0.080
-3.570E-06,0.040
-3.560E-06,0.080
-3.550E-06,0.060
-3.540E-06,0.040
-3.530E-06,0.060
-3.520E-06,0.060
-3.510E-06,0.040
-3.500E-06,0.060
-3.490E-06,0.040
-3.480E-06,0.080
-3.470E-06,0.060
-3.460E-06,0.040
-3.450E-06,0.040
-3.440E-06,0.060
-3.430E-06,0.120
-3.420E-06,0.080
-3.410E-06,0.040
-3.400E-06,0.040
-3.390E-06,0.040
-3.380E-06,0.080
-3.370E-06,0.060
-3.360E-06,0.060
-3.350E-06,0.040
-3.340E-06,0.060
-3.330E-06,0.060
-3.320E-06,0.080
-3.310E-06,0.060
-3.300E-06,0.040
-3.290E-06,0.060
-3.280E-06,0.060
-3.270E-06,0.060
-3.260E-06,0.060
-3.250E-06,0.060
-3.240E-06,0.060
-3.230E-06,0.080
-3.220E-06,0.060
-3.210E-06,0.080
-3.200E-06,0.040
-3.190E-06,0.060
-3.180E-06,0.080
-3.170E-06,0.060
-3.160E-06,0.040
-3.150E-06,0.080
-3.140E-06,0.060
-3.130E-06,0.020
-3.120E-06,0.060
-3.110E-06,0.060
-3.100E-06,0.040
-3.090E-06,0.080
-3.080E-06,0.060
-3.070E-06,0.040
-3.060E-06,0.080
-3.050E-06,-0.060
-3.040E-06,-0.500
-3.030E-06,-1.320
-3.020E-06,-2.140
-3.010E-06,-2.120
-3.000E-06,-2.120
-2.990E-06,-2.120
-2.980E-06,-2.120
-2.970E-06,-1.500
-2.960E-06,0.000
-2.950E-06,1.480
-2.940E-06,2.840
-2.930E-06,3.320
-2.920E-06,3.300
-2.910E-06,3.320
-2.900E-06,3.320
-2.890E-06,3.300
-2.880E-06,3.160
-2.870E-06,2.080
-2.860E-06,1.040
-2.850E-06,0.140
-2.840E-06,-0.520
-2.830E-06,-0.820
-2.820E-06,-0.800
-2.810E-06,-0.660
-2.800E-06,-0.520
-2.790E-06,-0.460
-2.780E-06,-0.640
-2.770E-06,-0.960
-2.760E-06,-1.360
-2.750E-06,-1.780
-2.740E-06,-2.120
-2.730E-06,-2.120
-2.720E-06,-2.100
-2.710E-06,-2.100
-2.700E-06,-1.860
-2.690E-06,-1.280
-2.680E-06,-0.540
-2.670E-06,0.240
-2.660E-06,1.000
-2.650E-06,1.640
-2.640E-06,2.060
-2.630E-06,2.200
-2.620E-06,2.020
-2.610E-06,1.740
-2.600E-06,1.220
-2.590E-06,0.620
-2.580E-06,0.020
-2.570E-06,-0.460
-2.560E-06,-0.820
-2.550E-06,-1.040
-2.540E-06,-1.160
-2.530E-06,-1.160
-2.520E-06,-1.080
-2.510E-06,-0.980
-2.500E-06,-0.800
-2.490E-06,-0.540
-2.480E-06,-0.340
-2.470E-06,0.060
-2.460E-06,0.280
-2.450E-06,0.580
-2.440E-06,0.880
-2.430E-06,1.040
-2.420E-06,1.240
-2.410E-06,1.320
-2.400E-06,1.360
-2.390E-06,1.200
-2.380E-06,1.140
-2.370E-06,0.860
-2.360E-06,0.700
-2.350E-06,0.460
-2.340E-06,0.200
-2.330E-06,0.120
-2.320E-06,-0.100
-2.310E-06,-0.340
-2.300E-06,-0.420
-2.290E-06,-0.560
-2.280E-06,-0.560
-2.270E-06,-0.780
-2.260E-06,-0.800
-2.250E-06,-0.860
-2.240E-06,-0.940
-2.230E-06,-0.820
-2.220E-06,-0.660
-2.210E-06,-0.420
-2.200E-06,-0.080
-2.190E-06,0.420
-2.180E-06,0.980
-2.170E-06,0.920
-2.160E-06,1.100
-2.150E-06,1.060
-2.140E-06,0.860
-2.130E-06,0.580
-2.120E-06,0.380
-2.110E-06,0.320
-2.100E-06,0.260
-2.090E-06,0.020
-2.080E-06,0.160
-2.070E-06,-0.200
-2.060E-06,-0.680
-2.050E-06,-0.740
-2.040E-06,-0.940
-2.030E-06,-0.920
-2.020E-06,-0.740
-2.010E-06,-0.500
-2.000E-06,0.000
-1.990E-06,0.180
-1.980E-06,-0.060
-1.970E-06,-0.040
-1.960E-06,-0.160
-1.950E-06,-0.180
-1.940E-06,-0.300
-1.930E-06,-0.120
-1.920E-06,0.060
-1.910E-06,0.040
-1.900E-06,0.120
-1.890E-06,0.260
-1.880E-06,0.200
-1.870E-06,0.320
-1.860E-06,0.300
-1.850E-06,0.380
-1.840E-06,0.340
-1.830E-06,0.260
-1.820E-06,0.280
-1.810E-06,0.100
-1.800E-06,0.060
-1.790E-06,0.040
-1.780E-06,-0.080
-1.770E-06,-0.100
-1.760E-06,-0.060
-1.750E-06,-0.140
-1.740E-06,-0.060
-1.730E-06,-0.140
-1.720E-06,-0.080
-1.710E-06,-0.120
-1.700E-06,0.020
-1.690E-06,-0.020
-1.680E-06,0.140
-1.670E-06,0.040
-1.660E-06,0.180
-1.650E-06,0.220
-1.640E-06,-0.100
-1.630E-06,0.000
-1.620E-06,-0.280
-1.610E-06,-0.080
-1.600E-06,-0.160
-1.590E-06,-0.120
-1.580E-06,-0.260
-1.570E-06,-0.300
-1.560E-06,-0.280
-1.550E-06,-0.380
-1.540E-06,-0.360
-1.530E-06,-0.320
-1.520E-06,-0.300
-1.510E-06,-0.600
-1.500E-06,-0.740
-1.490E-06,-0.500
-1.480E-06,-0.780
-1.470E-06,-0.300
-1.460E-06,-0.520
-1.450E-06,-0.200
-1.440E-06,-0.340
-1.430E-06,-0.320
-1.420E-06,-0.660
-1.410E-06,-0.540
-1.400E-06,-0.880
-1.390E-06,-0.360
-1.380E-06,-0.380
-1.370E-06,-0.380
-1.360E-06,-0.240
-1.350E-06,-0.300
-1.340E-06,-0.480
-1.330E-06,-0.560
-1.320E-06,-0.300
-1.310E-06,-0.440
-1.300E-06,-0.200
-1.290E-06,-0.340
-1.280E-06,-0.280
-1.270E-06,-0.100
-1.260E-06,-0.220
-1.250E-06,-0.160
-1.240E-06,-0.300
-1.230E-06,-0.400
-1.220E-06,-0.300
-1.210E-06,-0.400
-1.200E-06,-0.280
-1.190E-06,0.080
-1.180E-06,0.700
-1.170E-06,1.380
-1.160E-06,1.740
-1.150E-06,1.980
-1.140E-06,1.580
-1.130E-06,1.000
-1.120E-06,0.120
-1.110E-06,-0.680
-1.100E-06,-1.440
-1.090E-06,-2.100
-1.080E-06,-2.120
-1.070E-06,-2.120
-1.060E-06,-1.920
-1.050E-06,-1.460
-1.040E-06,-1.120
-1.030E-06,-0.980
-1.020E-06,-1.020
-1.010E-06,-1.100
-1.000E-06,-0.920
-9.900E-07,-0.660
-9.800E-07,-0.460
-9.700E-07,-0.500
-9.600E-07,-0.720
-9.500E-07,-0.780
-9.400E-07,-0.580
-9.300E-07,-0.220
-9.200E-07,0.460
-9.100E-07,1.220
-9.000E-07,1.740
-8.900E-07,1.720
-8.800E-07,1.600
-8.700E-07,1.220
-8.600E-07,1.080
-8.500E-07,0.700
-8.400E-07,0.380
-8.300E-07,-0.060
-8.200E-07,-0.460
-8.100E-07,-1.060
-8.000E-07,-0.820
-7.900E-07,0.060
-7.800E-07,0.880
-7.700E-07,0.560
-7.600E-07,-0.220
-7.500E-07,-0.520
-7.400E-07,-1.560
-7.300E-07,-1.820
-7.200E-07,-2.040
-7.100E-07,-2.080
-7.000E-07,-2.140
-6.900E-07,-2.140
-6.800E-07,-2.140
-6.700E-07,-2.140
-6.600E-07,-2.140
-6.500E-07,-2.120
-6.400E-07,-1.760
-6.300E-07,-1.460
-6.200E-07,-1.120
-6.100E-07,-1.040
-6.000E-07,-0.680
-5.900E-07,-0.780
-5.800E-07,-0.340
-5.700E-07,-0.340
-5.600E-07,-0.020
-5.500E-07,-0.080
-5.400E-07,0.260
-5.300E-07,0.300
-5.200E-07,0.300
-5.100E-07,0.220
-5.000E-07,0.240
-4.900E-07,0.240
-4.800E-07,0.200
-4.700E-07,0.140
-4.600E-07,0.120
-4.500E-07,0.040
-4.400E-07,-0.080
-4.300E-07,-0.140
-4.200E-07,-0.240
-4.100E-07,-0.280
-4.000E-07,-0.320
-3.900E-07,-0.340
-3.800E-07,-0.420
-3.700E-07,-0.460
-3.600E-07,-0.520
-3.500E-07,-0.440
-3.400E-07,-0.380
-3.300E-07,-0.280
-3.200E-07,-0.220
-3.100E-07,-0.180
-3.000E-07,-0.120
-2.900E-07,0.020
-2.800E-07,0.180
-2.700E-07,0.260
-2.600E-07,0.300
-2.500E-07,0.240
-2.400E-07,0.080
-2.300E-07,-0.200
-2.200E-07,-0.380
-2.100E-07,-0.640
-2.000E-07,-0.780
-1.900E-07,-0.840
-1.800E-07,-0.940
-1.700E-07,-0.860
-1.600E-07,-0.880
-1.500E-07,-0.860
-1.400E-07,-0.940
-1.300E-07,-0.980
-1.200E-07,-0.860
-1.100E-07,-0.360
-1.000E-07,-0.160
-9.000E-08,0.500
-8.000E-08,1.180
-7.000E-08,2.520
-6.000E-08,3.320
-5.000E-08,3.300
-4.000E-08,3.300
-3.000E-08,3.300
-2.000E-08,1.000
-1.000E-08,-1.640
0.000E+00,-2.120
1.000E-08,-2.120
2.000E-08,-2.120
3.000E-08,-2.120
4.000E-08,-2.120
5.000E-08,-2.140
6.000E-08,-2.140
7.000E-08,-2.120
8.000E-08,-2.120
9.000E-08,-2.120
1.000E-07,-2.120
1.100E-07,-2.100
1.200E-07,-1.680
1.300E-07,-0.740
1.400E-07,0.100
1.500E-07,0.540
1.600E-07,1.220
1.700E-07,1.340
1.800E-07,1.720
1.900E-07,2.140
2.000E-07,2.560
2.100E-07,2.640
2.200E-07,2.480
2.300E-07,2.180
2.400E-07,1.640
2.500E-07,0.980
2.600E-07,0.340
2.700E-07,-0.300
2.800E-07,-0.860
2.900E-07,-1.420
3.000E-07,-1.860
3.100E-07,-2.120
3.200E-07,-2.120
3.300E-07,-2.120
3.400E-07,-2.120
3.500E-07,-2.040
3.600E-07,-1.440
3.700E-07,-0.640
3.800E-07,0.080
3.900E-07,0.880
4.000E-07,1.560
4.100E-07,2.000
4.200E-07,1.860
4.300E-07,1.540
4.400E-07,1.020
4.500E-07,0.560
4.600E-07,0.100
4.700E-07,0.140
4.800E-07,0.240
4.900E-07,0.620
5.000E-07,0.400
5.100E-07,-0.240
5.200E-07,-1.560
5.300E-07,-2.120
5.400E-07,-2.120
5.500E-07,-2.100
5.600E-07,-2.100
5.700E-07,-2.100
5.800E-07,-2.100
5.900E-07,-2.120
6.000E-07,-2.120
6.100E-07,-2.120
6.200E-07,-2.120
6.300E-07,-2.120
6.400E-07,-2.120
6.500E-07,-2.120
6.600E-07,-2.120
6.700E-07,-2.120
6.800E-07,-1.660
6.900E-07,-1.060
7.000E-07,-1.020
7.100E-07,-0.240
7.200E-07,0.440
7.300E-07,0.800
7.400E-07,1.620
7.500E-07,1.520
7.600E-07,1.760
7.700E-07,1.520
7.800E-07,1.200
7.900E-07,1.040
8.000E-07,0.780
8.100E-07,0.860
8.200E-07,0.640
8.300E-07,0.700
8.400E-07,0.740
8.500E-07,0.980
8.600E-07,1.140
8.700E-07,1.360
8.800E-07,1.380
8.900E-07,1.560
9.000E-07,1.600
9.100E-07,1.660
9.200E-07,1.520
9.300E-07,1.560
9.400E-07,1.480
9.500E-07,1.480
9.600E-07,1.380
9.700E-07,1.440
9.800E-07,1.220
9.900E-07,0.960
1.000E-06,0.540
1.010E-06,0.040
1.020E-06,-0.400
1.030E-06,-0.860
1.040E-06,-1.000
1.050E-06,-1.280
1.060E-06,-1.580
1.070E-06,-1.640
1.080E-06,-1.840
1.090E-06,-2.120
1.100E-06,-2.120
1.110E-06,-2.120
1.120E-06,-2.120
1.130E-06,-2.120
1.140E-06,-2.120
1.150E-06,-2.120
1.160E-06,-2.120
1.170E-06,-2.120
1.180E-06,-2.120
1.190E-06,-2.120
1.200E-06,-2.120
1.210E-06,-2.120
1.220E-06,-2.120
1.230E-06,-2.100
1.240E-06,-2.100
1.250E-06,-2.120
1.260E-06,-2.120
1.270E-06,-2.120
1.280E-06,-2.120
1.290E-06,-2.140
1.300E-06,-1.660
1.310E-06,-1.200
1.320E-06,-0.740
1.330E-06,-0.400
1.340E-06,-0.180
1.350E-06,-0.060
1.360E-06,0.060
1.370E-06,0.400
1.380E-06,0.700
1.390E-06,0.920
1.400E-06,0.960
1.410E-06,0.980
1.420E-06,0.760
1.430E-06,0.560
1.440E-06,0.380
1.450E-06,0.380
1.460E-06,0.400
1.470E-06,0.580
1.480E-06,0.620
1.490E-06,0.860
1.500E-06,1.020
1.510E-06,1.220
1.520E-06,1.400
1.530E-06,1.560
1.540E-06,1.720
1.550E-06,1.900
1.560E-06,1.960
1.570E-06,2.000
1.580E-06,1.900
1.590E-06,1.720
1.600E-06,1.460
1.610E-06,1.060
1.620E-06,0.540
1.630E-06,0.020
1.640E-06,-0.540
1.650E-06,-1.000
1.660E-06,-1.400
1.670E-06,-1.620
1.680E-06,-1.760
1.690E-06,-1.720
1.700E-06,-1.620
1.710E-06,-1.420
1.720E-06,-1.240
1.730E-06,-0.980
1.740E-06,-0.720
1.750E-06,-0.500
1.760E-06,-0.280
1.770E-06,-0.060
1.780E-06,0.140
1.790E-06,0.360
1.800E-06,0.520
1.810E-06,0.700
1.820E-06,0.840
1.830E-06,0.960
1.840E-06,1.040
1.850E-06,1.140
1.860E-06,1.160
1.870E-06,1.140
1.880E-06,1.060
1.890E-06,0.980
1.900E-06,0.840
1.910E-06,0.660
1.920E-06,0.540
1.930E-06,0.400
1.940E-06,0.320
1.950E-06,0.200
1.960E-06,0.200
1.970E-06,0.200
1.980E-06,0.300
1.990E-06,0.440
2.000E-06,0.600
2.010E-06,0.760
2.020E-06,0.880
2.030E-06,1.060
2.040E-06,1.100
2.050E-06,1.160
2.060E-06,1.120
2.070E-06,1.100
2.080E-06,1.020
2.090E-06,0.900
2.100E-06,0.800
2.110E-06,0.740
2.120E-06,0.720
2.130E-06,0.680
2.140E-06,0.580
2.150E-06,0.540
2.160E-06,0.400
2.170E-06,0.360
2.180E-06,0.320
2.190E-06,0.280
2.200E-06,0.260
2.210E-06,0.200
2.220E-06,0.160
2.230E-06,0.100
2.240E-06,0.040
2.250E-06,0.020
2.260E-06,0.040
2.270E-06,0.160
2.280E-06,0.260
2.290E-06,0.400
2.300E-06,0.520
2.310E-06,0.620
2.320E-06,0.700
2.330E-06,0.800
2.340E-06,0.880
2.350E-06,1.160
2.360E-06,2.100
2.370E-06,2.820
2.380E-06,2.820
2.390E-06,2.380
2.400E-06,0.120
2.410E-06,0.200
2.420E-06,-0.640
2.430E-06,-0.400
2.440E-06,-1.300
2.450E-06,-0.980
2.460E-06,-1.160
2.470E-06,-0.820
2.480E-06,-0.880
2.490E-06,-0.420
2.500E-06,0.140
2.510E-06,0.760
2.520E-06,1.160
2.530E-06,1.300
2.540E-06,1.420
2.550E-06,1.380
2.560E-06,1.320
2.570E-06,1.080
2.580E-06,0.940
2.590E-06,0.880
2.600E-06,0.780
2.610E-06,0.780
2.620E-06,0.760
2.630E-06,0.800
2.640E-06,0.780
2.650E-06,0.760
2.660E-06,0.740
2.670E-06,0.720
2.680E-06,0.620
2.690E-06,0.520
2.700E-06,0.520
2.710E-06,0.440
2.720E-06,0.360
2.730E-06,0.300
2.740E-06,0.280
2.750E-06,0.280
2.760E-06,0.360
2.770E-06,0.440
2.780E-06,0.540
2.790E-06,0.700
2.800E-06,0.820
2.810E-06,0.900
2.820E-06,0.940
2.830E-06,0.960
2.840E-06,0.980
2.850E-06,0.880
2.860E-06,0.820
2.870E-06,0.780
2.880E-06,0.680
2.890E-06,0.600
2.900E-06,0.580
2.910E-06,0.560
2.920E-06,0.560
2.930E-06,0.580
2.940E-06,0.640
2.950E-06,0.640
2.960E-06,0.700
2.970E-06,0.760
2.980E-06,0.780
2.990E-06,0.760
3.000E-06,0.800
3.010E-06,0.780
3.020E-06,0.700
3.030E-06,0.720
3.040E-06,0.620
3.050E-06,0.620
3.060E-06,0.620
3.070E-06,0.580
3.080E-06,0.560
3.090E-06,0.560
3.100E-06,0.560
3.110E-06,0.540
3.120E-06,0.580
3.130E-06,0.600
3.140E-06,0.620
3.150E-06,0.640
3.160E-06,0.600
3.170E-06,0.600
3.180E-06,0.620
3.190E-06,0.600
3.200E-06,0.620
3.210E-06,0.620
3.220E-06,0.580
3.230E-06,0.580
3.240E-06,0.600
3.250E-06,0.580
3.260E-06,0.580
3.270E-06,0.620
3.280E-06,0.620
3.290E-06,0.640
3.300E-06,0.640
3.310E-06,0.620
3.320E-06,0.640
3.330E-06,0.660
3.340E-06,0.660
3.350E-06,0.620
3.360E-06,0.640
3.370E-06,0.600
3.380E-06,0.580
3.390E-06,0.600
