mediciones/8-28/New folder (4)/WaveData65584.csv

#timebase=2000000(ps)
,#voltbase=500000(mv/100)
#size=4000
-8.350E-06,0.080
-8.340E-06,0.040
-8.330E-06,0.060
-8.320E-06,0.080
-8.310E-06,0.060
-8.300E-06,0.060
-8.290E-06,0.040
-8.280E-06,0.060
-8.270E-06,0.060
-8.260E-06,0.040
-8.250E-06,0.060
-8.240E-06,0.040
-8.230E-06,0.080
-8.220E-06,0.060
-8.210E-06,0.080
-8.200E-06,0.060
-8.190E-06,0.040
-8.180E-06,0.060
-8.170E-06,0.080
-8.160E-06,0.060
-8.150E-06,0.020
-8.140E-06,0.020
-8.130E-06,0.060
-8.120E-06,0.080
-8.110E-06,0.080
-8.100E-06,0.040
-8.090E-06,0.080
-8.080E-06,0.060
-8.070E-06,0.060
-8.060E-06,0.080
-8.050E-06,0.060
-8.040E-06,0.040
-8.030E-06,0.060
-8.020E-06,0.080
-8.010E-06,0.060
-8.000E-06,0.040
-7.990E-06,0.080
-7.980E-06,0.080
-7.970E-06,0.040
-7.960E-06,0.040
-7.950E-06,0.060
-7.940E-06,0.020
-7.930E-06,0.060
-7.920E-06,0.040
-7.910E-06,0.060
-7.900E-06,0.100
-7.890E-06,0.060
-7.880E-06,0.060
-7.870E-06,0.040
-7.860E-06,0.080
-7.850E-06,0.060
-7.840E-06,0.060
-7.830E-06,0.080
-7.820E-06,0.080
-7.810E-06,0.060
-7.800E-06,0.040
-7.790E-06,0.060
-7.780E-06,0.080
-7.770E-06,0.060
-7.760E-06,0.040
-7.750E-06,0.060
-7.740E-06,0.100
-7.730E-06,0.060
-7.720E-06,0.060
-7.710E-06,0.080
-7.700E-06,0.040
-7.690E-06,0.040
-7.680E-06,0.040
-7.670E-06,0.080
-7.660E-06,0.060
-7.650E-06,0.080
-7.640E-06,0.060
-7.630E-06,0.060
-7.620E-06,0.080
-7.610E-06,0.020
-7.600E-06,0.060
-7.590E-06,0.060
-7.580E-06,0.080
-7.570E-06,0.060
-7.560E-06,0.080
-7.550E-06,0.040
-7.540E-06,0.020
-7.530E-06,0.080
-7.520E-06,0.080
-7.510E-06,0.080
-7.500E-06,0.060
-7.490E-06,0.060
-7.480E-06,0.100
-7.470E-06,0.060
-7.460E-06,0.060
-7.450E-06,0.080
-7.440E-06,0.040
-7.430E-06,0.080
-7.420E-06,0.040
-7.410E-06,0.080
-7.400E-06,0.060
-7.390E-06,0.040
-7.380E-06,0.060
-7.370E-06,0.080
-7.360E-06,0.040
-7.350E-06,0.040
-7.340E-06,0.080
-7.330E-06,0.040
-7.320E-06,0.060
-7.310E-06,0.060
-7.300E-06,0.060
-7.290E-06,0.080
-7.280E-06,0.060
-7.270E-06,0.080
-7.260E-06,0.060
-7.250E-06,0.080
-7.240E-06,0.040
-7.230E-06,0.060
-7.220E-06,0.080
-7.210E-06,0.060
-7.200E-06,0.040
-7.190E-06,0.080
-7.180E-06,0.040
-7.170E-06,0.040
-7.160E-06,0.080
-7.150E-06,0.060
-7.140E-06,0.080
-7.130E-06,0.040
-7.120E-06,0.040
-7.110E-06,0.060
-7.100E-06,0.060
-7.090E-06,0.040
-7.080E-06,0.080
-7.070E-06,0.060
-7.060E-06,0.020
-7.050E-06,0.060
-7.040E-06,0.080
-7.030E-06,0.080
-7.020E-06,0.020
-7.010E-06,0.060
-7.000E-06,0.080
-6.990E-06,0.060
-6.980E-06,0.080
-6.970E-06,0.060
-6.960E-06,0.040
-6.950E-06,0.060
-6.940E-06,0.040
-6.930E-06,0.060
-6.920E-06,0.060
-6.910E-06,0.040
-6.900E-06,0.120
-6.890E-06,0.080
-6.880E-06,0.040
-6.870E-06,0.060
-6.860E-06,0.120
-6.850E-06,0.060
-6.840E-06,0.060
-6.830E-06,0.060
-6.820E-06,0.060
-6.810E-06,0.080
-6.800E-06,0.040
-6.790E-06,0.080
-6.780E-06,0.060
-6.770E-06,0.080
-6.760E-06,0.060
-6.750E-06,0.080
-6.740E-06,0.040
-6.730E-06,0.040
-6.720E-06,0.060
-6.710E-06,0.040
-6.700E-06,0.060
-6.690E-06,0.080
-6.680E-06,0.060
-6.670E-06,0.040
-6.660E-06,0.020
-6.650E-06,0.080
-6.640E-06,0.020
-6.630E-06,0.060
-6.620E-06,0.080
-6.610E-06,0.060
-6.600E-06,0.060
-6.590E-06,0.080
-6.580E-06,0.060
-6.570E-06,0.060
-6.560E-06,0.060
-6.550E-06,0.040
-6.540E-06,0.080
-6.530E-06,0.080
-6.520E-06,0.060
-6.510E-06,0.060
-6.500E-06,0.060
-6.490E-06,0.060
-6.480E-06,0.060
-6.470E-06,0.060
-6.460E-06,0.040
-6.450E-06,0.040
-6.440E-06,0.060
-6.430E-06,0.060
-6.420E-06,0.040
-6.410E-06,0.080
-6.400E-06,0.080
-6.390E-06,0.060
-6.380E-06,0.080
-6.370E-06,0.040
-6.360E-06,0.060
-6.350E-06,0.060
-6.340E-06,0.060
-6.330E-06,0.080
-6.320E-06,0.040
-6.310E-06,0.060
-6.300E-06,0.080
-6.290E-06,0.060
-6.280E-06,0.060
-6.270E-06,0.040
-6.260E-06,0.060
-6.250E-06,0.080
-6.240E-06,0.040
-6.230E-06,0.060
-6.220E-06,0.060
-6.210E-06,0.060
-6.200E-06,0.060
-6.190E-06,0.080
-6.180E-06,0.080
-6.170E-06,0.080
-6.160E-06,0.060
-6.150E-06,0.080
-6.140E-06,0.080
-6.130E-06,0.040
-6.120E-06,0.080
-6.110E-06,0.080
-6.100E-06,0.040
-6.090E-06,0.080
-6.080E-06,0.040
-6.070E-06,0.060
-6.060E-06,0.060
-6.050E-06,0.040
-6.040E-06,0.080
-6.030E-06,0.040
-6.020E-06,0.040
-6.010E-06,0.060
-6.000E-06,0.040
-5.990E-06,0.060
-5.980E-06,0.040
-5.970E-06,0.080
-5.960E-06,0.060
-5.950E-06,0.040
-5.940E-06,0.060
-5.930E-06,0.080
-5.920E-06,0.060
-5.910E-06,0.060
-5.900E-06,0.100
-5.890E-06,0.060
-5.880E-06,0.040
-5.870E-06,0.080
-5.860E-06,0.080
-5.850E-06,0.060
-5.840E-06,0.080
-5.830E-06,0.080
-5.820E-06,0.060
-5.810E-06,0.060
-5.800E-06,0.060
-5.790E-06,0.080
-5.780E-06,0.060
-5.770E-06,0.060
-5.760E-06,0.060
-5.750E-06,0.040
-5.740E-06,0.060
-5.730E-06,0.080
-5.720E-06,0.060
-5.710E-06,0.080
-5.700E-06,0.060
-5.690E-06,0.060
-5.680E-06,0.060
-5.670E-06,0.080
-5.660E-06,0.100
-5.650E-06,0.080
-5.640E-06,0.060
-5.630E-06,0.040
-5.620E-06,0.040
-5.610E-06,0.080
-5.600E-06,0.060
-5.590E-06,0.060
-5.580E-06,0.060
-5.570E-06,0.060
-5.560E-06,0.080
-5.550E-06,0.080
-5.540E-06,0.120
-5.530E-06,0.100
-5.520E-06,0.040
-5.510E-06,0.100
-5.500E-06,0.100
-5.490E-06,0.060
-5.480E-06,0.020
-5.470E-06,0.060
-5.460E-06,0.040
-5.450E-06,0.060
-5.440E-06,0.040
-5.430E-06,0.080
-5.420E-06,0.060
-5.410E-06,0.080
-5.400E-06,0.060
-5.390E-06,0.040
-5.380E-06,0.040
-5.370E-06,0.060
-5.360E-06,0.060
-5.350E-06,0.080
-5.340E-06,0.040
-5.330E-06,0.060
-5.320E-06,0.060
-5.310E-06,0.080
-5.300E-06,0.060
-5.290E-06,0.040
-5.280E-06,0.080
-5.270E-06,0.060
-5.260E-06,0.060
-5.250E-06,0.100
-5.240E-06,0.080
-5.230E-06,0.060
-5.220E-06,0.120
-5.210E-06,0.060
-5.200E-06,0.080
-5.190E-06,0.080
-5.180E-06,0.060
-5.170E-06,0.060
-5.160E-06,0.040
-5.150E-06,0.080
-5.140E-06,0.080
-5.130E-06,0.060
-5.120E-06,0.000
-5.110E-06,-0.360
-5.100E-06,-1.100
-5.090E-06,-2.120
-5.080E-06,-2.120
-5.070E-06,-2.120
-5.060E-06,-2.140
-5.050E-06,-2.140
-5.040E-06,-1.800
-5.030E-06,-0.280
-5.020E-06,1.380
-5.010E-06,2.820
-5.000E-06,3.300
-4.990E-06,3.300
-4.980E-06,3.300
-4.970E-06,3.280
-4.960E-06,3.300
-4.950E-06,3.080
-4.940E-06,2.100
-4.930E-06,1.120
-4.920E-06,0.240
-4.910E-06,-0.400
-4.900E-06,-0.720
-4.890E-06,-0.680
-4.880E-06,-0.440
-4.870E-06,-0.300
-4.860E-06,-0.140
-4.850E-06,-0.300
-4.840E-06,-0.640
-4.830E-06,-1.160
-4.820E-06,-1.760
-4.810E-06,-2.120
-4.800E-06,-2.120
-4.790E-06,-2.140
-4.780E-06,-2.140
-4.770E-06,-1.880
-4.760E-06,-1.320
-4.750E-06,-0.640
-4.740E-06,0.120
-4.730E-06,0.840
-4.720E-06,1.420
-4.710E-06,1.860
-4.700E-06,1.960
-4.690E-06,1.960
-4.680E-06,1.620
-4.670E-06,1.200
-4.660E-06,0.680
-4.650E-06,0.100
-4.640E-06,-0.380
-4.630E-06,-0.760
-4.620E-06,-0.980
-4.610E-06,-1.060
-4.600E-06,-1.100
-4.590E-06,-0.960
-4.580E-06,-0.800
-4.570E-06,-0.700
-4.560E-06,-0.460
-4.550E-06,-0.300
-4.540E-06,-0.060
-4.530E-06,0.220
-4.520E-06,0.540
-4.510E-06,0.760
-4.500E-06,0.980
-4.490E-06,1.160
-4.480E-06,1.240
-4.470E-06,1.260
-4.460E-06,1.200
-4.450E-06,1.140
-4.440E-06,0.960
-4.430E-06,0.780
-4.420E-06,0.580
-4.410E-06,0.380
-4.400E-06,0.180
-4.390E-06,-0.040
-4.380E-06,-0.200
-4.370E-06,-0.340
-4.360E-06,-0.560
-4.350E-06,-0.620
-4.340E-06,-0.640
-4.330E-06,-0.820
-4.320E-06,-0.820
-4.310E-06,-0.780
-4.300E-06,-0.700
-4.290E-06,-0.540
-4.280E-06,-0.360
-4.270E-06,-0.040
-4.260E-06,0.280
-4.250E-06,0.540
-4.240E-06,0.820
-4.230E-06,0.980
-4.220E-06,1.100
-4.210E-06,1.040
-4.200E-06,0.980
-4.190E-06,0.780
-4.180E-06,0.580
-4.170E-06,0.260
-4.160E-06,0.040
-4.150E-06,-0.160
-4.140E-06,-0.380
-4.130E-06,-0.500
-4.120E-06,-0.500
-4.110E-06,-0.620
-4.100E-06,-0.600
-4.090E-06,-0.560
-4.080E-06,-0.480
-4.070E-06,-0.260
-4.060E-06,-0.280
-4.050E-06,-0.160
-4.040E-06,-0.120
-4.030E-06,-0.040
-4.020E-06,-0.060
-4.010E-06,-0.020
-4.000E-06,0.120
-3.990E-06,0.220
-3.980E-06,0.420
-3.970E-06,0.260
-3.960E-06,0.220
-3.950E-06,0.200
-3.940E-06,0.140
-3.930E-06,0.040
-3.920E-06,0.100
-3.910E-06,0.120
-3.900E-06,0.160
-3.890E-06,0.060
-3.880E-06,0.040
-3.870E-06,-0.080
-3.860E-06,-0.160
-3.850E-06,-0.140
-3.840E-06,-0.140
-3.830E-06,-0.140
-3.820E-06,0.000
-3.810E-06,0.040
-3.800E-06,0.060
-3.790E-06,0.180
-3.780E-06,0.200
-3.770E-06,0.180
-3.760E-06,0.160
-3.750E-06,0.240
-3.740E-06,0.380
-3.730E-06,0.320
-3.720E-06,0.240
-3.710E-06,0.200
-3.700E-06,0.120
-3.690E-06,0.020
-3.680E-06,0.040
-3.670E-06,-0.120
-3.660E-06,-0.120
-3.650E-06,-0.060
-3.640E-06,-0.120
-3.630E-06,-0.180
-3.620E-06,0.180
-3.610E-06,-0.220
-3.600E-06,-0.140
-3.590E-06,-0.320
-3.580E-06,-0.160
-3.570E-06,-0.400
-3.560E-06,-0.400
-3.550E-06,-0.200
-3.540E-06,-0.080
-3.530E-06,-0.640
-3.520E-06,-0.380
-3.510E-06,-0.440
-3.500E-06,-0.440
-3.490E-06,-0.360
-3.480E-06,-0.200
-3.470E-06,-0.060
-3.460E-06,-0.120
-3.450E-06,-0.160
-3.440E-06,-0.160
-3.430E-06,-0.300
-3.420E-06,-0.160
-3.410E-06,-0.040
-3.400E-06,0.040
-3.390E-06,0.420
-3.380E-06,0.480
-3.370E-06,0.400
-3.360E-06,0.420
-3.350E-06,0.480
-3.340E-06,0.260
-3.330E-06,0.260
-3.320E-06,0.180
-3.310E-06,0.260
-3.300E-06,0.160
-3.290E-06,0.040
-3.280E-06,0.120
-3.270E-06,0.000
-3.260E-06,-0.040
-3.250E-06,0.020
-3.240E-06,0.040
-3.230E-06,0.420
-3.220E-06,0.960
-3.210E-06,1.700
-3.200E-06,2.120
-3.190E-06,2.200
-3.180E-06,1.920
-3.170E-06,1.160
-3.160E-06,0.420
-3.150E-06,-0.340
-3.140E-06,-0.920
-3.130E-06,-1.060
-3.120E-06,-0.920
-3.110E-06,-1.100
-3.100E-06,-1.560
-3.090E-06,-2.080
-3.080E-06,-2.140
-3.070E-06,-2.120
-3.060E-06,-1.740
-3.050E-06,-1.140
-3.040E-06,-0.780
-3.030E-06,-0.680
-3.020E-06,-0.720
-3.010E-06,-0.920
-3.000E-06,-1.000
-2.990E-06,-0.840
-2.980E-06,-0.140
-2.970E-06,0.520
-2.960E-06,1.020
-2.950E-06,1.140
-2.940E-06,1.140
-2.930E-06,0.880
-2.920E-06,0.840
-2.910E-06,0.780
-2.900E-06,0.980
-2.890E-06,1.040
-2.880E-06,0.880
-2.870E-06,0.540
-2.860E-06,-0.160
-2.850E-06,-0.220
-2.840E-06,-0.560
-2.830E-06,-0.820
-2.820E-06,-1.560
-2.810E-06,-1.180
-2.800E-06,-1.260
-2.790E-06,-1.000
-2.780E-06,-0.740
-2.770E-06,-0.220
-2.760E-06,0.180
-2.750E-06,0.320
-2.740E-06,0.460
-2.730E-06,0.600
-2.720E-06,0.640
-2.710E-06,1.360
-2.700E-06,0.700
-2.690E-06,0.780
-2.680E-06,0.480
-2.670E-06,0.340
-2.660E-06,-0.240
-2.650E-06,-0.400
-2.640E-06,-0.480
-2.630E-06,-0.400
-2.620E-06,-0.660
-2.610E-06,-0.680
-2.600E-06,-0.720
-2.590E-06,-0.860
-2.580E-06,-0.860
-2.570E-06,-0.880
-2.560E-06,-0.940
-2.550E-06,-0.720
-2.540E-06,-0.480
-2.530E-06,-0.320
-2.520E-06,-0.140
-2.510E-06,-0.020
-2.500E-06,0.140
-2.490E-06,0.300
-2.480E-06,0.460
-2.470E-06,0.620
-2.460E-06,0.780
-2.450E-06,0.940
-2.440E-06,0.980
-2.430E-06,0.900
-2.420E-06,0.820
-2.410E-06,0.660
-2.400E-06,0.440
-2.390E-06,0.200
-2.380E-06,0.020
-2.370E-06,-0.160
-2.360E-06,-0.340
-2.350E-06,-0.480
-2.340E-06,-0.580
-2.330E-06,-0.580
-2.320E-06,-0.580
-2.310E-06,-0.500
-2.300E-06,-0.400
-2.290E-06,-0.260
-2.280E-06,-0.080
-2.270E-06,0.120
-2.260E-06,0.220
-2.250E-06,0.380
-2.240E-06,0.420
-2.230E-06,0.420
-2.220E-06,0.380
-2.210E-06,0.300
-2.200E-06,0.180
-2.190E-06,0.060
-2.180E-06,-0.060
-2.170E-06,-0.180
-2.160E-06,-0.260
-2.150E-06,-0.320
-2.140E-06,-0.300
-2.130E-06,-0.260
-2.120E-06,-0.340
-2.110E-06,-0.340
-2.100E-06,-0.440
-2.090E-06,-0.480
-2.080E-06,-0.640
-2.070E-06,-0.540
-2.060E-06,-0.540
-2.050E-06,-0.480
-2.040E-06,-0.120
-2.030E-06,-0.360
-2.020E-06,0.020
-2.010E-06,0.200
-2.000E-06,0.220
-1.990E-06,-0.040
-1.980E-06,0.040
-1.970E-06,-0.320
-1.960E-06,-0.280
-1.950E-06,-0.400
-1.940E-06,-0.060
-1.930E-06,-0.080
-1.920E-06,0.100
-1.910E-06,0.100
-1.900E-06,0.120
-1.890E-06,0.000
-1.880E-06,0.020
-1.870E-06,0.060
-1.860E-06,0.080
-1.850E-06,0.020
-1.840E-06,0.080
-1.830E-06,0.020
-1.820E-06,0.060
-1.810E-06,0.040
-1.800E-06,0.100
-1.790E-06,0.140
-1.780E-06,0.140
-1.770E-06,0.220
-1.760E-06,0.180
-1.750E-06,0.200
-1.740E-06,0.220
-1.730E-06,0.220
-1.720E-06,0.220
-1.710E-06,0.260
-1.700E-06,0.240
-1.690E-06,0.240
-1.680E-06,0.220
-1.670E-06,0.200
-1.660E-06,0.280
-1.650E-06,0.280
-1.640E-06,0.320
-1.630E-06,0.320
-1.620E-06,0.280
-1.610E-06,0.320
-1.600E-06,0.280
-1.590E-06,0.220
-1.580E-06,0.220
-1.570E-06,0.160
-1.560E-06,0.040
-1.550E-06,-0.020
-1.540E-06,-0.100
-1.530E-06,-0.180
-1.520E-06,-0.220
-1.510E-06,-0.260
-1.500E-06,-0.260
-1.490E-06,-0.280
-1.480E-06,-0.240
-1.470E-06,-0.180
-1.460E-06,-0.180
-1.450E-06,-0.160
-1.440E-06,-0.060
-1.430E-06,-0.020
-1.420E-06,0.020
-1.410E-06,0.060
-1.400E-06,0.120
-1.390E-06,0.140
-1.380E-06,0.180
-1.370E-06,0.220
-1.360E-06,0.200
-1.350E-06,0.200
-1.340E-06,0.200
-1.330E-06,0.200
-1.320E-06,0.180
-1.310E-06,0.140
-1.300E-06,0.140
-1.290E-06,0.120
-1.280E-06,0.060
-1.270E-06,0.020
-1.260E-06,0.020
-1.250E-06,-0.060
-1.240E-06,-0.100
-1.230E-06,-0.120
-1.220E-06,-0.180
-1.210E-06,-0.180
-1.200E-06,-0.260
-1.190E-06,-0.260
-1.180E-06,-0.300
-1.170E-06,-0.320
-1.160E-06,-0.320
-1.150E-06,-0.280
-1.140E-06,-0.280
-1.130E-06,-0.260
-1.120E-06,-0.220
-1.110E-06,-0.240
-1.100E-06,-0.240
-1.090E-06,-0.200
-1.080E-06,-0.200
-1.070E-06,-0.240
-1.060E-06,-0.280
-1.050E-06,-0.300
-1.040E-06,-0.320
-1.030E-06,-0.320
-1.020E-06,-0.280
-1.010E-06,-0.220
-1.000E-06,-0.140
-9.900E-07,-0.080
-9.800E-07,0.060
-9.700E-07,0.120
-9.600E-07,0.120
-9.500E-07,0.120
-9.400E-07,0.240
-9.300E-07,0.220
-9.200E-07,0.300
-9.100E-07,0.540
-9.000E-07,0.640
-8.900E-07,0.760
-8.800E-07,0.720
-8.700E-07,0.380
-8.600E-07,0.220
-8.500E-07,-0.080
-8.400E-07,-0.100
-8.300E-07,-0.320
-8.200E-07,-0.300
-8.100E-07,-0.520
-8.000E-07,-0.440
-7.900E-07,0.000
-7.800E-07,1.400
-7.700E-07,1.820
-7.600E-07,2.460
-7.500E-07,1.560
-7.400E-07,0.440
-7.300E-07,-1.140
-7.200E-07,-2.140
-7.100E-07,-2.140
-7.000E-07,-2.140
-6.900E-07,-2.120
-6.800E-07,-2.120
-6.700E-07,-2.120
-6.600E-07,-2.120
-6.500E-07,-2.120
-6.400E-07,-2.120
-6.300E-07,-2.120
-6.200E-07,-1.780
-6.100E-07,-1.540
-6.000E-07,-0.960
-5.900E-07,-0.740
-5.800E-07,-0.280
-5.700E-07,-0.300
-5.600E-07,0.240
-5.500E-07,0.100
-5.400E-07,0.280
-5.300E-07,0.380
-5.200E-07,0.620
-5.100E-07,0.980
-5.000E-07,1.180
-4.900E-07,1.040
-4.800E-07,1.040
-4.700E-07,0.680
-4.600E-07,0.380
-4.500E-07,-0.060
-4.400E-07,-0.540
-4.300E-07,-0.820
-4.200E-07,-1.160
-4.100E-07,-1.420
-4.000E-07,-1.500
-3.900E-07,-1.660
-3.800E-07,-1.720
-3.700E-07,-1.580
-3.600E-07,-1.360
-3.500E-07,-1.100
-3.400E-07,-0.740
-3.300E-07,-0.360
-3.200E-07,0.060
-3.100E-07,0.360
-3.000E-07,0.460
-2.900E-07,0.560
-2.800E-07,0.520
-2.700E-07,0.380
-2.600E-07,0.180
-2.500E-07,0.000
-2.400E-07,-0.220
-2.300E-07,-0.420
-2.200E-07,-0.600
-2.100E-07,-0.760
-2.000E-07,-0.960
-1.900E-07,-1.060
-1.800E-07,-1.120
-1.700E-07,-1.240
-1.600E-07,-1.240
-1.500E-07,-1.160
-1.400E-07,-1.000
-1.300E-07,-0.840
-1.200E-07,-0.540
-1.100E-07,-0.800
-1.000E-07,-0.680
-9.000E-08,-0.660
-8.000E-08,-0.180
-7.000E-08,0.160
-6.000E-08,0.620
-5.000E-08,0.820
-4.000E-08,0.840
-3.000E-08,0.740
-2.000E-08,0.180
-1.000E-08,-1.060
0.000E+00,-2.100
1.000E-08,-2.120
2.000E-08,-2.120
3.000E-08,-2.120
4.000E-08,-2.120
5.000E-08,-2.120
6.000E-08,-2.100
7.000E-08,-2.120
8.000E-08,-1.980
9.000E-08,-0.980
1.000E-07,0.460
1.100E-07,0.740
1.200E-07,2.540
1.300E-07,2.100
1.400E-07,0.600
1.500E-07,-1.620
1.600E-07,-2.120
1.700E-07,-2.120
1.800E-07,-2.120
1.900E-07,-2.120
2.000E-07,-2.120
2.100E-07,-2.120
2.200E-07,-2.120
2.300E-07,-2.120
2.400E-07,-2.120
2.500E-07,-2.120
2.600E-07,-2.120
2.700E-07,-2.120
2.800E-07,-2.120
2.900E-07,-1.760
3.000E-07,-1.200
3.100E-07,-1.120
3.200E-07,-0.820
3.300E-07,-0.740
3.400E-07,-0.300
3.500E-07,0.380
3.600E-07,0.980
3.700E-07,1.600
3.800E-07,1.960
3.900E-07,1.880
4.000E-07,1.520
4.100E-07,1.000
4.200E-07,0.360
4.300E-07,-0.400
4.400E-07,-1.160
4.500E-07,-1.840
4.600E-07,-2.120
4.700E-07,-2.120
4.800E-07,-2.120
4.900E-07,-2.120
5.000E-07,-2.140
5.100E-07,-2.120
5.200E-07,-2.120
5.300E-07,-2.120
5.400E-07,-2.140
5.500E-07,-2.120
5.600E-07,-2.120
5.700E-07,-2.120
5.800E-07,-2.120
5.900E-07,-2.100
6.000E-07,-2.120
6.100E-07,-2.120
6.200E-07,-2.120
6.300E-07,-2.120
6.400E-07,-2.140
6.500E-07,-2.140
6.600E-07,-2.140
6.700E-07,-2.120
6.800E-07,-2.120
6.900E-07,-2.120
7.000E-07,-2.140
7.100E-07,-2.140
7.200E-07,-2.140
7.300E-07,-2.140
7.400E-07,-2.140
7.500E-07,-2.140
7.600E-07,-1.940
7.700E-07,-1.940
7.800E-07,-1.920
7.900E-07,-1.800
8.000E-07,-1.500
8.100E-07,-1.100
8.200E-07,-0.500
8.300E-07,0.020
8.400E-07,-0.140
8.500E-07,-0.380
8.600E-07,0.040
8.700E-07,0.320
8.800E-07,0.560
8.900E-07,0.340
9.000E-07,-0.080
9.100E-07,-0.680
9.200E-07,-0.920
9.300E-07,-1.720
9.400E-07,-2.060
9.500E-07,-2.120
9.600E-07,-2.120
9.700E-07,-2.120
9.800E-07,-2.100
9.900E-07,-2.120
1.000E-06,-2.080
1.010E-06,-1.800
1.020E-06,-1.500
1.030E-06,-1.200
1.040E-06,-0.920
1.050E-06,-0.640
1.060E-06,-0.340
1.070E-06,-0.020
1.080E-06,0.220
1.090E-06,0.420
1.100E-06,0.620
1.110E-06,0.740
1.120E-06,0.860
1.130E-06,0.860
1.140E-06,0.880
1.150E-06,0.940
1.160E-06,0.900
1.170E-06,0.800
1.180E-06,0.700
1.190E-06,0.600
1.200E-06,0.480
1.210E-06,0.360
1.220E-06,0.220
1.230E-06,0.160
1.240E-06,0.100
1.250E-06,0.120
1.260E-06,0.120
1.270E-06,0.220
1.280E-06,0.340
1.290E-06,0.460
1.300E-06,0.620
1.310E-06,0.700
1.320E-06,0.760
1.330E-06,0.800
1.340E-06,0.780
1.350E-06,0.720
1.360E-06,0.620
1.370E-06,0.480
1.380E-06,0.340
1.390E-06,0.200
1.400E-06,0.080
1.410E-06,-0.040
1.420E-06,-0.120
1.430E-06,-0.140
1.440E-06,-0.140
1.450E-06,-0.140
1.460E-06,-0.060
1.470E-06,0.020
1.480E-06,0.120
1.490E-06,0.200
1.500E-06,0.280
1.510E-06,0.360
1.520E-06,0.380
1.530E-06,0.440
1.540E-06,0.460
1.550E-06,0.500
1.560E-06,0.540
1.570E-06,0.540
1.580E-06,0.560
1.590E-06,0.560
1.600E-06,0.600
1.610E-06,0.620
1.620E-06,0.600
1.630E-06,0.600
1.640E-06,0.620
1.650E-06,0.580
1.660E-06,0.560
1.670E-06,0.500
1.680E-06,0.420
1.690E-06,0.360
1.700E-06,0.320
1.710E-06,0.280
1.720E-06,0.280
1.730E-06,0.300
1.740E-06,0.300
1.750E-06,0.340
1.760E-06,0.380
1.770E-06,0.440
1.780E-06,0.520
1.790E-06,0.520
1.800E-06,0.560
1.810E-06,0.620
1.820E-06,0.620
1.830E-06,0.580
1.840E-06,0.600
1.850E-06,0.640
1.860E-06,0.620
1.870E-06,0.600
1.880E-06,0.620
1.890E-06,0.660
1.900E-06,0.660
1.910E-06,0.720
1.920E-06,0.720
1.930E-06,0.720
1.940E-06,0.740
1.950E-06,0.700
1.960E-06,0.700
1.970E-06,0.660
1.980E-06,0.620
1.990E-06,0.560
2.000E-06,0.500
2.010E-06,0.480
2.020E-06,0.420
2.030E-06,0.360
2.040E-06,0.320
2.050E-06,0.280
2.060E-06,0.220
2.070E-06,0.220
2.080E-06,0.280
2.090E-06,0.300
2.100E-06,0.280
2.110E-06,0.340
2.120E-06,0.340
2.130E-06,0.360
2.140E-06,0.400
2.150E-06,0.460
2.160E-06,0.480
2.170E-06,0.520
2.180E-06,0.560
2.190E-06,0.600
2.200E-06,0.640
2.210E-06,0.640
2.220E-06,0.700
2.230E-06,0.780
2.240E-06,0.780
2.250E-06,0.820
2.260E-06,0.840
2.270E-06,0.800
2.280E-06,0.780
2.290E-06,0.760
2.300E-06,0.720
2.310E-06,0.720
2.320E-06,0.680
2.330E-06,0.620
2.340E-06,0.580
2.350E-06,0.560
2.360E-06,0.540
2.370E-06,0.620
2.380E-06,0.760
2.390E-06,0.940
2.400E-06,1.040
2.410E-06,1.060
2.420E-06,1.060
2.430E-06,1.020
2.440E-06,0.940
2.450E-06,0.860
2.460E-06,0.760
2.470E-06,0.720
2.480E-06,0.620
2.490E-06,0.580
2.500E-06,0.560
2.510E-06,0.580
2.520E-06,0.600
2.530E-06,0.580
2.540E-06,0.580
2.550E-06,0.620
2.560E-06,0.600
2.570E-06,0.580
2.580E-06,0.600
2.590E-06,0.580
2.600E-06,0.540
2.610E-06,0.540
2.620E-06,0.540
2.630E-06,0.540
2.640E-06,0.540
2.650E-06,0.540
2.660E-06,0.540
2.670E-06,0.540
2.680E-06,0.540
2.690E-06,0.560
2.700E-06,0.580
2.710E-06,0.620
2.720E-06,0.580
2.730E-06,0.580
2.740E-06,0.580
2.750E-06,0.620
2.760E-06,0.620
2.770E-06,0.620
2.780E-06,0.640
2.790E-06,0.660
2.800E-06,0.660
2.810E-06,0.660
2.820E-06,0.700
2.830E-06,0.720
2.840E-06,0.740
2.850E-06,0.720
2.860E-06,0.720
2.870E-06,0.740
2.880E-06,0.760
2.890E-06,0.720
2.900E-06,0.740
2.910E-06,0.720
2.920E-06,0.720
2.930E-06,0.740
2.940E-06,0.740
2.950E-06,0.760
2.960E-06,0.760
2.970E-06,0.800
2.980E-06,0.840
2.990E-06,0.880
3.000E-06,0.880
3.010E-06,0.980
3.020E-06,0.960
3.030E-06,1.040
3.040E-06,1.040
3.050E-06,1.040
3.060E-06,1.060
3.070E-06,1.060
3.080E-06,1.100
3.090E-06,1.060
3.100E-06,1.120
3.110E-06,1.120
3.120E-06,1.080
3.130E-06,1.060
3.140E-06,1.080
3.150E-06,1.060
3.160E-06,1.040
3.170E-06,1.000
3.180E-06,0.980
3.190E-06,0.940
3.200E-06,0.900
3.210E-06,0.880
3.220E-06,0.800
3.230E-06,0.760
3.240E-06,0.700
3.250E-06,0.660
3.260E-06,0.620
3.270E-06,0.620
3.280E-06,0.560
3.290E-06,0.520
3.300E-06,0.540
3.310E-06,0.520
3.320E-06,0.520
3.330E-06,0.520
3.340E-06,0.520
3.350E-06,0.520
