mediciones/8-28/New folder (4)/WaveData65535.csv

#timebase=2000000(ps)
,#voltbase=500000(mv/100)
#size=4000
-8.350E-06,0.060
-8.340E-06,0.040
-8.330E-06,0.060
-8.320E-06,0.040
-8.310E-06,0.060
-8.300E-06,0.060
-8.290E-06,0.080
-8.280E-06,0.080
-8.270E-06,0.060
-8.260E-06,0.060
-8.250E-06,0.060
-8.240E-06,0.040
-8.230E-06,0.060
-8.220E-06,0.060
-8.210E-06,0.040
-8.200E-06,0.080
-8.190E-06,0.040
-8.180E-06,0.060
-8.170E-06,0.080
-8.160E-06,0.040
-8.150E-06,0.020
-8.140E-06,0.060
-8.130E-06,0.080
-8.120E-06,0.080
-8.110E-06,0.060
-8.100E-06,0.080
-8.090E-06,0.080
-8.080E-06,0.060
-8.070E-06,0.080
-8.060E-06,0.060
-8.050E-06,0.060
-8.040E-06,0.080
-8.030E-06,0.080
-8.020E-06,0.040
-8.010E-06,0.080
-8.000E-06,0.080
-7.990E-06,0.060
-7.980E-06,0.060
-7.970E-06,0.040
-7.960E-06,0.040
-7.950E-06,0.040
-7.940E-06,0.060
-7.930E-06,0.100
-7.920E-06,0.080
-7.910E-06,0.080
-7.900E-06,0.040
-7.890E-06,0.040
-7.880E-06,0.040
-7.870E-06,0.020
-7.860E-06,0.100
-7.850E-06,0.060
-7.840E-06,0.040
-7.830E-06,0.080
-7.820E-06,0.100
-7.810E-06,0.080
-7.800E-06,0.080
-7.790E-06,0.100
-7.780E-06,0.060
-7.770E-06,0.060
-7.760E-06,0.060
-7.750E-06,0.060
-7.740E-06,0.100
-7.730E-06,0.060
-7.720E-06,0.080
-7.710E-06,0.060
-7.700E-06,0.080
-7.690E-06,0.060
-7.680E-06,0.060
-7.670E-06,0.100
-7.660E-06,0.060
-7.650E-06,0.080
-7.640E-06,0.040
-7.630E-06,0.080
-7.620E-06,0.080
-7.610E-06,0.060
-7.600E-06,0.040
-7.590E-06,0.040
-7.580E-06,0.040
-7.570E-06,0.080
-7.560E-06,0.120
-7.550E-06,0.060
-7.540E-06,0.060
-7.530E-06,0.060
-7.520E-06,0.060
-7.510E-06,0.080
-7.500E-06,0.080
-7.490E-06,0.040
-7.480E-06,0.060
-7.470E-06,0.060
-7.460E-06,0.080
-7.450E-06,0.060
-7.440E-06,0.080
-7.430E-06,0.060
-7.420E-06,0.060
-7.410E-06,0.060
-7.400E-06,0.100
-7.390E-06,0.060
-7.380E-06,0.060
-7.370E-06,0.080
-7.360E-06,0.080
-7.350E-06,0.080
-7.340E-06,0.080
-7.330E-06,0.080
-7.320E-06,0.080
-7.310E-06,0.020
-7.300E-06,0.040
-7.290E-06,0.060
-7.280E-06,0.080
-7.270E-06,0.060
-7.260E-06,0.040
-7.250E-06,0.100
-7.240E-06,0.060
-7.230E-06,0.080
-7.220E-06,0.020
-7.210E-06,0.060
-7.200E-06,0.080
-7.190E-06,0.060
-7.180E-06,0.060
-7.170E-06,0.080
-7.160E-06,0.100
-7.150E-06,0.080
-7.140E-06,0.080
-7.130E-06,0.040
-7.120E-06,0.060
-7.110E-06,0.060
-7.100E-06,0.100
-7.090E-06,0.020
-7.080E-06,0.020
-7.070E-06,0.080
-7.060E-06,0.060
-7.050E-06,0.040
-7.040E-06,0.080
-7.030E-06,0.040
-7.020E-06,0.060
-7.010E-06,0.080
-7.000E-06,0.060
-6.990E-06,0.080
-6.980E-06,0.100
-6.970E-06,0.080
-6.960E-06,0.100
-6.950E-06,0.040
-6.940E-06,0.060
-6.930E-06,0.060
-6.920E-06,0.060
-6.910E-06,0.040
-6.900E-06,0.060
-6.890E-06,0.040
-6.880E-06,0.080
-6.870E-06,0.080
-6.860E-06,0.060
-6.850E-06,0.080
-6.840E-06,0.080
-6.830E-06,0.020
-6.820E-06,0.040
-6.810E-06,0.060
-6.800E-06,0.080
-6.790E-06,0.080
-6.780E-06,0.060
-6.770E-06,0.080
-6.760E-06,0.080
-6.750E-06,0.080
-6.740E-06,0.060
-6.730E-06,0.040
-6.720E-06,0.060
-6.710E-06,0.080
-6.700E-06,0.060
-6.690E-06,0.040
-6.680E-06,0.080
-6.670E-06,0.040
-6.660E-06,0.060
-6.650E-06,0.080
-6.640E-06,0.040
-6.630E-06,0.100
-6.620E-06,0.080
-6.610E-06,0.060
-6.600E-06,0.020
-6.590E-06,0.060
-6.580E-06,0.080
-6.570E-06,0.040
-6.560E-06,0.040
-6.550E-06,0.060
-6.540E-06,0.060
-6.530E-06,0.080
-6.520E-06,0.060
-6.510E-06,0.060
-6.500E-06,0.100
-6.490E-06,0.080
-6.480E-06,0.060
-6.470E-06,0.060
-6.460E-06,0.080
-6.450E-06,0.060
-6.440E-06,0.040
-6.430E-06,0.080
-6.420E-06,0.080
-6.410E-06,0.080
-6.400E-06,0.060
-6.390E-06,0.040
-6.380E-06,0.020
-6.370E-06,0.060
-6.360E-06,0.080
-6.350E-06,0.060
-6.340E-06,0.080
-6.330E-06,0.080
-6.320E-06,0.060
-6.310E-06,0.040
-6.300E-06,0.080
-6.290E-06,0.080
-6.280E-06,0.060
-6.270E-06,0.040
-6.260E-06,0.040
-6.250E-06,0.060
-6.240E-06,0.040
-6.230E-06,0.080
-6.220E-06,0.080
-6.210E-06,0.080
-6.200E-06,0.080
-6.190E-06,0.100
-6.180E-06,0.060
-6.170E-06,0.080
-6.160E-06,0.080
-6.150E-06,0.080
-6.140E-06,0.040
-6.130E-06,0.100
-6.120E-06,0.040
-6.110E-06,0.080
-6.100E-06,0.080
-6.090E-06,0.060
-6.080E-06,0.080
-6.070E-06,0.080
-6.060E-06,0.060
-6.050E-06,0.040
-6.040E-06,0.060
-6.030E-06,0.100
-6.020E-06,0.080
-6.010E-06,0.060
-6.000E-06,0.080
-5.990E-06,0.080
-5.980E-06,0.060
-5.970E-06,0.080
-5.960E-06,0.100
-5.950E-06,0.060
-5.940E-06,0.080
-5.930E-06,0.060
-5.920E-06,0.080
-5.910E-06,0.060
-5.900E-06,0.080
-5.890E-06,0.040
-5.880E-06,0.020
-5.870E-06,0.100
-5.860E-06,0.060
-5.850E-06,0.080
-5.840E-06,0.040
-5.830E-06,0.060
-5.820E-06,0.080
-5.810E-06,0.040
-5.800E-06,0.060
-5.790E-06,0.080
-5.780E-06,0.080
-5.770E-06,0.040
-5.760E-06,0.060
-5.750E-06,0.080
-5.740E-06,0.060
-5.730E-06,0.080
-5.720E-06,0.040
-5.710E-06,0.060
-5.700E-06,0.060
-5.690E-06,0.060
-5.680E-06,0.060
-5.670E-06,0.060
-5.660E-06,0.080
-5.650E-06,0.040
-5.640E-06,0.080
-5.630E-06,0.080
-5.620E-06,0.080
-5.610E-06,0.080
-5.600E-06,0.060
-5.590E-06,0.060
-5.580E-06,0.060
-5.570E-06,0.080
-5.560E-06,0.060
-5.550E-06,0.060
-5.540E-06,0.040
-5.530E-06,0.080
-5.520E-06,0.060
-5.510E-06,0.060
-5.500E-06,0.080
-5.490E-06,0.040
-5.480E-06,0.060
-5.470E-06,0.060
-5.460E-06,0.060
-5.450E-06,0.080
-5.440E-06,0.080
-5.430E-06,0.060
-5.420E-06,0.060
-5.410E-06,0.080
-5.400E-06,0.060
-5.390E-06,0.060
-5.380E-06,0.080
-5.370E-06,0.080
-5.360E-06,0.080
-5.350E-06,0.080
-5.340E-06,0.100
-5.330E-06,0.060
-5.320E-06,0.060
-5.310E-06,0.060
-5.300E-06,0.040
-5.290E-06,0.080
-5.280E-06,0.060
-5.270E-06,0.060
-5.260E-06,0.080
-5.250E-06,0.040
-5.240E-06,0.060
-5.230E-06,0.060
-5.220E-06,0.060
-5.210E-06,0.060
-5.200E-06,0.060
-5.190E-06,0.060
-5.180E-06,0.080
-5.170E-06,0.040
-5.160E-06,0.060
-5.150E-06,0.040
-5.140E-06,0.060
-5.130E-06,0.080
-5.120E-06,0.060
-5.110E-06,0.080
-5.100E-06,0.040
-5.090E-06,0.080
-5.080E-06,0.080
-5.070E-06,0.040
-5.060E-06,0.080
-5.050E-06,0.040
-5.040E-06,0.060
-5.030E-06,0.060
-5.020E-06,0.080
-5.010E-06,0.060
-5.000E-06,0.080
-4.990E-06,0.060
-4.980E-06,0.080
-4.970E-06,0.080
-4.960E-06,0.040
-4.950E-06,0.060
-4.940E-06,0.080
-4.930E-06,0.040
-4.920E-06,0.060
-4.910E-06,0.080
-4.900E-06,0.060
-4.890E-06,0.080
-4.880E-06,0.040
-4.870E-06,0.060
-4.860E-06,0.080
-4.850E-06,0.060
-4.840E-06,0.080
-4.830E-06,0.100
-4.820E-06,0.060
-4.810E-06,0.080
-4.800E-06,0.080
-4.790E-06,0.060
-4.780E-06,0.060
-4.770E-06,0.060
-4.760E-06,0.080
-4.750E-06,0.100
-4.740E-06,0.060
-4.730E-06,0.080
-4.720E-06,0.100
-4.710E-06,0.040
-4.700E-06,0.080
-4.690E-06,0.080
-4.680E-06,0.060
-4.670E-06,0.080
-4.660E-06,0.060
-4.650E-06,0.040
-4.640E-06,0.080
-4.630E-06,0.040
-4.620E-06,0.060
-4.610E-06,0.060
-4.600E-06,0.060
-4.590E-06,0.060
-4.580E-06,0.060
-4.570E-06,0.080
-4.560E-06,0.040
-4.550E-06,0.060
-4.540E-06,0.080
-4.530E-06,0.040
-4.520E-06,0.040
-4.510E-06,0.080
-4.500E-06,0.060
-4.490E-06,0.060
-4.480E-06,0.080
-4.470E-06,0.040
-4.460E-06,0.080
-4.450E-06,0.080
-4.440E-06,0.100
-4.430E-06,0.060
-4.420E-06,0.060
-4.410E-06,0.080
-4.400E-06,0.080
-4.390E-06,0.040
-4.380E-06,0.060
-4.370E-06,0.060
-4.360E-06,0.100
-4.350E-06,0.080
-4.340E-06,0.060
-4.330E-06,0.060
-4.320E-06,0.060
-4.310E-06,0.060
-4.300E-06,0.040
-4.290E-06,0.060
-4.280E-06,0.080
-4.270E-06,0.080
-4.260E-06,0.120
-4.250E-06,0.080
-4.240E-06,0.020
-4.230E-06,0.060
-4.220E-06,0.060
-4.210E-06,0.080
-4.200E-06,0.040
-4.190E-06,0.080
-4.180E-06,0.040
-4.170E-06,0.060
-4.160E-06,0.060
-4.150E-06,0.080
-4.140E-06,0.060
-4.130E-06,0.060
-4.120E-06,0.080
-4.110E-06,0.040
-4.100E-06,0.060
-4.090E-06,0.040
-4.080E-06,0.080
-4.070E-06,0.060
-4.060E-06,0.060
-4.050E-06,0.080
-4.040E-06,0.060
-4.030E-06,0.080
-4.020E-06,0.040
-4.010E-06,0.060
-4.000E-06,0.060
-3.990E-06,0.040
-3.980E-06,0.060
-3.970E-06,0.080
-3.960E-06,0.060
-3.950E-06,0.040
-3.940E-06,0.060
-3.930E-06,0.040
-3.920E-06,0.080
-3.910E-06,0.080
-3.900E-06,0.080
-3.890E-06,0.080
-3.880E-06,0.040
-3.870E-06,0.060
-3.860E-06,0.060
-3.850E-06,0.060
-3.840E-06,0.040
-3.830E-06,0.080
-3.820E-06,0.060
-3.810E-06,0.060
-3.800E-06,0.060
-3.790E-06,0.080
-3.780E-06,0.060
-3.770E-06,0.100
-3.760E-06,0.080
-3.750E-06,0.080
-3.740E-06,0.080
-3.730E-06,0.040
-3.720E-06,0.060
-3.710E-06,0.080
-3.700E-06,0.060
-3.690E-06,0.040
-3.680E-06,0.060
-3.670E-06,0.080
-3.660E-06,0.080
-3.650E-06,0.060
-3.640E-06,0.080
-3.630E-06,0.100
-3.620E-06,0.060
-3.610E-06,0.060
-3.600E-06,0.060
-3.590E-06,0.060
-3.580E-06,0.040
-3.570E-06,0.060
-3.560E-06,0.080
-3.550E-06,0.080
-3.540E-06,0.100
-3.530E-06,0.060
-3.520E-06,0.060
-3.510E-06,0.100
-3.500E-06,0.080
-3.490E-06,0.040
-3.480E-06,0.040
-3.470E-06,0.080
-3.460E-06,0.080
-3.450E-06,0.060
-3.440E-06,0.040
-3.430E-06,0.060
-3.420E-06,0.080
-3.410E-06,0.060
-3.400E-06,0.040
-3.390E-06,0.080
-3.380E-06,0.080
-3.370E-06,0.060
-3.360E-06,0.060
-3.350E-06,0.100
-3.340E-06,0.060
-3.330E-06,0.080
-3.320E-06,0.060
-3.310E-06,0.060
-3.300E-06,0.080
-3.290E-06,0.040
-3.280E-06,0.080
-3.270E-06,0.100
-3.260E-06,0.040
-3.250E-06,0.100
-3.240E-06,0.060
-3.230E-06,0.100
-3.220E-06,0.080
-3.210E-06,0.060
-3.200E-06,0.040
-3.190E-06,0.080
-3.180E-06,0.060
-3.170E-06,0.040
-3.160E-06,0.060
-3.150E-06,0.080
-3.140E-06,0.080
-3.130E-06,0.040
-3.120E-06,0.060
-3.110E-06,0.080
-3.100E-06,0.080
-3.090E-06,0.040
-3.080E-06,0.080
-3.070E-06,0.060
-3.060E-06,0.040
-3.050E-06,0.060
-3.040E-06,0.080
-3.030E-06,0.080
-3.020E-06,0.060
-3.010E-06,0.020
-3.000E-06,0.080
-2.990E-06,0.080
-2.980E-06,0.100
-2.970E-06,0.060
-2.960E-06,0.060
-2.950E-06,0.060
-2.940E-06,0.060
-2.930E-06,0.040
-2.920E-06,0.060
-2.910E-06,0.060
-2.900E-06,0.080
-2.890E-06,0.100
-2.880E-06,0.040
-2.870E-06,0.060
-2.860E-06,0.040
-2.850E-06,0.080
-2.840E-06,0.060
-2.830E-06,0.080
-2.820E-06,0.040
-2.810E-06,0.060
-2.800E-06,0.080
-2.790E-06,0.060
-2.780E-06,0.080
-2.770E-06,0.080
-2.760E-06,0.060
-2.750E-06,0.100
-2.740E-06,0.100
-2.730E-06,0.060
-2.720E-06,0.080
-2.710E-06,0.000
-2.700E-06,-0.320
-2.690E-06,-1.100
-2.680E-06,-2.120
-2.670E-06,-2.120
-2.660E-06,-2.120
-2.650E-06,-2.120
-2.640E-06,-2.120
-2.630E-06,-1.680
-2.620E-06,-0.180
-2.610E-06,1.340
-2.600E-06,2.660
-2.590E-06,3.320
-2.580E-06,3.300
-2.570E-06,3.300
-2.560E-06,3.320
-2.550E-06,3.320
-2.540E-06,3.260
-2.530E-06,2.240
-2.520E-06,1.140
-2.510E-06,0.240
-2.500E-06,-0.440
-2.490E-06,-0.800
-2.480E-06,-0.820
-2.470E-06,-0.660
-2.460E-06,-0.440
-2.450E-06,-0.400
-2.440E-06,-0.480
-2.430E-06,-0.800
-2.420E-06,-1.200
-2.410E-06,-1.680
-2.400E-06,-2.060
-2.390E-06,-2.120
-2.380E-06,-2.120
-2.370E-06,-2.120
-2.360E-06,-1.840
-2.350E-06,-1.300
-2.340E-06,-0.620
-2.330E-06,0.180
-2.320E-06,0.900
-2.310E-06,1.500
-2.300E-06,1.860
-2.290E-06,2.080
-2.280E-06,2.020
-2.270E-06,1.680
-2.260E-06,1.220
-2.250E-06,0.640
-2.240E-06,0.180
-2.230E-06,-0.340
-2.220E-06,-0.760
-2.210E-06,-1.020
-2.200E-06,-1.080
-2.190E-06,-1.060
-2.180E-06,-1.100
-2.170E-06,-0.980
-2.160E-06,-0.900
-2.150E-06,-0.600
-2.140E-06,-0.320
-2.130E-06,-0.140
-2.120E-06,0.180
-2.110E-06,0.520
-2.100E-06,1.000
-2.090E-06,1.200
-2.080E-06,1.560
-2.070E-06,1.440
-2.060E-06,1.700
-2.050E-06,1.240
-2.040E-06,1.100
-2.030E-06,0.600
-2.020E-06,0.760
-2.010E-06,0.200
-2.000E-06,0.100
-1.990E-06,-0.120
-1.980E-06,-0.300
-1.970E-06,-0.460
-1.960E-06,-0.620
-1.950E-06,-0.660
-1.940E-06,-0.780
-1.930E-06,-0.800
-1.920E-06,-0.680
-1.910E-06,-0.660
-1.900E-06,-0.720
-1.890E-06,-0.640
-1.880E-06,-0.480
-1.870E-06,-0.380
-1.860E-06,-0.220
-1.850E-06,0.620
-1.840E-06,0.780
-1.830E-06,0.740
-1.820E-06,1.040
-1.810E-06,1.040
-1.800E-06,0.900
-1.790E-06,0.880
-1.780E-06,0.700
-1.770E-06,0.720
-1.760E-06,0.260
-1.750E-06,-0.080
-1.740E-06,-0.440
-1.730E-06,-0.760
-1.720E-06,-0.920
-1.710E-06,-0.940
-1.700E-06,-0.860
-1.690E-06,-0.600
-1.680E-06,-0.360
-1.670E-06,-0.100
-1.660E-06,0.600
-1.650E-06,0.120
-1.640E-06,0.160
-1.630E-06,-0.160
-1.620E-06,0.000
-1.610E-06,-0.440
-1.600E-06,-0.160
-1.590E-06,0.040
-1.580E-06,0.200
-1.570E-06,0.160
-1.560E-06,0.200
-1.550E-06,0.220
-1.540E-06,0.160
-1.530E-06,0.260
-1.520E-06,0.260
-1.510E-06,0.180
-1.500E-06,0.240
-1.490E-06,0.180
-1.480E-06,0.100
-1.470E-06,0.000
-1.460E-06,-0.040
-1.450E-06,-0.020
-1.440E-06,-0.140
-1.430E-06,-0.080
-1.420E-06,-0.040
-1.410E-06,-0.280
-1.400E-06,-0.140
-1.390E-06,-0.360
-1.380E-06,-0.160
-1.370E-06,-0.300
-1.360E-06,-0.220
-1.350E-06,-0.140
-1.340E-06,-0.180
-1.330E-06,0.000
-1.320E-06,-0.040
-1.310E-06,0.040
-1.300E-06,-0.040
-1.290E-06,-0.080
-1.280E-06,-0.160
-1.270E-06,-0.180
-1.260E-06,-0.240
-1.250E-06,-0.300
-1.240E-06,-0.280
-1.230E-06,-0.300
-1.220E-06,-0.160
-1.210E-06,-0.100
-1.200E-06,0.100
-1.190E-06,0.220
-1.180E-06,0.220
-1.170E-06,0.240
-1.160E-06,0.220
-1.150E-06,-0.040
-1.140E-06,-0.140
-1.130E-06,-0.300
-1.120E-06,-0.320
-1.110E-06,-0.560
-1.100E-06,-0.420
-1.090E-06,-0.380
-1.080E-06,-0.380
-1.070E-06,-0.460
-1.060E-06,-0.500
-1.050E-06,-0.520
-1.040E-06,-0.340
-1.030E-06,-0.400
-1.020E-06,-0.240
-1.010E-06,-0.340
-1.000E-06,-0.240
-9.900E-07,-0.300
-9.800E-07,-0.460
-9.700E-07,-0.460
-9.600E-07,-0.500
-9.500E-07,-0.380
-9.400E-07,-0.400
-9.300E-07,-0.360
-9.200E-07,-0.340
-9.100E-07,-0.300
-9.000E-07,-0.320
-8.900E-07,-0.480
-8.800E-07,-0.400
-8.700E-07,-0.400
-8.600E-07,-0.420
-8.500E-07,0.140
-8.400E-07,0.540
-8.300E-07,1.220
-8.200E-07,2.060
-8.100E-07,2.400
-8.000E-07,1.720
-7.900E-07,1.340
-7.800E-07,0.200
-7.700E-07,-0.720
-7.600E-07,-1.540
-7.500E-07,-1.300
-7.400E-07,-1.500
-7.300E-07,-1.560
-7.200E-07,-2.120
-7.100E-07,-2.120
-7.000E-07,-2.120
-6.900E-07,-2.120
-6.800E-07,-2.120
-6.700E-07,-2.100
-6.600E-07,-1.720
-6.500E-07,-1.380
-6.400E-07,-1.160
-6.300E-07,-1.140
-6.200E-07,-1.120
-6.100E-07,-0.960
-6.000E-07,-0.300
-5.900E-07,0.340
-5.800E-07,1.000
-5.700E-07,1.300
-5.600E-07,1.640
-5.500E-07,1.760
-5.400E-07,1.720
-5.300E-07,1.600
-5.200E-07,1.520
-5.100E-07,1.320
-5.000E-07,1.140
-4.900E-07,0.820
-4.800E-07,0.380
-4.700E-07,-0.100
-4.600E-07,-0.560
-4.500E-07,-0.960
-4.400E-07,-1.160
-4.300E-07,-1.340
-4.200E-07,-1.360
-4.100E-07,-1.280
-4.000E-07,-1.120
-3.900E-07,-0.820
-3.800E-07,-0.520
-3.700E-07,-0.160
-3.600E-07,0.160
-3.500E-07,0.480
-3.400E-07,0.720
-3.300E-07,0.720
-3.200E-07,0.820
-3.100E-07,0.740
-3.000E-07,0.540
-2.900E-07,0.540
-2.800E-07,0.320
-2.700E-07,0.060
-2.600E-07,-0.200
-2.500E-07,-0.540
-2.400E-07,-0.600
-2.300E-07,-1.220
-2.200E-07,-1.340
-2.100E-07,-1.300
-2.000E-07,-1.280
-1.900E-07,-0.900
-1.800E-07,-1.020
-1.700E-07,-0.740
-1.600E-07,-0.820
-1.500E-07,-0.160
-1.400E-07,-0.300
-1.300E-07,-0.480
-1.200E-07,-0.600
-1.100E-07,0.440
-1.000E-07,0.980
-9.000E-08,-0.080
-8.000E-08,0.140
-7.000E-08,0.260
-6.000E-08,1.740
-5.000E-08,3.300
-4.000E-08,3.320
-3.000E-08,3.300
-2.000E-08,3.300
-1.000E-08,1.960
0.000E+00,-2.100
1.000E-08,-2.120
2.000E-08,-2.120
3.000E-08,-2.120
4.000E-08,-2.120
5.000E-08,-2.120
6.000E-08,-2.140
7.000E-08,-2.140
8.000E-08,-2.120
9.000E-08,-2.120
1.000E-07,-2.100
1.100E-07,-2.120
1.200E-07,-1.380
1.300E-07,-0.460
1.400E-07,0.440
1.500E-07,0.860
1.600E-07,1.300
1.700E-07,1.220
1.800E-07,1.600
1.900E-07,1.460
2.000E-07,1.560
2.100E-07,1.440
2.200E-07,1.640
2.300E-07,1.360
2.400E-07,1.220
2.500E-07,0.840
2.600E-07,0.060
2.700E-07,-0.500
2.800E-07,-1.820
2.900E-07,-2.120
3.000E-07,-2.120
3.100E-07,-2.120
3.200E-07,-2.120
3.300E-07,-2.120
3.400E-07,-2.100
3.500E-07,-2.120
3.600E-07,-2.120
3.700E-07,-2.120
3.800E-07,-2.020
3.900E-07,-1.560
4.000E-07,-0.380
4.100E-07,0.520
4.200E-07,0.920
4.300E-07,1.200
4.400E-07,0.920
4.500E-07,0.700
4.600E-07,0.220
4.700E-07,-0.120
4.800E-07,-0.740
4.900E-07,-1.380
5.000E-07,-1.640
5.100E-07,-1.560
5.200E-07,-1.500
5.300E-07,-1.060
5.400E-07,-1.060
5.500E-07,-0.440
5.600E-07,-1.640
5.700E-07,-1.900
5.800E-07,-1.380
5.900E-07,-2.120
6.000E-07,-1.540
6.100E-07,-2.100
6.200E-07,-2.100
6.300E-07,-2.100
6.400E-07,-2.100
6.500E-07,-2.120
6.600E-07,-2.120
6.700E-07,-2.140
6.800E-07,-2.120
6.900E-07,-2.120
7.000E-07,-2.120
7.100E-07,-2.120
7.200E-07,-1.060
7.300E-07,0.200
7.400E-07,0.940
7.500E-07,0.820
7.600E-07,-0.120
7.700E-07,-0.740
7.800E-07,-1.840
7.900E-07,-1.860
8.000E-07,-2.120
8.100E-07,-2.120
8.200E-07,-2.120
8.300E-07,-2.060
8.400E-07,-0.960
8.500E-07,-1.220
8.600E-07,-0.280
8.700E-07,-0.840
8.800E-07,-0.980
8.900E-07,-1.320
9.000E-07,-2.040
9.100E-07,-2.100
9.200E-07,-2.120
9.300E-07,-2.120
9.400E-07,-2.120
9.500E-07,-2.120
9.600E-07,-2.120
9.700E-07,-2.120
9.800E-07,-2.120
9.900E-07,-2.120
1.000E-06,-2.140
1.010E-06,-2.120
1.020E-06,-1.940
1.030E-06,-1.640
1.040E-06,-1.380
1.050E-06,-1.220
1.060E-06,-1.160
1.070E-06,-1.320
1.080E-06,-1.500
1.090E-06,-1.620
1.100E-06,-1.720
1.110E-06,-1.780
1.120E-06,-1.320
1.130E-06,-1.360
1.140E-06,-0.940
1.150E-06,-1.400
1.160E-06,-0.600
1.170E-06,-1.540
1.180E-06,-0.600
1.190E-06,-1.440
1.200E-06,-1.820
1.210E-06,-2.100
1.220E-06,-2.120
1.230E-06,-2.120
1.240E-06,-2.120
1.250E-06,-2.120
1.260E-06,-2.100
1.270E-06,-2.120
1.280E-06,-2.120
1.290E-06,-2.140
1.300E-06,-2.020
1.310E-06,-1.740
1.320E-06,-1.540
1.330E-06,-1.140
1.340E-06,-0.600
1.350E-06,-0.060
1.360E-06,0.400
1.370E-06,0.560
1.380E-06,0.640
1.390E-06,0.640
1.400E-06,0.800
1.410E-06,1.280
1.420E-06,1.760
1.430E-06,1.440
1.440E-06,0.660
1.450E-06,1.240
1.460E-06,0.700
1.470E-06,0.560
1.480E-06,-0.080
1.490E-06,-1.120
1.500E-06,-2.120
1.510E-06,-2.120
1.520E-06,-2.120
1.530E-06,-2.120
1.540E-06,-2.120
1.550E-06,-2.120
1.560E-06,-2.120
1.570E-06,-2.120
1.580E-06,-2.120
1.590E-06,-2.000
1.600E-06,-1.120
1.610E-06,-0.280
1.620E-06,0.420
1.630E-06,1.080
1.640E-06,1.540
1.650E-06,1.860
1.660E-06,1.740
1.670E-06,1.540
1.680E-06,1.200
1.690E-06,0.820
1.700E-06,0.540
1.710E-06,0.340
1.720E-06,0.160
1.730E-06,0.000
1.740E-06,-0.160
1.750E-06,-0.320
1.760E-06,-0.480
1.770E-06,-0.600
1.780E-06,-0.640
1.790E-06,-0.540
1.800E-06,-0.360
1.810E-06,-0.280
1.820E-06,-0.120
1.830E-06,0.040
1.840E-06,0.180
1.850E-06,0.340
1.860E-06,0.520
1.870E-06,0.840
1.880E-06,1.080
1.890E-06,1.260
1.900E-06,1.380
1.910E-06,1.480
1.920E-06,1.380
1.930E-06,1.200
1.940E-06,0.860
1.950E-06,0.500
1.960E-06,0.020
1.970E-06,-0.440
1.980E-06,-0.880
1.990E-06,-1.160
2.000E-06,-1.420
2.010E-06,-1.500
2.020E-06,-1.500
2.030E-06,-1.500
2.040E-06,-1.320
2.050E-06,-1.140
2.060E-06,-0.860
2.070E-06,-0.500
2.080E-06,-0.220
2.090E-06,0.100
2.100E-06,0.360
2.110E-06,0.540
2.120E-06,0.680
2.130E-06,0.700
2.140E-06,0.780
2.150E-06,0.800
2.160E-06,0.780
2.170E-06,0.740
2.180E-06,0.780
2.190E-06,0.720
2.200E-06,0.700
2.210E-06,0.660
2.220E-06,0.560
2.230E-06,0.460
2.240E-06,0.300
2.250E-06,0.200
2.260E-06,0.000
2.270E-06,-0.160
2.280E-06,-0.220
2.290E-06,-0.260
2.300E-06,-0.280
2.310E-06,-0.280
2.320E-06,-0.160
2.330E-06,-0.040
2.340E-06,0.120
2.350E-06,0.280
2.360E-06,0.440
2.370E-06,0.620
2.380E-06,0.780
2.390E-06,0.860
2.400E-06,0.920
2.410E-06,0.900
2.420E-06,0.880
2.430E-06,0.800
2.440E-06,0.680
2.450E-06,0.560
2.460E-06,0.460
2.470E-06,0.360
2.480E-06,0.280
2.490E-06,0.200
2.500E-06,0.100
2.510E-06,0.020
2.520E-06,-0.040
2.530E-06,-0.080
2.540E-06,-0.120
2.550E-06,-0.140
2.560E-06,-0.100
2.570E-06,-0.100
2.580E-06,-0.080
2.590E-06,-0.020
2.600E-06,0.040
2.610E-06,0.120
2.620E-06,0.180
2.630E-06,0.260
2.640E-06,0.300
2.650E-06,0.420
2.660E-06,0.600
2.670E-06,1.280
2.680E-06,1.460
2.690E-06,1.920
2.700E-06,1.920
2.710E-06,1.880
2.720E-06,1.580
2.730E-06,0.600
2.740E-06,-0.440
2.750E-06,-0.940
2.760E-06,-1.340
2.770E-06,-1.740
2.780E-06,-1.960
2.790E-06,-1.660
2.800E-06,-1.460
2.810E-06,-1.140
2.820E-06,-0.800
2.830E-06,-0.160
2.840E-06,0.700
2.850E-06,1.160
2.860E-06,1.460
2.870E-06,1.500
2.880E-06,1.400
2.890E-06,1.280
2.900E-06,1.040
2.910E-06,0.840
2.920E-06,0.700
2.930E-06,0.660
2.940E-06,0.600
2.950E-06,0.600
2.960E-06,0.640
2.970E-06,0.580
2.980E-06,0.560
2.990E-06,0.520
3.000E-06,0.500
3.010E-06,0.420
3.020E-06,0.360
3.030E-06,0.280
3.040E-06,0.200
3.050E-06,0.120
3.060E-06,0.040
3.070E-06,0.000
3.080E-06,-0.020
3.090E-06,0.080
3.100E-06,0.220
3.110E-06,0.380
3.120E-06,0.580
3.130E-06,0.720
3.140E-06,0.860
3.150E-06,0.920
3.160E-06,0.940
3.170E-06,0.900
3.180E-06,0.860
3.190E-06,0.720
3.200E-06,0.620
3.210E-06,0.500
3.220E-06,0.420
3.230E-06,0.340
3.240E-06,0.300
3.250E-06,0.280
3.260E-06,0.280
3.270E-06,0.340
3.280E-06,0.360
3.290E-06,0.420
3.300E-06,0.440
3.310E-06,0.500
3.320E-06,0.540
3.330E-06,0.500
3.340E-06,0.480
3.350E-06,0.420
3.360E-06,0.400
3.370E-06,0.400
