mediciones/tiempo vuelo sin outliers/8-23,28/165/WaveData6511.csv

#timebase=2000000(ps)
,#voltbase=500000(mv/100)
#size=4000
-1.140E-05,0.060
-1.139E-05,0.040
-1.138E-05,0.040
-1.137E-05,0.080
-1.136E-05,0.060
-1.135E-05,0.040
-1.134E-05,0.040
-1.133E-05,0.060
-1.132E-05,0.040
-1.131E-05,0.040
-1.130E-05,0.060
-1.129E-05,0.040
-1.128E-05,0.040
-1.127E-05,0.060
-1.126E-05,0.060
-1.125E-05,0.040
-1.124E-05,0.080
-1.123E-05,0.040
-1.122E-05,0.040
-1.121E-05,0.080
-1.120E-05,0.080
-1.119E-05,0.080
-1.118E-05,0.080
-1.117E-05,0.040
-1.116E-05,0.020
-1.115E-05,0.080
-1.114E-05,0.080
-1.113E-05,0.060
-1.112E-05,0.080
-1.111E-05,0.060
-1.110E-05,0.060
-1.109E-05,0.100
-1.108E-05,0.060
-1.107E-05,0.080
-1.106E-05,0.060
-1.105E-05,0.060
-1.104E-05,0.040
-1.103E-05,0.040
-1.102E-05,0.060
-1.101E-05,0.060
-1.100E-05,0.020
-1.099E-05,0.040
-1.098E-05,0.080
-1.097E-05,0.080
-1.096E-05,0.080
-1.095E-05,0.040
-1.094E-05,0.040
-1.093E-05,0.020
-1.092E-05,0.080
-1.091E-05,0.060
-1.090E-05,0.040
-1.089E-05,0.040
-1.088E-05,0.060
-1.087E-05,0.060
-1.086E-05,0.040
-1.085E-05,0.020
-1.084E-05,0.040
-1.083E-05,0.040
-1.082E-05,0.040
-1.081E-05,0.040
-1.080E-05,0.040
-1.079E-05,0.060
-1.078E-05,0.040
-1.077E-05,0.060
-1.076E-05,0.060
-1.075E-05,0.040
-1.074E-05,0.040
-1.073E-05,0.060
-1.072E-05,0.060
-1.071E-05,0.040
-1.070E-05,0.040
-1.069E-05,0.040
-1.068E-05,0.040
-1.067E-05,0.080
-1.066E-05,0.060
-1.065E-05,0.080
-1.064E-05,0.040
-1.063E-05,0.060
-1.062E-05,0.060
-1.061E-05,0.060
-1.060E-05,0.040
-1.059E-05,0.040
-1.058E-05,0.060
-1.057E-05,0.020
-1.056E-05,0.060
-1.055E-05,0.060
-1.054E-05,0.080
-1.053E-05,0.080
-1.052E-05,0.040
-1.051E-05,0.040
-1.050E-05,0.040
-1.049E-05,0.060
-1.048E-05,0.060
-1.047E-05,0.060
-1.046E-05,0.080
-1.045E-05,0.060
-1.044E-05,0.060
-1.043E-05,0.060
-1.042E-05,0.040
-1.041E-05,0.040
-1.040E-05,0.060
-1.039E-05,0.060
-1.038E-05,0.060
-1.037E-05,0.040
-1.036E-05,0.060
-1.035E-05,0.040
-1.034E-05,0.060
-1.033E-05,0.020
-1.032E-05,0.060
-1.031E-05,0.040
-1.030E-05,0.060
-1.029E-05,0.060
-1.028E-05,0.040
-1.027E-05,0.080
-1.026E-05,0.040
-1.025E-05,0.080
-1.024E-05,0.060
-1.023E-05,0.040
-1.022E-05,0.040
-1.021E-05,0.080
-1.020E-05,0.080
-1.019E-05,0.040
-1.018E-05,0.020
-1.017E-05,0.040
-1.016E-05,0.080
-1.015E-05,0.040
-1.014E-05,0.080
-1.013E-05,0.080
-1.012E-05,0.040
-1.011E-05,0.060
-1.010E-05,0.040
-1.009E-05,0.060
-1.008E-05,0.040
-1.007E-05,0.040
-1.006E-05,0.080
-1.005E-05,0.040
-1.004E-05,0.060
-1.003E-05,0.060
-1.002E-05,0.040
-1.001E-05,0.040
-1.000E-05,0.060
-9.990E-06,-0.140
-9.980E-06,-0.700
-9.970E-06,-1.660
-9.960E-06,-2.100
-9.950E-06,-2.100
-9.940E-06,-2.100
-9.930E-06,-2.120
-9.920E-06,-2.120
-9.910E-06,-0.980
-9.900E-06,0.400
-9.890E-06,1.960
-9.880E-06,3.220
-9.870E-06,3.280
-9.860E-06,3.300
-9.850E-06,3.320
-9.840E-06,3.300
-9.830E-06,3.300
-9.820E-06,2.840
-9.810E-06,1.740
-9.800E-06,0.700
-9.790E-06,-0.120
-9.780E-06,-0.740
-9.770E-06,-0.780
-9.760E-06,-0.700
-9.750E-06,-0.540
-9.740E-06,-0.320
-9.730E-06,-0.320
-9.720E-06,-0.440
-9.710E-06,-0.920
-9.700E-06,-1.400
-9.690E-06,-1.940
-9.680E-06,-2.120
-9.670E-06,-2.120
-9.660E-06,-2.100
-9.650E-06,-2.100
-9.640E-06,-1.740
-9.630E-06,-1.040
-9.620E-06,-0.280
-9.610E-06,0.560
-9.600E-06,1.300
-9.590E-06,1.820
-9.580E-06,2.140
-9.570E-06,2.180
-9.560E-06,1.960
-9.550E-06,1.540
-9.540E-06,0.960
-9.530E-06,0.360
-9.520E-06,-0.200
-9.510E-06,-0.680
-9.500E-06,-1.000
-9.490E-06,-1.120
-9.480E-06,-1.160
-9.470E-06,-1.060
-9.460E-06,-0.960
-9.450E-06,-0.800
-9.440E-06,-0.620
-9.430E-06,-0.380
-9.420E-06,-0.220
-9.410E-06,0.020
-9.400E-06,0.320
-9.390E-06,0.580
-9.380E-06,0.860
-9.370E-06,1.040
-9.360E-06,1.220
-9.350E-06,1.320
-9.340E-06,1.360
-9.330E-06,1.280
-9.320E-06,1.140
-9.310E-06,0.980
-9.300E-06,0.760
-9.290E-06,0.540
-9.280E-06,0.280
-9.270E-06,0.080
-9.260E-06,-0.140
-9.250E-06,-0.300
-9.240E-06,-0.460
-9.230E-06,-0.600
-9.220E-06,-0.660
-9.210E-06,-0.760
-9.200E-06,-0.800
-9.190E-06,-0.800
-9.180E-06,-0.760
-9.170E-06,-0.620
-9.160E-06,-0.440
-9.150E-06,-0.220
-9.140E-06,0.100
-9.130E-06,0.420
-9.120E-06,0.700
-9.110E-06,0.900
-9.100E-06,1.040
-9.090E-06,1.100
-9.080E-06,1.060
-9.070E-06,0.940
-9.060E-06,0.720
-9.050E-06,0.460
-9.040E-06,0.200
-9.030E-06,-0.080
-9.020E-06,-0.340
-9.010E-06,-0.500
-9.000E-06,-0.620
-8.990E-06,-0.700
-8.980E-06,-0.660
-8.970E-06,-0.580
-8.960E-06,-0.480
-8.950E-06,-0.340
-8.940E-06,-0.280
-8.930E-06,-0.160
-8.920E-06,-0.060
-8.910E-06,-0.020
-8.900E-06,0.020
-8.890E-06,0.060
-8.880E-06,0.120
-8.870E-06,0.140
-8.860E-06,0.200
-8.850E-06,0.220
-8.840E-06,0.280
-8.830E-06,0.340
-8.820E-06,0.380
-8.810E-06,0.380
-8.800E-06,0.360
-8.790E-06,0.380
-8.780E-06,0.280
-8.770E-06,0.240
-8.760E-06,0.200
-8.750E-06,0.080
-8.740E-06,0.040
-8.730E-06,-0.040
-8.720E-06,-0.060
-8.710E-06,-0.060
-8.700E-06,-0.040
-8.690E-06,0.000
-8.680E-06,0.060
-8.670E-06,0.100
-8.660E-06,0.120
-8.650E-06,0.140
-8.640E-06,0.120
-8.630E-06,0.100
-8.620E-06,0.120
-8.610E-06,0.080
-8.600E-06,0.080
-8.590E-06,0.060
-8.580E-06,0.080
-8.570E-06,0.060
-8.560E-06,0.040
-8.550E-06,0.040
-8.540E-06,0.020
-8.530E-06,0.000
-8.520E-06,0.040
-8.510E-06,0.000
-8.500E-06,-0.060
-8.490E-06,-0.060
-8.480E-06,-0.080
-8.470E-06,-0.100
-8.460E-06,-0.080
-8.450E-06,-0.100
-8.440E-06,-0.140
-8.430E-06,-0.080
-8.420E-06,-0.060
-8.410E-06,-0.060
-8.400E-06,-0.060
-8.390E-06,-0.040
-8.380E-06,-0.020
-8.370E-06,-0.020
-8.360E-06,-0.060
-8.350E-06,-0.040
-8.340E-06,-0.040
-8.330E-06,-0.020
-8.320E-06,0.020
-8.310E-06,0.040
-8.300E-06,0.060
-8.290E-06,0.100
-8.280E-06,0.220
-8.270E-06,0.220
-8.260E-06,0.280
-8.250E-06,0.300
-8.240E-06,0.320
-8.230E-06,0.320
-8.220E-06,0.360
-8.210E-06,0.320
-8.200E-06,0.360
-8.190E-06,0.540
-8.180E-06,0.860
-8.170E-06,1.300
-8.160E-06,1.640
-8.150E-06,1.660
-8.140E-06,1.340
-8.130E-06,0.820
-8.120E-06,0.140
-8.110E-06,-0.500
-8.100E-06,-0.900
-8.090E-06,-1.400
-8.080E-06,-1.420
-8.070E-06,-1.640
-8.060E-06,-1.560
-8.050E-06,-1.620
-8.040E-06,-1.500
-8.030E-06,-1.320
-8.020E-06,-0.980
-8.010E-06,-0.720
-8.000E-06,-0.300
-7.990E-06,-0.080
-7.980E-06,0.180
-7.970E-06,0.280
-7.960E-06,0.420
-7.950E-06,0.400
-7.940E-06,0.460
-7.930E-06,0.520
-7.920E-06,0.660
-7.910E-06,0.800
-7.900E-06,0.940
-7.890E-06,1.020
-7.880E-06,0.980
-7.870E-06,0.700
-7.860E-06,0.360
-7.850E-06,0.060
-7.840E-06,-0.220
-7.830E-06,-0.460
-7.820E-06,-0.540
-7.810E-06,-0.660
-7.800E-06,-0.780
-7.790E-06,-0.860
-7.780E-06,-0.920
-7.770E-06,-0.860
-7.760E-06,-0.720
-7.750E-06,-0.440
-7.740E-06,-0.100
-7.730E-06,0.280
-7.720E-06,0.620
-7.710E-06,0.860
-7.700E-06,1.000
-7.690E-06,1.040
-7.680E-06,0.980
-7.670E-06,0.840
-7.660E-06,0.740
-7.650E-06,0.540
-7.640E-06,0.380
-7.630E-06,0.200
-7.620E-06,-0.020
-7.610E-06,-0.180
-7.600E-06,-0.340
-7.590E-06,-0.440
-7.580E-06,-0.480
-7.570E-06,-0.480
-7.560E-06,-0.420
-7.550E-06,-0.380
-7.540E-06,-0.300
-7.530E-06,-0.240
-7.520E-06,-0.260
-7.510E-06,-0.260
-7.500E-06,-0.300
-7.490E-06,-0.340
-7.480E-06,-0.300
-7.470E-06,-0.240
-7.460E-06,-0.140
-7.450E-06,0.000
-7.440E-06,0.080
-7.430E-06,0.240
-7.420E-06,0.300
-7.410E-06,0.300
-7.400E-06,0.300
-7.390E-06,0.240
-7.380E-06,0.200
-7.370E-06,0.040
-7.360E-06,-0.080
-7.350E-06,-0.160
-7.340E-06,-0.320
-7.330E-06,-0.480
-7.320E-06,-0.660
-7.310E-06,-0.760
-7.300E-06,-0.860
-7.290E-06,-0.860
-7.280E-06,-0.720
-7.270E-06,-0.580
-7.260E-06,-0.380
-7.250E-06,-0.260
-7.240E-06,-0.100
-7.230E-06,-0.020
-7.220E-06,0.080
-7.210E-06,0.160
-7.200E-06,0.120
-7.190E-06,0.120
-7.180E-06,0.120
-7.170E-06,0.080
-7.160E-06,0.040
-7.150E-06,0.040
-7.140E-06,0.040
-7.130E-06,0.040
-7.120E-06,0.060
-7.110E-06,0.100
-7.100E-06,0.120
-7.090E-06,0.140
-7.080E-06,0.160
-7.070E-06,0.160
-7.060E-06,0.120
-7.050E-06,0.120
-7.040E-06,0.040
-7.030E-06,0.000
-7.020E-06,-0.020
-7.010E-06,-0.020
-7.000E-06,-0.040
-6.990E-06,-0.020
-6.980E-06,0.040
-6.970E-06,0.040
-6.960E-06,0.120
-6.950E-06,0.120
-6.940E-06,0.200
-6.930E-06,0.180
-6.920E-06,0.180
-6.910E-06,0.180
-6.900E-06,0.100
-6.890E-06,0.020
-6.880E-06,0.040
-6.870E-06,-0.020
-6.860E-06,-0.020
-6.850E-06,-0.020
-6.840E-06,-0.120
-6.830E-06,-0.180
-6.820E-06,-0.180
-6.810E-06,-0.220
-6.800E-06,-0.140
-6.790E-06,-0.140
-6.780E-06,-0.140
-6.770E-06,-0.080
-6.760E-06,-0.120
-6.750E-06,-0.140
-6.740E-06,-0.180
-6.730E-06,-0.220
-6.720E-06,-0.240
-6.710E-06,-0.260
-6.700E-06,-0.300
-6.690E-06,-0.320
-6.680E-06,-0.280
-6.670E-06,-0.180
-6.660E-06,-0.120
-6.650E-06,-0.120
-6.640E-06,-0.100
-6.630E-06,-0.080
-6.620E-06,-0.060
-6.610E-06,-0.020
-6.600E-06,0.000
-6.590E-06,0.020
-6.580E-06,-0.020
-6.570E-06,-0.040
-6.560E-06,-0.120
-6.550E-06,-0.200
-6.540E-06,-0.280
-6.530E-06,-0.320
-6.520E-06,-0.320
-6.510E-06,-0.400
-6.500E-06,-0.440
-6.490E-06,-0.480
-6.480E-06,-0.480
-6.470E-06,-0.500
-6.460E-06,-0.560
-6.450E-06,-0.560
-6.440E-06,-0.560
-6.430E-06,-0.600
-6.420E-06,-0.600
-6.410E-06,-0.620
-6.400E-06,-0.580
-6.390E-06,-0.580
-6.380E-06,-0.520
-6.370E-06,-0.480
-6.360E-06,-0.480
-6.350E-06,-0.500
-6.340E-06,-0.440
-6.330E-06,-0.480
-6.320E-06,-0.460
-6.310E-06,-0.460
-6.300E-06,-0.500
-6.290E-06,-0.280
-6.280E-06,-0.440
-6.270E-06,-0.320
-6.260E-06,-0.300
-6.250E-06,-0.460
-6.240E-06,-0.540
-6.230E-06,-0.560
-6.220E-06,-0.420
-6.210E-06,-0.340
-6.200E-06,-0.260
-6.190E-06,-0.280
-6.180E-06,-0.320
-6.170E-06,-0.320
-6.160E-06,-0.240
-6.150E-06,-0.180
-6.140E-06,-0.060
-6.130E-06,0.200
-6.120E-06,0.220
-6.110E-06,0.280
-6.100E-06,0.300
-6.090E-06,0.300
-6.080E-06,0.320
-6.070E-06,0.320
-6.060E-06,0.400
-6.050E-06,0.400
-6.040E-06,0.480
-6.030E-06,0.440
-6.020E-06,0.400
-6.010E-06,0.380
-6.000E-06,0.380
-5.990E-06,0.300
-5.980E-06,0.340
-5.970E-06,0.380
-5.960E-06,0.420
-5.950E-06,0.500
-5.940E-06,0.560
-5.930E-06,0.340
-5.920E-06,0.040
-5.910E-06,0.060
-5.900E-06,-0.040
-5.890E-06,-0.100
-5.880E-06,-0.120
-5.870E-06,-0.040
-5.860E-06,-0.040
-5.850E-06,-0.180
-5.840E-06,-0.180
-5.830E-06,-0.360
-5.820E-06,-0.320
-5.810E-06,-0.420
-5.800E-06,-0.440
-5.790E-06,-0.420
-5.780E-06,-0.500
-5.770E-06,-0.480
-5.760E-06,-0.380
-5.750E-06,-0.480
-5.740E-06,-0.400
-5.730E-06,-0.580
-5.720E-06,-0.320
-5.710E-06,-0.020
-5.700E-06,-0.280
-5.690E-06,-0.240
-5.680E-06,-0.820
-5.670E-06,-0.660
-5.660E-06,-0.880
-5.650E-06,-0.680
-5.640E-06,-0.460
-5.630E-06,-0.220
-5.620E-06,-0.160
-5.610E-06,-0.120
-5.600E-06,-0.260
-5.590E-06,-0.140
-5.580E-06,-0.120
-5.570E-06,-0.140
-5.560E-06,0.040
-5.550E-06,0.120
-5.540E-06,1.300
-5.530E-06,0.700
-5.520E-06,0.800
-5.510E-06,0.780
-5.500E-06,0.840
-5.490E-06,0.180
-5.480E-06,0.040
-5.470E-06,0.060
-5.460E-06,0.300
-5.450E-06,0.220
-5.440E-06,0.120
-5.430E-06,0.160
-5.420E-06,0.040
-5.410E-06,-0.060
-5.400E-06,0.020
-5.390E-06,-0.060
-5.380E-06,0.160
-5.370E-06,0.340
-5.360E-06,0.500
-5.350E-06,0.300
-5.340E-06,0.560
-5.330E-06,0.280
-5.320E-06,0.140
-5.310E-06,0.100
-5.300E-06,-0.080
-5.290E-06,-0.100
-5.280E-06,-0.060
-5.270E-06,-0.220
-5.260E-06,-0.140
-5.250E-06,-0.420
-5.240E-06,-0.380
-5.230E-06,-0.420
-5.220E-06,-0.560
-5.210E-06,-0.540
-5.200E-06,-0.320
-5.190E-06,-0.640
-5.180E-06,-0.480
-5.170E-06,-0.640
-5.160E-06,-0.500
-5.150E-06,-0.560
-5.140E-06,-0.400
-5.130E-06,-0.280
-5.120E-06,-0.220
-5.110E-06,-0.140
-5.100E-06,-0.060
-5.090E-06,-0.020
-5.080E-06,0.060
-5.070E-06,0.160
-5.060E-06,0.180
-5.050E-06,0.220
-5.040E-06,0.340
-5.030E-06,0.420
-5.020E-06,0.380
-5.010E-06,0.400
-5.000E-06,0.380
-4.990E-06,0.360
-4.980E-06,0.380
-4.970E-06,0.380
-4.960E-06,0.400
-4.950E-06,0.400
-4.940E-06,0.360
-4.930E-06,0.360
-4.920E-06,0.360
-4.910E-06,0.340
-4.900E-06,0.320
-4.890E-06,0.240
-4.880E-06,0.200
-4.870E-06,0.120
-4.860E-06,0.000
-4.850E-06,-0.080
-4.840E-06,0.040
-4.830E-06,-0.180
-4.820E-06,-0.240
-4.810E-06,-0.220
-4.800E-06,-0.400
-4.790E-06,-0.360
-4.780E-06,-0.540
-4.770E-06,-0.400
-4.760E-06,-0.460
-4.750E-06,-0.540
-4.740E-06,-0.520
-4.730E-06,-0.680
-4.720E-06,-0.720
-4.710E-06,-0.820
-4.700E-06,-0.820
-4.690E-06,-0.720
-4.680E-06,-0.580
-4.670E-06,-0.460
-4.660E-06,-0.360
-4.650E-06,-0.180
-4.640E-06,-0.120
-4.630E-06,-0.020
-4.620E-06,0.120
-4.610E-06,0.220
-4.600E-06,0.200
-4.590E-06,0.360
-4.580E-06,0.480
-4.570E-06,0.540
-4.560E-06,0.560
-4.550E-06,0.540
-4.540E-06,0.540
-4.530E-06,0.460
-4.520E-06,0.360
-4.510E-06,0.380
-4.500E-06,0.380
-4.490E-06,0.380
-4.480E-06,0.360
-4.470E-06,0.360
-4.460E-06,0.420
-4.450E-06,0.320
-4.440E-06,0.300
-4.430E-06,0.260
-4.420E-06,0.280
-4.410E-06,0.260
-4.400E-06,0.160
-4.390E-06,0.120
-4.380E-06,0.100
-4.370E-06,0.020
-4.360E-06,-0.020
-4.350E-06,-0.020
-4.340E-06,0.000
-4.330E-06,-0.020
-4.320E-06,-0.040
-4.310E-06,-0.100
-4.300E-06,-0.160
-4.290E-06,-0.200
-4.280E-06,-0.240
-4.270E-06,-0.280
-4.260E-06,-0.240
-4.250E-06,-0.220
-4.240E-06,-0.240
-4.230E-06,-0.220
-4.220E-06,-0.240
-4.210E-06,-0.180
-4.200E-06,-0.160
-4.190E-06,-0.120
-4.180E-06,-0.120
-4.170E-06,-0.080
-4.160E-06,-0.040
-4.150E-06,0.020
-4.140E-06,0.020
-4.130E-06,0.040
-4.120E-06,0.080
-4.110E-06,0.100
-4.100E-06,0.140
-4.090E-06,0.120
-4.080E-06,0.160
-4.070E-06,0.120
-4.060E-06,0.120
-4.050E-06,0.020
-4.040E-06,-0.020
-4.030E-06,-0.040
-4.020E-06,-0.020
-4.010E-06,0.020
-4.000E-06,0.040
-3.990E-06,0.040
-3.980E-06,-0.100
-3.970E-06,-0.140
-3.960E-06,-0.180
-3.950E-06,-0.200
-3.940E-06,-0.260
-3.930E-06,-0.260
-3.920E-06,-0.180
-3.910E-06,-0.280
-3.900E-06,-0.160
-3.890E-06,-0.280
-3.880E-06,-0.220
-3.870E-06,-0.360
-3.860E-06,-0.360
-3.850E-06,-0.400
-3.840E-06,-0.360
-3.830E-06,-0.340
-3.820E-06,-0.300
-3.810E-06,-0.300
-3.800E-06,-0.220
-3.790E-06,-0.220
-3.780E-06,-0.200
-3.770E-06,-0.240
-3.760E-06,-0.180
-3.750E-06,-0.120
-3.740E-06,-0.100
-3.730E-06,-0.060
-3.720E-06,-0.020
-3.710E-06,-0.060
-3.700E-06,-0.060
-3.690E-06,-0.080
-3.680E-06,-0.020
-3.670E-06,-0.020
-3.660E-06,0.040
-3.650E-06,0.080
-3.640E-06,0.120
-3.630E-06,0.140
-3.620E-06,0.120
-3.610E-06,0.140
-3.600E-06,0.040
-3.590E-06,0.020
-3.580E-06,-0.020
-3.570E-06,-0.040
-3.560E-06,-0.020
-3.550E-06,-0.020
-3.540E-06,0.040
-3.530E-06,0.000
-3.520E-06,-0.020
-3.510E-06,-0.080
-3.500E-06,-0.140
-3.490E-06,-0.180
-3.480E-06,-0.220
-3.470E-06,-0.200
-3.460E-06,-0.200
-3.450E-06,-0.240
-3.440E-06,-0.240
-3.430E-06,-0.240
-3.420E-06,-0.280
-3.410E-06,-0.320
-3.400E-06,-0.340
-3.390E-06,-0.400
-3.380E-06,-0.440
-3.370E-06,-0.480
-3.360E-06,-0.460
-3.350E-06,-0.480
-3.340E-06,-0.500
-3.330E-06,-0.560
-3.320E-06,-0.520
-3.310E-06,-0.480
-3.300E-06,-0.580
-3.290E-06,-0.540
-3.280E-06,-0.420
-3.270E-06,-0.280
-3.260E-06,-0.080
-3.250E-06,-0.200
-3.240E-06,-0.300
-3.230E-06,-0.320
-3.220E-06,-0.500
-3.210E-06,-0.700
-3.200E-06,-0.560
-3.190E-06,-0.500
-3.180E-06,0.140
-3.170E-06,-0.540
-3.160E-06,-0.040
-3.150E-06,-0.220
-3.140E-06,-0.200
-3.130E-06,-0.180
-3.120E-06,-0.140
-3.110E-06,-0.220
-3.100E-06,0.120
-3.090E-06,0.080
-3.080E-06,0.180
-3.070E-06,0.140
-3.060E-06,0.220
-3.050E-06,0.260
-3.040E-06,0.120
-3.030E-06,0.060
-3.020E-06,0.240
-3.010E-06,0.180
-3.000E-06,0.200
-2.990E-06,0.360
-2.980E-06,0.400
-2.970E-06,0.180
-2.960E-06,0.080
-2.950E-06,-0.160
-2.940E-06,-0.140
-2.930E-06,-0.220
-2.920E-06,-0.340
-2.910E-06,-0.260
-2.900E-06,-0.180
-2.890E-06,-0.240
-2.880E-06,-0.260
-2.870E-06,-0.360
-2.860E-06,-0.420
-2.850E-06,-0.480
-2.840E-06,-0.540
-2.830E-06,-0.480
-2.820E-06,-0.400
-2.810E-06,-0.380
-2.800E-06,-0.380
-2.790E-06,-0.420
-2.780E-06,-0.500
-2.770E-06,-0.580
-2.760E-06,-0.640
-2.750E-06,-0.620
-2.740E-06,-0.620
-2.730E-06,-0.620
-2.720E-06,-0.660
-2.710E-06,-0.660
-2.700E-06,-0.740
-2.690E-06,-0.800
-2.680E-06,-0.800
-2.670E-06,-0.820
-2.660E-06,-0.980
-2.650E-06,-1.040
-2.640E-06,-0.960
-2.630E-06,-1.100
-2.620E-06,-1.140
-2.610E-06,-0.960
-2.600E-06,-0.940
-2.590E-06,-1.160
-2.580E-06,-0.220
-2.570E-06,-0.320
-2.560E-06,-0.320
-2.550E-06,-0.480
-2.540E-06,-0.820
-2.530E-06,-0.860
-2.520E-06,-0.620
-2.510E-06,-1.140
-2.500E-06,-0.780
-2.490E-06,-0.960
-2.480E-06,-0.920
-2.470E-06,-1.060
-2.460E-06,-1.240
-2.450E-06,-0.800
-2.440E-06,-0.720
-2.430E-06,-0.560
-2.420E-06,-0.140
-2.410E-06,-0.200
-2.400E-06,-0.060
-2.390E-06,0.120
-2.380E-06,0.360
-2.370E-06,0.280
-2.360E-06,0.520
-2.350E-06,0.360
-2.340E-06,0.460
-2.330E-06,1.200
-2.320E-06,0.860
-2.310E-06,0.720
-2.300E-06,0.000
-2.290E-06,-0.100
-2.280E-06,-0.580
-2.270E-06,-0.540
-2.260E-06,-0.600
-2.250E-06,-0.100
-2.240E-06,-0.280
-2.230E-06,-0.400
-2.220E-06,-0.360
-2.210E-06,-0.640
-2.200E-06,-0.640
-2.190E-06,-0.640
-2.180E-06,-0.660
-2.170E-06,-0.520
-2.160E-06,-0.400
-2.150E-06,-0.320
-2.140E-06,-0.400
-2.130E-06,-0.300
-2.120E-06,-0.080
-2.110E-06,-0.060
-2.100E-06,0.200
-2.090E-06,0.560
-2.080E-06,-0.220
-2.070E-06,0.040
-2.060E-06,-0.260
-2.050E-06,-0.420
-2.040E-06,-0.820
-2.030E-06,-0.620
-2.020E-06,-0.520
-2.010E-06,-0.520
-2.000E-06,-0.660
-1.990E-06,-0.380
-1.980E-06,-0.380
-1.970E-06,-0.340
-1.960E-06,-0.220
-1.950E-06,-0.140
-1.940E-06,-0.140
-1.930E-06,0.000
-1.920E-06,0.080
-1.910E-06,0.120
-1.900E-06,0.080
-1.890E-06,0.120
-1.880E-06,0.020
-1.870E-06,-0.020
-1.860E-06,0.000
-1.850E-06,0.080
-1.840E-06,-0.020
-1.830E-06,0.020
-1.820E-06,0.020
-1.810E-06,0.020
-1.800E-06,0.100
-1.790E-06,0.000
-1.780E-06,0.060
-1.770E-06,0.040
-1.760E-06,0.260
-1.750E-06,0.100
-1.740E-06,0.020
-1.730E-06,-0.140
-1.720E-06,-0.300
-1.710E-06,-0.500
-1.700E-06,-0.480
-1.690E-06,-0.480
-1.680E-06,-0.400
-1.670E-06,-0.280
-1.660E-06,-0.260
-1.650E-06,-0.200
-1.640E-06,-0.420
-1.630E-06,-0.400
-1.620E-06,-0.320
-1.610E-06,-0.140
-1.600E-06,-0.140
-1.590E-06,0.020
-1.580E-06,-0.200
-1.570E-06,-0.240
-1.560E-06,-0.520
-1.550E-06,-0.640
-1.540E-06,-0.560
-1.530E-06,-0.460
-1.520E-06,-0.340
-1.510E-06,-0.480
-1.500E-06,-0.240
-1.490E-06,-0.400
-1.480E-06,-0.540
-1.470E-06,-0.600
-1.460E-06,-0.480
-1.450E-06,-0.380
-1.440E-06,-0.240
-1.430E-06,0.040
-1.420E-06,0.400
-1.410E-06,0.680
-1.400E-06,0.580
-1.390E-06,0.480
-1.380E-06,0.320
-1.370E-06,0.120
-1.360E-06,0.020
-1.350E-06,0.040
-1.340E-06,0.160
-1.330E-06,0.300
-1.320E-06,0.380
-1.310E-06,0.440
-1.300E-06,0.460
-1.290E-06,0.460
-1.280E-06,0.520
-1.270E-06,0.540
-1.260E-06,0.440
-1.250E-06,0.380
-1.240E-06,0.320
-1.230E-06,0.360
-1.220E-06,0.340
-1.210E-06,0.280
-1.200E-06,0.260
-1.190E-06,0.320
-1.180E-06,0.420
-1.170E-06,0.280
-1.160E-06,0.160
-1.150E-06,0.060
-1.140E-06,-0.100
-1.130E-06,-0.220
-1.120E-06,-0.300
-1.110E-06,-0.320
-1.100E-06,-0.340
-1.090E-06,-0.440
-1.080E-06,-0.480
-1.070E-06,-0.540
-1.060E-06,-0.560
-1.050E-06,-0.540
-1.040E-06,-0.540
-1.030E-06,-0.480
-1.020E-06,-0.440
-1.010E-06,-0.460
-1.000E-06,-0.380
-9.900E-07,-0.440
-9.800E-07,-0.420
-9.700E-07,-0.480
-9.600E-07,-0.480
-9.500E-07,-0.420
-9.400E-07,-0.420
-9.300E-07,-0.400
-9.200E-07,-0.300
-9.100E-07,-0.320
-9.000E-07,-0.280
-8.900E-07,-0.320
-8.800E-07,-0.280
-8.700E-07,-0.300
-8.600E-07,-0.320
-8.500E-07,-0.300
-8.400E-07,-0.280
-8.300E-07,-0.280
-8.200E-07,-0.240
-8.100E-07,-0.140
-8.000E-07,-0.140
-7.900E-07,-0.160
-7.800E-07,-0.140
-7.700E-07,-0.220
-7.600E-07,-0.260
-7.500E-07,-0.300
-7.400E-07,-0.360
-7.300E-07,-0.400
-7.200E-07,-0.460
-7.100E-07,-0.500
-7.000E-07,-0.600
-6.900E-07,-0.680
-6.800E-07,-0.780
-6.700E-07,-0.880
-6.600E-07,-1.000
-6.500E-07,-1.120
-6.400E-07,-1.200
-6.300E-07,-1.320
-6.200E-07,-1.460
-6.100E-07,-1.500
-6.000E-07,-1.580
-5.900E-07,-1.560
-5.800E-07,-1.440
-5.700E-07,-1.420
-5.600E-07,-1.340
-5.500E-07,-1.300
-5.400E-07,-1.260
-5.300E-07,-1.240
-5.200E-07,-1.260
-5.100E-07,-1.200
-5.000E-07,-1.160
-4.900E-07,-1.160
-4.800E-07,-1.080
-4.700E-07,-1.060
-4.600E-07,-1.000
-4.500E-07,-1.060
-4.400E-07,-0.980
-4.300E-07,-1.000
-4.200E-07,-0.960
-4.100E-07,-0.920
-4.000E-07,-0.880
-3.900E-07,-0.800
-3.800E-07,-0.520
-3.700E-07,-0.440
-3.600E-07,-0.520
-3.500E-07,-0.400
-3.400E-07,-0.400
-3.300E-07,-0.480
-3.200E-07,-0.540
-3.100E-07,-0.680
-3.000E-07,-0.900
-2.900E-07,-1.120
-2.800E-07,-1.140
-2.700E-07,-0.920
-2.600E-07,-0.460
-2.500E-07,-0.100
-2.400E-07,0.080
-2.300E-07,-0.140
-2.200E-07,-0.600
-2.100E-07,-1.100
-2.000E-07,-1.080
-1.900E-07,-1.180
-1.800E-07,-1.120
-1.700E-07,-1.360
-1.600E-07,-1.140
-1.500E-07,-1.300
-1.400E-07,-1.120
-1.300E-07,-1.400
-1.200E-07,-1.080
-1.100E-07,-1.160
-1.000E-07,-0.940
-9.000E-08,-1.000
-8.000E-08,-1.160
-7.000E-08,-1.260
-6.000E-08,-0.900
-5.000E-08,0.280
