mediciones/curva carac 8-28 limpias/-13/WaveData66102.csv

#timebase=2000000(ps)
,#voltbase=200000(mv/100)
#size=4000
-1.215E-05,0.000
-1.214E-05,0.008
-1.213E-05,0.008
-1.212E-05,0.000
-1.211E-05,0.008
-1.210E-05,0.000
-1.209E-05,0.008
-1.208E-05,0.008
-1.207E-05,0.008
-1.206E-05,-0.008
-1.205E-05,-0.008
-1.204E-05,0.000
-1.203E-05,0.008
-1.202E-05,0.008
-1.201E-05,0.000
-1.200E-05,0.008
-1.199E-05,0.008
-1.198E-05,0.008
-1.197E-05,0.000
-1.196E-05,0.008
-1.195E-05,0.000
-1.194E-05,0.000
-1.193E-05,0.008
-1.192E-05,0.000
-1.191E-05,0.000
-1.190E-05,0.000
-1.189E-05,0.008
-1.188E-05,0.000
-1.187E-05,0.000
-1.186E-05,0.000
-1.185E-05,0.000
-1.184E-05,0.008
-1.183E-05,0.008
-1.182E-05,0.000
-1.181E-05,0.000
-1.180E-05,0.000
-1.179E-05,0.000
-1.178E-05,0.000
-1.177E-05,0.008
-1.176E-05,0.008
-1.175E-05,0.008
-1.174E-05,0.000
-1.173E-05,0.000
-1.172E-05,0.000
-1.171E-05,0.000
-1.170E-05,0.008
-1.169E-05,0.008
-1.168E-05,0.008
-1.167E-05,0.008
-1.166E-05,0.000
-1.165E-05,0.008
-1.164E-05,0.008
-1.163E-05,0.008
-1.162E-05,0.008
-1.161E-05,0.008
-1.160E-05,0.008
-1.159E-05,0.008
-1.158E-05,0.000
-1.157E-05,0.008
-1.156E-05,0.000
-1.155E-05,0.000
-1.154E-05,0.000
-1.153E-05,0.008
-1.152E-05,0.008
-1.151E-05,0.000
-1.150E-05,0.000
-1.149E-05,0.000
-1.148E-05,0.000
-1.147E-05,0.008
-1.146E-05,0.000
-1.145E-05,0.008
-1.144E-05,0.000
-1.143E-05,0.000
-1.142E-05,0.008
-1.141E-05,0.000
-1.140E-05,0.000
-1.139E-05,0.008
-1.138E-05,0.008
-1.137E-05,0.000
-1.136E-05,0.008
-1.135E-05,0.000
-1.134E-05,0.008
-1.133E-05,0.000
-1.132E-05,-0.008
-1.131E-05,0.000
-1.130E-05,0.008
-1.129E-05,0.000
-1.128E-05,0.008
-1.127E-05,0.000
-1.126E-05,0.008
-1.125E-05,0.008
-1.124E-05,0.008
-1.123E-05,0.008
-1.122E-05,0.008
-1.121E-05,0.008
-1.120E-05,0.008
-1.119E-05,0.000
-1.118E-05,0.008
-1.117E-05,0.008
-1.116E-05,0.008
-1.115E-05,0.000
-1.114E-05,0.000
-1.113E-05,0.000
-1.112E-05,0.000
-1.111E-05,0.000
-1.110E-05,0.000
-1.109E-05,0.000
-1.108E-05,0.008
-1.107E-05,0.000
-1.106E-05,0.008
-1.105E-05,0.008
-1.104E-05,0.008
-1.103E-05,0.000
-1.102E-05,0.000
-1.101E-05,0.000
-1.100E-05,0.000
-1.099E-05,0.008
-1.098E-05,0.008
-1.097E-05,0.000
-1.096E-05,0.000
-1.095E-05,0.000
-1.094E-05,0.008
-1.093E-05,0.008
-1.092E-05,0.000
-1.091E-05,0.000
-1.090E-05,0.008
-1.089E-05,0.008
-1.088E-05,0.008
-1.087E-05,0.000
-1.086E-05,0.000
-1.085E-05,0.008
-1.084E-05,0.000
-1.083E-05,0.000
-1.082E-05,0.008
-1.081E-05,0.000
-1.080E-05,0.000
-1.079E-05,0.000
-1.078E-05,0.000
-1.077E-05,0.000
-1.076E-05,0.000
-1.075E-05,0.000
-1.074E-05,0.008
-1.073E-05,0.000
-1.072E-05,0.000
-1.071E-05,0.008
-1.070E-05,0.000
-1.069E-05,0.000
-1.068E-05,0.000
-1.067E-05,0.000
-1.066E-05,0.000
-1.065E-05,0.008
-1.064E-05,0.008
-1.063E-05,0.000
-1.062E-05,0.000
-1.061E-05,0.016
-1.060E-05,0.008
-1.059E-05,0.008
-1.058E-05,0.000
-1.057E-05,0.008
-1.056E-05,0.016
-1.055E-05,0.000
-1.054E-05,0.000
-1.053E-05,0.000
-1.052E-05,0.000
-1.051E-05,0.000
-1.050E-05,0.000
-1.049E-05,0.000
-1.048E-05,0.000
-1.047E-05,-0.008
-1.046E-05,0.008
-1.045E-05,0.008
-1.044E-05,0.016
-1.043E-05,-0.008
-1.042E-05,0.000
-1.041E-05,0.008
-1.040E-05,0.000
-1.039E-05,0.008
-1.038E-05,0.008
-1.037E-05,0.008
-1.036E-05,0.000
-1.035E-05,0.000
-1.034E-05,0.008
-1.033E-05,0.008
-1.032E-05,0.000
-1.031E-05,0.000
-1.030E-05,0.000
-1.029E-05,0.008
-1.028E-05,0.008
-1.027E-05,0.008
-1.026E-05,0.008
-1.025E-05,0.008
-1.024E-05,0.016
-1.023E-05,0.008
-1.022E-05,0.000
-1.021E-05,0.008
-1.020E-05,0.008
-1.019E-05,0.000
-1.018E-05,0.008
-1.017E-05,0.008
-1.016E-05,0.008
-1.015E-05,0.008
-1.014E-05,0.000
-1.013E-05,0.000
-1.012E-05,0.008
-1.011E-05,0.000
-1.010E-05,0.008
-1.009E-05,0.000
-1.008E-05,0.008
-1.007E-05,0.008
-1.006E-05,0.008
-1.005E-05,0.008
-1.004E-05,0.008
-1.003E-05,0.008
-1.002E-05,-0.008
-1.001E-05,0.000
-1.000E-05,0.000
-9.990E-06,0.000
-9.980E-06,0.000
-9.970E-06,0.008
-9.960E-06,0.008
-9.950E-06,0.000
-9.940E-06,0.008
-9.930E-06,0.000
-9.920E-06,0.008
-9.910E-06,0.000
-9.900E-06,0.000
-9.890E-06,0.008
-9.880E-06,0.000
-9.870E-06,0.008
-9.860E-06,0.000
-9.850E-06,0.008
-9.840E-06,0.016
-9.830E-06,0.008
-9.820E-06,0.008
-9.810E-06,0.008
-9.800E-06,0.000
-9.790E-06,0.000
-9.780E-06,0.000
-9.770E-06,0.008
-9.760E-06,0.000
-9.750E-06,0.008
-9.740E-06,0.000
-9.730E-06,0.000
-9.720E-06,0.000
-9.710E-06,0.000
-9.700E-06,0.008
-9.690E-06,0.000
-9.680E-06,0.008
-9.670E-06,0.008
-9.660E-06,0.008
-9.650E-06,0.008
-9.640E-06,0.008
-9.630E-06,0.000
-9.620E-06,0.000
-9.610E-06,0.000
-9.600E-06,0.016
-9.590E-06,0.008
-9.580E-06,0.000
-9.570E-06,0.000
-9.560E-06,0.008
-9.550E-06,0.000
-9.540E-06,0.000
-9.530E-06,0.008
-9.520E-06,0.008
-9.510E-06,0.008
-9.500E-06,0.008
-9.490E-06,0.000
-9.480E-06,0.000
-9.470E-06,0.000
-9.460E-06,0.008
-9.450E-06,0.000
-9.440E-06,0.000
-9.430E-06,0.000
-9.420E-06,0.008
-9.410E-06,0.000
-9.400E-06,0.008
-9.390E-06,0.000
-9.380E-06,0.000
-9.370E-06,0.008
-9.360E-06,0.000
-9.350E-06,0.000
-9.340E-06,0.008
-9.330E-06,0.008
-9.320E-06,0.008
-9.310E-06,0.008
-9.300E-06,0.008
-9.290E-06,0.000
-9.280E-06,0.008
-9.270E-06,0.008
-9.260E-06,0.000
-9.250E-06,0.016
-9.240E-06,0.000
-9.230E-06,0.008
-9.220E-06,0.000
-9.210E-06,0.008
-9.200E-06,0.008
-9.190E-06,0.000
-9.180E-06,-0.008
-9.170E-06,0.000
-9.160E-06,0.000
-9.150E-06,0.000
-9.140E-06,0.000
-9.130E-06,0.016
-9.120E-06,0.000
-9.110E-06,0.008
-9.100E-06,0.008
-9.090E-06,0.008
-9.080E-06,0.000
-9.070E-06,0.000
-9.060E-06,0.008
-9.050E-06,0.016
-9.040E-06,0.008
-9.030E-06,0.008
-9.020E-06,0.000
-9.010E-06,0.000
-9.000E-06,0.000
-8.990E-06,0.000
-8.980E-06,0.000
-8.970E-06,0.008
-8.960E-06,0.000
-8.950E-06,0.008
-8.940E-06,0.008
-8.930E-06,0.000
-8.920E-06,0.000
-8.910E-06,0.008
-8.900E-06,0.000
-8.890E-06,0.008
-8.880E-06,0.000
-8.870E-06,0.008
-8.860E-06,0.000
-8.850E-06,0.000
-8.840E-06,0.000
-8.830E-06,0.000
-8.820E-06,0.008
-8.810E-06,0.000
-8.800E-06,0.008
-8.790E-06,0.000
-8.780E-06,0.008
-8.770E-06,0.000
-8.760E-06,0.008
-8.750E-06,0.008
-8.740E-06,0.000
-8.730E-06,0.000
-8.720E-06,0.008
-8.710E-06,0.008
-8.700E-06,0.000
-8.690E-06,0.000
-8.680E-06,0.000
-8.670E-06,0.008
-8.660E-06,0.000
-8.650E-06,0.008
-8.640E-06,0.008
-8.630E-06,0.000
-8.620E-06,0.000
-8.610E-06,0.000
-8.600E-06,0.000
-8.590E-06,0.008
-8.580E-06,0.000
-8.570E-06,0.000
-8.560E-06,0.008
-8.550E-06,0.008
-8.540E-06,0.000
-8.530E-06,0.008
-8.520E-06,0.000
-8.510E-06,0.008
-8.500E-06,0.000
-8.490E-06,0.008
-8.480E-06,0.008
-8.470E-06,0.000
-8.460E-06,0.016
-8.450E-06,0.056
-8.440E-06,0.088
-8.430E-06,0.160
-8.420E-06,-0.088
-8.410E-06,-0.136
-8.400E-06,-0.152
-8.390E-06,-0.184
-8.380E-06,-0.232
-8.370E-06,0.240
-8.360E-06,0.008
-8.350E-06,0.280
-8.340E-06,-0.016
-8.330E-06,0.056
-8.320E-06,-0.096
-8.310E-06,-0.144
-8.300E-06,-0.056
-8.290E-06,-0.072
-8.280E-06,0.184
-8.270E-06,0.144
-8.260E-06,0.136
-8.250E-06,-0.048
-8.240E-06,-0.152
-8.230E-06,-0.176
-8.220E-06,-0.112
-8.210E-06,-0.008
-8.200E-06,0.112
-8.190E-06,0.144
-8.180E-06,0.152
-8.170E-06,0.064
-8.160E-06,-0.024
-8.150E-06,-0.104
-8.140E-06,-0.088
-8.130E-06,-0.024
-8.120E-06,0.032
-8.110E-06,0.088
-8.100E-06,0.056
-8.090E-06,0.016
-8.080E-06,-0.064
-8.070E-06,-0.096
-8.060E-06,-0.088
-8.050E-06,-0.024
-8.040E-06,0.048
-8.030E-06,0.088
-8.020E-06,0.096
-8.010E-06,0.048
-8.000E-06,-0.008
-7.990E-06,-0.048
-7.980E-06,-0.056
-7.970E-06,-0.040
-7.960E-06,-0.008
-7.950E-06,0.032
-7.940E-06,0.040
-7.930E-06,0.032
-7.920E-06,0.008
-7.910E-06,-0.024
-7.900E-06,-0.032
-7.890E-06,-0.016
-7.880E-06,-0.008
-7.870E-06,0.032
-7.860E-06,0.048
-7.850E-06,0.056
-7.840E-06,0.040
-7.830E-06,0.016
-7.820E-06,0.000
-7.810E-06,-0.016
-7.800E-06,-0.016
-7.790E-06,0.000
-7.780E-06,0.016
-7.770E-06,0.024
-7.760E-06,0.008
-7.750E-06,0.008
-7.740E-06,0.000
-7.730E-06,-0.008
-7.720E-06,-0.016
-7.710E-06,-0.008
-7.700E-06,0.024
-7.690E-06,0.024
-7.680E-06,0.024
-7.670E-06,0.024
-7.660E-06,0.008
-7.650E-06,-0.008
-7.640E-06,-0.016
-7.630E-06,-0.016
-7.620E-06,-0.008
-7.610E-06,0.008
-7.600E-06,0.016
-7.590E-06,0.008
-7.580E-06,0.008
-7.570E-06,0.008
-7.560E-06,0.008
-7.550E-06,0.000
-7.540E-06,0.016
-7.530E-06,0.016
-7.520E-06,0.024
-7.510E-06,0.024
-7.500E-06,0.016
-7.490E-06,0.016
-7.480E-06,0.000
-7.470E-06,-0.008
-7.460E-06,-0.008
-7.450E-06,-0.008
-7.440E-06,0.000
-7.430E-06,0.016
-7.420E-06,0.008
-7.410E-06,0.008
-7.400E-06,0.000
-7.390E-06,0.000
-7.380E-06,0.000
-7.370E-06,0.016
-7.360E-06,0.016
-7.350E-06,0.024
-7.340E-06,0.024
-7.330E-06,0.016
-7.320E-06,0.008
-7.310E-06,0.000
-7.300E-06,0.008
-7.290E-06,0.016
-7.280E-06,0.016
-7.270E-06,0.016
-7.260E-06,0.016
-7.250E-06,0.000
-7.240E-06,-0.008
-7.230E-06,0.000
-7.220E-06,0.016
-7.210E-06,0.032
-7.200E-06,0.024
-7.190E-06,0.016
-7.180E-06,0.016
-7.170E-06,0.000
-7.160E-06,0.008
-7.150E-06,0.016
-7.140E-06,0.008
-7.130E-06,0.016
-7.120E-06,0.024
-7.110E-06,0.008
-7.100E-06,0.000
-7.090E-06,0.000
-7.080E-06,0.000
-7.070E-06,0.008
-7.060E-06,0.008
-7.050E-06,0.000
-7.040E-06,0.016
-7.030E-06,0.016
-7.020E-06,0.008
-7.010E-06,0.024
-7.000E-06,0.016
-6.990E-06,0.008
-6.980E-06,0.016
-6.970E-06,0.024
-6.960E-06,0.024
-6.950E-06,0.024
-6.940E-06,0.032
-6.930E-06,0.032
-6.920E-06,0.024
-6.910E-06,0.032
-6.900E-06,0.040
-6.890E-06,0.056
-6.880E-06,0.032
-6.870E-06,0.040
-6.860E-06,0.000
-6.850E-06,0.008
-6.840E-06,-0.008
-6.830E-06,0.000
-6.820E-06,-0.008
-6.810E-06,0.016
-6.800E-06,0.024
-6.790E-06,0.032
-6.780E-06,0.040
-6.770E-06,0.024
-6.760E-06,0.024
-6.750E-06,0.008
-6.740E-06,0.016
-6.730E-06,0.032
-6.720E-06,0.032
-6.710E-06,0.056
-6.700E-06,0.032
-6.690E-06,0.056
-6.680E-06,0.016
-6.670E-06,0.016
-6.660E-06,0.016
-6.650E-06,0.016
-6.640E-06,0.016
-6.630E-06,0.016
-6.620E-06,0.008
-6.610E-06,0.024
-6.600E-06,-0.008
-6.590E-06,0.016
-6.580E-06,0.008
-6.570E-06,0.024
-6.560E-06,0.008
-6.550E-06,0.016
-6.540E-06,0.032
-6.530E-06,0.024
-6.520E-06,0.032
-6.510E-06,0.040
-6.500E-06,0.024
-6.490E-06,0.016
-6.480E-06,0.008
-6.470E-06,0.008
-6.460E-06,0.024
-6.450E-06,0.040
-6.440E-06,0.048
-6.430E-06,0.048
-6.420E-06,0.040
-6.410E-06,0.024
-6.400E-06,0.016
-6.390E-06,0.024
-6.380E-06,0.024
-6.370E-06,0.040
-6.360E-06,0.048
-6.350E-06,0.032
-6.340E-06,0.040
-6.330E-06,0.016
-6.320E-06,0.032
-6.310E-06,0.016
-6.300E-06,0.024
-6.290E-06,0.024
-6.280E-06,0.024
-6.270E-06,0.032
-6.260E-06,0.008
-6.250E-06,0.032
-6.240E-06,0.024
-6.230E-06,0.032
-6.220E-06,0.056
-6.210E-06,0.056
-6.200E-06,0.064
-6.190E-06,0.048
-6.180E-06,0.056
-6.170E-06,0.096
-6.160E-06,0.128
-6.150E-06,0.128
-6.140E-06,0.112
-6.130E-06,0.080
-6.120E-06,0.056
-6.110E-06,0.024
-6.100E-06,0.024
-6.090E-06,0.064
-6.080E-06,0.104
-6.070E-06,0.128
-6.060E-06,0.128
-6.050E-06,0.112
-6.040E-06,0.072
-6.030E-06,0.048
-6.020E-06,0.048
-6.010E-06,0.088
-6.000E-06,0.136
-5.990E-06,0.160
-5.980E-06,0.144
-5.970E-06,0.128
-5.960E-06,0.088
-5.950E-06,0.064
-5.940E-06,0.056
-5.930E-06,0.064
-5.920E-06,0.112
-5.910E-06,0.128
-5.900E-06,0.152
-5.890E-06,0.160
-5.880E-06,0.152
-5.870E-06,0.112
-5.860E-06,0.120
-5.850E-06,0.120
-5.840E-06,0.136
-5.830E-06,0.160
-5.820E-06,0.176
-5.810E-06,0.160
-5.800E-06,0.152
-5.790E-06,0.128
-5.780E-06,0.128
-5.770E-06,0.120
-5.760E-06,0.128
-5.750E-06,0.144
-5.740E-06,0.152
-5.730E-06,0.176
-5.720E-06,0.168
-5.710E-06,0.168
-5.700E-06,0.160
-5.690E-06,0.152
-5.680E-06,0.144
-5.670E-06,0.136
-5.660E-06,0.144
-5.650E-06,0.144
-5.640E-06,0.144
-5.630E-06,0.144
-5.620E-06,0.160
-5.610E-06,0.152
-5.600E-06,0.136
-5.590E-06,0.128
-5.580E-06,0.136
-5.570E-06,0.128
-5.560E-06,0.144
-5.550E-06,0.152
-5.540E-06,0.152
-5.530E-06,0.144
-5.520E-06,0.144
-5.510E-06,0.128
-5.500E-06,0.136
-5.490E-06,0.128
-5.480E-06,0.144
-5.470E-06,0.152
-5.460E-06,0.176
-5.450E-06,0.192
-5.440E-06,0.160
-5.430E-06,0.136
-5.420E-06,0.112
-5.410E-06,0.112
-5.400E-06,0.144
-5.390E-06,0.160
-5.380E-06,0.184
-5.370E-06,0.176
-5.360E-06,0.152
-5.350E-06,0.144
-5.340E-06,0.120
-5.330E-06,0.112
-5.320E-06,0.120
-5.310E-06,0.144
-5.300E-06,0.168
-5.290E-06,0.176
-5.280E-06,0.160
-5.270E-06,0.144
-5.260E-06,0.152
-5.250E-06,0.136
-5.240E-06,0.144
-5.230E-06,0.144
-5.220E-06,0.152
-5.210E-06,0.160
-5.200E-06,0.168
-5.190E-06,0.152
-5.180E-06,0.136
-5.170E-06,0.136
-5.160E-06,0.128
-5.150E-06,0.144
-5.140E-06,0.152
-5.130E-06,0.152
-5.120E-06,0.152
-5.110E-06,0.144
-5.100E-06,0.152
-5.090E-06,0.144
-5.080E-06,0.152
-5.070E-06,0.144
-5.060E-06,0.152
-5.050E-06,0.136
-5.040E-06,0.144
-5.030E-06,0.152
-5.020E-06,0.136
-5.010E-06,0.144
-5.000E-06,0.136
-4.990E-06,0.144
-4.980E-06,0.136
-4.970E-06,0.144
-4.960E-06,0.128
-4.950E-06,0.128
-4.940E-06,0.144
-4.930E-06,0.144
-4.920E-06,0.144
-4.910E-06,0.152
-4.900E-06,0.144
-4.890E-06,0.136
-4.880E-06,0.128
-4.870E-06,0.128
-4.860E-06,0.128
-4.850E-06,0.128
-4.840E-06,0.128
-4.830E-06,0.152
-4.820E-06,0.144
-4.810E-06,0.136
-4.800E-06,0.128
-4.790E-06,0.136
-4.780E-06,0.128
-4.770E-06,0.136
-4.760E-06,0.128
-4.750E-06,0.128
-4.740E-06,0.128
-4.730E-06,0.128
-4.720E-06,0.128
-4.710E-06,0.128
-4.700E-06,0.136
-4.690E-06,0.128
-4.680E-06,0.120
-4.670E-06,0.120
-4.660E-06,0.128
-4.650E-06,0.128
-4.640E-06,0.128
-4.630E-06,0.120
-4.620E-06,0.120
-4.610E-06,0.128
-4.600E-06,0.128
-4.590E-06,0.120
-4.580E-06,0.128
-4.570E-06,0.128
-4.560E-06,0.120
-4.550E-06,0.128
-4.540E-06,0.120
-4.530E-06,0.112
-4.520E-06,0.120
-4.510E-06,0.120
-4.500E-06,0.120
-4.490E-06,0.128
-4.480E-06,0.120
-4.470E-06,0.128
-4.460E-06,0.120
-4.450E-06,0.112
-4.440E-06,0.112
-4.430E-06,0.120
-4.420E-06,0.128
-4.410E-06,0.120
-4.400E-06,0.120
-4.390E-06,0.112
-4.380E-06,0.112
-4.370E-06,0.120
-4.360E-06,0.120
-4.350E-06,0.120
-4.340E-06,0.120
-4.330E-06,0.120
-4.320E-06,0.128
-4.310E-06,0.120
-4.300E-06,0.112
-4.290E-06,0.112
-4.280E-06,0.120
-4.270E-06,0.128
-4.260E-06,0.120
-4.250E-06,0.120
-4.240E-06,0.136
-4.230E-06,0.120
-4.220E-06,0.112
-4.210E-06,0.120
-4.200E-06,0.120
-4.190E-06,0.120
-4.180E-06,0.120
-4.170E-06,0.120
-4.160E-06,0.120
-4.150E-06,0.120
-4.140E-06,0.112
-4.130E-06,0.112
-4.120E-06,0.104
-4.110E-06,0.104
-4.100E-06,0.112
-4.090E-06,0.104
-4.080E-06,0.112
-4.070E-06,0.112
-4.060E-06,0.120
-4.050E-06,0.104
-4.040E-06,0.104
-4.030E-06,0.104
-4.020E-06,0.120
-4.010E-06,0.112
-4.000E-06,0.104
-3.990E-06,0.112
-3.980E-06,0.120
-3.970E-06,0.104
-3.960E-06,0.088
-3.950E-06,0.096
-3.940E-06,0.096
-3.930E-06,0.096
-3.920E-06,0.104
-3.910E-06,0.112
-3.900E-06,0.112
-3.890E-06,0.112
-3.880E-06,0.096
-3.870E-06,0.096
-3.860E-06,0.088
-3.850E-06,0.088
-3.840E-06,0.096
-3.830E-06,0.088
-3.820E-06,0.096
-3.810E-06,0.104
-3.800E-06,0.088
-3.790E-06,0.096
-3.780E-06,0.088
-3.770E-06,0.104
-3.760E-06,0.088
-3.750E-06,0.104
-3.740E-06,0.088
-3.730E-06,0.096
-3.720E-06,0.088
-3.710E-06,0.096
-3.700E-06,0.088
-3.690E-06,0.088
-3.680E-06,0.096
-3.670E-06,0.096
-3.660E-06,0.096
-3.650E-06,0.088
-3.640E-06,0.088
-3.630E-06,0.088
-3.620E-06,0.088
-3.610E-06,0.088
-3.600E-06,0.080
-3.590E-06,0.080
-3.580E-06,0.096
-3.570E-06,0.096
-3.560E-06,0.096
-3.550E-06,0.088
-3.540E-06,0.080
-3.530E-06,0.080
-3.520E-06,0.080
-3.510E-06,0.080
-3.500E-06,0.088
-3.490E-06,0.080
-3.480E-06,0.088
-3.470E-06,0.096
-3.460E-06,0.088
-3.450E-06,0.088
-3.440E-06,0.072
-3.430E-06,0.072
-3.420E-06,0.080
-3.410E-06,0.080
-3.400E-06,0.088
-3.390E-06,0.088
-3.380E-06,0.088
-3.370E-06,0.088
-3.360E-06,0.072
-3.350E-06,0.072
-3.340E-06,0.080
-3.330E-06,0.072
-3.320E-06,0.088
-3.310E-06,0.080
-3.300E-06,0.088
-3.290E-06,0.072
-3.280E-06,0.072
-3.270E-06,0.072
-3.260E-06,0.064
-3.250E-06,0.064
-3.240E-06,0.080
-3.230E-06,0.080
-3.220E-06,0.072
-3.210E-06,0.072
-3.200E-06,0.080
-3.190E-06,0.072
-3.180E-06,0.064
-3.170E-06,0.072
-3.160E-06,0.080
-3.150E-06,0.088
-3.140E-06,0.088
-3.130E-06,0.088
-3.120E-06,0.080
-3.110E-06,0.072
-3.100E-06,0.064
-3.090E-06,0.064
-3.080E-06,0.064
-3.070E-06,0.056
-3.060E-06,0.072
-3.050E-06,0.072
-3.040E-06,0.072
-3.030E-06,0.072
-3.020E-06,0.072
-3.010E-06,0.064
-3.000E-06,0.056
-2.990E-06,0.064
-2.980E-06,0.064
-2.970E-06,0.072
-2.960E-06,0.072
-2.950E-06,0.064
-2.940E-06,0.064
-2.930E-06,0.072
-2.920E-06,0.064
-2.910E-06,0.064
-2.900E-06,0.064
-2.890E-06,0.064
-2.880E-06,0.072
-2.870E-06,0.072
-2.860E-06,0.072
-2.850E-06,0.072
-2.840E-06,0.064
-2.830E-06,0.064
-2.820E-06,0.064
-2.810E-06,0.056
-2.800E-06,0.056
-2.790E-06,0.072
-2.780E-06,0.072
-2.770E-06,0.056
-2.760E-06,0.064
-2.750E-06,0.064
-2.740E-06,0.064
-2.730E-06,0.056
-2.720E-06,0.064
-2.710E-06,0.064
-2.700E-06,0.056
-2.690E-06,0.056
-2.680E-06,0.064
-2.670E-06,0.064
-2.660E-06,0.064
-2.650E-06,0.064
-2.640E-06,0.064
-2.630E-06,0.056
-2.620E-06,0.056
-2.610E-06,0.064
-2.600E-06,0.056
-2.590E-06,0.056
-2.580E-06,0.064
-2.570E-06,0.048
-2.560E-06,0.048
-2.550E-06,0.064
-2.540E-06,0.064
-2.530E-06,0.056
-2.520E-06,0.056
-2.510E-06,0.064
-2.500E-06,0.048
-2.490E-06,0.056
-2.480E-06,0.056
-2.470E-06,0.056
-2.460E-06,0.064
-2.450E-06,0.064
-2.440E-06,0.064
-2.430E-06,0.056
-2.420E-06,0.048
-2.410E-06,0.056
-2.400E-06,0.056
-2.390E-06,0.056
-2.380E-06,0.056
-2.370E-06,0.056
-2.360E-06,0.048
-2.350E-06,0.048
-2.340E-06,0.056
-2.330E-06,0.048
-2.320E-06,0.056
-2.310E-06,0.048
-2.300E-06,0.056
-2.290E-06,0.056
-2.280E-06,0.048
-2.270E-06,0.056
-2.260E-06,0.048
-2.250E-06,0.056
-2.240E-06,0.048
-2.230E-06,0.048
-2.220E-06,0.056
-2.210E-06,0.048
-2.200E-06,0.048
-2.190E-06,0.040
-2.180E-06,0.056
-2.170E-06,0.056
-2.160E-06,0.048
-2.150E-06,0.056
-2.140E-06,0.048
-2.130E-06,0.040
-2.120E-06,0.048
-2.110E-06,0.048
-2.100E-06,0.040
-2.090E-06,0.056
-2.080E-06,0.048
-2.070E-06,0.040
-2.060E-06,0.048
-2.050E-06,0.048
-2.040E-06,0.048
-2.030E-06,0.048
-2.020E-06,0.048
-2.010E-06,0.048
-2.000E-06,0.048
-1.990E-06,0.048
-1.980E-06,0.048
-1.970E-06,0.048
-1.960E-06,0.048
-1.950E-06,0.048
-1.940E-06,0.032
-1.930E-06,0.040
-1.920E-06,0.040
-1.910E-06,0.048
-1.900E-06,0.048
-1.890E-06,0.048
-1.880E-06,0.048
-1.870E-06,0.048
-1.860E-06,0.040
-1.850E-06,0.048
-1.840E-06,0.040
-1.830E-06,0.032
-1.820E-06,0.032
-1.810E-06,0.040
-1.800E-06,0.048
-1.790E-06,0.040
-1.780E-06,0.040
-1.770E-06,0.024
-1.760E-06,0.032
-1.750E-06,0.024
-1.740E-06,0.032
-1.730E-06,0.024
-1.720E-06,0.032
-1.710E-06,0.032
-1.700E-06,0.040
-1.690E-06,0.040
-1.680E-06,0.032
-1.670E-06,0.032
-1.660E-06,0.032
-1.650E-06,0.040
-1.640E-06,0.024
-1.630E-06,0.024
-1.620E-06,0.040
-1.610E-06,0.040
-1.600E-06,0.024
-1.590E-06,0.024
-1.580E-06,0.024
-1.570E-06,0.032
-1.560E-06,0.032
-1.550E-06,0.032
-1.540E-06,0.032
-1.530E-06,0.032
-1.520E-06,0.032
-1.510E-06,0.032
-1.500E-06,0.024
-1.490E-06,0.024
-1.480E-06,0.024
-1.470E-06,0.024
-1.460E-06,0.032
-1.450E-06,0.024
-1.440E-06,0.032
-1.430E-06,0.024
-1.420E-06,0.032
-1.410E-06,0.032
-1.400E-06,0.032
-1.390E-06,0.032
-1.380E-06,0.024
-1.370E-06,0.024
-1.360E-06,0.024
-1.350E-06,0.032
-1.340E-06,0.024
-1.330E-06,0.024
-1.320E-06,0.024
-1.310E-06,0.024
-1.300E-06,0.024
-1.290E-06,0.024
-1.280E-06,0.024
-1.270E-06,0.032
-1.260E-06,0.032
-1.250E-06,0.024
-1.240E-06,0.024
-1.230E-06,0.024
-1.220E-06,0.024
-1.210E-06,0.016
-1.200E-06,0.024
-1.190E-06,0.016
-1.180E-06,0.024
-1.170E-06,0.016
-1.160E-06,0.024
-1.150E-06,0.024
-1.140E-06,0.024
-1.130E-06,0.024
-1.120E-06,0.024
-1.110E-06,0.008
-1.100E-06,0.008
-1.090E-06,0.016
-1.080E-06,0.008
-1.070E-06,0.016
-1.060E-06,0.016
-1.050E-06,0.016
-1.040E-06,0.016
-1.030E-06,0.016
-1.020E-06,0.016
-1.010E-06,0.016
-1.000E-06,0.008
-9.900E-07,0.016
-9.800E-07,0.016
-9.700E-07,0.008
-9.600E-07,0.016
-9.500E-07,0.016
-9.400E-07,0.024
-9.300E-07,0.024
-9.200E-07,0.024
-9.100E-07,0.008
-9.000E-07,0.008
-8.900E-07,0.008
-8.800E-07,0.016
-8.700E-07,0.016
-8.600E-07,0.016
-8.500E-07,0.016
-8.400E-07,0.016
-8.300E-07,0.016
-8.200E-07,0.016
-8.100E-07,0.000
-8.000E-07,0.016
-7.900E-07,0.016
-7.800E-07,0.008
-7.700E-07,0.000
-7.600E-07,0.008
-7.500E-07,0.008
-7.400E-07,0.000
-7.300E-07,0.008
-7.200E-07,0.008
-7.100E-07,-0.008
-7.000E-07,0.016
-6.900E-07,0.008
-6.800E-07,0.000
-6.700E-07,0.008
-6.600E-07,0.008
-6.500E-07,0.000
-6.400E-07,0.000
-6.300E-07,0.000
-6.200E-07,0.000
-6.100E-07,0.008
-6.000E-07,0.000
-5.900E-07,0.000
-5.800E-07,0.016
-5.700E-07,0.008
-5.600E-07,0.008
-5.500E-07,0.000
-5.400E-07,0.000
-5.300E-07,-0.008
-5.200E-07,-0.008
-5.100E-07,0.000
-5.000E-07,0.008
-4.900E-07,0.000
-4.800E-07,-0.008
-4.700E-07,-0.008
