mediciones/curva carac 8-28 limpias/-13/WaveData65688.csv

#timebase=2000000(ps)
,#voltbase=500000(mv/100)
#size=4000
-8.350E-06,0.060
-8.340E-06,0.040
-8.330E-06,0.000
-8.320E-06,0.020
-8.310E-06,0.040
-8.300E-06,0.000
-8.290E-06,0.020
-8.280E-06,0.040
-8.270E-06,0.040
-8.260E-06,0.060
-8.250E-06,0.000
-8.240E-06,0.060
-8.230E-06,0.020
-8.220E-06,0.020
-8.210E-06,0.080
-8.200E-06,0.040
-8.190E-06,0.020
-8.180E-06,0.040
-8.170E-06,0.080
-8.160E-06,0.040
-8.150E-06,0.000
-8.140E-06,0.040
-8.130E-06,0.040
-8.120E-06,0.020
-8.110E-06,0.040
-8.100E-06,0.060
-8.090E-06,0.040
-8.080E-06,0.000
-8.070E-06,0.020
-8.060E-06,0.040
-8.050E-06,0.040
-8.040E-06,0.020
-8.030E-06,0.040
-8.020E-06,0.040
-8.010E-06,0.060
-8.000E-06,0.040
-7.990E-06,0.020
-7.980E-06,0.020
-7.970E-06,0.040
-7.960E-06,0.020
-7.950E-06,0.040
-7.940E-06,0.000
-7.930E-06,0.020
-7.920E-06,0.000
-7.910E-06,0.040
-7.900E-06,0.040
-7.890E-06,0.080
-7.880E-06,0.020
-7.870E-06,0.000
-7.860E-06,0.020
-7.850E-06,0.060
-7.840E-06,0.020
-7.830E-06,0.000
-7.820E-06,0.060
-7.810E-06,0.040
-7.800E-06,0.020
-7.790E-06,0.060
-7.780E-06,0.020
-7.770E-06,0.040
-7.760E-06,0.060
-7.750E-06,0.020
-7.740E-06,0.040
-7.730E-06,0.060
-7.720E-06,0.020
-7.710E-06,0.040
-7.700E-06,0.020
-7.690E-06,0.040
-7.680E-06,0.020
-7.670E-06,-0.020
-7.660E-06,0.060
-7.650E-06,0.000
-7.640E-06,0.040
-7.630E-06,0.040
-7.620E-06,0.020
-7.610E-06,0.020
-7.600E-06,0.020
-7.590E-06,0.040
-7.580E-06,0.020
-7.570E-06,0.040
-7.560E-06,0.040
-7.550E-06,0.040
-7.540E-06,0.020
-7.530E-06,0.060
-7.520E-06,0.040
-7.510E-06,0.020
-7.500E-06,0.040
-7.490E-06,0.020
-7.480E-06,0.040
-7.470E-06,0.060
-7.460E-06,0.040
-7.450E-06,0.060
-7.440E-06,0.060
-7.430E-06,0.040
-7.420E-06,0.040
-7.410E-06,0.060
-7.400E-06,0.060
-7.390E-06,0.080
-7.380E-06,0.040
-7.370E-06,0.020
-7.360E-06,0.040
-7.350E-06,0.000
-7.340E-06,0.060
-7.330E-06,0.080
-7.320E-06,0.080
-7.310E-06,0.000
-7.300E-06,0.040
-7.290E-06,0.040
-7.280E-06,0.040
-7.270E-06,0.040
-7.260E-06,0.060
-7.250E-06,0.000
-7.240E-06,0.040
-7.230E-06,0.040
-7.220E-06,0.020
-7.210E-06,0.040
-7.200E-06,0.040
-7.190E-06,0.040
-7.180E-06,0.020
-7.170E-06,0.020
-7.160E-06,0.040
-7.150E-06,0.060
-7.140E-06,0.020
-7.130E-06,0.040
-7.120E-06,0.020
-7.110E-06,0.020
-7.100E-06,0.040
-7.090E-06,0.040
-7.080E-06,0.060
-7.070E-06,0.040
-7.060E-06,0.060
-7.050E-06,0.080
-7.040E-06,0.060
-7.030E-06,0.060
-7.020E-06,0.000
-7.010E-06,0.060
-7.000E-06,0.040
-6.990E-06,0.060
-6.980E-06,0.060
-6.970E-06,0.040
-6.960E-06,0.020
-6.950E-06,0.040
-6.940E-06,0.040
-6.930E-06,0.060
-6.920E-06,0.000
-6.910E-06,0.020
-6.900E-06,0.000
-6.890E-06,0.000
-6.880E-06,0.040
-6.870E-06,0.040
-6.860E-06,0.060
-6.850E-06,0.040
-6.840E-06,0.020
-6.830E-06,-0.020
-6.820E-06,0.040
-6.810E-06,0.060
-6.800E-06,0.040
-6.790E-06,0.060
-6.780E-06,0.000
-6.770E-06,0.020
-6.760E-06,0.040
-6.750E-06,0.020
-6.740E-06,0.060
-6.730E-06,0.020
-6.720E-06,0.040
-6.710E-06,0.080
-6.700E-06,0.000
-6.690E-06,0.040
-6.680E-06,0.060
-6.670E-06,0.040
-6.660E-06,0.020
-6.650E-06,0.040
-6.640E-06,0.060
-6.630E-06,0.040
-6.620E-06,0.020
-6.610E-06,0.040
-6.600E-06,0.060
-6.590E-06,0.060
-6.580E-06,0.040
-6.570E-06,0.080
-6.560E-06,0.040
-6.550E-06,0.040
-6.540E-06,0.020
-6.530E-06,0.040
-6.520E-06,0.020
-6.510E-06,0.040
-6.500E-06,0.040
-6.490E-06,0.040
-6.480E-06,0.060
-6.470E-06,0.020
-6.460E-06,0.040
-6.450E-06,0.040
-6.440E-06,0.040
-6.430E-06,0.020
-6.420E-06,0.040
-6.410E-06,0.020
-6.400E-06,0.020
-6.390E-06,0.060
-6.380E-06,0.040
-6.370E-06,0.060
-6.360E-06,0.040
-6.350E-06,0.040
-6.340E-06,0.020
-6.330E-06,0.020
-6.320E-06,0.040
-6.310E-06,0.060
-6.300E-06,0.000
-6.290E-06,0.060
-6.280E-06,0.000
-6.270E-06,0.040
-6.260E-06,0.020
-6.250E-06,0.040
-6.240E-06,0.040
-6.230E-06,0.040
-6.220E-06,0.060
-6.210E-06,0.020
-6.200E-06,0.060
-6.190E-06,0.060
-6.180E-06,0.020
-6.170E-06,0.020
-6.160E-06,0.040
-6.150E-06,0.060
-6.140E-06,0.020
-6.130E-06,0.020
-6.120E-06,0.020
-6.110E-06,0.040
-6.100E-06,0.040
-6.090E-06,0.020
-6.080E-06,0.060
-6.070E-06,0.020
-6.060E-06,0.040
-6.050E-06,0.080
-6.040E-06,0.060
-6.030E-06,0.060
-6.020E-06,0.020
-6.010E-06,0.000
-6.000E-06,0.040
-5.990E-06,0.020
-5.980E-06,0.040
-5.970E-06,0.060
-5.960E-06,0.040
-5.950E-06,0.040
-5.940E-06,0.040
-5.930E-06,0.020
-5.920E-06,0.060
-5.910E-06,0.020
-5.900E-06,0.020
-5.890E-06,0.040
-5.880E-06,0.020
-5.870E-06,0.000
-5.860E-06,0.040
-5.850E-06,0.000
-5.840E-06,0.040
-5.830E-06,0.020
-5.820E-06,0.060
-5.810E-06,0.020
-5.800E-06,0.040
-5.790E-06,0.000
-5.780E-06,0.040
-5.770E-06,0.060
-5.760E-06,0.040
-5.750E-06,0.040
-5.740E-06,0.040
-5.730E-06,0.020
-5.720E-06,0.040
-5.710E-06,0.000
-5.700E-06,0.060
-5.690E-06,0.040
-5.680E-06,0.040
-5.670E-06,0.060
-5.660E-06,0.040
-5.650E-06,0.000
-5.640E-06,0.020
-5.630E-06,0.040
-5.620E-06,0.060
-5.610E-06,0.000
-5.600E-06,0.060
-5.590E-06,0.020
-5.580E-06,0.000
-5.570E-06,0.060
-5.560E-06,0.020
-5.550E-06,0.020
-5.540E-06,0.040
-5.530E-06,0.040
-5.520E-06,0.060
-5.510E-06,0.040
-5.500E-06,0.040
-5.490E-06,0.040
-5.480E-06,0.040
-5.470E-06,0.060
-5.460E-06,0.020
-5.450E-06,0.040
-5.440E-06,0.040
-5.430E-06,0.060
-5.420E-06,0.060
-5.410E-06,0.000
-5.400E-06,0.040
-5.390E-06,0.040
-5.380E-06,0.060
-5.370E-06,0.040
-5.360E-06,0.040
-5.350E-06,0.060
-5.340E-06,0.040
-5.330E-06,0.020
-5.320E-06,0.040
-5.310E-06,0.060
-5.300E-06,0.020
-5.290E-06,0.040
-5.280E-06,0.060
-5.270E-06,0.060
-5.260E-06,0.020
-5.250E-06,0.020
-5.240E-06,0.020
-5.230E-06,0.060
-5.220E-06,0.020
-5.210E-06,0.040
-5.200E-06,0.040
-5.190E-06,0.020
-5.180E-06,0.060
-5.170E-06,0.060
-5.160E-06,0.040
-5.150E-06,0.060
-5.140E-06,0.060
-5.130E-06,0.020
-5.120E-06,0.040
-5.110E-06,0.080
-5.100E-06,0.040
-5.090E-06,0.060
-5.080E-06,0.020
-5.070E-06,0.040
-5.060E-06,0.060
-5.050E-06,0.040
-5.040E-06,0.020
-5.030E-06,0.020
-5.020E-06,0.080
-5.010E-06,0.040
-5.000E-06,0.060
-4.990E-06,0.040
-4.980E-06,0.020
-4.970E-06,0.040
-4.960E-06,0.040
-4.950E-06,0.080
-4.940E-06,0.040
-4.930E-06,0.040
-4.920E-06,0.020
-4.910E-06,0.060
-4.900E-06,0.060
-4.890E-06,0.060
-4.880E-06,0.060
-4.870E-06,0.040
-4.860E-06,0.040
-4.850E-06,0.060
-4.840E-06,0.060
-4.830E-06,0.040
-4.820E-06,0.040
-4.810E-06,0.020
-4.800E-06,0.040
-4.790E-06,0.040
-4.780E-06,0.040
-4.770E-06,0.020
-4.760E-06,0.080
-4.750E-06,0.040
-4.740E-06,-0.020
-4.730E-06,0.040
-4.720E-06,0.040
-4.710E-06,0.040
-4.700E-06,0.060
-4.690E-06,0.020
-4.680E-06,0.040
-4.670E-06,0.020
-4.660E-06,0.060
-4.650E-06,0.040
-4.640E-06,0.040
-4.630E-06,0.040
-4.620E-06,0.020
-4.610E-06,0.060
-4.600E-06,-0.020
-4.590E-06,0.020
-4.580E-06,0.060
-4.570E-06,0.040
-4.560E-06,0.000
-4.550E-06,0.060
-4.540E-06,0.040
-4.530E-06,0.040
-4.520E-06,0.040
-4.510E-06,0.060
-4.500E-06,0.060
-4.490E-06,0.040
-4.480E-06,0.040
-4.470E-06,0.020
-4.460E-06,0.060
-4.450E-06,0.040
-4.440E-06,0.020
-4.430E-06,0.000
-4.420E-06,0.040
-4.410E-06,0.060
-4.400E-06,0.020
-4.390E-06,0.000
-4.380E-06,0.020
-4.370E-06,0.080
-4.360E-06,0.040
-4.350E-06,0.040
-4.340E-06,0.080
-4.330E-06,0.020
-4.320E-06,0.060
-4.310E-06,0.020
-4.300E-06,0.040
-4.290E-06,0.040
-4.280E-06,0.060
-4.270E-06,0.060
-4.260E-06,0.060
-4.250E-06,0.060
-4.240E-06,0.020
-4.230E-06,0.000
-4.220E-06,0.040
-4.210E-06,0.020
-4.200E-06,0.040
-4.190E-06,0.000
-4.180E-06,0.040
-4.170E-06,0.060
-4.160E-06,0.020
-4.150E-06,0.020
-4.140E-06,0.040
-4.130E-06,0.020
-4.120E-06,0.020
-4.110E-06,0.040
-4.100E-06,0.060
-4.090E-06,0.040
-4.080E-06,0.040
-4.070E-06,0.060
-4.060E-06,0.040
-4.050E-06,0.020
-4.040E-06,0.040
-4.030E-06,0.000
-4.020E-06,0.020
-4.010E-06,0.060
-4.000E-06,0.020
-3.990E-06,0.040
-3.980E-06,0.020
-3.970E-06,0.040
-3.960E-06,0.040
-3.950E-06,0.040
-3.940E-06,0.060
-3.930E-06,0.040
-3.920E-06,0.020
-3.910E-06,0.000
-3.900E-06,0.020
-3.890E-06,0.040
-3.880E-06,0.060
-3.870E-06,0.020
-3.860E-06,0.060
-3.850E-06,0.080
-3.840E-06,0.060
-3.830E-06,0.000
-3.820E-06,0.040
-3.810E-06,0.000
-3.800E-06,0.060
-3.790E-06,0.040
-3.780E-06,0.020
-3.770E-06,0.020
-3.760E-06,0.020
-3.750E-06,0.060
-3.740E-06,0.040
-3.730E-06,0.040
-3.720E-06,0.020
-3.710E-06,0.040
-3.700E-06,0.020
-3.690E-06,0.040
-3.680E-06,0.060
-3.670E-06,0.020
-3.660E-06,0.020
-3.650E-06,0.040
-3.640E-06,0.080
-3.630E-06,0.000
-3.620E-06,0.040
-3.610E-06,0.020
-3.600E-06,0.080
-3.590E-06,0.040
-3.580E-06,0.040
-3.570E-06,0.040
-3.560E-06,0.020
-3.550E-06,0.060
-3.540E-06,0.020
-3.530E-06,0.040
-3.520E-06,0.080
-3.510E-06,0.040
-3.500E-06,0.040
-3.490E-06,0.020
-3.480E-06,0.080
-3.470E-06,0.040
-3.460E-06,0.040
-3.450E-06,0.060
-3.440E-06,0.020
-3.430E-06,0.020
-3.420E-06,0.040
-3.410E-06,0.040
-3.400E-06,0.060
-3.390E-06,0.040
-3.380E-06,0.020
-3.370E-06,0.040
-3.360E-06,0.040
-3.350E-06,0.040
-3.340E-06,0.080
-3.330E-06,0.040
-3.320E-06,0.020
-3.310E-06,0.040
-3.300E-06,0.040
-3.290E-06,0.020
-3.280E-06,0.040
-3.270E-06,0.020
-3.260E-06,0.040
-3.250E-06,0.020
-3.240E-06,0.040
-3.230E-06,0.020
-3.220E-06,0.020
-3.210E-06,0.040
-3.200E-06,0.020
-3.190E-06,0.040
-3.180E-06,0.040
-3.170E-06,0.040
-3.160E-06,0.020
-3.150E-06,0.060
-3.140E-06,0.020
-3.130E-06,0.020
-3.120E-06,0.040
-3.110E-06,0.020
-3.100E-06,0.020
-3.090E-06,0.060
-3.080E-06,0.020
-3.070E-06,0.020
-3.060E-06,0.040
-3.050E-06,0.040
-3.040E-06,0.040
-3.030E-06,0.040
-3.020E-06,0.040
-3.010E-06,0.040
-3.000E-06,0.060
-2.990E-06,0.040
-2.980E-06,0.040
-2.970E-06,0.040
-2.960E-06,0.040
-2.950E-06,0.080
-2.940E-06,0.040
-2.930E-06,0.040
-2.920E-06,0.040
-2.910E-06,0.020
-2.900E-06,0.040
-2.890E-06,0.000
-2.880E-06,0.060
-2.870E-06,0.020
-2.860E-06,0.040
-2.850E-06,0.020
-2.840E-06,0.020
-2.830E-06,0.000
-2.820E-06,0.060
-2.810E-06,0.040
-2.800E-06,0.060
-2.790E-06,0.060
-2.780E-06,0.000
-2.770E-06,0.000
-2.760E-06,0.040
-2.750E-06,-0.020
-2.740E-06,0.040
-2.730E-06,0.060
-2.720E-06,0.060
-2.710E-06,0.020
-2.700E-06,0.040
-2.690E-06,0.020
-2.680E-06,0.080
-2.670E-06,0.020
-2.660E-06,0.040
-2.650E-06,0.040
-2.640E-06,0.060
-2.630E-06,0.040
-2.620E-06,0.000
-2.610E-06,0.040
-2.600E-06,0.060
-2.590E-06,0.060
-2.580E-06,0.040
-2.570E-06,0.020
-2.560E-06,0.020
-2.550E-06,0.060
-2.540E-06,0.060
-2.530E-06,0.060
-2.520E-06,0.000
-2.510E-06,0.020
-2.500E-06,0.040
-2.490E-06,0.000
-2.480E-06,0.040
-2.470E-06,0.020
-2.460E-06,0.040
-2.450E-06,0.020
-2.440E-06,0.020
-2.430E-06,0.040
-2.420E-06,0.060
-2.410E-06,0.020
-2.400E-06,0.040
-2.390E-06,0.040
-2.380E-06,0.020
-2.370E-06,0.040
-2.360E-06,0.040
-2.350E-06,0.020
-2.340E-06,0.040
-2.330E-06,0.020
-2.320E-06,0.040
-2.310E-06,0.060
-2.300E-06,0.040
-2.290E-06,0.020
-2.280E-06,0.040
-2.270E-06,0.020
-2.260E-06,0.000
-2.250E-06,0.040
-2.240E-06,0.020
-2.230E-06,0.020
-2.220E-06,0.040
-2.210E-06,0.040
-2.200E-06,0.040
-2.190E-06,0.060
-2.180E-06,0.020
-2.170E-06,0.020
-2.160E-06,0.060
-2.150E-06,0.040
-2.140E-06,0.040
-2.130E-06,0.060
-2.120E-06,0.020
-2.110E-06,0.060
-2.100E-06,0.020
-2.090E-06,0.040
-2.080E-06,0.040
-2.070E-06,0.020
-2.060E-06,0.020
-2.050E-06,0.020
-2.040E-06,0.040
-2.030E-06,0.020
-2.020E-06,0.020
-2.010E-06,0.020
-2.000E-06,0.040
-1.990E-06,0.020
-1.980E-06,0.040
-1.970E-06,0.020
-1.960E-06,-0.040
-1.950E-06,-0.360
-1.940E-06,-1.080
-1.930E-06,-2.060
-1.920E-06,-3.060
-1.910E-06,-3.340
-1.900E-06,-3.320
-1.890E-06,-3.340
-1.880E-06,-2.600
-1.870E-06,-1.240
-1.860E-06,0.500
-1.850E-06,2.080
-1.840E-06,2.060
-1.830E-06,2.080
-1.820E-06,2.080
-1.810E-06,2.100
-1.800E-06,2.080
-1.790E-06,2.060
-1.780E-06,2.080
-1.770E-06,1.940
-1.760E-06,0.960
-1.750E-06,-0.020
-1.740E-06,-0.540
-1.730E-06,-0.820
-1.720E-06,-0.820
-1.710E-06,-0.700
-1.700E-06,-0.680
-1.690E-06,-0.640
-1.680E-06,-0.860
-1.670E-06,-1.240
-1.660E-06,-1.740
-1.650E-06,-2.200
-1.640E-06,-2.620
-1.630E-06,-2.800
-1.620E-06,-2.740
-1.610E-06,-2.440
-1.600E-06,-1.920
-1.590E-06,-1.020
-1.580E-06,-0.220
-1.570E-06,0.660
-1.560E-06,1.380
-1.550E-06,2.020
-1.540E-06,2.080
-1.530E-06,2.100
-1.520E-06,2.040
-1.510E-06,1.560
-1.500E-06,0.980
-1.490E-06,0.380
-1.480E-06,-0.200
-1.470E-06,-0.720
-1.460E-06,-1.100
-1.450E-06,-1.260
-1.440E-06,-1.280
-1.430E-06,-1.380
-1.420E-06,-1.180
-1.410E-06,-1.000
-1.400E-06,-0.720
-1.390E-06,-0.500
-1.380E-06,-0.180
-1.370E-06,0.160
-1.360E-06,0.500
-1.350E-06,0.740
-1.340E-06,1.020
-1.330E-06,1.180
-1.320E-06,1.360
-1.310E-06,1.360
-1.300E-06,1.200
-1.290E-06,1.260
-1.280E-06,1.000
-1.270E-06,1.020
-1.260E-06,0.620
-1.250E-06,0.580
-1.240E-06,0.120
-1.230E-06,0.080
-1.220E-06,-0.380
-1.210E-06,-0.420
-1.200E-06,-0.620
-1.190E-06,-0.680
-1.180E-06,-0.780
-1.170E-06,-0.900
-1.160E-06,-0.940
-1.150E-06,-1.000
-1.140E-06,-0.920
-1.130E-06,-0.760
-1.120E-06,-0.520
-1.110E-06,-0.340
-1.100E-06,0.080
-1.090E-06,0.200
-1.080E-06,0.720
-1.070E-06,0.720
-1.060E-06,1.100
-1.050E-06,0.880
-1.040E-06,1.140
-1.030E-06,0.720
-1.020E-06,0.680
-1.010E-06,0.380
-1.000E-06,0.080
-9.900E-07,-0.320
-9.800E-07,-0.460
-9.700E-07,-0.840
-9.600E-07,-0.780
-9.500E-07,-1.080
-9.400E-07,-0.740
-9.300E-07,-1.040
-9.200E-07,-0.560
-9.100E-07,-0.680
-9.000E-07,-0.420
-8.900E-07,-0.360
-8.800E-07,-0.200
-8.700E-07,-0.180
-8.600E-07,-0.200
-8.500E-07,-0.260
-8.400E-07,-0.160
-8.300E-07,-0.180
-8.200E-07,-0.140
-8.100E-07,-0.260
-8.000E-07,-0.200
-7.900E-07,-0.160
-7.800E-07,-0.140
-7.700E-07,0.180
-7.600E-07,0.040
-7.500E-07,0.360
-7.400E-07,0.060
-7.300E-07,0.080
-7.200E-07,-0.020
-7.100E-07,-0.160
-7.000E-07,-0.060
-6.900E-07,-0.320
-6.800E-07,-0.240
-6.700E-07,-0.460
-6.600E-07,-0.380
-6.500E-07,-0.600
-6.400E-07,-0.340
-6.300E-07,-0.540
-6.200E-07,-0.240
-6.100E-07,-0.320
-6.000E-07,-0.320
-5.900E-07,-0.120
-5.800E-07,-0.420
-5.700E-07,-0.300
-5.600E-07,-0.440
-5.500E-07,-0.480
-5.400E-07,-0.100
-5.300E-07,-0.440
-5.200E-07,0.000
-5.100E-07,-0.260
-5.000E-07,-0.060
-4.900E-07,0.000
-4.800E-07,-0.200
-4.700E-07,-0.260
-4.600E-07,-0.280
-4.500E-07,-0.600
-4.400E-07,-0.360
-4.300E-07,-0.700
-4.200E-07,-0.280
-4.100E-07,-0.720
-4.000E-07,-0.160
-3.900E-07,-0.500
-3.800E-07,-0.260
-3.700E-07,-0.280
-3.600E-07,-0.220
-3.500E-07,-0.040
-3.400E-07,-0.080
-3.300E-07,-0.340
-3.200E-07,-0.620
-3.100E-07,-0.360
-3.000E-07,-0.320
-2.900E-07,-0.140
-2.800E-07,-0.180
-2.700E-07,-0.940
-2.600E-07,-0.700
-2.500E-07,-1.220
-2.400E-07,-1.160
-2.300E-07,-1.460
-2.200E-07,-1.240
-2.100E-07,-1.280
-2.000E-07,-0.780
-1.900E-07,-0.560
-1.800E-07,-0.460
-1.700E-07,-0.420
-1.600E-07,-0.560
-1.500E-07,-0.620
-1.400E-07,-0.620
-1.300E-07,-0.600
-1.200E-07,-0.640
-1.100E-07,-0.220
-1.000E-07,-0.420
-9.000E-08,-0.340
-8.000E-08,-0.860
-7.000E-08,0.240
-6.000E-08,0.220
-5.000E-08,1.060
-4.000E-08,2.080
-3.000E-08,1.520
-2.000E-08,1.040
-1.000E-08,0.100
0.000E+00,-0.900
1.000E-08,-0.720
2.000E-08,-2.040
3.000E-08,-2.320
4.000E-08,-3.260
5.000E-08,-3.340
6.000E-08,-3.340
7.000E-08,-3.320
8.000E-08,-3.340
9.000E-08,-3.340
1.000E-07,-3.340
1.100E-07,-3.340
1.200E-07,-2.740
1.300E-07,-2.200
1.400E-07,-1.480
1.500E-07,-1.060
1.600E-07,-0.580
1.700E-07,-0.180
1.800E-07,0.280
1.900E-07,0.940
2.000E-07,1.420
2.100E-07,1.880
2.200E-07,2.060
2.300E-07,2.080
2.400E-07,2.100
2.500E-07,2.080
2.600E-07,2.100
2.700E-07,2.080
2.800E-07,2.080
2.900E-07,2.080
3.000E-07,1.840
3.100E-07,0.460
3.200E-07,-0.340
3.300E-07,-2.500
3.400E-07,-3.340
3.500E-07,-3.340
3.600E-07,-3.340
3.700E-07,-3.340
3.800E-07,-3.340
3.900E-07,-3.360
4.000E-07,-3.020
4.100E-07,-1.940
4.200E-07,-1.000
4.300E-07,-0.160
4.400E-07,0.280
4.500E-07,0.880
4.600E-07,1.180
4.700E-07,1.480
4.800E-07,1.560
4.900E-07,1.500
5.000E-07,1.300
5.100E-07,0.840
5.200E-07,0.360
5.300E-07,-0.120
5.400E-07,-0.440
5.500E-07,-0.600
5.600E-07,-0.760
5.700E-07,-0.820
5.800E-07,-0.960
5.900E-07,-0.980
6.000E-07,-1.520
6.100E-07,-1.860
6.200E-07,-2.220
6.300E-07,-2.220
6.400E-07,-1.540
6.500E-07,-1.200
6.600E-07,-0.740
6.700E-07,-1.660
6.800E-07,-2.280
6.900E-07,-3.020
7.000E-07,-3.200
7.100E-07,-2.720
7.200E-07,-1.940
7.300E-07,-0.980
7.400E-07,-0.660
7.500E-07,-0.500
7.600E-07,-0.840
7.700E-07,-1.180
7.800E-07,-1.540
7.900E-07,-1.720
8.000E-07,-1.840
8.100E-07,-2.140
8.200E-07,-2.460
8.300E-07,-2.800
8.400E-07,-2.960
8.500E-07,-2.960
8.600E-07,-2.760
8.700E-07,-2.260
8.800E-07,-1.720
8.900E-07,-1.040
9.000E-07,-0.340
9.100E-07,0.280
9.200E-07,0.580
9.300E-07,0.800
9.400E-07,0.340
9.500E-07,-0.380
9.600E-07,-1.080
9.700E-07,-1.340
9.800E-07,-1.240
9.900E-07,-0.980
1.000E-06,-0.640
1.010E-06,-0.060
1.020E-06,0.040
1.030E-06,-0.120
1.040E-06,-0.420
1.050E-06,-0.900
1.060E-06,-1.040
1.070E-06,-1.640
1.080E-06,-2.220
1.090E-06,-2.760
1.100E-06,-3.340
1.110E-06,-3.340
1.120E-06,-3.360
1.130E-06,-3.360
1.140E-06,-3.340
1.150E-06,-3.340
1.160E-06,-2.900
1.170E-06,-2.560
1.180E-06,-2.060
1.190E-06,-1.560
1.200E-06,-1.060
1.210E-06,-0.440
1.220E-06,0.200
1.230E-06,0.640
1.240E-06,0.860
1.250E-06,0.880
1.260E-06,1.080
1.270E-06,0.920
1.280E-06,0.820
1.290E-06,0.480
1.300E-06,0.540
1.310E-06,0.360
1.320E-06,0.320
1.330E-06,0.340
1.340E-06,0.240
1.350E-06,0.240
1.360E-06,0.080
1.370E-06,-0.180
1.380E-06,-0.480
1.390E-06,-0.900
1.400E-06,-1.240
1.410E-06,-1.700
1.420E-06,-2.040
1.430E-06,-2.260
1.440E-06,-2.360
1.450E-06,-2.360
1.460E-06,-2.300
1.470E-06,-2.200
1.480E-06,-2.020
1.490E-06,-1.940
1.500E-06,-1.820
1.510E-06,-1.780
1.520E-06,-1.760
1.530E-06,-1.780
1.540E-06,-1.940
1.550E-06,-2.080
1.560E-06,-2.300
1.570E-06,-2.460
1.580E-06,-2.540
1.590E-06,-2.600
1.600E-06,-2.640
1.610E-06,-2.660
1.620E-06,-2.580
1.630E-06,-2.480
1.640E-06,-2.300
1.650E-06,-2.080
1.660E-06,-1.960
1.670E-06,-1.620
1.680E-06,-1.500
1.690E-06,-1.400
1.700E-06,-1.200
1.710E-06,-1.180
1.720E-06,-1.000
1.730E-06,-0.940
1.740E-06,-0.800
1.750E-06,-0.600
1.760E-06,-0.500
1.770E-06,-0.280
1.780E-06,-0.160
1.790E-06,0.020
1.800E-06,0.160
1.810E-06,0.280
1.820E-06,0.340
1.830E-06,0.360
1.840E-06,0.220
1.850E-06,0.340
1.860E-06,0.060
1.870E-06,-0.060
1.880E-06,-0.340
1.890E-06,-0.320
1.900E-06,-0.480
1.910E-06,-0.580
1.920E-06,-0.520
1.930E-06,-0.540
1.940E-06,-0.440
1.950E-06,-0.440
1.960E-06,-0.280
1.970E-06,-0.180
1.980E-06,-0.200
1.990E-06,-0.040
2.000E-06,-0.140
2.010E-06,-0.080
2.020E-06,-0.040
2.030E-06,-0.140
2.040E-06,-0.060
2.050E-06,-0.080
2.060E-06,-0.100
2.070E-06,-0.040
2.080E-06,0.100
2.090E-06,0.040
2.100E-06,0.060
2.110E-06,0.060
2.120E-06,0.200
2.130E-06,0.040
2.140E-06,0.120
2.150E-06,-0.080
2.160E-06,-0.040
2.170E-06,-0.140
2.180E-06,-0.280
2.190E-06,-0.260
2.200E-06,-0.240
2.210E-06,-0.360
2.220E-06,-0.320
2.230E-06,-0.360
2.240E-06,-0.180
2.250E-06,-0.300
2.260E-06,-0.200
2.270E-06,-0.260
2.280E-06,-0.100
2.290E-06,-0.120
2.300E-06,-0.160
2.310E-06,-0.080
2.320E-06,0.020
2.330E-06,0.000
2.340E-06,-0.160
2.350E-06,-0.060
2.360E-06,0.120
2.370E-06,-0.020
2.380E-06,0.120
2.390E-06,0.060
2.400E-06,0.260
2.410E-06,0.220
2.420E-06,0.160
2.430E-06,0.280
2.440E-06,0.180
2.450E-06,0.200
2.460E-06,0.160
2.470E-06,0.180
2.480E-06,0.220
2.490E-06,0.100
2.500E-06,0.140
2.510E-06,0.140
2.520E-06,0.180
2.530E-06,0.160
2.540E-06,0.120
2.550E-06,0.160
2.560E-06,0.040
2.570E-06,0.160
2.580E-06,0.060
2.590E-06,0.040
2.600E-06,0.180
2.610E-06,0.020
2.620E-06,0.080
2.630E-06,0.080
2.640E-06,0.060
2.650E-06,0.080
2.660E-06,0.000
2.670E-06,0.080
2.680E-06,0.060
2.690E-06,0.180
2.700E-06,0.040
2.710E-06,0.000
2.720E-06,-0.060
2.730E-06,0.100
2.740E-06,-0.020
2.750E-06,0.120
2.760E-06,-0.060
2.770E-06,0.120
2.780E-06,0.100
2.790E-06,0.080
2.800E-06,0.220
2.810E-06,0.120
2.820E-06,0.220
2.830E-06,0.180
2.840E-06,0.280
2.850E-06,0.300
2.860E-06,0.300
2.870E-06,0.320
2.880E-06,0.360
2.890E-06,0.360
2.900E-06,0.340
2.910E-06,0.360
2.920E-06,0.400
2.930E-06,0.440
2.940E-06,0.480
2.950E-06,0.420
2.960E-06,0.420
2.970E-06,0.420
2.980E-06,0.420
2.990E-06,0.380
3.000E-06,0.240
3.010E-06,0.400
3.020E-06,0.220
3.030E-06,0.300
3.040E-06,0.280
3.050E-06,0.320
3.060E-06,0.320
3.070E-06,0.260
3.080E-06,0.320
3.090E-06,0.360
3.100E-06,0.360
3.110E-06,0.360
3.120E-06,0.400
3.130E-06,0.320
3.140E-06,0.340
3.150E-06,0.340
3.160E-06,0.320
3.170E-06,0.320
3.180E-06,0.320
3.190E-06,0.360
3.200E-06,0.260
3.210E-06,0.260
3.220E-06,0.240
3.230E-06,0.280
3.240E-06,0.180
3.250E-06,0.140
3.260E-06,0.180
3.270E-06,0.100
3.280E-06,0.200
3.290E-06,0.160
3.300E-06,0.260
3.310E-06,0.260
3.320E-06,0.260
3.330E-06,0.300
3.340E-06,0.360
3.350E-06,0.360
3.360E-06,0.380
3.370E-06,0.420
3.380E-06,0.460
