mediciones/8-28/New folder (3)/WaveData65521.csv

#timebase=2000000(ps)
,#voltbase=500000(mv/100)
#size=4000
-8.350E-06,0.060
-8.340E-06,0.080
-8.330E-06,0.080
-8.320E-06,0.060
-8.310E-06,0.080
-8.300E-06,0.080
-8.290E-06,0.060
-8.280E-06,0.100
-8.270E-06,0.060
-8.260E-06,0.060
-8.250E-06,0.080
-8.240E-06,0.060
-8.230E-06,0.060
-8.220E-06,0.060
-8.210E-06,0.060
-8.200E-06,0.060
-8.190E-06,0.060
-8.180E-06,0.080
-8.170E-06,0.060
-8.160E-06,0.080
-8.150E-06,0.060
-8.140E-06,0.060
-8.130E-06,0.080
-8.120E-06,0.100
-8.110E-06,0.040
-8.100E-06,0.080
-8.090E-06,0.080
-8.080E-06,0.060
-8.070E-06,0.100
-8.060E-06,0.080
-8.050E-06,0.060
-8.040E-06,0.080
-8.030E-06,0.100
-8.020E-06,0.040
-8.010E-06,0.100
-8.000E-06,0.080
-7.990E-06,0.100
-7.980E-06,0.080
-7.970E-06,0.100
-7.960E-06,0.100
-7.950E-06,0.060
-7.940E-06,0.060
-7.930E-06,0.060
-7.920E-06,0.060
-7.910E-06,0.080
-7.900E-06,0.080
-7.890E-06,0.080
-7.880E-06,0.060
-7.870E-06,0.040
-7.860E-06,0.120
-7.850E-06,0.060
-7.840E-06,0.060
-7.830E-06,0.080
-7.820E-06,0.060
-7.810E-06,0.080
-7.800E-06,0.040
-7.790E-06,0.060
-7.780E-06,0.080
-7.770E-06,0.080
-7.760E-06,0.060
-7.750E-06,0.100
-7.740E-06,0.080
-7.730E-06,0.060
-7.720E-06,0.080
-7.710E-06,0.100
-7.700E-06,0.080
-7.690E-06,0.100
-7.680E-06,0.060
-7.670E-06,0.040
-7.660E-06,0.100
-7.650E-06,0.060
-7.640E-06,0.060
-7.630E-06,0.080
-7.620E-06,0.060
-7.610E-06,0.060
-7.600E-06,0.040
-7.590E-06,0.060
-7.580E-06,0.060
-7.570E-06,0.020
-7.560E-06,0.080
-7.550E-06,0.060
-7.540E-06,0.080
-7.530E-06,0.080
-7.520E-06,0.040
-7.510E-06,0.120
-7.500E-06,0.080
-7.490E-06,0.040
-7.480E-06,0.060
-7.470E-06,0.060
-7.460E-06,0.080
-7.450E-06,0.100
-7.440E-06,0.080
-7.430E-06,0.060
-7.420E-06,0.060
-7.410E-06,0.060
-7.400E-06,0.060
-7.390E-06,0.060
-7.380E-06,0.080
-7.370E-06,0.100
-7.360E-06,0.040
-7.350E-06,0.100
-7.340E-06,0.080
-7.330E-06,0.120
-7.320E-06,0.080
-7.310E-06,0.040
-7.300E-06,0.080
-7.290E-06,0.080
-7.280E-06,0.100
-7.270E-06,0.100
-7.260E-06,0.080
-7.250E-06,0.060
-7.240E-06,0.060
-7.230E-06,0.060
-7.220E-06,0.060
-7.210E-06,0.080
-7.200E-06,0.060
-7.190E-06,0.060
-7.180E-06,0.060
-7.170E-06,0.100
-7.160E-06,0.080
-7.150E-06,0.080
-7.140E-06,0.120
-7.130E-06,0.080
-7.120E-06,0.060
-7.110E-06,0.080
-7.100E-06,0.080
-7.090E-06,0.040
-7.080E-06,0.060
-7.070E-06,0.080
-7.060E-06,0.080
-7.050E-06,0.060
-7.040E-06,0.040
-7.030E-06,0.080
-7.020E-06,0.060
-7.010E-06,0.060
-7.000E-06,0.060
-6.990E-06,0.120
-6.980E-06,0.080
-6.970E-06,0.060
-6.960E-06,0.080
-6.950E-06,0.080
-6.940E-06,0.080
-6.930E-06,0.040
-6.920E-06,0.060
-6.910E-06,0.060
-6.900E-06,0.060
-6.890E-06,0.060
-6.880E-06,0.080
-6.870E-06,0.040
-6.860E-06,0.040
-6.850E-06,0.080
-6.840E-06,0.080
-6.830E-06,0.100
-6.820E-06,0.060
-6.810E-06,0.060
-6.800E-06,0.060
-6.790E-06,0.060
-6.780E-06,0.060
-6.770E-06,0.080
-6.760E-06,0.060
-6.750E-06,0.060
-6.740E-06,0.080
-6.730E-06,0.080
-6.720E-06,0.040
-6.710E-06,0.060
-6.700E-06,0.080
-6.690E-06,0.060
-6.680E-06,0.080
-6.670E-06,0.060
-6.660E-06,0.060
-6.650E-06,0.100
-6.640E-06,0.040
-6.630E-06,0.040
-6.620E-06,0.080
-6.610E-06,0.080
-6.600E-06,0.060
-6.590E-06,0.080
-6.580E-06,0.080
-6.570E-06,0.060
-6.560E-06,0.080
-6.550E-06,0.060
-6.540E-06,0.080
-6.530E-06,0.060
-6.520E-06,0.040
-6.510E-06,0.120
-6.500E-06,0.080
-6.490E-06,0.100
-6.480E-06,0.060
-6.470E-06,0.060
-6.460E-06,0.040
-6.450E-06,0.040
-6.440E-06,0.080
-6.430E-06,0.080
-6.420E-06,0.040
-6.410E-06,0.060
-6.400E-06,0.080
-6.390E-06,0.080
-6.380E-06,0.040
-6.370E-06,0.040
-6.360E-06,0.040
-6.350E-06,0.080
-6.340E-06,0.100
-6.330E-06,0.040
-6.320E-06,0.080
-6.310E-06,0.100
-6.300E-06,0.060
-6.290E-06,0.100
-6.280E-06,0.060
-6.270E-06,0.060
-6.260E-06,0.060
-6.250E-06,0.060
-6.240E-06,0.040
-6.230E-06,0.060
-6.220E-06,0.060
-6.210E-06,0.060
-6.200E-06,0.080
-6.190E-06,0.060
-6.180E-06,0.080
-6.170E-06,0.080
-6.160E-06,0.060
-6.150E-06,0.040
-6.140E-06,0.080
-6.130E-06,0.060
-6.120E-06,0.080
-6.110E-06,0.060
-6.100E-06,0.100
-6.090E-06,0.060
-6.080E-06,0.080
-6.070E-06,0.080
-6.060E-06,0.060
-6.050E-06,0.060
-6.040E-06,0.080
-6.030E-06,0.060
-6.020E-06,0.040
-6.010E-06,0.060
-6.000E-06,0.040
-5.990E-06,0.100
-5.980E-06,0.080
-5.970E-06,0.080
-5.960E-06,0.080
-5.950E-06,0.100
-5.940E-06,0.040
-5.930E-06,0.100
-5.920E-06,0.060
-5.910E-06,0.100
-5.900E-06,0.060
-5.890E-06,0.040
-5.880E-06,0.080
-5.870E-06,0.060
-5.860E-06,0.060
-5.850E-06,0.040
-5.840E-06,0.060
-5.830E-06,0.100
-5.820E-06,0.080
-5.810E-06,0.040
-5.800E-06,0.040
-5.790E-06,0.060
-5.780E-06,0.060
-5.770E-06,0.080
-5.760E-06,0.080
-5.750E-06,0.060
-5.740E-06,0.100
-5.730E-06,0.060
-5.720E-06,0.060
-5.710E-06,0.060
-5.700E-06,0.080
-5.690E-06,0.100
-5.680E-06,0.080
-5.670E-06,0.080
-5.660E-06,0.060
-5.650E-06,0.040
-5.640E-06,0.060
-5.630E-06,0.080
-5.620E-06,0.080
-5.610E-06,0.100
-5.600E-06,0.060
-5.590E-06,0.060
-5.580E-06,0.040
-5.570E-06,0.040
-5.560E-06,0.060
-5.550E-06,0.060
-5.540E-06,0.080
-5.530E-06,0.060
-5.520E-06,0.060
-5.510E-06,0.060
-5.500E-06,0.080
-5.490E-06,0.060
-5.480E-06,0.080
-5.470E-06,0.060
-5.460E-06,0.100
-5.450E-06,0.100
-5.440E-06,0.080
-5.430E-06,0.080
-5.420E-06,0.080
-5.410E-06,0.080
-5.400E-06,0.100
-5.390E-06,0.040
-5.380E-06,0.060
-5.370E-06,0.080
-5.360E-06,0.060
-5.350E-06,0.080
-5.340E-06,0.080
-5.330E-06,0.060
-5.320E-06,0.060
-5.310E-06,0.060
-5.300E-06,0.080
-5.290E-06,0.040
-5.280E-06,0.060
-5.270E-06,0.040
-5.260E-06,0.080
-5.250E-06,0.080
-5.240E-06,0.060
-5.230E-06,0.100
-5.220E-06,0.040
-5.210E-06,0.040
-5.200E-06,0.080
-5.190E-06,0.060
-5.180E-06,0.060
-5.170E-06,0.040
-5.160E-06,0.080
-5.150E-06,0.080
-5.140E-06,0.060
-5.130E-06,0.080
-5.120E-06,0.080
-5.110E-06,0.060
-5.100E-06,0.040
-5.090E-06,0.060
-5.080E-06,0.080
-5.070E-06,0.080
-5.060E-06,0.060
-5.050E-06,0.040
-5.040E-06,0.080
-5.030E-06,0.080
-5.020E-06,0.060
-5.010E-06,0.060
-5.000E-06,0.080
-4.990E-06,0.060
-4.980E-06,0.100
-4.970E-06,0.060
-4.960E-06,0.080
-4.950E-06,0.080
-4.940E-06,0.060
-4.930E-06,0.060
-4.920E-06,0.080
-4.910E-06,0.060
-4.900E-06,0.080
-4.890E-06,0.080
-4.880E-06,0.040
-4.870E-06,0.040
-4.860E-06,0.060
-4.850E-06,0.040
-4.840E-06,0.060
-4.830E-06,0.080
-4.820E-06,0.040
-4.810E-06,0.020
-4.800E-06,0.100
-4.790E-06,0.060
-4.780E-06,0.080
-4.770E-06,0.060
-4.760E-06,0.060
-4.750E-06,0.060
-4.740E-06,0.060
-4.730E-06,0.060
-4.720E-06,0.080
-4.710E-06,0.080
-4.700E-06,0.060
-4.690E-06,0.060
-4.680E-06,0.080
-4.670E-06,0.080
-4.660E-06,0.080
-4.650E-06,0.060
-4.640E-06,0.060
-4.630E-06,0.040
-4.620E-06,0.080
-4.610E-06,0.040
-4.600E-06,0.040
-4.590E-06,0.080
-4.580E-06,0.040
-4.570E-06,0.080
-4.560E-06,0.060
-4.550E-06,0.060
-4.540E-06,0.060
-4.530E-06,0.080
-4.520E-06,0.060
-4.510E-06,0.100
-4.500E-06,0.060
-4.490E-06,0.080
-4.480E-06,0.040
-4.470E-06,0.100
-4.460E-06,0.060
-4.450E-06,0.120
-4.440E-06,0.080
-4.430E-06,0.040
-4.420E-06,0.060
-4.410E-06,0.080
-4.400E-06,0.040
-4.390E-06,0.080
-4.380E-06,0.060
-4.370E-06,0.040
-4.360E-06,0.080
-4.350E-06,0.060
-4.340E-06,0.080
-4.330E-06,0.080
-4.320E-06,0.060
-4.310E-06,0.060
-4.300E-06,0.080
-4.290E-06,0.040
-4.280E-06,0.060
-4.270E-06,0.060
-4.260E-06,0.060
-4.250E-06,0.060
-4.240E-06,0.060
-4.230E-06,0.080
-4.220E-06,0.060
-4.210E-06,0.060
-4.200E-06,0.040
-4.190E-06,0.080
-4.180E-06,0.080
-4.170E-06,0.060
-4.160E-06,0.060
-4.150E-06,0.080
-4.140E-06,0.060
-4.130E-06,0.080
-4.120E-06,0.080
-4.110E-06,0.040
-4.100E-06,0.060
-4.090E-06,0.080
-4.080E-06,0.060
-4.070E-06,0.100
-4.060E-06,0.060
-4.050E-06,0.080
-4.040E-06,0.100
-4.030E-06,0.080
-4.020E-06,0.060
-4.010E-06,0.080
-4.000E-06,0.080
-3.990E-06,0.080
-3.980E-06,0.060
-3.970E-06,0.060
-3.960E-06,0.060
-3.950E-06,0.060
-3.940E-06,0.060
-3.930E-06,0.100
-3.920E-06,0.040
-3.910E-06,0.080
-3.900E-06,0.080
-3.890E-06,0.060
-3.880E-06,0.080
-3.870E-06,0.040
-3.860E-06,0.080
-3.850E-06,0.040
-3.840E-06,0.060
-3.830E-06,0.060
-3.820E-06,0.060
-3.810E-06,0.080
-3.800E-06,0.120
-3.790E-06,0.080
-3.780E-06,0.080
-3.770E-06,0.080
-3.760E-06,0.040
-3.750E-06,0.060
-3.740E-06,0.080
-3.730E-06,0.080
-3.720E-06,0.040
-3.710E-06,0.060
-3.700E-06,0.060
-3.690E-06,0.040
-3.680E-06,0.060
-3.670E-06,0.100
-3.660E-06,0.080
-3.650E-06,0.060
-3.640E-06,0.080
-3.630E-06,0.060
-3.620E-06,0.060
-3.610E-06,0.060
-3.600E-06,0.080
-3.590E-06,0.080
-3.580E-06,0.100
-3.570E-06,0.060
-3.560E-06,0.060
-3.550E-06,0.000
-3.540E-06,-0.300
-3.530E-06,-0.980
-3.520E-06,-1.880
-3.510E-06,-2.120
-3.500E-06,-2.120
-3.490E-06,-2.140
-3.480E-06,-2.120
-3.470E-06,-1.480
-3.460E-06,-0.240
-3.450E-06,1.180
-3.440E-06,2.380
-3.430E-06,3.200
-3.420E-06,3.300
-3.410E-06,3.280
-3.400E-06,3.300
-3.390E-06,3.300
-3.380E-06,2.920
-3.370E-06,2.020
-3.360E-06,1.140
-3.350E-06,0.280
-3.340E-06,-0.320
-3.330E-06,-0.700
-3.320E-06,-0.740
-3.310E-06,-0.560
-3.300E-06,-0.380
-3.290E-06,-0.360
-3.280E-06,-0.380
-3.270E-06,-0.580
-3.260E-06,-1.040
-3.250E-06,-1.400
-3.240E-06,-1.800
-3.230E-06,-2.040
-3.220E-06,-2.100
-3.210E-06,-1.980
-3.200E-06,-1.660
-3.190E-06,-1.180
-3.180E-06,-0.600
-3.170E-06,0.120
-3.160E-06,0.740
-3.150E-06,1.300
-3.140E-06,1.700
-3.130E-06,1.840
-3.120E-06,1.740
-3.110E-06,1.500
-3.100E-06,1.140
-3.090E-06,0.580
-3.080E-06,0.180
-3.070E-06,-0.140
-3.060E-06,-0.740
-3.050E-06,-0.920
-3.040E-06,-0.880
-3.030E-06,-0.880
-3.020E-06,-0.960
-3.010E-06,-0.740
-3.000E-06,-0.520
-2.990E-06,-0.540
-2.980E-06,-0.300
-2.970E-06,-0.080
-2.960E-06,0.140
-2.950E-06,0.420
-2.940E-06,0.580
-2.930E-06,0.880
-2.920E-06,0.920
-2.910E-06,1.060
-2.900E-06,1.140
-2.890E-06,1.040
-2.880E-06,0.960
-2.870E-06,0.860
-2.860E-06,0.640
-2.850E-06,0.480
-2.840E-06,0.280
-2.830E-06,0.120
-2.820E-06,-0.080
-2.810E-06,-0.180
-2.800E-06,-0.300
-2.790E-06,-0.440
-2.780E-06,-0.600
-2.770E-06,-0.660
-2.760E-06,-0.700
-2.750E-06,-0.780
-2.740E-06,-0.600
-2.730E-06,-0.360
-2.720E-06,-0.340
-2.710E-06,-0.080
-2.700E-06,0.080
-2.690E-06,0.320
-2.680E-06,0.440
-2.670E-06,0.660
-2.660E-06,0.800
-2.650E-06,0.920
-2.640E-06,0.880
-2.630E-06,0.880
-2.620E-06,0.700
-2.610E-06,0.520
-2.600E-06,0.240
-2.590E-06,-0.100
-2.580E-06,-0.260
-2.570E-06,-0.560
-2.560E-06,-0.740
-2.550E-06,-0.780
-2.540E-06,-0.800
-2.530E-06,-0.720
-2.520E-06,-0.780
-2.510E-06,-0.320
-2.500E-06,-0.220
-2.490E-06,-0.140
-2.480E-06,0.000
-2.470E-06,-0.020
-2.460E-06,-0.160
-2.450E-06,-0.240
-2.440E-06,-0.260
-2.430E-06,-0.180
-2.420E-06,-0.140
-2.410E-06,0.140
-2.400E-06,0.140
-2.390E-06,0.280
-2.380E-06,0.420
-2.370E-06,0.140
-2.360E-06,0.200
-2.350E-06,-0.120
-2.340E-06,-0.020
-2.330E-06,-0.120
-2.320E-06,-0.060
-2.310E-06,-0.020
-2.300E-06,-0.040
-2.290E-06,-0.080
-2.280E-06,-0.040
-2.270E-06,-0.120
-2.260E-06,-0.260
-2.250E-06,-0.140
-2.240E-06,-0.060
-2.230E-06,0.200
-2.220E-06,0.220
-2.210E-06,0.200
-2.200E-06,0.100
-2.190E-06,-0.040
-2.180E-06,-0.140
-2.170E-06,-0.160
-2.160E-06,-0.060
-2.150E-06,-0.960
-2.140E-06,0.020
-2.130E-06,0.160
-2.120E-06,-0.080
-2.110E-06,0.020
-2.100E-06,0.180
-2.090E-06,-0.040
-2.080E-06,-0.220
-2.070E-06,0.220
-2.060E-06,-0.040
-2.050E-06,0.100
-2.040E-06,-0.100
-2.030E-06,-0.360
-2.020E-06,-0.540
-2.010E-06,0.320
-2.000E-06,-0.780
-1.990E-06,-0.140
-1.980E-06,-0.240
-1.970E-06,-0.140
-1.960E-06,-0.300
-1.950E-06,-0.120
-1.940E-06,-0.160
-1.930E-06,-0.120
-1.920E-06,-0.480
-1.910E-06,-0.160
-1.900E-06,-0.260
-1.890E-06,-0.220
-1.880E-06,-0.080
-1.870E-06,0.040
-1.860E-06,0.040
-1.850E-06,0.200
-1.840E-06,0.260
-1.830E-06,0.240
-1.820E-06,0.360
-1.810E-06,0.440
-1.800E-06,0.540
-1.790E-06,0.560
-1.780E-06,0.540
-1.770E-06,0.480
-1.760E-06,0.280
-1.750E-06,0.220
-1.740E-06,0.080
-1.730E-06,-0.100
-1.720E-06,-0.040
-1.710E-06,-0.100
-1.700E-06,0.000
-1.690E-06,0.300
-1.680E-06,0.960
-1.670E-06,1.760
-1.660E-06,2.020
-1.650E-06,2.200
-1.640E-06,1.480
-1.630E-06,0.960
-1.620E-06,-0.080
-1.610E-06,-0.840
-1.600E-06,-1.400
-1.590E-06,-1.780
-1.580E-06,-1.600
-1.570E-06,-1.880
-1.560E-06,-2.100
-1.550E-06,-2.100
-1.540E-06,-2.100
-1.530E-06,-2.120
-1.520E-06,-2.120
-1.510E-06,-2.060
-1.500E-06,-1.360
-1.490E-06,-1.460
-1.480E-06,-0.440
-1.470E-06,-0.620
-1.460E-06,-0.080
-1.450E-06,-0.120
-1.440E-06,0.740
-1.430E-06,1.280
-1.420E-06,1.500
-1.410E-06,2.080
-1.400E-06,1.760
-1.390E-06,1.640
-1.380E-06,1.120
-1.370E-06,0.800
-1.360E-06,0.240
-1.350E-06,-0.220
-1.340E-06,-0.860
-1.330E-06,-1.240
-1.320E-06,-1.620
-1.310E-06,-1.960
-1.300E-06,-2.120
-1.290E-06,-2.120
-1.280E-06,-2.120
-1.270E-06,-2.120
-1.260E-06,-2.020
-1.250E-06,-1.960
-1.240E-06,-1.420
-1.230E-06,-1.020
-1.220E-06,-0.340
-1.210E-06,-0.040
-1.200E-06,1.140
-1.190E-06,1.580
-1.180E-06,2.020
-1.170E-06,1.680
-1.160E-06,1.400
-1.150E-06,0.800
-1.140E-06,0.280
-1.130E-06,-0.280
-1.120E-06,-0.640
-1.110E-06,-1.120
-1.100E-06,-1.640
-1.090E-06,-1.920
-1.080E-06,-2.120
-1.070E-06,-2.120
-1.060E-06,-2.120
-1.050E-06,-2.120
-1.040E-06,-2.100
-1.030E-06,-1.840
-1.020E-06,-1.740
-1.010E-06,-1.420
-1.000E-06,-1.140
-9.900E-07,-0.740
-9.800E-07,-0.400
-9.700E-07,-0.120
-9.600E-07,0.440
-9.500E-07,0.900
-9.400E-07,0.440
-9.300E-07,0.540
-9.200E-07,1.160
-9.100E-07,0.680
-9.000E-07,1.440
-8.900E-07,0.880
-8.800E-07,1.220
-8.700E-07,0.700
-8.600E-07,-0.020
-8.500E-07,-0.140
-8.400E-07,-0.720
-8.300E-07,-0.940
-8.200E-07,-1.300
-8.100E-07,-1.340
-8.000E-07,-1.360
-7.900E-07,-1.140
-7.800E-07,-0.820
-7.700E-07,-1.000
-7.600E-07,-0.140
-7.500E-07,-0.460
-7.400E-07,0.200
-7.300E-07,0.040
-7.200E-07,-0.060
-7.100E-07,-0.140
-7.000E-07,-0.300
-6.900E-07,-1.000
-6.800E-07,-1.180
-6.700E-07,-0.860
-6.600E-07,-1.120
-6.500E-07,-0.980
-6.400E-07,-1.160
-6.300E-07,-1.560
-6.200E-07,-2.000
-6.100E-07,-2.120
-6.000E-07,-2.120
-5.900E-07,-2.120
-5.800E-07,-2.120
-5.700E-07,-2.100
-5.600E-07,-2.100
-5.500E-07,-2.100
-5.400E-07,-2.120
-5.300E-07,-2.120
-5.200E-07,-2.120
-5.100E-07,-2.120
-5.000E-07,-1.740
-4.900E-07,-1.280
-4.800E-07,-1.260
-4.700E-07,-0.680
-4.600E-07,-0.320
-4.500E-07,-0.160
-4.400E-07,0.220
-4.300E-07,0.280
-4.200E-07,0.320
-4.100E-07,0.680
-4.000E-07,0.380
-3.900E-07,0.460
-3.800E-07,0.300
-3.700E-07,0.080
-3.600E-07,-0.040
-3.500E-07,0.020
-3.400E-07,-0.200
-3.300E-07,-0.080
-3.200E-07,0.120
-3.100E-07,-0.040
-3.000E-07,0.040
-2.900E-07,-0.160
-2.800E-07,-0.060
-2.700E-07,-0.120
-2.600E-07,-0.060
-2.500E-07,-0.060
-2.400E-07,0.000
-2.300E-07,0.040
-2.200E-07,0.120
-2.100E-07,0.200
-2.000E-07,0.260
-1.900E-07,0.200
-1.800E-07,0.320
-1.700E-07,0.220
-1.600E-07,0.220
-1.500E-07,0.160
-1.400E-07,0.180
-1.300E-07,0.020
-1.200E-07,0.000
-1.100E-07,-0.140
-1.000E-07,-0.420
-9.000E-08,-0.340
-8.000E-08,0.040
-7.000E-08,0.360
-6.000E-08,0.880
-5.000E-08,1.040
-4.000E-08,2.160
-3.000E-08,2.240
-2.000E-08,0.780
-1.000E-08,-0.880
0.000E+00,-2.100
1.000E-08,-2.100
2.000E-08,-2.120
3.000E-08,-2.120
4.000E-08,-2.120
5.000E-08,-1.140
6.000E-08,0.160
7.000E-08,1.260
8.000E-08,0.120
9.000E-08,-1.700
1.000E-07,-2.120
1.100E-07,-2.120
1.200E-07,-2.140
1.300E-07,-2.120
1.400E-07,-2.120
1.500E-07,-2.120
1.600E-07,-2.140
1.700E-07,-2.120
1.800E-07,-2.120
1.900E-07,-2.120
2.000E-07,-2.120
2.100E-07,-1.860
2.200E-07,-1.160
2.300E-07,-0.980
2.400E-07,-0.980
2.500E-07,-1.240
2.600E-07,-1.460
2.700E-07,-1.540
2.800E-07,-1.320
2.900E-07,-1.040
3.000E-07,-0.700
3.100E-07,-0.580
3.200E-07,-0.780
3.300E-07,-1.000
3.400E-07,-0.960
3.500E-07,-1.040
3.600E-07,-0.820
3.700E-07,-0.620
3.800E-07,-0.160
3.900E-07,0.040
4.000E-07,0.000
4.100E-07,-0.040
4.200E-07,-0.180
4.300E-07,-0.460
4.400E-07,-0.820
4.500E-07,-1.080
4.600E-07,-1.160
4.700E-07,-0.980
4.800E-07,-0.800
4.900E-07,-0.500
5.000E-07,-0.300
5.100E-07,-0.160
5.200E-07,-0.140
5.300E-07,-0.260
5.400E-07,-0.300
5.500E-07,-0.320
5.600E-07,-0.360
5.700E-07,-0.400
5.800E-07,-0.540
5.900E-07,-0.620
6.000E-07,-0.820
6.100E-07,-0.980
6.200E-07,-1.120
6.300E-07,-1.340
6.400E-07,-1.480
6.500E-07,-1.500
6.600E-07,-1.160
6.700E-07,-0.780
6.800E-07,0.100
6.900E-07,0.720
7.000E-07,1.280
7.100E-07,2.200
7.200E-07,1.480
7.300E-07,0.700
7.400E-07,0.280
7.500E-07,-0.460
7.600E-07,-1.400
7.700E-07,-2.100
7.800E-07,-2.120
7.900E-07,-2.120
8.000E-07,-2.120
8.100E-07,-2.120
8.200E-07,-2.120
8.300E-07,-2.120
8.400E-07,-2.120
8.500E-07,-2.140
8.600E-07,-2.120
8.700E-07,-2.120
8.800E-07,-2.120
8.900E-07,-2.120
9.000E-07,-2.100
9.100E-07,-2.120
9.200E-07,-1.760
9.300E-07,-0.900
9.400E-07,-0.300
9.500E-07,0.340
9.600E-07,0.920
9.700E-07,1.480
9.800E-07,1.820
9.900E-07,2.060
1.000E-06,2.140
1.010E-06,2.160
1.020E-06,2.040
1.030E-06,1.860
1.040E-06,1.500
1.050E-06,1.180
1.060E-06,0.760
1.070E-06,0.380
1.080E-06,-0.040
1.090E-06,-0.320
1.100E-06,-0.660
1.110E-06,-0.760
1.120E-06,-0.740
1.130E-06,-0.480
1.140E-06,-0.140
1.150E-06,0.340
1.160E-06,0.860
1.170E-06,1.240
1.180E-06,1.280
1.190E-06,1.240
1.200E-06,1.000
1.210E-06,0.840
1.220E-06,0.580
1.230E-06,0.460
1.240E-06,0.280
1.250E-06,0.000
1.260E-06,-0.400
1.270E-06,-0.780
1.280E-06,-1.160
1.290E-06,-1.400
1.300E-06,-1.620
1.310E-06,-1.740
1.320E-06,-1.840
1.330E-06,-1.780
1.340E-06,-1.720
1.350E-06,-1.640
1.360E-06,-1.460
1.370E-06,-1.300
1.380E-06,-1.120
1.390E-06,-0.980
1.400E-06,-0.760
1.410E-06,-0.520
1.420E-06,-0.300
1.430E-06,-0.120
1.440E-06,0.160
1.450E-06,0.380
1.460E-06,0.560
1.470E-06,0.780
1.480E-06,0.980
1.490E-06,1.020
1.500E-06,1.040
1.510E-06,0.940
1.520E-06,0.760
1.530E-06,0.540
1.540E-06,0.300
1.550E-06,0.020
1.560E-06,-0.200
1.570E-06,-0.360
1.580E-06,-0.480
1.590E-06,-0.480
1.600E-06,-0.440
1.610E-06,-0.320
1.620E-06,-0.200
1.630E-06,0.040
1.640E-06,0.240
1.650E-06,0.400
1.660E-06,0.600
1.670E-06,0.740
1.680E-06,0.860
1.690E-06,0.960
1.700E-06,1.000
1.710E-06,0.980
1.720E-06,0.920
1.730E-06,0.880
1.740E-06,0.800
1.750E-06,0.700
1.760E-06,0.660
1.770E-06,0.620
1.780E-06,0.540
1.790E-06,0.500
1.800E-06,0.420
1.810E-06,0.360
1.820E-06,0.280
1.830E-06,0.200
1.840E-06,0.140
1.850E-06,0.120
1.860E-06,0.040
1.870E-06,-0.020
1.880E-06,-0.040
1.890E-06,-0.040
1.900E-06,-0.060
1.910E-06,0.020
1.920E-06,0.100
1.930E-06,0.120
1.940E-06,0.200
1.950E-06,0.240
1.960E-06,0.300
1.970E-06,0.320
1.980E-06,0.360
1.990E-06,0.380
2.000E-06,0.420
2.010E-06,0.420
2.020E-06,0.440
2.030E-06,0.440
2.040E-06,0.500
2.050E-06,0.480
2.060E-06,0.460
2.070E-06,0.460
2.080E-06,0.440
2.090E-06,0.800
2.100E-06,1.380
2.110E-06,2.000
2.120E-06,2.000
2.130E-06,1.900
2.140E-06,0.240
2.150E-06,-0.040
2.160E-06,-0.440
2.170E-06,-0.220
2.180E-06,-0.600
2.190E-06,-0.640
2.200E-06,-0.440
2.210E-06,-0.240
2.220E-06,-0.100
2.230E-06,0.080
2.240E-06,0.520
2.250E-06,0.960
2.260E-06,1.120
2.270E-06,1.240
2.280E-06,1.240
2.290E-06,1.180
2.300E-06,1.060
2.310E-06,0.900
2.320E-06,0.740
2.330E-06,0.620
2.340E-06,0.640
2.350E-06,0.560
2.360E-06,0.500
2.370E-06,0.460
2.380E-06,0.440
2.390E-06,0.320
2.400E-06,0.240
2.410E-06,0.240
2.420E-06,0.220
2.430E-06,0.240
2.440E-06,0.300
2.450E-06,0.380
2.460E-06,0.420
2.470E-06,0.420
2.480E-06,0.440
2.490E-06,0.540
2.500E-06,0.560
2.510E-06,0.620
2.520E-06,0.720
2.530E-06,0.800
2.540E-06,0.880
2.550E-06,0.880
2.560E-06,0.900
2.570E-06,0.860
2.580E-06,0.820
2.590E-06,0.780
2.600E-06,0.680
2.610E-06,0.560
2.620E-06,0.500
2.630E-06,0.420
2.640E-06,0.340
2.650E-06,0.280
2.660E-06,0.240
2.670E-06,0.220
2.680E-06,0.220
2.690E-06,0.280
2.700E-06,0.280
2.710E-06,0.320
2.720E-06,0.360
2.730E-06,0.360
2.740E-06,0.360
2.750E-06,0.440
2.760E-06,0.440
2.770E-06,0.480
2.780E-06,0.500
2.790E-06,0.500
2.800E-06,0.520
2.810E-06,0.540
2.820E-06,0.560
2.830E-06,0.580
2.840E-06,0.540
2.850E-06,0.560
2.860E-06,0.540
2.870E-06,0.540
2.880E-06,0.520
2.890E-06,0.480
2.900E-06,0.460
2.910E-06,0.420
2.920E-06,0.420
2.930E-06,0.380
2.940E-06,0.380
2.950E-06,0.380
2.960E-06,0.380
2.970E-06,0.380
2.980E-06,0.360
2.990E-06,0.380
3.000E-06,0.420
3.010E-06,0.440
3.020E-06,0.460
3.030E-06,0.500
3.040E-06,0.540
3.050E-06,0.560
3.060E-06,0.560
3.070E-06,0.600
3.080E-06,0.620
3.090E-06,0.700
3.100E-06,0.800
3.110E-06,0.860
3.120E-06,0.940
3.130E-06,0.960
3.140E-06,0.980
3.150E-06,1.000
3.160E-06,0.980
3.170E-06,1.000
3.180E-06,0.960
3.190E-06,0.900
3.200E-06,0.860
3.210E-06,0.760
3.220E-06,0.740
3.230E-06,0.700
3.240E-06,0.720
3.250E-06,0.700
3.260E-06,0.700
3.270E-06,0.700
3.280E-06,0.700
3.290E-06,0.720
3.300E-06,0.760
3.310E-06,0.780
3.320E-06,0.800
3.330E-06,0.800
3.340E-06,0.800
3.350E-06,0.780
3.360E-06,0.780
3.370E-06,0.780
