mediciones/8-28/-30/WaveData65811.csv

#timebase=2000000(ps)
,#voltbase=500000(mv/100)
#size=4000
-8.350E-06,0.040
-8.340E-06,0.060
-8.330E-06,0.080
-8.320E-06,0.040
-8.310E-06,0.040
-8.300E-06,0.060
-8.290E-06,0.020
-8.280E-06,0.020
-8.270E-06,0.020
-8.260E-06,0.040
-8.250E-06,0.020
-8.240E-06,0.040
-8.230E-06,0.020
-8.220E-06,0.040
-8.210E-06,0.060
-8.200E-06,0.060
-8.190E-06,0.060
-8.180E-06,0.000
-8.170E-06,0.040
-8.160E-06,0.020
-8.150E-06,0.020
-8.140E-06,0.060
-8.130E-06,0.020
-8.120E-06,0.060
-8.110E-06,0.040
-8.100E-06,0.080
-8.090E-06,0.040
-8.080E-06,0.080
-8.070E-06,0.020
-8.060E-06,0.060
-8.050E-06,0.040
-8.040E-06,0.020
-8.030E-06,0.080
-8.020E-06,0.040
-8.010E-06,0.020
-8.000E-06,0.040
-7.990E-06,0.040
-7.980E-06,0.040
-7.970E-06,0.040
-7.960E-06,0.020
-7.950E-06,0.040
-7.940E-06,0.060
-7.930E-06,0.060
-7.920E-06,0.060
-7.910E-06,0.060
-7.900E-06,0.060
-7.890E-06,0.060
-7.880E-06,0.040
-7.870E-06,0.040
-7.860E-06,0.060
-7.850E-06,0.060
-7.840E-06,0.040
-7.830E-06,0.060
-7.820E-06,0.080
-7.810E-06,0.040
-7.800E-06,0.040
-7.790E-06,0.020
-7.780E-06,0.040
-7.770E-06,0.060
-7.760E-06,0.020
-7.750E-06,0.060
-7.740E-06,0.020
-7.730E-06,0.040
-7.720E-06,0.040
-7.710E-06,0.060
-7.700E-06,0.020
-7.690E-06,0.040
-7.680E-06,0.080
-7.670E-06,0.060
-7.660E-06,0.060
-7.650E-06,0.040
-7.640E-06,0.080
-7.630E-06,0.060
-7.620E-06,0.040
-7.610E-06,0.060
-7.600E-06,0.080
-7.590E-06,0.060
-7.580E-06,0.020
-7.570E-06,0.020
-7.560E-06,0.040
-7.550E-06,0.040
-7.540E-06,0.040
-7.530E-06,0.040
-7.520E-06,0.020
-7.510E-06,0.060
-7.500E-06,0.080
-7.490E-06,0.060
-7.480E-06,0.040
-7.470E-06,0.040
-7.460E-06,0.040
-7.450E-06,0.040
-7.440E-06,0.080
-7.430E-06,0.060
-7.420E-06,0.020
-7.410E-06,0.000
-7.400E-06,0.040
-7.390E-06,0.020
-7.380E-06,0.060
-7.370E-06,0.060
-7.360E-06,0.060
-7.350E-06,0.060
-7.340E-06,0.020
-7.330E-06,0.040
-7.320E-06,0.020
-7.310E-06,0.020
-7.300E-06,0.040
-7.290E-06,0.040
-7.280E-06,0.060
-7.270E-06,0.020
-7.260E-06,0.020
-7.250E-06,0.060
-7.240E-06,0.060
-7.230E-06,0.020
-7.220E-06,0.020
-7.210E-06,0.040
-7.200E-06,0.040
-7.190E-06,0.060
-7.180E-06,0.060
-7.170E-06,0.060
-7.160E-06,0.040
-7.150E-06,0.060
-7.140E-06,0.080
-7.130E-06,0.060
-7.120E-06,0.060
-7.110E-06,0.060
-7.100E-06,0.040
-7.090E-06,0.040
-7.080E-06,0.040
-7.070E-06,0.060
-7.060E-06,0.040
-7.050E-06,0.060
-7.040E-06,0.060
-7.030E-06,0.020
-7.020E-06,0.040
-7.010E-06,0.020
-7.000E-06,0.020
-6.990E-06,0.080
-6.980E-06,0.060
-6.970E-06,0.020
-6.960E-06,0.020
-6.950E-06,0.040
-6.940E-06,0.080
-6.930E-06,0.020
-6.920E-06,0.040
-6.910E-06,0.060
-6.900E-06,0.060
-6.890E-06,0.060
-6.880E-06,0.060
-6.870E-06,0.020
-6.860E-06,0.060
-6.850E-06,0.080
-6.840E-06,0.040
-6.830E-06,0.040
-6.820E-06,0.040
-6.810E-06,0.000
-6.800E-06,0.060
-6.790E-06,0.060
-6.780E-06,0.060
-6.770E-06,0.060
-6.760E-06,0.040
-6.750E-06,0.040
-6.740E-06,0.040
-6.730E-06,0.040
-6.720E-06,0.060
-6.710E-06,0.060
-6.700E-06,0.020
-6.690E-06,0.020
-6.680E-06,0.060
-6.670E-06,0.080
-6.660E-06,0.040
-6.650E-06,0.060
-6.640E-06,0.040
-6.630E-06,0.060
-6.620E-06,0.060
-6.610E-06,0.040
-6.600E-06,0.060
-6.590E-06,0.060
-6.580E-06,0.080
-6.570E-06,0.060
-6.560E-06,0.060
-6.550E-06,0.040
-6.540E-06,0.020
-6.530E-06,0.060
-6.520E-06,0.060
-6.510E-06,0.080
-6.500E-06,0.040
-6.490E-06,0.020
-6.480E-06,0.020
-6.470E-06,0.060
-6.460E-06,0.060
-6.450E-06,0.080
-6.440E-06,0.060
-6.430E-06,0.020
-6.420E-06,0.040
-6.410E-06,0.020
-6.400E-06,0.060
-6.390E-06,0.020
-6.380E-06,0.040
-6.370E-06,0.040
-6.360E-06,0.060
-6.350E-06,0.040
-6.340E-06,0.040
-6.330E-06,0.020
-6.320E-06,0.040
-6.310E-06,0.080
-6.300E-06,0.040
-6.290E-06,0.040
-6.280E-06,0.000
-6.270E-06,0.060
-6.260E-06,0.060
-6.250E-06,0.060
-6.240E-06,0.080
-6.230E-06,0.040
-6.220E-06,0.060
-6.210E-06,0.080
-6.200E-06,0.040
-6.190E-06,0.040
-6.180E-06,0.040
-6.170E-06,0.060
-6.160E-06,0.040
-6.150E-06,0.060
-6.140E-06,0.060
-6.130E-06,0.080
-6.120E-06,0.040
-6.110E-06,0.020
-6.100E-06,0.040
-6.090E-06,0.060
-6.080E-06,0.080
-6.070E-06,0.060
-6.060E-06,0.060
-6.050E-06,0.040
-6.040E-06,0.040
-6.030E-06,0.060
-6.020E-06,0.040
-6.010E-06,0.020
-6.000E-06,0.060
-5.990E-06,0.040
-5.980E-06,0.040
-5.970E-06,0.060
-5.960E-06,0.060
-5.950E-06,0.060
-5.940E-06,0.020
-5.930E-06,0.060
-5.920E-06,0.080
-5.910E-06,0.020
-5.900E-06,0.060
-5.890E-06,0.060
-5.880E-06,0.060
-5.870E-06,0.040
-5.860E-06,0.080
-5.850E-06,0.080
-5.840E-06,0.020
-5.830E-06,0.060
-5.820E-06,0.040
-5.810E-06,0.040
-5.800E-06,0.060
-5.790E-06,0.060
-5.780E-06,0.040
-5.770E-06,0.060
-5.760E-06,0.020
-5.750E-06,0.060
-5.740E-06,0.060
-5.730E-06,0.040
-5.720E-06,0.020
-5.710E-06,0.100
-5.700E-06,0.020
-5.690E-06,0.060
-5.680E-06,0.080
-5.670E-06,0.060
-5.660E-06,0.060
-5.650E-06,0.040
-5.640E-06,0.020
-5.630E-06,0.040
-5.620E-06,0.020
-5.610E-06,0.040
-5.600E-06,0.060
-5.590E-06,0.040
-5.580E-06,0.060
-5.570E-06,0.060
-5.560E-06,0.040
-5.550E-06,0.080
-5.540E-06,0.020
-5.530E-06,0.020
-5.520E-06,0.040
-5.510E-06,0.060
-5.500E-06,0.060
-5.490E-06,0.060
-5.480E-06,0.040
-5.470E-06,0.020
-5.460E-06,0.060
-5.450E-06,0.080
-5.440E-06,0.060
-5.430E-06,0.020
-5.420E-06,0.040
-5.410E-06,0.020
-5.400E-06,0.060
-5.390E-06,0.080
-5.380E-06,0.060
-5.370E-06,0.040
-5.360E-06,0.040
-5.350E-06,0.080
-5.340E-06,0.060
-5.330E-06,0.060
-5.320E-06,0.040
-5.310E-06,0.000
-5.300E-06,0.060
-5.290E-06,0.020
-5.280E-06,0.000
-5.270E-06,0.040
-5.260E-06,0.040
-5.250E-06,0.060
-5.240E-06,0.060
-5.230E-06,0.060
-5.220E-06,0.080
-5.210E-06,0.040
-5.200E-06,0.040
-5.190E-06,0.020
-5.180E-06,0.040
-5.170E-06,0.060
-5.160E-06,0.080
-5.150E-06,0.040
-5.140E-06,0.040
-5.130E-06,0.020
-5.120E-06,0.040
-5.110E-06,0.040
-5.100E-06,0.100
-5.090E-06,0.000
-5.080E-06,0.060
-5.070E-06,0.040
-5.060E-06,0.020
-5.050E-06,0.040
-5.040E-06,0.060
-5.030E-06,0.040
-5.020E-06,0.040
-5.010E-06,0.020
-5.000E-06,0.060
-4.990E-06,0.020
-4.980E-06,0.040
-4.970E-06,0.060
-4.960E-06,0.040
-4.950E-06,0.040
-4.940E-06,0.040
-4.930E-06,0.080
-4.920E-06,0.040
-4.910E-06,0.060
-4.900E-06,0.040
-4.890E-06,0.060
-4.880E-06,0.060
-4.870E-06,0.020
-4.860E-06,0.020
-4.850E-06,0.040
-4.840E-06,0.080
-4.830E-06,0.020
-4.820E-06,0.060
-4.810E-06,0.060
-4.800E-06,0.040
-4.790E-06,0.060
-4.780E-06,0.060
-4.770E-06,0.040
-4.760E-06,0.060
-4.750E-06,0.060
-4.740E-06,0.040
-4.730E-06,0.020
-4.720E-06,0.020
-4.710E-06,0.020
-4.700E-06,0.040
-4.690E-06,0.080
-4.680E-06,0.040
-4.670E-06,0.040
-4.660E-06,0.040
-4.650E-06,0.060
-4.640E-06,0.060
-4.630E-06,0.060
-4.620E-06,0.080
-4.610E-06,0.000
-4.600E-06,0.060
-4.590E-06,0.040
-4.580E-06,0.040
-4.570E-06,0.040
-4.560E-06,0.040
-4.550E-06,0.080
-4.540E-06,0.040
-4.530E-06,0.040
-4.520E-06,0.060
-4.510E-06,0.060
-4.500E-06,0.040
-4.490E-06,0.080
-4.480E-06,0.060
-4.470E-06,0.060
-4.460E-06,0.060
-4.450E-06,0.040
-4.440E-06,0.020
-4.430E-06,0.060
-4.420E-06,0.060
-4.410E-06,0.060
-4.400E-06,0.040
-4.390E-06,0.080
-4.380E-06,0.040
-4.370E-06,0.060
-4.360E-06,0.040
-4.350E-06,0.060
-4.340E-06,0.020
-4.330E-06,0.060
-4.320E-06,0.080
-4.310E-06,0.040
-4.300E-06,0.040
-4.290E-06,0.060
-4.280E-06,0.040
-4.270E-06,0.060
-4.260E-06,0.080
-4.250E-06,0.060
-4.240E-06,0.000
-4.230E-06,0.060
-4.220E-06,0.080
-4.210E-06,0.060
-4.200E-06,0.040
-4.190E-06,0.060
-4.180E-06,0.020
-4.170E-06,0.060
-4.160E-06,0.060
-4.150E-06,0.060
-4.140E-06,0.060
-4.130E-06,0.080
-4.120E-06,0.040
-4.110E-06,0.060
-4.100E-06,0.080
-4.090E-06,0.040
-4.080E-06,0.000
-4.070E-06,0.040
-4.060E-06,0.060
-4.050E-06,0.060
-4.040E-06,0.060
-4.030E-06,0.040
-4.020E-06,0.040
-4.010E-06,0.040
-4.000E-06,0.080
-3.990E-06,0.080
-3.980E-06,0.080
-3.970E-06,0.060
-3.960E-06,0.060
-3.950E-06,0.040
-3.940E-06,0.080
-3.930E-06,0.040
-3.920E-06,0.020
-3.910E-06,0.060
-3.900E-06,0.060
-3.890E-06,0.060
-3.880E-06,0.060
-3.870E-06,0.040
-3.860E-06,0.040
-3.850E-06,0.040
-3.840E-06,0.060
-3.830E-06,0.040
-3.820E-06,0.080
-3.810E-06,0.060
-3.800E-06,0.060
-3.790E-06,0.060
-3.780E-06,0.060
-3.770E-06,0.080
-3.760E-06,0.040
-3.750E-06,0.060
-3.740E-06,0.060
-3.730E-06,0.040
-3.720E-06,0.000
-3.710E-06,0.040
-3.700E-06,0.040
-3.690E-06,0.020
-3.680E-06,0.020
-3.670E-06,0.040
-3.660E-06,0.060
-3.650E-06,0.060
-3.640E-06,0.060
-3.630E-06,0.040
-3.620E-06,0.040
-3.610E-06,0.080
-3.600E-06,0.060
-3.590E-06,0.060
-3.580E-06,0.040
-3.570E-06,0.040
-3.560E-06,0.060
-3.550E-06,0.060
-3.540E-06,0.060
-3.530E-06,0.020
-3.520E-06,0.060
-3.510E-06,0.040
-3.500E-06,0.080
-3.490E-06,0.060
-3.480E-06,0.020
-3.470E-06,0.060
-3.460E-06,0.020
-3.450E-06,0.040
-3.440E-06,0.060
-3.430E-06,0.060
-3.420E-06,0.040
-3.410E-06,0.060
-3.400E-06,0.060
-3.390E-06,0.060
-3.380E-06,0.080
-3.370E-06,0.020
-3.360E-06,0.060
-3.350E-06,0.060
-3.340E-06,0.060
-3.330E-06,0.040
-3.320E-06,0.040
-3.310E-06,0.060
-3.300E-06,0.000
-3.290E-06,0.060
-3.280E-06,0.060
-3.270E-06,0.060
-3.260E-06,0.060
-3.250E-06,0.040
-3.240E-06,0.040
-3.230E-06,0.040
-3.220E-06,0.060
-3.210E-06,0.040
-3.200E-06,0.020
-3.190E-06,0.060
-3.180E-06,0.060
-3.170E-06,0.000
-3.160E-06,0.040
-3.150E-06,0.060
-3.140E-06,0.040
-3.130E-06,0.040
-3.120E-06,0.060
-3.110E-06,0.040
-3.100E-06,0.060
-3.090E-06,0.020
-3.080E-06,0.020
-3.070E-06,0.060
-3.060E-06,0.080
-3.050E-06,0.040
-3.040E-06,0.060
-3.030E-06,0.060
-3.020E-06,0.040
-3.010E-06,0.020
-3.000E-06,0.040
-2.990E-06,0.040
-2.980E-06,0.060
-2.970E-06,0.020
-2.960E-06,0.060
-2.950E-06,0.080
-2.940E-06,0.040
-2.930E-06,0.040
-2.920E-06,0.020
-2.910E-06,0.060
-2.900E-06,0.060
-2.890E-06,0.060
-2.880E-06,0.100
-2.870E-06,0.020
-2.860E-06,0.060
-2.850E-06,0.040
-2.840E-06,0.020
-2.830E-06,0.040
-2.820E-06,0.040
-2.810E-06,0.080
-2.800E-06,0.040
-2.790E-06,0.040
-2.780E-06,0.020
-2.770E-06,0.020
-2.760E-06,0.040
-2.750E-06,0.060
-2.740E-06,0.040
-2.730E-06,0.040
-2.720E-06,0.040
-2.710E-06,0.040
-2.700E-06,0.040
-2.690E-06,0.060
-2.680E-06,0.020
-2.670E-06,0.020
-2.660E-06,0.040
-2.650E-06,0.060
-2.640E-06,0.020
-2.630E-06,0.060
-2.620E-06,0.060
-2.610E-06,0.020
-2.600E-06,0.060
-2.590E-06,0.040
-2.580E-06,0.080
-2.570E-06,0.060
-2.560E-06,0.040
-2.550E-06,0.060
-2.540E-06,0.060
-2.530E-06,0.040
-2.520E-06,0.040
-2.510E-06,0.060
-2.500E-06,0.080
-2.490E-06,0.060
-2.480E-06,0.020
-2.470E-06,0.020
-2.460E-06,0.020
-2.450E-06,0.080
-2.440E-06,0.020
-2.430E-06,0.040
-2.420E-06,0.020
-2.410E-06,0.060
-2.400E-06,0.040
-2.390E-06,0.060
-2.380E-06,0.060
-2.370E-06,0.060
-2.360E-06,0.060
-2.350E-06,0.040
-2.340E-06,0.020
-2.330E-06,0.040
-2.320E-06,0.020
-2.310E-06,0.060
-2.300E-06,0.080
-2.290E-06,0.040
-2.280E-06,0.040
-2.270E-06,0.040
-2.260E-06,0.060
-2.250E-06,0.080
-2.240E-06,0.040
-2.230E-06,0.040
-2.220E-06,0.040
-2.210E-06,0.080
-2.200E-06,0.040
-2.190E-06,0.040
-2.180E-06,0.060
-2.170E-06,0.060
-2.160E-06,0.040
-2.150E-06,0.020
-2.140E-06,0.040
-2.130E-06,0.040
-2.120E-06,0.060
-2.110E-06,0.080
-2.100E-06,0.060
-2.090E-06,0.040
-2.080E-06,0.020
-2.070E-06,0.040
-2.060E-06,0.040
-2.050E-06,0.040
-2.040E-06,0.020
-2.030E-06,0.040
-2.020E-06,0.040
-2.010E-06,0.060
-2.000E-06,0.020
-1.990E-06,0.040
-1.980E-06,0.040
-1.970E-06,0.040
-1.960E-06,0.060
-1.950E-06,0.060
-1.940E-06,0.020
-1.930E-06,0.080
-1.920E-06,0.080
-1.910E-06,0.080
-1.900E-06,0.080
-1.890E-06,0.060
-1.880E-06,0.040
-1.870E-06,0.060
-1.860E-06,0.060
-1.850E-06,0.020
-1.840E-06,0.060
-1.830E-06,0.060
-1.820E-06,0.020
-1.810E-06,0.020
-1.800E-06,0.040
-1.790E-06,0.020
-1.780E-06,0.040
-1.770E-06,0.080
-1.760E-06,0.040
-1.750E-06,0.040
-1.740E-06,0.040
-1.730E-06,0.060
-1.720E-06,0.020
-1.710E-06,0.060
-1.700E-06,0.060
-1.690E-06,0.020
-1.680E-06,0.020
-1.670E-06,0.080
-1.660E-06,0.040
-1.650E-06,0.060
-1.640E-06,0.060
-1.630E-06,0.060
-1.620E-06,0.060
-1.610E-06,0.060
-1.600E-06,0.040
-1.590E-06,0.040
-1.580E-06,0.020
-1.570E-06,0.060
-1.560E-06,0.040
-1.550E-06,0.060
-1.540E-06,0.040
-1.530E-06,0.020
-1.520E-06,0.060
-1.510E-06,0.020
-1.500E-06,0.040
-1.490E-06,0.080
-1.480E-06,0.040
-1.470E-06,0.040
-1.460E-06,0.060
-1.450E-06,0.060
-1.440E-06,0.040
-1.430E-06,0.060
-1.420E-06,0.020
-1.410E-06,0.040
-1.400E-06,0.060
-1.390E-06,0.060
-1.380E-06,0.040
-1.370E-06,0.040
-1.360E-06,0.040
-1.350E-06,0.040
-1.340E-06,0.040
-1.330E-06,0.040
-1.320E-06,0.060
-1.310E-06,0.040
-1.300E-06,0.060
-1.290E-06,0.040
-1.280E-06,0.040
-1.270E-06,0.020
-1.260E-06,0.020
-1.250E-06,0.020
-1.240E-06,0.060
-1.230E-06,0.040
-1.220E-06,0.040
-1.210E-06,0.080
-1.200E-06,0.060
-1.190E-06,0.060
-1.180E-06,0.080
-1.170E-06,0.040
-1.160E-06,0.020
-1.150E-06,0.060
-1.140E-06,0.060
-1.130E-06,0.020
-1.120E-06,0.040
-1.110E-06,0.020
-1.100E-06,0.040
-1.090E-06,0.020
-1.080E-06,0.060
-1.070E-06,0.040
-1.060E-06,0.020
-1.050E-06,0.060
-1.040E-06,0.060
-1.030E-06,0.060
-1.020E-06,-0.020
-1.010E-06,-0.340
-1.000E-06,-1.040
-9.900E-07,-2.080
-9.800E-07,-2.940
-9.700E-07,-3.360
-9.600E-07,-3.120
-9.500E-07,-1.620
-9.400E-07,-0.940
-9.300E-07,0.260
-9.200E-07,1.840
-9.100E-07,2.080
-9.000E-07,2.080
-8.900E-07,2.060
-8.800E-07,2.080
-8.700E-07,2.080
-8.600E-07,2.080
-8.500E-07,2.080
-8.400E-07,1.280
-8.300E-07,0.420
-8.200E-07,-0.260
-8.100E-07,-0.800
-8.000E-07,-0.860
-7.900E-07,-0.600
-7.800E-07,-0.360
-7.700E-07,-0.080
-7.600E-07,-0.140
-7.500E-07,-0.260
-7.400E-07,-0.580
-7.300E-07,-1.020
-7.200E-07,-1.400
-7.100E-07,-1.880
-7.000E-07,-2.060
-6.900E-07,-2.020
-6.800E-07,-1.800
-6.700E-07,-1.440
-6.600E-07,-0.900
-6.500E-07,-0.240
-6.400E-07,0.340
-6.300E-07,0.960
-6.200E-07,1.420
-6.100E-07,1.700
-6.000E-07,1.800
-5.900E-07,1.640
-5.800E-07,1.360
-5.700E-07,0.800
-5.600E-07,0.460
-5.500E-07,-0.060
-5.400E-07,-0.320
-5.300E-07,-0.840
-5.200E-07,-0.820
-5.100E-07,-0.900
-5.000E-07,-1.080
-4.900E-07,-0.920
-4.800E-07,-0.720
-4.700E-07,-0.700
-4.600E-07,-0.440
-4.500E-07,-0.340
-4.400E-07,-0.020
-4.300E-07,0.040
-4.200E-07,0.320
-4.100E-07,0.660
-4.000E-07,0.680
-3.900E-07,0.940
-3.800E-07,0.980
-3.700E-07,0.880
-3.600E-07,0.880
-3.500E-07,0.740
-3.400E-07,0.580
-3.300E-07,0.420
-3.200E-07,0.240
-3.100E-07,0.060
-3.000E-07,-0.220
-2.900E-07,-0.260
-2.800E-07,-0.360
-2.700E-07,-0.520
-2.600E-07,-0.520
-2.500E-07,-0.560
-2.400E-07,-0.520
-2.300E-07,-0.660
-2.200E-07,-0.560
-2.100E-07,-0.720
-2.000E-07,-0.500
-1.900E-07,-0.580
-1.800E-07,-0.420
-1.700E-07,-0.160
-1.600E-07,-0.080
-1.500E-07,0.420
-1.400E-07,0.620
-1.300E-07,0.840
-1.200E-07,0.900
-1.100E-07,0.700
-1.000E-07,0.380
-9.000E-08,0.440
-8.000E-08,0.160
-7.000E-08,-0.240
-6.000E-08,0.040
-5.000E-08,0.260
-4.000E-08,-0.340
-3.000E-08,-0.240
-2.000E-08,-1.040
-1.000E-08,-0.800
0.000E+00,-1.200
1.000E-08,-1.040
2.000E-08,-0.220
3.000E-08,-0.080
4.000E-08,-0.020
5.000E-08,0.160
6.000E-08,-0.180
7.000E-08,-0.080
8.000E-08,-0.500
9.000E-08,-0.380
1.000E-07,-0.340
1.100E-07,-0.440
1.200E-07,-0.360
1.300E-07,-0.300
1.400E-07,-0.300
1.500E-07,-0.360
1.600E-07,-0.480
1.700E-07,-0.420
1.800E-07,-0.460
1.900E-07,-0.440
2.000E-07,-0.400
2.100E-07,-0.480
2.200E-07,-0.320
2.300E-07,-0.760
2.400E-07,-0.520
2.500E-07,-1.020
2.600E-07,-0.460
2.700E-07,-1.100
2.800E-07,-0.640
2.900E-07,-0.880
3.000E-07,-0.780
3.100E-07,-0.520
3.200E-07,-0.520
3.300E-07,-0.920
3.400E-07,-0.900
3.500E-07,-1.140
3.600E-07,-0.820
3.700E-07,-1.520
3.800E-07,-1.140
3.900E-07,-1.880
4.000E-07,-1.540
4.100E-07,-2.000
4.200E-07,-2.000
4.300E-07,-1.460
4.400E-07,-1.680
4.500E-07,-1.560
4.600E-07,-1.860
4.700E-07,-1.860
4.800E-07,-1.820
4.900E-07,-2.000
5.000E-07,-2.140
5.100E-07,-1.520
5.200E-07,-1.960
5.300E-07,-1.460
5.400E-07,-2.020
5.500E-07,-2.000
5.600E-07,-1.640
5.700E-07,-1.560
5.800E-07,-1.300
5.900E-07,-0.960
6.000E-07,-0.660
6.100E-07,-0.860
6.200E-07,-0.920
6.300E-07,-1.240
6.400E-07,-0.860
6.500E-07,-1.100
6.600E-07,-0.520
6.700E-07,-0.780
6.800E-07,-0.180
6.900E-07,-0.420
7.000E-07,-0.060
7.100E-07,-0.280
7.200E-07,-0.040
7.300E-07,0.040
7.400E-07,-0.300
7.500E-07,0.400
7.600E-07,-0.180
7.700E-07,0.260
7.800E-07,-0.480
7.900E-07,0.440
8.000E-07,-0.140
8.100E-07,0.320
8.200E-07,-0.060
8.300E-07,-0.080
8.400E-07,-0.100
8.500E-07,0.060
8.600E-07,0.340
8.700E-07,-0.500
8.800E-07,-0.020
8.900E-07,-0.420
9.000E-07,-0.740
9.100E-07,-0.900
9.200E-07,-1.180
9.300E-07,-0.500
9.400E-07,-0.960
9.500E-07,-0.680
9.600E-07,-0.860
9.700E-07,-1.180
9.800E-07,-0.900
9.900E-07,-1.180
1.000E-06,-1.000
1.010E-06,-1.200
1.020E-06,-1.000
1.030E-06,-1.160
1.040E-06,-1.120
1.050E-06,-1.280
1.060E-06,-1.340
1.070E-06,-1.420
1.080E-06,-1.560
1.090E-06,-1.580
1.100E-06,-1.580
1.110E-06,-1.540
1.120E-06,-1.520
1.130E-06,-1.560
1.140E-06,-1.620
1.150E-06,-1.700
1.160E-06,-1.760
1.170E-06,-1.860
1.180E-06,-1.960
1.190E-06,-1.940
1.200E-06,-1.960
1.210E-06,-1.680
1.220E-06,-1.720
1.230E-06,-1.740
1.240E-06,-2.100
1.250E-06,-1.820
1.260E-06,-1.100
1.270E-06,-2.280
1.280E-06,-0.440
1.290E-06,-0.240
1.300E-06,-0.180
1.310E-06,-1.460
1.320E-06,-1.820
1.330E-06,-1.920
1.340E-06,-2.860
1.350E-06,-2.440
1.360E-06,-3.340
1.370E-06,-2.440
1.380E-06,-3.340
1.390E-06,-3.360
1.400E-06,-3.340
1.410E-06,-3.340
1.420E-06,-3.340
1.430E-06,-3.360
1.440E-06,-3.360
1.450E-06,-3.360
1.460E-06,-3.360
1.470E-06,-3.360
1.480E-06,-3.360
1.490E-06,-3.360
1.500E-06,-3.340
1.510E-06,-2.020
1.520E-06,-0.900
1.530E-06,-0.020
1.540E-06,0.700
1.550E-06,1.060
1.560E-06,1.520
1.570E-06,1.720
1.580E-06,2.080
1.590E-06,2.080
1.600E-06,2.080
1.610E-06,2.100
1.620E-06,2.100
1.630E-06,2.080
1.640E-06,2.080
1.650E-06,1.660
1.660E-06,0.820
1.670E-06,-0.320
1.680E-06,-1.400
1.690E-06,-2.660
1.700E-06,-3.320
1.710E-06,-3.320
1.720E-06,-3.320
1.730E-06,-3.320
1.740E-06,-3.320
1.750E-06,-3.320
1.760E-06,-3.340
1.770E-06,-3.340
1.780E-06,-3.360
1.790E-06,-3.360
1.800E-06,-2.820
1.810E-06,-2.280
1.820E-06,-1.940
1.830E-06,-1.840
1.840E-06,-1.980
1.850E-06,-2.120
1.860E-06,-2.620
1.870E-06,-3.100
1.880E-06,-3.340
1.890E-06,-3.340
1.900E-06,-3.340
1.910E-06,-3.340
1.920E-06,-3.360
1.930E-06,-3.360
1.940E-06,-3.340
1.950E-06,-3.340
1.960E-06,-3.340
1.970E-06,-3.340
1.980E-06,-3.340
1.990E-06,-3.240
2.000E-06,-3.080
2.010E-06,-2.820
2.020E-06,-2.660
2.030E-06,-2.360
2.040E-06,-2.180
2.050E-06,-1.800
2.060E-06,-1.220
2.070E-06,-0.760
2.080E-06,-0.460
2.090E-06,-0.300
2.100E-06,-0.260
2.110E-06,-0.220
2.120E-06,-0.280
2.130E-06,-0.440
2.140E-06,-0.620
2.150E-06,-0.860
2.160E-06,-1.140
2.170E-06,-1.480
2.180E-06,-1.760
2.190E-06,-2.180
2.200E-06,-2.140
2.210E-06,-2.280
2.220E-06,-2.100
2.230E-06,-1.840
2.240E-06,-1.560
2.250E-06,-1.200
2.260E-06,-0.820
2.270E-06,-0.520
2.280E-06,-0.240
2.290E-06,-0.020
2.300E-06,0.180
2.310E-06,0.220
2.320E-06,0.260
2.330E-06,0.220
2.340E-06,0.200
2.350E-06,0.160
2.360E-06,0.080
2.370E-06,0.060
2.380E-06,-0.020
2.390E-06,-0.060
2.400E-06,0.000
2.410E-06,-0.080
2.420E-06,-0.180
2.430E-06,-0.440
2.440E-06,-0.320
2.450E-06,-0.680
2.460E-06,-0.680
2.470E-06,-0.900
2.480E-06,-0.980
2.490E-06,-1.100
2.500E-06,-1.180
2.510E-06,-1.340
2.520E-06,-1.380
2.530E-06,-1.440
2.540E-06,-1.340
2.550E-06,-1.400
2.560E-06,-1.300
2.570E-06,-1.320
2.580E-06,-1.200
2.590E-06,-1.180
2.600E-06,-1.220
2.610E-06,-1.020
2.620E-06,-1.120
2.630E-06,-1.100
2.640E-06,-1.160
2.650E-06,-1.040
2.660E-06,-1.040
2.670E-06,-1.040
2.680E-06,-1.080
2.690E-06,-0.920
2.700E-06,-0.900
2.710E-06,-0.780
2.720E-06,-0.620
2.730E-06,-0.440
2.740E-06,-0.320
2.750E-06,-0.460
2.760E-06,-0.740
2.770E-06,-0.820
2.780E-06,-0.820
2.790E-06,-0.940
2.800E-06,-1.040
2.810E-06,-1.040
2.820E-06,-1.060
2.830E-06,-1.520
2.840E-06,-1.360
2.850E-06,-1.660
2.860E-06,-1.720
2.870E-06,-1.500
2.880E-06,-1.240
2.890E-06,-0.700
2.900E-06,-0.380
2.910E-06,-0.460
2.920E-06,-0.380
2.930E-06,-0.200
2.940E-06,-0.220
2.950E-06,-0.020
2.960E-06,0.180
2.970E-06,0.400
2.980E-06,0.400
2.990E-06,0.320
3.000E-06,0.360
3.010E-06,0.340
3.020E-06,0.340
3.030E-06,0.340
3.040E-06,0.460
3.050E-06,0.480
3.060E-06,0.500
3.070E-06,0.580
3.080E-06,0.640
3.090E-06,0.540
3.100E-06,0.500
3.110E-06,0.440
3.120E-06,0.500
3.130E-06,0.440
3.140E-06,0.500
3.150E-06,0.560
3.160E-06,0.680
3.170E-06,0.720
3.180E-06,0.840
3.190E-06,0.980
3.200E-06,1.040
3.210E-06,1.200
3.220E-06,1.220
3.230E-06,1.280
3.240E-06,1.120
3.250E-06,0.960
3.260E-06,0.800
3.270E-06,0.580
3.280E-06,0.420
3.290E-06,0.200
3.300E-06,0.000
3.310E-06,-0.140
3.320E-06,-0.260
3.330E-06,-0.360
3.340E-06,-0.360
3.350E-06,-0.340
3.360E-06,-0.280
3.370E-06,-0.240
