mediciones/iman/config 2/10-25/28.4/WaveData8084.csv

#timebase=2000000(ps)
,#voltbase=100000(mv/100)
#size=4000
-1.535E-05,0.004
-1.534E-05,0.004
-1.533E-05,0.004
-1.532E-05,0.004
-1.531E-05,0.008
-1.530E-05,0.004
-1.529E-05,0.004
-1.528E-05,0.004
-1.527E-05,0.004
-1.526E-05,0.000
-1.525E-05,0.008
-1.524E-05,0.008
-1.523E-05,0.008
-1.522E-05,0.004
-1.521E-05,0.004
-1.520E-05,0.004
-1.519E-05,0.004
-1.518E-05,0.004
-1.517E-05,0.000
-1.516E-05,0.004
-1.515E-05,0.000
-1.514E-05,0.000
-1.513E-05,0.004
-1.512E-05,0.008
-1.511E-05,0.004
-1.510E-05,0.004
-1.509E-05,0.004
-1.508E-05,0.004
-1.507E-05,0.000
-1.506E-05,0.004
-1.505E-05,0.004
-1.504E-05,0.004
-1.503E-05,0.004
-1.502E-05,0.004
-1.501E-05,0.004
-1.500E-05,0.004
-1.499E-05,0.004
-1.498E-05,0.004
-1.497E-05,0.004
-1.496E-05,0.000
-1.495E-05,0.004
-1.494E-05,0.004
-1.493E-05,0.008
-1.492E-05,0.000
-1.491E-05,0.004
-1.490E-05,0.000
-1.489E-05,0.008
-1.488E-05,0.008
-1.487E-05,0.008
-1.486E-05,0.008
-1.485E-05,0.008
-1.484E-05,0.008
-1.483E-05,0.008
-1.482E-05,0.008
-1.481E-05,0.000
-1.480E-05,0.000
-1.479E-05,0.004
-1.478E-05,0.004
-1.477E-05,0.004
-1.476E-05,0.004
-1.475E-05,0.004
-1.474E-05,0.000
-1.473E-05,0.000
-1.472E-05,-0.004
-1.471E-05,-0.004
-1.470E-05,0.004
-1.469E-05,0.004
-1.468E-05,0.008
-1.467E-05,0.004
-1.466E-05,0.004
-1.465E-05,0.004
-1.464E-05,0.004
-1.463E-05,0.004
-1.462E-05,0.004
-1.461E-05,0.000
-1.460E-05,0.004
-1.459E-05,0.004
-1.458E-05,0.008
-1.457E-05,0.004
-1.456E-05,0.004
-1.455E-05,0.000
-1.454E-05,0.004
-1.453E-05,0.004
-1.452E-05,0.004
-1.451E-05,0.000
-1.450E-05,0.004
-1.449E-05,0.004
-1.448E-05,0.004
-1.447E-05,0.000
-1.446E-05,0.000
-1.445E-05,0.000
-1.444E-05,0.000
-1.443E-05,0.000
-1.442E-05,0.004
-1.441E-05,0.004
-1.440E-05,0.008
-1.439E-05,0.008
-1.438E-05,0.008
-1.437E-05,0.004
-1.436E-05,0.004
-1.435E-05,0.004
-1.434E-05,0.004
-1.433E-05,0.004
-1.432E-05,0.004
-1.431E-05,0.004
-1.430E-05,0.004
-1.429E-05,0.004
-1.428E-05,0.004
-1.427E-05,0.004
-1.426E-05,0.004
-1.425E-05,0.004
-1.424E-05,0.004
-1.423E-05,0.000
-1.422E-05,0.004
-1.421E-05,-0.004
-1.420E-05,0.004
-1.419E-05,0.004
-1.418E-05,0.000
-1.417E-05,0.004
-1.416E-05,0.004
-1.415E-05,0.004
-1.414E-05,0.004
-1.413E-05,0.004
-1.412E-05,0.004
-1.411E-05,0.004
-1.410E-05,0.004
-1.409E-05,0.004
-1.408E-05,0.004
-1.407E-05,0.000
-1.406E-05,0.004
-1.405E-05,0.008
-1.404E-05,0.004
-1.403E-05,0.000
-1.402E-05,0.004
-1.401E-05,0.000
-1.400E-05,0.004
-1.399E-05,0.004
-1.398E-05,0.004
-1.397E-05,0.004
-1.396E-05,0.004
-1.395E-05,0.004
-1.394E-05,0.004
-1.393E-05,0.000
-1.392E-05,0.008
-1.391E-05,0.004
-1.390E-05,0.004
-1.389E-05,0.004
-1.388E-05,0.004
-1.387E-05,0.004
-1.386E-05,0.004
-1.385E-05,0.000
-1.384E-05,0.004
-1.383E-05,0.004
-1.382E-05,0.004
-1.381E-05,0.004
-1.380E-05,0.004
-1.379E-05,0.004
-1.378E-05,0.004
-1.377E-05,0.008
-1.376E-05,0.004
-1.375E-05,0.004
-1.374E-05,0.004
-1.373E-05,0.000
-1.372E-05,0.004
-1.371E-05,0.004
-1.370E-05,0.004
-1.369E-05,0.004
-1.368E-05,0.004
-1.367E-05,0.004
-1.366E-05,0.004
-1.365E-05,0.000
-1.364E-05,0.000
-1.363E-05,0.000
-1.362E-05,0.000
-1.361E-05,0.004
-1.360E-05,0.000
-1.359E-05,0.004
-1.358E-05,0.004
-1.357E-05,0.004
-1.356E-05,0.000
-1.355E-05,0.004
-1.354E-05,0.000
-1.353E-05,0.004
-1.352E-05,0.004
-1.351E-05,0.000
-1.350E-05,0.004
-1.349E-05,0.004
-1.348E-05,0.008
-1.347E-05,0.004
-1.346E-05,0.004
-1.345E-05,0.004
-1.344E-05,0.004
-1.343E-05,0.004
-1.342E-05,0.004
-1.341E-05,0.008
-1.340E-05,0.000
-1.339E-05,0.004
-1.338E-05,0.000
-1.337E-05,0.004
-1.336E-05,0.000
-1.335E-05,0.004
-1.334E-05,0.008
-1.333E-05,0.008
-1.332E-05,0.008
-1.331E-05,0.004
-1.330E-05,0.004
-1.329E-05,0.004
-1.328E-05,0.004
-1.327E-05,0.004
-1.326E-05,0.004
-1.325E-05,0.004
-1.324E-05,0.004
-1.323E-05,0.008
-1.322E-05,0.008
-1.321E-05,0.004
-1.320E-05,0.008
-1.319E-05,0.004
-1.318E-05,0.000
-1.317E-05,0.004
-1.316E-05,0.004
-1.315E-05,0.004
-1.314E-05,0.004
-1.313E-05,0.008
-1.312E-05,0.004
-1.311E-05,0.008
-1.310E-05,0.008
-1.309E-05,0.004
-1.308E-05,0.004
-1.307E-05,0.004
-1.306E-05,0.008
-1.305E-05,0.008
-1.304E-05,0.008
-1.303E-05,0.004
-1.302E-05,0.004
-1.301E-05,0.000
-1.300E-05,0.004
-1.299E-05,0.004
-1.298E-05,0.000
-1.297E-05,0.004
-1.296E-05,0.004
-1.295E-05,0.004
-1.294E-05,0.004
-1.293E-05,0.000
-1.292E-05,0.004
-1.291E-05,0.008
-1.290E-05,0.004
-1.289E-05,0.004
-1.288E-05,0.000
-1.287E-05,0.004
-1.286E-05,0.004
-1.285E-05,0.004
-1.284E-05,0.004
-1.283E-05,0.004
-1.282E-05,0.004
-1.281E-05,0.004
-1.280E-05,0.004
-1.279E-05,0.004
-1.278E-05,0.004
-1.277E-05,0.004
-1.276E-05,0.004
-1.275E-05,0.008
-1.274E-05,0.008
-1.273E-05,0.004
-1.272E-05,0.000
-1.271E-05,0.004
-1.270E-05,0.008
-1.269E-05,0.004
-1.268E-05,0.004
-1.267E-05,0.000
-1.266E-05,0.004
-1.265E-05,0.004
-1.264E-05,0.004
-1.263E-05,0.004
-1.262E-05,0.004
-1.261E-05,0.000
-1.260E-05,0.004
-1.259E-05,0.004
-1.258E-05,0.008
-1.257E-05,0.004
-1.256E-05,0.004
-1.255E-05,0.000
-1.254E-05,0.000
-1.253E-05,0.004
-1.252E-05,0.004
-1.251E-05,0.004
-1.250E-05,0.004
-1.249E-05,0.004
-1.248E-05,0.004
-1.247E-05,0.004
-1.246E-05,0.000
-1.245E-05,-0.004
-1.244E-05,-0.004
-1.243E-05,0.000
-1.242E-05,0.004
-1.241E-05,0.004
-1.240E-05,0.004
-1.239E-05,0.004
-1.238E-05,0.004
-1.237E-05,0.004
-1.236E-05,0.004
-1.235E-05,0.004
-1.234E-05,0.000
-1.233E-05,0.004
-1.232E-05,0.004
-1.231E-05,0.004
-1.230E-05,0.004
-1.229E-05,0.004
-1.228E-05,0.004
-1.227E-05,0.004
-1.226E-05,0.004
-1.225E-05,0.004
-1.224E-05,0.008
-1.223E-05,0.004
-1.222E-05,0.004
-1.221E-05,0.004
-1.220E-05,0.004
-1.219E-05,0.004
-1.218E-05,0.004
-1.217E-05,0.004
-1.216E-05,0.004
-1.215E-05,0.004
-1.214E-05,0.008
-1.213E-05,0.004
-1.212E-05,0.004
-1.211E-05,0.004
-1.210E-05,0.004
-1.209E-05,0.004
-1.208E-05,0.004
-1.207E-05,0.004
-1.206E-05,0.000
-1.205E-05,0.004
-1.204E-05,0.004
-1.203E-05,0.008
-1.202E-05,0.004
-1.201E-05,0.000
-1.200E-05,0.004
-1.199E-05,0.004
-1.198E-05,0.004
-1.197E-05,0.000
-1.196E-05,0.000
-1.195E-05,0.004
-1.194E-05,0.004
-1.193E-05,0.004
-1.192E-05,0.004
-1.191E-05,0.000
-1.190E-05,-0.004
-1.189E-05,0.004
-1.188E-05,0.004
-1.187E-05,0.008
-1.186E-05,0.008
-1.185E-05,0.008
-1.184E-05,0.000
-1.183E-05,0.004
-1.182E-05,0.000
-1.181E-05,0.008
-1.180E-05,0.008
-1.179E-05,0.004
-1.178E-05,0.004
-1.177E-05,0.004
-1.176E-05,0.004
-1.175E-05,0.000
-1.174E-05,0.004
-1.173E-05,0.008
-1.172E-05,0.004
-1.171E-05,0.004
-1.170E-05,0.004
-1.169E-05,0.004
-1.168E-05,0.004
-1.167E-05,0.004
-1.166E-05,0.004
-1.165E-05,0.000
-1.164E-05,0.000
-1.163E-05,0.004
-1.162E-05,0.004
-1.161E-05,0.004
-1.160E-05,0.004
-1.159E-05,0.008
-1.158E-05,0.000
-1.157E-05,0.000
-1.156E-05,0.000
-1.155E-05,-0.004
-1.154E-05,0.004
-1.153E-05,0.004
-1.152E-05,0.004
-1.151E-05,0.000
-1.150E-05,0.004
-1.149E-05,0.004
-1.148E-05,0.004
-1.147E-05,0.004
-1.146E-05,0.004
-1.145E-05,0.004
-1.144E-05,0.000
-1.143E-05,0.004
-1.142E-05,0.000
-1.141E-05,0.004
-1.140E-05,0.004
-1.139E-05,0.008
-1.138E-05,0.008
-1.137E-05,0.004
-1.136E-05,0.004
-1.135E-05,0.004
-1.134E-05,0.004
-1.133E-05,0.004
-1.132E-05,0.004
-1.131E-05,0.004
-1.130E-05,0.000
-1.129E-05,0.004
-1.128E-05,0.000
-1.127E-05,0.008
-1.126E-05,0.004
-1.125E-05,0.004
-1.124E-05,0.004
-1.123E-05,0.004
-1.122E-05,0.000
-1.121E-05,0.000
-1.120E-05,0.004
-1.119E-05,0.004
-1.118E-05,0.004
-1.117E-05,0.004
-1.116E-05,0.008
-1.115E-05,0.004
-1.114E-05,0.004
-1.113E-05,0.004
-1.112E-05,0.004
-1.111E-05,0.000
-1.110E-05,0.000
-1.109E-05,0.000
-1.108E-05,0.000
-1.107E-05,0.004
-1.106E-05,0.004
-1.105E-05,0.004
-1.104E-05,0.004
-1.103E-05,0.008
-1.102E-05,0.008
-1.101E-05,0.004
-1.100E-05,0.000
-1.099E-05,0.004
-1.098E-05,0.000
-1.097E-05,0.004
-1.096E-05,0.000
-1.095E-05,0.004
-1.094E-05,0.004
-1.093E-05,0.004
-1.092E-05,0.000
-1.091E-05,0.000
-1.090E-05,0.000
-1.089E-05,0.000
-1.088E-05,0.000
-1.087E-05,0.008
-1.086E-05,0.004
-1.085E-05,0.004
-1.084E-05,0.004
-1.083E-05,0.004
-1.082E-05,0.004
-1.081E-05,0.000
-1.080E-05,0.004
-1.079E-05,0.004
-1.078E-05,0.008
-1.077E-05,0.004
-1.076E-05,0.004
-1.075E-05,0.004
-1.074E-05,0.000
-1.073E-05,0.004
-1.072E-05,0.004
-1.071E-05,0.004
-1.070E-05,0.004
-1.069E-05,0.000
-1.068E-05,0.004
-1.067E-05,0.008
-1.066E-05,0.008
-1.065E-05,0.008
-1.064E-05,0.008
-1.063E-05,0.004
-1.062E-05,0.004
-1.061E-05,0.000
-1.060E-05,0.004
-1.059E-05,0.004
-1.058E-05,0.004
-1.057E-05,0.000
-1.056E-05,0.004
-1.055E-05,0.004
-1.054E-05,0.008
-1.053E-05,0.000
-1.052E-05,0.004
-1.051E-05,0.004
-1.050E-05,0.004
-1.049E-05,0.004
-1.048E-05,0.004
-1.047E-05,0.004
-1.046E-05,0.004
-1.045E-05,0.008
-1.044E-05,0.004
-1.043E-05,0.004
-1.042E-05,-0.004
-1.041E-05,0.000
-1.040E-05,0.004
-1.039E-05,0.004
-1.038E-05,0.000
-1.037E-05,0.004
-1.036E-05,0.004
-1.035E-05,0.004
-1.034E-05,0.004
-1.033E-05,0.004
-1.032E-05,0.004
-1.031E-05,0.004
-1.030E-05,0.000
-1.029E-05,0.000
-1.028E-05,0.004
-1.027E-05,0.004
-1.026E-05,0.008
-1.025E-05,0.004
-1.024E-05,0.004
-1.023E-05,0.004
-1.022E-05,0.004
-1.021E-05,0.004
-1.020E-05,0.004
-1.019E-05,0.004
-1.018E-05,0.004
-1.017E-05,0.000
-1.016E-05,0.004
-1.015E-05,0.004
-1.014E-05,0.000
-1.013E-05,0.004
-1.012E-05,0.004
-1.011E-05,0.004
-1.010E-05,0.004
-1.009E-05,0.000
-1.008E-05,0.000
-1.007E-05,0.004
-1.006E-05,0.004
-1.005E-05,0.000
-1.004E-05,0.004
-1.003E-05,0.000
-1.002E-05,0.004
-1.001E-05,0.004
-1.000E-05,0.004
-9.990E-06,0.004
-9.980E-06,0.004
-9.970E-06,0.004
-9.960E-06,0.004
-9.950E-06,0.004
-9.940E-06,0.000
-9.930E-06,0.004
-9.920E-06,0.004
-9.910E-06,0.004
-9.900E-06,0.004
-9.890E-06,0.004
-9.880E-06,0.004
-9.870E-06,0.004
-9.860E-06,0.008
-9.850E-06,0.008
-9.840E-06,0.008
-9.830E-06,0.004
-9.820E-06,0.004
-9.810E-06,0.004
-9.800E-06,0.004
-9.790E-06,0.004
-9.780E-06,0.004
-9.770E-06,0.000
-9.760E-06,0.004
-9.750E-06,0.000
-9.740E-06,0.004
-9.730E-06,0.004
-9.720E-06,0.004
-9.710E-06,0.004
-9.700E-06,0.004
-9.690E-06,0.000
-9.680E-06,0.000
-9.670E-06,0.004
-9.660E-06,0.004
-9.650E-06,0.004
-9.640E-06,0.000
-9.630E-06,0.000
-9.620E-06,0.004
-9.610E-06,0.004
-9.600E-06,0.004
-9.590E-06,0.004
-9.580E-06,0.004
-9.570E-06,0.004
-9.560E-06,0.000
-9.550E-06,0.004
-9.540E-06,0.008
-9.530E-06,0.008
-9.520E-06,0.000
-9.510E-06,0.004
-9.500E-06,0.004
-9.490E-06,0.004
-9.480E-06,0.004
-9.470E-06,0.000
-9.460E-06,0.004
-9.450E-06,0.004
-9.440E-06,0.004
-9.430E-06,0.004
-9.420E-06,-0.004
-9.410E-06,0.000
-9.400E-06,0.000
-9.390E-06,0.004
-9.380E-06,0.004
-9.370E-06,0.004
-9.360E-06,0.000
-9.350E-06,0.000
-9.340E-06,0.000
-9.330E-06,0.000
-9.320E-06,0.000
-9.310E-06,0.004
-9.300E-06,0.000
-9.290E-06,0.004
-9.280E-06,0.004
-9.270E-06,0.004
-9.260E-06,0.004
-9.250E-06,0.004
-9.240E-06,0.004
-9.230E-06,0.008
-9.220E-06,0.000
-9.210E-06,0.004
-9.200E-06,0.004
-9.190E-06,0.000
-9.180E-06,0.008
-9.170E-06,0.004
-9.160E-06,0.004
-9.150E-06,0.004
-9.140E-06,-0.004
-9.130E-06,-0.004
-9.120E-06,0.004
-9.110E-06,0.004
-9.100E-06,0.004
-9.090E-06,0.004
-9.080E-06,0.004
-9.070E-06,0.004
-9.060E-06,0.004
-9.050E-06,0.004
-9.040E-06,0.004
-9.030E-06,0.004
-9.020E-06,0.004
-9.010E-06,0.000
-9.000E-06,0.004
-8.990E-06,0.000
-8.980E-06,0.004
-8.970E-06,0.016
-8.960E-06,0.008
-8.950E-06,0.008
-8.940E-06,0.040
-8.930E-06,0.024
-8.920E-06,-0.040
-8.910E-06,0.144
-8.900E-06,-0.032
-8.890E-06,-0.084
-8.880E-06,-0.068
-8.870E-06,0.056
-8.860E-06,-0.004
-8.850E-06,0.032
-8.840E-06,0.064
-8.830E-06,-0.024
-8.820E-06,-0.016
-8.810E-06,0.000
-8.800E-06,0.000
-8.790E-06,-0.004
-8.780E-06,0.020
-8.770E-06,0.028
-8.760E-06,0.024
-8.750E-06,0.004
-8.740E-06,-0.020
-8.730E-06,-0.040
-8.720E-06,-0.028
-8.710E-06,-0.008
-8.700E-06,0.000
-8.690E-06,0.024
-8.680E-06,0.020
-8.670E-06,0.016
-8.660E-06,0.008
-8.650E-06,-0.016
-8.640E-06,-0.012
-8.630E-06,0.004
-8.620E-06,0.012
-8.610E-06,0.016
-8.600E-06,0.036
-8.590E-06,0.012
-8.580E-06,-0.004
-8.570E-06,-0.004
-8.560E-06,-0.020
-8.550E-06,-0.024
-8.540E-06,-0.004
-8.530E-06,0.012
-8.520E-06,0.008
-8.510E-06,0.012
-8.500E-06,0.008
-8.490E-06,0.008
-8.480E-06,-0.008
-8.470E-06,0.000
-8.460E-06,0.008
-8.450E-06,0.008
-8.440E-06,0.016
-8.430E-06,0.012
-8.420E-06,0.012
-8.410E-06,0.000
-8.400E-06,-0.004
-8.390E-06,-0.008
-8.380E-06,-0.012
-8.370E-06,0.000
-8.360E-06,0.000
-8.350E-06,0.000
-8.340E-06,0.004
-8.330E-06,0.012
-8.320E-06,0.004
-8.310E-06,0.008
-8.300E-06,0.000
-8.290E-06,0.008
-8.280E-06,0.008
-8.270E-06,0.008
-8.260E-06,0.008
-8.250E-06,0.008
-8.240E-06,0.000
-8.230E-06,0.000
-8.220E-06,0.000
-8.210E-06,-0.004
-8.200E-06,0.004
-8.190E-06,0.004
-8.180E-06,0.004
-8.170E-06,0.008
-8.160E-06,0.004
-8.150E-06,0.004
-8.140E-06,0.008
-8.130E-06,0.000
-8.120E-06,0.008
-8.110E-06,0.008
-8.100E-06,0.012
-8.090E-06,0.008
-8.080E-06,0.012
-8.070E-06,0.000
-8.060E-06,0.000
-8.050E-06,-0.004
-8.040E-06,-0.004
-8.030E-06,0.004
-8.020E-06,-0.004
-8.010E-06,0.000
-8.000E-06,0.000
-7.990E-06,-0.004
-7.980E-06,0.012
-7.970E-06,-0.004
-7.960E-06,0.008
-7.950E-06,0.000
-7.940E-06,0.008
-7.930E-06,0.004
-7.920E-06,0.008
-7.910E-06,0.004
-7.900E-06,-0.004
-7.890E-06,0.016
-7.880E-06,-0.012
-7.870E-06,0.000
-7.860E-06,0.016
-7.850E-06,0.012
-7.840E-06,0.024
-7.830E-06,-0.008
-7.820E-06,0.008
-7.810E-06,0.004
-7.800E-06,0.000
-7.790E-06,0.008
-7.780E-06,0.000
-7.770E-06,0.012
-7.760E-06,0.016
-7.750E-06,0.012
-7.740E-06,-0.004
-7.730E-06,0.000
-7.720E-06,0.004
-7.710E-06,0.008
-7.700E-06,0.012
-7.690E-06,0.008
-7.680E-06,0.008
-7.670E-06,0.004
-7.660E-06,0.008
-7.650E-06,-0.008
-7.640E-06,-0.016
-7.630E-06,0.008
-7.620E-06,0.012
-7.610E-06,0.020
-7.600E-06,0.008
-7.590E-06,0.008
-7.580E-06,0.004
-7.570E-06,-0.012
-7.560E-06,0.000
-7.550E-06,0.008
-7.540E-06,0.020
-7.530E-06,0.004
-7.520E-06,0.016
-7.510E-06,0.020
-7.500E-06,-0.004
-7.490E-06,-0.040
-7.480E-06,0.024
-7.470E-06,-0.024
-7.460E-06,-0.008
-7.450E-06,0.032
-7.440E-06,-0.004
-7.430E-06,0.016
-7.420E-06,-0.008
-7.410E-06,0.012
-7.400E-06,0.000
-7.390E-06,0.000
-7.380E-06,0.012
-7.370E-06,0.008
-7.360E-06,0.012
-7.350E-06,0.008
-7.340E-06,0.008
-7.330E-06,0.008
-7.320E-06,0.004
-7.310E-06,0.008
-7.300E-06,0.008
-7.290E-06,0.012
-7.280E-06,0.028
-7.270E-06,0.008
-7.260E-06,0.036
-7.250E-06,0.012
-7.240E-06,0.004
-7.230E-06,0.024
-7.220E-06,-0.004
-7.210E-06,0.052
-7.200E-06,0.004
-7.190E-06,0.048
-7.180E-06,0.044
-7.170E-06,0.012
-7.160E-06,0.036
-7.150E-06,0.032
-7.140E-06,0.012
-7.130E-06,0.024
-7.120E-06,0.012
-7.110E-06,0.016
-7.100E-06,-0.004
-7.090E-06,0.016
-7.080E-06,0.004
-7.070E-06,-0.020
-7.060E-06,0.008
-7.050E-06,-0.040
-7.040E-06,0.016
-7.030E-06,0.004
-7.020E-06,-0.008
-7.010E-06,0.032
-7.000E-06,-0.008
-6.990E-06,0.032
-6.980E-06,-0.008
-6.970E-06,-0.004
-6.960E-06,0.016
-6.950E-06,0.008
-6.940E-06,0.024
-6.930E-06,0.016
-6.920E-06,0.028
-6.910E-06,0.000
-6.900E-06,0.028
-6.890E-06,0.036
-6.880E-06,0.028
-6.870E-06,0.012
-6.860E-06,-0.004
-6.850E-06,0.012
-6.840E-06,-0.032
-6.830E-06,-0.024
-6.820E-06,0.008
-6.810E-06,0.000
-6.800E-06,0.048
-6.790E-06,0.068
-6.780E-06,0.056
-6.770E-06,0.064
-6.760E-06,0.016
-6.750E-06,0.032
-6.740E-06,0.012
-6.730E-06,0.032
-6.720E-06,0.032
-6.710E-06,0.096
-6.700E-06,0.052
-6.690E-06,0.092
-6.680E-06,0.100
-6.670E-06,0.048
-6.660E-06,0.072
-6.650E-06,0.064
-6.640E-06,0.052
-6.630E-06,0.080
-6.620E-06,0.064
-6.610E-06,0.068
-6.600E-06,0.100
-6.590E-06,-0.020
-6.580E-06,0.032
-6.570E-06,0.004
-6.560E-06,0.060
-6.550E-06,0.136
-6.540E-06,0.044
-6.530E-06,0.160
-6.520E-06,0.120
-6.510E-06,0.036
-6.500E-06,0.028
-6.490E-06,0.040
-6.480E-06,0.028
-6.470E-06,0.032
-6.460E-06,0.128
-6.450E-06,0.096
-6.440E-06,0.076
-6.430E-06,0.112
-6.420E-06,0.104
-6.410E-06,0.068
-6.400E-06,0.080
-6.390E-06,0.088
-6.380E-06,0.072
-6.370E-06,0.108
-6.360E-06,0.116
-6.350E-06,0.108
-6.340E-06,0.092
-6.330E-06,0.104
-6.320E-06,0.104
-6.310E-06,0.100
-6.300E-06,0.124
-6.290E-06,0.136
-6.280E-06,0.148
-6.270E-06,0.160
-6.260E-06,0.156
-6.250E-06,0.144
-6.240E-06,0.148
-6.230E-06,0.168
-6.220E-06,0.152
-6.210E-06,0.176
-6.200E-06,0.196
-6.190E-06,0.192
-6.180E-06,0.172
-6.170E-06,0.172
-6.160E-06,0.168
-6.150E-06,0.148
-6.140E-06,0.156
-6.130E-06,0.168
-6.120E-06,0.168
-6.110E-06,0.176
-6.100E-06,0.168
-6.090E-06,0.176
-6.080E-06,0.176
-6.070E-06,0.168
-6.060E-06,0.180
-6.050E-06,0.164
-6.040E-06,0.184
-6.030E-06,0.168
-6.020E-06,0.168
-6.010E-06,0.172
-6.000E-06,0.168
-5.990E-06,0.172
-5.980E-06,0.152
-5.970E-06,0.176
-5.960E-06,0.172
-5.950E-06,0.152
-5.940E-06,0.164
-5.930E-06,0.164
-5.920E-06,0.140
-5.910E-06,0.160
-5.900E-06,0.192
-5.890E-06,0.184
-5.880E-06,0.204
-5.870E-06,0.188
-5.860E-06,0.188
-5.850E-06,0.164
-5.840E-06,0.200
-5.830E-06,0.180
-5.820E-06,0.176
-5.810E-06,0.208
-5.800E-06,0.204
-5.790E-06,0.188
-5.780E-06,0.200
-5.770E-06,0.204
-5.760E-06,0.192
-5.750E-06,0.184
-5.740E-06,0.188
-5.730E-06,0.200
-5.720E-06,0.196
-5.710E-06,0.196
-5.700E-06,0.212
-5.690E-06,0.192
-5.680E-06,0.188
-5.670E-06,0.196
-5.660E-06,0.176
-5.650E-06,0.192
-5.640E-06,0.192
-5.630E-06,0.200
-5.620E-06,0.192
-5.610E-06,0.192
-5.600E-06,0.180
-5.590E-06,0.192
-5.580E-06,0.192
-5.570E-06,0.184
-5.560E-06,0.192
-5.550E-06,0.196
-5.540E-06,0.188
-5.530E-06,0.192
-5.520E-06,0.192
-5.510E-06,0.184
-5.500E-06,0.184
-5.490E-06,0.184
-5.480E-06,0.184
-5.470E-06,0.180
-5.460E-06,0.184
-5.450E-06,0.184
-5.440E-06,0.184
-5.430E-06,0.180
-5.420E-06,0.176
-5.410E-06,0.180
-5.400E-06,0.176
-5.390E-06,0.176
-5.380E-06,0.176
-5.370E-06,0.176
-5.360E-06,0.180
-5.350E-06,0.172
-5.340E-06,0.168
-5.330E-06,0.164
-5.320E-06,0.168
-5.310E-06,0.164
-5.300E-06,0.168
-5.290E-06,0.164
-5.280E-06,0.172
-5.270E-06,0.176
-5.260E-06,0.184
-5.250E-06,0.180
-5.240E-06,0.184
-5.230E-06,0.172
-5.220E-06,0.168
-5.210E-06,0.164
-5.200E-06,0.164
-5.190E-06,0.176
-5.180E-06,0.172
-5.170E-06,0.172
-5.160E-06,0.176
-5.150E-06,0.168
-5.140E-06,0.176
-5.130E-06,0.168
-5.120E-06,0.164
-5.110E-06,0.164
-5.100E-06,0.168
-5.090E-06,0.168
-5.080E-06,0.172
-5.070E-06,0.172
-5.060E-06,0.168
-5.050E-06,0.172
-5.040E-06,0.164
-5.030E-06,0.160
-5.020E-06,0.164
-5.010E-06,0.160
-5.000E-06,0.164
-4.990E-06,0.168
-4.980E-06,0.164
-4.970E-06,0.168
-4.960E-06,0.160
-4.950E-06,0.164
-4.940E-06,0.156
-4.930E-06,0.160
-4.920E-06,0.160
-4.910E-06,0.164
-4.900E-06,0.168
-4.890E-06,0.160
-4.880E-06,0.156
-4.870E-06,0.160
-4.860E-06,0.156
-4.850E-06,0.160
-4.840E-06,0.164
-4.830E-06,0.156
-4.820E-06,0.160
-4.810E-06,0.160
-4.800E-06,0.156
-4.790E-06,0.156
-4.780E-06,0.156
-4.770E-06,0.156
-4.760E-06,0.156
-4.750E-06,0.156
-4.740E-06,0.152
-4.730E-06,0.152
-4.720E-06,0.152
-4.710E-06,0.156
-4.700E-06,0.152
-4.690E-06,0.156
-4.680E-06,0.156
-4.670E-06,0.156
-4.660E-06,0.156
-4.650E-06,0.156
-4.640E-06,0.156
-4.630E-06,0.144
-4.620E-06,0.144
-4.610E-06,0.148
-4.600E-06,0.148
-4.590E-06,0.152
-4.580E-06,0.152
-4.570E-06,0.144
-4.560E-06,0.148
-4.550E-06,0.148
-4.540E-06,0.148
-4.530E-06,0.148
-4.520E-06,0.148
-4.510E-06,0.144
-4.500E-06,0.148
-4.490E-06,0.140
-4.480E-06,0.148
-4.470E-06,0.148
-4.460E-06,0.144
-4.450E-06,0.144
-4.440E-06,0.152
-4.430E-06,0.152
-4.420E-06,0.148
-4.410E-06,0.148
-4.400E-06,0.144
-4.390E-06,0.144
-4.380E-06,0.140
-4.370E-06,0.140
-4.360E-06,0.144
-4.350E-06,0.140
-4.340E-06,0.144
-4.330E-06,0.136
-4.320E-06,0.136
-4.310E-06,0.140
-4.300E-06,0.144
-4.290E-06,0.140
-4.280E-06,0.140
-4.270E-06,0.140
-4.260E-06,0.140
-4.250E-06,0.136
-4.240E-06,0.140
-4.230E-06,0.136
-4.220E-06,0.136
-4.210E-06,0.136
-4.200E-06,0.136
-4.190E-06,0.132
-4.180E-06,0.128
-4.170E-06,0.132
-4.160E-06,0.132
-4.150E-06,0.132
-4.140E-06,0.132
-4.130E-06,0.132
-4.120E-06,0.136
-4.110E-06,0.128
-4.100E-06,0.132
-4.090E-06,0.128
-4.080E-06,0.128
-4.070E-06,0.132
-4.060E-06,0.136
-4.050E-06,0.132
-4.040E-06,0.128
-4.030E-06,0.128
-4.020E-06,0.128
-4.010E-06,0.124
-4.000E-06,0.128
-3.990E-06,0.128
-3.980E-06,0.132
-3.970E-06,0.128
-3.960E-06,0.124
-3.950E-06,0.124
-3.940E-06,0.124
-3.930E-06,0.128
-3.920E-06,0.116
-3.910E-06,0.124
-3.900E-06,0.120
-3.890E-06,0.116
-3.880E-06,0.112
-3.870E-06,0.124
-3.860E-06,0.116
-3.850E-06,0.116
-3.840E-06,0.116
-3.830E-06,0.116
-3.820E-06,0.116
-3.810E-06,0.116
-3.800E-06,0.116
-3.790E-06,0.112
-3.780E-06,0.112
-3.770E-06,0.112
-3.760E-06,0.112
-3.750E-06,0.112
-3.740E-06,0.108
-3.730E-06,0.108
-3.720E-06,0.108
-3.710E-06,0.108
-3.700E-06,0.104
-3.690E-06,0.108
-3.680E-06,0.112
-3.670E-06,0.108
