mediciones/8-28/-60/WaveData651037.csv

#timebase=2000000(ps)
,#voltbase=500000(mv/100)
#size=4000
-8.350E-06,0.040
-8.340E-06,0.040
-8.330E-06,0.060
-8.320E-06,0.040
-8.310E-06,0.040
-8.300E-06,0.040
-8.290E-06,0.040
-8.280E-06,0.040
-8.270E-06,0.040
-8.260E-06,0.040
-8.250E-06,0.040
-8.240E-06,0.060
-8.230E-06,0.040
-8.220E-06,0.060
-8.210E-06,0.060
-8.200E-06,0.040
-8.190E-06,0.060
-8.180E-06,0.020
-8.170E-06,0.040
-8.160E-06,0.040
-8.150E-06,0.040
-8.140E-06,0.020
-8.130E-06,0.040
-8.120E-06,0.040
-8.110E-06,0.020
-8.100E-06,0.060
-8.090E-06,0.040
-8.080E-06,0.060
-8.070E-06,0.040
-8.060E-06,0.060
-8.050E-06,0.040
-8.040E-06,0.040
-8.030E-06,0.040
-8.020E-06,0.040
-8.010E-06,0.020
-8.000E-06,0.040
-7.990E-06,0.040
-7.980E-06,0.060
-7.970E-06,0.000
-7.960E-06,0.040
-7.950E-06,0.060
-7.940E-06,0.000
-7.930E-06,0.080
-7.920E-06,0.040
-7.910E-06,0.040
-7.900E-06,0.040
-7.890E-06,0.060
-7.880E-06,0.040
-7.870E-06,0.020
-7.860E-06,0.020
-7.850E-06,0.060
-7.840E-06,0.040
-7.830E-06,0.000
-7.820E-06,0.040
-7.810E-06,0.060
-7.800E-06,0.040
-7.790E-06,0.040
-7.780E-06,0.060
-7.770E-06,0.040
-7.760E-06,0.020
-7.750E-06,0.060
-7.740E-06,0.040
-7.730E-06,0.060
-7.720E-06,0.060
-7.710E-06,0.040
-7.700E-06,0.020
-7.690E-06,0.040
-7.680E-06,0.060
-7.670E-06,0.040
-7.660E-06,0.040
-7.650E-06,0.040
-7.640E-06,0.060
-7.630E-06,0.040
-7.620E-06,0.060
-7.610E-06,0.040
-7.600E-06,0.040
-7.590E-06,0.020
-7.580E-06,0.040
-7.570E-06,0.080
-7.560E-06,0.000
-7.550E-06,0.040
-7.540E-06,0.040
-7.530E-06,0.040
-7.520E-06,0.060
-7.510E-06,0.040
-7.500E-06,0.060
-7.490E-06,0.040
-7.480E-06,0.020
-7.470E-06,0.040
-7.460E-06,0.040
-7.450E-06,0.060
-7.440E-06,0.020
-7.430E-06,0.040
-7.420E-06,0.040
-7.410E-06,0.060
-7.400E-06,0.060
-7.390E-06,0.040
-7.380E-06,0.060
-7.370E-06,0.040
-7.360E-06,0.060
-7.350E-06,0.040
-7.340E-06,0.060
-7.330E-06,0.060
-7.320E-06,0.060
-7.310E-06,0.000
-7.300E-06,0.040
-7.290E-06,0.040
-7.280E-06,0.040
-7.270E-06,0.040
-7.260E-06,0.040
-7.250E-06,0.040
-7.240E-06,0.040
-7.230E-06,0.060
-7.220E-06,0.040
-7.210E-06,0.060
-7.200E-06,0.060
-7.190E-06,0.040
-7.180E-06,0.040
-7.170E-06,0.040
-7.160E-06,0.040
-7.150E-06,0.040
-7.140E-06,0.040
-7.130E-06,0.020
-7.120E-06,0.040
-7.110E-06,0.040
-7.100E-06,0.040
-7.090E-06,0.060
-7.080E-06,0.040
-7.070E-06,0.040
-7.060E-06,0.040
-7.050E-06,0.020
-7.040E-06,0.020
-7.030E-06,0.020
-7.020E-06,0.020
-7.010E-06,0.020
-7.000E-06,0.020
-6.990E-06,0.020
-6.980E-06,0.040
-6.970E-06,0.060
-6.960E-06,0.040
-6.950E-06,0.040
-6.940E-06,0.040
-6.930E-06,0.060
-6.920E-06,0.040
-6.910E-06,0.040
-6.900E-06,0.040
-6.890E-06,0.020
-6.880E-06,0.020
-6.870E-06,0.040
-6.860E-06,0.040
-6.850E-06,0.080
-6.840E-06,0.000
-6.830E-06,0.060
-6.820E-06,0.060
-6.810E-06,0.040
-6.800E-06,0.060
-6.790E-06,0.040
-6.780E-06,0.040
-6.770E-06,0.040
-6.760E-06,0.040
-6.750E-06,0.040
-6.740E-06,0.040
-6.730E-06,0.040
-6.720E-06,0.040
-6.710E-06,0.060
-6.700E-06,0.040
-6.690E-06,0.040
-6.680E-06,0.020
-6.670E-06,0.040
-6.660E-06,0.040
-6.650E-06,0.040
-6.640E-06,0.020
-6.630E-06,0.020
-6.620E-06,0.040
-6.610E-06,0.040
-6.600E-06,0.040
-6.590E-06,0.040
-6.580E-06,0.060
-6.570E-06,0.020
-6.560E-06,0.020
-6.550E-06,0.060
-6.540E-06,0.060
-6.530E-06,0.060
-6.520E-06,0.060
-6.510E-06,0.060
-6.500E-06,0.020
-6.490E-06,0.040
-6.480E-06,0.040
-6.470E-06,0.060
-6.460E-06,0.020
-6.450E-06,0.040
-6.440E-06,0.040
-6.430E-06,0.060
-6.420E-06,0.040
-6.410E-06,0.020
-6.400E-06,0.020
-6.390E-06,0.020
-6.380E-06,0.020
-6.370E-06,0.040
-6.360E-06,0.040
-6.350E-06,0.080
-6.340E-06,0.060
-6.330E-06,0.040
-6.320E-06,0.040
-6.310E-06,0.040
-6.300E-06,0.040
-6.290E-06,0.040
-6.280E-06,0.060
-6.270E-06,0.040
-6.260E-06,0.040
-6.250E-06,0.060
-6.240E-06,0.040
-6.230E-06,0.040
-6.220E-06,0.020
-6.210E-06,0.040
-6.200E-06,0.000
-6.190E-06,0.040
-6.180E-06,0.020
-6.170E-06,0.060
-6.160E-06,0.040
-6.150E-06,0.040
-6.140E-06,0.060
-6.130E-06,0.040
-6.120E-06,0.040
-6.110E-06,0.040
-6.100E-06,0.040
-6.090E-06,0.040
-6.080E-06,0.040
-6.070E-06,0.060
-6.060E-06,0.060
-6.050E-06,0.040
-6.040E-06,0.040
-6.030E-06,0.040
-6.020E-06,0.040
-6.010E-06,0.000
-6.000E-06,0.040
-5.990E-06,0.040
-5.980E-06,0.040
-5.970E-06,0.040
-5.960E-06,0.020
-5.950E-06,0.060
-5.940E-06,0.040
-5.930E-06,0.060
-5.920E-06,0.040
-5.910E-06,0.040
-5.900E-06,0.040
-5.890E-06,0.040
-5.880E-06,0.000
-5.870E-06,0.020
-5.860E-06,0.040
-5.850E-06,0.040
-5.840E-06,0.040
-5.830E-06,0.040
-5.820E-06,0.040
-5.810E-06,0.020
-5.800E-06,0.060
-5.790E-06,0.040
-5.780E-06,0.040
-5.770E-06,0.040
-5.760E-06,0.040
-5.750E-06,0.040
-5.740E-06,0.040
-5.730E-06,0.060
-5.720E-06,0.080
-5.710E-06,0.060
-5.700E-06,0.060
-5.690E-06,0.000
-5.680E-06,0.060
-5.670E-06,0.060
-5.660E-06,0.040
-5.650E-06,0.060
-5.640E-06,0.060
-5.630E-06,0.040
-5.620E-06,0.040
-5.610E-06,0.020
-5.600E-06,0.040
-5.590E-06,0.060
-5.580E-06,0.040
-5.570E-06,0.020
-5.560E-06,0.040
-5.550E-06,0.020
-5.540E-06,0.040
-5.530E-06,0.020
-5.520E-06,0.040
-5.510E-06,0.040
-5.500E-06,0.040
-5.490E-06,0.040
-5.480E-06,0.060
-5.470E-06,0.040
-5.460E-06,0.060
-5.450E-06,0.060
-5.440E-06,0.040
-5.430E-06,0.040
-5.420E-06,0.040
-5.410E-06,0.060
-5.400E-06,0.060
-5.390E-06,0.020
-5.380E-06,0.020
-5.370E-06,0.040
-5.360E-06,0.040
-5.350E-06,0.040
-5.340E-06,0.040
-5.330E-06,0.040
-5.320E-06,0.040
-5.310E-06,0.040
-5.300E-06,0.040
-5.290E-06,0.040
-5.280E-06,0.000
-5.270E-06,0.040
-5.260E-06,0.060
-5.250E-06,0.040
-5.240E-06,0.000
-5.230E-06,0.060
-5.220E-06,0.020
-5.210E-06,0.020
-5.200E-06,0.020
-5.190E-06,0.040
-5.180E-06,0.040
-5.170E-06,0.020
-5.160E-06,0.060
-5.150E-06,0.040
-5.140E-06,0.040
-5.130E-06,0.060
-5.120E-06,0.040
-5.110E-06,0.040
-5.100E-06,0.040
-5.090E-06,0.080
-5.080E-06,0.060
-5.070E-06,0.060
-5.060E-06,0.040
-5.050E-06,0.040
-5.040E-06,0.060
-5.030E-06,0.060
-5.020E-06,0.060
-5.010E-06,0.040
-5.000E-06,0.060
-4.990E-06,0.060
-4.980E-06,0.040
-4.970E-06,0.060
-4.960E-06,0.040
-4.950E-06,0.040
-4.940E-06,0.040
-4.930E-06,0.000
-4.920E-06,0.020
-4.910E-06,0.040
-4.900E-06,0.040
-4.890E-06,0.060
-4.880E-06,0.020
-4.870E-06,0.040
-4.860E-06,0.040
-4.850E-06,0.040
-4.840E-06,0.060
-4.830E-06,0.060
-4.820E-06,0.060
-4.810E-06,0.040
-4.800E-06,0.040
-4.790E-06,0.040
-4.780E-06,0.060
-4.770E-06,0.040
-4.760E-06,0.000
-4.750E-06,0.040
-4.740E-06,0.060
-4.730E-06,0.040
-4.720E-06,0.020
-4.710E-06,0.060
-4.700E-06,0.060
-4.690E-06,0.040
-4.680E-06,0.040
-4.670E-06,0.040
-4.660E-06,0.040
-4.650E-06,0.040
-4.640E-06,0.040
-4.630E-06,0.040
-4.620E-06,0.060
-4.610E-06,0.040
-4.600E-06,0.020
-4.590E-06,0.060
-4.580E-06,0.060
-4.570E-06,0.040
-4.560E-06,0.040
-4.550E-06,0.020
-4.540E-06,0.040
-4.530E-06,0.040
-4.520E-06,0.040
-4.510E-06,0.060
-4.500E-06,0.060
-4.490E-06,0.040
-4.480E-06,0.020
-4.470E-06,0.060
-4.460E-06,0.080
-4.450E-06,0.060
-4.440E-06,0.060
-4.430E-06,0.040
-4.420E-06,0.020
-4.410E-06,0.020
-4.400E-06,0.040
-4.390E-06,0.040
-4.380E-06,0.060
-4.370E-06,0.040
-4.360E-06,0.040
-4.350E-06,0.040
-4.340E-06,0.020
-4.330E-06,0.040
-4.320E-06,0.040
-4.310E-06,0.040
-4.300E-06,0.040
-4.290E-06,0.040
-4.280E-06,0.040
-4.270E-06,0.040
-4.260E-06,0.020
-4.250E-06,0.040
-4.240E-06,0.080
-4.230E-06,0.040
-4.220E-06,0.040
-4.210E-06,0.060
-4.200E-06,0.020
-4.190E-06,0.020
-4.180E-06,0.060
-4.170E-06,0.040
-4.160E-06,0.060
-4.150E-06,0.060
-4.140E-06,0.040
-4.130E-06,0.040
-4.120E-06,0.040
-4.110E-06,0.060
-4.100E-06,0.060
-4.090E-06,0.080
-4.080E-06,0.000
-4.070E-06,0.040
-4.060E-06,0.060
-4.050E-06,0.060
-4.040E-06,0.040
-4.030E-06,0.040
-4.020E-06,0.020
-4.010E-06,-0.080
-4.000E-06,-0.580
-3.990E-06,-1.420
-3.980E-06,-2.400
-3.970E-06,-3.160
-3.960E-06,-3.420
-3.950E-06,-1.820
-3.940E-06,-1.480
-3.930E-06,-1.340
-3.920E-06,1.540
-3.910E-06,1.740
-3.900E-06,1.820
-3.890E-06,1.800
-3.880E-06,1.820
-3.870E-06,1.820
-3.860E-06,1.820
-3.850E-06,1.840
-3.840E-06,1.840
-3.830E-06,0.680
-3.820E-06,0.520
-3.810E-06,-0.500
-3.800E-06,-0.820
-3.790E-06,-0.760
-3.780E-06,-0.460
-3.770E-06,-0.220
-3.760E-06,-0.280
-3.750E-06,-0.160
-3.740E-06,-0.320
-3.730E-06,-0.760
-3.720E-06,-1.200
-3.710E-06,-1.500
-3.700E-06,-1.860
-3.690E-06,-1.980
-3.680E-06,-1.800
-3.670E-06,-1.640
-3.660E-06,-1.220
-3.650E-06,-0.600
-3.640E-06,0.020
-3.630E-06,0.580
-3.620E-06,1.120
-3.610E-06,1.580
-3.600E-06,1.660
-3.590E-06,1.660
-3.580E-06,1.520
-3.570E-06,1.120
-3.560E-06,0.680
-3.550E-06,0.260
-3.540E-06,-0.160
-3.530E-06,-0.500
-3.520E-06,-0.740
-3.510E-06,-0.900
-3.500E-06,-0.920
-3.490E-06,-0.860
-3.480E-06,-0.760
-3.470E-06,-0.600
-3.460E-06,-0.520
-3.450E-06,-0.320
-3.440E-06,-0.120
-3.430E-06,0.040
-3.420E-06,0.280
-3.410E-06,0.500
-3.400E-06,0.660
-3.390E-06,0.800
-3.380E-06,0.860
-3.370E-06,0.920
-3.360E-06,0.880
-3.350E-06,0.800
-3.340E-06,0.740
-3.330E-06,0.580
-3.320E-06,0.400
-3.310E-06,0.260
-3.300E-06,0.080
-3.290E-06,-0.040
-3.280E-06,-0.200
-3.270E-06,-0.280
-3.260E-06,-0.400
-3.250E-06,-0.440
-3.240E-06,-0.520
-3.230E-06,-0.580
-3.220E-06,-0.580
-3.210E-06,-0.600
-3.200E-06,-0.500
-3.190E-06,-0.440
-3.180E-06,-0.280
-3.170E-06,-0.040
-3.160E-06,0.140
-3.150E-06,0.400
-3.140E-06,0.600
-3.130E-06,0.720
-3.120E-06,0.800
-3.110E-06,0.780
-3.100E-06,0.740
-3.090E-06,0.640
-3.080E-06,0.420
-3.070E-06,0.240
-3.060E-06,0.020
-3.050E-06,-0.160
-3.040E-06,-0.400
-3.030E-06,-0.520
-3.020E-06,-0.560
-3.010E-06,-0.560
-3.000E-06,-0.520
-2.990E-06,-0.480
-2.980E-06,-0.340
-2.970E-06,-0.220
-2.960E-06,-0.120
-2.950E-06,-0.060
-2.940E-06,0.020
-2.930E-06,0.040
-2.920E-06,0.060
-2.910E-06,0.080
-2.900E-06,0.100
-2.890E-06,0.140
-2.880E-06,0.120
-2.870E-06,0.160
-2.860E-06,0.140
-2.850E-06,0.180
-2.840E-06,0.220
-2.830E-06,0.200
-2.820E-06,0.160
-2.810E-06,0.140
-2.800E-06,0.040
-2.790E-06,-0.060
-2.780E-06,-0.140
-2.770E-06,-0.260
-2.760E-06,-0.020
-2.750E-06,-0.260
-2.740E-06,0.040
-2.730E-06,-0.200
-2.720E-06,0.080
-2.710E-06,-0.100
-2.700E-06,0.120
-2.690E-06,0.000
-2.680E-06,0.040
-2.670E-06,-0.020
-2.660E-06,0.000
-2.650E-06,0.000
-2.640E-06,0.000
-2.630E-06,0.040
-2.620E-06,-0.020
-2.610E-06,-0.040
-2.600E-06,-0.060
-2.590E-06,-0.020
-2.580E-06,-0.140
-2.570E-06,-0.020
-2.560E-06,-0.140
-2.550E-06,-0.120
-2.540E-06,-0.280
-2.530E-06,-0.140
-2.520E-06,-0.340
-2.510E-06,-0.260
-2.500E-06,-0.260
-2.490E-06,-0.240
-2.480E-06,0.060
-2.470E-06,-0.040
-2.460E-06,0.100
-2.450E-06,0.060
-2.440E-06,0.000
-2.430E-06,0.000
-2.420E-06,-0.120
-2.410E-06,-0.100
-2.400E-06,-0.180
-2.390E-06,-0.100
-2.380E-06,-0.140
-2.370E-06,-0.100
-2.360E-06,-0.120
-2.350E-06,-0.040
-2.340E-06,-0.040
-2.330E-06,-0.020
-2.320E-06,0.080
-2.310E-06,0.000
-2.300E-06,0.080
-2.290E-06,0.080
-2.280E-06,0.100
-2.270E-06,0.120
-2.260E-06,0.060
-2.250E-06,0.060
-2.240E-06,0.100
-2.230E-06,0.040
-2.220E-06,-0.020
-2.210E-06,-0.040
-2.200E-06,-0.200
-2.190E-06,-0.020
-2.180E-06,-0.200
-2.170E-06,-0.020
-2.160E-06,-0.280
-2.150E-06,-0.060
-2.140E-06,-0.160
-2.130E-06,-0.140
-2.120E-06,-0.140
-2.110E-06,-0.100
-2.100E-06,-0.040
-2.090E-06,-0.080
-2.080E-06,-0.040
-2.070E-06,-0.040
-2.060E-06,-0.060
-2.050E-06,-0.040
-2.040E-06,-0.080
-2.030E-06,-0.060
-2.020E-06,-0.040
-2.010E-06,-0.020
-2.000E-06,-0.040
-1.990E-06,0.020
-1.980E-06,0.000
-1.970E-06,-0.040
-1.960E-06,-0.100
-1.950E-06,-0.100
-1.940E-06,0.000
-1.930E-06,-0.120
-1.920E-06,0.000
-1.910E-06,-0.200
-1.900E-06,-0.160
-1.890E-06,-0.200
-1.880E-06,-0.200
-1.870E-06,-0.240
-1.860E-06,-0.280
-1.850E-06,-0.280
-1.840E-06,-0.240
-1.830E-06,-0.280
-1.820E-06,-0.220
-1.810E-06,-0.220
-1.800E-06,-0.140
-1.790E-06,-0.220
-1.780E-06,-0.080
-1.770E-06,-0.200
-1.760E-06,-0.080
-1.750E-06,-0.120
-1.740E-06,-0.060
-1.730E-06,-0.080
-1.720E-06,-0.060
-1.710E-06,-0.040
-1.700E-06,-0.080
-1.690E-06,-0.120
-1.680E-06,-0.080
-1.670E-06,-0.020
-1.660E-06,0.140
-1.650E-06,0.580
-1.640E-06,1.180
-1.630E-06,1.620
-1.620E-06,1.820
-1.610E-06,1.760
-1.600E-06,1.380
-1.590E-06,0.720
-1.580E-06,0.000
-1.570E-06,-0.800
-1.560E-06,-1.500
-1.550E-06,-1.760
-1.540E-06,-2.240
-1.530E-06,-2.140
-1.520E-06,-2.200
-1.510E-06,-1.800
-1.500E-06,-1.440
-1.490E-06,-0.960
-1.480E-06,-0.760
-1.470E-06,-0.640
-1.460E-06,-0.520
-1.450E-06,-0.440
-1.440E-06,-0.400
-1.430E-06,-0.340
-1.420E-06,-0.300
-1.410E-06,-0.160
-1.400E-06,-0.180
-1.390E-06,0.000
-1.380E-06,0.200
-1.370E-06,0.620
-1.360E-06,0.780
-1.350E-06,1.060
-1.340E-06,1.040
-1.330E-06,0.960
-1.320E-06,0.740
-1.310E-06,0.460
-1.300E-06,0.260
-1.290E-06,-0.080
-1.280E-06,-0.380
-1.270E-06,-0.600
-1.260E-06,-0.840
-1.250E-06,-1.020
-1.240E-06,-0.980
-1.230E-06,-0.940
-1.220E-06,-0.740
-1.210E-06,-0.460
-1.200E-06,-0.200
-1.190E-06,0.060
-1.180E-06,0.320
-1.170E-06,0.440
-1.160E-06,0.540
-1.150E-06,0.580
-1.140E-06,0.500
-1.130E-06,0.400
-1.120E-06,0.220
-1.110E-06,0.060
-1.100E-06,-0.180
-1.090E-06,-0.120
-1.080E-06,-0.440
-1.070E-06,-0.440
-1.060E-06,-0.700
-1.050E-06,-0.720
-1.040E-06,-0.760
-1.030E-06,-0.780
-1.020E-06,-0.880
-1.010E-06,-0.860
-1.000E-06,-0.960
-9.900E-07,-1.040
-9.800E-07,-0.980
-9.700E-07,-1.080
-9.600E-07,-0.860
-9.500E-07,-0.880
-9.400E-07,-0.760
-9.300E-07,-0.500
-9.200E-07,-0.280
-9.100E-07,-0.160
-9.000E-07,-0.200
-8.900E-07,-0.120
-8.800E-07,0.040
-8.700E-07,-0.240
-8.600E-07,-0.460
-8.500E-07,-0.620
-8.400E-07,-1.000
-8.300E-07,-1.300
-8.200E-07,-1.840
-8.100E-07,-1.920
-8.000E-07,-2.060
-7.900E-07,-2.040
-7.800E-07,-2.040
-7.700E-07,-2.040
-7.600E-07,-1.980
-7.500E-07,-1.700
-7.400E-07,-1.500
-7.300E-07,-1.180
-7.200E-07,-0.980
-7.100E-07,-0.660
-7.000E-07,-0.540
-6.900E-07,-0.320
-6.800E-07,-0.140
-6.700E-07,0.020
-6.600E-07,0.000
-6.500E-07,0.000
-6.400E-07,-0.120
-6.300E-07,-0.040
-6.200E-07,-0.280
-6.100E-07,-0.280
-6.000E-07,-0.400
-5.900E-07,-0.520
-5.800E-07,-0.620
-5.700E-07,-0.720
-5.600E-07,-0.800
-5.500E-07,-0.960
-5.400E-07,-0.980
-5.300E-07,-1.040
-5.200E-07,-0.960
-5.100E-07,-1.020
-5.000E-07,-0.860
-4.900E-07,-0.900
-4.800E-07,-0.620
-4.700E-07,-0.620
-4.600E-07,-0.440
-4.500E-07,-0.380
-4.400E-07,-0.180
-4.300E-07,-0.240
-4.200E-07,-0.240
-4.100E-07,-0.180
-4.000E-07,-0.400
-3.900E-07,-0.520
-3.800E-07,-0.600
-3.700E-07,-0.780
-3.600E-07,-0.840
-3.500E-07,-1.220
-3.400E-07,-1.240
-3.300E-07,-1.440
-3.200E-07,-1.760
-3.100E-07,-1.980
-3.000E-07,-2.120
-2.900E-07,-2.140
-2.800E-07,-2.040
-2.700E-07,-1.940
-2.600E-07,-1.700
-2.500E-07,-1.680
-2.400E-07,-1.560
-2.300E-07,-1.500
-2.200E-07,-1.280
-2.100E-07,-1.540
-2.000E-07,-1.720
-1.900E-07,-1.580
-1.800E-07,-1.560
-1.700E-07,-1.700
-1.600E-07,-1.440
-1.500E-07,-1.280
-1.400E-07,-0.720
-1.300E-07,-0.500
-1.200E-07,0.060
-1.100E-07,0.140
-1.000E-07,0.000
-9.000E-08,-2.120
-8.000E-08,-2.680
-7.000E-08,-3.340
-6.000E-08,-2.240
-5.000E-08,-1.520
-4.000E-08,-0.500
-3.000E-08,0.760
-2.000E-08,0.000
-1.000E-08,-0.500
0.000E+00,-3.560
1.000E-08,-3.600
2.000E-08,-3.600
3.000E-08,-3.600
4.000E-08,-3.600
5.000E-08,-3.600
6.000E-08,-3.600
7.000E-08,-3.600
8.000E-08,-3.600
9.000E-08,-3.180
1.000E-07,-3.160
1.100E-07,-3.380
1.200E-07,-3.620
1.300E-07,-3.500
1.400E-07,-3.340
1.500E-07,-2.520
1.600E-07,-2.680
1.700E-07,-2.680
1.800E-07,-2.740
1.900E-07,-3.260
2.000E-07,-3.240
2.100E-07,-3.140
2.200E-07,-3.200
2.300E-07,-2.600
2.400E-07,-2.640
2.500E-07,-2.320
2.600E-07,-2.760
2.700E-07,-2.860
2.800E-07,-3.400
2.900E-07,-3.600
3.000E-07,-3.600
3.100E-07,-3.600
3.200E-07,-3.600
3.300E-07,-3.600
3.400E-07,-3.600
3.500E-07,-3.600
3.600E-07,-3.600
3.700E-07,-3.600
3.800E-07,-3.580
3.900E-07,-3.580
4.000E-07,-3.600
4.100E-07,-3.600
4.200E-07,-3.600
4.300E-07,-3.600
4.400E-07,-3.620
4.500E-07,-3.480
4.600E-07,-3.420
4.700E-07,-3.420
4.800E-07,-3.460
4.900E-07,-3.500
5.000E-07,-3.560
5.100E-07,-3.460
5.200E-07,-3.380
5.300E-07,-3.220
5.400E-07,-2.880
5.500E-07,-2.560
5.600E-07,-2.240
5.700E-07,-1.960
5.800E-07,-1.800
5.900E-07,-1.640
6.000E-07,-1.500
6.100E-07,-1.460
6.200E-07,-1.480
6.300E-07,-1.320
6.400E-07,-1.140
6.500E-07,-0.940
6.600E-07,-0.860
6.700E-07,-0.680
6.800E-07,-0.600
6.900E-07,-0.620
7.000E-07,-0.800
7.100E-07,-0.780
7.200E-07,-0.800
7.300E-07,-0.620
7.400E-07,-0.480
7.500E-07,-0.600
7.600E-07,-0.680
7.700E-07,-0.940
7.800E-07,-1.220
7.900E-07,-1.820
8.000E-07,-2.360
8.100E-07,-2.780
8.200E-07,-2.980
8.300E-07,-3.080
8.400E-07,-3.040
8.500E-07,-3.120
8.600E-07,-2.980
8.700E-07,-2.720
8.800E-07,-2.640
8.900E-07,-2.520
9.000E-07,-2.560
9.100E-07,-2.540
9.200E-07,-2.520
9.300E-07,-2.480
9.400E-07,-2.420
9.500E-07,-2.340
9.600E-07,-2.280
9.700E-07,-2.180
9.800E-07,-2.080
9.900E-07,-2.000
1.000E-06,-1.800
1.010E-06,-1.600
1.020E-06,-1.440
1.030E-06,-1.240
1.040E-06,-1.120
1.050E-06,-1.020
1.060E-06,-0.960
1.070E-06,-0.940
1.080E-06,-0.940
1.090E-06,-0.920
1.100E-06,-0.940
1.110E-06,-0.940
1.120E-06,-0.900
1.130E-06,-0.880
1.140E-06,-0.820
1.150E-06,-0.820
1.160E-06,-0.800
1.170E-06,-0.780
1.180E-06,-0.800
1.190E-06,-0.860
1.200E-06,-0.900
1.210E-06,-0.940
1.220E-06,-0.980
1.230E-06,-1.080
1.240E-06,-1.180
1.250E-06,-1.240
1.260E-06,-1.280
1.270E-06,-1.300
1.280E-06,-1.280
1.290E-06,-1.280
1.300E-06,-1.200
1.310E-06,-1.120
1.320E-06,-1.100
1.330E-06,-1.020
1.340E-06,-0.960
1.350E-06,-0.980
1.360E-06,-0.980
1.370E-06,-1.020
1.380E-06,-0.980
1.390E-06,-0.980
1.400E-06,-0.940
1.410E-06,-0.980
1.420E-06,-0.920
1.430E-06,-0.940
1.440E-06,-0.860
1.450E-06,-0.840
1.460E-06,-0.800
1.470E-06,-0.760
1.480E-06,-0.720
1.490E-06,-0.680
1.500E-06,-0.600
1.510E-06,-0.540
1.520E-06,-0.540
1.530E-06,-0.460
1.540E-06,-0.420
1.550E-06,-0.400
1.560E-06,-0.400
1.570E-06,-0.360
1.580E-06,-0.380
1.590E-06,-0.400
1.600E-06,-0.440
1.610E-06,-0.420
1.620E-06,-0.400
1.630E-06,-0.380
1.640E-06,-0.320
1.650E-06,-0.240
1.660E-06,-0.180
1.670E-06,-0.120
1.680E-06,-0.120
1.690E-06,-0.100
1.700E-06,-0.080
1.710E-06,-0.100
1.720E-06,-0.100
1.730E-06,-0.060
1.740E-06,-0.020
1.750E-06,0.000
1.760E-06,0.060
1.770E-06,0.180
1.780E-06,0.200
1.790E-06,0.280
1.800E-06,0.300
1.810E-06,0.320
1.820E-06,0.300
1.830E-06,0.280
1.840E-06,0.260
1.850E-06,0.260
1.860E-06,0.240
1.870E-06,0.160
1.880E-06,0.080
1.890E-06,0.040
1.900E-06,0.000
1.910E-06,-0.080
1.920E-06,-0.100
1.930E-06,-0.080
1.940E-06,-0.040
1.950E-06,-0.020
1.960E-06,-0.020
1.970E-06,-0.020
1.980E-06,-0.040
1.990E-06,-0.020
2.000E-06,-0.060
2.010E-06,-0.080
2.020E-06,-0.160
2.030E-06,-0.280
2.040E-06,-0.280
2.050E-06,-0.300
2.060E-06,-0.300
2.070E-06,-0.300
2.080E-06,-0.300
2.090E-06,-0.260
2.100E-06,-0.260
2.110E-06,-0.200
2.120E-06,-0.220
2.130E-06,-0.160
2.140E-06,-0.080
2.150E-06,-0.080
2.160E-06,0.000
2.170E-06,0.020
2.180E-06,0.040
2.190E-06,0.080
2.200E-06,0.080
2.210E-06,0.080
2.220E-06,0.080
2.230E-06,0.080
2.240E-06,0.080
2.250E-06,0.080
2.260E-06,0.080
2.270E-06,0.120
2.280E-06,0.160
2.290E-06,0.180
2.300E-06,0.180
2.310E-06,0.260
2.320E-06,0.260
2.330E-06,0.200
2.340E-06,0.160
2.350E-06,0.120
2.360E-06,0.160
2.370E-06,0.180
2.380E-06,0.160
2.390E-06,0.160
2.400E-06,0.160
2.410E-06,0.100
2.420E-06,0.060
2.430E-06,0.060
2.440E-06,-0.020
2.450E-06,-0.140
2.460E-06,-0.240
2.470E-06,-0.340
2.480E-06,-0.400
2.490E-06,-0.420
2.500E-06,-0.540
2.510E-06,-0.520
2.520E-06,-0.520
2.530E-06,-0.500
2.540E-06,-0.420
2.550E-06,-0.460
2.560E-06,-0.520
2.570E-06,-0.460
2.580E-06,-0.380
2.590E-06,-0.240
2.600E-06,-0.140
2.610E-06,-0.060
2.620E-06,0.020
2.630E-06,0.060
2.640E-06,0.100
2.650E-06,0.120
2.660E-06,0.200
2.670E-06,0.240
2.680E-06,0.280
2.690E-06,0.320
2.700E-06,0.380
2.710E-06,0.420
2.720E-06,0.440
2.730E-06,0.400
2.740E-06,0.400
2.750E-06,0.400
2.760E-06,0.380
2.770E-06,0.340
2.780E-06,0.300
2.790E-06,0.260
2.800E-06,0.180
2.810E-06,0.080
2.820E-06,0.020
2.830E-06,0.000
2.840E-06,-0.040
2.850E-06,-0.080
2.860E-06,-0.080
2.870E-06,-0.080
2.880E-06,-0.100
2.890E-06,-0.100
2.900E-06,-0.100
2.910E-06,-0.100
2.920E-06,-0.120
2.930E-06,-0.120
2.940E-06,-0.160
2.950E-06,-0.220
2.960E-06,-0.280
2.970E-06,-0.340
2.980E-06,-0.380
2.990E-06,-0.440
3.000E-06,-0.500
3.010E-06,-0.540
3.020E-06,-0.580
3.030E-06,-0.600
3.040E-06,-0.520
3.050E-06,-0.500
3.060E-06,-0.440
3.070E-06,-0.360
3.080E-06,-0.280
3.090E-06,-0.220
3.100E-06,-0.180
3.110E-06,-0.160
3.120E-06,-0.140
3.130E-06,-0.080
3.140E-06,-0.040
3.150E-06,-0.020
3.160E-06,-0.020
3.170E-06,0.020
3.180E-06,0.040
3.190E-06,0.020
3.200E-06,0.000
3.210E-06,-0.040
3.220E-06,-0.120
3.230E-06,-0.200
3.240E-06,-0.280
