mediciones/8-28/-60/WaveData651027.csv

#timebase=2000000(ps)
,#voltbase=500000(mv/100)
#size=4000
-8.350E-06,0.060
-8.340E-06,0.060
-8.330E-06,0.060
-8.320E-06,0.040
-8.310E-06,0.040
-8.300E-06,0.040
-8.290E-06,0.080
-8.280E-06,0.080
-8.270E-06,0.040
-8.260E-06,0.040
-8.250E-06,0.040
-8.240E-06,0.000
-8.230E-06,0.040
-8.220E-06,0.020
-8.210E-06,0.040
-8.200E-06,0.040
-8.190E-06,0.040
-8.180E-06,0.020
-8.170E-06,0.040
-8.160E-06,0.020
-8.150E-06,0.040
-8.140E-06,0.040
-8.130E-06,0.060
-8.120E-06,0.020
-8.110E-06,0.060
-8.100E-06,0.060
-8.090E-06,0.060
-8.080E-06,0.060
-8.070E-06,0.060
-8.060E-06,0.040
-8.050E-06,0.020
-8.040E-06,0.040
-8.030E-06,0.040
-8.020E-06,0.040
-8.010E-06,0.040
-8.000E-06,0.060
-7.990E-06,0.020
-7.980E-06,0.040
-7.970E-06,0.040
-7.960E-06,0.060
-7.950E-06,0.040
-7.940E-06,0.060
-7.930E-06,0.060
-7.920E-06,0.000
-7.910E-06,0.040
-7.900E-06,0.060
-7.890E-06,0.060
-7.880E-06,0.080
-7.870E-06,0.000
-7.860E-06,0.060
-7.850E-06,0.020
-7.840E-06,0.040
-7.830E-06,0.040
-7.820E-06,0.020
-7.810E-06,0.060
-7.800E-06,0.060
-7.790E-06,0.040
-7.780E-06,0.040
-7.770E-06,0.060
-7.760E-06,0.060
-7.750E-06,0.060
-7.740E-06,0.040
-7.730E-06,0.040
-7.720E-06,0.000
-7.710E-06,0.020
-7.700E-06,0.020
-7.690E-06,0.040
-7.680E-06,0.040
-7.670E-06,0.060
-7.660E-06,0.040
-7.650E-06,0.040
-7.640E-06,0.060
-7.630E-06,0.040
-7.620E-06,0.040
-7.610E-06,0.040
-7.600E-06,0.040
-7.590E-06,0.040
-7.580E-06,0.060
-7.570E-06,0.060
-7.560E-06,0.040
-7.550E-06,0.020
-7.540E-06,0.040
-7.530E-06,0.040
-7.520E-06,0.040
-7.510E-06,0.060
-7.500E-06,0.040
-7.490E-06,0.060
-7.480E-06,0.060
-7.470E-06,0.040
-7.460E-06,0.020
-7.450E-06,0.020
-7.440E-06,0.040
-7.430E-06,0.060
-7.420E-06,0.080
-7.410E-06,0.040
-7.400E-06,0.040
-7.390E-06,0.000
-7.380E-06,0.040
-7.370E-06,0.060
-7.360E-06,0.060
-7.350E-06,0.040
-7.340E-06,0.040
-7.330E-06,0.020
-7.320E-06,0.040
-7.310E-06,0.040
-7.300E-06,0.060
-7.290E-06,0.020
-7.280E-06,0.000
-7.270E-06,0.020
-7.260E-06,0.040
-7.250E-06,0.020
-7.240E-06,0.020
-7.230E-06,0.040
-7.220E-06,0.020
-7.210E-06,0.020
-7.200E-06,0.040
-7.190E-06,0.040
-7.180E-06,0.060
-7.170E-06,0.040
-7.160E-06,0.060
-7.150E-06,0.040
-7.140E-06,0.040
-7.130E-06,0.020
-7.120E-06,0.040
-7.110E-06,0.020
-7.100E-06,0.040
-7.090E-06,0.040
-7.080E-06,0.040
-7.070E-06,0.040
-7.060E-06,0.060
-7.050E-06,0.040
-7.040E-06,0.040
-7.030E-06,0.060
-7.020E-06,0.020
-7.010E-06,0.020
-7.000E-06,0.040
-6.990E-06,0.040
-6.980E-06,0.040
-6.970E-06,0.040
-6.960E-06,0.000
-6.950E-06,0.060
-6.940E-06,0.040
-6.930E-06,0.060
-6.920E-06,0.040
-6.910E-06,0.060
-6.900E-06,0.020
-6.890E-06,0.060
-6.880E-06,0.020
-6.870E-06,0.020
-6.860E-06,0.020
-6.850E-06,0.020
-6.840E-06,0.040
-6.830E-06,0.060
-6.820E-06,0.040
-6.810E-06,0.040
-6.800E-06,0.080
-6.790E-06,0.060
-6.780E-06,0.080
-6.770E-06,0.040
-6.760E-06,0.040
-6.750E-06,0.040
-6.740E-06,0.060
-6.730E-06,0.040
-6.720E-06,0.040
-6.710E-06,0.040
-6.700E-06,0.020
-6.690E-06,0.020
-6.680E-06,0.020
-6.670E-06,0.040
-6.660E-06,0.060
-6.650E-06,0.060
-6.640E-06,0.060
-6.630E-06,0.080
-6.620E-06,0.080
-6.610E-06,0.060
-6.600E-06,0.060
-6.590E-06,0.060
-6.580E-06,0.060
-6.570E-06,0.060
-6.560E-06,0.040
-6.550E-06,0.000
-6.540E-06,0.060
-6.530E-06,0.040
-6.520E-06,0.040
-6.510E-06,0.040
-6.500E-06,0.040
-6.490E-06,0.000
-6.480E-06,0.040
-6.470E-06,0.040
-6.460E-06,0.060
-6.450E-06,0.040
-6.440E-06,0.060
-6.430E-06,0.040
-6.420E-06,0.040
-6.410E-06,0.060
-6.400E-06,0.060
-6.390E-06,0.060
-6.380E-06,0.040
-6.370E-06,0.040
-6.360E-06,0.040
-6.350E-06,0.020
-6.340E-06,0.000
-6.330E-06,0.040
-6.320E-06,0.020
-6.310E-06,0.040
-6.300E-06,0.040
-6.290E-06,0.060
-6.280E-06,0.040
-6.270E-06,0.040
-6.260E-06,0.020
-6.250E-06,0.040
-6.240E-06,0.040
-6.230E-06,0.080
-6.220E-06,0.040
-6.210E-06,0.040
-6.200E-06,0.020
-6.190E-06,0.020
-6.180E-06,0.020
-6.170E-06,0.020
-6.160E-06,0.040
-6.150E-06,0.060
-6.140E-06,0.020
-6.130E-06,0.020
-6.120E-06,0.020
-6.110E-06,0.040
-6.100E-06,0.040
-6.090E-06,0.020
-6.080E-06,0.060
-6.070E-06,0.040
-6.060E-06,0.060
-6.050E-06,0.040
-6.040E-06,0.020
-6.030E-06,0.040
-6.020E-06,0.060
-6.010E-06,0.040
-6.000E-06,0.040
-5.990E-06,0.060
-5.980E-06,0.040
-5.970E-06,0.020
-5.960E-06,0.040
-5.950E-06,0.040
-5.940E-06,0.040
-5.930E-06,0.060
-5.920E-06,0.040
-5.910E-06,0.000
-5.900E-06,0.040
-5.890E-06,0.040
-5.880E-06,0.040
-5.870E-06,0.040
-5.860E-06,0.040
-5.850E-06,0.040
-5.840E-06,0.040
-5.830E-06,0.040
-5.820E-06,0.060
-5.810E-06,0.020
-5.800E-06,0.000
-5.790E-06,0.000
-5.780E-06,0.040
-5.770E-06,0.040
-5.760E-06,0.040
-5.750E-06,0.040
-5.740E-06,0.020
-5.730E-06,0.040
-5.720E-06,0.040
-5.710E-06,0.060
-5.700E-06,0.040
-5.690E-06,0.020
-5.680E-06,0.040
-5.670E-06,0.040
-5.660E-06,0.040
-5.650E-06,0.040
-5.640E-06,0.040
-5.630E-06,0.040
-5.620E-06,0.060
-5.610E-06,0.040
-5.600E-06,0.020
-5.590E-06,0.040
-5.580E-06,0.020
-5.570E-06,0.040
-5.560E-06,0.020
-5.550E-06,0.080
-5.540E-06,0.000
-5.530E-06,0.040
-5.520E-06,0.040
-5.510E-06,0.040
-5.500E-06,0.040
-5.490E-06,0.060
-5.480E-06,0.020
-5.470E-06,0.020
-5.460E-06,0.040
-5.450E-06,0.040
-5.440E-06,0.020
-5.430E-06,0.020
-5.420E-06,0.040
-5.410E-06,0.060
-5.400E-06,0.000
-5.390E-06,0.040
-5.380E-06,0.060
-5.370E-06,0.040
-5.360E-06,0.040
-5.350E-06,0.000
-5.340E-06,0.040
-5.330E-06,0.020
-5.320E-06,0.040
-5.310E-06,0.060
-5.300E-06,0.040
-5.290E-06,0.020
-5.280E-06,0.060
-5.270E-06,0.060
-5.260E-06,0.040
-5.250E-06,0.040
-5.240E-06,0.040
-5.230E-06,0.060
-5.220E-06,0.040
-5.210E-06,0.020
-5.200E-06,0.060
-5.190E-06,0.060
-5.180E-06,0.040
-5.170E-06,0.060
-5.160E-06,0.040
-5.150E-06,0.040
-5.140E-06,0.060
-5.130E-06,0.040
-5.120E-06,0.060
-5.110E-06,0.060
-5.100E-06,0.040
-5.090E-06,0.020
-5.080E-06,0.060
-5.070E-06,0.060
-5.060E-06,0.040
-5.050E-06,0.040
-5.040E-06,0.040
-5.030E-06,0.040
-5.020E-06,0.020
-5.010E-06,0.020
-5.000E-06,0.040
-4.990E-06,0.040
-4.980E-06,0.060
-4.970E-06,0.040
-4.960E-06,0.040
-4.950E-06,0.020
-4.940E-06,0.040
-4.930E-06,0.040
-4.920E-06,0.040
-4.910E-06,0.060
-4.900E-06,0.020
-4.890E-06,0.040
-4.880E-06,0.040
-4.870E-06,0.040
-4.860E-06,0.040
-4.850E-06,0.040
-4.840E-06,0.040
-4.830E-06,0.020
-4.820E-06,0.040
-4.810E-06,0.000
-4.800E-06,0.000
-4.790E-06,0.040
-4.780E-06,0.040
-4.770E-06,0.020
-4.760E-06,0.060
-4.750E-06,0.040
-4.740E-06,0.040
-4.730E-06,0.020
-4.720E-06,0.060
-4.710E-06,0.040
-4.700E-06,0.040
-4.690E-06,0.040
-4.680E-06,0.040
-4.670E-06,0.060
-4.660E-06,0.040
-4.650E-06,0.040
-4.640E-06,0.060
-4.630E-06,0.060
-4.620E-06,0.040
-4.610E-06,0.020
-4.600E-06,0.020
-4.590E-06,0.040
-4.580E-06,0.040
-4.570E-06,0.060
-4.560E-06,0.060
-4.550E-06,0.040
-4.540E-06,0.040
-4.530E-06,0.060
-4.520E-06,0.040
-4.510E-06,0.040
-4.500E-06,0.040
-4.490E-06,0.040
-4.480E-06,0.040
-4.470E-06,0.020
-4.460E-06,0.040
-4.450E-06,0.060
-4.440E-06,0.040
-4.430E-06,0.040
-4.420E-06,0.020
-4.410E-06,0.040
-4.400E-06,0.060
-4.390E-06,0.040
-4.380E-06,0.040
-4.370E-06,0.020
-4.360E-06,0.020
-4.350E-06,0.020
-4.340E-06,0.040
-4.330E-06,0.040
-4.320E-06,0.040
-4.310E-06,0.040
-4.300E-06,0.060
-4.290E-06,0.060
-4.280E-06,0.040
-4.270E-06,0.060
-4.260E-06,0.060
-4.250E-06,0.060
-4.240E-06,0.060
-4.230E-06,0.040
-4.220E-06,0.040
-4.210E-06,0.040
-4.200E-06,0.040
-4.190E-06,0.040
-4.180E-06,0.040
-4.170E-06,0.040
-4.160E-06,0.040
-4.150E-06,0.020
-4.140E-06,0.040
-4.130E-06,0.040
-4.120E-06,0.040
-4.110E-06,0.040
-4.100E-06,0.060
-4.090E-06,0.040
-4.080E-06,0.040
-4.070E-06,0.040
-4.060E-06,0.020
-4.050E-06,0.020
-4.040E-06,0.040
-4.030E-06,0.060
-4.020E-06,0.060
-4.010E-06,0.060
-4.000E-06,0.040
-3.990E-06,0.060
-3.980E-06,0.060
-3.970E-06,0.060
-3.960E-06,0.060
-3.950E-06,0.000
-3.940E-06,-0.200
-3.930E-06,-0.840
-3.920E-06,-1.820
-3.910E-06,-2.820
-3.900E-06,-3.420
-3.890E-06,-3.340
-3.880E-06,-2.280
-3.870E-06,-0.440
-3.860E-06,0.440
-3.850E-06,0.500
-3.840E-06,1.820
-3.830E-06,1.820
-3.820E-06,1.820
-3.810E-06,1.820
-3.800E-06,1.820
-3.790E-06,1.820
-3.780E-06,1.820
-3.770E-06,1.380
-3.760E-06,0.540
-3.750E-06,-0.580
-3.740E-06,-0.420
-3.730E-06,-0.940
-3.720E-06,-0.840
-3.710E-06,-0.560
-3.700E-06,-0.200
-3.690E-06,-0.160
-3.680E-06,-0.460
-3.670E-06,-0.660
-3.660E-06,-0.940
-3.650E-06,-1.340
-3.640E-06,-1.640
-3.630E-06,-1.880
-3.620E-06,-1.940
-3.610E-06,-1.820
-3.600E-06,-1.360
-3.590E-06,-0.980
-3.580E-06,-0.380
-3.570E-06,0.420
-3.560E-06,1.020
-3.550E-06,1.460
-3.540E-06,1.780
-3.530E-06,1.820
-3.520E-06,1.640
-3.510E-06,1.340
-3.500E-06,1.000
-3.490E-06,0.440
-3.480E-06,0.040
-3.470E-06,-0.360
-3.460E-06,-0.680
-3.450E-06,-0.860
-3.440E-06,-0.920
-3.430E-06,-0.960
-3.420E-06,-0.860
-3.410E-06,-0.720
-3.400E-06,-0.540
-3.390E-06,-0.380
-3.380E-06,-0.220
-3.370E-06,0.000
-3.360E-06,0.160
-3.350E-06,0.380
-3.340E-06,0.600
-3.330E-06,0.800
-3.320E-06,0.900
-3.310E-06,0.980
-3.300E-06,0.980
-3.290E-06,0.940
-3.280E-06,0.860
-3.270E-06,0.660
-3.260E-06,0.480
-3.250E-06,0.320
-3.240E-06,0.120
-3.230E-06,-0.060
-3.220E-06,-0.220
-3.210E-06,-0.360
-3.200E-06,-0.440
-3.190E-06,-0.500
-3.180E-06,-0.520
-3.170E-06,-0.600
-3.160E-06,-0.620
-3.150E-06,-0.620
-3.140E-06,-0.600
-3.130E-06,-0.500
-3.120E-06,-0.340
-3.110E-06,-0.140
-3.100E-06,0.080
-3.090E-06,0.340
-3.080E-06,0.560
-3.070E-06,0.760
-3.060E-06,0.880
-3.050E-06,0.900
-3.040E-06,0.900
-3.030E-06,0.820
-3.020E-06,0.660
-3.010E-06,0.460
-3.000E-06,0.180
-2.990E-06,-0.040
-2.980E-06,-0.260
-2.970E-06,-0.460
-2.960E-06,-0.560
-2.950E-06,-0.620
-2.940E-06,-0.600
-2.930E-06,-0.540
-2.920E-06,-0.440
-2.910E-06,-0.320
-2.900E-06,-0.200
-2.890E-06,-0.100
-2.880E-06,-0.020
-2.870E-06,0.080
-2.860E-06,0.060
-2.850E-06,0.120
-2.840E-06,0.140
-2.830E-06,0.120
-2.820E-06,0.100
-2.810E-06,0.160
-2.800E-06,0.180
-2.790E-06,0.180
-2.780E-06,0.200
-2.770E-06,0.220
-2.760E-06,0.240
-2.750E-06,0.180
-2.740E-06,0.180
-2.730E-06,0.120
-2.720E-06,0.060
-2.710E-06,0.000
-2.700E-06,-0.040
-2.690E-06,-0.080
-2.680E-06,-0.100
-2.670E-06,-0.120
-2.660E-06,-0.100
-2.650E-06,-0.060
-2.640E-06,0.000
-2.630E-06,0.040
-2.620E-06,0.080
-2.610E-06,0.100
-2.600E-06,0.160
-2.590E-06,0.140
-2.580E-06,0.060
-2.570E-06,0.020
-2.560E-06,0.000
-2.550E-06,-0.040
-2.540E-06,-0.020
-2.530E-06,-0.080
-2.520E-06,-0.060
-2.510E-06,-0.100
-2.500E-06,-0.080
-2.490E-06,-0.080
-2.480E-06,-0.120
-2.470E-06,-0.100
-2.460E-06,-0.080
-2.450E-06,-0.100
-2.440E-06,-0.100
-2.430E-06,-0.060
-2.420E-06,-0.060
-2.410E-06,-0.060
-2.400E-06,-0.040
-2.390E-06,-0.020
-2.380E-06,-0.020
-2.370E-06,0.020
-2.360E-06,0.040
-2.350E-06,0.040
-2.340E-06,0.000
-2.330E-06,-0.020
-2.320E-06,-0.020
-2.310E-06,-0.040
-2.300E-06,-0.080
-2.290E-06,-0.140
-2.280E-06,-0.140
-2.270E-06,-0.120
-2.260E-06,-0.120
-2.250E-06,-0.100
-2.240E-06,-0.040
-2.230E-06,-0.020
-2.220E-06,0.000
-2.210E-06,0.080
-2.200E-06,0.060
-2.190E-06,0.060
-2.180E-06,0.040
-2.170E-06,0.000
-2.160E-06,0.060
-2.150E-06,-0.020
-2.140E-06,0.020
-2.130E-06,-0.080
-2.120E-06,-0.120
-2.110E-06,-0.260
-2.100E-06,-0.240
-2.090E-06,-0.280
-2.080E-06,-0.260
-2.070E-06,-0.280
-2.060E-06,-0.180
-2.050E-06,-0.280
-2.040E-06,-0.240
-2.030E-06,-0.200
-2.020E-06,-0.140
-2.010E-06,-0.100
-2.000E-06,0.000
-1.990E-06,-0.040
-1.980E-06,0.080
-1.970E-06,0.000
-1.960E-06,0.060
-1.950E-06,0.040
-1.940E-06,0.040
-1.930E-06,0.080
-1.920E-06,0.080
-1.910E-06,0.000
-1.900E-06,-0.020
-1.890E-06,0.020
-1.880E-06,0.000
-1.870E-06,-0.040
-1.860E-06,-0.060
-1.850E-06,-0.080
-1.840E-06,-0.100
-1.830E-06,-0.140
-1.820E-06,-0.160
-1.810E-06,-0.180
-1.800E-06,-0.180
-1.790E-06,-0.120
-1.780E-06,-0.160
-1.770E-06,-0.180
-1.760E-06,-0.120
-1.750E-06,-0.080
-1.740E-06,-0.100
-1.730E-06,-0.060
-1.720E-06,-0.040
-1.710E-06,-0.040
-1.700E-06,-0.060
-1.690E-06,-0.080
-1.680E-06,-0.040
-1.670E-06,-0.040
-1.660E-06,-0.040
-1.650E-06,0.000
-1.640E-06,-0.040
-1.630E-06,-0.020
-1.620E-06,-0.040
-1.610E-06,-0.020
-1.600E-06,-0.020
-1.590E-06,0.240
-1.580E-06,0.560
-1.570E-06,1.100
-1.560E-06,1.480
-1.550E-06,1.720
-1.540E-06,1.800
-1.530E-06,1.300
-1.520E-06,0.740
-1.510E-06,-0.100
-1.500E-06,-0.580
-1.490E-06,-1.280
-1.480E-06,-1.640
-1.470E-06,-1.920
-1.460E-06,-2.020
-1.450E-06,-1.920
-1.440E-06,-1.720
-1.430E-06,-1.300
-1.420E-06,-0.920
-1.410E-06,-0.780
-1.400E-06,-0.620
-1.390E-06,-0.720
-1.380E-06,-0.600
-1.370E-06,-0.720
-1.360E-06,-0.480
-1.350E-06,-0.480
-1.340E-06,-0.560
-1.330E-06,-0.620
-1.320E-06,-0.540
-1.310E-06,-0.480
-1.300E-06,-0.220
-1.290E-06,0.000
-1.280E-06,0.220
-1.270E-06,0.340
-1.260E-06,0.240
-1.250E-06,0.060
-1.240E-06,-0.140
-1.230E-06,-0.320
-1.220E-06,-0.600
-1.210E-06,-0.820
-1.200E-06,-0.960
-1.190E-06,-1.260
-1.180E-06,-1.100
-1.170E-06,-1.100
-1.160E-06,-0.880
-1.150E-06,-0.600
-1.140E-06,-0.340
-1.130E-06,-0.100
-1.120E-06,0.000
-1.110E-06,0.120
-1.100E-06,0.220
-1.090E-06,0.420
-1.080E-06,0.180
-1.070E-06,0.120
-1.060E-06,-0.020
-1.050E-06,-0.140
-1.040E-06,-0.340
-1.030E-06,-0.420
-1.020E-06,-0.620
-1.010E-06,-0.700
-1.000E-06,-0.780
-9.900E-07,-0.940
-9.800E-07,-0.920
-9.700E-07,-0.580
-9.600E-07,-0.520
-9.500E-07,-0.420
-9.400E-07,-0.440
-9.300E-07,-0.480
-9.200E-07,-0.520
-9.100E-07,-0.580
-9.000E-07,-0.680
-8.900E-07,-0.640
-8.800E-07,-0.680
-8.700E-07,-0.600
-8.600E-07,-0.460
-8.500E-07,-0.340
-8.400E-07,-0.360
-8.300E-07,-0.360
-8.200E-07,-0.300
-8.100E-07,-0.400
-8.000E-07,-0.420
-7.900E-07,-0.540
-7.800E-07,-0.580
-7.700E-07,-0.720
-7.600E-07,-0.960
-7.500E-07,-1.120
-7.400E-07,-1.160
-7.300E-07,-1.300
-7.200E-07,-1.380
-7.100E-07,-1.440
-7.000E-07,-1.540
-6.900E-07,-1.560
-6.800E-07,-1.480
-6.700E-07,-1.360
-6.600E-07,-1.160
-6.500E-07,-1.120
-6.400E-07,-0.960
-6.300E-07,-0.900
-6.200E-07,-0.920
-6.100E-07,-0.800
-6.000E-07,-0.820
-5.900E-07,-0.780
-5.800E-07,-0.860
-5.700E-07,-0.860
-5.600E-07,-0.960
-5.500E-07,-0.960
-5.400E-07,-0.940
-5.300E-07,-0.940
-5.200E-07,-0.960
-5.100E-07,-0.900
-5.000E-07,-0.860
-4.900E-07,-0.780
-4.800E-07,-0.720
-4.700E-07,-0.700
-4.600E-07,-0.780
-4.500E-07,-0.760
-4.400E-07,-0.800
-4.300E-07,-0.880
-4.200E-07,-0.940
-4.100E-07,-1.020
-4.000E-07,-0.940
-3.900E-07,-0.920
-3.800E-07,-0.900
-3.700E-07,-0.880
-3.600E-07,-0.600
-3.500E-07,-0.460
-3.400E-07,-0.240
-3.300E-07,-0.600
-3.200E-07,-0.720
-3.100E-07,-0.800
-3.000E-07,-0.760
-2.900E-07,-0.840
-2.800E-07,-0.940
-2.700E-07,-0.340
-2.600E-07,-0.740
-2.500E-07,-0.080
-2.400E-07,-0.760
-2.300E-07,0.940
-2.200E-07,-0.040
-2.100E-07,0.400
-2.000E-07,-0.280
-1.900E-07,-1.300
-1.800E-07,-2.080
-1.700E-07,-1.600
-1.600E-07,-2.960
-1.500E-07,-1.800
-1.400E-07,-2.560
-1.300E-07,-0.520
-1.200E-07,0.540
-1.100E-07,1.320
-1.000E-07,1.000
-9.000E-08,1.140
-8.000E-08,-3.580
-7.000E-08,-1.760
-6.000E-08,-3.600
-5.000E-08,-3.220
-4.000E-08,-3.620
-3.000E-08,-2.620
-2.000E-08,-2.560
-1.000E-08,-1.960
0.000E+00,-1.920
1.000E-08,-2.300
2.000E-08,-1.540
3.000E-08,-1.980
4.000E-08,-0.840
5.000E-08,-0.520
6.000E-08,-0.060
7.000E-08,0.060
8.000E-08,0.420
9.000E-08,0.240
1.000E-07,0.220
1.100E-07,-0.080
1.200E-07,-0.020
1.300E-07,0.240
1.400E-07,0.380
1.500E-07,0.300
1.600E-07,0.340
1.700E-07,0.020
1.800E-07,-0.280
1.900E-07,-0.600
2.000E-07,-0.940
2.100E-07,-1.180
2.200E-07,-1.220
2.300E-07,-1.420
2.400E-07,-1.460
2.500E-07,-1.840
2.600E-07,-1.900
2.700E-07,-2.040
2.800E-07,-2.000
2.900E-07,-1.900
3.000E-07,-1.580
3.100E-07,-1.240
3.200E-07,-0.760
3.300E-07,-0.760
3.400E-07,-0.680
3.500E-07,-0.720
3.600E-07,-0.780
3.700E-07,-0.840
3.800E-07,-0.840
3.900E-07,-0.840
4.000E-07,-0.720
4.100E-07,-0.860
4.200E-07,-0.880
4.300E-07,-1.060
4.400E-07,-1.180
4.500E-07,-1.220
4.600E-07,-1.220
4.700E-07,-0.940
4.800E-07,-0.800
4.900E-07,-0.820
5.000E-07,-1.100
5.100E-07,-0.980
5.200E-07,-1.080
5.300E-07,-1.260
5.400E-07,-1.680
5.500E-07,-1.960
5.600E-07,-2.380
5.700E-07,-2.500
5.800E-07,-2.900
5.900E-07,-2.900
6.000E-07,-2.940
6.100E-07,-2.760
6.200E-07,-2.480
6.300E-07,-2.140
6.400E-07,-1.740
6.500E-07,-1.540
6.600E-07,-1.440
6.700E-07,-1.360
6.800E-07,-1.480
6.900E-07,-1.540
7.000E-07,-1.640
7.100E-07,-1.640
7.200E-07,-1.620
7.300E-07,-1.660
7.400E-07,-1.640
7.500E-07,-1.560
7.600E-07,-1.540
7.700E-07,-1.520
7.800E-07,-1.520
7.900E-07,-1.560
8.000E-07,-1.620
8.100E-07,-1.760
8.200E-07,-1.880
8.300E-07,-2.040
8.400E-07,-2.160
8.500E-07,-2.280
8.600E-07,-2.340
8.700E-07,-2.460
8.800E-07,-2.560
8.900E-07,-2.720
9.000E-07,-2.740
9.100E-07,-2.700
9.200E-07,-2.580
9.300E-07,-2.440
9.400E-07,-2.220
9.500E-07,-2.020
9.600E-07,-1.880
9.700E-07,-1.780
9.800E-07,-1.740
9.900E-07,-1.720
1.000E-06,-1.740
1.010E-06,-1.800
1.020E-06,-1.800
1.030E-06,-1.780
1.040E-06,-1.780
1.050E-06,-1.740
1.060E-06,-1.720
1.070E-06,-1.740
1.080E-06,-1.660
1.090E-06,-1.600
1.100E-06,-1.520
1.110E-06,-1.360
1.120E-06,-1.280
1.130E-06,-1.240
1.140E-06,-1.220
1.150E-06,-1.160
1.160E-06,-1.120
1.170E-06,-1.100
1.180E-06,-1.120
1.190E-06,-1.100
1.200E-06,-1.040
1.210E-06,-0.960
1.220E-06,-0.840
1.230E-06,-0.760
1.240E-06,-0.680
1.250E-06,-0.680
1.260E-06,-0.680
1.270E-06,-0.700
1.280E-06,-0.680
1.290E-06,-0.700
1.300E-06,-0.780
1.310E-06,-0.860
1.320E-06,-0.960
1.330E-06,-1.100
1.340E-06,-1.200
1.350E-06,-1.300
1.360E-06,-1.420
1.370E-06,-1.480
1.380E-06,-1.560
1.390E-06,-1.620
1.400E-06,-1.620
1.410E-06,-1.620
1.420E-06,-1.640
1.430E-06,-1.520
1.440E-06,-1.480
1.450E-06,-1.500
1.460E-06,-1.520
1.470E-06,-1.580
1.480E-06,-1.600
1.490E-06,-1.560
1.500E-06,-1.560
1.510E-06,-1.380
1.520E-06,-1.260
1.530E-06,-1.160
1.540E-06,-1.120
1.550E-06,-1.040
1.560E-06,-0.960
1.570E-06,-0.960
1.580E-06,-0.920
1.590E-06,-0.880
1.600E-06,-0.880
1.610E-06,-0.940
1.620E-06,-1.020
1.630E-06,-1.140
1.640E-06,-1.220
1.650E-06,-1.300
1.660E-06,-1.360
1.670E-06,-1.360
1.680E-06,-1.300
1.690E-06,-1.240
1.700E-06,-1.140
1.710E-06,-1.040
1.720E-06,-0.940
1.730E-06,-0.900
1.740E-06,-0.860
1.750E-06,-0.860
1.760E-06,-0.860
1.770E-06,-0.800
1.780E-06,-0.780
1.790E-06,-0.720
1.800E-06,-0.680
1.810E-06,-0.600
1.820E-06,-0.540
1.830E-06,-0.500
1.840E-06,-0.460
1.850E-06,-0.380
1.860E-06,-0.300
1.870E-06,-0.160
1.880E-06,-0.080
1.890E-06,-0.080
1.900E-06,0.000
1.910E-06,0.040
1.920E-06,0.080
1.930E-06,0.060
1.940E-06,0.040
1.950E-06,0.020
1.960E-06,0.000
1.970E-06,-0.060
1.980E-06,-0.040
1.990E-06,-0.020
2.000E-06,0.000
2.010E-06,0.060
2.020E-06,0.060
2.030E-06,0.060
2.040E-06,0.020
2.050E-06,-0.040
2.060E-06,-0.080
2.070E-06,-0.100
2.080E-06,-0.060
2.090E-06,-0.040
2.100E-06,-0.020
2.110E-06,0.020
2.120E-06,0.020
2.130E-06,0.020
2.140E-06,0.020
2.150E-06,0.040
2.160E-06,0.020
2.170E-06,-0.020
2.180E-06,-0.020
2.190E-06,-0.020
2.200E-06,-0.020
2.210E-06,-0.020
2.220E-06,-0.020
2.230E-06,-0.020
2.240E-06,-0.020
2.250E-06,0.000
2.260E-06,0.000
2.270E-06,0.000
2.280E-06,-0.020
2.290E-06,-0.040
2.300E-06,0.000
2.310E-06,0.060
2.320E-06,0.100
2.330E-06,0.160
2.340E-06,0.140
2.350E-06,0.120
2.360E-06,0.100
2.370E-06,0.100
2.380E-06,0.080
2.390E-06,0.040
2.400E-06,0.060
2.410E-06,0.040
2.420E-06,0.000
2.430E-06,0.000
2.440E-06,-0.020
2.450E-06,-0.080
2.460E-06,-0.100
2.470E-06,-0.140
2.480E-06,-0.160
2.490E-06,-0.200
2.500E-06,-0.180
2.510E-06,-0.160
2.520E-06,-0.120
2.530E-06,-0.160
2.540E-06,-0.180
2.550E-06,-0.160
2.560E-06,-0.180
2.570E-06,-0.240
2.580E-06,-0.260
2.590E-06,-0.200
2.600E-06,-0.100
2.610E-06,-0.060
2.620E-06,-0.060
2.630E-06,-0.020
2.640E-06,0.000
2.650E-06,0.040
2.660E-06,0.020
2.670E-06,-0.060
2.680E-06,-0.140
2.690E-06,-0.200
2.700E-06,-0.260
2.710E-06,-0.240
2.720E-06,-0.180
2.730E-06,-0.180
2.740E-06,-0.180
2.750E-06,-0.060
2.760E-06,0.020
2.770E-06,0.100
2.780E-06,0.160
2.790E-06,0.200
2.800E-06,0.240
2.810E-06,0.260
2.820E-06,0.300
2.830E-06,0.320
2.840E-06,0.300
2.850E-06,0.240
2.860E-06,0.180
2.870E-06,0.140
2.880E-06,0.140
2.890E-06,0.080
2.900E-06,0.100
2.910E-06,0.140
2.920E-06,0.180
2.930E-06,0.240
2.940E-06,0.300
2.950E-06,0.300
2.960E-06,0.300
2.970E-06,0.160
2.980E-06,0.160
2.990E-06,0.180
3.000E-06,0.160
3.010E-06,0.140
3.020E-06,0.080
3.030E-06,0.040
3.040E-06,-0.040
3.050E-06,-0.120
3.060E-06,-0.200
3.070E-06,-0.280
3.080E-06,-0.300
3.090E-06,-0.380
3.100E-06,-0.400
3.110E-06,-0.400
3.120E-06,-0.440
3.130E-06,-0.420
3.140E-06,-0.420
3.150E-06,-0.460
3.160E-06,-0.480
3.170E-06,-0.460
3.180E-06,-0.420
3.190E-06,-0.380
3.200E-06,-0.320
3.210E-06,-0.260
3.220E-06,-0.180
3.230E-06,-0.140
3.240E-06,-0.120
3.250E-06,-0.120
