mediciones/curva carac 8-28 limpias/-33/WaveData65841.csv

#timebase=2000000(ps)
,#voltbase=500000(mv/100)
#size=4000
-8.350E-06,0.060
-8.340E-06,0.060
-8.330E-06,0.060
-8.320E-06,0.040
-8.310E-06,0.020
-8.300E-06,0.060
-8.290E-06,0.040
-8.280E-06,0.060
-8.270E-06,0.040
-8.260E-06,0.040
-8.250E-06,0.080
-8.240E-06,0.020
-8.230E-06,0.060
-8.220E-06,0.060
-8.210E-06,0.080
-8.200E-06,0.020
-8.190E-06,0.060
-8.180E-06,0.080
-8.170E-06,0.040
-8.160E-06,0.060
-8.150E-06,0.040
-8.140E-06,0.000
-8.130E-06,0.040
-8.120E-06,0.060
-8.110E-06,0.040
-8.100E-06,0.060
-8.090E-06,0.060
-8.080E-06,0.060
-8.070E-06,0.060
-8.060E-06,0.020
-8.050E-06,0.000
-8.040E-06,0.060
-8.030E-06,0.020
-8.020E-06,0.020
-8.010E-06,0.020
-8.000E-06,0.020
-7.990E-06,0.000
-7.980E-06,0.060
-7.970E-06,0.040
-7.960E-06,0.020
-7.950E-06,0.020
-7.940E-06,0.040
-7.930E-06,0.000
-7.920E-06,0.040
-7.910E-06,0.040
-7.900E-06,0.040
-7.890E-06,0.040
-7.880E-06,0.040
-7.870E-06,0.060
-7.860E-06,0.080
-7.850E-06,0.040
-7.840E-06,0.060
-7.830E-06,0.020
-7.820E-06,0.020
-7.810E-06,0.040
-7.800E-06,0.020
-7.790E-06,0.040
-7.780E-06,0.040
-7.770E-06,0.060
-7.760E-06,0.040
-7.750E-06,0.020
-7.740E-06,0.020
-7.730E-06,0.020
-7.720E-06,0.020
-7.710E-06,0.080
-7.700E-06,0.040
-7.690E-06,0.020
-7.680E-06,0.040
-7.670E-06,0.020
-7.660E-06,0.040
-7.650E-06,0.020
-7.640E-06,0.040
-7.630E-06,0.040
-7.620E-06,0.020
-7.610E-06,0.040
-7.600E-06,0.040
-7.590E-06,0.000
-7.580E-06,0.060
-7.570E-06,0.080
-7.560E-06,0.020
-7.550E-06,0.040
-7.540E-06,0.040
-7.530E-06,0.020
-7.520E-06,0.000
-7.510E-06,0.040
-7.500E-06,0.080
-7.490E-06,0.080
-7.480E-06,0.040
-7.470E-06,0.060
-7.460E-06,0.060
-7.450E-06,0.020
-7.440E-06,0.060
-7.430E-06,0.080
-7.420E-06,0.020
-7.410E-06,0.060
-7.400E-06,0.040
-7.390E-06,0.060
-7.380E-06,0.040
-7.370E-06,0.060
-7.360E-06,0.060
-7.350E-06,0.040
-7.340E-06,0.040
-7.330E-06,0.040
-7.320E-06,0.060
-7.310E-06,0.040
-7.300E-06,0.020
-7.290E-06,0.040
-7.280E-06,0.040
-7.270E-06,0.020
-7.260E-06,0.040
-7.250E-06,0.020
-7.240E-06,0.020
-7.230E-06,0.040
-7.220E-06,0.020
-7.210E-06,0.060
-7.200E-06,0.060
-7.190E-06,0.020
-7.180E-06,0.060
-7.170E-06,0.040
-7.160E-06,0.040
-7.150E-06,0.040
-7.140E-06,0.020
-7.130E-06,0.020
-7.120E-06,0.040
-7.110E-06,0.060
-7.100E-06,0.020
-7.090E-06,0.040
-7.080E-06,0.040
-7.070E-06,0.000
-7.060E-06,0.060
-7.050E-06,0.020
-7.040E-06,0.040
-7.030E-06,0.060
-7.020E-06,0.060
-7.010E-06,0.040
-7.000E-06,0.080
-6.990E-06,0.040
-6.980E-06,0.060
-6.970E-06,0.040
-6.960E-06,0.020
-6.950E-06,0.060
-6.940E-06,0.080
-6.930E-06,0.080
-6.920E-06,0.040
-6.910E-06,0.020
-6.900E-06,0.060
-6.890E-06,0.040
-6.880E-06,0.080
-6.870E-06,0.020
-6.860E-06,0.020
-6.850E-06,0.040
-6.840E-06,0.020
-6.830E-06,0.080
-6.820E-06,0.020
-6.810E-06,0.040
-6.800E-06,0.060
-6.790E-06,0.040
-6.780E-06,0.060
-6.770E-06,0.060
-6.760E-06,0.040
-6.750E-06,0.020
-6.740E-06,0.040
-6.730E-06,0.040
-6.720E-06,0.040
-6.710E-06,0.040
-6.700E-06,0.020
-6.690E-06,0.060
-6.680E-06,0.080
-6.670E-06,0.020
-6.660E-06,0.060
-6.650E-06,0.080
-6.640E-06,0.060
-6.630E-06,0.080
-6.620E-06,0.060
-6.610E-06,0.060
-6.600E-06,0.080
-6.590E-06,0.060
-6.580E-06,0.080
-6.570E-06,0.020
-6.560E-06,0.000
-6.550E-06,0.060
-6.540E-06,0.040
-6.530E-06,0.040
-6.520E-06,0.020
-6.510E-06,0.060
-6.500E-06,0.040
-6.490E-06,0.020
-6.480E-06,0.040
-6.470E-06,0.040
-6.460E-06,0.080
-6.450E-06,0.040
-6.440E-06,0.080
-6.430E-06,0.020
-6.420E-06,0.040
-6.410E-06,0.060
-6.400E-06,0.020
-6.390E-06,0.060
-6.380E-06,0.080
-6.370E-06,0.060
-6.360E-06,0.020
-6.350E-06,0.040
-6.340E-06,0.040
-6.330E-06,0.020
-6.320E-06,0.060
-6.310E-06,0.020
-6.300E-06,0.040
-6.290E-06,0.040
-6.280E-06,0.060
-6.270E-06,0.060
-6.260E-06,0.040
-6.250E-06,0.040
-6.240E-06,0.060
-6.230E-06,0.000
-6.220E-06,0.060
-6.210E-06,0.060
-6.200E-06,0.040
-6.190E-06,0.000
-6.180E-06,0.060
-6.170E-06,0.020
-6.160E-06,0.040
-6.150E-06,0.060
-6.140E-06,0.020
-6.130E-06,0.040
-6.120E-06,0.080
-6.110E-06,0.040
-6.100E-06,0.040
-6.090E-06,0.020
-6.080E-06,0.020
-6.070E-06,0.060
-6.060E-06,0.040
-6.050E-06,0.020
-6.040E-06,0.020
-6.030E-06,0.040
-6.020E-06,0.040
-6.010E-06,0.020
-6.000E-06,0.020
-5.990E-06,0.060
-5.980E-06,0.080
-5.970E-06,0.040
-5.960E-06,0.040
-5.950E-06,0.060
-5.940E-06,0.060
-5.930E-06,0.040
-5.920E-06,0.000
-5.910E-06,0.040
-5.900E-06,0.040
-5.890E-06,0.060
-5.880E-06,0.080
-5.870E-06,0.020
-5.860E-06,0.020
-5.850E-06,0.020
-5.840E-06,0.060
-5.830E-06,0.040
-5.820E-06,0.060
-5.810E-06,0.040
-5.800E-06,0.020
-5.790E-06,0.060
-5.780E-06,0.040
-5.770E-06,0.060
-5.760E-06,0.040
-5.750E-06,0.040
-5.740E-06,0.040
-5.730E-06,0.060
-5.720E-06,0.020
-5.710E-06,0.020
-5.700E-06,0.040
-5.690E-06,0.020
-5.680E-06,0.040
-5.670E-06,0.080
-5.660E-06,0.060
-5.650E-06,0.040
-5.640E-06,0.060
-5.630E-06,0.040
-5.620E-06,0.060
-5.610E-06,0.080
-5.600E-06,0.060
-5.590E-06,0.040
-5.580E-06,0.040
-5.570E-06,0.020
-5.560E-06,0.060
-5.550E-06,0.020
-5.540E-06,0.040
-5.530E-06,0.060
-5.520E-06,0.080
-5.510E-06,0.000
-5.500E-06,0.020
-5.490E-06,0.040
-5.480E-06,0.060
-5.470E-06,0.040
-5.460E-06,0.060
-5.450E-06,0.060
-5.440E-06,0.040
-5.430E-06,0.040
-5.420E-06,0.000
-5.410E-06,0.060
-5.400E-06,0.040
-5.390E-06,0.040
-5.380E-06,0.040
-5.370E-06,0.060
-5.360E-06,0.020
-5.350E-06,0.080
-5.340E-06,0.060
-5.330E-06,0.000
-5.320E-06,0.040
-5.310E-06,0.060
-5.300E-06,0.040
-5.290E-06,0.060
-5.280E-06,0.080
-5.270E-06,0.060
-5.260E-06,0.020
-5.250E-06,0.060
-5.240E-06,0.020
-5.230E-06,0.060
-5.220E-06,0.080
-5.210E-06,0.040
-5.200E-06,0.040
-5.190E-06,0.040
-5.180E-06,0.080
-5.170E-06,0.000
-5.160E-06,0.060
-5.150E-06,0.080
-5.140E-06,0.060
-5.130E-06,0.060
-5.120E-06,0.040
-5.110E-06,0.000
-5.100E-06,0.040
-5.090E-06,0.040
-5.080E-06,0.060
-5.070E-06,0.040
-5.060E-06,0.040
-5.050E-06,0.020
-5.040E-06,0.020
-5.030E-06,0.060
-5.020E-06,0.020
-5.010E-06,0.020
-5.000E-06,0.040
-4.990E-06,0.020
-4.980E-06,0.060
-4.970E-06,0.040
-4.960E-06,0.040
-4.950E-06,0.080
-4.940E-06,0.060
-4.930E-06,0.020
-4.920E-06,0.040
-4.910E-06,0.040
-4.900E-06,0.080
-4.890E-06,0.060
-4.880E-06,0.020
-4.870E-06,0.060
-4.860E-06,0.040
-4.850E-06,0.020
-4.840E-06,0.020
-4.830E-06,-0.080
-4.820E-06,-0.420
-4.810E-06,-1.240
-4.800E-06,-2.260
-4.790E-06,-3.120
-4.780E-06,-3.340
-4.770E-06,-3.120
-4.760E-06,-1.580
-4.750E-06,-0.500
-4.740E-06,1.440
-4.730E-06,1.180
-4.720E-06,2.100
-4.710E-06,2.100
-4.700E-06,2.080
-4.690E-06,2.080
-4.680E-06,2.080
-4.670E-06,2.080
-4.660E-06,1.520
-4.650E-06,0.820
-4.640E-06,0.600
-4.630E-06,-0.820
-4.620E-06,-0.740
-4.610E-06,-0.860
-4.600E-06,-0.840
-4.590E-06,-0.500
-4.580E-06,-0.240
-4.570E-06,-0.160
-4.560E-06,-0.520
-4.550E-06,-0.840
-4.540E-06,-1.180
-4.530E-06,-1.480
-4.520E-06,-1.780
-4.510E-06,-1.920
-4.500E-06,-1.880
-4.490E-06,-1.720
-4.480E-06,-1.200
-4.470E-06,-0.720
-4.460E-06,-0.080
-4.450E-06,0.660
-4.440E-06,1.160
-4.430E-06,1.640
-4.420E-06,1.880
-4.410E-06,1.840
-4.400E-06,1.600
-4.390E-06,1.220
-4.380E-06,0.780
-4.370E-06,0.240
-4.360E-06,-0.180
-4.350E-06,-0.520
-4.340E-06,-0.760
-4.330E-06,-0.900
-4.320E-06,-0.940
-4.310E-06,-0.940
-4.300E-06,-0.840
-4.290E-06,-0.680
-4.280E-06,-0.480
-4.270E-06,-0.320
-4.260E-06,-0.160
-4.250E-06,0.080
-4.240E-06,0.240
-4.230E-06,0.480
-4.220E-06,0.680
-4.210E-06,0.840
-4.200E-06,1.000
-4.190E-06,1.060
-4.180E-06,1.000
-4.170E-06,0.960
-4.160E-06,0.820
-4.150E-06,0.660
-4.140E-06,0.420
-4.130E-06,0.220
-4.120E-06,0.000
-4.110E-06,-0.160
-4.100E-06,-0.300
-4.090E-06,-0.400
-4.080E-06,-0.500
-4.070E-06,-0.580
-4.060E-06,-0.580
-4.050E-06,-0.640
-4.040E-06,-0.640
-4.030E-06,-0.600
-4.020E-06,-0.540
-4.010E-06,-0.480
-4.000E-06,-0.280
-3.990E-06,-0.040
-3.980E-06,0.180
-3.970E-06,0.420
-3.960E-06,0.680
-3.950E-06,0.820
-3.940E-06,0.920
-3.930E-06,0.920
-3.920E-06,0.920
-3.910E-06,0.800
-3.900E-06,0.620
-3.890E-06,0.420
-3.880E-06,0.220
-3.870E-06,-0.080
-3.860E-06,-0.260
-3.850E-06,-0.460
-3.840E-06,-0.540
-3.830E-06,-0.620
-3.820E-06,-0.600
-3.810E-06,-0.480
-3.800E-06,-0.360
-3.790E-06,-0.320
-3.780E-06,-0.200
-3.770E-06,-0.080
-3.760E-06,0.000
-3.750E-06,0.060
-3.740E-06,0.100
-3.730E-06,0.100
-3.720E-06,0.100
-3.710E-06,0.120
-3.700E-06,0.160
-3.690E-06,0.160
-3.680E-06,0.200
-3.670E-06,0.220
-3.660E-06,0.220
-3.650E-06,0.240
-3.640E-06,0.200
-3.630E-06,0.220
-3.620E-06,0.140
-3.610E-06,0.080
-3.600E-06,0.020
-3.590E-06,0.000
-3.580E-06,-0.040
-3.570E-06,-0.080
-3.560E-06,-0.080
-3.550E-06,-0.060
-3.540E-06,-0.040
-3.530E-06,0.000
-3.520E-06,0.040
-3.510E-06,0.100
-3.500E-06,0.100
-3.490E-06,0.140
-3.480E-06,0.100
-3.470E-06,0.120
-3.460E-06,0.120
-3.450E-06,0.100
-3.440E-06,0.080
-3.430E-06,0.080
-3.420E-06,0.080
-3.410E-06,0.020
-3.400E-06,0.040
-3.390E-06,0.040
-3.380E-06,0.060
-3.370E-06,0.020
-3.360E-06,-0.020
-3.350E-06,0.020
-3.340E-06,-0.040
-3.330E-06,-0.060
-3.320E-06,-0.060
-3.310E-06,-0.120
-3.300E-06,-0.080
-3.290E-06,-0.060
-3.280E-06,-0.080
-3.270E-06,-0.060
-3.260E-06,-0.020
-3.250E-06,0.000
-3.240E-06,0.000
-3.230E-06,0.020
-3.220E-06,0.000
-3.210E-06,0.000
-3.200E-06,-0.060
-3.190E-06,0.000
-3.180E-06,-0.020
-3.170E-06,-0.040
-3.160E-06,-0.020
-3.150E-06,0.000
-3.140E-06,0.000
-3.130E-06,0.060
-3.120E-06,0.080
-3.110E-06,0.100
-3.100E-06,0.160
-3.090E-06,0.180
-3.080E-06,0.200
-3.070E-06,0.220
-3.060E-06,0.160
-3.050E-06,0.160
-3.040E-06,0.140
-3.030E-06,0.080
-3.020E-06,0.060
-3.010E-06,-0.020
-3.000E-06,-0.080
-2.990E-06,-0.140
-2.980E-06,-0.160
-2.970E-06,-0.160
-2.960E-06,-0.160
-2.950E-06,-0.160
-2.940E-06,-0.160
-2.930E-06,-0.120
-2.920E-06,-0.120
-2.910E-06,-0.080
-2.900E-06,-0.080
-2.890E-06,-0.060
-2.880E-06,0.020
-2.870E-06,0.040
-2.860E-06,0.040
-2.850E-06,0.080
-2.840E-06,0.140
-2.830E-06,0.120
-2.820E-06,0.100
-2.810E-06,0.100
-2.800E-06,0.100
-2.790E-06,0.100
-2.780E-06,0.060
-2.770E-06,0.080
-2.760E-06,0.040
-2.750E-06,0.040
-2.740E-06,0.000
-2.730E-06,-0.040
-2.720E-06,-0.040
-2.710E-06,-0.060
-2.700E-06,-0.100
-2.690E-06,-0.100
-2.680E-06,-0.100
-2.670E-06,-0.100
-2.660E-06,-0.120
-2.650E-06,-0.080
-2.640E-06,-0.040
-2.630E-06,-0.020
-2.620E-06,0.040
-2.610E-06,0.060
-2.600E-06,0.080
-2.590E-06,0.100
-2.580E-06,0.100
-2.570E-06,0.080
-2.560E-06,0.000
-2.550E-06,0.120
-2.540E-06,-0.100
-2.530E-06,0.220
-2.520E-06,-0.200
-2.510E-06,0.200
-2.500E-06,-0.180
-2.490E-06,0.360
-2.480E-06,0.160
-2.470E-06,0.700
-2.460E-06,1.200
-2.450E-06,1.680
-2.440E-06,1.960
-2.430E-06,1.860
-2.420E-06,1.500
-2.410E-06,0.880
-2.400E-06,0.100
-2.390E-06,-0.580
-2.380E-06,-1.160
-2.370E-06,-1.620
-2.360E-06,-1.820
-2.350E-06,-1.960
-2.340E-06,-1.880
-2.330E-06,-1.640
-2.320E-06,-1.320
-2.310E-06,-0.940
-2.300E-06,-0.680
-2.290E-06,-0.520
-2.280E-06,-0.460
-2.270E-06,-0.360
-2.260E-06,-0.340
-2.250E-06,-0.140
-2.240E-06,-0.060
-2.230E-06,-0.080
-2.220E-06,0.200
-2.210E-06,0.360
-2.200E-06,0.320
-2.190E-06,0.800
-2.180E-06,0.800
-2.170E-06,0.960
-2.160E-06,0.940
-2.150E-06,0.720
-2.140E-06,0.600
-2.130E-06,0.300
-2.120E-06,0.080
-2.110E-06,-0.200
-2.100E-06,-0.480
-2.090E-06,-0.620
-2.080E-06,-0.840
-2.070E-06,-0.960
-2.060E-06,-1.020
-2.050E-06,-0.820
-2.040E-06,-0.760
-2.030E-06,-0.220
-2.020E-06,-0.180
-2.010E-06,0.420
-2.000E-06,0.460
-1.990E-06,0.860
-1.980E-06,0.760
-1.970E-06,0.840
-1.960E-06,0.720
-1.950E-06,0.580
-1.940E-06,0.480
-1.930E-06,0.280
-1.920E-06,-0.020
-1.910E-06,-0.240
-1.900E-06,-0.460
-1.890E-06,-0.660
-1.880E-06,-0.480
-1.870E-06,-0.780
-1.860E-06,-0.460
-1.850E-06,-0.760
-1.840E-06,-0.580
-1.830E-06,-0.580
-1.820E-06,-0.580
-1.810E-06,-0.500
-1.800E-06,-0.500
-1.790E-06,-0.460
-1.780E-06,-0.460
-1.770E-06,-0.460
-1.760E-06,-0.400
-1.750E-06,-0.380
-1.740E-06,-0.060
-1.730E-06,-0.200
-1.720E-06,0.260
-1.710E-06,0.160
-1.700E-06,0.320
-1.690E-06,0.400
-1.680E-06,0.340
-1.670E-06,0.340
-1.660E-06,0.180
-1.650E-06,-0.020
-1.640E-06,-0.140
-1.630E-06,-0.360
-1.620E-06,-0.440
-1.610E-06,-0.560
-1.600E-06,-0.620
-1.590E-06,-0.580
-1.580E-06,-0.540
-1.570E-06,-0.460
-1.560E-06,-0.360
-1.550E-06,-0.260
-1.540E-06,-0.140
-1.530E-06,-0.060
-1.520E-06,0.060
-1.510E-06,0.160
-1.500E-06,0.180
-1.490E-06,0.160
-1.480E-06,0.280
-1.470E-06,0.460
-1.460E-06,0.420
-1.450E-06,0.580
-1.440E-06,0.440
-1.430E-06,0.100
-1.420E-06,-0.240
-1.410E-06,-0.480
-1.400E-06,-0.700
-1.390E-06,-0.640
-1.380E-06,-0.720
-1.370E-06,-0.640
-1.360E-06,-0.640
-1.350E-06,-0.640
-1.340E-06,-0.640
-1.330E-06,-0.440
-1.320E-06,-0.500
-1.310E-06,-0.120
-1.300E-06,-0.380
-1.290E-06,-0.020
-1.280E-06,-0.260
-1.270E-06,0.160
-1.260E-06,-0.140
-1.250E-06,0.060
-1.240E-06,0.100
-1.230E-06,0.160
-1.220E-06,0.160
-1.210E-06,0.100
-1.200E-06,0.120
-1.190E-06,0.000
-1.180E-06,-0.120
-1.170E-06,-0.180
-1.160E-06,-0.200
-1.150E-06,0.000
-1.140E-06,-0.340
-1.130E-06,-0.240
-1.120E-06,-0.620
-1.110E-06,-0.600
-1.100E-06,-0.700
-1.090E-06,-0.780
-1.080E-06,-0.840
-1.070E-06,-0.860
-1.060E-06,-0.960
-1.050E-06,-0.840
-1.040E-06,-0.640
-1.030E-06,-0.340
-1.020E-06,-0.240
-1.010E-06,0.280
-1.000E-06,0.000
-9.900E-07,0.360
-9.800E-07,-0.040
-9.700E-07,-0.140
-9.600E-07,-0.320
-9.500E-07,-0.420
-9.400E-07,-0.280
-9.300E-07,-0.480
-9.200E-07,-0.360
-9.100E-07,-0.560
-9.000E-07,-0.560
-8.900E-07,-0.580
-8.800E-07,-0.540
-8.700E-07,-0.520
-8.600E-07,-0.380
-8.500E-07,-0.380
-8.400E-07,-0.360
-8.300E-07,-0.340
-8.200E-07,-0.220
-8.100E-07,-0.440
-8.000E-07,-0.340
-7.900E-07,-0.320
-7.800E-07,-0.300
-7.700E-07,-0.320
-7.600E-07,-0.300
-7.500E-07,-0.300
-7.400E-07,-0.360
-7.300E-07,-0.340
-7.200E-07,-0.340
-7.100E-07,-0.200
-7.000E-07,-0.100
-6.900E-07,-0.200
-6.800E-07,-0.140
-6.700E-07,-0.220
-6.600E-07,-0.360
-6.500E-07,-0.320
-6.400E-07,-0.460
-6.300E-07,-0.420
-6.200E-07,-0.460
-6.100E-07,-0.480
-6.000E-07,-0.520
-5.900E-07,-0.500
-5.800E-07,-0.480
-5.700E-07,-0.320
-5.600E-07,-0.280
-5.500E-07,-0.240
-5.400E-07,-0.080
-5.300E-07,-0.120
-5.200E-07,-0.180
-5.100E-07,-0.120
-5.000E-07,-0.220
-4.900E-07,-0.260
-4.800E-07,-0.260
-4.700E-07,-0.280
-4.600E-07,-0.320
-4.500E-07,-0.400
-4.400E-07,-0.560
-4.300E-07,-0.420
-4.200E-07,-0.640
-4.100E-07,-0.440
-4.000E-07,-0.620
-3.900E-07,-0.240
-3.800E-07,-0.500
-3.700E-07,-0.200
-3.600E-07,-0.400
-3.500E-07,-0.340
-3.400E-07,-0.400
-3.300E-07,-0.420
-3.200E-07,-0.320
-3.100E-07,-0.440
-3.000E-07,-0.380
-2.900E-07,-0.360
-2.800E-07,-0.340
-2.700E-07,-0.380
-2.600E-07,-0.400
-2.500E-07,-0.520
-2.400E-07,-0.340
-2.300E-07,-0.440
-2.200E-07,-0.160
-2.100E-07,-0.120
-2.000E-07,-0.600
-1.900E-07,-0.600
-1.800E-07,-0.680
-1.700E-07,-1.100
-1.600E-07,-0.980
-1.500E-07,-1.020
-1.400E-07,-1.160
-1.300E-07,-1.460
-1.200E-07,-1.620
-1.100E-07,-1.340
-1.000E-07,-1.280
-9.000E-08,-0.860
-8.000E-08,-0.940
-7.000E-08,-0.900
-6.000E-08,-0.440
-5.000E-08,-0.180
-4.000E-08,-0.020
-3.000E-08,0.100
-2.000E-08,-0.160
-1.000E-08,-0.680
0.000E+00,-1.280
1.000E-08,-1.520
2.000E-08,-1.700
3.000E-08,-1.440
4.000E-08,-1.280
5.000E-08,-1.260
6.000E-08,-0.940
7.000E-08,-0.880
8.000E-08,-0.300
9.000E-08,-0.040
1.000E-07,-0.660
1.100E-07,0.480
1.200E-07,-0.700
1.300E-07,0.540
1.400E-07,2.080
1.500E-07,2.080
1.600E-07,2.100
1.700E-07,2.100
1.800E-07,0.960
1.900E-07,-0.580
2.000E-07,-3.340
2.100E-07,-3.340
2.200E-07,-3.340
2.300E-07,-3.340
2.400E-07,-3.340
2.500E-07,-3.340
2.600E-07,-3.360
2.700E-07,-3.360
2.800E-07,-2.960
2.900E-07,-2.680
3.000E-07,-1.560
3.100E-07,-0.940
3.200E-07,-0.500
3.300E-07,0.680
3.400E-07,0.920
3.500E-07,1.520
3.600E-07,1.140
3.700E-07,1.280
3.800E-07,0.960
3.900E-07,1.340
4.000E-07,1.080
4.100E-07,1.620
4.200E-07,1.240
4.300E-07,1.400
4.400E-07,0.800
4.500E-07,0.320
4.600E-07,-0.500
4.700E-07,-0.880
4.800E-07,-1.600
4.900E-07,-1.880
5.000E-07,-2.440
5.100E-07,-2.620
5.200E-07,-2.760
5.300E-07,-2.920
5.400E-07,-2.900
5.500E-07,-2.780
5.600E-07,-2.560
5.700E-07,-1.900
5.800E-07,-1.340
5.900E-07,-0.720
6.000E-07,-0.220
6.100E-07,0.000
6.200E-07,0.180
6.300E-07,0.040
6.400E-07,-0.240
6.500E-07,-0.540
6.600E-07,-0.880
6.700E-07,-1.220
6.800E-07,-1.480
6.900E-07,-1.700
7.000E-07,-1.860
7.100E-07,-2.060
7.200E-07,-2.120
7.300E-07,-2.080
7.400E-07,-1.980
7.500E-07,-1.760
7.600E-07,-1.460
7.700E-07,-1.100
7.800E-07,-0.800
7.900E-07,-0.520
8.000E-07,-0.280
8.100E-07,-0.220
8.200E-07,-0.280
8.300E-07,-0.220
8.400E-07,-0.100
8.500E-07,0.020
8.600E-07,0.220
8.700E-07,0.080
8.800E-07,0.140
8.900E-07,-0.020
9.000E-07,-0.260
9.100E-07,-0.560
9.200E-07,-1.020
9.300E-07,-1.520
9.400E-07,-2.220
9.500E-07,-2.720
9.600E-07,-3.280
9.700E-07,-3.340
9.800E-07,-3.340
9.900E-07,-3.340
1.000E-06,-3.320
1.010E-06,-3.080
1.020E-06,-2.680
1.030E-06,-2.120
1.040E-06,-1.680
1.050E-06,-1.220
1.060E-06,-0.840
1.070E-06,-0.520
1.080E-06,-0.400
1.090E-06,-0.420
1.100E-06,-0.580
1.110E-06,-0.640
1.120E-06,-0.760
1.130E-06,-0.920
1.140E-06,-1.140
1.150E-06,-1.400
1.160E-06,-1.840
1.170E-06,-1.980
1.180E-06,-2.200
1.190E-06,-2.060
1.200E-06,-2.440
1.210E-06,-2.680
1.220E-06,-3.300
1.230E-06,-3.320
1.240E-06,-3.340
1.250E-06,-3.340
1.260E-06,-3.340
1.270E-06,-3.340
1.280E-06,-3.340
1.290E-06,-3.320
1.300E-06,-3.320
1.310E-06,-3.340
1.320E-06,-3.020
1.330E-06,-2.540
1.340E-06,-1.880
1.350E-06,-1.240
1.360E-06,-0.580
1.370E-06,0.020
1.380E-06,0.360
1.390E-06,0.680
1.400E-06,0.680
1.410E-06,0.760
1.420E-06,0.680
1.430E-06,0.600
1.440E-06,0.480
1.450E-06,0.340
1.460E-06,0.160
1.470E-06,-0.020
1.480E-06,-0.200
1.490E-06,-0.260
1.500E-06,-0.440
1.510E-06,-0.480
1.520E-06,-0.620
1.530E-06,-0.780
1.540E-06,-1.000
1.550E-06,-1.200
1.560E-06,-1.360
1.570E-06,-1.440
1.580E-06,-1.440
1.590E-06,-1.520
1.600E-06,-1.480
1.610E-06,-1.540
1.620E-06,-1.700
1.630E-06,-1.780
1.640E-06,-1.960
1.650E-06,-2.100
1.660E-06,-2.280
1.670E-06,-2.440
1.680E-06,-2.520
1.690E-06,-2.620
1.700E-06,-2.680
1.710E-06,-2.780
1.720E-06,-2.900
1.730E-06,-2.880
1.740E-06,-2.920
1.750E-06,-2.920
1.760E-06,-2.860
1.770E-06,-2.780
1.780E-06,-2.540
1.790E-06,-2.420
1.800E-06,-2.200
1.810E-06,-2.100
1.820E-06,-1.940
1.830E-06,-1.860
1.840E-06,-1.680
1.850E-06,-1.680
1.860E-06,-1.540
1.870E-06,-1.280
1.880E-06,-0.980
1.890E-06,-0.540
1.900E-06,-0.340
1.910E-06,-0.020
1.920E-06,0.140
1.930E-06,0.440
1.940E-06,0.440
1.950E-06,0.660
1.960E-06,0.680
1.970E-06,0.760
1.980E-06,0.720
1.990E-06,0.620
2.000E-06,0.560
2.010E-06,0.400
2.020E-06,0.340
2.030E-06,0.200
2.040E-06,0.100
2.050E-06,-0.040
2.060E-06,-0.080
2.070E-06,-0.180
2.080E-06,-0.180
2.090E-06,-0.280
2.100E-06,-0.300
2.110E-06,-0.220
2.120E-06,-0.120
2.130E-06,-0.140
2.140E-06,-0.120
2.150E-06,-0.060
2.160E-06,0.000
2.170E-06,0.020
2.180E-06,-0.040
2.190E-06,0.000
2.200E-06,-0.040
2.210E-06,-0.020
2.220E-06,-0.020
2.230E-06,0.020
2.240E-06,-0.040
2.250E-06,0.080
2.260E-06,-0.020
2.270E-06,-0.040
2.280E-06,-0.180
2.290E-06,-0.240
2.300E-06,-0.360
2.310E-06,-0.420
2.320E-06,-0.420
2.330E-06,-0.360
2.340E-06,-0.400
2.350E-06,-0.380
2.360E-06,-0.320
2.370E-06,-0.300
2.380E-06,-0.280
2.390E-06,-0.220
2.400E-06,-0.160
2.410E-06,-0.140
2.420E-06,-0.100
2.430E-06,-0.020
2.440E-06,-0.020
2.450E-06,-0.420
2.460E-06,-0.840
2.470E-06,-1.180
2.480E-06,-0.520
2.490E-06,-0.320
2.500E-06,-0.100
2.510E-06,-0.080
2.520E-06,-0.080
2.530E-06,0.120
2.540E-06,-0.100
2.550E-06,-0.020
2.560E-06,0.040
2.570E-06,0.360
2.580E-06,0.240
2.590E-06,0.260
2.600E-06,0.440
2.610E-06,0.520
2.620E-06,0.440
2.630E-06,0.520
2.640E-06,0.700
2.650E-06,0.660
2.660E-06,0.560
2.670E-06,0.520
2.680E-06,0.440
2.690E-06,0.380
2.700E-06,0.340
2.710E-06,0.380
2.720E-06,0.320
2.730E-06,0.340
2.740E-06,0.320
2.750E-06,0.320
2.760E-06,0.360
2.770E-06,0.360
2.780E-06,0.360
2.790E-06,0.320
2.800E-06,0.320
2.810E-06,0.280
2.820E-06,0.180
2.830E-06,0.160
2.840E-06,0.160
2.850E-06,0.140
2.860E-06,0.120
2.870E-06,0.160
2.880E-06,0.180
2.890E-06,0.240
2.900E-06,0.240
2.910E-06,0.260
2.920E-06,0.220
2.930E-06,0.240
2.940E-06,0.200
2.950E-06,0.180
2.960E-06,0.180
2.970E-06,0.180
2.980E-06,0.140
2.990E-06,0.060
3.000E-06,0.080
3.010E-06,0.100
3.020E-06,0.120
3.030E-06,0.120
3.040E-06,0.160
3.050E-06,0.180
3.060E-06,0.240
3.070E-06,0.240
3.080E-06,0.260
3.090E-06,0.260
3.100E-06,0.280
3.110E-06,0.260
3.120E-06,0.280
3.130E-06,0.240
3.140E-06,0.260
3.150E-06,0.300
3.160E-06,0.320
3.170E-06,0.300
3.180E-06,0.300
3.190E-06,0.360
3.200E-06,0.320
3.210E-06,0.300
3.220E-06,0.240
3.230E-06,0.220
3.240E-06,0.160
3.250E-06,0.160
3.260E-06,0.140
3.270E-06,0.160
