mediciones/curva carac 8-28 limpias/-33/WaveData65828.csv

#timebase=2000000(ps)
,#voltbase=200000(mv/100)
#size=4000
-8.350E-06,-0.008
-8.340E-06,-0.008
-8.330E-06,0.000
-8.320E-06,0.016
-8.310E-06,0.032
-8.300E-06,0.024
-8.290E-06,0.024
-8.280E-06,0.008
-8.270E-06,0.000
-8.260E-06,-0.008
-8.250E-06,0.000
-8.240E-06,0.008
-8.230E-06,0.008
-8.220E-06,0.032
-8.210E-06,0.024
-8.200E-06,0.016
-8.190E-06,0.016
-8.180E-06,0.000
-8.170E-06,0.016
-8.160E-06,-0.008
-8.150E-06,0.016
-8.140E-06,0.016
-8.130E-06,0.000
-8.120E-06,0.032
-8.110E-06,-0.048
-8.100E-06,-0.016
-8.090E-06,-0.040
-8.080E-06,-0.008
-8.070E-06,0.016
-8.060E-06,0.008
-8.050E-06,0.048
-8.040E-06,0.008
-8.030E-06,0.008
-8.020E-06,-0.016
-8.010E-06,-0.040
-8.000E-06,-0.016
-7.990E-06,0.016
-7.980E-06,0.032
-7.970E-06,0.024
-7.960E-06,0.032
-7.950E-06,-0.008
-7.940E-06,-0.016
-7.930E-06,-0.016
-7.920E-06,-0.008
-7.910E-06,0.000
-7.900E-06,0.024
-7.890E-06,0.032
-7.880E-06,0.024
-7.870E-06,0.016
-7.860E-06,-0.008
-7.850E-06,-0.016
-7.840E-06,-0.008
-7.830E-06,-0.008
-7.820E-06,0.000
-7.810E-06,0.016
-7.800E-06,0.032
-7.790E-06,0.016
-7.780E-06,0.000
-7.770E-06,0.000
-7.760E-06,-0.008
-7.750E-06,-0.016
-7.740E-06,-0.008
-7.730E-06,0.000
-7.720E-06,0.024
-7.710E-06,0.024
-7.700E-06,0.024
-7.690E-06,0.000
-7.680E-06,-0.008
-7.670E-06,-0.016
-7.660E-06,-0.016
-7.650E-06,0.008
-7.640E-06,0.008
-7.630E-06,0.032
-7.620E-06,0.024
-7.610E-06,0.000
-7.600E-06,0.000
-7.590E-06,-0.008
-7.580E-06,-0.016
-7.570E-06,-0.008
-7.560E-06,0.000
-7.550E-06,0.016
-7.540E-06,0.016
-7.530E-06,0.024
-7.520E-06,0.000
-7.510E-06,0.008
-7.500E-06,-0.008
-7.490E-06,0.000
-7.480E-06,0.000
-7.470E-06,0.008
-7.460E-06,0.024
-7.450E-06,0.008
-7.440E-06,0.024
-7.430E-06,0.008
-7.420E-06,0.000
-7.410E-06,-0.016
-7.400E-06,-0.016
-7.390E-06,0.016
-7.380E-06,-0.008
-7.370E-06,0.024
-7.360E-06,0.016
-7.350E-06,0.032
-7.340E-06,-0.008
-7.330E-06,-0.008
-7.320E-06,-0.008
-7.310E-06,-0.016
-7.300E-06,0.016
-7.290E-06,0.000
-7.280E-06,0.032
-7.270E-06,0.008
-7.260E-06,0.000
-7.250E-06,0.008
-7.240E-06,0.008
-7.230E-06,0.008
-7.220E-06,0.000
-7.210E-06,0.000
-7.200E-06,0.024
-7.190E-06,0.008
-7.180E-06,-0.008
-7.170E-06,0.000
-7.160E-06,-0.008
-7.150E-06,0.016
-7.140E-06,-0.008
-7.130E-06,0.016
-7.120E-06,0.024
-7.110E-06,0.024
-7.100E-06,0.008
-7.090E-06,-0.008
-7.080E-06,-0.008
-7.070E-06,-0.024
-7.060E-06,0.000
-7.050E-06,0.016
-7.040E-06,0.016
-7.030E-06,0.032
-7.020E-06,0.000
-7.010E-06,-0.008
-7.000E-06,-0.008
-6.990E-06,-0.008
-6.980E-06,-0.016
-6.970E-06,0.008
-6.960E-06,0.016
-6.950E-06,0.048
-6.940E-06,0.040
-6.930E-06,0.008
-6.920E-06,-0.016
-6.910E-06,-0.024
-6.900E-06,-0.016
-6.890E-06,0.000
-6.880E-06,0.016
-6.870E-06,0.024
-6.860E-06,0.040
-6.850E-06,0.016
-6.840E-06,0.000
-6.830E-06,-0.016
-6.820E-06,-0.016
-6.810E-06,0.000
-6.800E-06,0.024
-6.790E-06,0.032
-6.780E-06,0.056
-6.770E-06,-0.008
-6.760E-06,0.040
-6.750E-06,-0.016
-6.740E-06,-0.080
-6.730E-06,0.064
-6.720E-06,-0.048
-6.710E-06,0.008
-6.700E-06,0.056
-6.690E-06,0.008
-6.680E-06,0.048
-6.670E-06,-0.024
-6.660E-06,0.016
-6.650E-06,-0.040
-6.640E-06,0.032
-6.630E-06,0.016
-6.620E-06,0.032
-6.610E-06,-0.016
-6.600E-06,0.000
-6.590E-06,0.032
-6.580E-06,-0.016
-6.570E-06,0.000
-6.560E-06,-0.008
-6.550E-06,0.008
-6.540E-06,0.032
-6.530E-06,0.008
-6.520E-06,0.024
-6.510E-06,0.016
-6.500E-06,0.000
-6.490E-06,-0.008
-6.480E-06,-0.008
-6.470E-06,0.000
-6.460E-06,0.024
-6.450E-06,-0.008
-6.440E-06,0.016
-6.430E-06,0.016
-6.420E-06,0.024
-6.410E-06,-0.024
-6.400E-06,-0.008
-6.390E-06,0.032
-6.380E-06,-0.008
-6.370E-06,0.048
-6.360E-06,0.024
-6.350E-06,0.000
-6.340E-06,-0.008
-6.330E-06,0.048
-6.320E-06,-0.040
-6.310E-06,0.000
-6.300E-06,-0.016
-6.290E-06,0.008
-6.280E-06,0.024
-6.270E-06,0.008
-6.260E-06,-0.008
-6.250E-06,0.008
-6.240E-06,0.016
-6.230E-06,0.008
-6.220E-06,0.008
-6.210E-06,0.016
-6.200E-06,0.008
-6.190E-06,0.024
-6.180E-06,0.016
-6.170E-06,0.016
-6.160E-06,0.024
-6.150E-06,0.000
-6.140E-06,0.016
-6.130E-06,0.048
-6.120E-06,0.016
-6.110E-06,0.024
-6.100E-06,0.000
-6.090E-06,-0.008
-6.080E-06,-0.008
-6.070E-06,-0.008
-6.060E-06,-0.008
-6.050E-06,-0.008
-6.040E-06,-0.008
-6.030E-06,0.016
-6.020E-06,0.024
-6.010E-06,0.024
-6.000E-06,0.024
-5.990E-06,0.016
-5.980E-06,0.016
-5.970E-06,0.008
-5.960E-06,0.024
-5.950E-06,-0.008
-5.940E-06,-0.016
-5.930E-06,-0.008
-5.920E-06,-0.008
-5.910E-06,0.008
-5.900E-06,-0.008
-5.890E-06,0.000
-5.880E-06,0.000
-5.870E-06,0.000
-5.860E-06,0.000
-5.850E-06,-0.008
-5.840E-06,0.000
-5.830E-06,0.000
-5.820E-06,0.000
-5.810E-06,0.008
-5.800E-06,0.008
-5.790E-06,0.016
-5.780E-06,0.000
-5.770E-06,0.008
-5.760E-06,0.008
-5.750E-06,0.016
-5.740E-06,0.000
-5.730E-06,0.000
-5.720E-06,0.016
-5.710E-06,-0.008
-5.700E-06,0.032
-5.690E-06,0.024
-5.680E-06,0.000
-5.670E-06,-0.016
-5.660E-06,-0.008
-5.650E-06,0.016
-5.640E-06,0.000
-5.630E-06,0.016
-5.620E-06,0.008
-5.610E-06,0.016
-5.600E-06,0.008
-5.590E-06,0.024
-5.580E-06,-0.008
-5.570E-06,-0.008
-5.560E-06,0.008
-5.550E-06,0.024
-5.540E-06,0.032
-5.530E-06,0.032
-5.520E-06,0.024
-5.510E-06,0.024
-5.500E-06,0.016
-5.490E-06,0.008
-5.480E-06,0.016
-5.470E-06,0.024
-5.460E-06,0.032
-5.450E-06,0.000
-5.440E-06,-0.008
-5.430E-06,-0.016
-5.420E-06,-0.008
-5.410E-06,0.000
-5.400E-06,0.008
-5.390E-06,0.032
-5.380E-06,0.024
-5.370E-06,0.008
-5.360E-06,-0.008
-5.350E-06,0.000
-5.340E-06,-0.008
-5.330E-06,0.008
-5.320E-06,0.008
-5.310E-06,0.016
-5.300E-06,0.008
-5.290E-06,0.008
-5.280E-06,0.008
-5.270E-06,0.016
-5.260E-06,0.000
-5.250E-06,0.008
-5.240E-06,0.016
-5.230E-06,0.016
-5.220E-06,0.032
-5.210E-06,0.024
-5.200E-06,0.024
-5.190E-06,0.008
-5.180E-06,0.000
-5.170E-06,0.000
-5.160E-06,0.032
-5.150E-06,0.032
-5.140E-06,0.048
-5.130E-06,0.024
-5.120E-06,0.032
-5.110E-06,-0.008
-5.100E-06,0.000
-5.090E-06,0.016
-5.080E-06,0.008
-5.070E-06,0.016
-5.060E-06,0.016
-5.050E-06,-0.008
-5.040E-06,-0.008
-5.030E-06,-0.008
-5.020E-06,0.000
-5.010E-06,0.008
-5.000E-06,0.000
-4.990E-06,0.024
-4.980E-06,0.024
-4.970E-06,0.032
-4.960E-06,0.040
-4.950E-06,0.032
-4.940E-06,0.032
-4.930E-06,0.040
-4.920E-06,0.048
-4.910E-06,0.048
-4.900E-06,0.040
-4.890E-06,0.032
-4.880E-06,0.024
-4.870E-06,0.024
-4.860E-06,0.032
-4.850E-06,0.040
-4.840E-06,0.024
-4.830E-06,-0.032
-4.820E-06,-0.056
-4.810E-06,-0.072
-4.800E-06,-0.104
-4.790E-06,-0.056
-4.780E-06,-0.040
-4.770E-06,-0.008
-4.760E-06,-0.008
-4.750E-06,0.008
-4.740E-06,-0.008
-4.730E-06,-0.040
-4.720E-06,-0.032
-4.710E-06,-0.032
-4.700E-06,0.024
-4.690E-06,0.024
-4.680E-06,0.032
-4.670E-06,0.008
-4.660E-06,0.000
-4.650E-06,-0.008
-4.640E-06,-0.016
-4.630E-06,-0.008
-4.620E-06,-0.008
-4.610E-06,0.000
-4.600E-06,0.008
-4.590E-06,0.032
-4.580E-06,0.048
-4.570E-06,0.016
-4.560E-06,0.000
-4.550E-06,0.000
-4.540E-06,-0.008
-4.530E-06,0.024
-4.520E-06,0.016
-4.510E-06,0.000
-4.500E-06,-0.008
-4.490E-06,0.008
-4.480E-06,0.040
-4.470E-06,0.016
-4.460E-06,0.008
-4.450E-06,0.016
-4.440E-06,0.048
-4.430E-06,0.056
-4.420E-06,0.048
-4.410E-06,0.048
-4.400E-06,0.056
-4.390E-06,0.064
-4.380E-06,0.064
-4.370E-06,0.048
-4.360E-06,0.016
-4.350E-06,0.048
-4.340E-06,0.032
-4.330E-06,-0.096
-4.320E-06,-0.088
-4.310E-06,-0.208
-4.300E-06,-0.256
-4.290E-06,-0.008
-4.280E-06,-0.208
-4.270E-06,-0.176
-4.260E-06,0.416
-4.250E-06,0.384
-4.240E-06,0.096
-4.230E-06,-0.392
-4.220E-06,-0.256
-4.210E-06,-0.040
-4.200E-06,0.080
-4.190E-06,0.152
-4.180E-06,0.064
-4.170E-06,0.176
-4.160E-06,0.056
-4.150E-06,0.024
-4.140E-06,-0.128
-4.130E-06,-0.208
-4.120E-06,-0.120
-4.110E-06,0.048
-4.100E-06,0.224
-4.090E-06,0.184
-4.080E-06,0.048
-4.070E-06,-0.104
-4.060E-06,-0.104
-4.050E-06,-0.080
-4.040E-06,-0.016
-4.030E-06,0.024
-4.020E-06,0.120
-4.010E-06,0.144
-4.000E-06,0.128
-3.990E-06,0.064
-3.980E-06,0.000
-3.970E-06,0.008
-3.960E-06,-0.088
-3.950E-06,-0.080
-3.940E-06,-0.056
-3.930E-06,-0.016
-3.920E-06,0.024
-3.910E-06,0.040
-3.900E-06,0.080
-3.890E-06,0.040
-3.880E-06,-0.008
-3.870E-06,-0.080
-3.860E-06,-0.080
-3.850E-06,-0.040
-3.840E-06,0.024
-3.830E-06,0.056
-3.820E-06,0.040
-3.810E-06,0.040
-3.800E-06,-0.008
-3.790E-06,-0.032
-3.780E-06,-0.048
-3.770E-06,-0.032
-3.760E-06,0.008
-3.750E-06,0.040
-3.740E-06,0.056
-3.730E-06,0.024
-3.720E-06,0.000
-3.710E-06,0.000
-3.700E-06,0.000
-3.690E-06,-0.008
-3.680E-06,0.008
-3.670E-06,0.016
-3.660E-06,0.016
-3.650E-06,0.024
-3.640E-06,0.000
-3.630E-06,-0.024
-3.620E-06,-0.040
-3.610E-06,-0.016
-3.600E-06,0.016
-3.590E-06,0.064
-3.580E-06,0.112
-3.570E-06,0.008
-3.560E-06,-0.048
-3.550E-06,-0.096
-3.540E-06,-0.072
-3.530E-06,0.000
-3.520E-06,0.088
-3.510E-06,0.112
-3.500E-06,0.048
-3.490E-06,-0.016
-3.480E-06,-0.072
-3.470E-06,-0.080
-3.460E-06,-0.048
-3.450E-06,0.016
-3.440E-06,0.064
-3.430E-06,0.088
-3.420E-06,0.064
-3.410E-06,0.000
-3.400E-06,-0.056
-3.390E-06,-0.072
-3.380E-06,-0.032
-3.370E-06,0.016
-3.360E-06,0.064
-3.350E-06,0.072
-3.340E-06,0.072
-3.330E-06,0.024
-3.320E-06,-0.024
-3.310E-06,-0.072
-3.300E-06,-0.056
-3.290E-06,0.016
-3.280E-06,0.064
-3.270E-06,0.080
-3.260E-06,0.048
-3.250E-06,-0.024
-3.240E-06,-0.064
-3.230E-06,-0.072
-3.220E-06,-0.048
-3.210E-06,0.016
-3.200E-06,0.056
-3.190E-06,0.072
-3.180E-06,0.056
-3.170E-06,0.048
-3.160E-06,0.008
-3.150E-06,-0.032
-3.140E-06,-0.056
-3.130E-06,-0.072
-3.120E-06,-0.016
-3.110E-06,0.040
-3.100E-06,0.056
-3.090E-06,0.072
-3.080E-06,0.048
-3.070E-06,-0.008
-3.060E-06,-0.032
-3.050E-06,-0.040
-3.040E-06,-0.016
-3.030E-06,0.024
-3.020E-06,0.064
-3.010E-06,0.072
-3.000E-06,0.048
-2.990E-06,0.008
-2.980E-06,-0.048
-2.970E-06,-0.024
-2.960E-06,-0.064
-2.950E-06,-0.040
-2.940E-06,-0.016
-2.930E-06,0.032
-2.920E-06,0.080
-2.910E-06,0.056
-2.900E-06,0.048
-2.890E-06,-0.008
-2.880E-06,-0.016
-2.870E-06,-0.032
-2.860E-06,-0.024
-2.850E-06,-0.024
-2.840E-06,-0.024
-2.830E-06,-0.008
-2.820E-06,0.008
-2.810E-06,0.032
-2.800E-06,0.048
-2.790E-06,0.032
-2.780E-06,0.032
-2.770E-06,0.040
-2.760E-06,0.008
-2.750E-06,0.000
-2.740E-06,-0.024
-2.730E-06,-0.056
-2.720E-06,-0.040
-2.710E-06,0.008
-2.700E-06,0.048
-2.690E-06,0.064
-2.680E-06,0.048
-2.670E-06,-0.008
-2.660E-06,-0.040
-2.650E-06,-0.032
-2.640E-06,0.000
-2.630E-06,0.040
-2.620E-06,0.040
-2.610E-06,0.000
-2.600E-06,-0.040
-2.590E-06,-0.048
-2.580E-06,-0.040
-2.570E-06,0.000
-2.560E-06,0.040
-2.550E-06,0.056
-2.540E-06,0.056
-2.530E-06,0.040
-2.520E-06,-0.008
-2.510E-06,-0.008
-2.500E-06,0.008
-2.490E-06,0.016
-2.480E-06,-0.016
-2.470E-06,-0.024
-2.460E-06,-0.040
-2.450E-06,-0.024
-2.440E-06,0.024
-2.430E-06,0.072
-2.420E-06,0.088
-2.410E-06,0.040
-2.400E-06,0.000
-2.390E-06,-0.056
-2.380E-06,-0.064
-2.370E-06,-0.040
-2.360E-06,0.024
-2.350E-06,0.064
-2.340E-06,0.072
-2.330E-06,0.064
-2.320E-06,0.008
-2.310E-06,-0.032
-2.300E-06,-0.048
-2.290E-06,-0.024
-2.280E-06,0.000
-2.270E-06,0.008
-2.260E-06,0.032
-2.250E-06,0.008
-2.240E-06,0.000
-2.230E-06,-0.016
-2.220E-06,-0.016
-2.210E-06,-0.008
-2.200E-06,0.032
-2.190E-06,0.032
-2.180E-06,0.040
-2.170E-06,0.048
-2.160E-06,0.024
-2.150E-06,-0.016
-2.140E-06,-0.056
-2.130E-06,-0.064
-2.120E-06,-0.040
-2.110E-06,0.008
-2.100E-06,0.056
-2.090E-06,0.064
-2.080E-06,0.048
-2.070E-06,0.016
-2.060E-06,-0.040
-2.050E-06,-0.040
-2.040E-06,-0.024
-2.030E-06,0.008
-2.020E-06,0.048
-2.010E-06,0.064
-2.000E-06,0.048
-1.990E-06,0.024
-1.980E-06,0.016
-1.970E-06,-0.008
-1.960E-06,0.008
-1.950E-06,0.032
-1.940E-06,0.056
-1.930E-06,0.056
-1.920E-06,0.048
-1.910E-06,-0.008
-1.900E-06,-0.032
-1.890E-06,-0.040
-1.880E-06,-0.064
-1.870E-06,-0.032
-1.860E-06,0.016
-1.850E-06,0.056
-1.840E-06,0.056
-1.830E-06,0.048
-1.820E-06,0.040
-1.810E-06,0.016
-1.800E-06,-0.016
-1.790E-06,-0.024
-1.780E-06,0.000
-1.770E-06,0.024
-1.760E-06,0.064
-1.750E-06,0.064
-1.740E-06,0.064
-1.730E-06,0.032
-1.720E-06,-0.008
-1.710E-06,-0.008
-1.700E-06,-0.016
-1.690E-06,0.008
-1.680E-06,0.024
-1.670E-06,0.032
-1.660E-06,-0.016
-1.650E-06,-0.056
-1.640E-06,-0.056
-1.630E-06,-0.064
-1.620E-06,-0.008
-1.610E-06,-0.016
-1.600E-06,-0.024
-1.590E-06,-0.024
-1.580E-06,-0.016
-1.570E-06,0.024
-1.560E-06,0.000
-1.550E-06,0.056
-1.540E-06,0.048
-1.530E-06,0.048
-1.520E-06,0.032
-1.510E-06,-0.008
-1.500E-06,-0.008
-1.490E-06,-0.040
-1.480E-06,-0.056
-1.470E-06,-0.048
-1.460E-06,-0.008
-1.450E-06,0.000
-1.440E-06,0.024
-1.430E-06,0.024
-1.420E-06,0.008
-1.410E-06,-0.032
-1.400E-06,-0.016
-1.390E-06,-0.016
-1.380E-06,-0.008
-1.370E-06,0.000
-1.360E-06,0.008
-1.350E-06,0.024
-1.340E-06,0.032
-1.330E-06,0.008
-1.320E-06,-0.008
-1.310E-06,-0.008
-1.300E-06,0.000
-1.290E-06,0.008
-1.280E-06,0.016
-1.270E-06,0.016
-1.260E-06,0.008
-1.250E-06,0.016
-1.240E-06,0.000
-1.230E-06,0.008
-1.220E-06,0.000
-1.210E-06,0.008
-1.200E-06,0.000
-1.190E-06,0.016
-1.180E-06,0.024
-1.170E-06,0.008
-1.160E-06,0.008
-1.150E-06,0.008
-1.140E-06,0.008
-1.130E-06,0.008
-1.120E-06,0.008
-1.110E-06,0.016
-1.100E-06,0.016
-1.090E-06,0.024
-1.080E-06,0.024
-1.070E-06,0.024
-1.060E-06,0.032
-1.050E-06,0.032
-1.040E-06,0.048
-1.030E-06,0.064
-1.020E-06,0.064
-1.010E-06,0.088
-1.000E-06,0.120
-9.900E-07,0.136
-9.800E-07,0.152
-9.700E-07,0.128
-9.600E-07,0.072
-9.500E-07,0.016
-9.400E-07,0.048
-9.300E-07,-0.024
-9.200E-07,-0.024
-9.100E-07,-0.048
-9.000E-07,-0.088
-8.900E-07,-0.112
-8.800E-07,-0.048
-8.700E-07,-0.008
-8.600E-07,0.008
-8.500E-07,0.064
-8.400E-07,0.080
-8.300E-07,0.056
-8.200E-07,-0.040
-8.100E-07,-0.096
-8.000E-07,-0.120
-7.900E-07,-0.064
-7.800E-07,0.056
-7.700E-07,0.128
-7.600E-07,0.152
-7.500E-07,0.096
-7.400E-07,0.056
-7.300E-07,-0.112
-7.200E-07,-0.216
-7.100E-07,-0.272
-7.000E-07,-0.208
-6.900E-07,-0.024
-6.800E-07,0.096
-6.700E-07,0.192
-6.600E-07,0.168
-6.500E-07,0.064
-6.400E-07,-0.088
-6.300E-07,-0.176
-6.200E-07,-0.160
-6.100E-07,-0.056
-6.000E-07,0.088
-5.900E-07,0.144
-5.800E-07,0.160
-5.700E-07,0.096
-5.600E-07,-0.008
-5.500E-07,-0.072
-5.400E-07,-0.104
-5.300E-07,-0.072
-5.200E-07,0.024
-5.100E-07,0.120
-5.000E-07,0.160
-4.900E-07,0.112
-4.800E-07,0.040
-4.700E-07,-0.048
-4.600E-07,-0.064
-4.500E-07,-0.072
-4.400E-07,-0.008
-4.300E-07,0.040
-4.200E-07,0.120
-4.100E-07,0.072
-4.000E-07,0.024
-3.900E-07,-0.088
-3.800E-07,-0.112
-3.700E-07,-0.112
-3.600E-07,-0.040
-3.500E-07,0.056
-3.400E-07,0.128
-3.300E-07,0.184
-3.200E-07,0.120
-3.100E-07,0.064
-3.000E-07,0.008
-2.900E-07,0.000
-2.800E-07,0.032
-2.700E-07,0.120
-2.600E-07,0.192
-2.500E-07,0.192
-2.400E-07,0.096
-2.300E-07,-0.080
-2.200E-07,-0.240
-2.100E-07,-0.272
-2.000E-07,-0.168
-1.900E-07,-0.016
-1.800E-07,0.176
-1.700E-07,0.240
-1.600E-07,0.200
-1.500E-07,0.072
-1.400E-07,-0.080
-1.300E-07,-0.152
-1.200E-07,-0.112
-1.100E-07,0.000
-1.000E-07,0.088
-9.000E-08,0.192
-8.000E-08,0.112
-7.000E-08,0.064
-6.000E-08,-0.216
-5.000E-08,-0.368
-4.000E-08,-0.376
-3.000E-08,-0.208
-2.000E-08,0.088
-1.000E-08,0.288
0.000E+00,0.392
1.000E-08,0.216
2.000E-08,-0.040
3.000E-08,-0.224
4.000E-08,-0.328
5.000E-08,-0.248
6.000E-08,-0.088
7.000E-08,0.056
8.000E-08,0.216
9.000E-08,0.192
1.000E-07,0.120
1.100E-07,-0.056
1.200E-07,-0.144
1.300E-07,-0.160
1.400E-07,-0.104
1.500E-07,0.040
1.600E-07,0.144
1.700E-07,0.192
1.800E-07,0.080
1.900E-07,0.000
2.000E-07,-0.136
2.100E-07,-0.128
2.200E-07,-0.080
2.300E-07,0.024
2.400E-07,0.096
2.500E-07,0.112
2.600E-07,0.112
2.700E-07,0.016
2.800E-07,-0.048
2.900E-07,-0.104
3.000E-07,-0.072
3.100E-07,-0.016
3.200E-07,0.072
3.300E-07,0.096
3.400E-07,0.096
3.500E-07,0.048
3.600E-07,-0.016
3.700E-07,-0.048
3.800E-07,-0.048
3.900E-07,0.000
4.000E-07,0.048
4.100E-07,0.096
4.200E-07,0.120
4.300E-07,0.104
4.400E-07,0.056
4.500E-07,0.040
4.600E-07,0.008
4.700E-07,0.048
4.800E-07,0.072
4.900E-07,0.136
5.000E-07,0.192
5.100E-07,0.224
5.200E-07,0.240
5.300E-07,0.200
5.400E-07,0.152
5.500E-07,0.136
5.600E-07,0.088
5.700E-07,0.088
5.800E-07,0.104
5.900E-07,0.144
6.000E-07,0.120
6.100E-07,0.080
6.200E-07,0.056
6.300E-07,0.048
6.400E-07,0.048
6.500E-07,0.016
6.600E-07,-0.056
6.700E-07,-0.112
6.800E-07,-0.216
6.900E-07,-0.216
7.000E-07,-0.144
7.100E-07,-0.104
7.200E-07,0.008
7.300E-07,0.096
7.400E-07,0.112
7.500E-07,0.072
7.600E-07,0.072
7.700E-07,0.032
7.800E-07,0.080
7.900E-07,0.040
8.000E-07,-0.064
8.100E-07,-0.232
8.200E-07,-0.328
8.300E-07,-0.336
8.400E-07,-0.328
8.500E-07,-0.128
8.600E-07,-0.032
8.700E-07,0.080
8.800E-07,-0.008
8.900E-07,-0.016
9.000E-07,-0.088
9.100E-07,-0.056
9.200E-07,-0.032
9.300E-07,-0.040
9.400E-07,-0.032
9.500E-07,-0.032
9.600E-07,0.048
9.700E-07,0.056
9.800E-07,0.056
9.900E-07,0.040
1.000E-06,0.064
1.010E-06,0.056
1.020E-06,0.056
1.030E-06,0.032
1.040E-06,0.024
1.050E-06,0.064
1.060E-06,0.080
1.070E-06,0.128
1.080E-06,0.096
1.090E-06,0.072
1.100E-06,0.056
1.110E-06,0.040
1.120E-06,0.048
1.130E-06,0.048
1.140E-06,0.064
1.150E-06,0.056
1.160E-06,0.064
1.170E-06,0.080
1.180E-06,0.088
1.190E-06,0.080
1.200E-06,0.088
1.210E-06,0.096
1.220E-06,0.136
1.230E-06,0.192
1.240E-06,0.208
1.250E-06,0.224
1.260E-06,0.248
1.270E-06,0.224
1.280E-06,0.200
1.290E-06,0.152
1.300E-06,0.144
1.310E-06,0.160
1.320E-06,0.192
1.330E-06,0.208
1.340E-06,0.224
1.350E-06,0.216
1.360E-06,0.192
1.370E-06,0.112
1.380E-06,0.056
1.390E-06,-0.032
1.400E-06,-0.080
1.410E-06,-0.080
1.420E-06,-0.072
1.430E-06,-0.056
1.440E-06,-0.008
1.450E-06,0.056
1.460E-06,0.184
1.470E-06,0.392
1.480E-06,0.440
1.490E-06,0.320
1.500E-06,0.080
1.510E-06,-0.168
1.520E-06,-0.368
1.530E-06,-0.472
1.540E-06,-0.456
1.550E-06,-0.344
1.560E-06,-0.168
1.570E-06,-0.408
1.580E-06,-0.264
1.590E-06,-0.816
1.600E-06,-0.720
1.610E-06,-0.656
1.620E-06,-0.272
1.630E-06,0.192
1.640E-06,0.600
1.650E-06,0.568
1.660E-06,-0.016
1.670E-06,-0.480
1.680E-06,-0.440
1.690E-06,-0.176
1.700E-06,0.056
1.710E-06,0.216
1.720E-06,0.320
1.730E-06,0.472
1.740E-06,0.456
1.750E-06,0.184
1.760E-06,-0.136
1.770E-06,-0.184
1.780E-06,0.048
1.790E-06,0.320
1.800E-06,0.504
1.810E-06,0.448
1.820E-06,0.352
1.830E-06,0.192
1.840E-06,0.056
1.850E-06,-0.016
1.860E-06,0.040
1.870E-06,0.192
1.880E-06,0.344
1.890E-06,0.440
1.900E-06,0.376
1.910E-06,0.264
1.920E-06,0.136
1.930E-06,0.072
1.940E-06,0.088
1.950E-06,0.192
1.960E-06,0.256
1.970E-06,0.336
1.980E-06,0.328
1.990E-06,0.256
2.000E-06,0.184
2.010E-06,0.120
2.020E-06,0.112
2.030E-06,0.144
2.040E-06,0.216
2.050E-06,0.256
2.060E-06,0.280
2.070E-06,0.256
2.080E-06,0.200
2.090E-06,0.136
2.100E-06,0.128
2.110E-06,0.144
2.120E-06,0.208
2.130E-06,0.240
2.140E-06,0.240
2.150E-06,0.208
2.160E-06,0.184
2.170E-06,0.184
2.180E-06,0.192
2.190E-06,0.216
2.200E-06,0.216
2.210E-06,0.240
2.220E-06,0.232
2.230E-06,0.216
2.240E-06,0.200
2.250E-06,0.184
2.260E-06,0.200
2.270E-06,0.216
2.280E-06,0.216
2.290E-06,0.216
2.300E-06,0.216
2.310E-06,0.200
2.320E-06,0.200
2.330E-06,0.192
2.340E-06,0.200
2.350E-06,0.216
2.360E-06,0.224
2.370E-06,0.208
2.380E-06,0.216
2.390E-06,0.216
2.400E-06,0.200
2.410E-06,0.200
2.420E-06,0.192
2.430E-06,0.200
2.440E-06,0.192
2.450E-06,0.192
2.460E-06,0.192
2.470E-06,0.216
2.480E-06,0.200
2.490E-06,0.192
2.500E-06,0.192
2.510E-06,0.216
2.520E-06,0.192
2.530E-06,0.192
2.540E-06,0.200
2.550E-06,0.200
2.560E-06,0.208
2.570E-06,0.192
2.580E-06,0.200
2.590E-06,0.192
2.600E-06,0.192
2.610E-06,0.200
2.620E-06,0.192
2.630E-06,0.184
2.640E-06,0.192
2.650E-06,0.200
2.660E-06,0.200
2.670E-06,0.200
2.680E-06,0.192
2.690E-06,0.192
2.700E-06,0.184
2.710E-06,0.200
2.720E-06,0.192
2.730E-06,0.192
2.740E-06,0.192
2.750E-06,0.184
2.760E-06,0.192
2.770E-06,0.184
2.780E-06,0.192
2.790E-06,0.184
2.800E-06,0.200
2.810E-06,0.184
2.820E-06,0.192
2.830E-06,0.184
2.840E-06,0.192
2.850E-06,0.200
2.860E-06,0.184
2.870E-06,0.192
2.880E-06,0.184
2.890E-06,0.200
2.900E-06,0.192
2.910E-06,0.184
2.920E-06,0.184
2.930E-06,0.184
2.940E-06,0.192
2.950E-06,0.184
2.960E-06,0.192
2.970E-06,0.192
2.980E-06,0.160
2.990E-06,0.184
3.000E-06,0.184
3.010E-06,0.192
3.020E-06,0.152
3.030E-06,0.160
3.040E-06,0.192
3.050E-06,0.192
3.060E-06,0.192
3.070E-06,0.176
3.080E-06,0.152
3.090E-06,0.168
3.100E-06,0.192
3.110E-06,0.184
3.120E-06,0.184
3.130E-06,0.168
3.140E-06,0.184
3.150E-06,0.168
3.160E-06,0.176
3.170E-06,0.160
3.180E-06,0.168
3.190E-06,0.168
3.200E-06,0.168
3.210E-06,0.192
3.220E-06,0.176
3.230E-06,0.168
3.240E-06,0.168
3.250E-06,0.160
3.260E-06,0.168
3.270E-06,0.168
3.280E-06,0.144
3.290E-06,0.160
3.300E-06,0.152
3.310E-06,0.160
3.320E-06,0.168
3.330E-06,0.160
3.340E-06,0.152
3.350E-06,0.160
