mediciones/8-28/-35/WaveData65851.csv

#timebase=2000000(ps)
,#voltbase=500000(mv/100)
#size=4000
-8.350E-06,0.020
-8.340E-06,0.060
-8.330E-06,0.080
-8.320E-06,0.040
-8.310E-06,0.040
-8.300E-06,0.040
-8.290E-06,0.040
-8.280E-06,0.040
-8.270E-06,0.020
-8.260E-06,0.060
-8.250E-06,0.020
-8.240E-06,0.040
-8.230E-06,0.060
-8.220E-06,0.040
-8.210E-06,0.000
-8.200E-06,0.040
-8.190E-06,0.040
-8.180E-06,0.040
-8.170E-06,0.040
-8.160E-06,0.060
-8.150E-06,0.040
-8.140E-06,0.040
-8.130E-06,0.060
-8.120E-06,0.040
-8.110E-06,0.040
-8.100E-06,0.020
-8.090E-06,0.080
-8.080E-06,0.020
-8.070E-06,0.060
-8.060E-06,0.060
-8.050E-06,0.060
-8.040E-06,0.040
-8.030E-06,0.040
-8.020E-06,0.080
-8.010E-06,0.060
-8.000E-06,0.060
-7.990E-06,0.060
-7.980E-06,0.060
-7.970E-06,0.080
-7.960E-06,0.040
-7.950E-06,0.000
-7.940E-06,0.060
-7.930E-06,0.040
-7.920E-06,0.020
-7.910E-06,0.020
-7.900E-06,0.020
-7.890E-06,0.040
-7.880E-06,0.060
-7.870E-06,0.040
-7.860E-06,0.060
-7.850E-06,0.040
-7.840E-06,0.060
-7.830E-06,0.040
-7.820E-06,0.080
-7.810E-06,0.060
-7.800E-06,0.000
-7.790E-06,0.060
-7.780E-06,0.040
-7.770E-06,0.020
-7.760E-06,0.060
-7.750E-06,0.020
-7.740E-06,0.060
-7.730E-06,0.060
-7.720E-06,0.080
-7.710E-06,0.080
-7.700E-06,0.080
-7.690E-06,0.040
-7.680E-06,0.040
-7.670E-06,0.060
-7.660E-06,0.040
-7.650E-06,0.000
-7.640E-06,0.040
-7.630E-06,0.080
-7.620E-06,0.020
-7.610E-06,0.060
-7.600E-06,0.060
-7.590E-06,0.060
-7.580E-06,0.040
-7.570E-06,0.040
-7.560E-06,0.080
-7.550E-06,0.060
-7.540E-06,0.080
-7.530E-06,0.020
-7.520E-06,0.060
-7.510E-06,0.080
-7.500E-06,0.060
-7.490E-06,0.020
-7.480E-06,0.020
-7.470E-06,0.080
-7.460E-06,0.040
-7.450E-06,0.060
-7.440E-06,0.040
-7.430E-06,0.060
-7.420E-06,0.040
-7.410E-06,0.060
-7.400E-06,0.080
-7.390E-06,0.080
-7.380E-06,0.060
-7.370E-06,0.040
-7.360E-06,0.040
-7.350E-06,0.080
-7.340E-06,0.060
-7.330E-06,0.040
-7.320E-06,0.040
-7.310E-06,0.060
-7.300E-06,0.040
-7.290E-06,0.060
-7.280E-06,0.060
-7.270E-06,0.020
-7.260E-06,0.020
-7.250E-06,0.060
-7.240E-06,0.080
-7.230E-06,0.060
-7.220E-06,0.020
-7.210E-06,0.000
-7.200E-06,0.060
-7.190E-06,0.040
-7.180E-06,0.060
-7.170E-06,0.080
-7.160E-06,0.060
-7.150E-06,0.080
-7.140E-06,0.020
-7.130E-06,0.040
-7.120E-06,0.020
-7.110E-06,0.060
-7.100E-06,0.060
-7.090E-06,0.040
-7.080E-06,0.080
-7.070E-06,0.060
-7.060E-06,0.020
-7.050E-06,0.040
-7.040E-06,0.080
-7.030E-06,0.060
-7.020E-06,0.020
-7.010E-06,0.060
-7.000E-06,0.040
-6.990E-06,0.040
-6.980E-06,0.060
-6.970E-06,0.040
-6.960E-06,0.080
-6.950E-06,0.040
-6.940E-06,0.020
-6.930E-06,0.060
-6.920E-06,0.040
-6.910E-06,0.060
-6.900E-06,0.040
-6.890E-06,0.060
-6.880E-06,0.020
-6.870E-06,0.060
-6.860E-06,0.000
-6.850E-06,0.020
-6.840E-06,0.040
-6.830E-06,0.060
-6.820E-06,0.020
-6.810E-06,0.040
-6.800E-06,0.020
-6.790E-06,0.060
-6.780E-06,0.060
-6.770E-06,0.080
-6.760E-06,0.020
-6.750E-06,0.040
-6.740E-06,0.060
-6.730E-06,0.060
-6.720E-06,0.060
-6.710E-06,0.060
-6.700E-06,0.060
-6.690E-06,0.080
-6.680E-06,0.080
-6.670E-06,0.020
-6.660E-06,0.040
-6.650E-06,0.040
-6.640E-06,0.060
-6.630E-06,0.080
-6.620E-06,0.040
-6.610E-06,0.020
-6.600E-06,0.040
-6.590E-06,0.060
-6.580E-06,0.000
-6.570E-06,0.040
-6.560E-06,0.060
-6.550E-06,0.020
-6.540E-06,0.020
-6.530E-06,0.040
-6.520E-06,0.040
-6.510E-06,0.040
-6.500E-06,0.020
-6.490E-06,0.080
-6.480E-06,0.040
-6.470E-06,0.060
-6.460E-06,0.040
-6.450E-06,0.020
-6.440E-06,0.040
-6.430E-06,0.060
-6.420E-06,0.020
-6.410E-06,0.040
-6.400E-06,0.040
-6.390E-06,0.060
-6.380E-06,0.040
-6.370E-06,0.020
-6.360E-06,0.040
-6.350E-06,0.040
-6.340E-06,0.080
-6.330E-06,0.040
-6.320E-06,0.060
-6.310E-06,0.080
-6.300E-06,0.040
-6.290E-06,0.060
-6.280E-06,0.060
-6.270E-06,0.060
-6.260E-06,0.040
-6.250E-06,0.060
-6.240E-06,0.020
-6.230E-06,0.060
-6.220E-06,0.000
-6.210E-06,0.060
-6.200E-06,0.020
-6.190E-06,0.060
-6.180E-06,0.040
-6.170E-06,0.020
-6.160E-06,0.040
-6.150E-06,0.060
-6.140E-06,0.060
-6.130E-06,0.060
-6.120E-06,0.060
-6.110E-06,0.080
-6.100E-06,0.060
-6.090E-06,0.020
-6.080E-06,0.020
-6.070E-06,0.040
-6.060E-06,0.080
-6.050E-06,0.060
-6.040E-06,0.020
-6.030E-06,0.060
-6.020E-06,0.060
-6.010E-06,0.060
-6.000E-06,0.060
-5.990E-06,0.020
-5.980E-06,0.040
-5.970E-06,0.060
-5.960E-06,0.040
-5.950E-06,0.020
-5.940E-06,0.020
-5.930E-06,0.040
-5.920E-06,0.060
-5.910E-06,0.060
-5.900E-06,0.040
-5.890E-06,0.040
-5.880E-06,0.060
-5.870E-06,0.060
-5.860E-06,0.060
-5.850E-06,0.040
-5.840E-06,0.060
-5.830E-06,0.060
-5.820E-06,0.080
-5.810E-06,0.020
-5.800E-06,0.040
-5.790E-06,0.040
-5.780E-06,0.020
-5.770E-06,0.020
-5.760E-06,0.000
-5.750E-06,0.040
-5.740E-06,0.080
-5.730E-06,0.020
-5.720E-06,0.020
-5.710E-06,0.060
-5.700E-06,0.080
-5.690E-06,0.040
-5.680E-06,0.060
-5.670E-06,0.060
-5.660E-06,0.060
-5.650E-06,0.080
-5.640E-06,0.060
-5.630E-06,0.020
-5.620E-06,0.020
-5.610E-06,0.060
-5.600E-06,0.040
-5.590E-06,0.020
-5.580E-06,0.080
-5.570E-06,0.020
-5.560E-06,0.040
-5.550E-06,0.080
-5.540E-06,0.040
-5.530E-06,0.060
-5.520E-06,0.020
-5.510E-06,0.040
-5.500E-06,0.040
-5.490E-06,0.020
-5.480E-06,0.020
-5.470E-06,0.060
-5.460E-06,0.020
-5.450E-06,0.020
-5.440E-06,0.040
-5.430E-06,0.020
-5.420E-06,0.040
-5.410E-06,0.020
-5.400E-06,0.020
-5.390E-06,0.060
-5.380E-06,0.020
-5.370E-06,0.060
-5.360E-06,0.020
-5.350E-06,0.040
-5.340E-06,0.020
-5.330E-06,0.020
-5.320E-06,0.040
-5.310E-06,0.040
-5.300E-06,0.080
-5.290E-06,0.020
-5.280E-06,0.020
-5.270E-06,0.060
-5.260E-06,0.080
-5.250E-06,0.080
-5.240E-06,0.020
-5.230E-06,0.000
-5.220E-06,0.060
-5.210E-06,0.040
-5.200E-06,0.020
-5.190E-06,0.060
-5.180E-06,0.040
-5.170E-06,0.020
-5.160E-06,0.060
-5.150E-06,0.060
-5.140E-06,0.020
-5.130E-06,0.060
-5.120E-06,0.060
-5.110E-06,0.040
-5.100E-06,0.020
-5.090E-06,0.060
-5.080E-06,0.040
-5.070E-06,0.080
-5.060E-06,0.040
-5.050E-06,0.000
-5.040E-06,0.040
-5.030E-06,0.060
-5.020E-06,0.060
-5.010E-06,0.060
-5.000E-06,0.040
-4.990E-06,0.060
-4.980E-06,0.020
-4.970E-06,0.040
-4.960E-06,0.040
-4.950E-06,0.040
-4.940E-06,0.040
-4.930E-06,0.060
-4.920E-06,0.040
-4.910E-06,0.020
-4.900E-06,0.040
-4.890E-06,0.040
-4.880E-06,0.040
-4.870E-06,0.080
-4.860E-06,0.020
-4.850E-06,0.020
-4.840E-06,0.040
-4.830E-06,0.060
-4.820E-06,0.060
-4.810E-06,0.060
-4.800E-06,0.060
-4.790E-06,0.080
-4.780E-06,0.080
-4.770E-06,0.020
-4.760E-06,0.040
-4.750E-06,0.020
-4.740E-06,0.040
-4.730E-06,0.020
-4.720E-06,0.040
-4.710E-06,0.040
-4.700E-06,0.040
-4.690E-06,0.020
-4.680E-06,0.060
-4.670E-06,0.020
-4.660E-06,0.060
-4.650E-06,0.040
-4.640E-06,0.040
-4.630E-06,0.060
-4.620E-06,0.060
-4.610E-06,0.080
-4.600E-06,0.020
-4.590E-06,0.020
-4.580E-06,0.060
-4.570E-06,0.040
-4.560E-06,0.060
-4.550E-06,0.060
-4.540E-06,0.020
-4.530E-06,0.040
-4.520E-06,0.060
-4.510E-06,0.080
-4.500E-06,0.060
-4.490E-06,0.040
-4.480E-06,0.040
-4.470E-06,0.040
-4.460E-06,0.060
-4.450E-06,0.060
-4.440E-06,0.040
-4.430E-06,0.060
-4.420E-06,0.040
-4.410E-06,0.020
-4.400E-06,0.040
-4.390E-06,0.040
-4.380E-06,0.020
-4.370E-06,0.060
-4.360E-06,0.060
-4.350E-06,0.040
-4.340E-06,0.080
-4.330E-06,0.040
-4.320E-06,0.060
-4.310E-06,0.080
-4.300E-06,0.020
-4.290E-06,0.020
-4.280E-06,0.040
-4.270E-06,0.060
-4.260E-06,0.080
-4.250E-06,0.020
-4.240E-06,0.040
-4.230E-06,0.060
-4.220E-06,0.020
-4.210E-06,0.080
-4.200E-06,0.060
-4.190E-06,0.060
-4.180E-06,0.080
-4.170E-06,0.040
-4.160E-06,0.040
-4.150E-06,0.060
-4.140E-06,0.040
-4.130E-06,0.060
-4.120E-06,0.060
-4.110E-06,0.040
-4.100E-06,0.020
-4.090E-06,0.040
-4.080E-06,0.060
-4.070E-06,0.020
-4.060E-06,0.020
-4.050E-06,0.040
-4.040E-06,0.020
-4.030E-06,0.040
-4.020E-06,0.040
-4.010E-06,0.040
-4.000E-06,0.060
-3.990E-06,0.040
-3.980E-06,0.020
-3.970E-06,0.020
-3.960E-06,0.060
-3.950E-06,0.060
-3.940E-06,0.080
-3.930E-06,0.040
-3.920E-06,0.060
-3.910E-06,0.080
-3.900E-06,0.060
-3.890E-06,0.060
-3.880E-06,0.020
-3.870E-06,0.020
-3.860E-06,0.040
-3.850E-06,0.060
-3.840E-06,0.080
-3.830E-06,0.020
-3.820E-06,0.060
-3.810E-06,0.080
-3.800E-06,0.060
-3.790E-06,0.020
-3.780E-06,0.020
-3.770E-06,0.060
-3.760E-06,0.040
-3.750E-06,0.040
-3.740E-06,0.080
-3.730E-06,0.020
-3.720E-06,0.040
-3.710E-06,0.060
-3.700E-06,0.060
-3.690E-06,0.020
-3.680E-06,0.080
-3.670E-06,0.080
-3.660E-06,0.040
-3.650E-06,0.060
-3.640E-06,0.080
-3.630E-06,0.040
-3.620E-06,0.040
-3.610E-06,0.040
-3.600E-06,0.020
-3.590E-06,0.060
-3.580E-06,0.040
-3.570E-06,0.040
-3.560E-06,0.060
-3.550E-06,0.040
-3.540E-06,0.080
-3.530E-06,0.020
-3.520E-06,0.040
-3.510E-06,0.060
-3.500E-06,0.040
-3.490E-06,0.080
-3.480E-06,0.060
-3.470E-06,0.020
-3.460E-06,0.040
-3.450E-06,0.040
-3.440E-06,0.080
-3.430E-06,0.040
-3.420E-06,0.080
-3.410E-06,0.080
-3.400E-06,0.020
-3.390E-06,0.020
-3.380E-06,0.060
-3.370E-06,0.040
-3.360E-06,0.040
-3.350E-06,0.000
-3.340E-06,0.040
-3.330E-06,0.060
-3.320E-06,0.060
-3.310E-06,0.080
-3.300E-06,0.060
-3.290E-06,0.000
-3.280E-06,0.040
-3.270E-06,0.060
-3.260E-06,0.060
-3.250E-06,0.040
-3.240E-06,0.040
-3.230E-06,0.080
-3.220E-06,0.040
-3.210E-06,0.040
-3.200E-06,0.080
-3.190E-06,0.020
-3.180E-06,0.020
-3.170E-06,0.060
-3.160E-06,0.000
-3.150E-06,0.040
-3.140E-06,0.060
-3.130E-06,0.020
-3.120E-06,0.040
-3.110E-06,0.060
-3.100E-06,0.060
-3.090E-06,0.060
-3.080E-06,0.060
-3.070E-06,0.020
-3.060E-06,0.040
-3.050E-06,0.020
-3.040E-06,0.040
-3.030E-06,0.040
-3.020E-06,0.040
-3.010E-06,0.040
-3.000E-06,0.040
-2.990E-06,0.080
-2.980E-06,0.040
-2.970E-06,0.060
-2.960E-06,0.060
-2.950E-06,0.020
-2.940E-06,0.040
-2.930E-06,0.040
-2.920E-06,0.080
-2.910E-06,0.040
-2.900E-06,0.060
-2.890E-06,0.060
-2.880E-06,-0.100
-2.870E-06,-0.500
-2.860E-06,-1.300
-2.850E-06,-2.320
-2.840E-06,-3.060
-2.830E-06,-3.300
-2.820E-06,-2.800
-2.810E-06,-1.720
-2.800E-06,-0.440
-2.790E-06,0.840
-2.780E-06,1.900
-2.770E-06,2.100
-2.760E-06,2.080
-2.750E-06,2.080
-2.740E-06,2.100
-2.730E-06,2.100
-2.720E-06,2.080
-2.710E-06,1.920
-2.700E-06,0.980
-2.690E-06,0.180
-2.680E-06,-0.400
-2.670E-06,-0.680
-2.660E-06,-0.720
-2.650E-06,-0.540
-2.640E-06,-0.380
-2.630E-06,-0.320
-2.620E-06,-0.320
-2.610E-06,-0.540
-2.600E-06,-0.920
-2.590E-06,-1.260
-2.580E-06,-1.580
-2.570E-06,-1.820
-2.560E-06,-1.920
-2.550E-06,-1.900
-2.540E-06,-1.620
-2.530E-06,-1.260
-2.520E-06,-0.680
-2.510E-06,-0.040
-2.500E-06,0.580
-2.490E-06,1.160
-2.480E-06,1.560
-2.470E-06,1.760
-2.460E-06,1.640
-2.450E-06,1.440
-2.440E-06,1.140
-2.430E-06,0.660
-2.420E-06,0.200
-2.410E-06,-0.240
-2.400E-06,-0.600
-2.390E-06,-0.840
-2.380E-06,-1.000
-2.370E-06,-0.960
-2.360E-06,-0.900
-2.350E-06,-0.800
-2.340E-06,-0.580
-2.330E-06,-0.360
-2.320E-06,-0.280
-2.310E-06,-0.100
-2.300E-06,0.140
-2.290E-06,0.280
-2.280E-06,0.460
-2.270E-06,0.680
-2.260E-06,0.880
-2.250E-06,0.980
-2.240E-06,0.980
-2.230E-06,0.980
-2.220E-06,0.860
-2.210E-06,0.700
-2.200E-06,0.540
-2.190E-06,0.360
-2.180E-06,0.220
-2.170E-06,0.060
-2.160E-06,-0.120
-2.150E-06,-0.240
-2.140E-06,-0.300
-2.130E-06,-0.420
-2.120E-06,-0.420
-2.110E-06,-0.480
-2.100E-06,-0.500
-2.090E-06,-0.560
-2.080E-06,-0.620
-2.070E-06,-0.560
-2.060E-06,-0.500
-2.050E-06,-0.380
-2.040E-06,-0.140
-2.030E-06,0.080
-2.020E-06,0.300
-2.010E-06,0.480
-2.000E-06,0.700
-1.990E-06,1.040
-1.980E-06,0.980
-1.970E-06,0.860
-1.960E-06,0.460
-1.950E-06,0.460
-1.940E-06,0.060
-1.930E-06,-0.100
-1.920E-06,-0.200
-1.910E-06,-0.320
-1.900E-06,-0.500
-1.890E-06,-0.740
-1.880E-06,-0.820
-1.870E-06,-0.820
-1.860E-06,-0.700
-1.850E-06,-0.460
-1.840E-06,-0.240
-1.830E-06,-0.160
-1.820E-06,-0.080
-1.810E-06,0.000
-1.800E-06,0.020
-1.790E-06,0.080
-1.780E-06,0.080
-1.770E-06,0.040
-1.760E-06,0.080
-1.750E-06,0.160
-1.740E-06,0.160
-1.730E-06,0.160
-1.720E-06,0.320
-1.710E-06,0.360
-1.700E-06,0.340
-1.690E-06,0.420
-1.680E-06,0.820
-1.670E-06,0.160
-1.660E-06,0.240
-1.650E-06,-0.160
-1.640E-06,-0.080
-1.630E-06,-0.680
-1.620E-06,-0.120
-1.610E-06,-0.180
-1.600E-06,0.120
-1.590E-06,-0.120
-1.580E-06,-0.040
-1.570E-06,-0.120
-1.560E-06,-0.260
-1.550E-06,-0.220
-1.540E-06,-0.020
-1.530E-06,0.160
-1.520E-06,-0.300
-1.510E-06,-0.260
-1.500E-06,-0.580
-1.490E-06,-0.260
-1.480E-06,-0.660
-1.470E-06,-0.020
-1.460E-06,-0.400
-1.450E-06,0.260
-1.440E-06,-0.080
-1.430E-06,0.020
-1.420E-06,-0.040
-1.410E-06,-0.040
-1.400E-06,0.000
-1.390E-06,-0.100
-1.380E-06,-0.060
-1.370E-06,0.080
-1.360E-06,-0.100
-1.350E-06,0.000
-1.340E-06,-0.180
-1.330E-06,-0.140
-1.320E-06,-0.160
-1.310E-06,-0.140
-1.300E-06,-0.120
-1.290E-06,-0.080
-1.280E-06,-0.060
-1.270E-06,-0.020
-1.260E-06,-0.040
-1.250E-06,-0.020
-1.240E-06,-0.040
-1.230E-06,-0.040
-1.220E-06,0.000
-1.210E-06,-0.020
-1.200E-06,0.000
-1.190E-06,-0.200
-1.180E-06,-0.120
-1.170E-06,-0.180
-1.160E-06,0.240
-1.150E-06,-0.140
-1.140E-06,0.340
-1.130E-06,-0.240
-1.120E-06,0.220
-1.110E-06,-0.080
-1.100E-06,-0.120
-1.090E-06,-0.280
-1.080E-06,-0.280
-1.070E-06,-0.260
-1.060E-06,-0.280
-1.050E-06,-0.420
-1.040E-06,-0.440
-1.030E-06,-0.540
-1.020E-06,-0.580
-1.010E-06,-0.640
-1.000E-06,-0.760
-9.900E-07,-0.340
-9.800E-07,-0.680
-9.700E-07,-0.480
-9.600E-07,-0.660
-9.500E-07,-0.680
-9.400E-07,-0.380
-9.300E-07,-0.520
-9.200E-07,-0.340
-9.100E-07,-0.260
-9.000E-07,-0.400
-8.900E-07,-0.180
-8.800E-07,-0.400
-8.700E-07,-0.360
-8.600E-07,-0.240
-8.500E-07,-0.160
-8.400E-07,-0.400
-8.300E-07,-0.180
-8.200E-07,-0.300
-8.100E-07,-0.520
-8.000E-07,-0.260
-7.900E-07,-0.140
-7.800E-07,-0.180
-7.700E-07,-0.100
-7.600E-07,0.020
-7.500E-07,0.160
-7.400E-07,-0.320
-7.300E-07,-0.620
-7.200E-07,-0.560
-7.100E-07,-0.660
-7.000E-07,-0.900
-6.900E-07,-0.900
-6.800E-07,-0.940
-6.700E-07,-1.020
-6.600E-07,-1.240
-6.500E-07,-1.260
-6.400E-07,-1.260
-6.300E-07,-1.140
-6.200E-07,-1.180
-6.100E-07,-0.620
-6.000E-07,-0.940
-5.900E-07,-0.680
-5.800E-07,-0.760
-5.700E-07,-0.500
-5.600E-07,-0.560
-5.500E-07,-0.520
-5.400E-07,0.180
-5.300E-07,0.520
-5.200E-07,1.460
-5.100E-07,1.740
-5.000E-07,1.480
-4.900E-07,1.480
-4.800E-07,0.460
-4.700E-07,-0.180
-4.600E-07,-1.060
-4.500E-07,-1.680
-4.400E-07,-2.400
-4.300E-07,-2.480
-4.200E-07,-2.700
-4.100E-07,-2.740
-4.000E-07,-3.360
-3.900E-07,-3.220
-3.800E-07,-3.340
-3.700E-07,-2.140
-3.600E-07,-1.880
-3.500E-07,-0.300
-3.400E-07,0.120
-3.300E-07,0.820
-3.200E-07,1.180
-3.100E-07,1.400
-3.000E-07,1.540
-2.900E-07,1.680
-2.800E-07,1.660
-2.700E-07,1.380
-2.600E-07,0.740
-2.500E-07,-0.280
-2.400E-07,-0.420
-2.300E-07,-1.040
-2.200E-07,-0.360
-2.100E-07,-0.520
-2.000E-07,0.020
-1.900E-07,-0.160
-1.800E-07,-0.380
-1.700E-07,-0.700
-1.600E-07,-0.620
-1.500E-07,-0.660
-1.400E-07,-0.120
-1.300E-07,0.060
-1.200E-07,-0.060
-1.100E-07,-0.260
-1.000E-07,-0.900
-9.000E-08,-1.660
-8.000E-08,-2.580
-7.000E-08,-2.500
-6.000E-08,-2.900
-5.000E-08,-1.900
-4.000E-08,-1.780
-3.000E-08,-1.440
-2.000E-08,-1.040
-1.000E-08,-1.180
0.000E+00,-0.860
1.000E-08,-1.520
2.000E-08,-1.400
3.000E-08,-2.040
4.000E-08,-2.280
5.000E-08,-2.440
6.000E-08,-2.620
7.000E-08,-2.720
8.000E-08,-2.540
9.000E-08,-2.040
1.000E-07,-1.420
1.100E-07,-0.920
1.200E-07,-0.380
1.300E-07,0.220
1.400E-07,0.420
1.500E-07,0.860
1.600E-07,0.980
1.700E-07,0.580
1.800E-07,0.720
1.900E-07,-0.840
2.000E-07,-0.760
2.100E-07,-1.800
2.200E-07,-2.260
2.300E-07,-2.980
2.400E-07,-3.080
2.500E-07,-3.280
2.600E-07,-3.240
2.700E-07,-2.880
2.800E-07,-2.860
2.900E-07,-2.540
3.000E-07,-2.420
3.100E-07,-2.140
3.200E-07,-2.220
3.300E-07,-1.780
3.400E-07,-1.700
3.500E-07,-1.400
3.600E-07,-1.440
3.700E-07,-1.140
3.800E-07,-0.840
3.900E-07,-0.660
4.000E-07,-0.420
4.100E-07,-0.240
4.200E-07,0.080
4.300E-07,0.280
4.400E-07,0.420
4.500E-07,0.460
4.600E-07,0.260
4.700E-07,0.020
4.800E-07,-0.260
4.900E-07,-0.580
5.000E-07,-1.000
5.100E-07,-1.280
5.200E-07,-1.560
5.300E-07,-1.680
5.400E-07,-1.680
5.500E-07,-1.360
5.600E-07,-1.060
5.700E-07,-0.600
5.800E-07,-0.040
5.900E-07,0.440
6.000E-07,0.800
6.100E-07,1.020
6.200E-07,1.240
6.300E-07,1.360
6.400E-07,1.320
6.500E-07,1.200
6.600E-07,0.860
6.700E-07,0.400
6.800E-07,-0.120
6.900E-07,-0.460
7.000E-07,-0.740
7.100E-07,-0.960
7.200E-07,-1.100
7.300E-07,-1.280
7.400E-07,-1.520
7.500E-07,-1.600
7.600E-07,-1.620
7.700E-07,-1.500
7.800E-07,-1.220
7.900E-07,-0.900
8.000E-07,-0.640
8.100E-07,-0.520
8.200E-07,-0.460
8.300E-07,-0.500
8.400E-07,-0.520
8.500E-07,-0.500
8.600E-07,-0.420
8.700E-07,-0.360
8.800E-07,-0.360
8.900E-07,-0.300
9.000E-07,-0.320
9.100E-07,-0.400
9.200E-07,-0.440
9.300E-07,-0.500
9.400E-07,-0.500
9.500E-07,-0.680
9.600E-07,-0.840
9.700E-07,-1.020
9.800E-07,-1.040
9.900E-07,-1.300
1.000E-06,-1.280
1.010E-06,-1.360
1.020E-06,-1.400
1.030E-06,-1.320
1.040E-06,-1.340
1.050E-06,-1.240
1.060E-06,-1.120
1.070E-06,-1.020
1.080E-06,-0.820
1.090E-06,-0.660
1.100E-06,-0.680
1.110E-06,-0.500
1.120E-06,-0.680
1.130E-06,-1.040
1.140E-06,-1.180
1.150E-06,-2.560
1.160E-06,-3.340
1.170E-06,-3.340
1.180E-06,-3.340
1.190E-06,-3.320
1.200E-06,-3.320
1.210E-06,-3.340
1.220E-06,-3.340
1.230E-06,-3.340
1.240E-06,-3.340
1.250E-06,-3.340
1.260E-06,-3.340
1.270E-06,-3.360
1.280E-06,-3.340
1.290E-06,-3.340
1.300E-06,-3.340
1.310E-06,-3.340
1.320E-06,-3.340
1.330E-06,-3.340
1.340E-06,-3.340
1.350E-06,-3.340
1.360E-06,-3.340
1.370E-06,-3.320
1.380E-06,-3.340
1.390E-06,-3.340
1.400E-06,-3.340
1.410E-06,-3.340
1.420E-06,-3.340
1.430E-06,-3.340
1.440E-06,-3.340
1.450E-06,-3.340
1.460E-06,-3.340
1.470E-06,-3.340
1.480E-06,-3.340
1.490E-06,-3.340
1.500E-06,-3.340
1.510E-06,-3.340
1.520E-06,-3.340
1.530E-06,-3.340
1.540E-06,-3.100
1.550E-06,-3.060
1.560E-06,-2.580
1.570E-06,-2.360
1.580E-06,-2.060
1.590E-06,-1.860
1.600E-06,-1.660
1.610E-06,-1.460
1.620E-06,-1.320
1.630E-06,-1.100
1.640E-06,-0.980
1.650E-06,-0.900
1.660E-06,-0.800
1.670E-06,-0.840
1.680E-06,-0.840
1.690E-06,-0.820
1.700E-06,-0.980
1.710E-06,-1.240
1.720E-06,-1.440
1.730E-06,-1.620
1.740E-06,-1.700
1.750E-06,-1.840
1.760E-06,-1.940
1.770E-06,-2.100
1.780E-06,-2.200
1.790E-06,-2.220
1.800E-06,-2.200
1.810E-06,-2.180
1.820E-06,-2.060
1.830E-06,-1.940
1.840E-06,-1.880
1.850E-06,-1.780
1.860E-06,-1.700
1.870E-06,-1.520
1.880E-06,-1.480
1.890E-06,-1.500
1.900E-06,-1.340
1.910E-06,-1.400
1.920E-06,-1.380
1.930E-06,-1.320
1.940E-06,-1.420
1.950E-06,-1.280
1.960E-06,-1.360
1.970E-06,-1.300
1.980E-06,-1.180
1.990E-06,-1.320
2.000E-06,-1.180
2.010E-06,-1.360
2.020E-06,-1.240
2.030E-06,-1.300
2.040E-06,-1.280
2.050E-06,-1.320
2.060E-06,-1.280
2.070E-06,-1.320
2.080E-06,-1.320
2.090E-06,-1.280
2.100E-06,-1.300
2.110E-06,-1.160
2.120E-06,-1.100
2.130E-06,-1.060
2.140E-06,-0.880
2.150E-06,-0.800
2.160E-06,-0.780
2.170E-06,-0.720
2.180E-06,-0.680
2.190E-06,-0.440
2.200E-06,-0.520
2.210E-06,-0.500
2.220E-06,-0.480
2.230E-06,-0.400
2.240E-06,-0.480
2.250E-06,-0.460
2.260E-06,-0.440
2.270E-06,-0.520
2.280E-06,-0.460
2.290E-06,-0.560
2.300E-06,-0.500
2.310E-06,-0.360
2.320E-06,-0.600
2.330E-06,-0.600
2.340E-06,-0.600
2.350E-06,-0.440
2.360E-06,-0.520
2.370E-06,-0.480
2.380E-06,-0.560
2.390E-06,-0.420
2.400E-06,-0.500
2.410E-06,-0.560
2.420E-06,-0.460
2.430E-06,-0.580
2.440E-06,-0.400
2.450E-06,-0.580
2.460E-06,-0.560
2.470E-06,-0.500
2.480E-06,-0.480
2.490E-06,-0.460
2.500E-06,-0.400
2.510E-06,-0.460
2.520E-06,-0.360
2.530E-06,-0.400
2.540E-06,-0.440
2.550E-06,-0.320
2.560E-06,-0.360
2.570E-06,-0.300
2.580E-06,-0.180
2.590E-06,-0.260
2.600E-06,-0.240
2.610E-06,-0.200
2.620E-06,0.040
2.630E-06,-0.020
2.640E-06,0.080
2.650E-06,-0.140
2.660E-06,0.160
2.670E-06,0.100
2.680E-06,0.020
2.690E-06,0.180
2.700E-06,0.060
2.710E-06,0.160
2.720E-06,0.080
2.730E-06,0.260
2.740E-06,0.120
2.750E-06,0.100
2.760E-06,0.060
2.770E-06,0.180
2.780E-06,-0.020
2.790E-06,0.080
2.800E-06,0.200
2.810E-06,-0.020
2.820E-06,0.140
2.830E-06,-0.060
2.840E-06,0.120
2.850E-06,0.060
2.860E-06,0.060
2.870E-06,0.140
2.880E-06,-0.080
2.890E-06,0.020
2.900E-06,0.040
2.910E-06,0.100
2.920E-06,0.140
2.930E-06,0.000
2.940E-06,0.260
2.950E-06,0.140
2.960E-06,0.240
2.970E-06,0.260
2.980E-06,0.260
2.990E-06,0.340
3.000E-06,0.340
3.010E-06,0.300
3.020E-06,0.180
3.030E-06,0.180
3.040E-06,0.300
3.050E-06,0.200
3.060E-06,0.320
3.070E-06,0.260
3.080E-06,0.240
3.090E-06,0.320
3.100E-06,0.120
3.110E-06,0.300
3.120E-06,0.220
3.130E-06,0.280
3.140E-06,0.200
3.150E-06,0.300
3.160E-06,0.260
3.170E-06,0.260
3.180E-06,0.260
3.190E-06,0.320
3.200E-06,0.300
3.210E-06,0.300
3.220E-06,0.320
3.230E-06,0.320
3.240E-06,0.320
3.250E-06,0.340
3.260E-06,0.340
3.270E-06,0.320
3.280E-06,0.360
3.290E-06,0.320
3.300E-06,0.320
