mediciones/8-28/-10/WaveData65676.csv

#timebase=2000000(ps)
,#voltbase=500000(mv/100)
#size=4000
-8.350E-06,0.060
-8.340E-06,0.000
-8.330E-06,0.040
-8.320E-06,0.020
-8.310E-06,0.060
-8.300E-06,0.020
-8.290E-06,0.020
-8.280E-06,0.060
-8.270E-06,0.020
-8.260E-06,0.040
-8.250E-06,0.000
-8.240E-06,0.020
-8.230E-06,0.060
-8.220E-06,0.020
-8.210E-06,0.040
-8.200E-06,0.060
-8.190E-06,0.060
-8.180E-06,0.060
-8.170E-06,0.020
-8.160E-06,0.040
-8.150E-06,0.060
-8.140E-06,0.040
-8.130E-06,0.060
-8.120E-06,0.060
-8.110E-06,0.040
-8.100E-06,0.040
-8.090E-06,0.040
-8.080E-06,0.020
-8.070E-06,0.000
-8.060E-06,0.040
-8.050E-06,0.040
-8.040E-06,0.060
-8.030E-06,0.040
-8.020E-06,0.000
-8.010E-06,0.040
-8.000E-06,0.020
-7.990E-06,0.040
-7.980E-06,0.040
-7.970E-06,0.020
-7.960E-06,0.040
-7.950E-06,0.060
-7.940E-06,0.060
-7.930E-06,0.040
-7.920E-06,0.040
-7.910E-06,0.060
-7.900E-06,0.020
-7.890E-06,0.020
-7.880E-06,0.060
-7.870E-06,0.000
-7.860E-06,0.040
-7.850E-06,0.020
-7.840E-06,0.020
-7.830E-06,0.040
-7.820E-06,0.020
-7.810E-06,0.040
-7.800E-06,0.040
-7.790E-06,0.040
-7.780E-06,0.060
-7.770E-06,0.060
-7.760E-06,0.040
-7.750E-06,0.020
-7.740E-06,0.060
-7.730E-06,0.020
-7.720E-06,0.040
-7.710E-06,0.040
-7.700E-06,0.060
-7.690E-06,0.040
-7.680E-06,0.060
-7.670E-06,0.020
-7.660E-06,0.020
-7.650E-06,0.040
-7.640E-06,0.060
-7.630E-06,0.020
-7.620E-06,0.040
-7.610E-06,0.020
-7.600E-06,0.040
-7.590E-06,0.040
-7.580E-06,0.040
-7.570E-06,0.020
-7.560E-06,0.060
-7.550E-06,0.020
-7.540E-06,0.060
-7.530E-06,0.060
-7.520E-06,0.060
-7.510E-06,0.020
-7.500E-06,0.040
-7.490E-06,0.040
-7.480E-06,0.060
-7.470E-06,0.040
-7.460E-06,0.080
-7.450E-06,0.060
-7.440E-06,0.040
-7.430E-06,0.000
-7.420E-06,0.060
-7.410E-06,0.000
-7.400E-06,0.040
-7.390E-06,0.020
-7.380E-06,0.040
-7.370E-06,0.040
-7.360E-06,0.040
-7.350E-06,0.060
-7.340E-06,0.060
-7.330E-06,0.020
-7.320E-06,0.060
-7.310E-06,0.080
-7.300E-06,0.020
-7.290E-06,0.020
-7.280E-06,0.040
-7.270E-06,0.040
-7.260E-06,0.020
-7.250E-06,0.060
-7.240E-06,0.020
-7.230E-06,0.020
-7.220E-06,0.040
-7.210E-06,0.020
-7.200E-06,0.060
-7.190E-06,0.020
-7.180E-06,0.040
-7.170E-06,0.040
-7.160E-06,0.020
-7.150E-06,0.000
-7.140E-06,0.020
-7.130E-06,0.060
-7.120E-06,0.020
-7.110E-06,0.040
-7.100E-06,0.060
-7.090E-06,0.040
-7.080E-06,0.060
-7.070E-06,0.000
-7.060E-06,0.040
-7.050E-06,0.040
-7.040E-06,0.040
-7.030E-06,0.020
-7.020E-06,0.040
-7.010E-06,0.080
-7.000E-06,0.020
-6.990E-06,0.040
-6.980E-06,0.000
-6.970E-06,0.060
-6.960E-06,0.040
-6.950E-06,0.060
-6.940E-06,0.060
-6.930E-06,0.060
-6.920E-06,0.060
-6.910E-06,0.040
-6.900E-06,0.040
-6.890E-06,0.000
-6.880E-06,0.060
-6.870E-06,0.040
-6.860E-06,0.020
-6.850E-06,0.060
-6.840E-06,0.040
-6.830E-06,0.040
-6.820E-06,0.080
-6.810E-06,0.060
-6.800E-06,0.020
-6.790E-06,0.040
-6.780E-06,0.060
-6.770E-06,0.040
-6.760E-06,0.040
-6.750E-06,0.060
-6.740E-06,0.060
-6.730E-06,0.060
-6.720E-06,0.020
-6.710E-06,0.020
-6.700E-06,0.060
-6.690E-06,0.060
-6.680E-06,0.020
-6.670E-06,0.040
-6.660E-06,0.040
-6.650E-06,0.020
-6.640E-06,0.060
-6.630E-06,0.040
-6.620E-06,0.060
-6.610E-06,0.060
-6.600E-06,0.020
-6.590E-06,0.020
-6.580E-06,0.080
-6.570E-06,0.080
-6.560E-06,0.060
-6.550E-06,0.020
-6.540E-06,0.040
-6.530E-06,0.060
-6.520E-06,0.020
-6.510E-06,0.060
-6.500E-06,0.020
-6.490E-06,0.020
-6.480E-06,0.060
-6.470E-06,0.060
-6.460E-06,0.040
-6.450E-06,0.060
-6.440E-06,0.040
-6.430E-06,0.020
-6.420E-06,0.040
-6.410E-06,0.080
-6.400E-06,0.040
-6.390E-06,0.060
-6.380E-06,0.020
-6.370E-06,0.020
-6.360E-06,0.000
-6.350E-06,0.020
-6.340E-06,0.020
-6.330E-06,0.040
-6.320E-06,0.020
-6.310E-06,0.040
-6.300E-06,0.020
-6.290E-06,0.040
-6.280E-06,0.060
-6.270E-06,0.060
-6.260E-06,0.020
-6.250E-06,0.040
-6.240E-06,0.040
-6.230E-06,0.020
-6.220E-06,0.040
-6.210E-06,0.020
-6.200E-06,0.040
-6.190E-06,0.060
-6.180E-06,0.020
-6.170E-06,0.020
-6.160E-06,0.040
-6.150E-06,0.020
-6.140E-06,0.020
-6.130E-06,0.040
-6.120E-06,0.040
-6.110E-06,0.040
-6.100E-06,0.020
-6.090E-06,0.040
-6.080E-06,0.060
-6.070E-06,0.080
-6.060E-06,0.060
-6.050E-06,0.060
-6.040E-06,0.020
-6.030E-06,0.040
-6.020E-06,0.040
-6.010E-06,0.060
-6.000E-06,0.020
-5.990E-06,0.060
-5.980E-06,0.020
-5.970E-06,0.040
-5.960E-06,0.080
-5.950E-06,0.040
-5.940E-06,0.060
-5.930E-06,0.020
-5.920E-06,0.020
-5.910E-06,0.040
-5.900E-06,0.040
-5.890E-06,0.020
-5.880E-06,0.040
-5.870E-06,0.040
-5.860E-06,0.040
-5.850E-06,0.020
-5.840E-06,0.060
-5.830E-06,0.020
-5.820E-06,0.060
-5.810E-06,0.060
-5.800E-06,0.060
-5.790E-06,0.060
-5.780E-06,0.060
-5.770E-06,0.020
-5.760E-06,0.060
-5.750E-06,0.020
-5.740E-06,0.060
-5.730E-06,0.020
-5.720E-06,0.040
-5.710E-06,0.080
-5.700E-06,0.060
-5.690E-06,0.020
-5.680E-06,0.040
-5.670E-06,0.040
-5.660E-06,0.020
-5.650E-06,0.040
-5.640E-06,0.040
-5.630E-06,0.040
-5.620E-06,0.020
-5.610E-06,0.040
-5.600E-06,0.000
-5.590E-06,0.020
-5.580E-06,0.040
-5.570E-06,0.020
-5.560E-06,0.020
-5.550E-06,0.060
-5.540E-06,0.020
-5.530E-06,0.020
-5.520E-06,0.060
-5.510E-06,0.040
-5.500E-06,0.060
-5.490E-06,0.060
-5.480E-06,0.040
-5.470E-06,0.000
-5.460E-06,0.040
-5.450E-06,0.060
-5.440E-06,0.020
-5.430E-06,0.020
-5.420E-06,0.040
-5.410E-06,0.040
-5.400E-06,0.080
-5.390E-06,0.040
-5.380E-06,0.040
-5.370E-06,0.040
-5.360E-06,0.060
-5.350E-06,-0.020
-5.340E-06,0.040
-5.330E-06,0.020
-5.320E-06,0.060
-5.310E-06,0.040
-5.300E-06,0.040
-5.290E-06,0.080
-5.280E-06,0.060
-5.270E-06,0.000
-5.260E-06,0.060
-5.250E-06,0.040
-5.240E-06,0.080
-5.230E-06,0.040
-5.220E-06,0.080
-5.210E-06,0.040
-5.200E-06,0.060
-5.190E-06,0.020
-5.180E-06,0.020
-5.170E-06,0.040
-5.160E-06,0.040
-5.150E-06,0.060
-5.140E-06,0.080
-5.130E-06,0.060
-5.120E-06,0.060
-5.110E-06,0.080
-5.100E-06,0.080
-5.090E-06,0.080
-5.080E-06,0.040
-5.070E-06,0.020
-5.060E-06,0.000
-5.050E-06,0.040
-5.040E-06,0.020
-5.030E-06,0.000
-5.020E-06,0.020
-5.010E-06,0.040
-5.000E-06,0.040
-4.990E-06,0.040
-4.980E-06,0.040
-4.970E-06,0.040
-4.960E-06,0.060
-4.950E-06,0.020
-4.940E-06,0.020
-4.930E-06,0.060
-4.920E-06,0.040
-4.910E-06,0.020
-4.900E-06,0.040
-4.890E-06,0.040
-4.880E-06,0.060
-4.870E-06,0.020
-4.860E-06,0.040
-4.850E-06,0.020
-4.840E-06,0.040
-4.830E-06,0.040
-4.820E-06,0.060
-4.810E-06,0.040
-4.800E-06,0.040
-4.790E-06,0.020
-4.780E-06,0.020
-4.770E-06,0.060
-4.760E-06,0.040
-4.750E-06,0.080
-4.740E-06,0.020
-4.730E-06,0.020
-4.720E-06,0.040
-4.710E-06,0.080
-4.700E-06,0.060
-4.690E-06,0.060
-4.680E-06,0.040
-4.670E-06,0.020
-4.660E-06,0.060
-4.650E-06,0.040
-4.640E-06,0.020
-4.630E-06,0.040
-4.620E-06,0.020
-4.610E-06,0.040
-4.600E-06,0.060
-4.590E-06,0.020
-4.580E-06,0.020
-4.570E-06,0.040
-4.560E-06,0.060
-4.550E-06,0.060
-4.540E-06,0.060
-4.530E-06,0.060
-4.520E-06,0.060
-4.510E-06,0.020
-4.500E-06,0.000
-4.490E-06,0.020
-4.480E-06,0.020
-4.470E-06,0.040
-4.460E-06,0.040
-4.450E-06,0.060
-4.440E-06,0.020
-4.430E-06,0.020
-4.420E-06,0.040
-4.410E-06,0.040
-4.400E-06,0.060
-4.390E-06,0.040
-4.380E-06,0.040
-4.370E-06,0.060
-4.360E-06,0.040
-4.350E-06,-0.020
-4.340E-06,0.020
-4.330E-06,0.040
-4.320E-06,0.060
-4.310E-06,0.020
-4.300E-06,0.060
-4.290E-06,0.080
-4.280E-06,0.020
-4.270E-06,0.040
-4.260E-06,0.060
-4.250E-06,0.060
-4.240E-06,0.040
-4.230E-06,0.040
-4.220E-06,0.080
-4.210E-06,0.020
-4.200E-06,0.060
-4.190E-06,0.000
-4.180E-06,0.040
-4.170E-06,0.040
-4.160E-06,0.020
-4.150E-06,0.040
-4.140E-06,0.060
-4.130E-06,0.040
-4.120E-06,0.060
-4.110E-06,0.020
-4.100E-06,0.020
-4.090E-06,0.060
-4.080E-06,0.000
-4.070E-06,0.020
-4.060E-06,0.040
-4.050E-06,0.080
-4.040E-06,0.040
-4.030E-06,0.020
-4.020E-06,0.040
-4.010E-06,0.060
-4.000E-06,0.040
-3.990E-06,0.020
-3.980E-06,0.020
-3.970E-06,0.040
-3.960E-06,0.060
-3.950E-06,0.060
-3.940E-06,0.040
-3.930E-06,0.060
-3.920E-06,0.080
-3.910E-06,0.060
-3.900E-06,0.020
-3.890E-06,0.040
-3.880E-06,0.020
-3.870E-06,0.060
-3.860E-06,0.040
-3.850E-06,0.020
-3.840E-06,0.020
-3.830E-06,0.020
-3.820E-06,0.060
-3.810E-06,0.080
-3.800E-06,0.080
-3.790E-06,0.060
-3.780E-06,0.060
-3.770E-06,0.020
-3.760E-06,0.060
-3.750E-06,0.020
-3.740E-06,0.060
-3.730E-06,0.040
-3.720E-06,0.020
-3.710E-06,0.000
-3.700E-06,0.060
-3.690E-06,0.040
-3.680E-06,0.040
-3.670E-06,0.040
-3.660E-06,0.060
-3.650E-06,0.000
-3.640E-06,0.020
-3.630E-06,0.060
-3.620E-06,0.040
-3.610E-06,0.060
-3.600E-06,0.040
-3.590E-06,0.040
-3.580E-06,0.060
-3.570E-06,0.020
-3.560E-06,0.020
-3.550E-06,0.040
-3.540E-06,0.060
-3.530E-06,-0.020
-3.520E-06,0.020
-3.510E-06,0.020
-3.500E-06,0.040
-3.490E-06,0.040
-3.480E-06,0.040
-3.470E-06,0.060
-3.460E-06,0.040
-3.450E-06,0.060
-3.440E-06,0.020
-3.430E-06,0.040
-3.420E-06,0.060
-3.410E-06,0.020
-3.400E-06,0.020
-3.390E-06,0.060
-3.380E-06,0.020
-3.370E-06,0.020
-3.360E-06,0.040
-3.350E-06,0.060
-3.340E-06,0.080
-3.330E-06,0.020
-3.320E-06,0.040
-3.310E-06,0.000
-3.300E-06,0.020
-3.290E-06,0.000
-3.280E-06,0.000
-3.270E-06,0.020
-3.260E-06,0.040
-3.250E-06,0.020
-3.240E-06,0.060
-3.230E-06,0.040
-3.220E-06,0.040
-3.210E-06,0.040
-3.200E-06,0.060
-3.190E-06,0.040
-3.180E-06,0.040
-3.170E-06,0.060
-3.160E-06,0.020
-3.150E-06,0.060
-3.140E-06,0.040
-3.130E-06,-0.020
-3.120E-06,0.020
-3.110E-06,0.060
-3.100E-06,0.060
-3.090E-06,-0.020
-3.080E-06,-0.440
-3.070E-06,-1.260
-3.060E-06,-2.360
-3.050E-06,-3.240
-3.040E-06,-3.340
-3.030E-06,-3.100
-3.020E-06,-2.600
-3.010E-06,-1.000
-3.000E-06,-0.340
-2.990E-06,1.840
-2.980E-06,2.100
-2.970E-06,2.080
-2.960E-06,2.100
-2.950E-06,2.080
-2.940E-06,2.100
-2.930E-06,2.080
-2.920E-06,2.080
-2.910E-06,2.020
-2.900E-06,0.660
-2.890E-06,0.160
-2.880E-06,-0.580
-2.870E-06,-0.940
-2.860E-06,-0.860
-2.850E-06,-0.580
-2.840E-06,-0.420
-2.830E-06,-0.400
-2.820E-06,-0.460
-2.810E-06,-0.880
-2.800E-06,-1.280
-2.790E-06,-1.720
-2.780E-06,-2.200
-2.770E-06,-2.380
-2.760E-06,-2.420
-2.750E-06,-2.200
-2.740E-06,-1.860
-2.730E-06,-1.200
-2.720E-06,-0.420
-2.710E-06,0.320
-2.700E-06,1.080
-2.690E-06,1.640
-2.680E-06,2.040
-2.670E-06,2.080
-2.660E-06,2.000
-2.650E-06,1.700
-2.640E-06,1.160
-2.630E-06,0.680
-2.620E-06,0.080
-2.610E-06,-0.440
-2.600E-06,-0.820
-2.590E-06,-1.100
-2.580E-06,-1.200
-2.570E-06,-1.180
-2.560E-06,-1.020
-2.550E-06,-0.880
-2.540E-06,-0.700
-2.530E-06,-0.500
-2.520E-06,-0.220
-2.510E-06,0.040
-2.500E-06,0.240
-2.490E-06,0.520
-2.480E-06,0.760
-2.470E-06,0.960
-2.460E-06,1.100
-2.450E-06,1.160
-2.440E-06,1.180
-2.430E-06,1.100
-2.420E-06,1.020
-2.410E-06,0.880
-2.400E-06,0.660
-2.390E-06,0.460
-2.380E-06,0.240
-2.370E-06,0.020
-2.360E-06,-0.120
-2.350E-06,-0.300
-2.340E-06,-0.440
-2.330E-06,-0.560
-2.320E-06,-0.640
-2.310E-06,-0.680
-2.300E-06,-0.780
-2.290E-06,-0.760
-2.280E-06,-0.720
-2.270E-06,-0.660
-2.260E-06,-0.460
-2.250E-06,-0.240
-2.240E-06,0.060
-2.230E-06,0.300
-2.220E-06,0.560
-2.210E-06,0.800
-2.200E-06,1.000
-2.190E-06,1.080
-2.180E-06,1.060
-2.170E-06,0.920
-2.160E-06,0.740
-2.150E-06,0.460
-2.140E-06,0.220
-2.130E-06,-0.100
-2.120E-06,-0.320
-2.110E-06,-0.560
-2.100E-06,-0.660
-2.090E-06,-0.680
-2.080E-06,-0.700
-2.070E-06,-0.580
-2.060E-06,-0.520
-2.050E-06,-0.340
-2.040E-06,-0.220
-2.030E-06,-0.060
-2.020E-06,0.060
-2.010E-06,0.120
-2.000E-06,0.160
-1.990E-06,0.160
-1.980E-06,0.180
-1.970E-06,0.180
-1.960E-06,0.160
-1.950E-06,0.160
-1.940E-06,0.160
-1.930E-06,0.160
-1.920E-06,0.180
-1.910E-06,0.180
-1.900E-06,0.140
-1.890E-06,0.140
-1.880E-06,0.140
-1.870E-06,0.040
-1.860E-06,0.060
-1.850E-06,-0.060
-1.840E-06,-0.060
-1.830E-06,-0.160
-1.820E-06,-0.120
-1.810E-06,-0.160
-1.800E-06,-0.080
-1.790E-06,-0.080
-1.780E-06,-0.040
-1.770E-06,0.000
-1.760E-06,0.060
-1.750E-06,0.100
-1.740E-06,0.080
-1.730E-06,0.080
-1.720E-06,0.100
-1.710E-06,0.060
-1.700E-06,0.040
-1.690E-06,0.060
-1.680E-06,-0.040
-1.670E-06,0.020
-1.660E-06,0.060
-1.650E-06,0.060
-1.640E-06,-0.040
-1.630E-06,0.020
-1.620E-06,-0.120
-1.610E-06,-0.080
-1.600E-06,-0.160
-1.590E-06,-0.160
-1.580E-06,-0.220
-1.570E-06,-0.260
-1.560E-06,-0.240
-1.550E-06,-0.280
-1.540E-06,-0.260
-1.530E-06,-0.180
-1.520E-06,-0.200
-1.510E-06,-0.220
-1.500E-06,-0.240
-1.490E-06,-0.220
-1.480E-06,-0.200
-1.470E-06,-0.220
-1.460E-06,-0.240
-1.450E-06,-0.220
-1.440E-06,-0.220
-1.430E-06,-0.200
-1.420E-06,-0.200
-1.410E-06,-0.200
-1.400E-06,-0.160
-1.390E-06,-0.120
-1.380E-06,-0.100
-1.370E-06,-0.020
-1.360E-06,-0.040
-1.350E-06,-0.040
-1.340E-06,-0.020
-1.330E-06,0.000
-1.320E-06,-0.120
-1.310E-06,-0.040
-1.300E-06,-0.120
-1.290E-06,-0.120
-1.280E-06,-0.280
-1.270E-06,-0.240
-1.260E-06,-0.360
-1.250E-06,-0.420
-1.240E-06,-0.440
-1.230E-06,-0.160
-1.220E-06,0.080
-1.210E-06,0.100
-1.200E-06,0.360
-1.190E-06,0.480
-1.180E-06,0.880
-1.170E-06,1.000
-1.160E-06,1.360
-1.150E-06,1.260
-1.140E-06,0.980
-1.130E-06,0.520
-1.120E-06,0.040
-1.110E-06,-0.380
-1.100E-06,-0.500
-1.090E-06,-0.660
-1.080E-06,-1.200
-1.070E-06,-1.140
-1.060E-06,-1.200
-1.050E-06,-1.060
-1.040E-06,-0.760
-1.030E-06,-0.480
-1.020E-06,-0.440
-1.010E-06,-0.600
-1.000E-06,-0.680
-9.900E-07,-0.800
-9.800E-07,-1.140
-9.700E-07,-0.940
-9.600E-07,-0.900
-9.500E-07,-0.840
-9.400E-07,-0.420
-9.300E-07,-0.300
-9.200E-07,0.220
-9.100E-07,0.200
-9.000E-07,0.440
-8.900E-07,0.460
-8.800E-07,0.520
-8.700E-07,0.160
-8.600E-07,0.220
-8.500E-07,0.340
-8.400E-07,0.020
-8.300E-07,0.040
-8.200E-07,-0.460
-8.100E-07,-0.320
-8.000E-07,-0.580
-7.900E-07,-0.640
-7.800E-07,-0.580
-7.700E-07,-0.340
-7.600E-07,-0.100
-7.500E-07,0.220
-7.400E-07,0.180
-7.300E-07,0.400
-7.200E-07,0.260
-7.100E-07,0.300
-7.000E-07,0.380
-6.900E-07,0.100
-6.800E-07,0.340
-6.700E-07,0.060
-6.600E-07,-0.080
-6.500E-07,0.020
-6.400E-07,-0.200
-6.300E-07,-0.220
-6.200E-07,-0.500
-6.100E-07,-0.460
-6.000E-07,-0.460
-5.900E-07,-0.340
-5.800E-07,-0.260
-5.700E-07,-0.280
-5.600E-07,-0.320
-5.500E-07,-0.420
-5.400E-07,-0.500
-5.300E-07,-0.600
-5.200E-07,-0.620
-5.100E-07,-0.660
-5.000E-07,-0.620
-4.900E-07,-0.600
-4.800E-07,-0.500
-4.700E-07,-0.460
-4.600E-07,-0.340
-4.500E-07,-0.340
-4.400E-07,-0.200
-4.300E-07,0.060
-4.200E-07,0.180
-4.100E-07,0.280
-4.000E-07,0.220
-3.900E-07,0.180
-3.800E-07,-0.100
-3.700E-07,-0.320
-3.600E-07,-0.500
-3.500E-07,-0.600
-3.400E-07,-0.680
-3.300E-07,-0.480
-3.200E-07,-0.560
-3.100E-07,-0.300
-3.000E-07,-0.360
-2.900E-07,-0.220
-2.800E-07,-0.200
-2.700E-07,-0.140
-2.600E-07,-0.080
-2.500E-07,-0.020
-2.400E-07,0.000
-2.300E-07,-0.040
-2.200E-07,-0.100
-2.100E-07,-0.320
-2.000E-07,-0.240
-1.900E-07,-0.400
-1.800E-07,-0.340
-1.700E-07,-0.700
-1.600E-07,-0.360
-1.500E-07,-0.480
-1.400E-07,-0.140
-1.300E-07,0.040
-1.200E-07,-0.440
-1.100E-07,0.080
-1.000E-07,-0.120
-9.000E-08,0.740
-8.000E-08,-0.420
-7.000E-08,-0.340
-6.000E-08,-1.360
-5.000E-08,-0.940
-4.000E-08,0.140
-3.000E-08,-0.660
-2.000E-08,-0.240
-1.000E-08,-0.920
0.000E+00,0.180
1.000E-08,-0.980
2.000E-08,0.360
3.000E-08,0.220
4.000E-08,0.640
5.000E-08,0.720
6.000E-08,0.220
7.000E-08,-0.200
8.000E-08,-0.680
9.000E-08,-1.240
1.000E-07,-0.380
1.100E-07,-0.020
1.200E-07,0.320
1.300E-07,0.360
1.400E-07,0.740
1.500E-07,-0.080
1.600E-07,-0.580
1.700E-07,-1.880
1.800E-07,-2.340
1.900E-07,-2.780
2.000E-07,-2.460
2.100E-07,-1.540
2.200E-07,-0.200
2.300E-07,0.020
2.400E-07,1.060
2.500E-07,0.220
2.600E-07,-0.360
2.700E-07,-1.180
2.800E-07,-1.300
2.900E-07,-1.120
3.000E-07,-0.640
3.100E-07,-0.340
3.200E-07,-0.160
3.300E-07,-0.340
3.400E-07,-0.380
3.500E-07,-0.760
3.600E-07,-0.340
3.700E-07,-0.340
3.800E-07,0.020
3.900E-07,0.040
4.000E-07,0.300
4.100E-07,0.000
4.200E-07,0.240
4.300E-07,0.080
4.400E-07,0.240
4.500E-07,-0.100
4.600E-07,-0.260
4.700E-07,-0.300
4.800E-07,-0.380
4.900E-07,-0.260
5.000E-07,-0.580
5.100E-07,-0.560
5.200E-07,-0.620
5.300E-07,-0.740
5.400E-07,-0.600
5.500E-07,-0.580
5.600E-07,-0.240
5.700E-07,-0.340
5.800E-07,-0.240
5.900E-07,-0.540
6.000E-07,-0.560
6.100E-07,-0.740
6.200E-07,-0.780
6.300E-07,-0.720
6.400E-07,-0.680
6.500E-07,-0.700
6.600E-07,-0.740
6.700E-07,-0.720
6.800E-07,-0.780
6.900E-07,-0.760
7.000E-07,-0.720
7.100E-07,-0.580
7.200E-07,-0.500
7.300E-07,-0.320
7.400E-07,-0.500
7.500E-07,-0.340
7.600E-07,-0.280
7.700E-07,0.000
7.800E-07,-0.060
7.900E-07,0.080
8.000E-07,0.080
8.100E-07,0.200
8.200E-07,0.380
8.300E-07,-0.100
8.400E-07,-0.200
8.500E-07,-0.500
8.600E-07,-1.240
8.700E-07,-1.400
8.800E-07,-1.780
8.900E-07,-1.540
9.000E-07,-1.520
9.100E-07,-1.180
9.200E-07,-1.300
9.300E-07,-0.920
9.400E-07,-1.200
9.500E-07,-1.120
9.600E-07,-1.160
9.700E-07,-1.000
9.800E-07,-0.860
9.900E-07,-0.620
1.000E-06,-0.520
1.010E-06,-0.400
1.020E-06,-0.240
1.030E-06,-0.200
1.040E-06,-0.180
1.050E-06,-0.260
1.060E-06,-0.500
1.070E-06,-0.140
1.080E-06,-0.600
1.090E-06,-0.320
1.100E-06,-0.540
1.110E-06,-0.240
1.120E-06,-0.680
1.130E-06,-0.520
1.140E-06,-0.780
1.150E-06,-0.700
1.160E-06,-0.600
1.170E-06,-0.540
1.180E-06,-0.420
1.190E-06,-0.260
1.200E-06,-0.380
1.210E-06,-0.180
1.220E-06,-0.260
1.230E-06,-0.220
1.240E-06,0.180
1.250E-06,0.020
1.260E-06,0.380
1.270E-06,0.800
1.280E-06,-0.780
1.290E-06,0.680
1.300E-06,0.720
1.310E-06,1.020
1.320E-06,-0.440
1.330E-06,-0.880
1.340E-06,-1.320
1.350E-06,-1.960
1.360E-06,-1.640
1.370E-06,-1.060
1.380E-06,-0.560
1.390E-06,-0.260
1.400E-06,-0.560
1.410E-06,-0.700
1.420E-06,-1.000
1.430E-06,-0.640
1.440E-06,-0.460
1.450E-06,-0.700
1.460E-06,-0.340
1.470E-06,-0.420
1.480E-06,-0.360
1.490E-06,0.640
1.500E-06,1.780
1.510E-06,1.760
1.520E-06,1.680
1.530E-06,0.020
1.540E-06,-1.080
1.550E-06,0.540
1.560E-06,-0.360
1.570E-06,0.920
1.580E-06,0.440
1.590E-06,-0.820
1.600E-06,-0.700
1.610E-06,-3.340
1.620E-06,-3.340
1.630E-06,-3.340
1.640E-06,-3.360
1.650E-06,-3.360
1.660E-06,-3.360
1.670E-06,-3.340
1.680E-06,-3.340
1.690E-06,-3.320
1.700E-06,-3.340
1.710E-06,-2.420
1.720E-06,-2.600
1.730E-06,-1.560
1.740E-06,-1.240
1.750E-06,-0.740
1.760E-06,-0.420
1.770E-06,-0.600
1.780E-06,-0.500
1.790E-06,-0.780
1.800E-06,-0.940
1.810E-06,-1.080
1.820E-06,-1.120
1.830E-06,-1.280
1.840E-06,-1.340
1.850E-06,-1.480
1.860E-06,-1.920
1.870E-06,-2.320
1.880E-06,-2.840
1.890E-06,-3.220
1.900E-06,-3.340
1.910E-06,-3.340
1.920E-06,-3.340
1.930E-06,-3.340
1.940E-06,-3.240
1.950E-06,-2.820
1.960E-06,-2.500
1.970E-06,-2.040
1.980E-06,-1.720
1.990E-06,-1.440
2.000E-06,-1.180
2.010E-06,-0.720
2.020E-06,-0.780
2.030E-06,-0.220
2.040E-06,-0.400
2.050E-06,-0.100
2.060E-06,-0.500
2.070E-06,-0.600
2.080E-06,-0.960
2.090E-06,-1.200
2.100E-06,-1.420
2.110E-06,-1.680
2.120E-06,-1.780
2.130E-06,-1.820
2.140E-06,-1.900
2.150E-06,-1.880
2.160E-06,-1.840
2.170E-06,-1.700
2.180E-06,-1.480
2.190E-06,-1.200
2.200E-06,-0.840
2.210E-06,-0.540
2.220E-06,-0.300
2.230E-06,-0.060
2.240E-06,0.180
2.250E-06,0.360
2.260E-06,0.480
2.270E-06,0.520
2.280E-06,0.600
2.290E-06,0.580
2.300E-06,0.540
2.310E-06,0.420
2.320E-06,0.240
2.330E-06,-0.020
2.340E-06,-0.340
2.350E-06,-0.640
2.360E-06,-1.020
2.370E-06,-1.360
2.380E-06,-1.640
2.390E-06,-1.860
2.400E-06,-2.020
2.410E-06,-2.100
2.420E-06,-2.020
2.430E-06,-1.960
2.440E-06,-1.820
2.450E-06,-1.620
2.460E-06,-1.360
2.470E-06,-1.140
2.480E-06,-0.980
2.490E-06,-0.840
2.500E-06,-0.700
2.510E-06,-0.620
2.520E-06,-0.600
2.530E-06,-0.560
2.540E-06,-0.600
2.550E-06,-0.620
2.560E-06,-0.580
2.570E-06,-0.540
2.580E-06,-0.700
2.590E-06,-0.740
2.600E-06,-0.820
2.610E-06,-0.800
2.620E-06,-0.920
2.630E-06,-0.980
2.640E-06,-1.080
2.650E-06,-1.060
2.660E-06,-1.200
2.670E-06,-1.180
2.680E-06,-1.360
2.690E-06,-1.240
2.700E-06,-1.340
2.710E-06,-1.320
2.720E-06,-1.340
2.730E-06,-1.280
2.740E-06,-1.180
2.750E-06,-1.060
2.760E-06,-0.880
2.770E-06,-0.740
2.780E-06,-0.680
2.790E-06,-0.500
2.800E-06,-0.420
2.810E-06,-0.280
2.820E-06,-0.260
2.830E-06,-0.320
2.840E-06,-0.340
2.850E-06,-0.680
2.860E-06,-0.600
2.870E-06,-0.840
2.880E-06,-0.820
2.890E-06,-0.860
2.900E-06,-0.900
2.910E-06,-0.820
2.920E-06,-0.760
2.930E-06,-0.620
2.940E-06,-0.600
2.950E-06,-0.480
2.960E-06,-0.200
2.970E-06,-0.200
2.980E-06,-0.060
2.990E-06,-0.280
3.000E-06,-0.300
3.010E-06,-0.020
3.020E-06,-0.260
3.030E-06,-0.260
3.040E-06,-0.420
3.050E-06,-0.540
3.060E-06,-0.600
3.070E-06,-0.700
3.080E-06,-0.240
3.090E-06,-0.280
3.100E-06,0.160
3.110E-06,-0.020
3.120E-06,0.040
3.130E-06,-0.140
3.140E-06,0.040
3.150E-06,0.180
3.160E-06,0.260
3.170E-06,0.320
3.180E-06,0.260
3.190E-06,0.240
3.200E-06,0.200
3.210E-06,0.160
3.220E-06,0.180
3.230E-06,0.160
3.240E-06,0.180
3.250E-06,0.180
3.260E-06,0.260
3.270E-06,0.300
3.280E-06,0.320
3.290E-06,0.340
