mediciones/8-28/-10/WaveData65686.csv

#timebase=2000000(ps)
,#voltbase=500000(mv/100)
#size=4000
-8.350E-06,0.060
-8.340E-06,0.040
-8.330E-06,0.040
-8.320E-06,0.060
-8.310E-06,0.060
-8.300E-06,0.060
-8.290E-06,0.040
-8.280E-06,0.020
-8.270E-06,0.000
-8.260E-06,0.020
-8.250E-06,0.060
-8.240E-06,0.040
-8.230E-06,0.060
-8.220E-06,0.040
-8.210E-06,0.000
-8.200E-06,0.060
-8.190E-06,0.040
-8.180E-06,0.040
-8.170E-06,0.020
-8.160E-06,0.020
-8.150E-06,0.060
-8.140E-06,0.000
-8.130E-06,0.060
-8.120E-06,0.060
-8.110E-06,0.060
-8.100E-06,0.040
-8.090E-06,0.020
-8.080E-06,0.060
-8.070E-06,0.000
-8.060E-06,0.040
-8.050E-06,0.040
-8.040E-06,0.040
-8.030E-06,0.020
-8.020E-06,0.080
-8.010E-06,0.060
-8.000E-06,0.060
-7.990E-06,0.040
-7.980E-06,0.060
-7.970E-06,0.040
-7.960E-06,0.060
-7.950E-06,0.080
-7.940E-06,0.080
-7.930E-06,0.060
-7.920E-06,0.080
-7.910E-06,0.000
-7.900E-06,0.040
-7.890E-06,0.060
-7.880E-06,0.060
-7.870E-06,0.060
-7.860E-06,0.040
-7.850E-06,0.060
-7.840E-06,0.060
-7.830E-06,0.060
-7.820E-06,0.020
-7.810E-06,0.040
-7.800E-06,0.080
-7.790E-06,0.060
-7.780E-06,0.000
-7.770E-06,0.040
-7.760E-06,0.000
-7.750E-06,0.040
-7.740E-06,0.080
-7.730E-06,0.040
-7.720E-06,0.020
-7.710E-06,0.040
-7.700E-06,0.060
-7.690E-06,0.040
-7.680E-06,0.080
-7.670E-06,0.060
-7.660E-06,0.000
-7.650E-06,0.040
-7.640E-06,0.000
-7.630E-06,0.000
-7.620E-06,0.040
-7.610E-06,0.040
-7.600E-06,0.020
-7.590E-06,0.080
-7.580E-06,0.040
-7.570E-06,0.020
-7.560E-06,0.040
-7.550E-06,0.060
-7.540E-06,0.060
-7.530E-06,0.020
-7.520E-06,0.040
-7.510E-06,0.080
-7.500E-06,0.060
-7.490E-06,0.060
-7.480E-06,0.020
-7.470E-06,0.020
-7.460E-06,0.040
-7.450E-06,0.060
-7.440E-06,0.020
-7.430E-06,0.040
-7.420E-06,0.040
-7.410E-06,0.020
-7.400E-06,0.000
-7.390E-06,0.060
-7.380E-06,0.020
-7.370E-06,0.040
-7.360E-06,0.020
-7.350E-06,0.020
-7.340E-06,0.060
-7.330E-06,0.060
-7.320E-06,0.060
-7.310E-06,0.040
-7.300E-06,0.020
-7.290E-06,0.040
-7.280E-06,0.060
-7.270E-06,0.040
-7.260E-06,0.020
-7.250E-06,0.060
-7.240E-06,0.080
-7.230E-06,0.040
-7.220E-06,0.040
-7.210E-06,0.060
-7.200E-06,0.040
-7.190E-06,0.000
-7.180E-06,0.040
-7.170E-06,0.060
-7.160E-06,0.020
-7.150E-06,0.040
-7.140E-06,0.040
-7.130E-06,0.040
-7.120E-06,0.060
-7.110E-06,0.040
-7.100E-06,0.040
-7.090E-06,0.040
-7.080E-06,0.060
-7.070E-06,0.020
-7.060E-06,0.060
-7.050E-06,0.080
-7.040E-06,0.040
-7.030E-06,0.060
-7.020E-06,0.080
-7.010E-06,0.040
-7.000E-06,0.040
-6.990E-06,0.060
-6.980E-06,0.060
-6.970E-06,0.080
-6.960E-06,0.060
-6.950E-06,0.060
-6.940E-06,0.000
-6.930E-06,0.040
-6.920E-06,0.020
-6.910E-06,0.040
-6.900E-06,0.040
-6.890E-06,0.060
-6.880E-06,0.060
-6.870E-06,0.080
-6.860E-06,0.040
-6.850E-06,0.060
-6.840E-06,0.060
-6.830E-06,0.080
-6.820E-06,0.040
-6.810E-06,0.020
-6.800E-06,0.040
-6.790E-06,0.020
-6.780E-06,0.040
-6.770E-06,0.020
-6.760E-06,0.020
-6.750E-06,0.060
-6.740E-06,0.040
-6.730E-06,0.040
-6.720E-06,0.040
-6.710E-06,0.020
-6.700E-06,0.020
-6.690E-06,0.020
-6.680E-06,0.020
-6.670E-06,0.040
-6.660E-06,0.000
-6.650E-06,0.060
-6.640E-06,0.040
-6.630E-06,0.060
-6.620E-06,0.080
-6.610E-06,0.040
-6.600E-06,0.060
-6.590E-06,0.040
-6.580E-06,0.060
-6.570E-06,0.040
-6.560E-06,0.000
-6.550E-06,0.020
-6.540E-06,0.040
-6.530E-06,0.060
-6.520E-06,0.060
-6.510E-06,0.020
-6.500E-06,0.040
-6.490E-06,0.080
-6.480E-06,0.040
-6.470E-06,0.060
-6.460E-06,0.040
-6.450E-06,0.040
-6.440E-06,0.060
-6.430E-06,0.020
-6.420E-06,0.060
-6.410E-06,0.040
-6.400E-06,0.060
-6.390E-06,0.000
-6.380E-06,-0.180
-6.370E-06,-0.720
-6.360E-06,-1.700
-6.350E-06,-2.760
-6.340E-06,-3.340
-6.330E-06,-3.340
-6.320E-06,-3.340
-6.310E-06,-0.860
-6.300E-06,-0.680
-6.290E-06,0.420
-6.280E-06,2.100
-6.270E-06,2.100
-6.260E-06,2.080
-6.250E-06,2.080
-6.240E-06,2.100
-6.230E-06,2.080
-6.220E-06,2.060
-6.210E-06,2.080
-6.200E-06,1.240
-6.190E-06,0.220
-6.180E-06,-0.300
-6.170E-06,-0.780
-6.160E-06,-0.880
-6.150E-06,-0.820
-6.140E-06,-0.320
-6.130E-06,-0.260
-6.120E-06,-0.420
-6.110E-06,-0.560
-6.100E-06,-0.940
-6.090E-06,-1.360
-6.080E-06,-1.840
-6.070E-06,-2.120
-6.060E-06,-2.340
-6.050E-06,-2.240
-6.040E-06,-1.920
-6.030E-06,-1.560
-6.020E-06,-0.820
-6.010E-06,-0.120
-6.000E-06,0.660
-5.990E-06,1.260
-5.980E-06,1.740
-5.970E-06,2.000
-5.960E-06,1.940
-5.950E-06,1.720
-5.940E-06,1.340
-5.930E-06,0.820
-5.920E-06,0.300
-5.910E-06,-0.220
-5.900E-06,-0.640
-5.890E-06,-0.940
-5.880E-06,-1.060
-5.870E-06,-1.060
-5.860E-06,-1.000
-5.850E-06,-0.860
-5.840E-06,-0.700
-5.830E-06,-0.480
-5.820E-06,-0.300
-5.810E-06,-0.040
-5.800E-06,0.200
-5.790E-06,0.420
-5.780E-06,0.660
-5.770E-06,0.840
-5.760E-06,1.020
-5.750E-06,1.120
-5.740E-06,1.140
-5.730E-06,1.080
-5.720E-06,0.980
-5.710E-06,0.860
-5.700E-06,0.720
-5.690E-06,0.500
-5.680E-06,0.360
-5.670E-06,0.120
-5.660E-06,-0.060
-5.650E-06,-0.200
-5.640E-06,-0.360
-5.630E-06,-0.420
-5.620E-06,-0.560
-5.610E-06,-0.620
-5.600E-06,-0.700
-5.590E-06,-0.700
-5.580E-06,-0.700
-5.570E-06,-0.680
-5.560E-06,-0.520
-5.550E-06,-0.320
-5.540E-06,-0.080
-5.530E-06,0.220
-5.520E-06,0.460
-5.510E-06,0.680
-5.500E-06,0.880
-5.490E-06,1.000
-5.480E-06,1.000
-5.470E-06,0.940
-5.460E-06,0.840
-5.450E-06,0.560
-5.440E-06,0.340
-5.430E-06,0.100
-5.420E-06,-0.180
-5.410E-06,-0.420
-5.400E-06,-0.520
-5.390E-06,-0.620
-5.380E-06,-0.660
-5.370E-06,-0.600
-5.360E-06,-0.520
-5.350E-06,-0.420
-5.340E-06,-0.260
-5.330E-06,-0.160
-5.320E-06,-0.040
-5.310E-06,0.020
-5.300E-06,0.100
-5.290E-06,0.140
-5.280E-06,0.140
-5.270E-06,0.140
-5.260E-06,0.180
-5.250E-06,0.120
-5.240E-06,0.220
-5.230E-06,0.260
-5.220E-06,0.260
-5.210E-06,0.260
-5.200E-06,0.260
-5.190E-06,0.280
-5.180E-06,0.260
-5.170E-06,0.180
-5.160E-06,0.160
-5.150E-06,0.060
-5.140E-06,0.000
-5.130E-06,0.000
-5.120E-06,-0.080
-5.110E-06,-0.080
-5.100E-06,-0.060
-5.090E-06,-0.060
-5.080E-06,-0.020
-5.070E-06,0.000
-5.060E-06,0.040
-5.050E-06,0.040
-5.040E-06,0.080
-5.030E-06,0.100
-5.020E-06,0.080
-5.010E-06,0.060
-5.000E-06,0.100
-4.990E-06,0.100
-4.980E-06,0.100
-4.970E-06,0.080
-4.960E-06,0.100
-4.950E-06,0.060
-4.940E-06,0.080
-4.930E-06,0.080
-4.920E-06,0.060
-4.910E-06,0.020
-4.900E-06,-0.020
-4.890E-06,-0.060
-4.880E-06,-0.080
-4.870E-06,-0.120
-4.860E-06,-0.120
-4.850E-06,-0.120
-4.840E-06,-0.100
-4.830E-06,-0.080
-4.820E-06,-0.080
-4.810E-06,-0.060
-4.800E-06,-0.020
-4.790E-06,-0.020
-4.780E-06,-0.040
-4.770E-06,-0.040
-4.760E-06,-0.080
-4.750E-06,-0.060
-4.740E-06,-0.060
-4.730E-06,-0.060
-4.720E-06,-0.040
-4.710E-06,-0.060
-4.700E-06,0.040
-4.690E-06,0.100
-4.680E-06,0.120
-4.670E-06,0.120
-4.660E-06,0.180
-4.650E-06,0.220
-4.640E-06,0.260
-4.630E-06,0.240
-4.620E-06,0.260
-4.610E-06,0.220
-4.600E-06,0.180
-4.590E-06,0.180
-4.580E-06,0.080
-4.570E-06,0.040
-4.560E-06,0.000
-4.550E-06,-0.060
-4.540E-06,-0.100
-4.530E-06,-0.120
-4.520E-06,-0.080
-4.510E-06,0.020
-4.500E-06,0.340
-4.490E-06,0.780
-4.480E-06,1.240
-4.470E-06,1.540
-4.460E-06,1.620
-4.450E-06,1.320
-4.440E-06,0.860
-4.430E-06,0.300
-4.420E-06,-0.260
-4.410E-06,-0.740
-4.400E-06,-1.100
-4.390E-06,-1.340
-4.380E-06,-1.420
-4.370E-06,-1.480
-4.360E-06,-1.380
-4.350E-06,-1.180
-4.340E-06,-0.940
-4.330E-06,-0.640
-4.320E-06,-0.400
-4.310E-06,-0.220
-4.300E-06,-0.140
-4.290E-06,-0.080
-4.280E-06,-0.020
-4.270E-06,0.020
-4.260E-06,0.140
-4.250E-06,0.220
-4.240E-06,0.340
-4.230E-06,0.480
-4.220E-06,0.620
-4.210E-06,0.700
-4.200E-06,0.800
-4.190E-06,0.860
-4.180E-06,0.820
-4.170E-06,0.780
-4.160E-06,0.600
-4.150E-06,0.420
-4.140E-06,0.200
-4.130E-06,-0.080
-4.120E-06,-0.320
-4.110E-06,-0.540
-4.100E-06,-0.640
-4.090E-06,-0.740
-4.080E-06,-0.720
-4.070E-06,-0.540
-4.060E-06,-0.360
-4.050E-06,-0.120
-4.040E-06,0.160
-4.030E-06,0.360
-4.020E-06,0.600
-4.010E-06,0.720
-4.000E-06,0.760
-3.990E-06,0.780
-3.980E-06,0.660
-3.970E-06,0.560
-3.960E-06,0.360
-3.950E-06,0.200
-3.940E-06,0.020
-3.930E-06,-0.180
-3.920E-06,-0.360
-3.910E-06,-0.460
-3.900E-06,-0.520
-3.890E-06,-0.520
-3.880E-06,-0.480
-3.870E-06,-0.400
-3.860E-06,-0.360
-3.850E-06,-0.280
-3.840E-06,-0.200
-3.830E-06,-0.180
-3.820E-06,-0.180
-3.810E-06,-0.140
-3.800E-06,-0.140
-3.790E-06,-0.100
-3.780E-06,-0.080
-3.770E-06,0.060
-3.760E-06,0.140
-3.750E-06,0.200
-3.740E-06,0.340
-3.730E-06,0.400
-3.720E-06,0.440
-3.710E-06,0.460
-3.700E-06,0.440
-3.690E-06,0.360
-3.680E-06,0.260
-3.670E-06,0.080
-3.660E-06,-0.040
-3.650E-06,-0.200
-3.640E-06,-0.300
-3.630E-06,-0.400
-3.620E-06,-0.440
-3.610E-06,-0.480
-3.600E-06,-0.400
-3.590E-06,-0.340
-3.580E-06,-0.240
-3.570E-06,-0.120
-3.560E-06,0.000
-3.550E-06,0.140
-3.540E-06,0.220
-3.530E-06,0.280
-3.520E-06,0.300
-3.510E-06,0.300
-3.500E-06,0.300
-3.490E-06,0.240
-3.480E-06,0.140
-3.470E-06,0.100
-3.460E-06,0.020
-3.450E-06,0.020
-3.440E-06,-0.040
-3.430E-06,-0.020
-3.420E-06,0.000
-3.410E-06,0.040
-3.400E-06,0.080
-3.390E-06,0.080
-3.380E-06,0.100
-3.370E-06,0.100
-3.360E-06,0.100
-3.350E-06,0.040
-3.340E-06,0.020
-3.330E-06,0.000
-3.320E-06,-0.020
-3.310E-06,-0.020
-3.300E-06,-0.040
-3.290E-06,-0.040
-3.280E-06,-0.020
-3.270E-06,0.000
-3.260E-06,0.000
-3.250E-06,0.060
-3.240E-06,0.080
-3.230E-06,0.060
-3.220E-06,0.040
-3.210E-06,0.060
-3.200E-06,0.000
-3.190E-06,0.000
-3.180E-06,-0.040
-3.170E-06,-0.080
-3.160E-06,-0.100
-3.150E-06,-0.120
-3.140E-06,-0.120
-3.130E-06,-0.080
-3.120E-06,-0.080
-3.110E-06,-0.080
-3.100E-06,-0.020
-3.090E-06,-0.020
-3.080E-06,0.040
-3.070E-06,0.060
-3.060E-06,0.100
-3.050E-06,0.100
-3.040E-06,0.080
-3.030E-06,0.100
-3.020E-06,0.120
-3.010E-06,0.080
-3.000E-06,0.060
-2.990E-06,0.080
-2.980E-06,0.040
-2.970E-06,0.080
-2.960E-06,0.100
-2.950E-06,0.100
-2.940E-06,0.120
-2.930E-06,0.120
-2.920E-06,0.140
-2.910E-06,0.100
-2.900E-06,0.140
-2.890E-06,0.100
-2.880E-06,0.100
-2.870E-06,0.080
-2.860E-06,0.060
-2.850E-06,-0.020
-2.840E-06,-0.020
-2.830E-06,-0.060
-2.820E-06,-0.040
-2.810E-06,-0.080
-2.800E-06,-0.100
-2.790E-06,-0.100
-2.780E-06,-0.080
-2.770E-06,-0.080
-2.760E-06,-0.100
-2.750E-06,-0.080
-2.740E-06,-0.040
-2.730E-06,-0.020
-2.720E-06,-0.020
-2.710E-06,0.000
-2.700E-06,0.000
-2.690E-06,0.000
-2.680E-06,-0.020
-2.670E-06,0.000
-2.660E-06,0.000
-2.650E-06,-0.020
-2.640E-06,-0.020
-2.630E-06,0.000
-2.620E-06,0.000
-2.610E-06,0.000
-2.600E-06,-0.040
-2.590E-06,-0.040
-2.580E-06,-0.060
-2.570E-06,0.000
-2.560E-06,-0.040
-2.550E-06,-0.080
-2.540E-06,-0.080
-2.530E-06,-0.080
-2.520E-06,-0.080
-2.510E-06,-0.100
-2.500E-06,-0.120
-2.490E-06,-0.100
-2.480E-06,-0.100
-2.470E-06,-0.080
-2.460E-06,-0.060
-2.450E-06,-0.020
-2.440E-06,0.000
-2.430E-06,-0.020
-2.420E-06,0.020
-2.410E-06,0.000
-2.400E-06,0.000
-2.390E-06,0.000
-2.380E-06,-0.120
-2.370E-06,0.080
-2.360E-06,-0.180
-2.350E-06,0.160
-2.340E-06,-0.320
-2.330E-06,0.120
-2.320E-06,-0.280
-2.310E-06,0.180
-2.300E-06,-0.260
-2.290E-06,0.000
-2.280E-06,-0.040
-2.270E-06,-0.020
-2.260E-06,0.060
-2.250E-06,0.000
-2.240E-06,0.020
-2.230E-06,-0.080
-2.220E-06,-0.100
-2.210E-06,-0.040
-2.200E-06,-0.120
-2.190E-06,-0.060
-2.180E-06,-0.080
-2.170E-06,-0.060
-2.160E-06,-0.060
-2.150E-06,-0.080
-2.140E-06,-0.100
-2.130E-06,-0.120
-2.120E-06,-0.060
-2.110E-06,-0.040
-2.100E-06,-0.060
-2.090E-06,-0.080
-2.080E-06,-0.040
-2.070E-06,-0.040
-2.060E-06,-0.020
-2.050E-06,-0.040
-2.040E-06,-0.040
-2.030E-06,-0.040
-2.020E-06,-0.020
-2.010E-06,-0.040
-2.000E-06,-0.020
-1.990E-06,-0.040
-1.980E-06,-0.040
-1.970E-06,-0.040
-1.960E-06,-0.060
-1.950E-06,-0.100
-1.940E-06,-0.080
-1.930E-06,-0.080
-1.920E-06,-0.080
-1.910E-06,-0.060
-1.900E-06,-0.100
-1.890E-06,-0.120
-1.880E-06,-0.080
-1.870E-06,-0.100
-1.860E-06,-0.140
-1.850E-06,-0.120
-1.840E-06,-0.120
-1.830E-06,-0.100
-1.820E-06,-0.140
-1.810E-06,-0.140
-1.800E-06,-0.120
-1.790E-06,-0.120
-1.780E-06,-0.100
-1.770E-06,-0.120
-1.760E-06,-0.080
-1.750E-06,-0.060
-1.740E-06,-0.180
-1.730E-06,-0.060
-1.720E-06,-0.240
-1.710E-06,0.160
-1.700E-06,-0.260
-1.690E-06,0.180
-1.680E-06,-0.260
-1.670E-06,0.160
-1.660E-06,-0.180
-1.650E-06,-0.020
-1.640E-06,-0.120
-1.630E-06,-0.080
-1.620E-06,-0.040
-1.610E-06,-0.100
-1.600E-06,-0.100
-1.590E-06,-0.140
-1.580E-06,-0.140
-1.570E-06,-0.120
-1.560E-06,-0.140
-1.550E-06,-0.100
-1.540E-06,-0.100
-1.530E-06,-0.100
-1.520E-06,-0.100
-1.510E-06,-0.060
-1.500E-06,-0.060
-1.490E-06,-0.080
-1.480E-06,-0.060
-1.470E-06,-0.080
-1.460E-06,-0.080
-1.450E-06,-0.100
-1.440E-06,-0.140
-1.430E-06,-0.160
-1.420E-06,-0.160
-1.410E-06,-0.120
-1.400E-06,-0.120
-1.390E-06,-0.120
-1.380E-06,-0.120
-1.370E-06,-0.180
-1.360E-06,-0.160
-1.350E-06,-0.220
-1.340E-06,-0.260
-1.330E-06,-0.160
-1.320E-06,-0.260
-1.310E-06,-0.260
-1.300E-06,-0.300
-1.290E-06,-0.220
-1.280E-06,-0.340
-1.270E-06,0.020
-1.260E-06,-0.080
-1.250E-06,0.160
-1.240E-06,0.320
-1.230E-06,0.280
-1.220E-06,0.280
-1.210E-06,0.180
-1.200E-06,-0.040
-1.190E-06,-0.180
-1.180E-06,-0.420
-1.170E-06,-0.500
-1.160E-06,-0.700
-1.150E-06,-0.700
-1.140E-06,-0.860
-1.130E-06,-0.640
-1.120E-06,-0.760
-1.110E-06,-0.700
-1.100E-06,-0.580
-1.090E-06,-0.680
-1.080E-06,-0.540
-1.070E-06,-0.540
-1.060E-06,-0.500
-1.050E-06,-0.520
-1.040E-06,-0.540
-1.030E-06,-0.440
-1.020E-06,-0.660
-1.010E-06,-0.160
-1.000E-06,-0.420
-9.900E-07,-0.140
-9.800E-07,-0.360
-9.700E-07,-0.140
-9.600E-07,-0.220
-9.500E-07,-0.160
-9.400E-07,-0.240
-9.300E-07,-0.200
-9.200E-07,-0.300
-9.100E-07,-0.300
-9.000E-07,-0.340
-8.900E-07,-0.420
-8.800E-07,-0.400
-8.700E-07,-0.380
-8.600E-07,-0.520
-8.500E-07,-0.440
-8.400E-07,-0.420
-8.300E-07,-0.400
-8.200E-07,-0.380
-8.100E-07,-0.480
-8.000E-07,-0.460
-7.900E-07,-0.560
-7.800E-07,-0.320
-7.700E-07,-0.160
-7.600E-07,-0.100
-7.500E-07,-0.120
-7.400E-07,-0.160
-7.300E-07,-0.260
-7.200E-07,-0.180
-7.100E-07,-0.360
-7.000E-07,-0.180
-6.900E-07,-0.520
-6.800E-07,-0.320
-6.700E-07,-0.460
-6.600E-07,-0.480
-6.500E-07,-0.620
-6.400E-07,-0.660
-6.300E-07,-0.680
-6.200E-07,-0.760
-6.100E-07,-0.580
-6.000E-07,-0.400
-5.900E-07,-0.280
-5.800E-07,-0.320
-5.700E-07,-0.340
-5.600E-07,-0.580
-5.500E-07,-0.580
-5.400E-07,-0.220
-5.300E-07,-0.400
-5.200E-07,-0.040
-5.100E-07,-0.280
-5.000E-07,-0.260
-4.900E-07,-0.120
-4.800E-07,-0.360
-4.700E-07,-0.220
-4.600E-07,-0.580
-4.500E-07,-0.700
-4.400E-07,-0.780
-4.300E-07,-0.920
-4.200E-07,-0.820
-4.100E-07,-0.760
-4.000E-07,-0.700
-3.900E-07,-0.500
-3.800E-07,-0.460
-3.700E-07,-0.200
-3.600E-07,-0.100
-3.500E-07,0.020
-3.400E-07,-0.040
-3.300E-07,0.180
-3.200E-07,0.100
-3.100E-07,0.100
-3.000E-07,0.120
-2.900E-07,0.020
-2.800E-07,0.000
-2.700E-07,-0.080
-2.600E-07,-0.040
-2.500E-07,0.000
-2.400E-07,-0.120
-2.300E-07,-0.180
-2.200E-07,-0.260
-2.100E-07,-0.280
-2.000E-07,-0.340
-1.900E-07,-0.520
-1.800E-07,-0.460
-1.700E-07,-0.660
-1.600E-07,-0.460
-1.500E-07,-0.720
-1.400E-07,-0.460
-1.300E-07,-0.860
-1.200E-07,-0.400
-1.100E-07,-0.480
-1.000E-07,-0.520
-9.000E-08,-0.500
-8.000E-08,-0.860
-7.000E-08,-0.760
-6.000E-08,-0.940
-5.000E-08,-1.160
-4.000E-08,-1.040
-3.000E-08,-1.600
-2.000E-08,-0.440
-1.000E-08,-0.560
0.000E+00,0.180
1.000E-08,-0.260
2.000E-08,1.140
3.000E-08,1.600
4.000E-08,1.220
5.000E-08,-2.200
6.000E-08,-3.340
7.000E-08,-3.340
8.000E-08,-3.140
9.000E-08,-1.760
1.000E-07,-0.580
1.100E-07,-0.460
1.200E-07,-0.700
1.300E-07,-1.680
1.400E-07,-1.840
1.500E-07,-2.080
1.600E-07,-1.820
1.700E-07,-1.580
1.800E-07,-0.680
1.900E-07,-0.760
2.000E-07,-0.720
2.100E-07,-1.060
2.200E-07,-1.280
2.300E-07,-1.180
2.400E-07,-1.060
2.500E-07,-0.900
2.600E-07,-0.480
2.700E-07,-0.320
2.800E-07,-0.300
2.900E-07,-0.660
3.000E-07,-0.940
3.100E-07,-1.280
3.200E-07,-1.440
3.300E-07,-1.380
3.400E-07,-0.820
3.500E-07,-0.340
3.600E-07,0.840
3.700E-07,1.380
3.800E-07,2.060
3.900E-07,1.680
4.000E-07,-0.240
4.100E-07,-0.440
4.200E-07,-2.920
4.300E-07,-3.360
4.400E-07,-3.360
4.500E-07,-3.340
4.600E-07,-3.340
4.700E-07,-3.320
4.800E-07,-3.320
4.900E-07,-3.320
5.000E-07,-2.820
5.100E-07,-3.060
5.200E-07,-2.980
5.300E-07,-2.840
5.400E-07,-2.480
5.500E-07,-1.960
5.600E-07,-1.360
5.700E-07,-0.720
5.800E-07,-0.520
5.900E-07,-0.480
6.000E-07,-0.160
6.100E-07,-0.160
6.200E-07,0.200
6.300E-07,-0.180
6.400E-07,0.160
6.500E-07,-0.560
6.600E-07,-1.040
6.700E-07,-1.540
6.800E-07,-1.780
6.900E-07,-1.840
7.000E-07,-1.780
7.100E-07,-2.600
7.200E-07,-3.160
7.300E-07,-3.340
7.400E-07,-3.320
7.500E-07,-3.320
7.600E-07,-3.340
7.700E-07,-3.340
7.800E-07,-3.340
7.900E-07,-3.340
8.000E-07,-3.340
8.100E-07,-3.300
8.200E-07,-2.780
8.300E-07,-2.440
8.400E-07,-2.440
8.500E-07,-2.580
8.600E-07,-2.720
8.700E-07,-2.720
8.800E-07,-2.780
8.900E-07,-2.480
9.000E-07,-2.460
9.100E-07,-2.540
9.200E-07,-2.720
9.300E-07,-3.040
9.400E-07,-3.140
9.500E-07,-3.180
9.600E-07,-3.020
9.700E-07,-2.720
9.800E-07,-2.440
9.900E-07,-2.140
1.000E-06,-1.900
1.010E-06,-1.680
1.020E-06,-1.440
1.030E-06,-1.240
1.040E-06,-0.840
1.050E-06,-0.480
1.060E-06,-0.100
1.070E-06,0.180
1.080E-06,0.440
1.090E-06,0.600
1.100E-06,0.700
1.110E-06,0.800
1.120E-06,0.840
1.130E-06,0.860
1.140E-06,0.800
1.150E-06,0.620
1.160E-06,0.240
1.170E-06,-0.240
1.180E-06,-0.740
1.190E-06,-1.280
1.200E-06,-1.660
1.210E-06,-1.860
1.220E-06,-1.960
1.230E-06,-1.880
1.240E-06,-1.800
1.250E-06,-1.680
1.260E-06,-1.620
1.270E-06,-1.540
1.280E-06,-1.420
1.290E-06,-1.300
1.300E-06,-1.100
1.310E-06,-0.900
1.320E-06,-0.740
1.330E-06,-0.620
1.340E-06,-0.560
1.350E-06,-0.520
1.360E-06,-0.540
1.370E-06,-0.540
1.380E-06,-0.600
1.390E-06,-0.600
1.400E-06,-0.580
1.410E-06,-0.580
1.420E-06,-0.640
1.430E-06,-0.680
1.440E-06,-0.760
1.450E-06,-0.780
1.460E-06,-0.760
1.470E-06,-0.840
1.480E-06,-0.920
1.490E-06,-0.980
1.500E-06,-1.000
1.510E-06,-1.060
1.520E-06,-1.060
1.530E-06,-1.060
1.540E-06,-1.040
1.550E-06,-1.000
1.560E-06,-0.940
1.570E-06,-0.880
1.580E-06,-0.820
1.590E-06,-0.820
1.600E-06,-0.740
1.610E-06,-0.720
1.620E-06,-0.820
1.630E-06,-0.800
1.640E-06,-0.900
1.650E-06,-1.060
1.660E-06,-1.060
1.670E-06,-1.200
1.680E-06,-1.240
1.690E-06,-1.080
1.700E-06,-1.000
1.710E-06,-0.920
1.720E-06,-0.840
1.730E-06,-0.800
1.740E-06,-0.680
1.750E-06,-0.680
1.760E-06,-0.680
1.770E-06,-0.680
1.780E-06,-0.760
1.790E-06,-0.800
1.800E-06,-0.900
1.810E-06,-0.940
1.820E-06,-0.880
1.830E-06,-0.980
1.840E-06,-0.960
1.850E-06,-0.980
1.860E-06,-0.860
1.870E-06,-0.800
1.880E-06,-0.620
1.890E-06,-0.640
1.900E-06,-0.420
1.910E-06,-0.420
1.920E-06,-0.340
1.930E-06,-0.220
1.940E-06,-0.220
1.950E-06,-0.180
1.960E-06,-0.340
1.970E-06,-0.380
1.980E-06,-0.500
1.990E-06,-0.580
2.000E-06,-0.600
2.010E-06,-0.560
2.020E-06,-0.580
2.030E-06,-0.560
2.040E-06,-0.500
2.050E-06,-0.440
2.060E-06,-0.340
2.070E-06,-0.260
2.080E-06,-0.200
2.090E-06,-0.020
2.100E-06,-0.160
2.110E-06,-0.080
2.120E-06,-0.180
2.130E-06,0.040
2.140E-06,0.080
2.150E-06,0.040
2.160E-06,0.020
2.170E-06,-0.120
2.180E-06,-0.200
2.190E-06,-0.300
2.200E-06,-0.140
2.210E-06,-0.080
2.220E-06,0.120
2.230E-06,0.000
2.240E-06,-0.160
2.250E-06,-0.320
2.260E-06,-0.260
2.270E-06,-0.220
2.280E-06,-0.920
2.290E-06,-0.900
2.300E-06,-1.000
2.310E-06,-1.120
2.320E-06,-1.060
2.330E-06,-0.820
2.340E-06,-0.600
2.350E-06,-0.280
2.360E-06,-0.060
2.370E-06,-0.120
2.380E-06,0.060
2.390E-06,0.180
2.400E-06,0.320
2.410E-06,0.360
2.420E-06,0.580
2.430E-06,0.680
2.440E-06,0.780
2.450E-06,0.580
2.460E-06,0.500
2.470E-06,0.460
2.480E-06,0.380
2.490E-06,0.440
2.500E-06,0.440
2.510E-06,0.520
2.520E-06,0.520
2.530E-06,0.540
2.540E-06,0.580
2.550E-06,0.500
2.560E-06,0.420
2.570E-06,0.420
2.580E-06,0.360
2.590E-06,0.320
2.600E-06,0.320
2.610E-06,0.300
2.620E-06,0.340
2.630E-06,0.340
2.640E-06,0.380
2.650E-06,0.440
2.660E-06,0.500
2.670E-06,0.560
2.680E-06,0.620
2.690E-06,0.640
2.700E-06,0.600
2.710E-06,0.600
2.720E-06,0.500
2.730E-06,0.420
2.740E-06,0.320
2.750E-06,0.200
2.760E-06,0.200
2.770E-06,0.100
2.780E-06,0.160
2.790E-06,-0.020
2.800E-06,0.080
2.810E-06,-0.060
2.820E-06,0.060
2.830E-06,-0.080
2.840E-06,0.160
2.850E-06,0.140
2.860E-06,0.200
2.870E-06,0.320
2.880E-06,0.280
2.890E-06,0.340
2.900E-06,0.260
2.910E-06,0.400
2.920E-06,0.320
2.930E-06,0.360
2.940E-06,0.360
2.950E-06,0.400
2.960E-06,0.300
2.970E-06,0.400
2.980E-06,0.280
2.990E-06,0.440
3.000E-06,0.380
3.010E-06,0.380
3.020E-06,0.440
3.030E-06,0.340
3.040E-06,0.420
3.050E-06,0.360
3.060E-06,0.400
3.070E-06,0.300
3.080E-06,0.300
3.090E-06,0.240
3.100E-06,0.280
3.110E-06,0.260
3.120E-06,0.240
3.130E-06,0.240
3.140E-06,0.260
3.150E-06,0.280
3.160E-06,0.360
3.170E-06,0.400
3.180E-06,0.520
3.190E-06,0.520
