mediciones/8-28/-10/WaveData65680.csv

#timebase=2000000(ps)
,#voltbase=500000(mv/100)
#size=4000
-8.350E-06,0.040
-8.340E-06,0.060
-8.330E-06,0.040
-8.320E-06,0.040
-8.310E-06,0.060
-8.300E-06,0.060
-8.290E-06,0.040
-8.280E-06,0.040
-8.270E-06,0.060
-8.260E-06,0.060
-8.250E-06,0.020
-8.240E-06,0.080
-8.230E-06,0.040
-8.220E-06,0.080
-8.210E-06,0.060
-8.200E-06,0.040
-8.190E-06,0.060
-8.180E-06,0.080
-8.170E-06,0.060
-8.160E-06,0.020
-8.150E-06,0.020
-8.140E-06,0.040
-8.130E-06,0.020
-8.120E-06,0.060
-8.110E-06,0.020
-8.100E-06,0.020
-8.090E-06,0.040
-8.080E-06,0.000
-8.070E-06,0.060
-8.060E-06,0.000
-8.050E-06,0.060
-8.040E-06,0.080
-8.030E-06,0.060
-8.020E-06,0.060
-8.010E-06,0.080
-8.000E-06,0.080
-7.990E-06,0.020
-7.980E-06,0.040
-7.970E-06,0.040
-7.960E-06,0.060
-7.950E-06,0.080
-7.940E-06,0.040
-7.930E-06,0.040
-7.920E-06,0.020
-7.910E-06,0.020
-7.900E-06,0.040
-7.890E-06,0.040
-7.880E-06,0.080
-7.870E-06,0.020
-7.860E-06,0.020
-7.850E-06,0.060
-7.840E-06,0.020
-7.830E-06,0.020
-7.820E-06,0.060
-7.810E-06,0.080
-7.800E-06,0.080
-7.790E-06,0.020
-7.780E-06,0.020
-7.770E-06,0.020
-7.760E-06,0.020
-7.750E-06,0.040
-7.740E-06,0.060
-7.730E-06,0.040
-7.720E-06,0.060
-7.710E-06,0.060
-7.700E-06,0.060
-7.690E-06,0.060
-7.680E-06,0.040
-7.670E-06,0.060
-7.660E-06,0.100
-7.650E-06,0.060
-7.640E-06,0.000
-7.630E-06,0.040
-7.620E-06,0.000
-7.610E-06,0.060
-7.600E-06,0.040
-7.590E-06,0.040
-7.580E-06,0.080
-7.570E-06,0.060
-7.560E-06,0.060
-7.550E-06,0.040
-7.540E-06,0.060
-7.530E-06,0.040
-7.520E-06,0.040
-7.510E-06,0.040
-7.500E-06,0.040
-7.490E-06,0.020
-7.480E-06,0.060
-7.470E-06,0.040
-7.460E-06,0.040
-7.450E-06,0.020
-7.440E-06,0.060
-7.430E-06,0.040
-7.420E-06,0.080
-7.410E-06,0.040
-7.400E-06,0.060
-7.390E-06,0.040
-7.380E-06,0.080
-7.370E-06,0.080
-7.360E-06,0.040
-7.350E-06,0.060
-7.340E-06,0.020
-7.330E-06,0.040
-7.320E-06,0.060
-7.310E-06,0.060
-7.300E-06,0.040
-7.290E-06,0.040
-7.280E-06,0.080
-7.270E-06,0.060
-7.260E-06,0.060
-7.250E-06,0.080
-7.240E-06,0.020
-7.230E-06,0.040
-7.220E-06,0.040
-7.210E-06,0.020
-7.200E-06,0.060
-7.190E-06,0.060
-7.180E-06,0.020
-7.170E-06,0.020
-7.160E-06,0.060
-7.150E-06,0.040
-7.140E-06,0.060
-7.130E-06,0.040
-7.120E-06,0.020
-7.110E-06,0.080
-7.100E-06,0.040
-7.090E-06,0.040
-7.080E-06,0.060
-7.070E-06,0.060
-7.060E-06,0.080
-7.050E-06,0.060
-7.040E-06,0.060
-7.030E-06,0.020
-7.020E-06,0.020
-7.010E-06,0.040
-7.000E-06,0.040
-6.990E-06,0.060
-6.980E-06,0.080
-6.970E-06,0.020
-6.960E-06,0.040
-6.950E-06,0.040
-6.940E-06,0.080
-6.930E-06,0.060
-6.920E-06,0.060
-6.910E-06,0.020
-6.900E-06,0.060
-6.890E-06,0.060
-6.880E-06,0.040
-6.870E-06,0.020
-6.860E-06,0.020
-6.850E-06,0.040
-6.840E-06,0.060
-6.830E-06,0.060
-6.820E-06,0.020
-6.810E-06,0.000
-6.800E-06,0.040
-6.790E-06,0.060
-6.780E-06,0.040
-6.770E-06,0.040
-6.760E-06,0.040
-6.750E-06,0.060
-6.740E-06,0.060
-6.730E-06,0.040
-6.720E-06,0.040
-6.710E-06,0.040
-6.700E-06,0.060
-6.690E-06,0.080
-6.680E-06,0.040
-6.670E-06,0.040
-6.660E-06,0.040
-6.650E-06,0.080
-6.640E-06,0.060
-6.630E-06,0.080
-6.620E-06,0.080
-6.610E-06,0.060
-6.600E-06,0.060
-6.590E-06,0.060
-6.580E-06,0.040
-6.570E-06,0.040
-6.560E-06,0.040
-6.550E-06,0.060
-6.540E-06,0.040
-6.530E-06,0.040
-6.520E-06,0.060
-6.510E-06,0.040
-6.500E-06,0.040
-6.490E-06,0.020
-6.480E-06,0.040
-6.470E-06,0.060
-6.460E-06,0.040
-6.450E-06,0.080
-6.440E-06,0.040
-6.430E-06,0.020
-6.420E-06,0.040
-6.410E-06,0.040
-6.400E-06,0.020
-6.390E-06,0.040
-6.380E-06,0.060
-6.370E-06,0.080
-6.360E-06,0.040
-6.350E-06,0.020
-6.340E-06,0.060
-6.330E-06,0.060
-6.320E-06,0.020
-6.310E-06,0.040
-6.300E-06,0.020
-6.290E-06,0.020
-6.280E-06,0.060
-6.270E-06,0.060
-6.260E-06,0.020
-6.250E-06,0.040
-6.240E-06,0.060
-6.230E-06,0.000
-6.220E-06,0.060
-6.210E-06,0.060
-6.200E-06,0.040
-6.190E-06,0.040
-6.180E-06,0.060
-6.170E-06,0.020
-6.160E-06,0.020
-6.150E-06,0.060
-6.140E-06,0.040
-6.130E-06,0.060
-6.120E-06,0.060
-6.110E-06,0.040
-6.100E-06,0.020
-6.090E-06,0.040
-6.080E-06,0.040
-6.070E-06,0.020
-6.060E-06,0.020
-6.050E-06,0.040
-6.040E-06,0.040
-6.030E-06,0.060
-6.020E-06,0.060
-6.010E-06,0.040
-6.000E-06,0.020
-5.990E-06,0.020
-5.980E-06,0.040
-5.970E-06,0.040
-5.960E-06,0.060
-5.950E-06,0.060
-5.940E-06,0.000
-5.930E-06,0.040
-5.920E-06,0.040
-5.910E-06,0.060
-5.900E-06,0.040
-5.890E-06,0.020
-5.880E-06,0.040
-5.870E-06,0.080
-5.860E-06,0.040
-5.850E-06,0.040
-5.840E-06,0.020
-5.830E-06,0.060
-5.820E-06,0.040
-5.810E-06,0.020
-5.800E-06,0.060
-5.790E-06,0.060
-5.780E-06,0.080
-5.770E-06,0.040
-5.760E-06,0.060
-5.750E-06,0.060
-5.740E-06,0.060
-5.730E-06,0.060
-5.720E-06,0.060
-5.710E-06,0.060
-5.700E-06,0.040
-5.690E-06,0.040
-5.680E-06,0.080
-5.670E-06,0.060
-5.660E-06,0.060
-5.650E-06,0.060
-5.640E-06,0.060
-5.630E-06,0.020
-5.620E-06,0.040
-5.610E-06,0.040
-5.600E-06,0.080
-5.590E-06,0.060
-5.580E-06,0.020
-5.570E-06,0.060
-5.560E-06,0.060
-5.550E-06,0.040
-5.540E-06,0.040
-5.530E-06,0.020
-5.520E-06,0.060
-5.510E-06,0.020
-5.500E-06,0.040
-5.490E-06,0.040
-5.480E-06,0.060
-5.470E-06,0.060
-5.460E-06,0.060
-5.450E-06,0.040
-5.440E-06,0.080
-5.430E-06,0.060
-5.420E-06,0.040
-5.410E-06,0.060
-5.400E-06,0.020
-5.390E-06,0.040
-5.380E-06,0.060
-5.370E-06,0.060
-5.360E-06,0.060
-5.350E-06,0.060
-5.340E-06,0.080
-5.330E-06,0.020
-5.320E-06,0.020
-5.310E-06,0.040
-5.300E-06,0.020
-5.290E-06,0.040
-5.280E-06,0.080
-5.270E-06,0.020
-5.260E-06,0.020
-5.250E-06,0.080
-5.240E-06,0.040
-5.230E-06,0.080
-5.220E-06,0.040
-5.210E-06,0.020
-5.200E-06,0.040
-5.190E-06,0.080
-5.180E-06,0.060
-5.170E-06,0.000
-5.160E-06,0.020
-5.150E-06,0.040
-5.140E-06,0.040
-5.130E-06,0.040
-5.120E-06,0.040
-5.110E-06,0.040
-5.100E-06,0.040
-5.090E-06,0.060
-5.080E-06,0.040
-5.070E-06,0.060
-5.060E-06,0.060
-5.050E-06,0.060
-5.040E-06,0.080
-5.030E-06,0.040
-5.020E-06,0.020
-5.010E-06,0.060
-5.000E-06,0.020
-4.990E-06,0.060
-4.980E-06,0.040
-4.970E-06,0.060
-4.960E-06,0.060
-4.950E-06,0.040
-4.940E-06,0.080
-4.930E-06,0.040
-4.920E-06,0.000
-4.910E-06,0.060
-4.900E-06,0.020
-4.890E-06,0.040
-4.880E-06,0.020
-4.870E-06,0.080
-4.860E-06,0.040
-4.850E-06,0.020
-4.840E-06,0.000
-4.830E-06,0.060
-4.820E-06,0.040
-4.810E-06,0.040
-4.800E-06,0.040
-4.790E-06,0.040
-4.780E-06,0.040
-4.770E-06,0.040
-4.760E-06,0.040
-4.750E-06,0.080
-4.740E-06,0.060
-4.730E-06,0.000
-4.720E-06,0.000
-4.710E-06,0.040
-4.700E-06,0.060
-4.690E-06,0.080
-4.680E-06,0.060
-4.670E-06,0.000
-4.660E-06,0.040
-4.650E-06,0.080
-4.640E-06,0.060
-4.630E-06,0.020
-4.620E-06,0.040
-4.610E-06,0.020
-4.600E-06,0.040
-4.590E-06,0.040
-4.580E-06,0.060
-4.570E-06,0.020
-4.560E-06,0.020
-4.550E-06,0.040
-4.540E-06,0.040
-4.530E-06,0.080
-4.520E-06,0.020
-4.510E-06,0.020
-4.500E-06,0.020
-4.490E-06,0.060
-4.480E-06,0.060
-4.470E-06,0.040
-4.460E-06,0.020
-4.450E-06,0.060
-4.440E-06,0.020
-4.430E-06,0.040
-4.420E-06,0.080
-4.410E-06,0.080
-4.400E-06,0.040
-4.390E-06,0.020
-4.380E-06,0.060
-4.370E-06,0.000
-4.360E-06,0.000
-4.350E-06,-0.320
-4.340E-06,-1.020
-4.330E-06,-1.980
-4.320E-06,-2.860
-4.310E-06,-2.660
-4.300E-06,-2.580
-4.290E-06,-1.420
-4.280E-06,-1.220
-4.270E-06,0.760
-4.260E-06,1.540
-4.250E-06,1.880
-4.240E-06,2.060
-4.230E-06,2.080
-4.220E-06,2.080
-4.210E-06,2.080
-4.200E-06,2.060
-4.190E-06,2.080
-4.180E-06,0.860
-4.170E-06,0.420
-4.160E-06,-0.320
-4.150E-06,-0.660
-4.140E-06,-0.760
-4.130E-06,-0.520
-4.120E-06,-0.300
-4.110E-06,-0.360
-4.100E-06,-0.240
-4.090E-06,-0.500
-4.080E-06,-0.760
-4.070E-06,-1.040
-4.060E-06,-1.440
-4.050E-06,-1.620
-4.040E-06,-1.780
-4.030E-06,-1.740
-4.020E-06,-1.620
-4.010E-06,-1.300
-4.000E-06,-0.740
-3.990E-06,-0.160
-3.980E-06,0.440
-3.970E-06,1.040
-3.960E-06,1.420
-3.950E-06,1.640
-3.940E-06,1.620
-3.930E-06,1.420
-3.920E-06,1.100
-3.910E-06,0.700
-3.900E-06,0.240
-3.890E-06,-0.140
-3.880E-06,-0.480
-3.870E-06,-0.720
-3.860E-06,-0.860
-3.850E-06,-0.940
-3.840E-06,-0.860
-3.830E-06,-0.760
-3.820E-06,-0.640
-3.810E-06,-0.440
-3.800E-06,-0.300
-3.790E-06,-0.100
-3.780E-06,0.060
-3.770E-06,0.320
-3.760E-06,0.520
-3.750E-06,0.700
-3.740E-06,0.840
-3.730E-06,0.960
-3.720E-06,1.020
-3.710E-06,0.960
-3.700E-06,0.900
-3.690E-06,0.740
-3.680E-06,0.640
-3.670E-06,0.420
-3.660E-06,0.260
-3.650E-06,0.080
-3.640E-06,-0.140
-3.630E-06,-0.260
-3.620E-06,-0.360
-3.610E-06,-0.480
-3.600E-06,-0.540
-3.590E-06,-0.640
-3.580E-06,-0.660
-3.570E-06,-0.660
-3.560E-06,-0.620
-3.550E-06,-0.620
-3.540E-06,-0.460
-3.530E-06,-0.260
-3.520E-06,-0.100
-3.510E-06,0.140
-3.500E-06,0.360
-3.490E-06,0.540
-3.480E-06,0.720
-3.470E-06,0.800
-3.460E-06,0.840
-3.450E-06,0.860
-3.440E-06,0.720
-3.430E-06,0.560
-3.420E-06,0.340
-3.410E-06,0.180
-3.400E-06,-0.040
-3.390E-06,-0.240
-3.380E-06,-0.340
-3.370E-06,-0.480
-3.360E-06,-0.520
-3.350E-06,-0.480
-3.340E-06,-0.460
-3.330E-06,-0.360
-3.320E-06,-0.300
-3.310E-06,-0.160
-3.300E-06,-0.100
-3.290E-06,0.020
-3.280E-06,0.080
-3.270E-06,0.080
-3.260E-06,0.040
-3.250E-06,0.100
-3.240E-06,0.080
-3.230E-06,0.120
-3.220E-06,0.120
-3.210E-06,0.180
-3.200E-06,0.280
-3.190E-06,0.340
-3.180E-06,0.260
-3.170E-06,0.000
-3.160E-06,0.160
-3.150E-06,-0.220
-3.140E-06,0.120
-3.130E-06,-0.340
-3.120E-06,0.140
-3.110E-06,-0.360
-3.100E-06,0.100
-3.090E-06,-0.360
-3.080E-06,-0.080
-3.070E-06,-0.180
-3.060E-06,-0.060
-3.050E-06,0.000
-3.040E-06,0.000
-3.030E-06,0.020
-3.020E-06,0.040
-3.010E-06,0.000
-3.000E-06,0.080
-2.990E-06,0.000
-2.980E-06,0.060
-2.970E-06,0.060
-2.960E-06,0.060
-2.950E-06,0.040
-2.940E-06,0.080
-2.930E-06,0.020
-2.920E-06,0.000
-2.910E-06,0.040
-2.900E-06,0.060
-2.890E-06,0.100
-2.880E-06,0.100
-2.870E-06,0.080
-2.860E-06,0.040
-2.850E-06,0.000
-2.840E-06,-0.040
-2.830E-06,-0.060
-2.820E-06,-0.040
-2.810E-06,-0.020
-2.800E-06,-0.020
-2.790E-06,-0.020
-2.780E-06,-0.020
-2.770E-06,-0.020
-2.760E-06,-0.020
-2.750E-06,-0.080
-2.740E-06,-0.100
-2.730E-06,0.080
-2.720E-06,-0.140
-2.710E-06,0.060
-2.700E-06,-0.200
-2.690E-06,0.020
-2.680E-06,-0.080
-2.670E-06,-0.020
-2.660E-06,-0.020
-2.650E-06,-0.040
-2.640E-06,-0.100
-2.630E-06,0.000
-2.620E-06,-0.100
-2.610E-06,0.060
-2.600E-06,-0.180
-2.590E-06,0.040
-2.580E-06,-0.220
-2.570E-06,-0.020
-2.560E-06,-0.320
-2.550E-06,-0.160
-2.540E-06,-0.260
-2.530E-06,-0.260
-2.520E-06,-0.260
-2.510E-06,-0.340
-2.500E-06,-0.320
-2.490E-06,-0.320
-2.480E-06,-0.360
-2.470E-06,-0.220
-2.460E-06,-0.280
-2.450E-06,-0.080
-2.440E-06,-0.080
-2.430E-06,-0.180
-2.420E-06,0.060
-2.410E-06,-0.040
-2.400E-06,0.040
-2.390E-06,0.100
-2.380E-06,0.060
-2.370E-06,0.160
-2.360E-06,0.160
-2.350E-06,0.180
-2.340E-06,0.200
-2.330E-06,0.160
-2.320E-06,0.180
-2.310E-06,0.180
-2.300E-06,0.160
-2.290E-06,0.120
-2.280E-06,0.080
-2.270E-06,0.080
-2.260E-06,-0.020
-2.250E-06,0.060
-2.240E-06,-0.180
-2.230E-06,0.020
-2.220E-06,-0.100
-2.210E-06,-0.220
-2.200E-06,0.040
-2.190E-06,-0.140
-2.180E-06,-0.080
-2.170E-06,-0.080
-2.160E-06,-0.120
-2.150E-06,-0.060
-2.140E-06,-0.160
-2.130E-06,-0.120
-2.120E-06,-0.180
-2.110E-06,-0.300
-2.100E-06,-0.240
-2.090E-06,-0.340
-2.080E-06,0.080
-2.070E-06,-0.280
-2.060E-06,0.160
-2.050E-06,-0.300
-2.040E-06,-0.120
-2.030E-06,-0.040
-2.020E-06,0.100
-2.010E-06,0.580
-2.000E-06,1.120
-1.990E-06,1.560
-1.980E-06,1.800
-1.970E-06,1.640
-1.960E-06,1.200
-1.950E-06,0.480
-1.940E-06,-0.220
-1.930E-06,-0.880
-1.920E-06,-1.380
-1.910E-06,-1.760
-1.900E-06,-1.880
-1.890E-06,-2.000
-1.880E-06,-1.740
-1.870E-06,-1.680
-1.860E-06,-1.260
-1.850E-06,-1.280
-1.840E-06,-0.700
-1.830E-06,-1.320
-1.820E-06,-0.460
-1.810E-06,-1.100
-1.800E-06,-0.340
-1.790E-06,-0.600
-1.780E-06,-0.020
-1.770E-06,0.100
-1.760E-06,0.240
-1.750E-06,0.440
-1.740E-06,0.540
-1.730E-06,0.700
-1.720E-06,0.760
-1.710E-06,0.880
-1.700E-06,0.800
-1.690E-06,0.600
-1.680E-06,0.520
-1.670E-06,0.260
-1.660E-06,-0.040
-1.650E-06,-0.460
-1.640E-06,-0.680
-1.630E-06,-1.020
-1.620E-06,-1.120
-1.610E-06,-1.080
-1.600E-06,-0.960
-1.590E-06,-1.020
-1.580E-06,-0.580
-1.570E-06,-0.420
-1.560E-06,-0.100
-1.550E-06,0.200
-1.540E-06,0.400
-1.530E-06,0.680
-1.520E-06,0.600
-1.510E-06,0.740
-1.500E-06,0.520
-1.490E-06,0.540
-1.480E-06,0.040
-1.470E-06,0.120
-1.460E-06,-0.420
-1.450E-06,-0.160
-1.440E-06,-0.740
-1.430E-06,-0.500
-1.420E-06,-0.660
-1.410E-06,-0.600
-1.400E-06,-0.480
-1.390E-06,-0.560
-1.380E-06,-0.560
-1.370E-06,-0.560
-1.360E-06,-0.500
-1.350E-06,-0.520
-1.340E-06,-0.580
-1.330E-06,-0.620
-1.320E-06,-0.700
-1.310E-06,-0.380
-1.300E-06,-0.660
-1.290E-06,-0.200
-1.280E-06,-0.400
-1.270E-06,-0.300
-1.260E-06,0.000
-1.250E-06,-0.080
-1.240E-06,0.160
-1.230E-06,0.040
-1.220E-06,0.000
-1.210E-06,-0.080
-1.200E-06,-0.340
-1.190E-06,-0.500
-1.180E-06,-0.700
-1.170E-06,-0.720
-1.160E-06,-1.000
-1.150E-06,-0.700
-1.140E-06,-1.120
-1.130E-06,-0.660
-1.120E-06,-0.980
-1.110E-06,-0.420
-1.100E-06,-0.580
-1.090E-06,-0.200
-1.080E-06,-0.060
-1.070E-06,0.040
-1.060E-06,0.180
-1.050E-06,0.240
-1.040E-06,0.340
-1.030E-06,0.300
-1.020E-06,0.160
-1.010E-06,0.100
-1.000E-06,-0.180
-9.900E-07,0.060
-9.800E-07,-0.200
-9.700E-07,0.060
-9.600E-07,-0.280
-9.500E-07,-0.240
-9.400E-07,-0.180
-9.300E-07,-0.300
-9.200E-07,-0.200
-9.100E-07,-0.200
-9.000E-07,-0.260
-8.900E-07,-0.420
-8.800E-07,-0.320
-8.700E-07,-0.640
-8.600E-07,-0.660
-8.500E-07,-0.460
-8.400E-07,-0.520
-8.300E-07,-0.320
-8.200E-07,-0.480
-8.100E-07,-0.300
-8.000E-07,-0.480
-7.900E-07,-0.660
-7.800E-07,-0.980
-7.700E-07,-1.040
-7.600E-07,-1.140
-7.500E-07,-1.540
-7.400E-07,-1.460
-7.300E-07,-2.200
-7.200E-07,-2.200
-7.100E-07,-2.800
-7.000E-07,-2.860
-6.900E-07,-3.000
-6.800E-07,-2.780
-6.700E-07,-2.520
-6.600E-07,-2.440
-6.500E-07,-2.340
-6.400E-07,-2.260
-6.300E-07,-2.120
-6.200E-07,-1.940
-6.100E-07,-1.980
-6.000E-07,-1.680
-5.900E-07,-1.560
-5.800E-07,-1.520
-5.700E-07,-1.540
-5.600E-07,-1.700
-5.500E-07,-1.520
-5.400E-07,-1.920
-5.300E-07,-1.360
-5.200E-07,-1.580
-5.100E-07,-1.220
-5.000E-07,-1.280
-4.900E-07,-1.180
-4.800E-07,-1.180
-4.700E-07,-1.340
-4.600E-07,-1.260
-4.500E-07,-1.180
-4.400E-07,-0.980
-4.300E-07,-0.940
-4.200E-07,-0.960
-4.100E-07,-0.940
-4.000E-07,-0.940
-3.900E-07,-0.840
-3.800E-07,-0.840
-3.700E-07,-0.540
-3.600E-07,-0.380
-3.500E-07,-0.280
-3.400E-07,-0.260
-3.300E-07,-0.200
-3.200E-07,-0.160
-3.100E-07,-0.220
-3.000E-07,-0.200
-2.900E-07,-0.420
-2.800E-07,-0.600
-2.700E-07,-0.860
-2.600E-07,-1.060
-2.500E-07,-1.100
-2.400E-07,-1.100
-2.300E-07,-1.120
-2.200E-07,-1.100
-2.100E-07,-1.120
-2.000E-07,-1.140
-1.900E-07,-1.080
-1.800E-07,-1.080
-1.700E-07,-1.120
-1.600E-07,-1.080
-1.500E-07,-1.160
-1.400E-07,-1.200
-1.300E-07,-1.140
-1.200E-07,-1.140
-1.100E-07,-1.080
-1.000E-07,-1.160
-9.000E-08,-1.300
-8.000E-08,-1.360
-7.000E-08,-1.440
-6.000E-08,-1.300
-5.000E-08,-1.200
-4.000E-08,-1.160
-3.000E-08,-1.160
-2.000E-08,-1.440
-1.000E-08,-1.800
0.000E+00,-1.960
1.000E-08,-2.040
2.000E-08,-1.940
3.000E-08,-1.660
4.000E-08,-1.480
5.000E-08,-1.640
6.000E-08,-1.900
7.000E-08,-2.260
8.000E-08,-2.500
9.000E-08,-2.560
1.000E-07,-2.480
1.100E-07,-2.040
1.200E-07,-1.620
1.300E-07,-1.120
1.400E-07,-0.760
1.500E-07,-0.480
1.600E-07,-0.320
1.700E-07,-0.280
1.800E-07,-0.160
1.900E-07,-0.320
2.000E-07,-0.500
2.100E-07,-0.820
2.200E-07,-1.100
2.300E-07,-1.280
2.400E-07,-1.120
2.500E-07,-1.160
2.600E-07,-1.180
2.700E-07,-1.580
2.800E-07,-1.860
2.900E-07,-2.040
3.000E-07,-2.020
3.100E-07,-1.700
3.200E-07,-1.360
3.300E-07,-0.900
3.400E-07,-0.600
3.500E-07,-0.380
3.600E-07,-0.160
3.700E-07,0.000
3.800E-07,0.240
3.900E-07,0.400
4.000E-07,0.580
4.100E-07,0.780
4.200E-07,0.920
4.300E-07,0.960
4.400E-07,0.940
4.500E-07,0.720
4.600E-07,0.360
4.700E-07,0.040
4.800E-07,-0.400
4.900E-07,-0.580
5.000E-07,-0.720
5.100E-07,-0.700
5.200E-07,-0.700
5.300E-07,-0.660
5.400E-07,-0.660
5.500E-07,-0.640
5.600E-07,-0.640
5.700E-07,-0.580
5.800E-07,-0.440
5.900E-07,-0.240
6.000E-07,-0.020
6.100E-07,0.140
6.200E-07,0.320
6.300E-07,0.420
6.400E-07,0.460
6.500E-07,0.500
6.600E-07,0.500
6.700E-07,0.460
6.800E-07,0.440
6.900E-07,0.400
7.000E-07,0.340
7.100E-07,0.280
7.200E-07,0.140
7.300E-07,-0.020
7.400E-07,-0.160
7.500E-07,-0.320
7.600E-07,-0.420
7.700E-07,-0.460
7.800E-07,-0.500
7.900E-07,-0.560
8.000E-07,-0.600
8.100E-07,-0.640
8.200E-07,-0.700
8.300E-07,-0.780
8.400E-07,-0.880
8.500E-07,-0.940
8.600E-07,-0.940
8.700E-07,-0.880
8.800E-07,-0.880
8.900E-07,-0.920
9.000E-07,-0.980
9.100E-07,-1.040
9.200E-07,-1.080
9.300E-07,-1.180
9.400E-07,-1.280
9.500E-07,-1.320
9.600E-07,-1.340
9.700E-07,-1.340
9.800E-07,-1.460
9.900E-07,-1.580
1.000E-06,-1.800
1.010E-06,-1.680
1.020E-06,-1.780
1.030E-06,-1.700
1.040E-06,-1.760
1.050E-06,-1.740
1.060E-06,-1.780
1.070E-06,-1.820
1.080E-06,-1.760
1.090E-06,-1.660
1.100E-06,-1.480
1.110E-06,-1.360
1.120E-06,-1.300
1.130E-06,-1.320
1.140E-06,-1.300
1.150E-06,-1.320
1.160E-06,-1.360
1.170E-06,-1.360
1.180E-06,-1.360
1.190E-06,-1.300
1.200E-06,-1.160
1.210E-06,-0.980
1.220E-06,-0.880
1.230E-06,-0.880
1.240E-06,-0.800
1.250E-06,-0.700
1.260E-06,-0.580
1.270E-06,-0.500
1.280E-06,-0.420
1.290E-06,-0.340
1.300E-06,-0.300
1.310E-06,-0.240
1.320E-06,-0.220
1.330E-06,-0.120
1.340E-06,-0.040
1.350E-06,0.060
1.360E-06,0.160
1.370E-06,0.260
1.380E-06,0.340
1.390E-06,0.400
1.400E-06,0.460
1.410E-06,0.500
1.420E-06,0.560
1.430E-06,0.580
1.440E-06,0.580
1.450E-06,0.580
1.460E-06,0.600
1.470E-06,0.620
1.480E-06,0.580
1.490E-06,0.560
1.500E-06,0.600
1.510E-06,0.600
1.520E-06,0.580
1.530E-06,0.560
1.540E-06,0.520
1.550E-06,0.500
1.560E-06,0.500
1.570E-06,0.440
1.580E-06,0.400
1.590E-06,0.360
1.600E-06,0.340
1.610E-06,0.320
1.620E-06,0.220
1.630E-06,0.100
1.640E-06,0.040
1.650E-06,-0.020
1.660E-06,-0.080
1.670E-06,-0.100
1.680E-06,-0.120
1.690E-06,-0.160
1.700E-06,-0.160
1.710E-06,-0.160
1.720E-06,0.020
1.730E-06,0.020
1.740E-06,-0.040
1.750E-06,-0.020
1.760E-06,0.080
1.770E-06,0.200
1.780E-06,0.200
1.790E-06,0.040
1.800E-06,0.280
1.810E-06,0.100
1.820E-06,0.260
1.830E-06,0.240
1.840E-06,0.320
1.850E-06,0.340
1.860E-06,0.380
1.870E-06,0.380
1.880E-06,0.380
1.890E-06,0.440
1.900E-06,0.420
1.910E-06,0.460
1.920E-06,0.480
1.930E-06,0.580
1.940E-06,0.600
1.950E-06,0.660
1.960E-06,0.720
1.970E-06,0.740
1.980E-06,0.760
1.990E-06,0.740
2.000E-06,0.660
2.010E-06,0.620
2.020E-06,0.560
2.030E-06,0.540
2.040E-06,0.440
2.050E-06,0.440
2.060E-06,0.340
2.070E-06,0.300
2.080E-06,0.300
2.090E-06,0.260
2.100E-06,0.280
2.110E-06,0.280
2.120E-06,0.240
2.130E-06,0.200
2.140E-06,0.200
2.150E-06,0.280
2.160E-06,0.200
2.170E-06,0.160
2.180E-06,0.080
2.190E-06,0.200
2.200E-06,0.180
2.210E-06,0.160
2.220E-06,-0.080
2.230E-06,0.080
2.240E-06,-0.120
2.250E-06,-0.080
2.260E-06,-0.160
2.270E-06,-0.240
2.280E-06,-0.300
2.290E-06,-0.360
2.300E-06,-0.420
2.310E-06,-0.480
2.320E-06,-0.560
2.330E-06,-0.560
2.340E-06,-0.560
2.350E-06,-0.560
2.360E-06,-0.520
2.370E-06,-0.500
2.380E-06,-0.440
2.390E-06,-0.400
2.400E-06,-0.340
2.410E-06,-0.280
2.420E-06,-0.220
2.430E-06,-0.160
2.440E-06,-0.040
2.450E-06,0.040
2.460E-06,0.120
2.470E-06,0.260
2.480E-06,0.340
2.490E-06,0.420
2.500E-06,0.560
2.510E-06,0.660
2.520E-06,0.720
2.530E-06,0.740
2.540E-06,0.700
2.550E-06,0.660
2.560E-06,0.640
2.570E-06,0.660
2.580E-06,0.680
2.590E-06,0.740
2.600E-06,0.800
2.610E-06,0.860
2.620E-06,0.920
2.630E-06,0.960
2.640E-06,0.900
2.650E-06,0.900
2.660E-06,0.900
2.670E-06,0.740
2.680E-06,0.740
2.690E-06,0.640
2.700E-06,0.780
2.710E-06,0.680
2.720E-06,0.720
2.730E-06,0.700
2.740E-06,0.600
2.750E-06,0.640
2.760E-06,0.540
2.770E-06,0.520
2.780E-06,0.480
2.790E-06,0.420
2.800E-06,0.380
2.810E-06,0.420
2.820E-06,0.420
2.830E-06,0.440
2.840E-06,0.440
2.850E-06,0.440
2.860E-06,0.460
2.870E-06,0.420
2.880E-06,0.420
2.890E-06,0.420
2.900E-06,0.360
2.910E-06,0.320
2.920E-06,0.260
2.930E-06,0.160
2.940E-06,0.080
2.950E-06,0.020
2.960E-06,-0.080
2.970E-06,-0.080
2.980E-06,-0.120
2.990E-06,-0.160
3.000E-06,-0.160
3.010E-06,-0.160
3.020E-06,-0.100
3.030E-06,-0.080
3.040E-06,0.000
3.050E-06,0.000
3.060E-06,0.060
3.070E-06,0.100
3.080E-06,0.080
3.090E-06,0.060
3.100E-06,0.020
3.110E-06,0.000
3.120E-06,-0.040
3.130E-06,0.020
3.140E-06,-0.080
3.150E-06,-0.160
3.160E-06,-0.220
3.170E-06,-0.180
3.180E-06,0.080
3.190E-06,0.080
3.200E-06,0.260
3.210E-06,0.440
3.220E-06,0.580
3.230E-06,0.760
3.240E-06,0.860
3.250E-06,1.000
3.260E-06,1.040
3.270E-06,1.080
3.280E-06,1.060
3.290E-06,1.020
3.300E-06,1.000
