mediciones/8-28/-9/WaveData6661.csv

#timebase=2000000(ps)
,#voltbase=500000(mv/100)
#size=4000
-8.350E-06,0.040
-8.340E-06,0.080
-8.330E-06,0.060
-8.320E-06,0.060
-8.310E-06,0.060
-8.300E-06,0.040
-8.290E-06,0.040
-8.280E-06,0.060
-8.270E-06,0.060
-8.260E-06,0.060
-8.250E-06,0.080
-8.240E-06,0.060
-8.230E-06,0.060
-8.220E-06,0.040
-8.210E-06,0.060
-8.200E-06,0.060
-8.190E-06,0.060
-8.180E-06,0.040
-8.170E-06,0.060
-8.160E-06,0.060
-8.150E-06,0.060
-8.140E-06,0.060
-8.130E-06,0.060
-8.120E-06,0.060
-8.110E-06,0.020
-8.100E-06,0.080
-8.090E-06,0.080
-8.080E-06,0.080
-8.070E-06,0.080
-8.060E-06,0.060
-8.050E-06,0.060
-8.040E-06,0.020
-8.030E-06,0.040
-8.020E-06,0.040
-8.010E-06,0.040
-8.000E-06,0.040
-7.990E-06,0.060
-7.980E-06,0.040
-7.970E-06,0.040
-7.960E-06,0.060
-7.950E-06,0.060
-7.940E-06,0.040
-7.930E-06,0.060
-7.920E-06,0.060
-7.910E-06,0.060
-7.900E-06,0.060
-7.890E-06,0.040
-7.880E-06,0.060
-7.870E-06,0.040
-7.860E-06,0.040
-7.850E-06,0.060
-7.840E-06,0.060
-7.830E-06,0.060
-7.820E-06,0.040
-7.810E-06,0.040
-7.800E-06,0.060
-7.790E-06,0.040
-7.780E-06,0.040
-7.770E-06,0.060
-7.760E-06,0.060
-7.750E-06,0.060
-7.740E-06,0.060
-7.730E-06,0.040
-7.720E-06,0.060
-7.710E-06,0.080
-7.700E-06,0.080
-7.690E-06,0.060
-7.680E-06,0.040
-7.670E-06,0.080
-7.660E-06,0.080
-7.650E-06,0.040
-7.640E-06,0.060
-7.630E-06,0.040
-7.620E-06,0.020
-7.610E-06,0.040
-7.600E-06,0.040
-7.590E-06,0.060
-7.580E-06,0.040
-7.570E-06,0.040
-7.560E-06,0.060
-7.550E-06,0.040
-7.540E-06,0.100
-7.530E-06,0.060
-7.520E-06,0.060
-7.510E-06,0.060
-7.500E-06,0.060
-7.490E-06,0.040
-7.480E-06,0.040
-7.470E-06,0.040
-7.460E-06,0.060
-7.450E-06,0.060
-7.440E-06,0.040
-7.430E-06,0.040
-7.420E-06,0.060
-7.410E-06,0.040
-7.400E-06,0.040
-7.390E-06,0.040
-7.380E-06,0.060
-7.370E-06,0.040
-7.360E-06,0.060
-7.350E-06,0.040
-7.340E-06,0.040
-7.330E-06,0.060
-7.320E-06,0.060
-7.310E-06,0.060
-7.300E-06,0.060
-7.290E-06,0.060
-7.280E-06,0.040
-7.270E-06,0.060
-7.260E-06,0.040
-7.250E-06,0.060
-7.240E-06,0.040
-7.230E-06,0.060
-7.220E-06,0.040
-7.210E-06,0.060
-7.200E-06,0.060
-7.190E-06,0.060
-7.180E-06,0.060
-7.170E-06,0.060
-7.160E-06,0.040
-7.150E-06,0.040
-7.140E-06,0.040
-7.130E-06,0.060
-7.120E-06,0.080
-7.110E-06,0.060
-7.100E-06,0.060
-7.090E-06,0.040
-7.080E-06,0.060
-7.070E-06,0.060
-7.060E-06,0.060
-7.050E-06,0.060
-7.040E-06,0.040
-7.030E-06,0.060
-7.020E-06,0.040
-7.010E-06,0.060
-7.000E-06,0.040
-6.990E-06,0.060
-6.980E-06,0.060
-6.970E-06,0.060
-6.960E-06,0.040
-6.950E-06,0.080
-6.940E-06,0.060
-6.930E-06,0.040
-6.920E-06,0.060
-6.910E-06,0.040
-6.900E-06,0.060
-6.890E-06,0.060
-6.880E-06,0.060
-6.870E-06,0.060
-6.860E-06,0.060
-6.850E-06,0.060
-6.840E-06,0.040
-6.830E-06,0.040
-6.820E-06,0.060
-6.810E-06,0.080
-6.800E-06,0.000
-6.790E-06,0.040
-6.780E-06,0.040
-6.770E-06,0.060
-6.760E-06,0.040
-6.750E-06,0.080
-6.740E-06,0.060
-6.730E-06,0.060
-6.720E-06,0.060
-6.710E-06,0.060
-6.700E-06,0.040
-6.690E-06,0.040
-6.680E-06,0.040
-6.670E-06,0.060
-6.660E-06,0.040
-6.650E-06,0.040
-6.640E-06,0.040
-6.630E-06,0.020
-6.620E-06,0.060
-6.610E-06,0.060
-6.600E-06,0.060
-6.590E-06,0.060
-6.580E-06,0.060
-6.570E-06,0.040
-6.560E-06,0.060
-6.550E-06,0.040
-6.540E-06,0.060
-6.530E-06,0.060
-6.520E-06,0.060
-6.510E-06,0.040
-6.500E-06,0.080
-6.490E-06,0.060
-6.480E-06,0.080
-6.470E-06,0.040
-6.460E-06,0.040
-6.450E-06,0.020
-6.440E-06,0.040
-6.430E-06,0.040
-6.420E-06,0.060
-6.410E-06,0.060
-6.400E-06,0.080
-6.390E-06,0.080
-6.380E-06,0.040
-6.370E-06,0.060
-6.360E-06,0.060
-6.350E-06,0.080
-6.340E-06,0.040
-6.330E-06,0.060
-6.320E-06,0.060
-6.310E-06,0.040
-6.300E-06,0.060
-6.290E-06,0.060
-6.280E-06,0.040
-6.270E-06,0.080
-6.260E-06,0.060
-6.250E-06,0.040
-6.240E-06,0.060
-6.230E-06,0.080
-6.220E-06,0.080
-6.210E-06,0.040
-6.200E-06,0.060
-6.190E-06,0.060
-6.180E-06,0.080
-6.170E-06,0.060
-6.160E-06,0.060
-6.150E-06,0.060
-6.140E-06,0.060
-6.130E-06,0.060
-6.120E-06,0.080
-6.110E-06,0.040
-6.100E-06,0.060
-6.090E-06,0.040
-6.080E-06,0.020
-6.070E-06,0.040
-6.060E-06,0.040
-6.050E-06,0.060
-6.040E-06,0.060
-6.030E-06,0.060
-6.020E-06,0.060
-6.010E-06,0.020
-6.000E-06,0.040
-5.990E-06,0.040
-5.980E-06,0.040
-5.970E-06,0.060
-5.960E-06,0.060
-5.950E-06,0.060
-5.940E-06,0.060
-5.930E-06,0.060
-5.920E-06,0.060
-5.910E-06,0.060
-5.900E-06,0.060
-5.890E-06,0.060
-5.880E-06,0.040
-5.870E-06,0.020
-5.860E-06,0.040
-5.850E-06,0.040
-5.840E-06,0.040
-5.830E-06,0.060
-5.820E-06,0.060
-5.810E-06,0.040
-5.800E-06,0.060
-5.790E-06,0.040
-5.780E-06,0.040
-5.770E-06,0.060
-5.760E-06,0.040
-5.750E-06,0.080
-5.740E-06,0.060
-5.730E-06,0.060
-5.720E-06,0.060
-5.710E-06,0.060
-5.700E-06,0.040
-5.690E-06,0.040
-5.680E-06,0.060
-5.670E-06,0.060
-5.660E-06,0.060
-5.650E-06,0.040
-5.640E-06,0.040
-5.630E-06,0.040
-5.620E-06,0.020
-5.610E-06,0.060
-5.600E-06,0.060
-5.590E-06,0.060
-5.580E-06,0.060
-5.570E-06,0.060
-5.560E-06,0.040
-5.550E-06,0.040
-5.540E-06,0.040
-5.530E-06,0.040
-5.520E-06,0.060
-5.510E-06,0.020
-5.500E-06,0.080
-5.490E-06,0.080
-5.480E-06,0.060
-5.470E-06,0.040
-5.460E-06,0.040
-5.450E-06,0.040
-5.440E-06,0.040
-5.430E-06,0.040
-5.420E-06,0.040
-5.410E-06,0.040
-5.400E-06,0.060
-5.390E-06,0.080
-5.380E-06,0.060
-5.370E-06,0.060
-5.360E-06,0.060
-5.350E-06,0.040
-5.340E-06,0.040
-5.330E-06,0.020
-5.320E-06,0.040
-5.310E-06,0.040
-5.300E-06,0.040
-5.290E-06,0.040
-5.280E-06,0.060
-5.270E-06,0.040
-5.260E-06,0.040
-5.250E-06,0.060
-5.240E-06,0.040
-5.230E-06,0.040
-5.220E-06,0.060
-5.210E-06,0.060
-5.200E-06,0.060
-5.190E-06,0.040
-5.180E-06,0.040
-5.170E-06,0.060
-5.160E-06,0.060
-5.150E-06,0.060
-5.140E-06,0.060
-5.130E-06,0.040
-5.120E-06,0.040
-5.110E-06,0.060
-5.100E-06,0.040
-5.090E-06,0.060
-5.080E-06,0.040
-5.070E-06,0.040
-5.060E-06,0.020
-5.050E-06,0.080
-5.040E-06,0.060
-5.030E-06,0.040
-5.020E-06,0.060
-5.010E-06,0.040
-5.000E-06,0.060
-4.990E-06,0.060
-4.980E-06,0.060
-4.970E-06,0.060
-4.960E-06,0.080
-4.950E-06,0.080
-4.940E-06,0.040
-4.930E-06,0.060
-4.920E-06,0.060
-4.910E-06,0.060
-4.900E-06,0.060
-4.890E-06,0.040
-4.880E-06,0.020
-4.870E-06,0.020
-4.860E-06,0.060
-4.850E-06,0.040
-4.840E-06,0.060
-4.830E-06,0.060
-4.820E-06,0.060
-4.810E-06,0.040
-4.800E-06,0.060
-4.790E-06,0.040
-4.780E-06,0.040
-4.770E-06,0.040
-4.760E-06,0.060
-4.750E-06,0.060
-4.740E-06,0.060
-4.730E-06,0.040
-4.720E-06,0.040
-4.710E-06,0.040
-4.700E-06,0.040
-4.690E-06,0.060
-4.680E-06,0.060
-4.670E-06,0.040
-4.660E-06,0.040
-4.650E-06,0.040
-4.640E-06,0.060
-4.630E-06,0.040
-4.620E-06,0.060
-4.610E-06,0.040
-4.600E-06,0.060
-4.590E-06,0.060
-4.580E-06,0.020
-4.570E-06,0.060
-4.560E-06,0.060
-4.550E-06,0.080
-4.540E-06,0.060
-4.530E-06,0.060
-4.520E-06,0.040
-4.510E-06,0.060
-4.500E-06,0.040
-4.490E-06,0.060
-4.480E-06,0.080
-4.470E-06,0.080
-4.460E-06,0.060
-4.450E-06,0.060
-4.440E-06,0.020
-4.430E-06,0.020
-4.420E-06,0.060
-4.410E-06,0.040
-4.400E-06,0.060
-4.390E-06,0.040
-4.380E-06,0.020
-4.370E-06,0.040
-4.360E-06,0.060
-4.350E-06,0.080
-4.340E-06,0.040
-4.330E-06,0.080
-4.320E-06,0.060
-4.310E-06,0.080
-4.300E-06,0.060
-4.290E-06,0.040
-4.280E-06,0.040
-4.270E-06,0.040
-4.260E-06,0.080
-4.250E-06,0.060
-4.240E-06,0.060
-4.230E-06,0.040
-4.220E-06,0.040
-4.210E-06,-0.120
-4.200E-06,-0.600
-4.190E-06,-1.420
-4.180E-06,-2.300
-4.170E-06,-3.040
-4.160E-06,-2.880
-4.150E-06,-2.160
-4.140E-06,-1.300
-4.130E-06,-1.020
-4.120E-06,0.900
-4.110E-06,1.820
-4.100E-06,1.800
-4.090E-06,1.820
-4.080E-06,1.820
-4.070E-06,1.840
-4.060E-06,1.840
-4.050E-06,1.820
-4.040E-06,1.800
-4.030E-06,0.380
-4.020E-06,-0.160
-4.010E-06,-0.580
-4.000E-06,-1.040
-3.990E-06,-0.840
-3.980E-06,-0.500
-3.970E-06,-0.340
-3.960E-06,-0.320
-3.950E-06,-0.160
-3.940E-06,-0.360
-3.930E-06,-0.900
-3.920E-06,-1.100
-3.910E-06,-1.540
-3.900E-06,-1.780
-3.890E-06,-1.780
-3.880E-06,-1.680
-3.870E-06,-1.360
-3.860E-06,-0.860
-3.850E-06,-0.200
-3.840E-06,0.420
-3.830E-06,1.060
-3.820E-06,1.520
-3.810E-06,1.720
-3.800E-06,1.760
-3.790E-06,1.540
-3.780E-06,1.200
-3.770E-06,0.720
-3.760E-06,0.220
-3.750E-06,-0.260
-3.740E-06,-0.640
-3.730E-06,-0.920
-3.720E-06,-1.020
-3.710E-06,-0.980
-3.700E-06,-0.900
-3.690E-06,-0.680
-3.680E-06,-0.560
-3.670E-06,-0.420
-3.660E-06,-0.220
-3.650E-06,-0.060
-3.640E-06,0.120
-3.630E-06,0.280
-3.620E-06,0.420
-3.610E-06,0.600
-3.600E-06,0.720
-3.590E-06,0.820
-3.580E-06,0.840
-3.570E-06,0.880
-3.560E-06,0.940
-3.550E-06,0.840
-3.540E-06,0.720
-3.530E-06,0.540
-3.520E-06,0.340
-3.510E-06,0.060
-3.500E-06,-0.080
-3.490E-06,-0.360
-3.480E-06,-0.460
-3.470E-06,-0.640
-3.460E-06,-0.720
-3.450E-06,-0.780
-3.440E-06,-0.800
-3.430E-06,-0.780
-3.420E-06,-0.740
-3.410E-06,-0.600
-3.400E-06,-0.500
-3.390E-06,-0.280
-3.380E-06,-0.100
-3.370E-06,0.160
-3.360E-06,0.400
-3.350E-06,0.520
-3.340E-06,0.640
-3.330E-06,0.740
-3.320E-06,0.740
-3.310E-06,0.640
-3.300E-06,0.520
-3.290E-06,0.380
-3.280E-06,0.140
-3.270E-06,0.000
-3.260E-06,-0.180
-3.250E-06,-0.340
-3.240E-06,-0.440
-3.230E-06,-0.460
-3.220E-06,-0.500
-3.210E-06,-0.460
-3.200E-06,-0.420
-3.190E-06,-0.380
-3.180E-06,-0.320
-3.170E-06,-0.300
-3.160E-06,-0.240
-3.150E-06,-0.180
-3.140E-06,-0.120
-3.130E-06,-0.060
-3.120E-06,0.000
-3.110E-06,0.080
-3.100E-06,0.120
-3.090E-06,0.200
-3.080E-06,0.240
-3.070E-06,0.240
-3.060E-06,0.300
-3.050E-06,0.320
-3.040E-06,0.280
-3.030E-06,0.280
-3.020E-06,0.220
-3.010E-06,0.160
-3.000E-06,0.080
-2.990E-06,0.020
-2.980E-06,-0.020
-2.970E-06,-0.080
-2.960E-06,-0.120
-2.950E-06,-0.180
-2.940E-06,-0.140
-2.930E-06,-0.140
-2.920E-06,-0.120
-2.910E-06,-0.120
-2.900E-06,-0.120
-2.890E-06,-0.120
-2.880E-06,-0.120
-2.870E-06,-0.140
-2.860E-06,-0.140
-2.850E-06,-0.160
-2.840E-06,-0.140
-2.830E-06,-0.140
-2.820E-06,-0.100
-2.810E-06,-0.080
-2.800E-06,-0.040
-2.790E-06,-0.040
-2.780E-06,-0.040
-2.770E-06,0.000
-2.760E-06,-0.080
-2.750E-06,-0.100
-2.740E-06,-0.140
-2.730E-06,-0.140
-2.720E-06,-0.200
-2.710E-06,-0.200
-2.700E-06,-0.200
-2.690E-06,-0.260
-2.680E-06,-0.240
-2.670E-06,-0.260
-2.660E-06,-0.260
-2.650E-06,-0.300
-2.640E-06,-0.240
-2.630E-06,-0.260
-2.620E-06,-0.260
-2.610E-06,-0.260
-2.600E-06,-0.300
-2.590E-06,-0.300
-2.580E-06,-0.320
-2.570E-06,-0.360
-2.560E-06,-0.300
-2.550E-06,-0.340
-2.540E-06,-0.300
-2.530E-06,-0.300
-2.520E-06,-0.240
-2.510E-06,-0.240
-2.500E-06,-0.280
-2.490E-06,-0.260
-2.480E-06,-0.300
-2.470E-06,-0.360
-2.460E-06,-0.440
-2.450E-06,-0.500
-2.440E-06,-0.540
-2.430E-06,-0.520
-2.420E-06,-0.580
-2.410E-06,-0.500
-2.400E-06,-0.240
-2.390E-06,0.120
-2.380E-06,0.440
-2.370E-06,0.740
-2.360E-06,0.780
-2.350E-06,0.480
-2.340E-06,0.000
-2.330E-06,-0.640
-2.320E-06,-1.280
-2.310E-06,-1.920
-2.300E-06,-2.320
-2.290E-06,-2.620
-2.280E-06,-2.700
-2.270E-06,-2.600
-2.260E-06,-2.360
-2.250E-06,-1.960
-2.240E-06,-1.600
-2.230E-06,-1.260
-2.220E-06,-0.960
-2.210E-06,-0.780
-2.200E-06,-0.620
-2.190E-06,-0.500
-2.180E-06,-0.380
-2.170E-06,-0.280
-2.160E-06,-0.120
-2.150E-06,0.000
-2.140E-06,0.160
-2.130E-06,0.300
-2.120E-06,0.420
-2.110E-06,0.460
-2.100E-06,0.440
-2.090E-06,0.340
-2.080E-06,0.160
-2.070E-06,-0.040
-2.060E-06,-0.280
-2.050E-06,-0.560
-2.040E-06,-0.840
-2.030E-06,-1.060
-2.020E-06,-1.260
-2.010E-06,-1.340
-2.000E-06,-1.360
-1.990E-06,-1.280
-1.980E-06,-1.160
-1.970E-06,-0.920
-1.960E-06,-0.640
-1.950E-06,-0.360
-1.940E-06,-0.080
-1.930E-06,0.100
-1.920E-06,0.240
-1.910E-06,0.260
-1.900E-06,0.260
-1.890E-06,0.180
-1.880E-06,0.020
-1.870E-06,-0.140
-1.860E-06,-0.360
-1.850E-06,-0.600
-1.840E-06,-0.740
-1.830E-06,-0.940
-1.820E-06,-1.040
-1.810E-06,-1.100
-1.800E-06,-1.140
-1.790E-06,-1.140
-1.780E-06,-1.100
-1.770E-06,-1.080
-1.760E-06,-1.060
-1.750E-06,-0.980
-1.740E-06,-0.980
-1.730E-06,-0.940
-1.720E-06,-0.900
-1.710E-06,-0.840
-1.700E-06,-0.760
-1.690E-06,-0.640
-1.680E-06,-0.540
-1.670E-06,-0.380
-1.660E-06,-0.280
-1.650E-06,-0.140
-1.640E-06,-0.120
-1.630E-06,-0.080
-1.620E-06,-0.140
-1.610E-06,-0.180
-1.600E-06,-0.340
-1.590E-06,-0.460
-1.580E-06,-0.620
-1.570E-06,-0.780
-1.560E-06,-0.860
-1.550E-06,-0.940
-1.540E-06,-1.000
-1.530E-06,-1.040
-1.520E-06,-0.980
-1.510E-06,-0.920
-1.500E-06,-0.820
-1.490E-06,-0.720
-1.480E-06,-0.600
-1.470E-06,-0.500
-1.460E-06,-0.400
-1.450E-06,-0.380
-1.440E-06,-0.340
-1.430E-06,-0.320
-1.420E-06,-0.300
-1.410E-06,-0.340
-1.400E-06,-0.360
-1.390E-06,-0.380
-1.380E-06,-0.380
-1.370E-06,-0.380
-1.360E-06,-0.380
-1.350E-06,-0.400
-1.340E-06,-0.420
-1.330E-06,-0.440
-1.320E-06,-0.440
-1.310E-06,-0.500
-1.300E-06,-0.480
-1.290E-06,-0.500
-1.280E-06,-0.580
-1.270E-06,-0.560
-1.260E-06,-0.600
-1.250E-06,-0.540
-1.240E-06,-0.540
-1.230E-06,-0.480
-1.220E-06,-0.420
-1.210E-06,-0.340
-1.200E-06,-0.280
-1.190E-06,-0.220
-1.180E-06,-0.140
-1.170E-06,-0.120
-1.160E-06,-0.100
-1.150E-06,-0.060
-1.140E-06,-0.080
-1.130E-06,-0.080
-1.120E-06,-0.140
-1.110E-06,-0.140
-1.100E-06,-0.180
-1.090E-06,-0.160
-1.080E-06,-0.160
-1.070E-06,-0.140
-1.060E-06,-0.120
-1.050E-06,-0.060
-1.040E-06,-0.040
-1.030E-06,0.000
-1.020E-06,0.040
-1.010E-06,0.060
-1.000E-06,0.080
-9.900E-07,0.080
-9.800E-07,0.080
-9.700E-07,0.140
-9.600E-07,0.180
-9.500E-07,0.200
-9.400E-07,0.240
-9.300E-07,0.300
-9.200E-07,0.300
-9.100E-07,0.320
-9.000E-07,0.380
-8.900E-07,0.340
-8.800E-07,0.360
-8.700E-07,0.340
-8.600E-07,0.320
-8.500E-07,0.300
-8.400E-07,0.280
-8.300E-07,0.260
-8.200E-07,0.180
-8.100E-07,0.160
-8.000E-07,0.100
-7.900E-07,0.080
-7.800E-07,0.060
-7.700E-07,0.080
-7.600E-07,0.060
-7.500E-07,0.040
-7.400E-07,0.080
-7.300E-07,0.060
-7.200E-07,0.060
-7.100E-07,0.080
-7.000E-07,0.120
-6.900E-07,0.120
-6.800E-07,0.160
-6.700E-07,0.160
-6.600E-07,0.120
-6.500E-07,0.140
-6.400E-07,0.180
-6.300E-07,0.180
-6.200E-07,0.180
-6.100E-07,0.160
-6.000E-07,0.180
-5.900E-07,0.200
-5.800E-07,0.160
-5.700E-07,0.180
-5.600E-07,0.200
-5.500E-07,0.160
-5.400E-07,0.160
-5.300E-07,0.160
-5.200E-07,0.160
-5.100E-07,0.160
-5.000E-07,0.100
-4.900E-07,0.100
-4.800E-07,0.100
-4.700E-07,0.120
-4.600E-07,0.100
-4.500E-07,0.100
-4.400E-07,0.140
-4.300E-07,0.080
-4.200E-07,0.100
-4.100E-07,0.100
-4.000E-07,0.140
-3.900E-07,0.120
-3.800E-07,0.140
-3.700E-07,0.080
-3.600E-07,0.080
-3.500E-07,0.100
-3.400E-07,0.100
-3.300E-07,0.080
-3.200E-07,0.100
-3.100E-07,0.120
-3.000E-07,0.060
-2.900E-07,0.080
-2.800E-07,0.100
-2.700E-07,0.100
-2.600E-07,0.100
-2.500E-07,0.100
-2.400E-07,0.140
-2.300E-07,0.100
-2.200E-07,0.140
-2.100E-07,0.180
-2.000E-07,0.180
-1.900E-07,0.180
-1.800E-07,0.160
-1.700E-07,0.200
-1.600E-07,0.200
-1.500E-07,0.260
-1.400E-07,0.260
-1.300E-07,0.260
-1.200E-07,0.300
-1.100E-07,0.300
-1.000E-07,0.300
-9.000E-08,0.300
-8.000E-08,0.300
-7.000E-08,0.280
-6.000E-08,0.260
-5.000E-08,0.240
-4.000E-08,0.220
-3.000E-08,0.180
-2.000E-08,0.160
-1.000E-08,0.140
0.000E+00,0.120
1.000E-08,0.140
2.000E-08,0.140
3.000E-08,0.160
4.000E-08,0.200
5.000E-08,0.220
6.000E-08,0.220
7.000E-08,0.260
8.000E-08,0.300
9.000E-08,0.280
1.000E-07,0.300
1.100E-07,0.280
1.200E-07,0.300
1.300E-07,0.240
1.400E-07,0.240
1.500E-07,0.220
1.600E-07,0.160
1.700E-07,0.160
1.800E-07,0.140
1.900E-07,0.100
2.000E-07,0.080
2.100E-07,0.080
2.200E-07,0.080
2.300E-07,0.060
2.400E-07,0.080
2.500E-07,0.060
2.600E-07,0.040
2.700E-07,0.000
2.800E-07,-0.040
2.900E-07,-0.060
3.000E-07,-0.080
3.100E-07,-0.080
3.200E-07,-0.100
3.300E-07,-0.080
3.400E-07,-0.100
3.500E-07,-0.120
3.600E-07,-0.160
3.700E-07,-0.160
3.800E-07,-0.180
3.900E-07,-0.180
4.000E-07,-0.180
4.100E-07,-0.200
4.200E-07,-0.240
4.300E-07,-0.240
4.400E-07,-0.280
4.500E-07,-0.280
4.600E-07,-0.320
4.700E-07,-0.340
4.800E-07,-0.360
4.900E-07,-0.380
5.000E-07,-0.380
5.100E-07,-0.400
5.200E-07,-0.400
5.300E-07,-0.400
5.400E-07,-0.360
5.500E-07,-0.340
5.600E-07,-0.300
5.700E-07,-0.260
5.800E-07,-0.200
5.900E-07,-0.140
6.000E-07,-0.080
6.100E-07,-0.040
6.200E-07,0.020
6.300E-07,0.080
6.400E-07,0.100
6.500E-07,0.160
6.600E-07,0.160
6.700E-07,0.180
6.800E-07,0.240
6.900E-07,0.240
7.000E-07,0.240
7.100E-07,0.240
7.200E-07,0.260
7.300E-07,0.240
7.400E-07,0.260
7.500E-07,0.260
7.600E-07,0.220
7.700E-07,0.160
7.800E-07,0.100
7.900E-07,0.080
8.000E-07,0.020
8.100E-07,-0.020
8.200E-07,-0.060
8.300E-07,-0.060
8.400E-07,-0.080
8.500E-07,-0.100
8.600E-07,-0.060
8.700E-07,-0.040
8.800E-07,-0.040
8.900E-07,0.000
9.000E-07,0.080
9.100E-07,0.060
9.200E-07,0.140
9.300E-07,0.160
9.400E-07,0.160
9.500E-07,0.160
9.600E-07,0.200
9.700E-07,0.180
9.800E-07,0.120
9.900E-07,0.120
1.000E-06,0.100
1.010E-06,0.060
1.020E-06,-0.020
1.030E-06,-0.040
1.040E-06,-0.040
1.050E-06,-0.060
1.060E-06,-0.020
1.070E-06,-0.020
1.080E-06,0.000
1.090E-06,0.060
1.100E-06,0.080
1.110E-06,0.120
1.120E-06,0.160
1.130E-06,0.180
1.140E-06,0.200
1.150E-06,0.200
1.160E-06,0.200
1.170E-06,0.180
1.180E-06,0.180
1.190E-06,0.200
1.200E-06,0.200
1.210E-06,0.220
1.220E-06,0.260
1.230E-06,0.320
1.240E-06,0.320
1.250E-06,0.400
1.260E-06,0.420
1.270E-06,0.500
1.280E-06,0.500
1.290E-06,0.440
1.300E-06,0.440
1.310E-06,0.380
1.320E-06,0.320
1.330E-06,0.220
1.340E-06,0.180
1.350E-06,0.100
1.360E-06,0.100
1.370E-06,0.080
1.380E-06,0.080
1.390E-06,0.120
1.400E-06,0.160
1.410E-06,0.180
1.420E-06,0.200
1.430E-06,0.220
1.440E-06,0.220
1.450E-06,0.200
1.460E-06,0.160
1.470E-06,0.100
1.480E-06,0.060
1.490E-06,0.000
1.500E-06,-0.060
1.510E-06,-0.100
1.520E-06,-0.140
1.530E-06,-0.200
1.540E-06,-0.220
1.550E-06,-0.260
1.560E-06,-0.300
1.570E-06,-0.340
1.580E-06,-0.380
1.590E-06,-0.400
1.600E-06,-0.420
1.610E-06,-0.460
1.620E-06,-0.480
1.630E-06,-0.440
1.640E-06,-0.460
1.650E-06,-0.440
1.660E-06,-0.420
1.670E-06,-0.380
1.680E-06,-0.320
1.690E-06,-0.280
1.700E-06,-0.240
1.710E-06,-0.180
1.720E-06,-0.180
1.730E-06,-0.160
1.740E-06,-0.120
1.750E-06,-0.100
1.760E-06,-0.100
1.770E-06,-0.100
1.780E-06,-0.120
1.790E-06,-0.080
1.800E-06,-0.140
1.810E-06,-0.120
1.820E-06,-0.160
1.830E-06,-0.160
1.840E-06,-0.160
1.850E-06,-0.200
1.860E-06,-0.180
1.870E-06,-0.140
1.880E-06,-0.120
1.890E-06,-0.100
1.900E-06,-0.080
1.910E-06,-0.040
1.920E-06,-0.020
1.930E-06,0.040
1.940E-06,0.080
1.950E-06,0.080
1.960E-06,0.140
1.970E-06,0.180
1.980E-06,0.240
1.990E-06,0.300
2.000E-06,0.300
2.010E-06,0.380
2.020E-06,0.420
2.030E-06,0.420
2.040E-06,0.440
2.050E-06,0.460
2.060E-06,0.480
2.070E-06,0.500
2.080E-06,0.440
2.090E-06,0.460
2.100E-06,0.500
2.110E-06,0.480
2.120E-06,0.500
2.130E-06,0.520
2.140E-06,0.540
2.150E-06,0.500
2.160E-06,0.480
2.170E-06,0.460
2.180E-06,0.480
2.190E-06,0.500
2.200E-06,0.500
2.210E-06,0.500
2.220E-06,0.540
2.230E-06,0.560
2.240E-06,0.560
2.250E-06,0.560
2.260E-06,0.520
2.270E-06,0.480
2.280E-06,0.440
2.290E-06,0.420
2.300E-06,0.340
2.310E-06,0.240
2.320E-06,0.220
2.330E-06,0.120
2.340E-06,0.040
2.350E-06,0.000
2.360E-06,-0.040
2.370E-06,-0.140
2.380E-06,-0.120
2.390E-06,-0.180
2.400E-06,-0.180
2.410E-06,-0.200
2.420E-06,-0.180
2.430E-06,-0.140
2.440E-06,-0.120
2.450E-06,-0.100
2.460E-06,-0.060
2.470E-06,-0.040
2.480E-06,-0.060
2.490E-06,-0.100
2.500E-06,-0.140
2.510E-06,-0.160
2.520E-06,-0.240
2.530E-06,-0.260
2.540E-06,-0.260
2.550E-06,-0.260
2.560E-06,-0.280
2.570E-06,-0.260
2.580E-06,-0.260
2.590E-06,-0.260
2.600E-06,-0.280
2.610E-06,-0.280
2.620E-06,-0.280
2.630E-06,-0.280
2.640E-06,-0.280
2.650E-06,-0.300
2.660E-06,-0.260
2.670E-06,-0.260
2.680E-06,-0.240
2.690E-06,-0.180
2.700E-06,-0.140
2.710E-06,-0.120
2.720E-06,-0.040
2.730E-06,0.000
2.740E-06,0.000
2.750E-06,0.020
2.760E-06,0.080
2.770E-06,0.140
2.780E-06,0.160
2.790E-06,0.200
2.800E-06,0.240
2.810E-06,0.260
2.820E-06,0.240
2.830E-06,0.280
2.840E-06,0.240
2.850E-06,0.220
2.860E-06,0.220
2.870E-06,0.180
2.880E-06,0.180
2.890E-06,0.180
2.900E-06,0.180
2.910E-06,0.180
2.920E-06,0.220
2.930E-06,0.200
2.940E-06,0.220
2.950E-06,0.220
2.960E-06,0.240
2.970E-06,0.240
2.980E-06,0.220
2.990E-06,0.220
3.000E-06,0.220
3.010E-06,0.200
3.020E-06,0.200
3.030E-06,0.200
3.040E-06,0.220
3.050E-06,0.240
3.060E-06,0.260
3.070E-06,0.200
3.080E-06,0.220
3.090E-06,0.160
3.100E-06,0.160
3.110E-06,0.140
3.120E-06,0.160
3.130E-06,0.120
3.140E-06,0.100
3.150E-06,0.060
3.160E-06,0.020
3.170E-06,0.000
3.180E-06,-0.020
3.190E-06,-0.060
3.200E-06,-0.080
3.210E-06,-0.100
3.220E-06,-0.100
3.230E-06,-0.100
3.240E-06,-0.120
3.250E-06,-0.100
3.260E-06,-0.080
3.270E-06,-0.100
3.280E-06,-0.080
3.290E-06,-0.060
3.300E-06,-0.040
3.310E-06,-0.020
3.320E-06,-0.020
3.330E-06,0.000
3.340E-06,0.000
