mediciones/8-28/-9/WaveData6659.csv

#timebase=2000000(ps)
,#voltbase=500000(mv/100)
#size=4000
-8.350E-06,0.080
-8.340E-06,0.180
-8.330E-06,0.080
-8.320E-06,0.100
-8.310E-06,-0.140
-8.300E-06,0.060
-8.290E-06,-0.180
-8.280E-06,-0.180
-8.270E-06,-0.560
-8.260E-06,-0.480
-8.250E-06,-0.100
-8.240E-06,-0.880
-8.230E-06,-0.200
-8.220E-06,-0.280
-8.210E-06,-0.200
-8.200E-06,0.040
-8.190E-06,0.060
-8.180E-06,0.420
-8.170E-06,-0.280
-8.160E-06,-0.480
-8.150E-06,-0.380
-8.140E-06,-0.520
-8.130E-06,-0.600
-8.120E-06,-0.380
-8.110E-06,-0.260
-8.100E-06,-0.140
-8.090E-06,-0.080
-8.080E-06,0.000
-8.070E-06,0.160
-8.060E-06,0.440
-8.050E-06,0.440
-8.040E-06,0.600
-8.030E-06,0.560
-8.020E-06,0.520
-8.010E-06,0.420
-8.000E-06,0.180
-7.990E-06,0.180
-7.980E-06,0.200
-7.970E-06,-0.080
-7.960E-06,-0.220
-7.950E-06,-0.280
-7.940E-06,-0.180
-7.930E-06,-0.160
-7.920E-06,-0.140
-7.910E-06,0.060
-7.900E-06,0.000
-7.890E-06,0.000
-7.880E-06,-0.140
-7.870E-06,-0.120
-7.860E-06,-0.080
-7.850E-06,-0.020
-7.840E-06,-0.100
-7.830E-06,-0.180
-7.820E-06,-0.180
-7.810E-06,-0.280
-7.800E-06,-0.280
-7.790E-06,-0.220
-7.780E-06,-0.240
-7.770E-06,-0.080
-7.760E-06,-0.300
-7.750E-06,-0.260
-7.740E-06,-0.420
-7.730E-06,-0.440
-7.720E-06,-0.440
-7.710E-06,-0.480
-7.700E-06,-0.460
-7.690E-06,-0.320
-7.680E-06,-0.380
-7.670E-06,-0.440
-7.660E-06,-0.340
-7.650E-06,-0.220
-7.640E-06,-0.240
-7.630E-06,-0.120
-7.620E-06,-0.060
-7.610E-06,-0.020
-7.600E-06,0.040
-7.590E-06,0.080
-7.580E-06,0.100
-7.570E-06,0.140
-7.560E-06,-0.040
-7.550E-06,0.020
-7.540E-06,0.060
-7.530E-06,0.080
-7.520E-06,0.160
-7.510E-06,0.060
-7.500E-06,0.080
-7.490E-06,0.160
-7.480E-06,-0.020
-7.470E-06,-0.020
-7.460E-06,-0.080
-7.450E-06,-0.120
-7.440E-06,-0.100
-7.430E-06,-0.140
-7.420E-06,-0.060
-7.410E-06,-0.060
-7.400E-06,-0.080
-7.390E-06,-0.160
-7.380E-06,-0.160
-7.370E-06,-0.140
-7.360E-06,-0.140
-7.350E-06,-0.120
-7.340E-06,-0.020
-7.330E-06,0.000
-7.320E-06,-0.020
-7.310E-06,0.000
-7.300E-06,0.000
-7.290E-06,0.000
-7.280E-06,-0.020
-7.270E-06,0.000
-7.260E-06,0.000
-7.250E-06,0.000
-7.240E-06,0.000
-7.230E-06,-0.020
-7.220E-06,-0.060
-7.210E-06,-0.060
-7.200E-06,-0.100
-7.190E-06,-0.160
-7.180E-06,-0.240
-7.170E-06,-0.220
-7.160E-06,-0.200
-7.150E-06,-0.260
-7.140E-06,-0.160
-7.130E-06,-0.200
-7.120E-06,-0.220
-7.110E-06,-0.220
-7.100E-06,-0.200
-7.090E-06,-0.240
-7.080E-06,-0.180
-7.070E-06,-0.140
-7.060E-06,-0.140
-7.050E-06,-0.080
-7.040E-06,-0.100
-7.030E-06,-0.100
-7.020E-06,-0.160
-7.010E-06,-0.080
-7.000E-06,-0.240
-6.990E-06,-0.260
-6.980E-06,-0.320
-6.970E-06,-0.220
-6.960E-06,-0.420
-6.950E-06,-0.460
-6.940E-06,-0.280
-6.930E-06,0.540
-6.920E-06,0.080
-6.910E-06,-0.100
-6.900E-06,-0.400
-6.890E-06,-0.040
-6.880E-06,-0.420
-6.870E-06,-0.400
-6.860E-06,-0.180
-6.850E-06,0.400
-6.840E-06,0.460
-6.830E-06,0.040
-6.820E-06,-0.940
-6.810E-06,-0.860
-6.800E-06,-0.640
-6.790E-06,-0.020
-6.780E-06,0.040
-6.770E-06,0.840
-6.760E-06,0.060
-6.750E-06,-0.480
-6.740E-06,-1.120
-6.730E-06,-1.100
-6.720E-06,-0.500
-6.710E-06,-0.440
-6.700E-06,-0.440
-6.690E-06,-0.040
-6.680E-06,-0.260
-6.670E-06,-0.380
-6.660E-06,-0.340
-6.650E-06,-0.140
-6.640E-06,0.200
-6.630E-06,0.400
-6.620E-06,0.580
-6.610E-06,0.700
-6.600E-06,0.840
-6.590E-06,0.960
-6.580E-06,0.880
-6.570E-06,0.800
-6.560E-06,0.920
-6.550E-06,0.740
-6.540E-06,0.380
-6.530E-06,0.100
-6.520E-06,-0.100
-6.510E-06,-0.280
-6.500E-06,-0.340
-6.490E-06,-0.520
-6.480E-06,-0.560
-6.470E-06,-0.420
-6.460E-06,0.020
-6.450E-06,-0.020
-6.440E-06,0.680
-6.430E-06,0.720
-6.420E-06,0.260
-6.410E-06,0.120
-6.400E-06,-1.000
-6.390E-06,-1.020
-6.380E-06,-1.600
-6.370E-06,-0.860
-6.360E-06,0.040
-6.350E-06,-0.100
-6.340E-06,0.200
-6.330E-06,-0.840
-6.320E-06,-0.420
-6.310E-06,-1.500
-6.300E-06,-1.600
-6.290E-06,-1.240
-6.280E-06,-1.040
-6.270E-06,-1.020
-6.260E-06,-0.960
-6.250E-06,-1.040
-6.240E-06,-0.800
-6.230E-06,-0.540
-6.220E-06,-0.440
-6.210E-06,-0.140
-6.200E-06,0.400
-6.190E-06,0.840
-6.180E-06,1.100
-6.170E-06,1.260
-6.160E-06,1.600
-6.150E-06,1.500
-6.140E-06,1.240
-6.130E-06,1.140
-6.120E-06,0.960
-6.110E-06,0.860
-6.100E-06,0.720
-6.090E-06,0.420
-6.080E-06,0.140
-6.070E-06,-0.040
-6.060E-06,-0.440
-6.050E-06,-0.460
-6.040E-06,-0.360
-6.030E-06,0.000
-6.020E-06,0.220
-6.010E-06,0.280
-6.000E-06,0.440
-5.990E-06,0.220
-5.980E-06,-0.080
-5.970E-06,-0.440
-5.960E-06,-0.600
-5.950E-06,-0.580
-5.940E-06,-0.460
-5.930E-06,-0.440
-5.920E-06,-0.320
-5.910E-06,-0.220
-5.900E-06,-0.300
-5.890E-06,-0.300
-5.880E-06,-0.700
-5.870E-06,-0.500
-5.860E-06,-0.760
-5.850E-06,-0.520
-5.840E-06,-0.460
-5.830E-06,-0.140
-5.820E-06,-0.040
-5.810E-06,-0.120
-5.800E-06,-0.100
-5.790E-06,-0.520
-5.780E-06,-0.740
-5.770E-06,-0.860
-5.760E-06,-0.680
-5.750E-06,-0.520
-5.740E-06,-0.180
-5.730E-06,-0.200
-5.720E-06,-0.220
-5.710E-06,-0.200
-5.700E-06,-0.640
-5.690E-06,-0.520
-5.680E-06,0.840
-5.670E-06,0.300
-5.660E-06,0.980
-5.650E-06,0.660
-5.640E-06,0.040
-5.630E-06,-0.540
-5.620E-06,-1.000
-5.610E-06,-0.920
-5.600E-06,-0.340
-5.590E-06,-0.260
-5.580E-06,1.340
-5.570E-06,-0.020
-5.560E-06,0.220
-5.550E-06,-0.160
-5.540E-06,-0.180
-5.530E-06,-0.840
-5.520E-06,-0.460
-5.510E-06,-0.320
-5.500E-06,0.020
-5.490E-06,-0.360
-5.480E-06,-0.340
-5.470E-06,-0.320
-5.460E-06,-0.380
-5.450E-06,-0.200
-5.440E-06,0.060
-5.430E-06,0.140
-5.420E-06,0.520
-5.410E-06,0.440
-5.400E-06,0.380
-5.390E-06,0.420
-5.380E-06,0.400
-5.370E-06,0.680
-5.360E-06,0.740
-5.350E-06,0.880
-5.340E-06,1.000
-5.330E-06,0.900
-5.320E-06,0.360
-5.310E-06,-0.020
-5.300E-06,-0.480
-5.290E-06,-0.600
-5.280E-06,-0.760
-5.270E-06,-0.820
-5.260E-06,-0.720
-5.250E-06,-0.440
-5.240E-06,-0.280
-5.230E-06,-0.320
-5.220E-06,0.020
-5.210E-06,0.740
-5.200E-06,1.020
-5.190E-06,0.760
-5.180E-06,0.400
-5.170E-06,-1.300
-5.160E-06,-0.860
-5.150E-06,-1.360
-5.140E-06,-1.020
-5.130E-06,-0.240
-5.120E-06,-0.720
-5.110E-06,-0.560
-5.100E-06,-0.180
-5.090E-06,-0.020
-5.080E-06,0.040
-5.070E-06,0.260
-5.060E-06,-0.780
-5.050E-06,-0.840
-5.040E-06,-1.500
-5.030E-06,-1.580
-5.020E-06,-1.200
-5.010E-06,-1.020
-5.000E-06,-0.200
-4.990E-06,-0.220
-4.980E-06,-0.180
-4.970E-06,0.100
-4.960E-06,0.540
-4.950E-06,0.480
-4.940E-06,0.560
-4.930E-06,0.080
-4.920E-06,1.000
-4.910E-06,-0.160
-4.900E-06,0.920
-4.890E-06,0.640
-4.880E-06,1.320
-4.870E-06,-0.020
-4.860E-06,0.340
-4.850E-06,-0.060
-4.840E-06,0.060
-4.830E-06,0.040
-4.820E-06,0.120
-4.810E-06,-0.180
-4.800E-06,-0.020
-4.790E-06,-0.500
-4.780E-06,-0.460
-4.770E-06,-0.420
-4.760E-06,-0.440
-4.750E-06,-0.460
-4.740E-06,-0.740
-4.730E-06,-0.720
-4.720E-06,-0.140
-4.710E-06,0.620
-4.700E-06,0.940
-4.690E-06,1.300
-4.680E-06,0.640
-4.670E-06,0.000
-4.660E-06,-0.860
-4.650E-06,-1.420
-4.640E-06,-1.180
-4.630E-06,-0.680
-4.620E-06,-0.140
-4.610E-06,0.420
-4.600E-06,0.340
-4.590E-06,0.020
-4.580E-06,-0.240
-4.570E-06,-0.980
-4.560E-06,-0.840
-4.550E-06,-0.900
-4.540E-06,1.100
-4.530E-06,0.740
-4.520E-06,1.440
-4.510E-06,0.220
-4.500E-06,-0.440
-4.490E-06,-1.280
-4.480E-06,-1.620
-4.470E-06,-1.180
-4.460E-06,-0.560
-4.450E-06,-0.420
-4.440E-06,-0.300
-4.430E-06,-0.160
-4.420E-06,-0.460
-4.410E-06,-0.080
-4.400E-06,-0.600
-4.390E-06,-0.600
-4.380E-06,-0.180
-4.370E-06,-0.320
-4.360E-06,-0.240
-4.350E-06,-0.180
-4.340E-06,-0.200
-4.330E-06,-0.060
-4.320E-06,-0.120
-4.310E-06,0.080
-4.300E-06,0.480
-4.290E-06,0.760
-4.280E-06,0.820
-4.270E-06,0.900
-4.260E-06,0.800
-4.250E-06,0.760
-4.240E-06,0.700
-4.230E-06,0.700
-4.220E-06,0.740
-4.210E-06,0.700
-4.200E-06,0.660
-4.190E-06,0.580
-4.180E-06,0.580
-4.170E-06,0.580
-4.160E-06,0.600
-4.150E-06,0.660
-4.140E-06,0.620
-4.130E-06,0.640
-4.120E-06,0.600
-4.110E-06,0.580
-4.100E-06,0.240
-4.090E-06,0.020
-4.080E-06,-0.300
-4.070E-06,-0.500
-4.060E-06,-0.680
-4.050E-06,-0.840
-4.040E-06,-0.860
-4.030E-06,-0.860
-4.020E-06,-0.980
-4.010E-06,-0.900
-4.000E-06,-0.820
-3.990E-06,-0.720
-3.980E-06,-0.680
-3.970E-06,-0.680
-3.960E-06,-0.620
-3.950E-06,-0.680
-3.940E-06,-0.760
-3.930E-06,-0.720
-3.920E-06,-0.700
-3.910E-06,-0.720
-3.900E-06,-0.780
-3.890E-06,-0.780
-3.880E-06,-0.820
-3.870E-06,-0.820
-3.860E-06,-0.780
-3.850E-06,-0.600
-3.840E-06,-0.360
-3.830E-06,-0.140
-3.820E-06,0.000
-3.810E-06,0.340
-3.800E-06,0.580
-3.790E-06,0.920
-3.780E-06,1.320
-3.770E-06,1.400
-3.760E-06,1.680
-3.750E-06,1.480
-3.740E-06,1.580
-3.730E-06,0.940
-3.720E-06,0.420
-3.710E-06,-0.240
-3.700E-06,-0.980
-3.690E-06,-1.620
-3.680E-06,-1.860
-3.670E-06,-2.040
-3.660E-06,-2.080
-3.650E-06,-2.120
-3.640E-06,-2.040
-3.630E-06,-1.740
-3.620E-06,-0.940
-3.610E-06,-0.120
-3.600E-06,0.740
-3.590E-06,1.300
-3.580E-06,1.360
-3.570E-06,1.260
-3.560E-06,0.820
-3.550E-06,0.460
-3.540E-06,-0.060
-3.530E-06,-0.600
-3.520E-06,-0.980
-3.510E-06,-1.240
-3.500E-06,-1.400
-3.490E-06,-1.500
-3.480E-06,-1.500
-3.470E-06,-1.580
-3.460E-06,-1.560
-3.450E-06,-1.640
-3.440E-06,-1.640
-3.430E-06,-1.460
-3.420E-06,-1.360
-3.410E-06,-1.340
-3.400E-06,-1.180
-3.390E-06,-1.140
-3.380E-06,-0.920
-3.370E-06,-0.700
-3.360E-06,-0.440
-3.350E-06,-0.060
-3.340E-06,0.240
-3.330E-06,0.500
-3.320E-06,0.660
-3.310E-06,0.640
-3.300E-06,0.680
-3.290E-06,0.680
-3.280E-06,0.700
-3.270E-06,0.660
-3.260E-06,0.540
-3.250E-06,0.360
-3.240E-06,0.080
-3.230E-06,-0.100
-3.220E-06,-0.280
-3.210E-06,-0.240
-3.200E-06,-0.240
-3.190E-06,-0.160
-3.180E-06,0.000
-3.170E-06,0.000
-3.160E-06,-0.040
-3.150E-06,-0.080
-3.140E-06,0.220
-3.130E-06,0.760
-3.120E-06,1.220
-3.110E-06,1.200
-3.100E-06,1.120
-3.090E-06,0.780
-3.080E-06,0.360
-3.070E-06,-0.340
-3.060E-06,-0.900
-3.050E-06,-1.660
-3.040E-06,-2.480
-3.030E-06,-3.200
-3.020E-06,-3.620
-3.010E-06,-3.620
-3.000E-06,-3.620
-2.990E-06,-3.600
-2.980E-06,-3.600
-2.970E-06,-3.600
-2.960E-06,-3.040
-2.950E-06,-2.420
-2.940E-06,-1.720
-2.930E-06,-1.260
-2.920E-06,-0.820
-2.910E-06,-0.380
-2.900E-06,0.120
-2.890E-06,0.620
-2.880E-06,1.160
-2.870E-06,1.480
-2.860E-06,1.740
-2.850E-06,1.840
-2.840E-06,1.820
-2.830E-06,1.640
-2.820E-06,0.980
-2.810E-06,0.320
-2.800E-06,-0.420
-2.790E-06,-1.360
-2.780E-06,-2.500
-2.770E-06,-3.380
-2.760E-06,-3.600
-2.750E-06,-3.600
-2.740E-06,-3.600
-2.730E-06,-3.600
-2.720E-06,-3.600
-2.710E-06,-3.580
-2.700E-06,-3.320
-2.690E-06,-2.460
-2.680E-06,-1.500
-2.670E-06,-0.600
-2.660E-06,0.260
-2.650E-06,0.980
-2.640E-06,1.580
-2.630E-06,1.820
-2.620E-06,1.800
-2.610E-06,1.820
-2.600E-06,1.840
-2.590E-06,1.820
-2.580E-06,1.840
-2.570E-06,1.540
-2.560E-06,1.200
-2.550E-06,0.880
-2.540E-06,0.520
-2.530E-06,0.120
-2.520E-06,-0.220
-2.510E-06,-0.580
-2.500E-06,-0.760
-2.490E-06,-0.940
-2.480E-06,-0.940
-2.470E-06,-0.840
-2.460E-06,-0.640
-2.450E-06,-0.360
-2.440E-06,-0.040
-2.430E-06,0.320
-2.420E-06,0.780
-2.410E-06,1.200
-2.400E-06,1.580
-2.390E-06,1.820
-2.380E-06,1.800
-2.370E-06,1.820
-2.360E-06,1.840
-2.350E-06,1.680
-2.340E-06,1.260
-2.330E-06,0.700
-2.320E-06,0.080
-2.310E-06,-0.520
-2.300E-06,-1.160
-2.290E-06,-1.700
-2.280E-06,-2.120
-2.270E-06,-2.460
-2.260E-06,-2.600
-2.250E-06,-2.600
-2.240E-06,-2.460
-2.230E-06,-2.220
-2.220E-06,-1.860
-2.210E-06,-1.440
-2.200E-06,-1.000
-2.190E-06,-0.540
-2.180E-06,-0.120
-2.170E-06,0.220
-2.160E-06,0.500
-2.150E-06,0.740
-2.140E-06,0.900
-2.130E-06,0.960
-2.120E-06,1.040
-2.110E-06,1.040
-2.100E-06,1.020
-2.090E-06,0.960
-2.080E-06,0.840
-2.070E-06,0.700
-2.060E-06,0.480
-2.050E-06,0.260
-2.040E-06,0.020
-2.030E-06,-0.220
-2.020E-06,-0.460
-2.010E-06,-0.600
-2.000E-06,-0.700
-1.990E-06,-0.760
-1.980E-06,-0.720
-1.970E-06,-0.620
-1.960E-06,-0.440
-1.950E-06,-0.240
-1.940E-06,-0.040
-1.930E-06,0.200
-1.920E-06,0.420
-1.910E-06,0.580
-1.900E-06,0.760
-1.890E-06,0.820
-1.880E-06,0.820
-1.870E-06,0.820
-1.860E-06,0.780
-1.850E-06,0.620
-1.840E-06,0.500
-1.830E-06,0.380
-1.820E-06,0.220
-1.810E-06,0.080
-1.800E-06,-0.060
-1.790E-06,-0.160
-1.780E-06,-0.260
-1.770E-06,-0.340
-1.760E-06,-0.380
-1.750E-06,-0.420
-1.740E-06,-0.460
-1.730E-06,-0.440
-1.720E-06,-0.440
-1.710E-06,-0.440
-1.700E-06,-0.380
-1.690E-06,-0.340
-1.680E-06,-0.260
-1.670E-06,-0.180
-1.660E-06,-0.100
-1.650E-06,-0.080
-1.640E-06,0.000
-1.630E-06,0.060
-1.620E-06,0.120
-1.610E-06,0.140
-1.600E-06,0.140
-1.590E-06,0.140
-1.580E-06,0.160
-1.570E-06,0.120
-1.560E-06,0.060
-1.550E-06,0.060
-1.540E-06,0.040
-1.530E-06,0.000
-1.520E-06,-0.040
-1.510E-06,-0.040
-1.500E-06,0.000
-1.490E-06,0.020
-1.480E-06,0.000
-1.470E-06,0.060
-1.460E-06,0.100
-1.450E-06,0.120
-1.440E-06,0.120
-1.430E-06,0.180
-1.420E-06,0.240
-1.410E-06,0.240
-1.400E-06,0.220
-1.390E-06,0.280
-1.380E-06,0.320
-1.370E-06,0.340
-1.360E-06,0.340
-1.350E-06,0.340
-1.340E-06,0.360
-1.330E-06,0.380
-1.320E-06,0.380
-1.310E-06,0.380
-1.300E-06,0.380
-1.290E-06,0.340
-1.280E-06,0.320
-1.270E-06,0.260
-1.260E-06,0.240
-1.250E-06,0.200
-1.240E-06,0.160
-1.230E-06,0.140
-1.220E-06,0.040
-1.210E-06,-0.020
-1.200E-06,-0.040
-1.190E-06,-0.080
-1.180E-06,-0.140
-1.170E-06,-0.120
-1.160E-06,-0.080
-1.150E-06,-0.100
-1.140E-06,-0.020
-1.130E-06,0.000
-1.120E-06,0.040
-1.110E-06,0.100
-1.100E-06,0.160
-1.090E-06,0.220
-1.080E-06,0.260
-1.070E-06,0.340
-1.060E-06,0.400
-1.050E-06,0.420
-1.040E-06,0.460
-1.030E-06,0.440
-1.020E-06,0.460
-1.010E-06,0.480
-1.000E-06,0.480
-9.900E-07,0.460
-9.800E-07,0.440
-9.700E-07,0.400
-9.600E-07,0.400
-9.500E-07,0.380
-9.400E-07,0.280
-9.300E-07,0.280
-9.200E-07,0.240
-9.100E-07,0.280
-9.000E-07,0.300
-8.900E-07,0.300
-8.800E-07,0.300
-8.700E-07,0.320
-8.600E-07,0.320
-8.500E-07,0.320
-8.400E-07,0.360
-8.300E-07,0.340
-8.200E-07,0.380
-8.100E-07,0.420
-8.000E-07,0.520
-7.900E-07,0.660
-7.800E-07,0.740
-7.700E-07,0.760
-7.600E-07,0.760
-7.500E-07,0.740
-7.400E-07,0.680
-7.300E-07,0.640
-7.200E-07,0.600
-7.100E-07,0.560
-7.000E-07,0.480
-6.900E-07,0.420
-6.800E-07,0.400
-6.700E-07,0.400
-6.600E-07,0.340
-6.500E-07,0.400
-6.400E-07,0.400
-6.300E-07,0.420
-6.200E-07,0.420
-6.100E-07,0.460
-6.000E-07,0.480
-5.900E-07,0.440
-5.800E-07,0.500
-5.700E-07,0.540
-5.600E-07,0.560
-5.500E-07,0.580
-5.400E-07,0.620
-5.300E-07,0.620
-5.200E-07,0.600
-5.100E-07,0.600
-5.000E-07,0.580
-4.900E-07,0.580
-4.800E-07,0.600
-4.700E-07,0.580
-4.600E-07,0.520
-4.500E-07,0.520
-4.400E-07,0.500
-4.300E-07,0.480
-4.200E-07,0.440
-4.100E-07,0.440
-4.000E-07,0.420
-3.900E-07,0.420
-3.800E-07,0.420
-3.700E-07,0.420
-3.600E-07,0.440
-3.500E-07,0.400
-3.400E-07,0.400
-3.300E-07,0.420
-3.200E-07,0.420
-3.100E-07,0.400
-3.000E-07,0.400
-2.900E-07,0.420
-2.800E-07,0.420
-2.700E-07,0.400
-2.600E-07,0.420
-2.500E-07,0.420
-2.400E-07,0.440
-2.300E-07,0.500
-2.200E-07,0.480
-2.100E-07,0.480
-2.000E-07,0.480
-1.900E-07,0.520
-1.800E-07,0.500
-1.700E-07,0.500
-1.600E-07,0.520
-1.500E-07,0.520
-1.400E-07,0.520
-1.300E-07,0.540
-1.200E-07,0.520
-1.100E-07,0.540
-1.000E-07,0.540
-9.000E-08,0.520
-8.000E-08,0.520
-7.000E-08,0.540
-6.000E-08,0.540
-5.000E-08,0.540
-4.000E-08,0.540
-3.000E-08,0.540
-2.000E-08,0.540
-1.000E-08,0.600
0.000E+00,0.560
1.000E-08,0.560
2.000E-08,0.600
3.000E-08,0.620
4.000E-08,0.600
5.000E-08,0.600
6.000E-08,0.620
7.000E-08,0.640
8.000E-08,0.660
9.000E-08,0.620
1.000E-07,0.620
1.100E-07,0.640
1.200E-07,0.600
1.300E-07,0.580
1.400E-07,0.600
1.500E-07,0.560
1.600E-07,0.540
1.700E-07,0.540
1.800E-07,0.500
1.900E-07,0.500
2.000E-07,0.480
2.100E-07,0.480
2.200E-07,0.440
2.300E-07,0.440
2.400E-07,0.460
2.500E-07,0.460
2.600E-07,0.480
2.700E-07,0.520
2.800E-07,0.560
2.900E-07,0.560
3.000E-07,0.620
3.100E-07,0.660
3.200E-07,0.660
3.300E-07,0.760
3.400E-07,0.780
3.500E-07,0.780
3.600E-07,0.760
3.700E-07,0.780
3.800E-07,0.780
3.900E-07,0.700
4.000E-07,0.660
4.100E-07,0.600
4.200E-07,0.560
4.300E-07,0.540
4.400E-07,0.500
4.500E-07,0.480
4.600E-07,0.480
4.700E-07,0.440
4.800E-07,0.440
4.900E-07,0.440
5.000E-07,0.480
5.100E-07,0.460
5.200E-07,0.400
5.300E-07,0.360
5.400E-07,0.320
5.500E-07,0.260
5.600E-07,0.220
5.700E-07,0.200
5.800E-07,0.180
5.900E-07,0.120
6.000E-07,0.100
6.100E-07,0.140
6.200E-07,0.100
6.300E-07,0.140
6.400E-07,0.160
6.500E-07,0.240
6.600E-07,0.240
6.700E-07,0.240
6.800E-07,0.280
6.900E-07,0.340
7.000E-07,0.340
7.100E-07,0.420
7.200E-07,0.460
7.300E-07,0.460
7.400E-07,0.480
7.500E-07,0.460
7.600E-07,0.440
7.700E-07,0.420
7.800E-07,0.400
7.900E-07,0.400
8.000E-07,0.420
8.100E-07,0.400
8.200E-07,0.440
8.300E-07,0.500
8.400E-07,0.500
8.500E-07,0.520
8.600E-07,0.540
8.700E-07,0.600
8.800E-07,0.560
8.900E-07,0.560
9.000E-07,0.520
9.100E-07,0.520
9.200E-07,0.500
9.300E-07,0.440
9.400E-07,0.420
9.500E-07,0.400
9.600E-07,0.360
9.700E-07,0.300
9.800E-07,0.280
9.900E-07,0.280
1.000E-06,0.280
1.010E-06,0.240
1.020E-06,0.240
1.030E-06,0.220
1.040E-06,0.240
1.050E-06,0.200
1.060E-06,0.240
1.070E-06,0.260
1.080E-06,0.300
1.090E-06,0.320
1.100E-06,0.380
1.110E-06,0.380
1.120E-06,0.380
1.130E-06,0.360
1.140E-06,0.340
1.150E-06,0.340
1.160E-06,0.280
1.170E-06,0.320
1.180E-06,0.320
1.190E-06,0.360
1.200E-06,0.420
1.210E-06,0.500
1.220E-06,0.560
1.230E-06,0.580
1.240E-06,0.620
1.250E-06,0.660
1.260E-06,0.680
1.270E-06,0.620
1.280E-06,0.600
1.290E-06,0.560
1.300E-06,0.540
1.310E-06,0.520
1.320E-06,0.540
1.330E-06,0.540
1.340E-06,0.640
1.350E-06,0.760
1.360E-06,0.900
1.370E-06,1.040
1.380E-06,1.180
1.390E-06,1.360
1.400E-06,1.500
1.410E-06,1.620
1.420E-06,1.800
1.430E-06,1.820
1.440E-06,1.840
1.450E-06,1.820
1.460E-06,1.840
1.470E-06,1.820
1.480E-06,1.820
1.490E-06,1.820
1.500E-06,1.820
1.510E-06,1.820
1.520E-06,1.820
1.530E-06,1.820
1.540E-06,1.820
1.550E-06,1.820
1.560E-06,1.840
1.570E-06,1.840
1.580E-06,1.820
1.590E-06,1.840
1.600E-06,1.820
1.610E-06,1.840
1.620E-06,1.840
1.630E-06,1.820
1.640E-06,1.820
1.650E-06,1.820
1.660E-06,1.820
1.670E-06,1.840
1.680E-06,1.840
1.690E-06,1.820
1.700E-06,1.760
1.710E-06,1.680
1.720E-06,1.600
1.730E-06,1.540
1.740E-06,1.520
1.750E-06,1.520
1.760E-06,1.520
1.770E-06,1.440
1.780E-06,1.440
1.790E-06,1.400
1.800E-06,1.380
1.810E-06,1.320
1.820E-06,1.220
1.830E-06,1.160
1.840E-06,1.060
1.850E-06,0.920
1.860E-06,0.860
1.870E-06,0.740
1.880E-06,0.640
1.890E-06,0.580
1.900E-06,0.500
1.910E-06,0.440
1.920E-06,0.400
1.930E-06,0.380
1.940E-06,0.340
1.950E-06,0.340
1.960E-06,0.400
1.970E-06,0.400
1.980E-06,0.460
1.990E-06,0.520
2.000E-06,0.560
2.010E-06,0.560
2.020E-06,0.600
2.030E-06,0.580
2.040E-06,0.600
2.050E-06,0.540
2.060E-06,0.520
2.070E-06,0.520
2.080E-06,0.420
2.090E-06,0.420
2.100E-06,0.400
2.110E-06,0.340
2.120E-06,0.340
2.130E-06,0.340
2.140E-06,0.400
2.150E-06,0.420
2.160E-06,0.460
2.170E-06,0.520
2.180E-06,0.580
2.190E-06,0.660
2.200E-06,0.700
2.210E-06,0.740
2.220E-06,0.800
2.230E-06,0.760
2.240E-06,0.780
2.250E-06,0.760
2.260E-06,0.740
2.270E-06,0.720
2.280E-06,0.720
2.290E-06,0.660
2.300E-06,0.660
2.310E-06,0.620
2.320E-06,0.640
2.330E-06,0.600
2.340E-06,0.600
2.350E-06,0.560
2.360E-06,0.560
2.370E-06,0.560
2.380E-06,0.520
2.390E-06,0.480
2.400E-06,0.500
2.410E-06,0.480
2.420E-06,0.480
2.430E-06,0.440
2.440E-06,0.400
2.450E-06,0.420
2.460E-06,0.400
2.470E-06,0.420
2.480E-06,0.440
2.490E-06,0.420
2.500E-06,0.400
2.510E-06,0.360
2.520E-06,0.340
2.530E-06,0.360
2.540E-06,0.340
2.550E-06,0.340
2.560E-06,0.340
2.570E-06,0.320
2.580E-06,0.320
2.590E-06,0.300
2.600E-06,0.320
2.610E-06,0.300
2.620E-06,0.320
2.630E-06,0.300
2.640E-06,0.240
2.650E-06,0.220
2.660E-06,0.220
2.670E-06,0.200
2.680E-06,0.140
2.690E-06,0.140
2.700E-06,0.100
2.710E-06,0.080
2.720E-06,0.120
2.730E-06,0.100
2.740E-06,0.080
2.750E-06,0.080
2.760E-06,0.040
2.770E-06,0.020
2.780E-06,0.000
2.790E-06,0.020
2.800E-06,0.040
2.810E-06,0.020
2.820E-06,0.040
2.830E-06,0.060
2.840E-06,0.080
2.850E-06,0.080
2.860E-06,0.040
2.870E-06,0.040
2.880E-06,0.020
2.890E-06,0.020
2.900E-06,0.000
2.910E-06,0.020
2.920E-06,0.000
2.930E-06,0.020
2.940E-06,0.020
2.950E-06,0.040
2.960E-06,0.020
2.970E-06,0.020
2.980E-06,0.020
2.990E-06,0.040
3.000E-06,0.040
3.010E-06,0.060
3.020E-06,0.060
3.030E-06,0.060
3.040E-06,0.060
3.050E-06,0.060
3.060E-06,0.020
3.070E-06,0.040
3.080E-06,0.080
3.090E-06,0.080
3.100E-06,0.100
3.110E-06,0.060
3.120E-06,0.120
3.130E-06,0.120
3.140E-06,0.100
3.150E-06,0.120
3.160E-06,0.140
3.170E-06,0.140
3.180E-06,0.140
3.190E-06,0.120
3.200E-06,0.120
3.210E-06,0.060
3.220E-06,0.080
3.230E-06,0.000
3.240E-06,0.020
3.250E-06,0.020
3.260E-06,0.020
3.270E-06,0.020
3.280E-06,0.000
3.290E-06,0.000
3.300E-06,0.000
3.310E-06,0.000
