mediciones/8-28/-9/WaveData6643.csv

#timebase=2000000(ps)
,#voltbase=500000(mv/100)
#size=4000
-8.350E-06,0.040
-8.340E-06,0.080
-8.330E-06,0.060
-8.320E-06,0.060
-8.310E-06,0.040
-8.300E-06,0.060
-8.290E-06,0.020
-8.280E-06,0.040
-8.270E-06,0.040
-8.260E-06,0.080
-8.250E-06,0.040
-8.240E-06,0.040
-8.230E-06,0.040
-8.220E-06,0.060
-8.210E-06,0.060
-8.200E-06,0.060
-8.190E-06,0.060
-8.180E-06,0.040
-8.170E-06,0.060
-8.160E-06,0.020
-8.150E-06,0.020
-8.140E-06,0.080
-8.130E-06,0.020
-8.120E-06,0.040
-8.110E-06,0.060
-8.100E-06,0.060
-8.090E-06,0.040
-8.080E-06,0.040
-8.070E-06,0.040
-8.060E-06,0.060
-8.050E-06,0.040
-8.040E-06,0.040
-8.030E-06,0.060
-8.020E-06,0.040
-8.010E-06,0.060
-8.000E-06,0.060
-7.990E-06,0.060
-7.980E-06,0.040
-7.970E-06,0.020
-7.960E-06,0.060
-7.950E-06,0.060
-7.940E-06,0.060
-7.930E-06,0.060
-7.920E-06,0.060
-7.910E-06,0.040
-7.900E-06,0.040
-7.890E-06,0.040
-7.880E-06,0.040
-7.870E-06,0.060
-7.860E-06,0.040
-7.850E-06,0.060
-7.840E-06,0.060
-7.830E-06,0.060
-7.820E-06,0.060
-7.810E-06,0.060
-7.800E-06,0.040
-7.790E-06,0.060
-7.780E-06,0.060
-7.770E-06,0.080
-7.760E-06,0.060
-7.750E-06,0.060
-7.740E-06,0.060
-7.730E-06,0.040
-7.720E-06,0.020
-7.710E-06,0.040
-7.700E-06,0.060
-7.690E-06,0.060
-7.680E-06,0.040
-7.670E-06,0.060
-7.660E-06,0.080
-7.650E-06,0.080
-7.640E-06,0.040
-7.630E-06,0.040
-7.620E-06,0.060
-7.610E-06,0.060
-7.600E-06,0.060
-7.590E-06,0.060
-7.580E-06,0.060
-7.570E-06,0.040
-7.560E-06,0.060
-7.550E-06,0.040
-7.540E-06,0.060
-7.530E-06,0.040
-7.520E-06,0.060
-7.510E-06,0.060
-7.500E-06,0.060
-7.490E-06,0.060
-7.480E-06,0.040
-7.470E-06,0.060
-7.460E-06,0.040
-7.450E-06,0.040
-7.440E-06,0.060
-7.430E-06,0.040
-7.420E-06,0.060
-7.410E-06,0.040
-7.400E-06,0.060
-7.390E-06,0.060
-7.380E-06,0.060
-7.370E-06,0.060
-7.360E-06,0.080
-7.350E-06,0.060
-7.340E-06,0.040
-7.330E-06,0.040
-7.320E-06,0.040
-7.310E-06,0.040
-7.300E-06,0.060
-7.290E-06,0.060
-7.280E-06,0.060
-7.270E-06,0.040
-7.260E-06,0.060
-7.250E-06,0.040
-7.240E-06,0.040
-7.230E-06,0.040
-7.220E-06,0.060
-7.210E-06,0.040
-7.200E-06,0.040
-7.190E-06,0.040
-7.180E-06,0.040
-7.170E-06,0.060
-7.160E-06,0.040
-7.150E-06,0.040
-7.140E-06,0.040
-7.130E-06,0.060
-7.120E-06,0.060
-7.110E-06,0.060
-7.100E-06,0.060
-7.090E-06,0.060
-7.080E-06,0.060
-7.070E-06,0.020
-7.060E-06,0.020
-7.050E-06,0.060
-7.040E-06,0.060
-7.030E-06,0.060
-7.020E-06,0.060
-7.010E-06,0.040
-7.000E-06,0.060
-6.990E-06,0.040
-6.980E-06,0.060
-6.970E-06,0.040
-6.960E-06,0.060
-6.950E-06,0.060
-6.940E-06,0.040
-6.930E-06,0.060
-6.920E-06,0.040
-6.910E-06,0.040
-6.900E-06,0.040
-6.890E-06,0.040
-6.880E-06,0.060
-6.870E-06,0.040
-6.860E-06,0.060
-6.850E-06,0.060
-6.840E-06,0.040
-6.830E-06,0.020
-6.820E-06,0.020
-6.810E-06,0.040
-6.800E-06,0.020
-6.790E-06,0.060
-6.780E-06,0.080
-6.770E-06,0.040
-6.760E-06,0.040
-6.750E-06,0.040
-6.740E-06,0.060
-6.730E-06,0.080
-6.720E-06,0.060
-6.710E-06,0.040
-6.700E-06,0.060
-6.690E-06,0.040
-6.680E-06,0.060
-6.670E-06,0.040
-6.660E-06,0.040
-6.650E-06,0.060
-6.640E-06,0.060
-6.630E-06,0.060
-6.620E-06,0.040
-6.610E-06,0.040
-6.600E-06,0.040
-6.590E-06,0.040
-6.580E-06,0.060
-6.570E-06,0.060
-6.560E-06,0.040
-6.550E-06,0.040
-6.540E-06,0.040
-6.530E-06,0.060
-6.520E-06,0.080
-6.510E-06,0.060
-6.500E-06,0.060
-6.490E-06,0.040
-6.480E-06,0.040
-6.470E-06,0.060
-6.460E-06,0.040
-6.450E-06,0.060
-6.440E-06,0.040
-6.430E-06,0.060
-6.420E-06,0.040
-6.410E-06,0.040
-6.400E-06,0.060
-6.390E-06,0.060
-6.380E-06,0.040
-6.370E-06,0.040
-6.360E-06,0.040
-6.350E-06,0.060
-6.340E-06,0.040
-6.330E-06,0.060
-6.320E-06,0.060
-6.310E-06,0.040
-6.300E-06,0.020
-6.290E-06,0.060
-6.280E-06,0.040
-6.270E-06,0.060
-6.260E-06,0.020
-6.250E-06,0.060
-6.240E-06,0.060
-6.230E-06,0.060
-6.220E-06,0.040
-6.210E-06,0.080
-6.200E-06,0.040
-6.190E-06,0.040
-6.180E-06,0.060
-6.170E-06,0.020
-6.160E-06,0.060
-6.150E-06,0.060
-6.140E-06,0.060
-6.130E-06,0.060
-6.120E-06,0.060
-6.110E-06,0.060
-6.100E-06,0.060
-6.090E-06,0.040
-6.080E-06,0.040
-6.070E-06,0.060
-6.060E-06,0.040
-6.050E-06,0.080
-6.040E-06,0.040
-6.030E-06,0.040
-6.020E-06,0.040
-6.010E-06,0.060
-6.000E-06,0.060
-5.990E-06,0.060
-5.980E-06,0.040
-5.970E-06,0.040
-5.960E-06,0.040
-5.950E-06,0.020
-5.940E-06,0.020
-5.930E-06,0.040
-5.920E-06,0.020
-5.910E-06,0.040
-5.900E-06,0.040
-5.890E-06,0.040
-5.880E-06,0.040
-5.870E-06,0.060
-5.860E-06,0.040
-5.850E-06,0.040
-5.840E-06,0.040
-5.830E-06,0.080
-5.820E-06,0.080
-5.810E-06,0.040
-5.800E-06,0.060
-5.790E-06,0.060
-5.780E-06,0.060
-5.770E-06,0.060
-5.760E-06,0.040
-5.750E-06,0.000
-5.740E-06,0.040
-5.730E-06,0.060
-5.720E-06,0.060
-5.710E-06,0.060
-5.700E-06,0.040
-5.690E-06,0.040
-5.680E-06,0.040
-5.670E-06,0.060
-5.660E-06,0.040
-5.650E-06,0.060
-5.640E-06,0.040
-5.630E-06,0.040
-5.620E-06,0.040
-5.610E-06,0.040
-5.600E-06,0.040
-5.590E-06,0.060
-5.580E-06,0.040
-5.570E-06,0.040
-5.560E-06,-0.020
-5.550E-06,-0.400
-5.540E-06,-1.200
-5.530E-06,-2.260
-5.520E-06,-3.280
-5.510E-06,-3.600
-5.500E-06,-3.600
-5.490E-06,-3.240
-5.480E-06,-1.840
-5.470E-06,-0.260
-5.460E-06,1.420
-5.450E-06,1.820
-5.440E-06,1.820
-5.430E-06,1.800
-5.420E-06,1.820
-5.410E-06,1.820
-5.400E-06,1.840
-5.390E-06,1.840
-5.380E-06,1.820
-5.370E-06,0.740
-5.360E-06,-0.200
-5.350E-06,-1.000
-5.340E-06,-1.320
-5.330E-06,-1.200
-5.320E-06,-1.000
-5.310E-06,-0.680
-5.300E-06,-0.600
-5.290E-06,-0.620
-5.280E-06,-0.860
-5.270E-06,-1.440
-5.260E-06,-1.780
-5.250E-06,-2.220
-5.240E-06,-2.460
-5.230E-06,-2.440
-5.220E-06,-2.220
-5.210E-06,-1.640
-5.200E-06,-0.900
-5.190E-06,-0.080
-5.180E-06,0.820
-5.170E-06,1.540
-5.160E-06,1.820
-5.150E-06,1.820
-5.140E-06,1.840
-5.130E-06,1.820
-5.120E-06,1.320
-5.110E-06,0.720
-5.100E-06,0.040
-5.090E-06,-0.580
-5.080E-06,-1.020
-5.070E-06,-1.360
-5.060E-06,-1.460
-5.050E-06,-1.440
-5.040E-06,-1.220
-5.030E-06,-1.020
-5.020E-06,-0.780
-5.010E-06,-0.500
-5.000E-06,-0.240
-4.990E-06,0.020
-4.980E-06,0.260
-4.970E-06,0.500
-4.960E-06,0.780
-4.950E-06,0.920
-4.940E-06,1.160
-4.930E-06,1.280
-4.920E-06,1.400
-4.910E-06,1.400
-4.900E-06,1.360
-4.890E-06,1.240
-4.880E-06,1.040
-4.870E-06,0.820
-4.860E-06,0.520
-4.850E-06,0.200
-4.840E-06,-0.040
-4.830E-06,-0.340
-4.820E-06,-0.580
-4.810E-06,-0.740
-4.800E-06,-0.860
-4.790E-06,-0.940
-4.780E-06,-1.020
-4.770E-06,-0.940
-4.760E-06,-0.900
-4.750E-06,-0.760
-4.740E-06,-0.580
-4.730E-06,-0.260
-4.720E-06,0.060
-4.710E-06,0.400
-4.700E-06,0.700
-4.690E-06,0.900
-4.680E-06,1.020
-4.670E-06,1.100
-4.660E-06,1.020
-4.650E-06,0.960
-4.640E-06,0.820
-4.630E-06,0.560
-4.620E-06,0.280
-4.610E-06,0.020
-4.600E-06,-0.220
-4.590E-06,-0.460
-4.580E-06,-0.580
-4.570E-06,-0.660
-4.560E-06,-0.680
-4.550E-06,-0.680
-4.540E-06,-0.600
-4.530E-06,-0.520
-4.520E-06,-0.440
-4.510E-06,-0.320
-4.500E-06,-0.260
-4.490E-06,-0.180
-4.480E-06,-0.100
-4.470E-06,0.000
-4.460E-06,0.080
-4.450E-06,0.160
-4.440E-06,0.240
-4.430E-06,0.360
-4.420E-06,0.420
-4.410E-06,0.500
-4.400E-06,0.500
-4.390E-06,0.560
-4.380E-06,0.500
-4.370E-06,0.500
-4.360E-06,0.420
-4.350E-06,0.280
-4.340E-06,0.260
-4.330E-06,0.080
-4.320E-06,-0.040
-4.310E-06,-0.040
-4.300E-06,-0.120
-4.290E-06,-0.120
-4.280E-06,-0.100
-4.270E-06,-0.040
-4.260E-06,-0.080
-4.250E-06,-0.080
-4.240E-06,-0.080
-4.230E-06,-0.100
-4.220E-06,-0.120
-4.210E-06,-0.200
-4.200E-06,-0.100
-4.190E-06,-0.120
-4.180E-06,-0.080
-4.170E-06,-0.040
-4.160E-06,-0.060
-4.150E-06,0.080
-4.140E-06,0.060
-4.130E-06,0.100
-4.120E-06,0.140
-4.110E-06,0.080
-4.100E-06,0.060
-4.090E-06,0.020
-4.080E-06,0.020
-4.070E-06,0.000
-4.060E-06,-0.060
-4.050E-06,-0.100
-4.040E-06,-0.100
-4.030E-06,-0.100
-4.020E-06,-0.040
-4.010E-06,-0.020
-4.000E-06,0.000
-3.990E-06,0.020
-3.980E-06,-0.020
-3.970E-06,0.000
-3.960E-06,0.020
-3.950E-06,-0.020
-3.940E-06,-0.020
-3.930E-06,-0.040
-3.920E-06,-0.080
-3.910E-06,-0.080
-3.900E-06,-0.020
-3.890E-06,-0.020
-3.880E-06,0.080
-3.870E-06,0.140
-3.860E-06,0.280
-3.850E-06,0.360
-3.840E-06,0.300
-3.830E-06,0.260
-3.820E-06,0.180
-3.810E-06,0.080
-3.800E-06,0.040
-3.790E-06,-0.040
-3.780E-06,-0.040
-3.770E-06,-0.100
-3.760E-06,-0.160
-3.750E-06,-0.180
-3.740E-06,-0.140
-3.730E-06,-0.040
-3.720E-06,0.140
-3.710E-06,0.560
-3.700E-06,1.040
-3.690E-06,1.280
-3.680E-06,1.360
-3.670E-06,1.160
-3.660E-06,0.720
-3.650E-06,0.240
-3.640E-06,-0.260
-3.630E-06,-0.660
-3.620E-06,-0.980
-3.610E-06,-1.200
-3.600E-06,-1.220
-3.590E-06,-1.200
-3.580E-06,-1.040
-3.570E-06,-0.780
-3.560E-06,-0.480
-3.550E-06,-0.260
-3.540E-06,-0.080
-3.530E-06,0.000
-3.520E-06,0.060
-3.510E-06,0.060
-3.500E-06,0.060
-3.490E-06,0.080
-3.480E-06,0.080
-3.470E-06,0.180
-3.460E-06,0.300
-3.450E-06,0.400
-3.440E-06,0.600
-3.430E-06,0.620
-3.420E-06,0.680
-3.410E-06,0.640
-3.400E-06,0.540
-3.390E-06,0.440
-3.380E-06,0.300
-3.370E-06,0.160
-3.360E-06,-0.060
-3.350E-06,-0.260
-3.340E-06,-0.520
-3.330E-06,-0.600
-3.320E-06,-0.680
-3.310E-06,-0.640
-3.300E-06,-0.500
-3.290E-06,-0.340
-3.280E-06,-0.160
-3.270E-06,0.060
-3.260E-06,0.260
-3.250E-06,0.420
-3.240E-06,0.540
-3.230E-06,0.500
-3.220E-06,0.500
-3.210E-06,0.400
-3.200E-06,0.280
-3.190E-06,0.180
-3.180E-06,0.000
-3.170E-06,-0.160
-3.160E-06,-0.340
-3.150E-06,-0.420
-3.140E-06,-0.480
-3.130E-06,-0.460
-3.120E-06,-0.440
-3.110E-06,-0.440
-3.100E-06,-0.440
-3.090E-06,-0.400
-3.080E-06,-0.340
-3.070E-06,-0.260
-3.060E-06,-0.260
-3.050E-06,-0.220
-3.040E-06,-0.240
-3.030E-06,-0.220
-3.020E-06,-0.140
-3.010E-06,-0.020
-3.000E-06,0.020
-2.990E-06,0.220
-2.980E-06,0.340
-2.970E-06,0.380
-2.960E-06,0.420
-2.950E-06,0.480
-2.940E-06,0.480
-2.930E-06,0.420
-2.920E-06,0.400
-2.910E-06,0.240
-2.900E-06,0.060
-2.890E-06,-0.080
-2.880E-06,-0.240
-2.870E-06,-0.320
-2.860E-06,-0.440
-2.850E-06,-0.440
-2.840E-06,-0.440
-2.830E-06,-0.400
-2.820E-06,-0.320
-2.810E-06,-0.240
-2.800E-06,-0.200
-2.790E-06,-0.100
-2.780E-06,-0.040
-2.770E-06,0.000
-2.760E-06,0.080
-2.750E-06,0.100
-2.740E-06,0.140
-2.730E-06,0.120
-2.720E-06,0.060
-2.710E-06,0.060
-2.700E-06,0.000
-2.690E-06,0.000
-2.680E-06,0.020
-2.670E-06,0.020
-2.660E-06,0.020
-2.650E-06,0.020
-2.640E-06,0.020
-2.630E-06,-0.020
-2.620E-06,-0.020
-2.610E-06,0.040
-2.600E-06,0.020
-2.590E-06,-0.020
-2.580E-06,-0.060
-2.570E-06,-0.060
-2.560E-06,-0.100
-2.550E-06,-0.080
-2.540E-06,-0.040
-2.530E-06,-0.040
-2.520E-06,0.020
-2.510E-06,0.060
-2.500E-06,0.080
-2.490E-06,0.140
-2.480E-06,0.140
-2.470E-06,0.120
-2.460E-06,0.140
-2.450E-06,0.100
-2.440E-06,0.080
-2.430E-06,0.060
-2.420E-06,0.020
-2.410E-06,-0.020
-2.400E-06,-0.060
-2.390E-06,-0.120
-2.380E-06,-0.140
-2.370E-06,-0.120
-2.360E-06,-0.140
-2.350E-06,-0.140
-2.340E-06,-0.100
-2.330E-06,-0.180
-2.320E-06,-0.240
-2.310E-06,-0.140
-2.300E-06,-0.140
-2.290E-06,-0.140
-2.280E-06,-0.200
-2.270E-06,-0.180
-2.260E-06,-0.280
-2.250E-06,-0.400
-2.240E-06,-0.420
-2.230E-06,-0.380
-2.220E-06,-0.420
-2.210E-06,-0.400
-2.200E-06,-0.240
-2.190E-06,-0.180
-2.180E-06,-0.020
-2.170E-06,-0.040
-2.160E-06,-0.020
-2.150E-06,-0.060
-2.140E-06,-0.100
-2.130E-06,-0.160
-2.120E-06,-0.240
-2.110E-06,-0.240
-2.100E-06,-0.240
-2.090E-06,-0.340
-2.080E-06,-0.280
-2.070E-06,-0.320
-2.060E-06,-0.260
-2.050E-06,-0.280
-2.040E-06,-0.260
-2.030E-06,-0.240
-2.020E-06,-0.180
-2.010E-06,-0.200
-2.000E-06,-0.140
-1.990E-06,-0.180
-1.980E-06,-0.180
-1.970E-06,-0.080
-1.960E-06,-0.240
-1.950E-06,-0.200
-1.940E-06,-0.200
-1.930E-06,-0.240
-1.920E-06,-0.060
-1.910E-06,-0.120
-1.900E-06,0.000
-1.890E-06,0.160
-1.880E-06,0.020
-1.870E-06,0.420
-1.860E-06,0.760
-1.850E-06,0.640
-1.840E-06,0.400
-1.830E-06,0.200
-1.820E-06,-0.180
-1.810E-06,-0.420
-1.800E-06,-0.900
-1.790E-06,-0.780
-1.780E-06,-0.720
-1.770E-06,-0.820
-1.760E-06,-0.680
-1.750E-06,-0.820
-1.740E-06,-0.700
-1.730E-06,-0.720
-1.720E-06,-0.560
-1.710E-06,-0.540
-1.700E-06,-0.420
-1.690E-06,-0.420
-1.680E-06,-0.440
-1.670E-06,-0.160
-1.660E-06,-0.100
-1.650E-06,-0.060
-1.640E-06,0.100
-1.630E-06,0.020
-1.620E-06,0.080
-1.610E-06,-0.040
-1.600E-06,0.100
-1.590E-06,0.140
-1.580E-06,0.180
-1.570E-06,-0.060
-1.560E-06,-0.320
-1.550E-06,-0.600
-1.540E-06,-0.980
-1.530E-06,-1.080
-1.520E-06,-1.040
-1.510E-06,-0.720
-1.500E-06,-0.680
-1.490E-06,-0.380
-1.480E-06,-0.560
-1.470E-06,-0.580
-1.460E-06,-0.800
-1.450E-06,-1.000
-1.440E-06,-0.940
-1.430E-06,-0.920
-1.420E-06,-0.920
-1.410E-06,-1.000
-1.400E-06,-0.880
-1.390E-06,-0.760
-1.380E-06,-0.760
-1.370E-06,-0.560
-1.360E-06,-0.580
-1.350E-06,-0.440
-1.340E-06,-0.460
-1.330E-06,-0.440
-1.320E-06,-0.500
-1.310E-06,-0.620
-1.300E-06,-0.640
-1.290E-06,-0.540
-1.280E-06,-0.520
-1.270E-06,-0.520
-1.260E-06,-0.440
-1.250E-06,-0.460
-1.240E-06,-0.220
-1.230E-06,0.080
-1.220E-06,0.580
-1.210E-06,0.960
-1.200E-06,1.360
-1.190E-06,0.940
-1.180E-06,0.620
-1.170E-06,-0.420
-1.160E-06,-1.160
-1.150E-06,-1.580
-1.140E-06,-1.480
-1.130E-06,-1.060
-1.120E-06,-0.760
-1.110E-06,-0.760
-1.100E-06,-0.620
-1.090E-06,-0.880
-1.080E-06,-1.020
-1.070E-06,-1.240
-1.060E-06,-0.880
-1.050E-06,-0.680
-1.040E-06,-0.340
-1.030E-06,-0.300
-1.020E-06,-0.300
-1.010E-06,-0.340
-1.000E-06,-0.580
-9.900E-07,-0.600
-9.800E-07,-0.640
-9.700E-07,-0.520
-9.600E-07,-0.340
-9.500E-07,-0.380
-9.400E-07,-0.420
-9.300E-07,-0.660
-9.200E-07,-0.680
-9.100E-07,-0.600
-9.000E-07,-0.480
-8.900E-07,-0.440
-8.800E-07,-0.480
-8.700E-07,-0.680
-8.600E-07,-0.760
-8.500E-07,-0.500
-8.400E-07,0.180
-8.300E-07,0.420
-8.200E-07,0.680
-8.100E-07,0.820
-8.000E-07,0.540
-7.900E-07,0.080
-7.800E-07,-0.560
-7.700E-07,-1.080
-7.600E-07,-1.240
-7.500E-07,-1.440
-7.400E-07,-1.500
-7.300E-07,-1.320
-7.200E-07,-1.260
-7.100E-07,-1.120
-7.000E-07,-1.000
-6.900E-07,-1.120
-6.800E-07,-1.100
-6.700E-07,-1.080
-6.600E-07,-1.020
-6.500E-07,-0.720
-6.400E-07,-0.580
-6.300E-07,-0.340
-6.200E-07,-0.160
-6.100E-07,-0.260
-6.000E-07,-0.340
-5.900E-07,-0.320
-5.800E-07,-0.320
-5.700E-07,0.200
-5.600E-07,0.300
-5.500E-07,0.460
-5.400E-07,0.460
-5.300E-07,0.700
-5.200E-07,0.220
-5.100E-07,0.160
-5.000E-07,-0.360
-4.900E-07,-0.380
-4.800E-07,-0.760
-4.700E-07,-1.200
-4.600E-07,-1.440
-4.500E-07,-1.580
-4.400E-07,-1.720
-4.300E-07,-1.600
-4.200E-07,-1.420
-4.100E-07,-1.080
-4.000E-07,-1.040
-3.900E-07,-0.760
-3.800E-07,-0.780
-3.700E-07,-0.780
-3.600E-07,-0.780
-3.500E-07,-0.600
-3.400E-07,-0.580
-3.300E-07,-0.480
-3.200E-07,-0.580
-3.100E-07,-0.560
-3.000E-07,-0.560
-2.900E-07,-0.540
-2.800E-07,-0.640
-2.700E-07,-0.620
-2.600E-07,-0.660
-2.500E-07,-0.800
-2.400E-07,-0.960
-2.300E-07,-0.940
-2.200E-07,-0.760
-2.100E-07,-0.640
-2.000E-07,-0.520
-1.900E-07,-0.700
-1.800E-07,-0.800
-1.700E-07,-1.260
-1.600E-07,-1.400
-1.500E-07,-1.800
-1.400E-07,0.020
-1.300E-07,1.840
-1.200E-07,1.840
-1.100E-07,1.820
-1.000E-07,1.840
-9.000E-08,0.660
-8.000E-08,0.340
-7.000E-08,-3.540
-6.000E-08,1.380
-5.000E-08,-2.760
-4.000E-08,-2.800
-3.000E-08,-3.600
-2.000E-08,-3.620
-1.000E-08,-3.620
0.000E+00,-3.620
1.000E-08,-3.600
2.000E-08,-3.600
3.000E-08,-3.440
4.000E-08,-2.860
5.000E-08,-2.800
6.000E-08,-1.200
7.000E-08,-0.980
8.000E-08,-0.280
9.000E-08,-0.080
1.000E-07,0.200
1.100E-07,1.140
1.200E-07,0.620
1.300E-07,1.080
1.400E-07,1.000
1.500E-07,0.380
1.600E-07,0.420
1.700E-07,-0.140
1.800E-07,-0.220
1.900E-07,-0.560
2.000E-07,-1.060
2.100E-07,-1.620
2.200E-07,-2.500
2.300E-07,-3.080
2.400E-07,-3.460
2.500E-07,-3.600
2.600E-07,-3.600
2.700E-07,-3.600
2.800E-07,-3.600
2.900E-07,-3.600
3.000E-07,-3.560
3.100E-07,-2.980
3.200E-07,-2.440
3.300E-07,-1.660
3.400E-07,-1.120
3.500E-07,-0.560
3.600E-07,-0.140
3.700E-07,0.100
3.800E-07,0.200
3.900E-07,0.040
4.000E-07,-0.180
4.100E-07,-0.460
4.200E-07,-0.720
4.300E-07,-0.940
4.400E-07,-1.120
4.500E-07,-1.400
4.600E-07,-1.560
4.700E-07,-1.560
4.800E-07,-1.300
4.900E-07,-1.040
5.000E-07,-0.860
5.100E-07,-0.760
5.200E-07,-0.720
5.300E-07,-0.760
5.400E-07,-0.880
5.500E-07,0.160
5.600E-07,0.780
5.700E-07,1.500
5.800E-07,1.840
5.900E-07,1.820
6.000E-07,1.820
6.100E-07,1.540
6.200E-07,1.820
6.300E-07,-0.940
6.400E-07,-2.360
6.500E-07,-3.200
6.600E-07,-2.540
6.700E-07,-2.700
6.800E-07,-2.600
6.900E-07,-3.600
7.000E-07,-3.600
7.100E-07,-3.600
7.200E-07,-3.600
7.300E-07,-3.600
7.400E-07,-3.580
7.500E-07,-3.600
7.600E-07,-2.880
7.700E-07,-1.840
7.800E-07,-1.340
7.900E-07,-1.340
8.000E-07,-0.840
8.100E-07,-0.820
8.200E-07,-1.080
8.300E-07,-1.160
8.400E-07,-0.960
8.500E-07,-0.460
8.600E-07,-0.280
8.700E-07,-0.160
8.800E-07,0.240
8.900E-07,0.340
9.000E-07,0.600
9.100E-07,0.880
9.200E-07,1.220
9.300E-07,1.500
9.400E-07,1.460
9.500E-07,1.400
9.600E-07,1.100
9.700E-07,0.840
9.800E-07,0.920
9.900E-07,1.020
1.000E-06,1.340
1.010E-06,1.600
1.020E-06,1.840
1.030E-06,1.820
1.040E-06,1.820
1.050E-06,1.820
1.060E-06,1.800
1.070E-06,1.820
1.080E-06,1.780
1.090E-06,1.560
1.100E-06,1.300
1.110E-06,0.960
1.120E-06,0.780
1.130E-06,0.620
1.140E-06,0.220
1.150E-06,-0.200
1.160E-06,-0.860
1.170E-06,-1.180
1.180E-06,-1.540
1.190E-06,-1.900
1.200E-06,-1.820
1.210E-06,-1.740
1.220E-06,-1.680
1.230E-06,-1.540
1.240E-06,-1.560
1.250E-06,-1.640
1.260E-06,-1.620
1.270E-06,-1.580
1.280E-06,-1.360
1.290E-06,-1.120
1.300E-06,-0.860
1.310E-06,-0.500
1.320E-06,-0.260
1.330E-06,-0.080
1.340E-06,0.080
1.350E-06,0.220
1.360E-06,0.340
1.370E-06,0.480
1.380E-06,0.500
1.390E-06,0.460
1.400E-06,0.400
1.410E-06,0.260
1.420E-06,0.100
1.430E-06,0.040
1.440E-06,-0.020
1.450E-06,-0.020
1.460E-06,0.080
1.470E-06,0.220
1.480E-06,0.340
1.490E-06,0.500
1.500E-06,0.640
1.510E-06,0.740
1.520E-06,0.840
1.530E-06,0.900
1.540E-06,0.940
1.550E-06,0.960
1.560E-06,0.920
1.570E-06,0.860
1.580E-06,0.760
1.590E-06,0.660
1.600E-06,0.560
1.610E-06,0.480
1.620E-06,0.440
1.630E-06,0.340
1.640E-06,0.300
1.650E-06,0.280
1.660E-06,0.220
1.670E-06,0.160
1.680E-06,0.120
1.690E-06,0.040
1.700E-06,0.000
1.710E-06,-0.080
1.720E-06,-0.160
1.730E-06,-0.180
1.740E-06,-0.280
1.750E-06,-0.300
1.760E-06,-0.300
1.770E-06,-0.300
1.780E-06,-0.280
1.790E-06,-0.280
1.800E-06,-0.240
1.810E-06,-0.220
1.820E-06,-0.180
1.830E-06,-0.160
1.840E-06,-0.120
1.850E-06,-0.100
1.860E-06,-0.100
1.870E-06,-0.040
1.880E-06,-0.040
1.890E-06,-0.040
1.900E-06,0.040
1.910E-06,0.080
1.920E-06,0.120
1.930E-06,0.200
1.940E-06,0.280
1.950E-06,0.320
1.960E-06,0.400
1.970E-06,0.500
1.980E-06,0.540
1.990E-06,0.620
2.000E-06,0.660
2.010E-06,0.680
2.020E-06,0.680
2.030E-06,0.680
2.040E-06,0.680
2.050E-06,0.660
2.060E-06,0.660
2.070E-06,0.640
2.080E-06,0.640
2.090E-06,0.640
2.100E-06,0.640
2.110E-06,0.620
2.120E-06,0.640
2.130E-06,0.600
2.140E-06,0.600
2.150E-06,0.580
2.160E-06,0.540
2.170E-06,0.520
2.180E-06,0.500
2.190E-06,0.440
2.200E-06,0.380
2.210E-06,0.340
2.220E-06,0.260
2.230E-06,0.260
2.240E-06,0.180
2.250E-06,0.160
2.260E-06,0.140
2.270E-06,0.140
2.280E-06,0.120
2.290E-06,0.080
2.300E-06,0.120
2.310E-06,0.160
2.320E-06,0.160
2.330E-06,0.200
2.340E-06,0.200
2.350E-06,0.260
2.360E-06,0.260
2.370E-06,0.300
2.380E-06,0.320
2.390E-06,0.340
2.400E-06,0.380
2.410E-06,0.420
2.420E-06,0.440
2.430E-06,0.480
2.440E-06,0.500
2.450E-06,0.540
2.460E-06,0.540
2.470E-06,0.540
2.480E-06,0.480
2.490E-06,0.500
2.500E-06,0.500
2.510E-06,0.420
2.520E-06,0.420
2.530E-06,0.400
2.540E-06,0.380
2.550E-06,0.380
2.560E-06,0.420
2.570E-06,0.420
2.580E-06,0.480
2.590E-06,0.620
2.600E-06,0.760
2.610E-06,0.900
2.620E-06,0.920
2.630E-06,0.920
2.640E-06,0.860
2.650E-06,0.840
2.660E-06,0.760
2.670E-06,0.660
2.680E-06,0.620
2.690E-06,0.560
2.700E-06,0.460
2.710E-06,0.480
2.720E-06,0.500
2.730E-06,0.500
2.740E-06,0.520
2.750E-06,0.540
2.760E-06,0.560
2.770E-06,0.580
2.780E-06,0.560
2.790E-06,0.540
2.800E-06,0.540
2.810E-06,0.520
2.820E-06,0.540
2.830E-06,0.500
2.840E-06,0.540
2.850E-06,0.600
2.860E-06,0.680
2.870E-06,0.660
2.880E-06,0.700
2.890E-06,0.640
2.900E-06,0.520
2.910E-06,0.220
2.920E-06,0.240
2.930E-06,0.080
2.940E-06,0.080
2.950E-06,0.080
2.960E-06,0.060
2.970E-06,0.160
2.980E-06,0.220
2.990E-06,0.400
3.000E-06,0.540
3.010E-06,0.740
3.020E-06,0.820
3.030E-06,0.880
3.040E-06,0.940
3.050E-06,0.960
3.060E-06,0.900
3.070E-06,0.840
3.080E-06,0.780
3.090E-06,0.720
3.100E-06,0.640
3.110E-06,0.580
3.120E-06,0.480
3.130E-06,0.420
3.140E-06,0.320
3.150E-06,0.240
3.160E-06,0.180
3.170E-06,0.160
3.180E-06,0.140
3.190E-06,0.200
3.200E-06,0.260
3.210E-06,0.300
3.220E-06,0.340
3.230E-06,0.400
3.240E-06,0.440
3.250E-06,0.520
3.260E-06,0.580
3.270E-06,0.680
3.280E-06,0.740
