mediciones/8-28/-9/WaveData6646.csv

#timebase=2000000(ps)
,#voltbase=200000(mv/100)
#size=4000
-8.350E-06,-0.008
-8.340E-06,0.040
-8.330E-06,0.056
-8.320E-06,0.056
-8.310E-06,0.016
-8.300E-06,-0.016
-8.290E-06,-0.016
-8.280E-06,-0.008
-8.270E-06,0.008
-8.260E-06,0.040
-8.250E-06,0.056
-8.240E-06,0.024
-8.230E-06,0.008
-8.220E-06,0.008
-8.210E-06,0.008
-8.200E-06,0.008
-8.190E-06,0.024
-8.180E-06,0.048
-8.170E-06,-0.016
-8.160E-06,-0.016
-8.150E-06,-0.056
-8.140E-06,-0.040
-8.130E-06,-0.056
-8.120E-06,-0.008
-8.110E-06,0.008
-8.100E-06,0.064
-8.090E-06,0.048
-8.080E-06,0.024
-8.070E-06,-0.008
-8.060E-06,-0.080
-8.050E-06,-0.056
-8.040E-06,-0.016
-8.030E-06,0.040
-8.020E-06,0.048
-8.010E-06,0.064
-8.000E-06,0.000
-7.990E-06,0.000
-7.980E-06,-0.016
-7.970E-06,-0.024
-7.960E-06,-0.008
-7.950E-06,0.024
-7.940E-06,0.056
-7.930E-06,0.032
-7.920E-06,0.024
-7.910E-06,-0.016
-7.900E-06,-0.016
-7.890E-06,-0.048
-7.880E-06,-0.008
-7.870E-06,0.008
-7.860E-06,0.024
-7.850E-06,0.040
-7.840E-06,0.040
-7.830E-06,0.016
-7.820E-06,-0.016
-7.810E-06,0.000
-7.800E-06,-0.016
-7.790E-06,0.016
-7.780E-06,0.016
-7.770E-06,0.032
-7.760E-06,0.016
-7.750E-06,0.008
-7.740E-06,0.008
-7.730E-06,-0.008
-7.720E-06,-0.008
-7.710E-06,-0.008
-7.700E-06,0.016
-7.690E-06,0.008
-7.680E-06,0.008
-7.670E-06,0.016
-7.660E-06,0.008
-7.650E-06,0.000
-7.640E-06,0.000
-7.630E-06,0.008
-7.620E-06,0.008
-7.610E-06,0.016
-7.600E-06,0.016
-7.590E-06,0.000
-7.580E-06,0.008
-7.570E-06,0.008
-7.560E-06,0.000
-7.550E-06,0.016
-7.540E-06,-0.008
-7.530E-06,0.000
-7.520E-06,-0.008
-7.510E-06,0.008
-7.500E-06,0.016
-7.490E-06,0.016
-7.480E-06,0.008
-7.470E-06,-0.008
-7.460E-06,-0.008
-7.450E-06,-0.008
-7.440E-06,0.008
-7.430E-06,0.032
-7.420E-06,0.032
-7.410E-06,0.032
-7.400E-06,-0.008
-7.390E-06,-0.016
-7.380E-06,-0.016
-7.370E-06,-0.016
-7.360E-06,0.008
-7.350E-06,0.024
-7.340E-06,0.048
-7.330E-06,0.032
-7.320E-06,0.024
-7.310E-06,0.000
-7.300E-06,-0.024
-7.290E-06,-0.032
-7.280E-06,-0.008
-7.270E-06,0.008
-7.260E-06,0.024
-7.250E-06,0.048
-7.240E-06,0.032
-7.230E-06,0.008
-7.220E-06,-0.016
-7.210E-06,-0.024
-7.200E-06,-0.024
-7.190E-06,-0.008
-7.180E-06,0.024
-7.170E-06,0.024
-7.160E-06,0.040
-7.150E-06,0.024
-7.140E-06,0.000
-7.130E-06,-0.008
-7.120E-06,-0.016
-7.110E-06,-0.024
-7.100E-06,-0.008
-7.090E-06,0.016
-7.080E-06,0.024
-7.070E-06,0.032
-7.060E-06,0.016
-7.050E-06,0.000
-7.040E-06,-0.008
-7.030E-06,-0.008
-7.020E-06,-0.008
-7.010E-06,0.000
-7.000E-06,0.016
-6.990E-06,0.024
-6.980E-06,0.032
-6.970E-06,0.024
-6.960E-06,-0.008
-6.950E-06,-0.008
-6.940E-06,-0.008
-6.930E-06,0.008
-6.920E-06,0.008
-6.910E-06,0.024
-6.900E-06,0.016
-6.890E-06,0.000
-6.880E-06,0.008
-6.870E-06,0.000
-6.860E-06,-0.008
-6.850E-06,-0.008
-6.840E-06,0.008
-6.830E-06,0.016
-6.820E-06,0.016
-6.810E-06,0.016
-6.800E-06,0.024
-6.790E-06,0.016
-6.780E-06,0.000
-6.770E-06,-0.008
-6.760E-06,-0.008
-6.750E-06,0.008
-6.740E-06,0.024
-6.730E-06,0.024
-6.720E-06,0.032
-6.710E-06,0.016
-6.700E-06,0.000
-6.690E-06,0.000
-6.680E-06,0.008
-6.670E-06,0.008
-6.660E-06,0.016
-6.650E-06,0.024
-6.640E-06,0.016
-6.630E-06,0.008
-6.620E-06,0.008
-6.610E-06,0.000
-6.600E-06,0.016
-6.590E-06,0.008
-6.580E-06,0.008
-6.570E-06,0.000
-6.560E-06,0.008
-6.550E-06,0.008
-6.540E-06,0.008
-6.530E-06,0.016
-6.520E-06,0.024
-6.510E-06,0.016
-6.500E-06,0.000
-6.490E-06,0.000
-6.480E-06,-0.008
-6.470E-06,0.000
-6.460E-06,0.016
-6.450E-06,0.040
-6.440E-06,0.048
-6.430E-06,0.040
-6.420E-06,0.016
-6.410E-06,0.000
-6.400E-06,-0.008
-6.390E-06,0.008
-6.380E-06,0.016
-6.370E-06,0.032
-6.360E-06,0.040
-6.350E-06,0.120
-6.340E-06,-0.144
-6.330E-06,0.112
-6.320E-06,-0.208
-6.310E-06,-0.088
-6.300E-06,-0.296
-6.290E-06,0.040
-6.280E-06,0.064
-6.270E-06,0.056
-6.260E-06,0.096
-6.250E-06,0.128
-6.240E-06,0.048
-6.230E-06,-0.128
-6.220E-06,-0.072
-6.210E-06,-0.112
-6.200E-06,0.024
-6.190E-06,0.192
-6.180E-06,0.208
-6.170E-06,0.216
-6.160E-06,-0.072
-6.150E-06,-0.080
-6.140E-06,-0.136
-6.130E-06,-0.056
-6.120E-06,0.032
-6.110E-06,0.080
-6.100E-06,0.168
-6.090E-06,0.056
-6.080E-06,0.096
-6.070E-06,-0.088
-6.060E-06,0.008
-6.050E-06,-0.104
-6.040E-06,-0.032
-6.030E-06,-0.080
-6.020E-06,0.072
-6.010E-06,0.128
-6.000E-06,0.096
-5.990E-06,0.080
-5.980E-06,-0.080
-5.970E-06,-0.048
-5.960E-06,-0.096
-5.950E-06,-0.040
-5.940E-06,-0.016
-5.930E-06,0.056
-5.920E-06,0.088
-5.910E-06,0.080
-5.900E-06,0.048
-5.890E-06,-0.048
-5.880E-06,-0.072
-5.870E-06,-0.064
-5.860E-06,0.008
-5.850E-06,0.064
-5.840E-06,0.112
-5.830E-06,0.096
-5.820E-06,0.048
-5.810E-06,-0.016
-5.800E-06,-0.096
-5.790E-06,-0.112
-5.780E-06,-0.120
-5.770E-06,0.040
-5.760E-06,0.080
-5.750E-06,0.144
-5.740E-06,0.104
-5.730E-06,0.016
-5.720E-06,-0.064
-5.710E-06,-0.072
-5.700E-06,-0.016
-5.690E-06,0.080
-5.680E-06,0.136
-5.670E-06,0.104
-5.660E-06,0.032
-5.650E-06,-0.096
-5.640E-06,-0.120
-5.630E-06,-0.136
-5.620E-06,0.000
-5.610E-06,0.072
-5.600E-06,0.144
-5.590E-06,0.112
-5.580E-06,0.056
-5.570E-06,-0.016
-5.560E-06,-0.072
-5.550E-06,-0.064
-5.540E-06,-0.008
-5.530E-06,0.072
-5.520E-06,0.096
-5.510E-06,0.088
-5.500E-06,0.080
-5.490E-06,0.024
-5.480E-06,-0.016
-5.470E-06,-0.008
-5.460E-06,-0.016
-5.450E-06,0.040
-5.440E-06,0.072
-5.430E-06,0.120
-5.420E-06,0.120
-5.410E-06,0.064
-5.400E-06,0.056
-5.390E-06,0.008
-5.380E-06,0.024
-5.370E-06,-0.008
-5.360E-06,0.072
-5.350E-06,0.048
-5.340E-06,0.048
-5.330E-06,-0.008
-5.320E-06,0.024
-5.310E-06,0.040
-5.300E-06,-0.016
-5.290E-06,0.000
-5.280E-06,-0.376
-5.270E-06,-0.344
-5.260E-06,-0.448
-5.250E-06,-0.472
-5.240E-06,-0.064
-5.230E-06,0.168
-5.220E-06,0.648
-5.210E-06,0.240
-5.200E-06,0.176
-5.190E-06,-0.312
-5.180E-06,-0.384
-5.170E-06,-0.408
-5.160E-06,-0.072
-5.150E-06,0.168
-5.140E-06,0.384
-5.130E-06,0.456
-5.120E-06,0.176
-5.110E-06,-0.024
-5.100E-06,-0.336
-5.090E-06,-0.296
-5.080E-06,-0.192
-5.070E-06,0.096
-5.060E-06,0.264
-5.050E-06,0.296
-5.040E-06,0.232
-5.030E-06,0.040
-5.020E-06,-0.120
-5.010E-06,-0.208
-5.000E-06,-0.112
-4.990E-06,-0.040
-4.980E-06,0.168
-4.970E-06,0.200
-4.960E-06,0.240
-4.950E-06,0.128
-4.940E-06,0.096
-4.930E-06,0.056
-4.920E-06,0.056
-4.910E-06,0.088
-4.900E-06,0.096
-4.890E-06,0.120
-4.880E-06,0.048
-4.870E-06,0.056
-4.860E-06,-0.048
-4.850E-06,0.088
-4.840E-06,-0.016
-4.830E-06,0.144
-4.820E-06,0.008
-4.810E-06,0.072
-4.800E-06,0.024
-4.790E-06,-0.016
-4.780E-06,0.000
-4.770E-06,-0.040
-4.760E-06,0.104
-4.750E-06,0.080
-4.740E-06,0.032
-4.730E-06,-0.152
-4.720E-06,-0.640
-4.710E-06,-0.648
-4.700E-06,-0.160
-4.690E-06,0.520
-4.680E-06,-0.072
-4.670E-06,-0.016
-4.660E-06,-0.448
-4.650E-06,-0.616
-4.640E-06,-0.568
-4.630E-06,-0.136
-4.620E-06,0.784
-4.610E-06,0.760
-4.600E-06,0.784
-4.590E-06,-0.128
-4.580E-06,-0.496
-4.570E-06,-0.824
-4.560E-06,-0.504
-4.550E-06,-0.112
-4.540E-06,0.600
-4.530E-06,0.744
-4.520E-06,0.568
-4.510E-06,0.128
-4.500E-06,-0.408
-4.490E-06,-0.528
-4.480E-06,-0.560
-4.470E-06,0.008
-4.460E-06,0.288
-4.450E-06,0.632
-4.440E-06,0.448
-4.430E-06,0.208
-4.420E-06,-0.160
-4.410E-06,-0.360
-4.400E-06,-0.336
-4.390E-06,-0.184
-4.380E-06,0.192
-4.370E-06,0.392
-4.360E-06,0.520
-4.350E-06,0.328
-4.340E-06,0.120
-4.330E-06,-0.088
-4.320E-06,-0.152
-4.310E-06,-0.048
-4.300E-06,0.144
-4.290E-06,0.320
-4.280E-06,0.392
-4.270E-06,0.304
-4.260E-06,0.128
-4.250E-06,-0.056
-4.240E-06,-0.144
-4.230E-06,-0.104
-4.220E-06,0.064
-4.210E-06,0.208
-4.200E-06,0.336
-4.190E-06,-0.176
-4.180E-06,-0.200
-4.170E-06,-0.816
-4.160E-06,-0.824
-4.150E-06,-0.712
-4.140E-06,0.472
-4.130E-06,0.696
-4.120E-06,0.560
-4.110E-06,-0.176
-4.100E-06,-0.824
-4.090E-06,-0.816
-4.080E-06,-0.816
-4.070E-06,0.472
-4.060E-06,1.280
-4.050E-06,1.288
-4.040E-06,0.744
-4.030E-06,-0.528
-4.020E-06,-0.816
-4.010E-06,-0.824
-4.000E-06,-0.552
-3.990E-06,0.304
-3.980E-06,1.072
-3.970E-06,1.280
-3.960E-06,0.864
-3.950E-06,-0.008
-3.940E-06,-0.816
-3.930E-06,-0.816
-3.920E-06,-0.784
-3.910E-06,0.048
-3.900E-06,0.720
-3.890E-06,1.048
-3.880E-06,0.784
-3.870E-06,0.248
-3.860E-06,-0.336
-3.850E-06,-0.728
-3.840E-06,-0.672
-3.830E-06,-0.296
-3.820E-06,0.304
-3.810E-06,0.664
-3.800E-06,0.760
-3.790E-06,0.408
-3.780E-06,0.000
-3.770E-06,-0.344
-3.760E-06,-0.376
-3.750E-06,-0.200
-3.740E-06,0.176
-3.730E-06,0.512
-3.720E-06,0.624
-3.710E-06,0.520
-3.700E-06,0.216
-3.690E-06,-0.056
-3.680E-06,-0.232
-3.670E-06,-0.216
-3.660E-06,-0.048
-3.650E-06,-0.008
-3.640E-06,0.096
-3.630E-06,0.008
-3.620E-06,0.096
-3.610E-06,-0.016
-3.600E-06,0.136
-3.590E-06,0.040
-3.580E-06,-0.016
-3.570E-06,-0.136
-3.560E-06,-0.048
-3.550E-06,0.088
-3.540E-06,0.128
-3.530E-06,-0.072
-3.520E-06,-0.224
-3.510E-06,-0.616
-3.500E-06,-0.480
-3.490E-06,-0.432
-3.480E-06,-0.280
-3.470E-06,0.152
-3.460E-06,0.200
-3.450E-06,0.592
-3.440E-06,0.056
-3.430E-06,0.136
-3.420E-06,0.000
-3.410E-06,-0.240
-3.400E-06,-0.240
-3.390E-06,-0.424
-3.380E-06,-0.032
-3.370E-06,0.032
-3.360E-06,0.584
-3.350E-06,0.408
-3.340E-06,0.488
-3.330E-06,0.040
-3.320E-06,-0.208
-3.310E-06,-0.632
-3.300E-06,-0.608
-3.290E-06,-0.360
-3.280E-06,0.184
-3.270E-06,0.680
-3.260E-06,0.752
-3.250E-06,0.520
-3.240E-06,-0.056
-3.230E-06,-0.480
-3.220E-06,-0.648
-3.210E-06,-0.440
-3.200E-06,0.024
-3.190E-06,0.616
-3.180E-06,0.952
-3.170E-06,0.976
-3.160E-06,0.504
-3.150E-06,-0.072
-3.140E-06,-0.488
-3.130E-06,-0.536
-3.120E-06,-0.152
-3.110E-06,0.328
-3.100E-06,0.776
-3.090E-06,0.832
-3.080E-06,0.616
-3.070E-06,0.128
-3.060E-06,-0.336
-3.050E-06,-0.560
-3.040E-06,-0.536
-3.030E-06,-0.320
-3.020E-06,-0.048
-3.010E-06,0.152
-3.000E-06,0.088
-2.990E-06,0.048
-2.980E-06,-0.072
-2.970E-06,-0.072
-2.960E-06,-0.016
-2.950E-06,0.200
-2.940E-06,0.264
-2.930E-06,0.400
-2.920E-06,0.360
-2.910E-06,0.256
-2.900E-06,0.008
-2.890E-06,-0.144
-2.880E-06,-0.152
-2.870E-06,-0.064
-2.860E-06,0.144
-2.850E-06,0.272
-2.840E-06,0.264
-2.830E-06,-0.040
-2.820E-06,-0.384
-2.810E-06,-0.704
-2.800E-06,-0.736
-2.790E-06,-0.448
-2.780E-06,0.048
-2.770E-06,0.608
-2.760E-06,0.984
-2.750E-06,0.872
-2.740E-06,0.568
-2.730E-06,0.000
-2.720E-06,-0.408
-2.710E-06,-0.608
-2.700E-06,-0.432
-2.690E-06,0.080
-2.680E-06,0.632
-2.670E-06,1.008
-2.660E-06,0.872
-2.650E-06,0.464
-2.640E-06,-0.136
-2.630E-06,-0.480
-2.620E-06,-0.480
-2.610E-06,-0.144
-2.600E-06,0.320
-2.590E-06,0.712
-2.580E-06,0.840
-2.570E-06,0.600
-2.560E-06,0.192
-2.550E-06,-0.192
-2.540E-06,-0.352
-2.530E-06,-0.248
-2.520E-06,0.088
-2.510E-06,0.440
-2.500E-06,0.656
-2.490E-06,0.632
-2.480E-06,0.408
-2.470E-06,0.112
-2.460E-06,-0.120
-2.450E-06,-0.160
-2.440E-06,-0.032
-2.430E-06,0.216
-2.420E-06,0.400
-2.410E-06,0.488
-2.400E-06,0.392
-2.390E-06,0.224
-2.380E-06,0.056
-2.370E-06,-0.032
-2.360E-06,0.008
-2.350E-06,0.152
-2.340E-06,0.312
-2.330E-06,0.400
-2.320E-06,0.384
-2.310E-06,0.280
-2.300E-06,0.152
-2.290E-06,0.048
-2.280E-06,0.024
-2.270E-06,0.088
-2.260E-06,0.192
-2.250E-06,0.280
-2.240E-06,0.320
-2.230E-06,0.272
-2.220E-06,0.192
-2.210E-06,0.128
-2.200E-06,0.088
-2.190E-06,0.112
-2.180E-06,0.152
-2.170E-06,0.248
-2.160E-06,0.264
-2.150E-06,0.272
-2.140E-06,0.224
-2.130E-06,0.176
-2.120E-06,0.120
-2.110E-06,0.112
-2.100E-06,0.136
-2.090E-06,0.184
-2.080E-06,0.216
-2.070E-06,0.232
-2.060E-06,0.232
-2.050E-06,0.192
-2.040E-06,0.184
-2.030E-06,0.152
-2.020E-06,0.152
-2.010E-06,0.176
-2.000E-06,0.192
-1.990E-06,0.216
-1.980E-06,0.208
-1.970E-06,0.184
-1.960E-06,0.176
-1.950E-06,0.152
-1.940E-06,0.128
-1.930E-06,0.152
-1.920E-06,0.184
-1.910E-06,0.192
-1.900E-06,0.192
-1.890E-06,0.200
-1.880E-06,0.176
-1.870E-06,0.168
-1.860E-06,0.152
-1.850E-06,0.152
-1.840E-06,0.152
-1.830E-06,0.168
-1.820E-06,0.176
-1.810E-06,0.176
-1.800E-06,0.168
-1.790E-06,0.168
-1.780E-06,0.160
-1.770E-06,0.152
-1.760E-06,0.152
-1.750E-06,0.152
-1.740E-06,0.176
-1.730E-06,0.184
-1.720E-06,0.176
-1.710E-06,0.176
-1.700E-06,0.160
-1.690E-06,0.152
-1.680E-06,0.144
-1.670E-06,0.152
-1.660E-06,0.160
-1.650E-06,0.160
-1.640E-06,0.168
-1.630E-06,0.160
-1.620E-06,0.160
-1.610E-06,0.152
-1.600E-06,0.152
-1.590E-06,0.160
-1.580E-06,0.152
-1.570E-06,0.168
-1.560E-06,0.160
-1.550E-06,0.168
-1.540E-06,0.160
-1.530E-06,0.144
-1.520E-06,0.144
-1.510E-06,0.144
-1.500E-06,0.160
-1.490E-06,0.144
-1.480E-06,0.144
-1.470E-06,0.152
-1.460E-06,0.160
-1.450E-06,0.152
-1.440E-06,0.144
-1.430E-06,0.144
-1.420E-06,0.144
-1.410E-06,0.152
-1.400E-06,0.144
-1.390E-06,0.152
-1.380E-06,0.144
-1.370E-06,0.144
-1.360E-06,0.152
-1.350E-06,0.144
-1.340E-06,0.144
-1.330E-06,0.136
-1.320E-06,0.144
-1.310E-06,0.160
-1.300E-06,0.152
-1.290E-06,0.160
-1.280E-06,0.152
-1.270E-06,0.144
-1.260E-06,0.136
-1.250E-06,0.152
-1.240E-06,0.152
-1.230E-06,0.136
-1.220E-06,0.144
-1.210E-06,0.136
-1.200E-06,0.136
-1.190E-06,0.136
-1.180E-06,0.128
-1.170E-06,0.136
-1.160E-06,0.136
-1.150E-06,0.128
-1.140E-06,0.136
-1.130E-06,0.128
-1.120E-06,0.144
-1.110E-06,0.128
-1.100E-06,0.128
-1.090E-06,0.136
-1.080E-06,0.136
-1.070E-06,0.136
-1.060E-06,0.136
-1.050E-06,0.128
-1.040E-06,0.128
-1.030E-06,0.120
-1.020E-06,0.128
-1.010E-06,0.136
-1.000E-06,0.128
-9.900E-07,0.120
-9.800E-07,0.128
-9.700E-07,0.136
-9.600E-07,0.128
-9.500E-07,0.120
-9.400E-07,0.120
-9.300E-07,0.120
-9.200E-07,0.128
-9.100E-07,0.128
-9.000E-07,0.128
-8.900E-07,0.128
-8.800E-07,0.128
-8.700E-07,0.120
-8.600E-07,0.120
-8.500E-07,0.112
-8.400E-07,0.120
-8.300E-07,0.120
-8.200E-07,0.128
-8.100E-07,0.120
-8.000E-07,0.112
-7.900E-07,0.112
-7.800E-07,0.120
-7.700E-07,0.112
-7.600E-07,0.120
-7.500E-07,0.112
-7.400E-07,0.112
-7.300E-07,0.120
-7.200E-07,0.112
-7.100E-07,0.120
-7.000E-07,0.112
-6.900E-07,0.112
-6.800E-07,0.112
-6.700E-07,0.112
-6.600E-07,0.112
-6.500E-07,0.112
-6.400E-07,0.112
-6.300E-07,0.120
-6.200E-07,0.112
-6.100E-07,0.112
-6.000E-07,0.112
-5.900E-07,0.120
-5.800E-07,0.112
-5.700E-07,0.104
-5.600E-07,0.112
-5.500E-07,0.104
-5.400E-07,0.104
-5.300E-07,0.112
-5.200E-07,0.112
-5.100E-07,0.104
-5.000E-07,0.112
-4.900E-07,0.104
-4.800E-07,0.104
-4.700E-07,0.104
-4.600E-07,0.120
-4.500E-07,0.112
-4.400E-07,0.104
-4.300E-07,0.112
-4.200E-07,0.112
-4.100E-07,0.104
-4.000E-07,0.104
-3.900E-07,0.096
-3.800E-07,0.096
-3.700E-07,0.096
-3.600E-07,0.096
-3.500E-07,0.096
-3.400E-07,0.088
-3.300E-07,0.088
-3.200E-07,0.096
-3.100E-07,0.096
-3.000E-07,0.088
-2.900E-07,0.088
-2.800E-07,0.096
-2.700E-07,0.088
-2.600E-07,0.096
-2.500E-07,0.088
-2.400E-07,0.088
-2.300E-07,0.096
-2.200E-07,0.088
-2.100E-07,0.088
-2.000E-07,0.080
-1.900E-07,0.096
-1.800E-07,0.088
-1.700E-07,0.080
-1.600E-07,0.088
-1.500E-07,0.088
-1.400E-07,0.088
-1.300E-07,0.096
-1.200E-07,0.088
-1.100E-07,0.080
-1.000E-07,0.080
-9.000E-08,0.088
-8.000E-08,0.088
-7.000E-08,0.088
-6.000E-08,0.088
-5.000E-08,0.080
-4.000E-08,0.088
-3.000E-08,0.088
-2.000E-08,0.080
-1.000E-08,0.080
0.000E+00,0.088
1.000E-08,0.088
2.000E-08,0.080
3.000E-08,0.072
4.000E-08,0.088
5.000E-08,0.080
6.000E-08,0.072
7.000E-08,0.072
8.000E-08,0.080
9.000E-08,0.080
1.000E-07,0.072
1.100E-07,0.080
1.200E-07,0.072
1.300E-07,0.064
1.400E-07,0.080
1.500E-07,0.072
1.600E-07,0.080
1.700E-07,0.064
1.800E-07,0.072
1.900E-07,0.072
2.000E-07,0.064
2.100E-07,0.064
2.200E-07,0.072
2.300E-07,0.072
2.400E-07,0.072
2.500E-07,0.072
2.600E-07,0.064
2.700E-07,0.072
2.800E-07,0.072
2.900E-07,0.064
3.000E-07,0.064
3.100E-07,0.072
3.200E-07,0.064
3.300E-07,0.072
3.400E-07,0.064
3.500E-07,0.072
3.600E-07,0.072
3.700E-07,0.072
3.800E-07,0.072
3.900E-07,0.072
4.000E-07,0.064
4.100E-07,0.072
4.200E-07,0.064
4.300E-07,0.064
4.400E-07,0.064
4.500E-07,0.064
4.600E-07,0.056
4.700E-07,0.064
4.800E-07,0.056
4.900E-07,0.056
5.000E-07,0.064
5.100E-07,0.064
5.200E-07,0.056
5.300E-07,0.064
5.400E-07,0.056
5.500E-07,0.064
5.600E-07,0.064
5.700E-07,0.064
5.800E-07,0.064
5.900E-07,0.056
6.000E-07,0.056
6.100E-07,0.056
6.200E-07,0.064
6.300E-07,0.064
6.400E-07,0.056
6.500E-07,0.056
6.600E-07,0.064
6.700E-07,0.064
6.800E-07,0.064
6.900E-07,0.048
7.000E-07,0.048
7.100E-07,0.056
7.200E-07,0.056
7.300E-07,0.064
7.400E-07,0.056
7.500E-07,0.064
7.600E-07,0.056
7.700E-07,0.048
7.800E-07,0.048
7.900E-07,0.056
8.000E-07,0.056
8.100E-07,0.048
8.200E-07,0.048
8.300E-07,0.056
8.400E-07,0.048
8.500E-07,0.048
8.600E-07,0.056
8.700E-07,0.056
8.800E-07,0.040
8.900E-07,0.048
9.000E-07,0.056
9.100E-07,0.048
9.200E-07,0.056
9.300E-07,0.048
9.400E-07,0.048
9.500E-07,0.056
9.600E-07,0.048
9.700E-07,0.048
9.800E-07,0.040
9.900E-07,0.040
1.000E-06,0.056
1.010E-06,0.056
1.020E-06,0.048
1.030E-06,0.048
1.040E-06,0.056
1.050E-06,0.048
1.060E-06,0.048
1.070E-06,0.048
1.080E-06,0.048
1.090E-06,0.048
1.100E-06,0.048
1.110E-06,0.040
1.120E-06,0.048
1.130E-06,0.040
1.140E-06,0.040
1.150E-06,0.048
1.160E-06,0.048
1.170E-06,0.048
1.180E-06,0.048
1.190E-06,0.040
1.200E-06,0.040
1.210E-06,0.040
1.220E-06,0.040
1.230E-06,0.048
1.240E-06,0.048
1.250E-06,0.040
1.260E-06,0.040
1.270E-06,0.048
1.280E-06,0.040
1.290E-06,0.024
1.300E-06,0.024
1.310E-06,0.032
1.320E-06,0.040
1.330E-06,0.040
1.340E-06,0.056
1.350E-06,0.056
1.360E-06,0.048
1.370E-06,0.048
1.380E-06,0.040
1.390E-06,0.040
1.400E-06,0.048
1.410E-06,0.032
1.420E-06,0.024
1.430E-06,0.032
1.440E-06,0.032
1.450E-06,0.024
1.460E-06,0.032
1.470E-06,0.024
1.480E-06,0.032
1.490E-06,0.040
1.500E-06,0.048
1.510E-06,0.064
1.520E-06,0.056
1.530E-06,0.048
1.540E-06,0.016
1.550E-06,-0.008
1.560E-06,0.000
1.570E-06,0.024
1.580E-06,0.072
1.590E-06,0.080
1.600E-06,0.072
1.610E-06,0.048
1.620E-06,0.000
1.630E-06,-0.024
1.640E-06,-0.008
1.650E-06,0.008
1.660E-06,0.040
1.670E-06,0.064
1.680E-06,0.064
1.690E-06,0.056
1.700E-06,0.008
1.710E-06,-0.016
1.720E-06,-0.016
1.730E-06,-0.008
1.740E-06,0.024
1.750E-06,0.032
1.760E-06,0.056
1.770E-06,0.048
1.780E-06,0.032
1.790E-06,0.008
1.800E-06,0.000
1.810E-06,-0.008
1.820E-06,0.008
1.830E-06,0.024
1.840E-06,0.040
1.850E-06,0.032
1.860E-06,0.032
1.870E-06,0.016
1.880E-06,0.000
1.890E-06,0.000
1.900E-06,0.000
1.910E-06,0.024
1.920E-06,0.024
1.930E-06,0.032
1.940E-06,0.024
1.950E-06,0.016
1.960E-06,0.008
1.970E-06,0.008
1.980E-06,0.000
1.990E-06,0.008
2.000E-06,0.016
2.010E-06,0.024
2.020E-06,0.024
2.030E-06,0.008
2.040E-06,0.000
2.050E-06,0.008
2.060E-06,0.000
2.070E-06,0.008
2.080E-06,0.024
2.090E-06,0.016
2.100E-06,0.024
2.110E-06,0.016
2.120E-06,0.008
2.130E-06,0.000
2.140E-06,0.000
2.150E-06,0.008
2.160E-06,0.000
2.170E-06,0.008
2.180E-06,0.016
2.190E-06,0.016
2.200E-06,0.008
2.210E-06,0.008
2.220E-06,0.000
2.230E-06,0.000
2.240E-06,0.008
2.250E-06,0.008
2.260E-06,0.008
2.270E-06,0.016
2.280E-06,0.016
2.290E-06,0.008
2.300E-06,0.008
2.310E-06,0.000
2.320E-06,0.000
2.330E-06,0.000
2.340E-06,0.008
2.350E-06,0.000
2.360E-06,0.016
2.370E-06,0.000
2.380E-06,0.008
2.390E-06,0.000
2.400E-06,0.000
2.410E-06,0.000
2.420E-06,0.000
2.430E-06,0.000
2.440E-06,0.000
2.450E-06,0.000
2.460E-06,0.000
2.470E-06,0.000
2.480E-06,0.008
2.490E-06,0.000
2.500E-06,0.008
2.510E-06,0.000
2.520E-06,-0.008
2.530E-06,-0.008
2.540E-06,0.000
2.550E-06,0.008
2.560E-06,0.008
2.570E-06,0.008
2.580E-06,0.000
2.590E-06,-0.008
2.600E-06,-0.008
2.610E-06,-0.008
2.620E-06,-0.008
2.630E-06,-0.008
2.640E-06,0.008
2.650E-06,-0.008
2.660E-06,0.008
2.670E-06,0.000
2.680E-06,-0.008
2.690E-06,-0.008
2.700E-06,-0.008
2.710E-06,-0.008
2.720E-06,-0.008
2.730E-06,-0.008
2.740E-06,-0.008
2.750E-06,-0.008
2.760E-06,-0.016
2.770E-06,-0.008
2.780E-06,-0.008
2.790E-06,-0.008
2.800E-06,-0.016
2.810E-06,-0.008
2.820E-06,0.000
2.830E-06,-0.008
2.840E-06,-0.008
2.850E-06,-0.008
2.860E-06,0.000
2.870E-06,-0.016
2.880E-06,-0.008
2.890E-06,-0.008
2.900E-06,0.000
2.910E-06,-0.008
2.920E-06,-0.008
2.930E-06,-0.008
2.940E-06,-0.008
2.950E-06,-0.008
2.960E-06,0.000
2.970E-06,-0.008
2.980E-06,-0.008
2.990E-06,-0.008
3.000E-06,-0.008
3.010E-06,-0.008
3.020E-06,0.000
3.030E-06,-0.016
3.040E-06,-0.016
3.050E-06,-0.008
3.060E-06,-0.008
3.070E-06,-0.008
3.080E-06,-0.016
3.090E-06,-0.016
3.100E-06,-0.008
3.110E-06,-0.016
3.120E-06,-0.008
3.130E-06,-0.016
3.140E-06,-0.016
3.150E-06,-0.008
3.160E-06,-0.016
3.170E-06,-0.008
3.180E-06,-0.008
3.190E-06,-0.016
3.200E-06,-0.016
3.210E-06,-0.008
3.220E-06,-0.008
3.230E-06,-0.016
3.240E-06,-0.016
3.250E-06,-0.016
3.260E-06,-0.008
3.270E-06,-0.016
3.280E-06,-0.016
3.290E-06,-0.008
3.300E-06,-0.008
3.310E-06,-0.016
3.320E-06,-0.016
3.330E-06,-0.016
3.340E-06,-0.016
3.350E-06,-0.016
3.360E-06,-0.016
3.370E-06,-0.008
3.380E-06,-0.016
