mediciones/8-28/9/WaveData6653.csv

#timebase=2000000(ps)
,#voltbase=500000(mv/100)
#size=4000
-8.350E-06,0.040
-8.340E-06,0.080
-8.330E-06,0.040
-8.320E-06,0.060
-8.310E-06,0.060
-8.300E-06,0.040
-8.290E-06,0.060
-8.280E-06,0.060
-8.270E-06,0.040
-8.260E-06,0.040
-8.250E-06,0.040
-8.240E-06,0.060
-8.230E-06,0.040
-8.220E-06,0.040
-8.210E-06,0.040
-8.200E-06,0.040
-8.190E-06,0.060
-8.180E-06,0.040
-8.170E-06,0.060
-8.160E-06,0.060
-8.150E-06,0.020
-8.140E-06,0.020
-8.130E-06,0.020
-8.120E-06,0.040
-8.110E-06,0.020
-8.100E-06,0.040
-8.090E-06,0.040
-8.080E-06,0.080
-8.070E-06,0.080
-8.060E-06,0.060
-8.050E-06,0.060
-8.040E-06,0.060
-8.030E-06,0.080
-8.020E-06,0.060
-8.010E-06,0.040
-8.000E-06,0.040
-7.990E-06,0.040
-7.980E-06,0.060
-7.970E-06,0.060
-7.960E-06,0.040
-7.950E-06,0.040
-7.940E-06,0.060
-7.930E-06,0.080
-7.920E-06,0.060
-7.910E-06,0.060
-7.900E-06,0.060
-7.890E-06,0.080
-7.880E-06,0.060
-7.870E-06,0.080
-7.860E-06,0.040
-7.850E-06,0.040
-7.840E-06,0.060
-7.830E-06,0.080
-7.820E-06,0.080
-7.810E-06,0.060
-7.800E-06,0.040
-7.790E-06,0.060
-7.780E-06,0.060
-7.770E-06,0.060
-7.760E-06,0.020
-7.750E-06,0.040
-7.740E-06,0.040
-7.730E-06,0.040
-7.720E-06,0.040
-7.710E-06,0.040
-7.700E-06,0.040
-7.690E-06,0.040
-7.680E-06,0.040
-7.670E-06,0.080
-7.660E-06,0.060
-7.650E-06,0.060
-7.640E-06,0.060
-7.630E-06,0.080
-7.620E-06,0.060
-7.610E-06,0.040
-7.600E-06,0.060
-7.590E-06,0.060
-7.580E-06,0.060
-7.570E-06,0.060
-7.560E-06,0.060
-7.550E-06,0.040
-7.540E-06,0.060
-7.530E-06,0.060
-7.520E-06,0.060
-7.510E-06,0.080
-7.500E-06,0.060
-7.490E-06,0.060
-7.480E-06,0.060
-7.470E-06,0.060
-7.460E-06,0.020
-7.450E-06,0.020
-7.440E-06,0.040
-7.430E-06,0.060
-7.420E-06,0.040
-7.410E-06,0.040
-7.400E-06,0.040
-7.390E-06,0.040
-7.380E-06,0.020
-7.370E-06,0.020
-7.360E-06,0.040
-7.350E-06,0.040
-7.340E-06,0.040
-7.330E-06,0.040
-7.320E-06,0.040
-7.310E-06,0.040
-7.300E-06,0.040
-7.290E-06,0.040
-7.280E-06,0.040
-7.270E-06,0.080
-7.260E-06,0.040
-7.250E-06,0.060
-7.240E-06,0.040
-7.230E-06,0.040
-7.220E-06,0.020
-7.210E-06,0.060
-7.200E-06,0.060
-7.190E-06,0.080
-7.180E-06,0.080
-7.170E-06,0.040
-7.160E-06,0.060
-7.150E-06,0.060
-7.140E-06,0.060
-7.130E-06,0.040
-7.120E-06,0.080
-7.110E-06,0.060
-7.100E-06,0.080
-7.090E-06,0.060
-7.080E-06,0.040
-7.070E-06,0.040
-7.060E-06,0.040
-7.050E-06,0.060
-7.040E-06,0.040
-7.030E-06,0.040
-7.020E-06,0.060
-7.010E-06,0.040
-7.000E-06,0.060
-6.990E-06,0.040
-6.980E-06,0.060
-6.970E-06,0.060
-6.960E-06,0.040
-6.950E-06,0.020
-6.940E-06,0.040
-6.930E-06,0.060
-6.920E-06,0.040
-6.910E-06,0.060
-6.900E-06,0.060
-6.890E-06,0.080
-6.880E-06,0.080
-6.870E-06,0.080
-6.860E-06,0.040
-6.850E-06,0.060
-6.840E-06,0.060
-6.830E-06,0.060
-6.820E-06,0.040
-6.810E-06,0.060
-6.800E-06,0.040
-6.790E-06,0.040
-6.780E-06,0.020
-6.770E-06,0.020
-6.760E-06,0.060
-6.750E-06,0.040
-6.740E-06,0.080
-6.730E-06,0.080
-6.720E-06,0.040
-6.710E-06,0.060
-6.700E-06,0.020
-6.690E-06,0.040
-6.680E-06,0.080
-6.670E-06,0.060
-6.660E-06,0.060
-6.650E-06,0.040
-6.640E-06,0.060
-6.630E-06,0.040
-6.620E-06,0.060
-6.610E-06,0.060
-6.600E-06,0.040
-6.590E-06,0.040
-6.580E-06,0.060
-6.570E-06,0.040
-6.560E-06,0.040
-6.550E-06,0.020
-6.540E-06,0.060
-6.530E-06,0.060
-6.520E-06,0.060
-6.510E-06,0.040
-6.500E-06,0.040
-6.490E-06,0.060
-6.480E-06,0.060
-6.470E-06,0.060
-6.460E-06,0.060
-6.450E-06,0.040
-6.440E-06,0.080
-6.430E-06,0.060
-6.420E-06,0.060
-6.410E-06,0.080
-6.400E-06,0.040
-6.390E-06,0.040
-6.380E-06,0.040
-6.370E-06,0.020
-6.360E-06,0.060
-6.350E-06,0.040
-6.340E-06,0.060
-6.330E-06,0.040
-6.320E-06,0.040
-6.310E-06,0.080
-6.300E-06,0.060
-6.290E-06,0.060
-6.280E-06,0.060
-6.270E-06,0.040
-6.260E-06,0.040
-6.250E-06,0.040
-6.240E-06,0.040
-6.230E-06,0.040
-6.220E-06,0.080
-6.210E-06,0.060
-6.200E-06,0.060
-6.190E-06,0.060
-6.180E-06,0.040
-6.170E-06,0.020
-6.160E-06,0.040
-6.150E-06,0.060
-6.140E-06,0.060
-6.130E-06,0.040
-6.120E-06,0.060
-6.110E-06,0.060
-6.100E-06,0.060
-6.090E-06,0.060
-6.080E-06,0.060
-6.070E-06,0.040
-6.060E-06,0.040
-6.050E-06,0.020
-6.040E-06,0.040
-6.030E-06,0.040
-6.020E-06,0.060
-6.010E-06,0.060
-6.000E-06,0.060
-5.990E-06,0.060
-5.980E-06,0.020
-5.970E-06,0.060
-5.960E-06,0.040
-5.950E-06,0.080
-5.940E-06,0.060
-5.930E-06,0.080
-5.920E-06,0.060
-5.910E-06,0.040
-5.900E-06,0.060
-5.890E-06,0.040
-5.880E-06,0.040
-5.870E-06,0.060
-5.860E-06,0.060
-5.850E-06,0.060
-5.840E-06,0.040
-5.830E-06,0.020
-5.820E-06,0.060
-5.810E-06,0.060
-5.800E-06,0.040
-5.790E-06,0.040
-5.780E-06,0.040
-5.770E-06,0.060
-5.760E-06,0.040
-5.750E-06,0.060
-5.740E-06,0.060
-5.730E-06,0.060
-5.720E-06,0.060
-5.710E-06,0.040
-5.700E-06,0.060
-5.690E-06,0.060
-5.680E-06,0.060
-5.670E-06,0.060
-5.660E-06,0.060
-5.650E-06,0.040
-5.640E-06,0.040
-5.630E-06,0.040
-5.620E-06,0.060
-5.610E-06,0.040
-5.600E-06,0.040
-5.590E-06,0.040
-5.580E-06,0.040
-5.570E-06,0.040
-5.560E-06,0.040
-5.550E-06,0.060
-5.540E-06,0.060
-5.530E-06,0.060
-5.520E-06,0.040
-5.510E-06,0.060
-5.500E-06,0.040
-5.490E-06,0.060
-5.480E-06,0.040
-5.470E-06,0.040
-5.460E-06,0.040
-5.450E-06,0.060
-5.440E-06,0.040
-5.430E-06,0.040
-5.420E-06,0.040
-5.410E-06,0.040
-5.400E-06,0.020
-5.390E-06,0.060
-5.380E-06,0.060
-5.370E-06,0.060
-5.360E-06,0.040
-5.350E-06,0.080
-5.340E-06,0.020
-5.330E-06,0.020
-5.320E-06,0.040
-5.310E-06,0.040
-5.300E-06,0.040
-5.290E-06,0.060
-5.280E-06,0.040
-5.270E-06,0.040
-5.260E-06,0.060
-5.250E-06,0.060
-5.240E-06,0.040
-5.230E-06,0.080
-5.220E-06,0.080
-5.210E-06,0.080
-5.200E-06,0.060
-5.190E-06,0.060
-5.180E-06,0.040
-5.170E-06,0.060
-5.160E-06,0.060
-5.150E-06,0.060
-5.140E-06,0.080
-5.130E-06,0.060
-5.120E-06,0.080
-5.110E-06,0.060
-5.100E-06,0.080
-5.090E-06,0.080
-5.080E-06,0.060
-5.070E-06,0.040
-5.060E-06,0.040
-5.050E-06,0.040
-5.040E-06,0.040
-5.030E-06,0.080
-5.020E-06,0.060
-5.010E-06,0.080
-5.000E-06,0.040
-4.990E-06,0.060
-4.980E-06,0.040
-4.970E-06,0.040
-4.960E-06,0.060
-4.950E-06,0.060
-4.940E-06,0.060
-4.930E-06,0.040
-4.920E-06,0.020
-4.910E-06,0.060
-4.900E-06,0.040
-4.890E-06,0.080
-4.880E-06,0.100
-4.870E-06,0.040
-4.860E-06,0.060
-4.850E-06,0.020
-4.840E-06,0.060
-4.830E-06,0.060
-4.820E-06,0.060
-4.810E-06,0.040
-4.800E-06,0.040
-4.790E-06,0.040
-4.780E-06,0.040
-4.770E-06,0.040
-4.760E-06,0.060
-4.750E-06,0.060
-4.740E-06,0.040
-4.730E-06,0.060
-4.720E-06,0.040
-4.710E-06,0.060
-4.700E-06,0.060
-4.690E-06,0.060
-4.680E-06,0.040
-4.670E-06,0.060
-4.660E-06,0.040
-4.650E-06,0.060
-4.640E-06,0.040
-4.630E-06,0.040
-4.620E-06,0.080
-4.610E-06,0.060
-4.600E-06,0.060
-4.590E-06,0.060
-4.580E-06,0.040
-4.570E-06,0.020
-4.560E-06,0.060
-4.550E-06,0.060
-4.540E-06,0.040
-4.530E-06,0.060
-4.520E-06,0.060
-4.510E-06,0.060
-4.500E-06,0.040
-4.490E-06,0.060
-4.480E-06,0.040
-4.470E-06,0.060
-4.460E-06,0.040
-4.450E-06,0.040
-4.440E-06,0.060
-4.430E-06,0.020
-4.420E-06,0.020
-4.410E-06,0.040
-4.400E-06,0.060
-4.390E-06,0.040
-4.380E-06,-0.060
-4.370E-06,-0.440
-4.360E-06,-1.180
-4.350E-06,-2.100
-4.340E-06,-2.900
-4.330E-06,-3.280
-4.320E-06,-3.280
-4.310E-06,-1.120
-4.300E-06,-0.580
-4.290E-06,-0.720
-4.280E-06,1.800
-4.270E-06,1.820
-4.260E-06,1.820
-4.250E-06,1.820
-4.240E-06,1.840
-4.230E-06,1.820
-4.220E-06,1.820
-4.210E-06,1.820
-4.200E-06,0.980
-4.190E-06,-0.580
-4.180E-06,-0.480
-4.170E-06,-0.960
-4.160E-06,-1.080
-4.150E-06,-0.740
-4.140E-06,-0.420
-4.130E-06,-0.260
-4.120E-06,-0.520
-4.110E-06,-0.460
-4.100E-06,-0.640
-4.090E-06,-1.160
-4.080E-06,-1.360
-4.070E-06,-1.680
-4.060E-06,-1.740
-4.050E-06,-1.760
-4.040E-06,-1.420
-4.030E-06,-0.960
-4.020E-06,-0.440
-4.010E-06,0.300
-4.000E-06,1.000
-3.990E-06,1.440
-3.980E-06,1.720
-3.970E-06,1.840
-3.960E-06,1.620
-3.950E-06,1.240
-3.940E-06,0.880
-3.930E-06,0.320
-3.920E-06,-0.160
-3.910E-06,-0.520
-3.900E-06,-0.860
-3.890E-06,-1.000
-3.880E-06,-1.040
-3.870E-06,-0.960
-3.860E-06,-0.820
-3.850E-06,-0.620
-3.840E-06,-0.460
-3.830E-06,-0.320
-3.820E-06,-0.160
-3.810E-06,0.040
-3.800E-06,0.220
-3.790E-06,0.420
-3.780E-06,0.580
-3.770E-06,0.780
-3.760E-06,0.900
-3.750E-06,1.000
-3.740E-06,1.020
-3.730E-06,1.040
-3.720E-06,0.980
-3.710E-06,0.820
-3.700E-06,0.640
-3.690E-06,0.420
-3.680E-06,0.200
-3.670E-06,0.000
-3.660E-06,-0.200
-3.650E-06,-0.440
-3.640E-06,-0.540
-3.630E-06,-0.680
-3.620E-06,-0.740
-3.610E-06,-0.780
-3.600E-06,-0.760
-3.590E-06,-0.700
-3.580E-06,-0.620
-3.570E-06,-0.480
-3.560E-06,-0.240
-3.550E-06,0.000
-3.540E-06,0.220
-3.530E-06,0.440
-3.520E-06,0.660
-3.510E-06,0.740
-3.500E-06,0.840
-3.490E-06,0.860
-3.480E-06,0.800
-3.470E-06,0.680
-3.460E-06,0.500
-3.450E-06,0.280
-3.440E-06,0.060
-3.430E-06,-0.120
-3.420E-06,-0.320
-3.410E-06,-0.440
-3.400E-06,-0.520
-3.390E-06,-0.560
-3.380E-06,-0.560
-3.370E-06,-0.560
-3.360E-06,-0.560
-3.350E-06,-0.480
-3.340E-06,-0.440
-3.330E-06,-0.360
-3.320E-06,-0.300
-3.310E-06,-0.220
-3.300E-06,-0.160
-3.290E-06,-0.100
-3.280E-06,-0.020
-3.270E-06,0.080
-3.260E-06,0.120
-3.250E-06,0.160
-3.240E-06,0.260
-3.230E-06,0.260
-3.220E-06,0.320
-3.210E-06,0.300
-3.200E-06,0.260
-3.190E-06,0.180
-3.180E-06,0.140
-3.170E-06,0.060
-3.160E-06,0.020
-3.150E-06,-0.060
-3.140E-06,-0.060
-3.130E-06,-0.100
-3.120E-06,-0.120
-3.110E-06,-0.100
-3.100E-06,-0.080
-3.090E-06,-0.100
-3.080E-06,-0.100
-3.070E-06,-0.040
-3.060E-06,-0.100
-3.050E-06,0.000
-3.040E-06,-0.060
-3.030E-06,-0.040
-3.020E-06,-0.040
-3.010E-06,-0.040
-3.000E-06,0.020
-2.990E-06,0.020
-2.980E-06,-0.020
-2.970E-06,0.020
-2.960E-06,0.000
-2.950E-06,0.000
-2.940E-06,0.000
-2.930E-06,-0.080
-2.920E-06,-0.120
-2.910E-06,-0.200
-2.900E-06,-0.260
-2.890E-06,-0.300
-2.880E-06,-0.380
-2.870E-06,-0.400
-2.860E-06,-0.380
-2.850E-06,-0.380
-2.840E-06,-0.360
-2.830E-06,-0.340
-2.820E-06,-0.340
-2.810E-06,-0.320
-2.800E-06,-0.320
-2.790E-06,-0.400
-2.780E-06,-0.420
-2.770E-06,-0.480
-2.760E-06,-0.460
-2.750E-06,-0.520
-2.740E-06,-0.520
-2.730E-06,-0.500
-2.720E-06,-0.500
-2.710E-06,-0.440
-2.700E-06,-0.380
-2.690E-06,-0.420
-2.680E-06,-0.400
-2.670E-06,-0.340
-2.660E-06,-0.380
-2.650E-06,-0.340
-2.640E-06,-0.400
-2.630E-06,-0.380
-2.620E-06,-0.460
-2.610E-06,-0.520
-2.600E-06,-0.560
-2.590E-06,-0.500
-2.580E-06,-0.480
-2.570E-06,-0.260
-2.560E-06,0.040
-2.550E-06,0.400
-2.540E-06,0.740
-2.530E-06,0.760
-2.520E-06,0.640
-2.510E-06,0.220
-2.500E-06,-0.320
-2.490E-06,-0.940
-2.480E-06,-1.480
-2.470E-06,-1.940
-2.460E-06,-2.220
-2.450E-06,-2.340
-2.440E-06,-2.280
-2.430E-06,-2.140
-2.420E-06,-1.840
-2.410E-06,-1.520
-2.400E-06,-1.260
-2.390E-06,-1.040
-2.380E-06,-0.940
-2.370E-06,-0.860
-2.360E-06,-0.800
-2.350E-06,-0.740
-2.340E-06,-0.700
-2.330E-06,-0.620
-2.320E-06,-0.460
-2.310E-06,-0.380
-2.300E-06,-0.280
-2.290E-06,-0.260
-2.280E-06,-0.280
-2.270E-06,-0.320
-2.260E-06,-0.440
-2.250E-06,-0.600
-2.240E-06,-0.800
-2.230E-06,-1.020
-2.220E-06,-1.260
-2.210E-06,-1.540
-2.200E-06,-1.780
-2.190E-06,-1.960
-2.180E-06,-2.040
-2.170E-06,-2.060
-2.160E-06,-2.040
-2.150E-06,-1.900
-2.140E-06,-1.700
-2.130E-06,-1.500
-2.120E-06,-1.240
-2.110E-06,-0.980
-2.100E-06,-0.800
-2.090E-06,-0.680
-2.080E-06,-0.620
-2.070E-06,-0.640
-2.060E-06,-0.720
-2.050E-06,-0.820
-2.040E-06,-0.940
-2.030E-06,-1.100
-2.020E-06,-1.220
-2.010E-06,-1.400
-2.000E-06,-1.540
-1.990E-06,-1.620
-1.980E-06,-1.700
-1.970E-06,-1.740
-1.960E-06,-1.740
-1.950E-06,-1.740
-1.940E-06,-1.680
-1.930E-06,-1.620
-1.920E-06,-1.580
-1.910E-06,-1.540
-1.900E-06,-1.500
-1.890E-06,-1.400
-1.880E-06,-1.300
-1.870E-06,-1.220
-1.860E-06,-1.120
-1.850E-06,-0.960
-1.840E-06,-0.840
-1.830E-06,-0.680
-1.820E-06,-0.580
-1.810E-06,-0.500
-1.800E-06,-0.500
-1.790E-06,-0.540
-1.780E-06,-0.600
-1.770E-06,-0.680
-1.760E-06,-0.800
-1.750E-06,-0.940
-1.740E-06,-1.020
-1.730E-06,-1.120
-1.720E-06,-1.200
-1.710E-06,-1.260
-1.700E-06,-1.260
-1.690E-06,-1.220
-1.680E-06,-1.180
-1.670E-06,-1.060
-1.660E-06,-1.000
-1.650E-06,-0.880
-1.640E-06,-0.800
-1.630E-06,-0.760
-1.620E-06,-0.720
-1.610E-06,-0.720
-1.600E-06,-0.740
-1.590E-06,-0.780
-1.580E-06,-0.760
-1.570E-06,-0.760
-1.560E-06,-0.800
-1.550E-06,-0.780
-1.540E-06,-0.760
-1.530E-06,-0.760
-1.520E-06,-0.760
-1.510E-06,-0.720
-1.500E-06,-0.680
-1.490E-06,-0.660
-1.480E-06,-0.620
-1.470E-06,-0.600
-1.460E-06,-0.600
-1.450E-06,-0.580
-1.440E-06,-0.520
-1.430E-06,-0.520
-1.420E-06,-0.520
-1.410E-06,-0.460
-1.400E-06,-0.400
-1.390E-06,-0.340
-1.380E-06,-0.320
-1.370E-06,-0.240
-1.360E-06,-0.200
-1.350E-06,-0.160
-1.340E-06,-0.080
-1.330E-06,-0.100
-1.320E-06,-0.060
-1.310E-06,-0.020
-1.300E-06,-0.020
-1.290E-06,0.000
-1.280E-06,0.040
-1.270E-06,0.040
-1.260E-06,0.040
-1.250E-06,0.020
-1.240E-06,0.040
-1.230E-06,0.060
-1.220E-06,0.060
-1.210E-06,0.100
-1.200E-06,0.060
-1.190E-06,0.100
-1.180E-06,0.140
-1.170E-06,0.160
-1.160E-06,0.160
-1.150E-06,0.180
-1.140E-06,0.140
-1.130E-06,0.140
-1.120E-06,0.120
-1.110E-06,0.160
-1.100E-06,0.120
-1.090E-06,0.160
-1.080E-06,0.160
-1.070E-06,0.180
-1.060E-06,0.180
-1.050E-06,0.200
-1.040E-06,0.240
-1.030E-06,0.200
-1.020E-06,0.200
-1.010E-06,0.180
-1.000E-06,0.140
-9.900E-07,0.140
-9.800E-07,0.080
-9.700E-07,0.080
-9.600E-07,0.080
-9.500E-07,0.080
-9.400E-07,0.080
-9.300E-07,0.080
-9.200E-07,0.080
-9.100E-07,0.060
-9.000E-07,0.080
-8.900E-07,0.040
-8.800E-07,0.040
-8.700E-07,0.020
-8.600E-07,0.000
-8.500E-07,0.000
-8.400E-07,-0.020
-8.300E-07,-0.040
-8.200E-07,-0.020
-8.100E-07,-0.080
-8.000E-07,-0.060
-7.900E-07,-0.080
-7.800E-07,-0.080
-7.700E-07,-0.040
-7.600E-07,-0.060
-7.500E-07,-0.100
-7.400E-07,-0.080
-7.300E-07,-0.080
-7.200E-07,-0.140
-7.100E-07,-0.180
-7.000E-07,-0.220
-6.900E-07,-0.300
-6.800E-07,-0.360
-6.700E-07,-0.420
-6.600E-07,-0.440
-6.500E-07,-0.520
-6.400E-07,-0.560
-6.300E-07,-0.680
-6.200E-07,-0.780
-6.100E-07,-0.840
-6.000E-07,-0.880
-5.900E-07,-0.980
-5.800E-07,-1.040
-5.700E-07,-1.100
-5.600E-07,-1.160
-5.500E-07,-1.180
-5.400E-07,-1.220
-5.300E-07,-1.200
-5.200E-07,-1.260
-5.100E-07,-1.260
-5.000E-07,-1.260
-4.900E-07,-1.280
-4.800E-07,-1.280
-4.700E-07,-1.300
-4.600E-07,-1.300
-4.500E-07,-1.260
-4.400E-07,-1.240
-4.300E-07,-1.160
-4.200E-07,-1.160
-4.100E-07,-1.120
-4.000E-07,-1.100
-3.900E-07,-1.040
-3.800E-07,-1.000
-3.700E-07,-0.980
-3.600E-07,-0.940
-3.500E-07,-0.920
-3.400E-07,-0.880
-3.300E-07,-0.880
-3.200E-07,-0.840
-3.100E-07,-0.740
-3.000E-07,-0.700
-2.900E-07,-0.620
-2.800E-07,-0.560
-2.700E-07,-0.440
-2.600E-07,-0.300
-2.500E-07,-0.180
-2.400E-07,-0.080
-2.300E-07,0.000
-2.200E-07,0.140
-2.100E-07,0.220
-2.000E-07,0.280
-1.900E-07,0.380
-1.800E-07,0.440
-1.700E-07,0.500
-1.600E-07,0.540
-1.500E-07,0.560
-1.400E-07,0.560
-1.300E-07,0.600
-1.200E-07,0.580
-1.100E-07,0.580
-1.000E-07,0.600
-9.000E-08,0.580
-8.000E-08,0.560
-7.000E-08,0.520
-6.000E-08,0.520
-5.000E-08,0.480
-4.000E-08,0.460
-3.000E-08,0.420
-2.000E-08,0.340
-1.000E-08,0.300
0.000E+00,0.200
1.000E-08,0.160
2.000E-08,0.080
3.000E-08,0.000
4.000E-08,-0.100
5.000E-08,-0.180
6.000E-08,-0.300
7.000E-08,-0.420
8.000E-08,-0.440
9.000E-08,-0.520
1.000E-07,-0.600
1.100E-07,-0.620
1.200E-07,-0.600
1.300E-07,-0.600
1.400E-07,-0.580
1.500E-07,-0.620
1.600E-07,-0.620
1.700E-07,-0.600
1.800E-07,-0.600
1.900E-07,-0.580
2.000E-07,-0.580
2.100E-07,-0.540
2.200E-07,-0.560
2.300E-07,-0.520
2.400E-07,-0.480
2.500E-07,-0.480
2.600E-07,-0.440
2.700E-07,-0.440
2.800E-07,-0.420
2.900E-07,-0.400
3.000E-07,-0.380
3.100E-07,-0.340
3.200E-07,-0.260
3.300E-07,-0.220
3.400E-07,-0.180
3.500E-07,-0.100
3.600E-07,0.000
3.700E-07,0.080
3.800E-07,0.160
3.900E-07,0.240
4.000E-07,0.300
4.100E-07,0.380
4.200E-07,0.420
4.300E-07,0.480
4.400E-07,0.520
4.500E-07,0.560
4.600E-07,0.580
4.700E-07,0.560
4.800E-07,0.480
4.900E-07,0.440
5.000E-07,0.320
5.100E-07,0.240
5.200E-07,0.180
5.300E-07,0.060
5.400E-07,0.020
5.500E-07,-0.020
5.600E-07,-0.040
5.700E-07,-0.040
5.800E-07,0.000
5.900E-07,0.020
6.000E-07,0.060
6.100E-07,0.100
6.200E-07,0.140
6.300E-07,0.140
6.400E-07,0.160
6.500E-07,0.180
6.600E-07,0.120
6.700E-07,0.140
6.800E-07,0.140
6.900E-07,0.120
7.000E-07,0.120
7.100E-07,0.140
7.200E-07,0.200
7.300E-07,0.180
7.400E-07,0.240
7.500E-07,0.240
7.600E-07,0.280
7.700E-07,0.280
7.800E-07,0.240
7.900E-07,0.240
8.000E-07,0.140
8.100E-07,0.080
8.200E-07,0.040
8.300E-07,0.000
8.400E-07,-0.060
8.500E-07,-0.080
8.600E-07,-0.100
8.700E-07,-0.100
8.800E-07,-0.100
8.900E-07,-0.100
9.000E-07,-0.140
9.100E-07,-0.140
9.200E-07,-0.160
9.300E-07,-0.200
9.400E-07,-0.240
9.500E-07,-0.280
9.600E-07,-0.280
9.700E-07,-0.280
9.800E-07,-0.340
9.900E-07,-0.340
1.000E-06,-0.340
1.010E-06,-0.320
1.020E-06,-0.300
1.030E-06,-0.360
1.040E-06,-0.340
1.050E-06,-0.300
1.060E-06,-0.300
1.070E-06,-0.280
1.080E-06,-0.280
1.090E-06,-0.240
1.100E-06,-0.240
1.110E-06,-0.180
1.120E-06,-0.200
1.130E-06,-0.140
1.140E-06,-0.080
1.150E-06,-0.080
1.160E-06,-0.040
1.170E-06,-0.020
1.180E-06,0.040
1.190E-06,0.120
1.200E-06,0.140
1.210E-06,0.200
1.220E-06,0.300
1.230E-06,0.320
1.240E-06,0.400
1.250E-06,0.420
1.260E-06,0.460
1.270E-06,0.520
1.280E-06,0.560
1.290E-06,0.600
1.300E-06,0.640
1.310E-06,0.660
1.320E-06,0.660
1.330E-06,0.680
1.340E-06,0.680
1.350E-06,0.660
1.360E-06,0.660
1.370E-06,0.620
1.380E-06,0.620
1.390E-06,0.600
1.400E-06,0.560
1.410E-06,0.520
1.420E-06,0.520
1.430E-06,0.520
1.440E-06,0.500
1.450E-06,0.500
1.460E-06,0.520
1.470E-06,0.500
1.480E-06,0.560
1.490E-06,0.540
1.500E-06,0.540
1.510E-06,0.540
1.520E-06,0.500
1.530E-06,0.420
1.540E-06,0.380
1.550E-06,0.280
1.560E-06,0.220
1.570E-06,0.180
1.580E-06,0.100
1.590E-06,0.080
1.600E-06,0.040
1.610E-06,0.020
1.620E-06,-0.020
1.630E-06,-0.060
1.640E-06,-0.080
1.650E-06,-0.080
1.660E-06,-0.140
1.670E-06,-0.160
1.680E-06,-0.180
1.690E-06,-0.200
1.700E-06,-0.200
1.710E-06,-0.260
1.720E-06,-0.280
1.730E-06,-0.320
1.740E-06,-0.340
1.750E-06,-0.380
1.760E-06,-0.360
1.770E-06,-0.360
1.780E-06,-0.340
1.790E-06,-0.320
1.800E-06,-0.260
1.810E-06,-0.200
1.820E-06,-0.180
1.830E-06,-0.100
1.840E-06,-0.040
1.850E-06,0.020
1.860E-06,0.100
1.870E-06,0.220
1.880E-06,0.280
1.890E-06,0.380
1.900E-06,0.420
1.910E-06,0.500
1.920E-06,0.500
1.930E-06,0.540
1.940E-06,0.480
1.950E-06,0.460
1.960E-06,0.400
1.970E-06,0.340
1.980E-06,0.300
1.990E-06,0.220
2.000E-06,0.180
2.010E-06,0.180
2.020E-06,0.180
2.030E-06,0.120
2.040E-06,0.160
2.050E-06,0.180
2.060E-06,0.220
2.070E-06,0.240
2.080E-06,0.280
2.090E-06,0.360
2.100E-06,0.380
2.110E-06,0.420
2.120E-06,0.420
2.130E-06,0.420
2.140E-06,0.380
2.150E-06,0.320
2.160E-06,0.300
2.170E-06,0.280
2.180E-06,0.240
2.190E-06,0.220
2.200E-06,0.180
2.210E-06,0.160
2.220E-06,0.080
2.230E-06,0.020
2.240E-06,-0.060
2.250E-06,-0.120
2.260E-06,-0.100
2.270E-06,-0.080
2.280E-06,-0.040
2.290E-06,-0.060
2.300E-06,-0.040
2.310E-06,-0.040
2.320E-06,-0.040
2.330E-06,-0.040
2.340E-06,-0.080
2.350E-06,-0.080
2.360E-06,-0.120
2.370E-06,-0.100
2.380E-06,-0.140
2.390E-06,-0.100
2.400E-06,-0.080
2.410E-06,-0.080
2.420E-06,-0.080
2.430E-06,-0.060
2.440E-06,-0.080
2.450E-06,-0.080
2.460E-06,-0.080
2.470E-06,-0.120
2.480E-06,-0.120
2.490E-06,-0.140
2.500E-06,-0.140
2.510E-06,-0.100
2.520E-06,-0.080
2.530E-06,-0.080
2.540E-06,-0.080
2.550E-06,-0.080
2.560E-06,-0.060
2.570E-06,-0.100
2.580E-06,-0.060
2.590E-06,-0.060
2.600E-06,-0.020
2.610E-06,0.000
2.620E-06,0.060
2.630E-06,0.080
2.640E-06,0.100
2.650E-06,0.080
2.660E-06,0.060
2.670E-06,0.120
2.680E-06,0.060
2.690E-06,0.080
2.700E-06,0.060
2.710E-06,0.080
2.720E-06,0.060
2.730E-06,0.060
2.740E-06,0.060
2.750E-06,0.080
2.760E-06,0.080
2.770E-06,0.060
2.780E-06,0.060
2.790E-06,0.040
2.800E-06,0.040
2.810E-06,0.020
2.820E-06,0.080
2.830E-06,0.060
2.840E-06,0.060
2.850E-06,0.080
2.860E-06,0.120
2.870E-06,0.160
2.880E-06,0.140
2.890E-06,0.200
2.900E-06,0.220
2.910E-06,0.260
2.920E-06,0.260
2.930E-06,0.280
2.940E-06,0.280
2.950E-06,0.320
2.960E-06,0.380
2.970E-06,0.420
2.980E-06,0.480
2.990E-06,0.580
3.000E-06,0.660
3.010E-06,0.760
3.020E-06,0.880
3.030E-06,0.980
3.040E-06,1.080
3.050E-06,1.160
3.060E-06,1.300
3.070E-06,1.360
3.080E-06,1.400
3.090E-06,1.500
3.100E-06,1.600
3.110E-06,1.700
3.120E-06,1.760
3.130E-06,1.820
3.140E-06,1.780
3.150E-06,1.600
3.160E-06,1.500
3.170E-06,1.400
3.180E-06,1.340
3.190E-06,1.300
3.200E-06,1.280
3.210E-06,1.220
3.220E-06,1.160
3.230E-06,1.060
3.240E-06,0.940
3.250E-06,0.860
3.260E-06,0.780
3.270E-06,0.740
3.280E-06,0.700
3.290E-06,0.660
3.300E-06,0.640
3.310E-06,0.660
