mediciones/8-28/-16/WaveData65717.csv

#timebase=2000000(ps)
,#voltbase=500000(mv/100)
#size=4000
-8.350E-06,0.040
-8.340E-06,0.040
-8.330E-06,0.060
-8.320E-06,0.060
-8.310E-06,0.080
-8.300E-06,0.060
-8.290E-06,0.040
-8.280E-06,0.060
-8.270E-06,0.080
-8.260E-06,0.060
-8.250E-06,0.040
-8.240E-06,0.060
-8.230E-06,0.060
-8.220E-06,0.020
-8.210E-06,0.040
-8.200E-06,0.080
-8.190E-06,0.060
-8.180E-06,0.080
-8.170E-06,0.040
-8.160E-06,0.040
-8.150E-06,0.020
-8.140E-06,0.060
-8.130E-06,0.020
-8.120E-06,0.020
-8.110E-06,0.080
-8.100E-06,0.040
-8.090E-06,0.000
-8.080E-06,0.060
-8.070E-06,0.020
-8.060E-06,0.060
-8.050E-06,0.080
-8.040E-06,0.040
-8.030E-06,0.060
-8.020E-06,0.080
-8.010E-06,0.000
-8.000E-06,0.040
-7.990E-06,0.060
-7.980E-06,0.040
-7.970E-06,0.060
-7.960E-06,0.060
-7.950E-06,0.040
-7.940E-06,0.080
-7.930E-06,0.080
-7.920E-06,0.020
-7.910E-06,0.020
-7.900E-06,0.060
-7.890E-06,0.020
-7.880E-06,0.020
-7.870E-06,0.060
-7.860E-06,0.000
-7.850E-06,0.040
-7.840E-06,0.060
-7.830E-06,0.040
-7.820E-06,0.080
-7.810E-06,0.020
-7.800E-06,0.060
-7.790E-06,0.020
-7.780E-06,0.080
-7.770E-06,0.080
-7.760E-06,0.000
-7.750E-06,0.040
-7.740E-06,0.060
-7.730E-06,0.040
-7.720E-06,0.040
-7.710E-06,0.020
-7.700E-06,0.060
-7.690E-06,0.060
-7.680E-06,0.060
-7.670E-06,0.020
-7.660E-06,0.040
-7.650E-06,0.080
-7.640E-06,0.040
-7.630E-06,0.080
-7.620E-06,0.080
-7.610E-06,0.040
-7.600E-06,0.040
-7.590E-06,0.060
-7.580E-06,0.060
-7.570E-06,0.060
-7.560E-06,0.060
-7.550E-06,0.080
-7.540E-06,0.060
-7.530E-06,0.060
-7.520E-06,0.020
-7.510E-06,0.040
-7.500E-06,0.040
-7.490E-06,0.040
-7.480E-06,0.040
-7.470E-06,0.060
-7.460E-06,0.080
-7.450E-06,0.060
-7.440E-06,0.000
-7.430E-06,0.040
-7.420E-06,0.060
-7.410E-06,0.020
-7.400E-06,0.020
-7.390E-06,0.060
-7.380E-06,0.040
-7.370E-06,0.060
-7.360E-06,0.020
-7.350E-06,0.060
-7.340E-06,0.060
-7.330E-06,0.060
-7.320E-06,0.020
-7.310E-06,0.060
-7.300E-06,0.040
-7.290E-06,0.060
-7.280E-06,0.080
-7.270E-06,0.040
-7.260E-06,0.040
-7.250E-06,0.040
-7.240E-06,0.080
-7.230E-06,0.040
-7.220E-06,0.020
-7.210E-06,0.020
-7.200E-06,0.040
-7.190E-06,0.040
-7.180E-06,0.040
-7.170E-06,0.020
-7.160E-06,0.040
-7.150E-06,0.020
-7.140E-06,0.040
-7.130E-06,0.020
-7.120E-06,0.060
-7.110E-06,0.040
-7.100E-06,0.040
-7.090E-06,0.040
-7.080E-06,0.060
-7.070E-06,0.060
-7.060E-06,0.020
-7.050E-06,0.040
-7.040E-06,0.040
-7.030E-06,0.040
-7.020E-06,0.060
-7.010E-06,0.060
-7.000E-06,0.080
-6.990E-06,0.000
-6.980E-06,0.040
-6.970E-06,0.020
-6.960E-06,0.020
-6.950E-06,0.060
-6.940E-06,0.060
-6.930E-06,0.020
-6.920E-06,0.040
-6.910E-06,0.060
-6.900E-06,0.020
-6.890E-06,0.040
-6.880E-06,0.040
-6.870E-06,0.040
-6.860E-06,0.040
-6.850E-06,0.060
-6.840E-06,0.040
-6.830E-06,0.020
-6.820E-06,0.020
-6.810E-06,0.040
-6.800E-06,0.060
-6.790E-06,0.020
-6.780E-06,0.020
-6.770E-06,0.040
-6.760E-06,0.060
-6.750E-06,0.060
-6.740E-06,0.080
-6.730E-06,0.060
-6.720E-06,0.060
-6.710E-06,0.080
-6.700E-06,0.000
-6.690E-06,0.020
-6.680E-06,0.040
-6.670E-06,0.080
-6.660E-06,0.060
-6.650E-06,0.080
-6.640E-06,0.040
-6.630E-06,0.040
-6.620E-06,0.040
-6.610E-06,0.040
-6.600E-06,0.060
-6.590E-06,0.080
-6.580E-06,0.060
-6.570E-06,0.020
-6.560E-06,0.040
-6.550E-06,0.040
-6.540E-06,0.020
-6.530E-06,0.040
-6.520E-06,0.040
-6.510E-06,0.040
-6.500E-06,0.060
-6.490E-06,0.060
-6.480E-06,0.060
-6.470E-06,0.040
-6.460E-06,0.040
-6.450E-06,0.060
-6.440E-06,0.060
-6.430E-06,0.060
-6.420E-06,0.040
-6.410E-06,0.060
-6.400E-06,0.080
-6.390E-06,0.060
-6.380E-06,0.060
-6.370E-06,0.040
-6.360E-06,0.020
-6.350E-06,0.040
-6.340E-06,0.020
-6.330E-06,0.040
-6.320E-06,0.060
-6.310E-06,0.060
-6.300E-06,0.040
-6.290E-06,0.060
-6.280E-06,0.020
-6.270E-06,0.060
-6.260E-06,0.060
-6.250E-06,0.080
-6.240E-06,0.060
-6.230E-06,0.020
-6.220E-06,0.020
-6.210E-06,0.040
-6.200E-06,0.020
-6.190E-06,0.040
-6.180E-06,0.020
-6.170E-06,0.020
-6.160E-06,0.040
-6.150E-06,0.060
-6.140E-06,0.020
-6.130E-06,0.040
-6.120E-06,0.080
-6.110E-06,0.040
-6.100E-06,0.060
-6.090E-06,0.080
-6.080E-06,0.080
-6.070E-06,0.060
-6.060E-06,0.020
-6.050E-06,0.040
-6.040E-06,0.080
-6.030E-06,0.040
-6.020E-06,0.020
-6.010E-06,0.020
-6.000E-06,0.040
-5.990E-06,0.000
-5.980E-06,0.040
-5.970E-06,0.060
-5.960E-06,0.020
-5.950E-06,0.040
-5.940E-06,0.040
-5.930E-06,0.060
-5.920E-06,0.040
-5.910E-06,0.040
-5.900E-06,0.060
-5.890E-06,0.040
-5.880E-06,0.080
-5.870E-06,0.040
-5.860E-06,0.020
-5.850E-06,0.020
-5.840E-06,0.060
-5.830E-06,0.060
-5.820E-06,0.060
-5.810E-06,0.080
-5.800E-06,0.020
-5.790E-06,0.040
-5.780E-06,0.060
-5.770E-06,0.040
-5.760E-06,0.040
-5.750E-06,0.040
-5.740E-06,0.040
-5.730E-06,0.080
-5.720E-06,0.060
-5.710E-06,0.040
-5.700E-06,0.020
-5.690E-06,0.040
-5.680E-06,0.020
-5.670E-06,0.060
-5.660E-06,0.080
-5.650E-06,0.040
-5.640E-06,0.080
-5.630E-06,0.060
-5.620E-06,0.020
-5.610E-06,0.060
-5.600E-06,0.060
-5.590E-06,0.080
-5.580E-06,0.060
-5.570E-06,0.040
-5.560E-06,0.080
-5.550E-06,0.040
-5.540E-06,0.060
-5.530E-06,0.080
-5.520E-06,0.060
-5.510E-06,0.040
-5.500E-06,0.040
-5.490E-06,0.060
-5.480E-06,0.040
-5.470E-06,0.080
-5.460E-06,0.060
-5.450E-06,0.040
-5.440E-06,0.060
-5.430E-06,0.060
-5.420E-06,0.060
-5.410E-06,0.020
-5.400E-06,0.040
-5.390E-06,0.020
-5.380E-06,0.060
-5.370E-06,0.040
-5.360E-06,0.020
-5.350E-06,0.060
-5.340E-06,0.020
-5.330E-06,0.000
-5.320E-06,0.020
-5.310E-06,0.040
-5.300E-06,0.020
-5.290E-06,0.040
-5.280E-06,0.040
-5.270E-06,0.040
-5.260E-06,0.080
-5.250E-06,0.060
-5.240E-06,0.040
-5.230E-06,0.040
-5.220E-06,0.080
-5.210E-06,0.040
-5.200E-06,0.060
-5.190E-06,0.040
-5.180E-06,0.040
-5.170E-06,0.080
-5.160E-06,0.060
-5.150E-06,0.040
-5.140E-06,0.060
-5.130E-06,0.080
-5.120E-06,0.040
-5.110E-06,0.080
-5.100E-06,0.080
-5.090E-06,0.060
-5.080E-06,0.080
-5.070E-06,0.020
-5.060E-06,0.040
-5.050E-06,0.080
-5.040E-06,0.040
-5.030E-06,0.040
-5.020E-06,0.040
-5.010E-06,0.060
-5.000E-06,0.080
-4.990E-06,0.040
-4.980E-06,0.040
-4.970E-06,0.020
-4.960E-06,0.020
-4.950E-06,0.060
-4.940E-06,0.060
-4.930E-06,0.040
-4.920E-06,0.040
-4.910E-06,0.020
-4.900E-06,0.080
-4.890E-06,0.040
-4.880E-06,0.060
-4.870E-06,0.060
-4.860E-06,0.040
-4.850E-06,0.080
-4.840E-06,0.040
-4.830E-06,0.060
-4.820E-06,0.040
-4.810E-06,0.000
-4.800E-06,0.060
-4.790E-06,0.060
-4.780E-06,0.060
-4.770E-06,0.040
-4.760E-06,0.080
-4.750E-06,0.040
-4.740E-06,0.060
-4.730E-06,0.080
-4.720E-06,0.020
-4.710E-06,0.020
-4.700E-06,0.040
-4.690E-06,-0.020
-4.680E-06,0.040
-4.670E-06,0.040
-4.660E-06,0.040
-4.650E-06,0.060
-4.640E-06,0.060
-4.630E-06,0.040
-4.620E-06,0.080
-4.610E-06,0.040
-4.600E-06,0.060
-4.590E-06,0.040
-4.580E-06,0.040
-4.570E-06,0.040
-4.560E-06,0.080
-4.550E-06,0.060
-4.540E-06,0.060
-4.530E-06,0.060
-4.520E-06,0.040
-4.510E-06,0.020
-4.500E-06,0.060
-4.490E-06,0.020
-4.480E-06,0.020
-4.470E-06,0.040
-4.460E-06,0.020
-4.450E-06,0.040
-4.440E-06,0.080
-4.430E-06,-0.020
-4.420E-06,-0.340
-4.410E-06,-1.060
-4.400E-06,-2.120
-4.390E-06,-3.080
-4.380E-06,-3.340
-4.370E-06,-3.340
-4.360E-06,-3.340
-4.350E-06,-2.540
-4.340E-06,-1.060
-4.330E-06,0.660
-4.320E-06,2.080
-4.310E-06,2.100
-4.300E-06,2.080
-4.290E-06,2.080
-4.280E-06,2.100
-4.270E-06,2.100
-4.260E-06,2.080
-4.250E-06,2.100
-4.240E-06,1.900
-4.230E-06,0.860
-4.220E-06,-0.060
-4.210E-06,-0.680
-4.200E-06,-0.920
-4.190E-06,-0.920
-4.180E-06,-0.720
-4.170E-06,-0.660
-4.160E-06,-0.640
-4.150E-06,-0.740
-4.140E-06,-1.200
-4.130E-06,-1.700
-4.120E-06,-2.180
-4.110E-06,-2.580
-4.100E-06,-2.780
-4.090E-06,-2.720
-4.080E-06,-2.400
-4.070E-06,-1.840
-4.060E-06,-1.100
-4.050E-06,-0.280
-4.040E-06,0.540
-4.030E-06,1.300
-4.020E-06,1.860
-4.010E-06,2.060
-4.000E-06,2.080
-3.990E-06,2.020
-3.980E-06,1.700
-3.970E-06,1.120
-3.960E-06,0.480
-3.950E-06,-0.160
-3.940E-06,-0.520
-3.930E-06,-1.020
-3.920E-06,-1.280
-3.910E-06,-1.300
-3.900E-06,-1.320
-3.890E-06,-1.180
-3.880E-06,-1.000
-3.870E-06,-0.740
-3.860E-06,-0.440
-3.850E-06,-0.180
-3.840E-06,0.160
-3.830E-06,0.460
-3.820E-06,0.720
-3.810E-06,0.980
-3.800E-06,1.200
-3.790E-06,1.280
-3.780E-06,1.360
-3.770E-06,1.340
-3.760E-06,1.240
-3.750E-06,1.080
-3.740E-06,0.920
-3.730E-06,0.680
-3.720E-06,0.460
-3.710E-06,0.200
-3.700E-06,-0.040
-3.690E-06,-0.260
-3.680E-06,-0.420
-3.670E-06,-0.560
-3.660E-06,-0.680
-3.650E-06,-0.800
-3.640E-06,-0.860
-3.630E-06,-0.840
-3.620E-06,-0.840
-3.610E-06,-0.800
-3.600E-06,-0.700
-3.590E-06,-0.520
-3.580E-06,-0.020
-3.570E-06,0.160
-3.560E-06,0.480
-3.550E-06,0.780
-3.540E-06,0.980
-3.530E-06,1.000
-3.520E-06,1.060
-3.510E-06,1.020
-3.500E-06,1.000
-3.490E-06,0.700
-3.480E-06,0.440
-3.470E-06,0.160
-3.460E-06,-0.180
-3.450E-06,-0.420
-3.440E-06,-0.640
-3.430E-06,-0.780
-3.420E-06,-0.800
-3.410E-06,-0.760
-3.400E-06,-0.700
-3.390E-06,-0.560
-3.380E-06,-0.400
-3.370E-06,-0.280
-3.360E-06,-0.160
-3.350E-06,0.000
-3.340E-06,0.060
-3.330E-06,0.160
-3.320E-06,0.240
-3.310E-06,0.260
-3.300E-06,0.260
-3.290E-06,0.260
-3.280E-06,0.200
-3.270E-06,0.220
-3.260E-06,0.180
-3.250E-06,0.240
-3.240E-06,0.260
-3.230E-06,0.280
-3.220E-06,0.340
-3.210E-06,0.260
-3.200E-06,0.200
-3.190E-06,0.100
-3.180E-06,0.000
-3.170E-06,-0.080
-3.160E-06,-0.140
-3.150E-06,-0.140
-3.140E-06,-0.100
-3.130E-06,-0.140
-3.120E-06,-0.080
-3.110E-06,-0.020
-3.100E-06,0.000
-3.090E-06,0.080
-3.080E-06,0.080
-3.070E-06,0.100
-3.060E-06,0.100
-3.050E-06,0.100
-3.040E-06,0.080
-3.030E-06,0.060
-3.020E-06,0.080
-3.010E-06,0.060
-3.000E-06,0.080
-2.990E-06,0.060
-2.980E-06,0.040
-2.970E-06,0.060
-2.960E-06,0.020
-2.950E-06,-0.020
-2.940E-06,-0.020
-2.930E-06,-0.120
-2.920E-06,-0.060
-2.910E-06,-0.160
-2.900E-06,-0.160
-2.890E-06,-0.120
-2.880E-06,0.040
-2.870E-06,-0.260
-2.860E-06,0.060
-2.850E-06,-0.080
-2.840E-06,-0.020
-2.830E-06,0.060
-2.820E-06,-0.120
-2.810E-06,-0.060
-2.800E-06,-0.160
-2.790E-06,-0.200
-2.780E-06,-0.280
-2.770E-06,-0.260
-2.760E-06,-0.160
-2.750E-06,-0.160
-2.740E-06,-0.120
-2.730E-06,-0.040
-2.720E-06,0.020
-2.710E-06,0.120
-2.700E-06,0.100
-2.690E-06,0.160
-2.680E-06,0.120
-2.670E-06,0.160
-2.660E-06,0.060
-2.650E-06,0.180
-2.640E-06,0.040
-2.630E-06,0.200
-2.620E-06,-0.260
-2.610E-06,0.080
-2.600E-06,-0.440
-2.590E-06,0.040
-2.580E-06,-0.380
-2.570E-06,-0.060
-2.560E-06,-0.100
-2.550E-06,-0.120
-2.540E-06,0.200
-2.530E-06,0.480
-2.520E-06,1.060
-2.510E-06,1.380
-2.500E-06,1.580
-2.490E-06,1.380
-2.480E-06,0.880
-2.470E-06,0.420
-2.460E-06,-0.220
-2.450E-06,-0.620
-2.440E-06,-1.100
-2.430E-06,-1.020
-2.420E-06,-1.280
-2.410E-06,-0.840
-2.400E-06,-0.880
-2.390E-06,-0.500
-2.380E-06,-0.980
-2.370E-06,-0.720
-2.360E-06,-0.900
-2.350E-06,-0.920
-2.340E-06,-0.740
-2.330E-06,-0.820
-2.320E-06,-0.760
-2.310E-06,-0.900
-2.300E-06,-0.940
-2.290E-06,-0.980
-2.280E-06,-0.940
-2.270E-06,-0.580
-2.260E-06,-0.260
-2.250E-06,0.000
-2.240E-06,0.640
-2.230E-06,0.400
-2.220E-06,0.840
-2.210E-06,0.440
-2.200E-06,0.440
-2.190E-06,0.520
-2.180E-06,0.420
-2.170E-06,0.400
-2.160E-06,0.200
-2.150E-06,0.000
-2.140E-06,-0.180
-2.130E-06,-0.300
-2.120E-06,-0.320
-2.110E-06,-0.200
-2.100E-06,-0.020
-2.090E-06,0.140
-2.080E-06,0.240
-2.070E-06,0.260
-2.060E-06,0.240
-2.050E-06,0.180
-2.040E-06,0.100
-2.030E-06,0.000
-2.020E-06,-0.140
-2.010E-06,-0.300
-2.000E-06,-0.220
-1.990E-06,-0.660
-1.980E-06,-0.100
-1.970E-06,-0.760
-1.960E-06,-0.240
-1.950E-06,-1.040
-1.940E-06,-0.320
-1.930E-06,-0.840
-1.920E-06,-0.380
-1.910E-06,-0.680
-1.900E-06,-0.460
-1.890E-06,-0.320
-1.880E-06,-0.240
-1.870E-06,-0.240
-1.860E-06,-0.260
-1.850E-06,-0.420
-1.840E-06,-0.380
-1.830E-06,-0.720
-1.820E-06,-0.640
-1.810E-06,-0.720
-1.800E-06,-0.580
-1.790E-06,-0.460
-1.780E-06,-0.280
-1.770E-06,-0.200
-1.760E-06,-0.220
-1.750E-06,-0.160
-1.740E-06,-0.180
-1.730E-06,-0.160
-1.720E-06,-0.220
-1.710E-06,-0.220
-1.700E-06,-0.420
-1.690E-06,-0.340
-1.680E-06,-0.660
-1.670E-06,-0.200
-1.660E-06,-0.520
-1.650E-06,-0.320
-1.640E-06,-0.300
-1.630E-06,-0.180
-1.620E-06,-0.100
-1.610E-06,-0.080
-1.600E-06,-0.220
-1.590E-06,-0.100
-1.580E-06,0.000
-1.570E-06,0.160
-1.560E-06,0.160
-1.550E-06,-0.040
-1.540E-06,0.080
-1.530E-06,-0.320
-1.520E-06,-0.400
-1.510E-06,-0.680
-1.500E-06,-0.940
-1.490E-06,-1.100
-1.480E-06,-1.320
-1.470E-06,-1.320
-1.460E-06,-0.960
-1.450E-06,-1.240
-1.440E-06,-0.820
-1.430E-06,-0.860
-1.420E-06,-1.140
-1.410E-06,-0.640
-1.400E-06,-0.820
-1.390E-06,-0.620
-1.380E-06,-0.820
-1.370E-06,-0.840
-1.360E-06,-0.980
-1.350E-06,-0.960
-1.340E-06,-0.680
-1.330E-06,-0.520
-1.320E-06,-0.480
-1.310E-06,-0.240
-1.300E-06,-0.300
-1.290E-06,-0.180
-1.280E-06,-0.180
-1.270E-06,-0.180
-1.260E-06,0.120
-1.250E-06,0.200
-1.240E-06,0.320
-1.230E-06,0.660
-1.220E-06,0.500
-1.210E-06,0.420
-1.200E-06,0.060
-1.190E-06,-0.400
-1.180E-06,-0.240
-1.170E-06,-0.980
-1.160E-06,-0.660
-1.150E-06,-1.180
-1.140E-06,-0.800
-1.130E-06,-0.980
-1.120E-06,-0.540
-1.110E-06,-0.280
-1.100E-06,-0.140
-1.090E-06,0.060
-1.080E-06,-0.140
-1.070E-06,-0.280
-1.060E-06,-0.420
-1.050E-06,-0.480
-1.040E-06,-0.520
-1.030E-06,-0.260
-1.020E-06,-0.320
-1.010E-06,-0.140
-1.000E-06,-0.100
-9.900E-07,-0.160
-9.800E-07,-0.340
-9.700E-07,-0.520
-9.600E-07,-0.520
-9.500E-07,-0.380
-9.400E-07,-0.100
-9.300E-07,0.400
-9.200E-07,0.440
-9.100E-07,0.580
-9.000E-07,-0.220
-8.900E-07,-0.040
-8.800E-07,-1.340
-8.700E-07,-1.280
-8.600E-07,-2.700
-8.500E-07,-1.880
-8.400E-07,-2.440
-8.300E-07,-1.880
-8.200E-07,-1.800
-8.100E-07,-1.100
-8.000E-07,-0.840
-7.900E-07,-0.480
-7.800E-07,-0.540
-7.700E-07,-0.500
-7.600E-07,-0.360
-7.500E-07,-0.260
-7.400E-07,-0.400
-7.300E-07,-0.220
-7.200E-07,-0.740
-7.100E-07,-0.600
-7.000E-07,-0.720
-6.900E-07,-0.340
-6.800E-07,-0.120
-6.700E-07,0.100
-6.600E-07,0.480
-6.500E-07,0.280
-6.400E-07,0.160
-6.300E-07,-0.260
-6.200E-07,-0.180
-6.100E-07,-0.780
-6.000E-07,-0.740
-5.900E-07,-1.340
-5.800E-07,-1.680
-5.700E-07,-1.760
-5.600E-07,-1.800
-5.500E-07,-1.520
-5.400E-07,-1.480
-5.300E-07,-1.600
-5.200E-07,-1.380
-5.100E-07,-1.100
-5.000E-07,-0.700
-4.900E-07,-0.340
-4.800E-07,0.320
-4.700E-07,1.020
-4.600E-07,1.120
-4.500E-07,0.960
-4.400E-07,0.680
-4.300E-07,0.160
-4.200E-07,-0.360
-4.100E-07,-0.500
-4.000E-07,-0.880
-3.900E-07,-1.020
-3.800E-07,-1.360
-3.700E-07,-1.520
-3.600E-07,-1.160
-3.500E-07,-1.280
-3.400E-07,-0.840
-3.300E-07,-0.780
-3.200E-07,-0.800
-3.100E-07,-0.980
-3.000E-07,-0.300
-2.900E-07,-0.240
-2.800E-07,-0.160
-2.700E-07,-0.260
-2.600E-07,-0.220
-2.500E-07,-0.440
-2.400E-07,-0.360
-2.300E-07,-0.340
-2.200E-07,0.080
-2.100E-07,0.240
-2.000E-07,0.580
-1.900E-07,0.740
-1.800E-07,0.740
-1.700E-07,0.740
-1.600E-07,0.560
-1.500E-07,0.260
-1.400E-07,0.080
-1.300E-07,-0.180
-1.200E-07,-0.540
-1.100E-07,-0.880
-1.000E-07,-1.000
-9.000E-08,-1.080
-8.000E-08,-0.960
-7.000E-08,-0.620
-6.000E-08,-0.260
-5.000E-08,0.100
-4.000E-08,0.320
-3.000E-08,0.360
-2.000E-08,0.180
-1.000E-08,-0.040
0.000E+00,-0.140
1.000E-08,-0.040
2.000E-08,0.180
3.000E-08,0.620
4.000E-08,0.960
5.000E-08,1.380
6.000E-08,1.560
7.000E-08,1.800
8.000E-08,1.260
9.000E-08,0.720
1.000E-07,-0.280
1.100E-07,-1.200
1.200E-07,-2.580
1.300E-07,-2.920
1.400E-07,-3.340
1.500E-07,-3.340
1.600E-07,-3.300
1.700E-07,-3.340
1.800E-07,-3.040
1.900E-07,-3.000
2.000E-07,-2.900
2.100E-07,-2.440
2.200E-07,-1.980
2.300E-07,-1.480
2.400E-07,-1.280
2.500E-07,-1.340
2.600E-07,-1.360
2.700E-07,-1.040
2.800E-07,-0.360
2.900E-07,0.260
3.000E-07,0.800
3.100E-07,0.940
3.200E-07,0.940
3.300E-07,0.260
3.400E-07,-0.600
3.500E-07,-1.720
3.600E-07,-1.860
3.700E-07,-2.620
3.800E-07,-2.820
3.900E-07,-3.240
4.000E-07,-2.780
4.100E-07,-3.100
4.200E-07,-3.100
4.300E-07,-3.120
4.400E-07,-2.880
4.500E-07,-2.720
4.600E-07,-2.480
4.700E-07,-2.040
4.800E-07,-1.620
4.900E-07,-1.300
5.000E-07,-0.860
5.100E-07,-0.260
5.200E-07,0.000
5.300E-07,0.040
5.400E-07,0.160
5.500E-07,0.180
5.600E-07,0.040
5.700E-07,0.160
5.800E-07,0.180
5.900E-07,0.220
6.000E-07,0.060
6.100E-07,-0.080
6.200E-07,-0.220
6.300E-07,-0.280
6.400E-07,-0.340
6.500E-07,-0.240
6.600E-07,-0.200
6.700E-07,-0.460
6.800E-07,-0.680
6.900E-07,-0.620
7.000E-07,-0.700
7.100E-07,-0.360
7.200E-07,-0.020
7.300E-07,0.440
7.400E-07,1.060
7.500E-07,1.140
7.600E-07,1.500
7.700E-07,1.460
7.800E-07,1.700
7.900E-07,1.800
8.000E-07,1.480
8.100E-07,1.620
8.200E-07,1.440
8.300E-07,0.660
8.400E-07,-0.120
8.500E-07,-2.080
8.600E-07,-3.080
8.700E-07,-3.340
8.800E-07,-3.340
8.900E-07,-3.340
9.000E-07,-3.340
9.100E-07,-3.340
9.200E-07,-3.340
9.300E-07,-3.340
9.400E-07,-3.340
9.500E-07,-3.320
9.600E-07,-2.480
9.700E-07,-1.560
9.800E-07,-0.120
9.900E-07,1.680
1.000E-06,2.080
1.010E-06,2.100
1.020E-06,2.100
1.030E-06,1.980
1.040E-06,1.140
1.050E-06,-0.160
1.060E-06,-0.840
1.070E-06,-1.160
1.080E-06,-0.660
1.090E-06,-0.840
1.100E-06,-0.680
1.110E-06,-1.020
1.120E-06,-1.480
1.130E-06,-1.740
1.140E-06,-2.120
1.150E-06,-2.260
1.160E-06,-2.080
1.170E-06,-1.920
1.180E-06,-1.760
1.190E-06,-1.560
1.200E-06,-1.240
1.210E-06,-0.880
1.220E-06,-0.360
1.230E-06,0.160
1.240E-06,0.880
1.250E-06,1.480
1.260E-06,1.960
1.270E-06,2.080
1.280E-06,2.080
1.290E-06,2.000
1.300E-06,1.540
1.310E-06,0.980
1.320E-06,0.320
1.330E-06,-0.280
1.340E-06,-0.800
1.350E-06,-1.280
1.360E-06,-1.640
1.370E-06,-1.920
1.380E-06,-2.040
1.390E-06,-2.240
1.400E-06,-2.160
1.410E-06,-2.000
1.420E-06,-1.740
1.430E-06,-1.440
1.440E-06,-1.140
1.450E-06,-0.940
1.460E-06,-0.800
1.470E-06,-0.680
1.480E-06,-0.480
1.490E-06,-0.360
1.500E-06,-0.300
1.510E-06,-0.180
1.520E-06,0.060
1.530E-06,0.320
1.540E-06,0.120
1.550E-06,0.000
1.560E-06,-0.700
1.570E-06,-1.440
1.580E-06,-2.280
1.590E-06,-2.940
1.600E-06,-3.060
1.610E-06,-3.140
1.620E-06,-3.180
1.630E-06,-3.340
1.640E-06,-3.340
1.650E-06,-3.340
1.660E-06,-3.340
1.670E-06,-3.360
1.680E-06,-3.260
1.690E-06,-2.780
1.700E-06,-2.280
1.710E-06,-1.880
1.720E-06,-1.520
1.730E-06,-1.320
1.740E-06,-1.180
1.750E-06,-1.140
1.760E-06,-1.060
1.770E-06,-1.060
1.780E-06,-1.180
1.790E-06,-1.360
1.800E-06,-1.540
1.810E-06,-1.800
1.820E-06,-2.020
1.830E-06,-2.220
1.840E-06,-2.280
1.850E-06,-2.420
1.860E-06,-2.320
1.870E-06,-2.300
1.880E-06,-2.220
1.890E-06,-2.040
1.900E-06,-1.940
1.910E-06,-1.800
1.920E-06,-1.660
1.930E-06,-1.540
1.940E-06,-1.360
1.950E-06,-1.240
1.960E-06,-1.080
1.970E-06,-0.920
1.980E-06,-0.840
1.990E-06,-0.700
2.000E-06,-0.660
2.010E-06,-0.620
2.020E-06,-0.520
2.030E-06,-0.500
2.040E-06,-0.440
2.050E-06,-0.460
2.060E-06,-0.680
2.070E-06,-0.660
2.080E-06,-0.820
2.090E-06,-0.920
2.100E-06,-0.920
2.110E-06,-1.080
2.120E-06,-1.180
2.130E-06,-1.200
2.140E-06,-1.240
2.150E-06,-1.180
2.160E-06,-1.200
2.170E-06,-1.160
2.180E-06,-1.120
2.190E-06,-1.140
2.200E-06,-1.040
2.210E-06,-1.140
2.220E-06,-1.120
2.230E-06,-1.180
2.240E-06,-1.280
2.250E-06,-1.300
2.260E-06,-1.380
2.270E-06,-1.480
2.280E-06,-1.540
2.290E-06,-1.880
2.300E-06,-1.840
2.310E-06,-2.040
2.320E-06,-2.080
2.330E-06,-2.140
2.340E-06,-2.280
2.350E-06,-2.300
2.360E-06,-2.360
2.370E-06,-2.360
2.380E-06,-2.360
2.390E-06,-2.340
2.400E-06,-2.320
2.410E-06,-2.340
2.420E-06,-2.340
2.430E-06,-2.220
2.440E-06,-2.280
2.450E-06,-2.200
2.460E-06,-2.040
2.470E-06,-2.140
2.480E-06,-2.000
2.490E-06,-2.100
2.500E-06,-1.840
2.510E-06,-1.900
2.520E-06,-1.780
2.530E-06,-1.760
2.540E-06,-1.600
2.550E-06,-1.520
2.560E-06,-1.440
2.570E-06,-1.240
2.580E-06,-1.180
2.590E-06,-1.000
2.600E-06,-0.920
2.610E-06,-0.820
2.620E-06,-0.620
2.630E-06,-0.700
2.640E-06,-0.580
2.650E-06,-0.380
2.660E-06,-0.340
2.670E-06,-0.180
2.680E-06,-0.260
2.690E-06,-0.040
2.700E-06,-0.120
2.710E-06,-0.080
2.720E-06,-0.060
2.730E-06,0.000
2.740E-06,0.060
2.750E-06,-0.180
2.760E-06,0.000
2.770E-06,0.080
2.780E-06,-0.020
2.790E-06,0.120
2.800E-06,-0.160
2.810E-06,0.080
2.820E-06,-0.020
2.830E-06,-0.040
2.840E-06,0.020
2.850E-06,-0.060
2.860E-06,0.000
2.870E-06,0.000
2.880E-06,-0.020
2.890E-06,-0.080
2.900E-06,-0.120
2.910E-06,0.100
2.920E-06,-0.140
2.930E-06,-0.040
2.940E-06,-0.200
2.950E-06,-0.140
2.960E-06,-0.120
2.970E-06,-0.220
2.980E-06,-0.160
2.990E-06,-0.240
3.000E-06,-0.180
3.010E-06,-0.260
3.020E-06,-0.200
3.030E-06,-0.220
3.040E-06,-0.280
3.050E-06,-0.200
3.060E-06,-0.220
3.070E-06,-0.340
3.080E-06,-0.320
3.090E-06,-0.500
3.100E-06,-0.200
3.110E-06,-0.300
3.120E-06,-0.260
3.130E-06,-0.180
3.140E-06,-0.200
3.150E-06,-0.140
3.160E-06,-0.200
3.170E-06,-0.020
3.180E-06,-0.140
3.190E-06,-0.020
3.200E-06,-0.040
3.210E-06,-0.020
3.220E-06,0.000
3.230E-06,0.040
3.240E-06,0.120
