mediciones/8-28/-16/WaveData65711.csv

#timebase=2000000(ps)
,#voltbase=500000(mv/100)
#size=4000
-8.350E-06,0.040
-8.340E-06,0.080
-8.330E-06,0.060
-8.320E-06,0.040
-8.310E-06,0.060
-8.300E-06,0.040
-8.290E-06,0.040
-8.280E-06,0.060
-8.270E-06,0.020
-8.260E-06,0.040
-8.250E-06,0.060
-8.240E-06,0.060
-8.230E-06,0.020
-8.220E-06,0.040
-8.210E-06,0.040
-8.200E-06,0.000
-8.190E-06,0.040
-8.180E-06,0.060
-8.170E-06,0.060
-8.160E-06,0.000
-8.150E-06,0.040
-8.140E-06,0.040
-8.130E-06,0.000
-8.120E-06,0.040
-8.110E-06,0.040
-8.100E-06,0.020
-8.090E-06,0.080
-8.080E-06,0.040
-8.070E-06,0.040
-8.060E-06,0.020
-8.050E-06,0.080
-8.040E-06,0.000
-8.030E-06,0.040
-8.020E-06,0.020
-8.010E-06,0.020
-8.000E-06,0.040
-7.990E-06,0.080
-7.980E-06,0.040
-7.970E-06,0.020
-7.960E-06,0.040
-7.950E-06,0.040
-7.940E-06,0.040
-7.930E-06,0.060
-7.920E-06,0.040
-7.910E-06,0.040
-7.900E-06,0.020
-7.890E-06,0.060
-7.880E-06,0.020
-7.870E-06,0.060
-7.860E-06,0.040
-7.850E-06,0.020
-7.840E-06,0.060
-7.830E-06,0.060
-7.820E-06,0.040
-7.810E-06,0.040
-7.800E-06,0.040
-7.790E-06,0.060
-7.780E-06,0.080
-7.770E-06,0.020
-7.760E-06,0.060
-7.750E-06,0.020
-7.740E-06,0.040
-7.730E-06,0.060
-7.720E-06,0.060
-7.710E-06,0.020
-7.700E-06,0.040
-7.690E-06,0.060
-7.680E-06,0.040
-7.670E-06,0.020
-7.660E-06,0.020
-7.650E-06,0.060
-7.640E-06,0.040
-7.630E-06,0.040
-7.620E-06,0.060
-7.610E-06,0.060
-7.600E-06,0.040
-7.590E-06,0.020
-7.580E-06,0.060
-7.570E-06,0.080
-7.560E-06,0.060
-7.550E-06,0.040
-7.540E-06,0.040
-7.530E-06,0.060
-7.520E-06,0.040
-7.510E-06,0.000
-7.500E-06,0.060
-7.490E-06,0.060
-7.480E-06,0.020
-7.470E-06,0.060
-7.460E-06,0.000
-7.450E-06,0.060
-7.440E-06,0.040
-7.430E-06,0.060
-7.420E-06,0.020
-7.410E-06,0.040
-7.400E-06,0.060
-7.390E-06,0.000
-7.380E-06,0.040
-7.370E-06,0.020
-7.360E-06,0.060
-7.350E-06,0.060
-7.340E-06,0.060
-7.330E-06,0.040
-7.320E-06,0.080
-7.310E-06,0.060
-7.300E-06,0.020
-7.290E-06,0.040
-7.280E-06,0.060
-7.270E-06,0.020
-7.260E-06,0.060
-7.250E-06,0.060
-7.240E-06,0.040
-7.230E-06,0.060
-7.220E-06,0.080
-7.210E-06,0.040
-7.200E-06,0.060
-7.190E-06,0.020
-7.180E-06,0.060
-7.170E-06,0.040
-7.160E-06,0.060
-7.150E-06,0.040
-7.140E-06,0.000
-7.130E-06,0.020
-7.120E-06,0.040
-7.110E-06,0.020
-7.100E-06,0.040
-7.090E-06,0.020
-7.080E-06,0.040
-7.070E-06,0.040
-7.060E-06,0.040
-7.050E-06,0.020
-7.040E-06,0.040
-7.030E-06,0.060
-7.020E-06,0.060
-7.010E-06,0.060
-7.000E-06,0.060
-6.990E-06,0.020
-6.980E-06,0.040
-6.970E-06,0.040
-6.960E-06,0.060
-6.950E-06,0.020
-6.940E-06,0.040
-6.930E-06,0.020
-6.920E-06,0.040
-6.910E-06,0.080
-6.900E-06,0.020
-6.890E-06,0.000
-6.880E-06,0.040
-6.870E-06,0.020
-6.860E-06,0.060
-6.850E-06,0.060
-6.840E-06,0.060
-6.830E-06,0.040
-6.820E-06,0.020
-6.810E-06,0.000
-6.800E-06,0.040
-6.790E-06,0.020
-6.780E-06,0.000
-6.770E-06,0.040
-6.760E-06,0.000
-6.750E-06,0.040
-6.740E-06,0.040
-6.730E-06,0.040
-6.720E-06,0.060
-6.710E-06,0.040
-6.700E-06,0.000
-6.690E-06,0.040
-6.680E-06,0.040
-6.670E-06,0.040
-6.660E-06,0.080
-6.650E-06,0.040
-6.640E-06,0.040
-6.630E-06,0.040
-6.620E-06,0.080
-6.610E-06,0.060
-6.600E-06,0.000
-6.590E-06,0.060
-6.580E-06,0.020
-6.570E-06,0.020
-6.560E-06,0.060
-6.550E-06,0.020
-6.540E-06,0.060
-6.530E-06,0.020
-6.520E-06,0.060
-6.510E-06,0.040
-6.500E-06,-0.040
-6.490E-06,-0.460
-6.480E-06,-1.280
-6.470E-06,-2.340
-6.460E-06,-3.180
-6.450E-06,-2.820
-6.440E-06,-2.620
-6.430E-06,-1.280
-6.420E-06,-0.940
-6.410E-06,0.940
-6.400E-06,2.080
-6.390E-06,2.080
-6.380E-06,2.080
-6.370E-06,2.060
-6.360E-06,2.080
-6.350E-06,2.100
-6.340E-06,2.080
-6.330E-06,2.080
-6.320E-06,0.740
-6.310E-06,-0.020
-6.300E-06,-0.180
-6.290E-06,-0.920
-6.280E-06,-0.840
-6.270E-06,-0.500
-6.260E-06,-0.320
-6.250E-06,-0.180
-6.240E-06,-0.220
-6.230E-06,-0.360
-6.220E-06,-0.680
-6.210E-06,-1.100
-6.200E-06,-1.540
-6.190E-06,-1.780
-6.180E-06,-1.900
-6.170E-06,-1.860
-6.160E-06,-1.640
-6.150E-06,-1.240
-6.140E-06,-0.640
-6.130E-06,-0.020
-6.120E-06,0.540
-6.110E-06,1.100
-6.100E-06,1.520
-6.090E-06,1.720
-6.080E-06,1.660
-6.070E-06,1.500
-6.060E-06,1.160
-6.050E-06,0.700
-6.040E-06,0.240
-6.030E-06,-0.220
-6.020E-06,-0.540
-6.010E-06,-0.720
-6.000E-06,-0.860
-5.990E-06,-0.860
-5.980E-06,-0.780
-5.970E-06,-0.680
-5.960E-06,-0.560
-5.950E-06,-0.400
-5.940E-06,-0.240
-5.930E-06,-0.100
-5.920E-06,0.100
-5.910E-06,0.340
-5.900E-06,0.480
-5.890E-06,0.660
-5.880E-06,0.780
-5.870E-06,0.860
-5.860E-06,0.900
-5.850E-06,0.860
-5.840E-06,0.780
-5.830E-06,0.680
-5.820E-06,0.560
-5.810E-06,0.400
-5.800E-06,0.280
-5.790E-06,0.100
-5.780E-06,-0.080
-5.770E-06,-0.160
-5.760E-06,-0.260
-5.750E-06,-0.380
-5.740E-06,-0.420
-5.730E-06,-0.520
-5.720E-06,-0.600
-5.710E-06,-0.600
-5.700E-06,-0.560
-5.690E-06,-0.580
-5.680E-06,-0.480
-5.670E-06,-0.280
-5.660E-06,-0.100
-5.650E-06,0.120
-5.640E-06,0.400
-5.630E-06,0.620
-5.620E-06,0.760
-5.610E-06,0.860
-5.600E-06,0.880
-5.590E-06,0.840
-5.580E-06,0.680
-5.570E-06,0.540
-5.560E-06,0.320
-5.550E-06,0.080
-5.540E-06,-0.120
-5.530E-06,-0.280
-5.520E-06,-0.520
-5.510E-06,-0.560
-5.500E-06,-0.500
-5.490E-06,-0.600
-5.480E-06,-0.460
-5.470E-06,-0.320
-5.460E-06,-0.260
-5.450E-06,-0.180
-5.440E-06,-0.080
-5.430E-06,0.040
-5.420E-06,0.060
-5.410E-06,0.100
-5.400E-06,0.080
-5.390E-06,0.120
-5.380E-06,0.160
-5.370E-06,0.180
-5.360E-06,0.240
-5.350E-06,0.200
-5.340E-06,0.240
-5.330E-06,0.280
-5.320E-06,0.220
-5.310E-06,0.200
-5.300E-06,0.220
-5.290E-06,0.120
-5.280E-06,0.100
-5.270E-06,0.080
-5.260E-06,0.060
-5.250E-06,-0.080
-5.240E-06,-0.040
-5.230E-06,-0.060
-5.220E-06,-0.080
-5.210E-06,-0.020
-5.200E-06,0.000
-5.190E-06,0.060
-5.180E-06,0.000
-5.170E-06,0.040
-5.160E-06,0.120
-5.150E-06,0.080
-5.140E-06,0.140
-5.130E-06,0.140
-5.120E-06,0.180
-5.110E-06,0.180
-5.100E-06,0.180
-5.090E-06,0.120
-5.080E-06,0.080
-5.070E-06,0.080
-5.060E-06,0.000
-5.050E-06,0.000
-5.040E-06,-0.040
-5.030E-06,-0.060
-5.020E-06,-0.120
-5.010E-06,-0.120
-5.000E-06,-0.100
-4.990E-06,-0.100
-4.980E-06,-0.120
-4.970E-06,-0.100
-4.960E-06,-0.060
-4.950E-06,-0.040
-4.940E-06,-0.060
-4.930E-06,-0.020
-4.920E-06,-0.020
-4.910E-06,0.000
-4.900E-06,-0.020
-4.890E-06,-0.020
-4.880E-06,-0.020
-4.870E-06,0.000
-4.860E-06,-0.020
-4.850E-06,-0.020
-4.840E-06,0.000
-4.830E-06,-0.020
-4.820E-06,0.020
-4.810E-06,0.060
-4.800E-06,0.080
-4.790E-06,0.100
-4.780E-06,0.140
-4.770E-06,0.140
-4.760E-06,0.180
-4.750E-06,0.160
-4.740E-06,0.200
-4.730E-06,0.180
-4.720E-06,0.120
-4.710E-06,0.120
-4.700E-06,0.060
-4.690E-06,0.040
-4.680E-06,-0.020
-4.670E-06,-0.020
-4.660E-06,-0.100
-4.650E-06,-0.120
-4.640E-06,-0.100
-4.630E-06,-0.120
-4.620E-06,-0.120
-4.610E-06,-0.120
-4.600E-06,-0.120
-4.590E-06,-0.080
-4.580E-06,-0.100
-4.570E-06,-0.080
-4.560E-06,-0.060
-4.550E-06,-0.040
-4.540E-06,0.020
-4.530E-06,0.000
-4.520E-06,0.060
-4.510E-06,0.100
-4.500E-06,0.080
-4.490E-06,0.120
-4.480E-06,0.120
-4.470E-06,0.100
-4.460E-06,0.120
-4.450E-06,0.080
-4.440E-06,0.100
-4.430E-06,0.100
-4.420E-06,0.060
-4.410E-06,0.000
-4.400E-06,0.000
-4.390E-06,-0.040
-4.380E-06,-0.040
-4.370E-06,-0.080
-4.360E-06,-0.080
-4.350E-06,-0.080
-4.340E-06,-0.060
-4.330E-06,-0.040
-4.320E-06,0.000
-4.310E-06,-0.020
-4.300E-06,0.020
-4.290E-06,0.060
-4.280E-06,0.100
-4.270E-06,0.120
-4.260E-06,0.100
-4.250E-06,0.120
-4.240E-06,0.120
-4.230E-06,0.120
-4.220E-06,0.100
-4.210E-06,0.100
-4.200E-06,0.080
-4.190E-06,0.060
-4.180E-06,0.080
-4.170E-06,0.160
-4.160E-06,0.400
-4.150E-06,0.800
-4.140E-06,1.340
-4.130E-06,1.660
-4.120E-06,1.840
-4.110E-06,1.680
-4.100E-06,1.200
-4.090E-06,0.600
-4.080E-06,-0.080
-4.070E-06,-0.700
-4.060E-06,-1.180
-4.050E-06,-1.480
-4.040E-06,-1.660
-4.030E-06,-1.740
-4.020E-06,-1.660
-4.010E-06,-1.500
-4.000E-06,-1.200
-3.990E-06,-0.880
-3.980E-06,-0.580
-3.970E-06,-0.340
-3.960E-06,-0.200
-3.950E-06,-0.060
-3.940E-06,0.060
-3.930E-06,0.140
-3.920E-06,0.160
-3.910E-06,0.240
-3.900E-06,0.300
-3.890E-06,0.440
-3.880E-06,0.580
-3.870E-06,0.800
-3.860E-06,0.940
-3.850E-06,1.020
-3.840E-06,0.980
-3.830E-06,0.860
-3.820E-06,0.680
-3.810E-06,0.300
-3.800E-06,0.220
-3.790E-06,-0.340
-3.780E-06,-0.200
-3.770E-06,-0.900
-3.760E-06,-0.560
-3.750E-06,-1.180
-3.740E-06,-0.640
-3.730E-06,-0.960
-3.720E-06,-0.480
-3.710E-06,-0.360
-3.700E-06,-0.020
-3.690E-06,0.380
-3.680E-06,0.520
-3.670E-06,0.760
-3.660E-06,0.780
-3.650E-06,0.800
-3.640E-06,0.740
-3.630E-06,0.580
-3.620E-06,0.440
-3.610E-06,0.280
-3.600E-06,0.100
-3.590E-06,-0.040
-3.580E-06,-0.220
-3.570E-06,-0.320
-3.560E-06,-0.400
-3.550E-06,-0.400
-3.540E-06,-0.440
-3.530E-06,-0.420
-3.520E-06,-0.360
-3.510E-06,-0.320
-3.500E-06,-0.280
-3.490E-06,-0.300
-3.480E-06,-0.260
-3.470E-06,-0.300
-3.460E-06,-0.300
-3.450E-06,-0.260
-3.440E-06,-0.280
-3.430E-06,-0.180
-3.420E-06,-0.040
-3.410E-06,0.100
-3.400E-06,0.180
-3.390E-06,0.320
-3.380E-06,0.400
-3.370E-06,0.420
-3.360E-06,0.380
-3.350E-06,0.320
-3.340E-06,0.220
-3.330E-06,0.000
-3.320E-06,-0.160
-3.310E-06,-0.380
-3.300E-06,-0.520
-3.290E-06,-0.420
-3.280E-06,-0.780
-3.270E-06,-0.360
-3.260E-06,-0.480
-3.250E-06,-0.440
-3.240E-06,-0.160
-3.230E-06,-0.180
-3.220E-06,0.000
-3.210E-06,0.120
-3.200E-06,0.140
-3.190E-06,0.260
-3.180E-06,0.200
-3.170E-06,0.260
-3.160E-06,0.180
-3.150E-06,0.100
-3.140E-06,0.080
-3.130E-06,-0.020
-3.120E-06,-0.040
-3.110E-06,-0.080
-3.100E-06,-0.100
-3.090E-06,-0.080
-3.080E-06,-0.080
-3.070E-06,-0.060
-3.060E-06,-0.020
-3.050E-06,0.000
-3.040E-06,-0.060
-3.030E-06,-0.020
-3.020E-06,-0.120
-3.010E-06,-0.080
-3.000E-06,-0.160
-2.990E-06,-0.060
-2.980E-06,-0.160
-2.970E-06,0.080
-2.960E-06,-0.140
-2.950E-06,0.080
-2.940E-06,0.020
-2.930E-06,0.060
-2.920E-06,0.140
-2.910E-06,0.120
-2.900E-06,0.160
-2.890E-06,0.100
-2.880E-06,0.100
-2.870E-06,0.080
-2.860E-06,0.020
-2.850E-06,-0.080
-2.840E-06,-0.120
-2.830E-06,-0.160
-2.820E-06,-0.160
-2.810E-06,-0.180
-2.800E-06,-0.180
-2.790E-06,-0.180
-2.780E-06,-0.180
-2.770E-06,-0.180
-2.760E-06,-0.160
-2.750E-06,-0.180
-2.740E-06,-0.120
-2.730E-06,-0.120
-2.720E-06,-0.120
-2.710E-06,-0.100
-2.700E-06,-0.200
-2.690E-06,-0.080
-2.680E-06,-0.380
-2.670E-06,0.060
-2.660E-06,-0.600
-2.650E-06,0.080
-2.640E-06,-0.440
-2.630E-06,0.260
-2.620E-06,-0.200
-2.610E-06,0.260
-2.600E-06,0.100
-2.590E-06,0.140
-2.580E-06,0.100
-2.570E-06,-0.020
-2.560E-06,-0.100
-2.550E-06,-0.180
-2.540E-06,-0.100
-2.530E-06,-0.240
-2.520E-06,-0.180
-2.510E-06,-0.120
-2.500E-06,0.040
-2.490E-06,-0.120
-2.480E-06,0.080
-2.470E-06,-0.080
-2.460E-06,-0.160
-2.450E-06,-0.180
-2.440E-06,0.060
-2.430E-06,-0.160
-2.420E-06,-0.120
-2.410E-06,-0.260
-2.400E-06,-0.120
-2.390E-06,0.200
-2.380E-06,-0.520
-2.370E-06,0.100
-2.360E-06,-0.200
-2.350E-06,-0.040
-2.340E-06,-0.100
-2.330E-06,0.120
-2.320E-06,0.140
-2.310E-06,0.320
-2.300E-06,0.080
-2.290E-06,0.160
-2.280E-06,0.040
-2.270E-06,-0.100
-2.260E-06,-0.100
-2.250E-06,-0.320
-2.240E-06,-0.200
-2.230E-06,-0.120
-2.220E-06,-0.360
-2.210E-06,-0.240
-2.200E-06,-0.260
-2.190E-06,-0.680
-2.180E-06,-0.200
-2.170E-06,-0.440
-2.160E-06,-0.280
-2.150E-06,-0.160
-2.140E-06,-0.140
-2.130E-06,-0.060
-2.120E-06,-0.220
-2.110E-06,-0.040
-2.100E-06,-0.100
-2.090E-06,-0.080
-2.080E-06,-0.040
-2.070E-06,-0.060
-2.060E-06,-0.100
-2.050E-06,-0.160
-2.040E-06,-0.260
-2.030E-06,-0.160
-2.020E-06,-0.160
-2.010E-06,-0.140
-2.000E-06,-0.120
-1.990E-06,-0.100
-1.980E-06,-0.100
-1.970E-06,-0.140
-1.960E-06,-0.220
-1.950E-06,-0.200
-1.940E-06,-0.180
-1.930E-06,-0.180
-1.920E-06,-0.140
-1.910E-06,-0.120
-1.900E-06,-0.100
-1.890E-06,-0.140
-1.880E-06,-0.120
-1.870E-06,-0.160
-1.860E-06,-0.040
-1.850E-06,-0.080
-1.840E-06,-0.080
-1.830E-06,0.000
-1.820E-06,0.040
-1.810E-06,0.000
-1.800E-06,0.000
-1.790E-06,0.060
-1.780E-06,0.000
-1.770E-06,0.060
-1.760E-06,0.040
-1.750E-06,0.080
-1.740E-06,0.080
-1.730E-06,0.080
-1.720E-06,0.000
-1.710E-06,-0.120
-1.700E-06,-0.140
-1.690E-06,-0.180
-1.680E-06,-0.180
-1.670E-06,-0.180
-1.660E-06,-0.120
-1.650E-06,-0.100
-1.640E-06,-0.060
-1.630E-06,-0.060
-1.620E-06,-0.060
-1.610E-06,-0.020
-1.600E-06,-0.040
-1.590E-06,-0.040
-1.580E-06,-0.100
-1.570E-06,-0.120
-1.560E-06,-0.140
-1.550E-06,-0.160
-1.540E-06,-0.180
-1.530E-06,-0.200
-1.520E-06,-0.180
-1.510E-06,-0.220
-1.500E-06,-0.260
-1.490E-06,-0.440
-1.480E-06,-0.240
-1.470E-06,-0.540
-1.460E-06,-0.020
-1.450E-06,-0.640
-1.440E-06,0.060
-1.430E-06,-0.640
-1.420E-06,-0.080
-1.410E-06,-0.560
-1.400E-06,-0.320
-1.390E-06,-0.340
-1.380E-06,-0.380
-1.370E-06,-0.160
-1.360E-06,-0.300
-1.350E-06,-0.220
-1.340E-06,-0.240
-1.330E-06,-0.240
-1.320E-06,-0.180
-1.310E-06,-0.260
-1.300E-06,-0.160
-1.290E-06,-0.160
-1.280E-06,-0.120
-1.270E-06,-0.120
-1.260E-06,-0.120
-1.250E-06,-0.160
-1.240E-06,-0.180
-1.230E-06,-0.220
-1.220E-06,-0.180
-1.210E-06,-0.260
-1.200E-06,-0.220
-1.190E-06,-0.280
-1.180E-06,-0.220
-1.170E-06,-0.120
-1.160E-06,-0.120
-1.150E-06,-0.040
-1.140E-06,-0.040
-1.130E-06,0.000
-1.120E-06,-0.020
-1.110E-06,-0.140
-1.100E-06,-0.120
-1.090E-06,-0.180
-1.080E-06,-0.260
-1.070E-06,-0.080
-1.060E-06,-0.340
-1.050E-06,-0.200
-1.040E-06,-0.280
-1.030E-06,-0.320
-1.020E-06,-0.060
-1.010E-06,-0.180
-1.000E-06,-0.180
-9.900E-07,-0.260
-9.800E-07,-0.380
-9.700E-07,-0.400
-9.600E-07,-0.440
-9.500E-07,-0.360
-9.400E-07,-0.380
-9.300E-07,-0.400
-9.200E-07,-0.420
-9.100E-07,-0.520
-9.000E-07,-0.520
-8.900E-07,-0.580
-8.800E-07,-0.600
-8.700E-07,-0.600
-8.600E-07,-0.440
-8.500E-07,-0.460
-8.400E-07,-0.120
-8.300E-07,-0.420
-8.200E-07,0.000
-8.100E-07,-0.260
-8.000E-07,0.060
-7.900E-07,-0.020
-7.800E-07,-0.060
-7.700E-07,-0.040
-7.600E-07,-0.160
-7.500E-07,-0.280
-7.400E-07,-0.340
-7.300E-07,-0.360
-7.200E-07,-0.340
-7.100E-07,-0.280
-7.000E-07,-0.220
-6.900E-07,-0.200
-6.800E-07,-0.220
-6.700E-07,-0.480
-6.600E-07,-0.340
-6.500E-07,-0.540
-6.400E-07,-0.200
-6.300E-07,-0.500
-6.200E-07,-0.180
-6.100E-07,-0.620
-6.000E-07,0.040
-5.900E-07,-0.300
-5.800E-07,-0.100
-5.700E-07,-0.080
-5.600E-07,-0.180
-5.500E-07,-0.140
-5.400E-07,-0.180
-5.300E-07,-0.240
-5.200E-07,-0.240
-5.100E-07,-0.420
-5.000E-07,-0.360
-4.900E-07,-0.500
-4.800E-07,-0.540
-4.700E-07,-0.560
-4.600E-07,-0.600
-4.500E-07,-0.700
-4.400E-07,-0.680
-4.300E-07,-0.660
-4.200E-07,-0.520
-4.100E-07,-0.680
-4.000E-07,-0.520
-3.900E-07,-0.560
-3.800E-07,-0.260
-3.700E-07,-0.420
-3.600E-07,-0.120
-3.500E-07,-0.180
-3.400E-07,-0.060
-3.300E-07,-0.080
-3.200E-07,-0.040
-3.100E-07,-0.020
-3.000E-07,-0.060
-2.900E-07,-0.080
-2.800E-07,-0.060
-2.700E-07,-0.200
-2.600E-07,-0.180
-2.500E-07,-0.300
-2.400E-07,-0.240
-2.300E-07,-0.160
-2.200E-07,-0.100
-2.100E-07,-0.360
-2.000E-07,-0.380
-1.900E-07,-0.520
-1.800E-07,-0.760
-1.700E-07,-0.720
-1.600E-07,-0.940
-1.500E-07,-0.820
-1.400E-07,-1.060
-1.300E-07,-0.640
-1.200E-07,-1.280
-1.100E-07,-0.200
-1.000E-07,-0.180
-9.000E-08,-0.360
-8.000E-08,-1.080
-7.000E-08,-0.680
-6.000E-08,0.840
-5.000E-08,-0.380
-4.000E-08,0.280
-3.000E-08,-0.020
-2.000E-08,-0.780
-1.000E-08,-1.520
0.000E+00,-2.100
1.000E-08,-2.220
2.000E-08,-1.160
3.000E-08,-1.260
4.000E-08,-0.600
5.000E-08,-0.760
6.000E-08,-0.660
7.000E-08,-0.640
8.000E-08,-0.360
9.000E-08,-0.700
1.000E-07,-0.080
1.100E-07,0.020
1.200E-07,0.240
1.300E-07,0.140
1.400E-07,0.160
1.500E-07,0.200
1.600E-07,0.340
1.700E-07,0.360
1.800E-07,0.300
1.900E-07,0.360
2.000E-07,0.400
2.100E-07,0.440
2.200E-07,0.200
2.300E-07,0.060
2.400E-07,-0.300
2.500E-07,-0.600
2.600E-07,-0.780
2.700E-07,-0.980
2.800E-07,-1.020
2.900E-07,-1.280
3.000E-07,-1.520
3.100E-07,-1.780
3.200E-07,-1.280
3.300E-07,-1.800
3.400E-07,-0.900
3.500E-07,-1.540
3.600E-07,-1.020
3.700E-07,-1.020
3.800E-07,-0.820
3.900E-07,-0.700
4.000E-07,-0.700
4.100E-07,-0.860
4.200E-07,-0.980
4.300E-07,-0.900
4.400E-07,-1.260
4.500E-07,-0.760
4.600E-07,-1.020
4.700E-07,-0.680
4.800E-07,-1.380
4.900E-07,-1.180
5.000E-07,-1.680
5.100E-07,-1.360
5.200E-07,-1.520
5.300E-07,-1.340
5.400E-07,-1.380
5.500E-07,-1.520
5.600E-07,-1.620
5.700E-07,-1.800
5.800E-07,-1.880
5.900E-07,-1.440
6.000E-07,-1.660
6.100E-07,-1.520
6.200E-07,-1.880
6.300E-07,-1.700
6.400E-07,-1.740
6.500E-07,-1.520
6.600E-07,-1.560
6.700E-07,-1.520
6.800E-07,-1.500
6.900E-07,-1.740
7.000E-07,-1.760
7.100E-07,-1.800
7.200E-07,-1.800
7.300E-07,-1.320
7.400E-07,-0.580
7.500E-07,1.600
7.600E-07,1.180
7.700E-07,1.060
7.800E-07,-1.000
7.900E-07,-2.520
8.000E-07,-3.340
8.100E-07,-3.340
8.200E-07,-3.360
8.300E-07,-3.340
8.400E-07,-3.340
8.500E-07,-3.320
8.600E-07,-3.340
8.700E-07,-3.340
8.800E-07,-3.360
8.900E-07,-3.360
9.000E-07,-3.340
9.100E-07,-3.340
9.200E-07,-3.340
9.300E-07,-2.740
9.400E-07,-2.340
9.500E-07,-1.680
9.600E-07,-1.180
9.700E-07,-0.840
9.800E-07,-0.460
9.900E-07,-0.300
1.000E-06,-0.220
1.010E-06,0.000
1.020E-06,-0.020
1.030E-06,0.260
1.040E-06,-0.160
1.050E-06,-0.240
1.060E-06,-0.500
1.070E-06,-1.000
1.080E-06,-1.240
1.090E-06,-2.120
1.100E-06,-2.520
1.110E-06,-3.340
1.120E-06,-3.340
1.130E-06,-3.340
1.140E-06,-3.320
1.150E-06,-3.320
1.160E-06,-3.180
1.170E-06,-2.780
1.180E-06,-2.280
1.190E-06,-1.700
1.200E-06,-1.300
1.210E-06,-0.760
1.220E-06,-0.360
1.230E-06,-0.120
1.240E-06,-0.400
1.250E-06,-0.660
1.260E-06,-1.120
1.270E-06,-1.520
1.280E-06,-1.960
1.290E-06,-2.200
1.300E-06,-2.060
1.310E-06,-1.740
1.320E-06,-1.240
1.330E-06,-0.860
1.340E-06,-1.500
1.350E-06,-2.620
1.360E-06,-3.320
1.370E-06,-3.320
1.380E-06,-3.320
1.390E-06,-3.340
1.400E-06,-3.340
1.410E-06,-3.340
1.420E-06,-2.700
1.430E-06,-2.400
1.440E-06,-2.000
1.450E-06,-1.640
1.460E-06,-1.320
1.470E-06,-1.420
1.480E-06,-0.500
1.490E-06,0.320
1.500E-06,2.080
1.510E-06,2.060
1.520E-06,2.080
1.530E-06,2.100
1.540E-06,2.100
1.550E-06,0.300
1.560E-06,-3.340
1.570E-06,-3.340
1.580E-06,-3.360
1.590E-06,-3.340
1.600E-06,-3.340
1.610E-06,-3.340
1.620E-06,-3.340
1.630E-06,-2.380
1.640E-06,-2.760
1.650E-06,-2.820
1.660E-06,-2.800
1.670E-06,-3.340
1.680E-06,-3.340
1.690E-06,-3.000
1.700E-06,-1.960
1.710E-06,-1.680
1.720E-06,-1.320
1.730E-06,-1.040
1.740E-06,-1.240
1.750E-06,-0.640
1.760E-06,-0.200
1.770E-06,0.440
1.780E-06,0.980
1.790E-06,0.040
1.800E-06,0.080
1.810E-06,-0.980
1.820E-06,-1.140
1.830E-06,-1.380
1.840E-06,-1.420
1.850E-06,-1.360
1.860E-06,-1.640
1.870E-06,-1.860
1.880E-06,-2.180
1.890E-06,-2.420
1.900E-06,-2.380
1.910E-06,-2.260
1.920E-06,-1.700
1.930E-06,-1.340
1.940E-06,-0.220
1.950E-06,0.240
1.960E-06,1.040
1.970E-06,1.240
1.980E-06,1.520
1.990E-06,1.360
2.000E-06,1.180
2.010E-06,0.920
2.020E-06,0.460
2.030E-06,0.140
2.040E-06,-0.260
2.050E-06,-0.520
2.060E-06,-0.760
2.070E-06,-0.880
2.080E-06,-1.180
2.090E-06,-1.360
2.100E-06,-1.660
2.110E-06,-1.660
2.120E-06,-1.740
2.130E-06,-1.680
2.140E-06,-1.520
2.150E-06,-1.380
2.160E-06,-1.260
2.170E-06,-1.200
2.180E-06,-1.100
2.190E-06,-1.020
2.200E-06,-0.880
2.210E-06,-0.680
2.220E-06,-0.440
2.230E-06,-0.200
2.240E-06,0.080
2.250E-06,0.260
2.260E-06,0.360
2.270E-06,0.440
2.280E-06,0.420
2.290E-06,0.320
2.300E-06,0.020
2.310E-06,-0.280
2.320E-06,-0.600
2.330E-06,-1.000
2.340E-06,-1.240
2.350E-06,-1.520
2.360E-06,-1.600
2.370E-06,-1.680
2.380E-06,-1.500
2.390E-06,-1.360
2.400E-06,-1.000
2.410E-06,-0.960
2.420E-06,-0.600
2.430E-06,-0.420
2.440E-06,-0.340
2.450E-06,-0.160
2.460E-06,-0.200
2.470E-06,-0.080
2.480E-06,-0.080
2.490E-06,-0.120
2.500E-06,0.000
2.510E-06,-0.160
2.520E-06,-0.100
2.530E-06,-0.080
2.540E-06,-0.120
2.550E-06,0.040
2.560E-06,0.000
2.570E-06,0.080
2.580E-06,0.180
2.590E-06,0.160
2.600E-06,0.080
2.610E-06,-0.020
2.620E-06,-0.020
2.630E-06,-0.200
2.640E-06,-0.280
2.650E-06,-0.460
2.660E-06,-0.320
2.670E-06,-0.460
2.680E-06,-0.420
2.690E-06,-0.320
2.700E-06,-0.280
2.710E-06,-0.160
2.720E-06,-0.180
2.730E-06,-0.080
2.740E-06,0.000
2.750E-06,-0.100
2.760E-06,-0.060
2.770E-06,-0.220
2.780E-06,-0.220
2.790E-06,-0.260
2.800E-06,-0.300
2.810E-06,-0.420
2.820E-06,-0.460
2.830E-06,-0.360
2.840E-06,-0.420
2.850E-06,-0.300
2.860E-06,-0.420
2.870E-06,-0.200
2.880E-06,-0.280
2.890E-06,-0.260
2.900E-06,-0.100
2.910E-06,-0.160
2.920E-06,-0.040
2.930E-06,-0.100
2.940E-06,-0.120
2.950E-06,-0.060
2.960E-06,-0.140
2.970E-06,-0.020
2.980E-06,-0.020
2.990E-06,0.080
3.000E-06,-0.020
3.010E-06,0.000
3.020E-06,0.140
3.030E-06,0.180
3.040E-06,0.220
3.050E-06,0.120
3.060E-06,0.380
3.070E-06,0.260
3.080E-06,0.280
3.090E-06,0.340
3.100E-06,0.320
3.110E-06,0.380
3.120E-06,0.320
3.130E-06,0.360
3.140E-06,0.220
3.150E-06,0.200
3.160E-06,0.340
