mediciones/curva carac 8-28 limpias/-9/WaveData6647.csv

#timebase=2000000(ps)
,#voltbase=500000(mv/100)
#size=4000
-8.350E-06,0.260
-8.340E-06,0.380
-8.330E-06,0.540
-8.320E-06,0.660
-8.310E-06,0.780
-8.300E-06,0.740
-8.290E-06,0.620
-8.280E-06,0.460
-8.270E-06,0.260
-8.260E-06,0.160
-8.250E-06,-0.020
-8.240E-06,-0.080
-8.230E-06,-0.080
-8.220E-06,-0.140
-8.210E-06,-0.300
-8.200E-06,-0.400
-8.190E-06,-0.440
-8.180E-06,-0.420
-8.170E-06,-0.440
-8.160E-06,-0.340
-8.150E-06,-0.200
-8.140E-06,-0.220
-8.130E-06,-0.240
-8.120E-06,-0.160
-8.110E-06,-0.460
-8.100E-06,-0.380
-8.090E-06,-0.480
-8.080E-06,-0.440
-8.070E-06,-0.400
-8.060E-06,-0.300
-8.050E-06,-0.180
-8.040E-06,-0.120
-8.030E-06,-0.160
-8.020E-06,-0.060
-8.010E-06,-0.080
-8.000E-06,-0.040
-7.990E-06,0.040
-7.980E-06,0.000
-7.970E-06,0.000
-7.960E-06,0.040
-7.950E-06,0.000
-7.940E-06,0.000
-7.930E-06,0.060
-7.920E-06,0.220
-7.910E-06,0.200
-7.900E-06,0.280
-7.890E-06,0.360
-7.880E-06,0.340
-7.870E-06,0.300
-7.860E-06,0.280
-7.850E-06,0.360
-7.840E-06,0.340
-7.830E-06,0.340
-7.820E-06,0.380
-7.810E-06,0.360
-7.800E-06,0.320
-7.790E-06,0.280
-7.780E-06,0.300
-7.770E-06,0.260
-7.760E-06,0.220
-7.750E-06,0.220
-7.740E-06,0.180
-7.730E-06,0.120
-7.720E-06,0.100
-7.710E-06,0.080
-7.700E-06,0.000
-7.690E-06,-0.020
-7.680E-06,-0.060
-7.670E-06,-0.080
-7.660E-06,-0.140
-7.650E-06,-0.100
-7.640E-06,-0.120
-7.630E-06,-0.180
-7.620E-06,-0.160
-7.610E-06,-0.180
-7.600E-06,-0.160
-7.590E-06,-0.140
-7.580E-06,-0.120
-7.570E-06,-0.060
-7.560E-06,0.020
-7.550E-06,0.120
-7.540E-06,0.160
-7.530E-06,0.100
-7.520E-06,0.120
-7.510E-06,0.040
-7.500E-06,0.000
-7.490E-06,-0.080
-7.480E-06,0.000
-7.470E-06,0.080
-7.460E-06,0.080
-7.450E-06,0.100
-7.440E-06,0.060
-7.430E-06,-0.100
-7.420E-06,-0.180
-7.410E-06,-0.240
-7.400E-06,-0.260
-7.390E-06,-0.180
-7.380E-06,-0.140
-7.370E-06,-0.160
-7.360E-06,-0.180
-7.350E-06,-0.200
-7.340E-06,-0.220
-7.330E-06,-0.160
-7.320E-06,-0.220
-7.310E-06,-0.060
-7.300E-06,-0.100
-7.290E-06,0.020
-7.280E-06,-0.020
-7.270E-06,0.000
-7.260E-06,0.020
-7.250E-06,0.000
-7.240E-06,-0.020
-7.230E-06,0.000
-7.220E-06,0.000
-7.210E-06,0.000
-7.200E-06,0.040
-7.190E-06,0.060
-7.180E-06,0.060
-7.170E-06,0.020
-7.160E-06,-0.020
-7.150E-06,-0.040
-7.140E-06,-0.100
-7.130E-06,-0.080
-7.120E-06,-0.080
-7.110E-06,-0.060
-7.100E-06,0.000
-7.090E-06,0.060
-7.080E-06,0.060
-7.070E-06,0.080
-7.060E-06,0.080
-7.050E-06,0.100
-7.040E-06,0.100
-7.030E-06,0.120
-7.020E-06,0.160
-7.010E-06,0.120
-7.000E-06,0.120
-6.990E-06,0.100
-6.980E-06,0.080
-6.970E-06,0.080
-6.960E-06,0.060
-6.950E-06,0.040
-6.940E-06,0.020
-6.930E-06,-0.040
-6.920E-06,-0.060
-6.910E-06,-0.080
-6.900E-06,-0.080
-6.890E-06,-0.100
-6.880E-06,-0.100
-6.870E-06,-0.100
-6.860E-06,-0.100
-6.850E-06,-0.080
-6.840E-06,-0.100
-6.830E-06,-0.080
-6.820E-06,-0.120
-6.810E-06,-0.140
-6.800E-06,-0.120
-6.790E-06,-0.120
-6.780E-06,-0.100
-6.770E-06,-0.080
-6.760E-06,-0.040
-6.750E-06,-0.020
-6.740E-06,-0.020
-6.730E-06,-0.020
-6.720E-06,-0.040
-6.710E-06,-0.020
-6.700E-06,-0.020
-6.690E-06,-0.040
-6.680E-06,-0.080
-6.670E-06,-0.120
-6.660E-06,-0.140
-6.650E-06,-0.160
-6.640E-06,-0.160
-6.630E-06,-0.160
-6.620E-06,-0.220
-6.610E-06,-0.220
-6.600E-06,-0.240
-6.590E-06,-0.180
-6.580E-06,-0.180
-6.570E-06,-0.140
-6.560E-06,-0.140
-6.550E-06,-0.140
-6.540E-06,-0.160
-6.530E-06,-0.200
-6.520E-06,-0.180
-6.510E-06,-0.200
-6.500E-06,-0.140
-6.490E-06,-0.080
-6.480E-06,-0.060
-6.470E-06,-0.020
-6.460E-06,-0.060
-6.450E-06,-0.020
-6.440E-06,-0.060
-6.430E-06,-0.080
-6.420E-06,-0.020
-6.410E-06,-0.040
-6.400E-06,0.000
-6.390E-06,-0.020
-6.380E-06,-0.060
-6.370E-06,-0.120
-6.360E-06,-0.040
-6.350E-06,-0.140
-6.340E-06,0.000
-6.330E-06,0.140
-6.320E-06,-0.500
-6.310E-06,0.400
-6.300E-06,0.240
-6.290E-06,0.020
-6.280E-06,-0.100
-6.270E-06,-0.340
-6.260E-06,-0.180
-6.250E-06,-0.240
-6.240E-06,-0.600
-6.230E-06,0.000
-6.220E-06,0.080
-6.210E-06,-0.100
-6.200E-06,-0.160
-6.190E-06,-0.280
-6.180E-06,-0.240
-6.170E-06,-0.040
-6.160E-06,-0.240
-6.150E-06,0.040
-6.140E-06,0.500
-6.130E-06,0.440
-6.120E-06,0.140
-6.110E-06,0.160
-6.100E-06,0.300
-6.090E-06,0.160
-6.080E-06,-0.140
-6.070E-06,-0.100
-6.060E-06,-0.100
-6.050E-06,-0.180
-6.040E-06,0.000
-6.030E-06,-0.200
-6.020E-06,0.040
-6.010E-06,-0.220
-6.000E-06,-0.260
-5.990E-06,-0.280
-5.980E-06,-0.200
-5.970E-06,-0.280
-5.960E-06,-0.040
-5.950E-06,0.000
-5.940E-06,-0.180
-5.930E-06,-0.160
-5.920E-06,-0.280
-5.910E-06,-0.280
-5.900E-06,-0.280
-5.890E-06,-0.260
-5.880E-06,-0.160
-5.870E-06,-0.160
-5.860E-06,-0.180
-5.850E-06,-0.040
-5.840E-06,-0.180
-5.830E-06,-0.140
-5.820E-06,-0.100
-5.810E-06,-0.200
-5.800E-06,0.000
-5.790E-06,0.100
-5.780E-06,0.060
-5.770E-06,0.080
-5.760E-06,-0.080
-5.750E-06,-0.260
-5.740E-06,-0.240
-5.730E-06,-0.260
-5.720E-06,-0.160
-5.710E-06,-0.060
-5.700E-06,-0.160
-5.690E-06,-0.220
-5.680E-06,-0.260
-5.670E-06,-0.040
-5.660E-06,0.000
-5.650E-06,0.220
-5.640E-06,0.440
-5.630E-06,0.360
-5.620E-06,0.280
-5.610E-06,0.100
-5.600E-06,-0.080
-5.590E-06,-0.100
-5.580E-06,-0.260
-5.570E-06,-0.300
-5.560E-06,-0.360
-5.550E-06,-0.480
-5.540E-06,-0.380
-5.530E-06,-0.340
-5.520E-06,-0.280
-5.510E-06,-0.400
-5.500E-06,-0.380
-5.490E-06,-0.460
-5.480E-06,-0.420
-5.470E-06,-0.440
-5.460E-06,-0.400
-5.450E-06,-0.440
-5.440E-06,-0.380
-5.430E-06,-0.480
-5.420E-06,-0.440
-5.410E-06,-0.440
-5.400E-06,-0.340
-5.390E-06,-0.400
-5.380E-06,-0.340
-5.370E-06,-0.220
-5.360E-06,-0.200
-5.350E-06,-0.260
-5.340E-06,0.000
-5.330E-06,0.100
-5.320E-06,0.140
-5.310E-06,0.000
-5.300E-06,-0.160
-5.290E-06,-0.180
-5.280E-06,-0.420
-5.270E-06,0.760
-5.260E-06,0.440
-5.250E-06,0.600
-5.240E-06,0.220
-5.230E-06,-0.160
-5.220E-06,-0.700
-5.210E-06,-1.080
-5.200E-06,-1.340
-5.190E-06,-0.860
-5.180E-06,-1.260
-5.170E-06,-1.000
-5.160E-06,-0.680
-5.150E-06,-0.940
-5.140E-06,-0.420
-5.130E-06,-0.580
-5.120E-06,-0.420
-5.110E-06,0.160
-5.100E-06,0.080
-5.090E-06,0.340
-5.080E-06,0.480
-5.070E-06,0.420
-5.060E-06,0.620
-5.050E-06,0.580
-5.040E-06,0.500
-5.030E-06,0.480
-5.020E-06,0.420
-5.010E-06,0.440
-5.000E-06,0.380
-4.990E-06,0.220
-4.980E-06,0.240
-4.970E-06,0.080
-4.960E-06,-0.040
-4.950E-06,-0.100
-4.940E-06,-0.180
-4.930E-06,-0.380
-4.920E-06,-0.560
-4.910E-06,-0.480
-4.900E-06,-0.440
-4.890E-06,-0.280
-4.880E-06,-0.140
-4.870E-06,-0.080
-4.860E-06,0.000
-4.850E-06,-0.180
-4.840E-06,0.040
-4.830E-06,-0.020
-4.820E-06,-0.140
-4.810E-06,-0.060
-4.800E-06,-0.080
-4.790E-06,0.060
-4.780E-06,-0.040
-4.770E-06,-0.060
-4.760E-06,-0.280
-4.750E-06,-0.500
-4.740E-06,-0.680
-4.730E-06,-0.960
-4.720E-06,0.140
-4.710E-06,1.060
-4.700E-06,0.820
-4.690E-06,-0.580
-4.680E-06,-1.940
-4.670E-06,-0.600
-4.660E-06,-0.020
-4.650E-06,0.300
-4.640E-06,0.740
-4.630E-06,-0.440
-4.620E-06,-1.180
-4.610E-06,-3.600
-4.600E-06,-2.940
-4.590E-06,-2.200
-4.580E-06,-1.260
-4.570E-06,-0.680
-4.560E-06,-1.020
-4.550E-06,-0.220
-4.540E-06,0.080
-4.530E-06,-0.500
-4.520E-06,0.300
-4.510E-06,0.860
-4.500E-06,1.360
-4.490E-06,0.880
-4.480E-06,0.860
-4.470E-06,0.880
-4.460E-06,0.740
-4.450E-06,0.320
-4.440E-06,0.320
-4.430E-06,0.160
-4.420E-06,0.420
-4.410E-06,0.360
-4.400E-06,0.360
-4.390E-06,0.260
-4.380E-06,0.140
-4.370E-06,0.000
-4.360E-06,-0.300
-4.350E-06,-0.440
-4.340E-06,-0.660
-4.330E-06,-0.480
-4.320E-06,-0.880
-4.310E-06,-0.660
-4.300E-06,-0.740
-4.290E-06,-0.500
-4.280E-06,-0.500
-4.270E-06,-0.360
-4.260E-06,-0.120
-4.250E-06,0.100
-4.240E-06,0.300
-4.230E-06,0.460
-4.220E-06,0.160
-4.210E-06,0.500
-4.200E-06,-0.660
-4.190E-06,0.220
-4.180E-06,-0.180
-4.170E-06,1.400
-4.160E-06,1.180
-4.150E-06,1.440
-4.140E-06,0.900
-4.130E-06,-2.000
-4.120E-06,-2.440
-4.110E-06,-1.500
-4.100E-06,-1.120
-4.090E-06,-0.080
-4.080E-06,-0.560
-4.070E-06,-0.700
-4.060E-06,-3.620
-4.050E-06,-3.620
-4.040E-06,-3.620
-4.030E-06,-2.460
-4.020E-06,-1.340
-4.010E-06,-0.480
-4.000E-06,-0.180
-3.990E-06,-0.220
-3.980E-06,-0.420
-3.970E-06,-0.080
-3.960E-06,0.000
-3.950E-06,0.500
-3.940E-06,0.840
-3.930E-06,0.960
-3.920E-06,0.720
-3.910E-06,0.980
-3.900E-06,0.460
-3.890E-06,0.200
-3.880E-06,-0.420
-3.870E-06,-0.440
-3.860E-06,-0.360
-3.850E-06,0.040
-3.840E-06,-0.020
-3.830E-06,-0.080
-3.820E-06,0.020
-3.810E-06,-0.020
-3.800E-06,-0.700
-3.790E-06,-0.720
-3.780E-06,-0.860
-3.770E-06,-0.640
-3.760E-06,-0.660
-3.750E-06,-0.920
-3.740E-06,-0.820
-3.730E-06,-0.720
-3.720E-06,-0.820
-3.710E-06,-0.760
-3.700E-06,-0.560
-3.690E-06,-0.380
-3.680E-06,0.040
-3.670E-06,0.140
-3.660E-06,0.240
-3.650E-06,0.480
-3.640E-06,1.180
-3.630E-06,1.000
-3.620E-06,0.680
-3.610E-06,-0.100
-3.600E-06,-0.780
-3.590E-06,-1.640
-3.580E-06,-1.540
-3.570E-06,-1.680
-3.560E-06,-1.240
-3.550E-06,-1.620
-3.540E-06,-2.560
-3.530E-06,-1.720
-3.520E-06,-1.320
-3.510E-06,0.520
-3.500E-06,1.280
-3.490E-06,0.420
-3.480E-06,0.220
-3.470E-06,0.720
-3.460E-06,-0.620
-3.450E-06,-0.080
-3.440E-06,-2.600
-3.430E-06,-2.780
-3.420E-06,-3.620
-3.410E-06,-3.620
-3.400E-06,-3.560
-3.390E-06,-2.000
-3.380E-06,-2.580
-3.370E-06,-1.340
-3.360E-06,-2.420
-3.350E-06,-2.420
-3.340E-06,-3.340
-3.330E-06,-2.860
-3.320E-06,-2.120
-3.310E-06,-1.880
-3.300E-06,-0.700
-3.290E-06,-1.120
-3.280E-06,-1.240
-3.270E-06,-1.660
-3.260E-06,-2.000
-3.250E-06,-2.060
-3.240E-06,-1.820
-3.230E-06,-1.460
-3.220E-06,-0.720
-3.210E-06,-0.580
-3.200E-06,-0.660
-3.190E-06,-1.020
-3.180E-06,-1.520
-3.170E-06,-1.800
-3.160E-06,-1.800
-3.150E-06,-1.620
-3.140E-06,-1.200
-3.130E-06,-1.060
-3.120E-06,-1.020
-3.110E-06,-1.080
-3.100E-06,-1.100
-3.090E-06,-0.840
-3.080E-06,-0.480
-3.070E-06,0.060
-3.060E-06,0.600
-3.050E-06,1.280
-3.040E-06,1.740
-3.030E-06,1.820
-3.020E-06,1.840
-3.010E-06,1.820
-3.000E-06,1.800
-2.990E-06,1.540
-2.980E-06,1.200
-2.970E-06,0.040
-2.960E-06,-0.820
-2.950E-06,-2.520
-2.940E-06,-3.600
-2.930E-06,-3.600
-2.920E-06,-3.620
-2.910E-06,-3.600
-2.900E-06,-3.600
-2.890E-06,-3.580
-2.880E-06,-3.220
-2.870E-06,-2.300
-2.860E-06,-1.700
-2.850E-06,-1.160
-2.840E-06,-1.060
-2.830E-06,-0.540
-2.820E-06,0.380
-2.810E-06,1.220
-2.800E-06,0.940
-2.790E-06,1.200
-2.780E-06,0.600
-2.770E-06,-0.500
-2.760E-06,-2.460
-2.750E-06,-3.600
-2.740E-06,-3.600
-2.730E-06,-3.580
-2.720E-06,-3.580
-2.710E-06,-3.580
-2.700E-06,-3.600
-2.690E-06,-3.600
-2.680E-06,-3.600
-2.670E-06,-3.600
-2.660E-06,-3.400
-2.650E-06,-2.920
-2.640E-06,-2.120
-2.630E-06,-1.080
-2.620E-06,-0.160
-2.610E-06,0.600
-2.600E-06,1.160
-2.590E-06,1.740
-2.580E-06,1.800
-2.570E-06,1.820
-2.560E-06,1.820
-2.550E-06,1.820
-2.540E-06,1.840
-2.530E-06,1.820
-2.520E-06,1.800
-2.510E-06,1.780
-2.500E-06,1.080
-2.490E-06,0.300
-2.480E-06,-0.360
-2.470E-06,-0.940
-2.460E-06,-1.260
-2.450E-06,-1.500
-2.440E-06,-1.500
-2.430E-06,-1.420
-2.420E-06,-1.240
-2.410E-06,-1.000
-2.400E-06,-0.700
-2.390E-06,-0.280
-2.380E-06,0.120
-2.370E-06,0.520
-2.360E-06,0.800
-2.350E-06,0.980
-2.340E-06,1.040
-2.330E-06,0.960
-2.320E-06,0.820
-2.310E-06,0.600
-2.300E-06,0.400
-2.290E-06,0.260
-2.280E-06,0.100
-2.270E-06,0.000
-2.260E-06,-0.180
-2.250E-06,-0.360
-2.240E-06,-0.620
-2.230E-06,-0.860
-2.220E-06,-1.140
-2.210E-06,-1.340
-2.200E-06,-1.460
-2.190E-06,-1.560
-2.180E-06,-1.560
-2.170E-06,-1.500
-2.160E-06,-1.360
-2.150E-06,-1.140
-2.140E-06,-0.860
-2.130E-06,-0.480
-2.120E-06,-0.060
-2.110E-06,0.400
-2.100E-06,0.820
-2.090E-06,1.160
-2.080E-06,1.420
-2.070E-06,1.540
-2.060E-06,1.580
-2.050E-06,1.440
-2.040E-06,1.260
-2.030E-06,1.000
-2.020E-06,0.680
-2.010E-06,0.380
-2.000E-06,0.060
-1.990E-06,-0.180
-1.980E-06,-0.380
-1.970E-06,-0.480
-1.960E-06,-0.480
-1.950E-06,-0.440
-1.940E-06,-0.380
-1.930E-06,-0.200
-1.920E-06,-0.100
-1.910E-06,-0.040
-1.900E-06,0.000
-1.890E-06,0.040
-1.880E-06,0.080
-1.870E-06,0.080
-1.860E-06,0.120
-1.850E-06,0.100
-1.840E-06,0.180
-1.830E-06,0.260
-1.820E-06,0.340
-1.810E-06,0.420
-1.800E-06,0.480
-1.790E-06,0.480
-1.780E-06,0.460
-1.770E-06,0.460
-1.760E-06,0.400
-1.750E-06,0.280
-1.740E-06,0.140
-1.730E-06,0.020
-1.720E-06,-0.080
-1.710E-06,-0.240
-1.700E-06,-0.300
-1.690E-06,-0.360
-1.680E-06,-0.320
-1.670E-06,-0.300
-1.660E-06,-0.240
-1.650E-06,-0.120
-1.640E-06,-0.040
-1.630E-06,0.060
-1.620E-06,0.160
-1.610E-06,0.220
-1.600E-06,0.280
-1.590E-06,0.300
-1.580E-06,0.300
-1.570E-06,0.300
-1.560E-06,0.280
-1.550E-06,0.260
-1.540E-06,0.300
-1.530E-06,0.280
-1.520E-06,0.300
-1.510E-06,0.320
-1.500E-06,0.360
-1.490E-06,0.340
-1.480E-06,0.380
-1.470E-06,0.360
-1.460E-06,0.340
-1.450E-06,0.280
-1.440E-06,0.260
-1.430E-06,0.220
-1.420E-06,0.160
-1.410E-06,0.100
-1.400E-06,0.100
-1.390E-06,0.040
-1.380E-06,0.040
-1.370E-06,0.040
-1.360E-06,0.060
-1.350E-06,0.060
-1.340E-06,0.080
-1.330E-06,0.140
-1.320E-06,0.160
-1.310E-06,0.160
-1.300E-06,0.140
-1.290E-06,0.160
-1.280E-06,0.200
-1.270E-06,0.180
-1.260E-06,0.160
-1.250E-06,0.200
-1.240E-06,0.160
-1.230E-06,0.140
-1.220E-06,0.160
-1.210E-06,0.160
-1.200E-06,0.180
-1.190E-06,0.160
-1.180E-06,0.140
-1.170E-06,0.160
-1.160E-06,0.160
-1.150E-06,0.160
-1.140E-06,0.180
-1.130E-06,0.140
-1.120E-06,0.120
-1.110E-06,0.180
-1.100E-06,0.180
-1.090E-06,0.200
-1.080E-06,0.220
-1.070E-06,0.260
-1.060E-06,0.280
-1.050E-06,0.300
-1.040E-06,0.360
-1.030E-06,0.400
-1.020E-06,0.420
-1.010E-06,0.460
-1.000E-06,0.480
-9.900E-07,0.500
-9.800E-07,0.460
-9.700E-07,0.480
-9.600E-07,0.420
-9.500E-07,0.400
-9.400E-07,0.360
-9.300E-07,0.360
-9.200E-07,0.300
-9.100E-07,0.300
-9.000E-07,0.240
-8.900E-07,0.200
-8.800E-07,0.180
-8.700E-07,0.160
-8.600E-07,0.140
-8.500E-07,0.160
-8.400E-07,0.180
-8.300E-07,0.160
-8.200E-07,0.160
-8.100E-07,0.160
-8.000E-07,0.180
-7.900E-07,0.220
-7.800E-07,0.220
-7.700E-07,0.280
-7.600E-07,0.260
-7.500E-07,0.280
-7.400E-07,0.320
-7.300E-07,0.340
-7.200E-07,0.320
-7.100E-07,0.320
-7.000E-07,0.340
-6.900E-07,0.360
-6.800E-07,0.320
-6.700E-07,0.320
-6.600E-07,0.300
-6.500E-07,0.300
-6.400E-07,0.280
-6.300E-07,0.260
-6.200E-07,0.240
-6.100E-07,0.260
-6.000E-07,0.220
-5.900E-07,0.240
-5.800E-07,0.240
-5.700E-07,0.240
-5.600E-07,0.260
-5.500E-07,0.280
-5.400E-07,0.280
-5.300E-07,0.300
-5.200E-07,0.320
-5.100E-07,0.320
-5.000E-07,0.340
-4.900E-07,0.300
-4.800E-07,0.340
-4.700E-07,0.300
-4.600E-07,0.300
-4.500E-07,0.280
-4.400E-07,0.300
-4.300E-07,0.260
-4.200E-07,0.260
-4.100E-07,0.280
-4.000E-07,0.280
-3.900E-07,0.280
-3.800E-07,0.260
-3.700E-07,0.320
-3.600E-07,0.280
-3.500E-07,0.320
-3.400E-07,0.320
-3.300E-07,0.360
-3.200E-07,0.360
-3.100E-07,0.380
-3.000E-07,0.380
-2.900E-07,0.400
-2.800E-07,0.420
-2.700E-07,0.440
-2.600E-07,0.440
-2.500E-07,0.440
-2.400E-07,0.480
-2.300E-07,0.500
-2.200E-07,0.480
-2.100E-07,0.520
-2.000E-07,0.600
-1.900E-07,0.620
-1.800E-07,0.680
-1.700E-07,0.660
-1.600E-07,0.700
-1.500E-07,0.740
-1.400E-07,0.720
-1.300E-07,0.740
-1.200E-07,0.720
-1.100E-07,0.700
-1.000E-07,0.680
-9.000E-08,0.700
-8.000E-08,0.680
-7.000E-08,0.660
-6.000E-08,0.600
-5.000E-08,0.600
-4.000E-08,0.560
-3.000E-08,0.520
-2.000E-08,0.540
-1.000E-08,0.480
0.000E+00,0.480
1.000E-08,0.420
2.000E-08,0.440
3.000E-08,0.400
4.000E-08,0.380
5.000E-08,0.300
6.000E-08,0.340
7.000E-08,0.260
8.000E-08,0.200
9.000E-08,0.160
1.000E-07,0.120
1.100E-07,0.060
1.200E-07,0.000
1.300E-07,-0.060
1.400E-07,-0.080
1.500E-07,-0.140
1.600E-07,-0.140
1.700E-07,-0.140
1.800E-07,-0.160
1.900E-07,-0.100
2.000E-07,-0.100
2.100E-07,-0.100
2.200E-07,-0.100
2.300E-07,-0.100
2.400E-07,-0.080
2.500E-07,-0.060
2.600E-07,-0.020
2.700E-07,0.000
2.800E-07,0.060
2.900E-07,0.100
3.000E-07,0.160
3.100E-07,0.240
3.200E-07,0.300
3.300E-07,0.400
3.400E-07,0.460
3.500E-07,0.540
3.600E-07,0.640
3.700E-07,0.680
3.800E-07,0.780
3.900E-07,0.820
4.000E-07,0.840
4.100E-07,0.840
4.200E-07,0.820
4.300E-07,0.740
4.400E-07,0.720
4.500E-07,0.640
4.600E-07,0.540
4.700E-07,0.480
4.800E-07,0.400
4.900E-07,0.320
5.000E-07,0.260
5.100E-07,0.180
5.200E-07,0.160
5.300E-07,0.140
5.400E-07,0.080
5.500E-07,0.020
5.600E-07,0.000
5.700E-07,-0.060
5.800E-07,-0.120
5.900E-07,-0.120
6.000E-07,-0.160
6.100E-07,-0.180
6.200E-07,-0.160
6.300E-07,-0.180
6.400E-07,-0.160
6.500E-07,-0.140
6.600E-07,-0.100
6.700E-07,-0.080
6.800E-07,-0.020
6.900E-07,0.040
7.000E-07,0.060
7.100E-07,0.140
7.200E-07,0.220
7.300E-07,0.320
7.400E-07,0.400
7.500E-07,0.500
7.600E-07,0.580
7.700E-07,0.660
7.800E-07,0.760
7.900E-07,0.840
8.000E-07,0.900
8.100E-07,0.940
8.200E-07,0.940
8.300E-07,0.920
8.400E-07,0.900
8.500E-07,0.800
8.600E-07,0.780
8.700E-07,0.740
8.800E-07,0.680
8.900E-07,0.620
9.000E-07,0.580
9.100E-07,0.500
9.200E-07,0.460
9.300E-07,0.420
9.400E-07,0.380
9.500E-07,0.340
9.600E-07,0.340
9.700E-07,0.320
9.800E-07,0.280
9.900E-07,0.280
1.000E-06,0.240
1.010E-06,0.240
1.020E-06,0.220
1.030E-06,0.200
1.040E-06,0.200
1.050E-06,0.200
1.060E-06,0.180
1.070E-06,0.160
1.080E-06,0.160
1.090E-06,0.160
1.100E-06,0.180
1.110E-06,0.220
1.120E-06,0.240
1.130E-06,0.280
1.140E-06,0.340
1.150E-06,0.380
1.160E-06,0.420
1.170E-06,0.400
1.180E-06,0.440
1.190E-06,0.500
1.200E-06,0.540
1.210E-06,0.640
1.220E-06,0.720
1.230E-06,0.780
1.240E-06,0.820
1.250E-06,0.860
1.260E-06,0.840
1.270E-06,0.820
1.280E-06,0.800
1.290E-06,0.740
1.300E-06,0.680
1.310E-06,0.600
1.320E-06,0.580
1.330E-06,0.540
1.340E-06,0.540
1.350E-06,0.540
1.360E-06,0.560
1.370E-06,0.640
1.380E-06,0.720
1.390E-06,0.780
1.400E-06,0.920
1.410E-06,1.060
1.420E-06,1.160
1.430E-06,1.300
1.440E-06,1.420
1.450E-06,1.560
1.460E-06,1.700
1.470E-06,1.800
1.480E-06,1.820
1.490E-06,1.840
1.500E-06,1.820
1.510E-06,1.840
1.520E-06,1.820
1.530E-06,1.820
1.540E-06,1.840
1.550E-06,1.840
1.560E-06,1.820
1.570E-06,1.840
1.580E-06,1.820
1.590E-06,1.820
1.600E-06,1.820
1.610E-06,1.800
1.620E-06,1.800
1.630E-06,1.700
1.640E-06,1.580
1.650E-06,1.420
1.660E-06,1.340
1.670E-06,1.220
1.680E-06,1.140
1.690E-06,1.080
1.700E-06,1.040
1.710E-06,0.980
1.720E-06,0.960
1.730E-06,0.940
1.740E-06,0.940
1.750E-06,0.920
1.760E-06,0.940
1.770E-06,0.920
1.780E-06,0.920
1.790E-06,0.940
1.800E-06,0.920
1.810E-06,0.880
1.820E-06,0.860
1.830E-06,0.860
1.840E-06,0.840
1.850E-06,0.820
1.860E-06,0.820
1.870E-06,0.800
1.880E-06,0.800
1.890E-06,0.760
1.900E-06,0.740
1.910E-06,0.720
1.920E-06,0.720
1.930E-06,0.680
1.940E-06,0.660
1.950E-06,0.660
1.960E-06,0.660
1.970E-06,0.640
1.980E-06,0.640
1.990E-06,0.600
2.000E-06,0.560
2.010E-06,0.540
2.020E-06,0.500
2.030E-06,0.520
2.040E-06,0.500
2.050E-06,0.480
2.060E-06,0.420
2.070E-06,0.440
2.080E-06,0.420
2.090E-06,0.420
2.100E-06,0.360
2.110E-06,0.360
2.120E-06,0.320
2.130E-06,0.320
2.140E-06,0.320
2.150E-06,0.300
2.160E-06,0.240
2.170E-06,0.240
2.180E-06,0.220
2.190E-06,0.180
2.200E-06,0.160
2.210E-06,0.160
2.220E-06,0.160
2.230E-06,0.120
2.240E-06,0.140
2.250E-06,0.160
2.260E-06,0.120
2.270E-06,0.120
2.280E-06,0.120
2.290E-06,0.160
2.300E-06,0.120
2.310E-06,0.140
2.320E-06,0.100
2.330E-06,0.120
2.340E-06,0.140
2.350E-06,0.160
2.360E-06,0.160
2.370E-06,0.100
2.380E-06,0.080
2.390E-06,0.040
2.400E-06,0.000
2.410E-06,-0.020
2.420E-06,-0.020
2.430E-06,-0.020
2.440E-06,-0.060
2.450E-06,-0.080
2.460E-06,-0.120
2.470E-06,-0.100
2.480E-06,-0.140
2.490E-06,-0.100
2.500E-06,-0.080
2.510E-06,-0.080
2.520E-06,-0.020
2.530E-06,-0.040
2.540E-06,0.000
2.550E-06,0.040
2.560E-06,0.080
2.570E-06,0.100
2.580E-06,0.140
2.590E-06,0.100
2.600E-06,0.080
2.610E-06,0.080
2.620E-06,0.080
2.630E-06,0.060
2.640E-06,0.040
2.650E-06,0.040
2.660E-06,0.040
2.670E-06,0.040
2.680E-06,0.080
2.690E-06,0.100
2.700E-06,0.140
2.710E-06,0.140
2.720E-06,0.180
2.730E-06,0.180
2.740E-06,0.200
2.750E-06,0.200
2.760E-06,0.180
2.770E-06,0.160
2.780E-06,0.140
2.790E-06,0.140
2.800E-06,0.140
2.810E-06,0.100
2.820E-06,0.140
2.830E-06,0.120
2.840E-06,0.120
2.850E-06,0.120
2.860E-06,0.100
2.870E-06,0.120
2.880E-06,0.100
2.890E-06,0.080
2.900E-06,0.060
2.910E-06,0.000
2.920E-06,-0.020
2.930E-06,-0.060
2.940E-06,-0.080
2.950E-06,-0.120
2.960E-06,-0.160
2.970E-06,-0.160
2.980E-06,-0.180
2.990E-06,-0.180
3.000E-06,-0.220
3.010E-06,-0.240
3.020E-06,-0.240
3.030E-06,-0.200
3.040E-06,-0.220
3.050E-06,-0.240
3.060E-06,-0.220
3.070E-06,-0.220
3.080E-06,-0.200
3.090E-06,-0.220
3.100E-06,-0.160
3.110E-06,-0.200
3.120E-06,-0.180
3.130E-06,-0.180
3.140E-06,-0.180
3.150E-06,-0.180
3.160E-06,-0.200
3.170E-06,-0.220
3.180E-06,-0.220
3.190E-06,-0.220
3.200E-06,-0.220
3.210E-06,-0.220
3.220E-06,-0.240
3.230E-06,-0.240
3.240E-06,-0.200
3.250E-06,-0.200
3.260E-06,-0.180
3.270E-06,-0.200
