mediciones/8-28/-28/WaveData65799.csv

#timebase=2000000(ps)
,#voltbase=500000(mv/100)
#size=4000
-8.350E-06,0.060
-8.340E-06,0.040
-8.330E-06,0.060
-8.320E-06,0.040
-8.310E-06,0.040
-8.300E-06,-0.020
-8.290E-06,0.040
-8.280E-06,0.020
-8.270E-06,0.020
-8.260E-06,0.060
-8.250E-06,0.060
-8.240E-06,0.060
-8.230E-06,0.080
-8.220E-06,0.060
-8.210E-06,0.080
-8.200E-06,0.080
-8.190E-06,0.040
-8.180E-06,0.000
-8.170E-06,0.040
-8.160E-06,0.060
-8.150E-06,0.040
-8.140E-06,0.040
-8.130E-06,0.080
-8.120E-06,0.020
-8.110E-06,0.060
-8.100E-06,0.020
-8.090E-06,0.020
-8.080E-06,0.000
-8.070E-06,0.060
-8.060E-06,0.040
-8.050E-06,0.060
-8.040E-06,0.060
-8.030E-06,0.020
-8.020E-06,0.040
-8.010E-06,0.060
-8.000E-06,0.040
-7.990E-06,0.020
-7.980E-06,0.020
-7.970E-06,0.040
-7.960E-06,0.040
-7.950E-06,0.040
-7.940E-06,0.060
-7.930E-06,0.080
-7.920E-06,0.040
-7.910E-06,0.000
-7.900E-06,0.060
-7.890E-06,0.000
-7.880E-06,0.060
-7.870E-06,0.060
-7.860E-06,0.060
-7.850E-06,0.000
-7.840E-06,0.040
-7.830E-06,0.020
-7.820E-06,0.040
-7.810E-06,0.040
-7.800E-06,0.000
-7.790E-06,0.060
-7.780E-06,0.060
-7.770E-06,0.040
-7.760E-06,0.060
-7.750E-06,0.000
-7.740E-06,0.040
-7.730E-06,0.020
-7.720E-06,0.040
-7.710E-06,0.060
-7.700E-06,0.020
-7.690E-06,0.020
-7.680E-06,0.040
-7.670E-06,0.060
-7.660E-06,0.040
-7.650E-06,0.040
-7.640E-06,0.020
-7.630E-06,0.040
-7.620E-06,0.040
-7.610E-06,0.060
-7.600E-06,0.060
-7.590E-06,0.060
-7.580E-06,0.060
-7.570E-06,0.020
-7.560E-06,0.060
-7.550E-06,0.060
-7.540E-06,0.060
-7.530E-06,0.060
-7.520E-06,0.020
-7.510E-06,0.000
-7.500E-06,0.040
-7.490E-06,0.020
-7.480E-06,0.040
-7.470E-06,0.040
-7.460E-06,0.020
-7.450E-06,0.040
-7.440E-06,0.080
-7.430E-06,0.060
-7.420E-06,0.020
-7.410E-06,0.020
-7.400E-06,0.040
-7.390E-06,0.020
-7.380E-06,0.040
-7.370E-06,0.040
-7.360E-06,0.080
-7.350E-06,0.060
-7.340E-06,0.040
-7.330E-06,0.020
-7.320E-06,0.040
-7.310E-06,0.060
-7.300E-06,0.060
-7.290E-06,0.040
-7.280E-06,0.080
-7.270E-06,0.040
-7.260E-06,0.040
-7.250E-06,0.060
-7.240E-06,0.080
-7.230E-06,0.080
-7.220E-06,0.020
-7.210E-06,0.040
-7.200E-06,0.040
-7.190E-06,0.020
-7.180E-06,0.020
-7.170E-06,0.060
-7.160E-06,0.000
-7.150E-06,0.040
-7.140E-06,0.040
-7.130E-06,0.060
-7.120E-06,0.060
-7.110E-06,0.040
-7.100E-06,0.060
-7.090E-06,0.020
-7.080E-06,0.040
-7.070E-06,0.020
-7.060E-06,0.040
-7.050E-06,0.040
-7.040E-06,0.040
-7.030E-06,0.040
-7.020E-06,0.020
-7.010E-06,0.020
-7.000E-06,0.020
-6.990E-06,0.020
-6.980E-06,0.020
-6.970E-06,0.020
-6.960E-06,0.040
-6.950E-06,0.040
-6.940E-06,0.040
-6.930E-06,0.040
-6.920E-06,0.060
-6.910E-06,0.060
-6.900E-06,0.020
-6.890E-06,0.040
-6.880E-06,0.080
-6.870E-06,0.060
-6.860E-06,0.060
-6.850E-06,0.080
-6.840E-06,0.080
-6.830E-06,0.020
-6.820E-06,0.080
-6.810E-06,0.040
-6.800E-06,0.020
-6.790E-06,0.040
-6.780E-06,0.060
-6.770E-06,0.060
-6.760E-06,0.060
-6.750E-06,0.020
-6.740E-06,0.040
-6.730E-06,0.040
-6.720E-06,0.060
-6.710E-06,0.060
-6.700E-06,0.060
-6.690E-06,0.020
-6.680E-06,0.060
-6.670E-06,0.000
-6.660E-06,0.040
-6.650E-06,0.020
-6.640E-06,0.060
-6.630E-06,0.060
-6.620E-06,0.020
-6.610E-06,0.040
-6.600E-06,0.080
-6.590E-06,0.080
-6.580E-06,0.020
-6.570E-06,0.040
-6.560E-06,0.040
-6.550E-06,0.060
-6.540E-06,0.040
-6.530E-06,0.040
-6.520E-06,0.060
-6.510E-06,0.040
-6.500E-06,0.020
-6.490E-06,0.020
-6.480E-06,0.040
-6.470E-06,0.040
-6.460E-06,0.080
-6.450E-06,0.060
-6.440E-06,0.020
-6.430E-06,0.040
-6.420E-06,0.040
-6.410E-06,0.040
-6.400E-06,0.020
-6.390E-06,0.060
-6.380E-06,0.040
-6.370E-06,0.020
-6.360E-06,0.040
-6.350E-06,0.020
-6.340E-06,0.060
-6.330E-06,0.040
-6.320E-06,0.040
-6.310E-06,0.080
-6.300E-06,0.040
-6.290E-06,0.060
-6.280E-06,0.060
-6.270E-06,0.020
-6.260E-06,0.040
-6.250E-06,0.040
-6.240E-06,0.020
-6.230E-06,0.040
-6.220E-06,0.060
-6.210E-06,0.060
-6.200E-06,0.060
-6.190E-06,0.020
-6.180E-06,0.060
-6.170E-06,0.040
-6.160E-06,0.020
-6.150E-06,0.040
-6.140E-06,0.060
-6.130E-06,0.040
-6.120E-06,0.020
-6.110E-06,0.040
-6.100E-06,0.020
-6.090E-06,0.020
-6.080E-06,0.040
-6.070E-06,0.040
-6.060E-06,0.040
-6.050E-06,0.060
-6.040E-06,0.040
-6.030E-06,0.020
-6.020E-06,0.020
-6.010E-06,0.060
-6.000E-06,0.020
-5.990E-06,0.040
-5.980E-06,0.040
-5.970E-06,0.020
-5.960E-06,0.020
-5.950E-06,0.060
-5.940E-06,0.080
-5.930E-06,0.060
-5.920E-06,0.040
-5.910E-06,0.020
-5.900E-06,0.040
-5.890E-06,0.060
-5.880E-06,0.020
-5.870E-06,0.020
-5.860E-06,0.040
-5.850E-06,0.020
-5.840E-06,0.020
-5.830E-06,0.060
-5.820E-06,0.040
-5.810E-06,0.000
-5.800E-06,0.040
-5.790E-06,0.060
-5.780E-06,0.040
-5.770E-06,0.040
-5.760E-06,0.060
-5.750E-06,0.040
-5.740E-06,0.060
-5.730E-06,0.060
-5.720E-06,0.060
-5.710E-06,0.020
-5.700E-06,0.020
-5.690E-06,0.020
-5.680E-06,0.040
-5.670E-06,0.040
-5.660E-06,0.040
-5.650E-06,0.040
-5.640E-06,0.080
-5.630E-06,0.040
-5.620E-06,0.080
-5.610E-06,0.060
-5.600E-06,0.080
-5.590E-06,0.040
-5.580E-06,0.020
-5.570E-06,0.100
-5.560E-06,0.060
-5.550E-06,0.060
-5.540E-06,0.040
-5.530E-06,0.020
-5.520E-06,0.040
-5.510E-06,0.020
-5.500E-06,0.040
-5.490E-06,0.060
-5.480E-06,0.060
-5.470E-06,0.060
-5.460E-06,0.060
-5.450E-06,0.020
-5.440E-06,0.020
-5.430E-06,0.060
-5.420E-06,0.020
-5.410E-06,0.020
-5.400E-06,0.040
-5.390E-06,0.040
-5.380E-06,0.020
-5.370E-06,0.040
-5.360E-06,0.080
-5.350E-06,0.020
-5.340E-06,0.040
-5.330E-06,0.060
-5.320E-06,0.000
-5.310E-06,0.040
-5.300E-06,0.060
-5.290E-06,0.040
-5.280E-06,0.040
-5.270E-06,0.040
-5.260E-06,0.000
-5.250E-06,0.080
-5.240E-06,0.040
-5.230E-06,0.080
-5.220E-06,0.000
-5.210E-06,0.000
-5.200E-06,-0.020
-5.190E-06,-0.320
-5.180E-06,-1.000
-5.170E-06,-2.020
-5.160E-06,-2.940
-5.150E-06,-3.340
-5.140E-06,-2.820
-5.130E-06,-2.220
-5.120E-06,-0.460
-5.110E-06,0.780
-5.100E-06,2.080
-5.090E-06,2.100
-5.080E-06,2.080
-5.070E-06,2.100
-5.060E-06,2.080
-5.050E-06,2.080
-5.040E-06,2.060
-5.030E-06,1.860
-5.020E-06,1.260
-5.010E-06,0.020
-5.000E-06,-0.320
-4.990E-06,-0.740
-4.980E-06,-0.840
-4.970E-06,-0.460
-4.960E-06,-0.580
-4.950E-06,-0.340
-4.940E-06,-0.200
-4.930E-06,-0.340
-4.920E-06,-0.700
-4.910E-06,-1.000
-4.900E-06,-1.380
-4.890E-06,-1.740
-4.880E-06,-1.820
-4.870E-06,-1.760
-4.860E-06,-1.680
-4.850E-06,-1.300
-4.840E-06,-0.780
-4.830E-06,-0.140
-4.820E-06,0.460
-4.810E-06,1.160
-4.800E-06,1.600
-4.790E-06,1.740
-4.780E-06,1.740
-4.770E-06,1.520
-4.760E-06,1.120
-4.750E-06,0.740
-4.740E-06,0.340
-4.730E-06,-0.100
-4.720E-06,-0.520
-4.710E-06,-0.740
-4.700E-06,-0.920
-4.690E-06,-1.000
-4.680E-06,-0.960
-4.670E-06,-0.840
-4.660E-06,-0.700
-4.650E-06,-0.520
-4.640E-06,-0.360
-4.630E-06,-0.200
-4.620E-06,-0.020
-4.610E-06,0.200
-4.600E-06,0.440
-4.590E-06,0.620
-4.580E-06,0.820
-4.570E-06,0.940
-4.560E-06,1.000
-4.550E-06,0.980
-4.540E-06,0.940
-4.530E-06,0.800
-4.520E-06,0.660
-4.510E-06,0.520
-4.500E-06,0.260
-4.490E-06,0.080
-4.480E-06,0.040
-4.470E-06,-0.200
-4.460E-06,-0.360
-4.450E-06,-0.420
-4.440E-06,-0.600
-4.430E-06,-0.620
-4.420E-06,-0.660
-4.410E-06,-0.680
-4.400E-06,-0.640
-4.390E-06,-0.600
-4.380E-06,-0.500
-4.370E-06,-0.320
-4.360E-06,-0.140
-4.350E-06,0.140
-4.340E-06,0.340
-4.330E-06,0.540
-4.320E-06,0.740
-4.310E-06,0.840
-4.300E-06,0.860
-4.290E-06,0.880
-4.280E-06,0.740
-4.270E-06,0.600
-4.260E-06,0.400
-4.250E-06,0.160
-4.240E-06,-0.120
-4.230E-06,-0.300
-4.220E-06,-0.460
-4.210E-06,-0.560
-4.200E-06,-0.520
-4.190E-06,-0.540
-4.180E-06,-0.480
-4.170E-06,-0.400
-4.160E-06,-0.220
-4.150E-06,-0.160
-4.140E-06,-0.120
-4.130E-06,-0.040
-4.120E-06,0.060
-4.110E-06,0.040
-4.100E-06,0.100
-4.090E-06,0.080
-4.080E-06,0.120
-4.070E-06,0.140
-4.060E-06,0.160
-4.050E-06,0.160
-4.040E-06,0.160
-4.030E-06,0.220
-4.020E-06,0.240
-4.010E-06,0.220
-4.000E-06,0.200
-3.990E-06,0.160
-3.980E-06,0.140
-3.970E-06,0.060
-3.960E-06,-0.020
-3.950E-06,0.060
-3.940E-06,-0.080
-3.930E-06,-0.080
-3.920E-06,0.000
-3.910E-06,-0.120
-3.900E-06,-0.100
-3.890E-06,-0.060
-3.880E-06,-0.040
-3.870E-06,0.000
-3.860E-06,0.080
-3.850E-06,0.120
-3.840E-06,0.140
-3.830E-06,0.080
-3.820E-06,0.140
-3.810E-06,0.100
-3.800E-06,0.100
-3.790E-06,0.120
-3.780E-06,0.100
-3.770E-06,0.100
-3.760E-06,0.060
-3.750E-06,0.000
-3.740E-06,0.020
-3.730E-06,-0.020
-3.720E-06,-0.120
-3.710E-06,0.000
-3.700E-06,-0.100
-3.690E-06,-0.100
-3.680E-06,-0.060
-3.670E-06,-0.100
-3.660E-06,-0.020
-3.650E-06,-0.140
-3.640E-06,-0.060
-3.630E-06,-0.040
-3.620E-06,-0.120
-3.610E-06,-0.020
-3.600E-06,-0.020
-3.590E-06,-0.020
-3.580E-06,-0.020
-3.570E-06,0.020
-3.560E-06,-0.020
-3.550E-06,-0.020
-3.540E-06,0.000
-3.530E-06,-0.020
-3.520E-06,0.000
-3.510E-06,0.060
-3.500E-06,0.080
-3.490E-06,0.080
-3.480E-06,0.140
-3.470E-06,0.180
-3.460E-06,0.160
-3.450E-06,0.180
-3.440E-06,0.200
-3.430E-06,0.180
-3.420E-06,0.140
-3.410E-06,0.140
-3.400E-06,0.100
-3.390E-06,0.000
-3.380E-06,-0.020
-3.370E-06,-0.040
-3.360E-06,-0.100
-3.350E-06,-0.120
-3.340E-06,-0.160
-3.330E-06,-0.160
-3.320E-06,-0.180
-3.310E-06,-0.140
-3.300E-06,-0.100
-3.290E-06,-0.120
-3.280E-06,-0.080
-3.270E-06,0.080
-3.260E-06,0.140
-3.250E-06,-0.020
-3.240E-06,0.020
-3.230E-06,0.000
-3.220E-06,-0.020
-3.210E-06,-0.020
-3.200E-06,-0.040
-3.190E-06,-0.020
-3.180E-06,0.000
-3.170E-06,0.000
-3.160E-06,0.000
-3.150E-06,0.040
-3.140E-06,0.020
-3.130E-06,0.040
-3.120E-06,0.020
-3.110E-06,-0.020
-3.100E-06,-0.020
-3.090E-06,0.000
-3.080E-06,-0.020
-3.070E-06,0.020
-3.060E-06,0.060
-3.050E-06,0.020
-3.040E-06,-0.020
-3.030E-06,0.020
-3.020E-06,0.000
-3.010E-06,0.060
-3.000E-06,0.100
-2.990E-06,0.000
-2.980E-06,0.160
-2.970E-06,-0.080
-2.960E-06,0.320
-2.950E-06,-0.120
-2.940E-06,0.280
-2.930E-06,-0.120
-2.920E-06,0.400
-2.910E-06,0.020
-2.900E-06,0.220
-2.890E-06,0.080
-2.880E-06,0.100
-2.870E-06,0.220
-2.860E-06,0.460
-2.850E-06,0.860
-2.840E-06,1.360
-2.830E-06,1.660
-2.820E-06,1.840
-2.810E-06,1.540
-2.800E-06,1.080
-2.790E-06,0.500
-2.780E-06,-0.160
-2.770E-06,-0.760
-2.760E-06,-1.300
-2.750E-06,-1.720
-2.740E-06,-1.920
-2.730E-06,-1.960
-2.720E-06,-1.760
-2.710E-06,-1.460
-2.700E-06,-1.020
-2.690E-06,-0.680
-2.680E-06,-0.520
-2.670E-06,-0.420
-2.660E-06,-0.280
-2.650E-06,-0.200
-2.640E-06,-0.100
-2.630E-06,0.080
-2.620E-06,0.160
-2.610E-06,0.180
-2.600E-06,0.320
-2.590E-06,0.460
-2.580E-06,0.640
-2.570E-06,0.820
-2.560E-06,0.980
-2.550E-06,1.000
-2.540E-06,0.880
-2.530E-06,0.740
-2.520E-06,0.420
-2.510E-06,0.560
-2.500E-06,-0.120
-2.490E-06,0.100
-2.480E-06,-0.580
-2.470E-06,-0.640
-2.460E-06,-0.800
-2.450E-06,-0.920
-2.440E-06,-0.840
-2.430E-06,-0.780
-2.420E-06,-0.620
-2.410E-06,-0.360
-2.400E-06,-0.060
-2.390E-06,0.260
-2.380E-06,0.460
-2.370E-06,0.680
-2.360E-06,0.760
-2.350E-06,0.740
-2.340E-06,0.680
-2.330E-06,0.540
-2.320E-06,0.320
-2.310E-06,0.180
-2.300E-06,-0.160
-2.290E-06,-0.240
-2.280E-06,-0.460
-2.270E-06,-0.280
-2.260E-06,-0.640
-2.250E-06,-0.320
-2.240E-06,-0.660
-2.230E-06,-0.360
-2.220E-06,-0.520
-2.210E-06,-0.380
-2.200E-06,-0.340
-2.190E-06,-0.320
-2.180E-06,-0.320
-2.170E-06,-0.320
-2.160E-06,-0.260
-2.150E-06,-0.220
-2.140E-06,-0.140
-2.130E-06,-0.040
-2.120E-06,0.140
-2.110E-06,0.080
-2.100E-06,0.220
-2.090E-06,0.140
-2.080E-06,0.100
-2.070E-06,-0.140
-2.060E-06,0.100
-2.050E-06,-0.220
-2.040E-06,-0.220
-2.030E-06,-0.620
-2.020E-06,-0.100
-2.010E-06,-0.980
-2.000E-06,-0.620
-1.990E-06,-1.260
-1.980E-06,-0.640
-1.970E-06,-0.840
-1.960E-06,-0.540
-1.950E-06,-0.460
-1.940E-06,-0.200
-1.930E-06,-0.120
-1.920E-06,0.000
-1.910E-06,0.060
-1.900E-06,0.300
-1.890E-06,0.360
-1.880E-06,0.460
-1.870E-06,0.420
-1.860E-06,0.440
-1.850E-06,0.480
-1.840E-06,0.320
-1.830E-06,0.260
-1.820E-06,0.220
-1.810E-06,0.120
-1.800E-06,0.060
-1.790E-06,-0.020
-1.780E-06,-0.100
-1.770E-06,-0.120
-1.760E-06,-0.120
-1.750E-06,-0.140
-1.740E-06,-0.140
-1.730E-06,-0.100
-1.720E-06,-0.080
-1.710E-06,-0.120
-1.700E-06,-0.180
-1.690E-06,-0.120
-1.680E-06,-0.180
-1.670E-06,-0.060
-1.660E-06,-0.200
-1.650E-06,0.080
-1.640E-06,-0.200
-1.630E-06,-0.020
-1.620E-06,-0.320
-1.610E-06,0.100
-1.600E-06,-0.300
-1.590E-06,-0.060
-1.580E-06,-0.220
-1.570E-06,-0.200
-1.560E-06,-0.240
-1.550E-06,-0.320
-1.540E-06,-0.180
-1.530E-06,-0.220
-1.520E-06,-0.140
-1.510E-06,-0.040
-1.500E-06,-0.180
-1.490E-06,-0.120
-1.480E-06,-0.100
-1.470E-06,-0.220
-1.460E-06,-0.260
-1.450E-06,-0.240
-1.440E-06,-0.180
-1.430E-06,-0.220
-1.420E-06,-0.120
-1.410E-06,-0.080
-1.400E-06,-0.080
-1.390E-06,-0.120
-1.380E-06,-0.060
-1.370E-06,0.000
-1.360E-06,0.040
-1.350E-06,0.140
-1.340E-06,0.120
-1.330E-06,0.100
-1.320E-06,0.080
-1.310E-06,0.100
-1.300E-06,0.100
-1.290E-06,0.140
-1.280E-06,0.140
-1.270E-06,0.220
-1.260E-06,0.260
-1.250E-06,0.300
-1.240E-06,0.280
-1.230E-06,0.320
-1.220E-06,0.380
-1.210E-06,0.560
-1.200E-06,0.520
-1.190E-06,0.400
-1.180E-06,0.180
-1.170E-06,-0.020
-1.160E-06,-0.160
-1.150E-06,-0.300
-1.140E-06,-0.280
-1.130E-06,-0.260
-1.120E-06,-0.340
-1.110E-06,-0.260
-1.100E-06,-0.440
-1.090E-06,-0.360
-1.080E-06,-0.320
-1.070E-06,-0.220
-1.060E-06,-0.200
-1.050E-06,-0.180
-1.040E-06,-0.180
-1.030E-06,-0.160
-1.020E-06,-0.260
-1.010E-06,-0.180
-1.000E-06,-0.160
-9.900E-07,-0.080
-9.800E-07,-0.080
-9.700E-07,-0.100
-9.600E-07,-0.160
-9.500E-07,-0.120
-9.400E-07,-0.180
-9.300E-07,-0.200
-9.200E-07,-0.160
-9.100E-07,-0.160
-9.000E-07,-0.100
-8.900E-07,-0.120
-8.800E-07,-0.120
-8.700E-07,-0.100
-8.600E-07,-0.160
-8.500E-07,-0.120
-8.400E-07,-0.080
-8.300E-07,-0.060
-8.200E-07,-0.060
-8.100E-07,-0.020
-8.000E-07,-0.020
-7.900E-07,0.000
-7.800E-07,0.040
-7.700E-07,0.140
-7.600E-07,0.040
-7.500E-07,0.260
-7.400E-07,0.220
-7.300E-07,0.040
-7.200E-07,0.200
-7.100E-07,0.000
-7.000E-07,0.020
-6.900E-07,-0.080
-6.800E-07,-0.140
-6.700E-07,-0.160
-6.600E-07,-0.240
-6.500E-07,-0.240
-6.400E-07,-0.240
-6.300E-07,-0.340
-6.200E-07,-0.260
-6.100E-07,-0.340
-6.000E-07,-0.340
-5.900E-07,-0.340
-5.800E-07,-0.440
-5.700E-07,-0.240
-5.600E-07,-0.340
-5.500E-07,-0.200
-5.400E-07,-0.340
-5.300E-07,-0.160
-5.200E-07,-0.180
-5.100E-07,-0.120
-5.000E-07,-0.040
-4.900E-07,0.040
-4.800E-07,0.020
-4.700E-07,0.100
-4.600E-07,0.060
-4.500E-07,0.100
-4.400E-07,0.000
-4.300E-07,-0.060
-4.200E-07,-0.120
-4.100E-07,-0.140
-4.000E-07,-0.180
-3.900E-07,-0.060
-3.800E-07,-0.080
-3.700E-07,-0.040
-3.600E-07,-0.100
-3.500E-07,-0.080
-3.400E-07,-0.140
-3.300E-07,-0.140
-3.200E-07,-0.100
-3.100E-07,-0.080
-3.000E-07,-0.040
-2.900E-07,0.000
-2.800E-07,0.040
-2.700E-07,-0.080
-2.600E-07,-0.160
-2.500E-07,-0.220
-2.400E-07,0.260
-2.300E-07,-0.120
-2.200E-07,0.200
-2.100E-07,-0.160
-2.000E-07,-0.020
-1.900E-07,0.000
-1.800E-07,-0.200
-1.700E-07,-0.180
-1.600E-07,-0.380
-1.500E-07,-0.400
-1.400E-07,-0.520
-1.300E-07,-0.620
-1.200E-07,-0.680
-1.100E-07,-0.700
-1.000E-07,-0.820
-9.000E-08,-0.820
-8.000E-08,-0.720
-7.000E-08,-0.820
-6.000E-08,0.040
-5.000E-08,0.180
-4.000E-08,1.260
-3.000E-08,0.140
-2.000E-08,0.280
-1.000E-08,-0.480
0.000E+00,-1.480
1.000E-08,-2.100
2.000E-08,-1.480
3.000E-08,-0.800
4.000E-08,0.280
5.000E-08,0.460
6.000E-08,0.420
7.000E-08,-0.040
8.000E-08,-0.280
9.000E-08,-0.180
1.000E-07,-0.200
1.100E-07,-0.020
1.200E-07,0.440
1.300E-07,0.640
1.400E-07,0.480
1.500E-07,0.100
1.600E-07,-0.180
1.700E-07,-0.040
1.800E-07,0.080
1.900E-07,0.340
2.000E-07,0.640
2.100E-07,0.840
2.200E-07,0.960
2.300E-07,0.220
2.400E-07,0.880
2.500E-07,-0.160
2.600E-07,0.360
2.700E-07,0.240
2.800E-07,0.000
2.900E-07,-0.060
3.000E-07,-0.140
3.100E-07,-0.740
3.200E-07,-0.800
3.300E-07,-1.140
3.400E-07,-0.540
3.500E-07,-0.680
3.600E-07,-0.360
3.700E-07,-0.680
3.800E-07,-0.760
3.900E-07,-1.040
4.000E-07,-0.880
4.100E-07,-0.720
4.200E-07,-0.520
4.300E-07,-0.240
4.400E-07,-0.520
4.500E-07,-0.600
4.600E-07,-0.700
4.700E-07,-0.520
4.800E-07,-0.520
4.900E-07,-0.280
5.000E-07,-0.440
5.100E-07,0.140
5.200E-07,-0.480
5.300E-07,-0.140
5.400E-07,0.000
5.500E-07,-0.760
5.600E-07,0.160
5.700E-07,0.980
5.800E-07,0.720
5.900E-07,0.840
6.000E-07,0.420
6.100E-07,0.020
6.200E-07,-0.280
6.300E-07,-0.740
6.400E-07,-0.340
6.500E-07,0.060
6.600E-07,-0.080
6.700E-07,0.280
6.800E-07,0.040
6.900E-07,0.020
7.000E-07,0.140
7.100E-07,-0.040
7.200E-07,0.060
7.300E-07,0.320
7.400E-07,0.380
7.500E-07,0.320
7.600E-07,0.280
7.700E-07,0.200
7.800E-07,0.140
7.900E-07,0.080
8.000E-07,0.120
8.100E-07,0.100
8.200E-07,0.080
8.300E-07,0.140
8.400E-07,0.000
8.500E-07,-0.180
8.600E-07,-0.320
8.700E-07,-0.380
8.800E-07,-0.440
8.900E-07,-0.420
9.000E-07,-0.420
9.100E-07,-0.460
9.200E-07,-0.500
9.300E-07,-0.600
9.400E-07,-0.380
9.500E-07,-0.360
9.600E-07,-0.160
9.700E-07,-0.240
9.800E-07,-0.320
9.900E-07,0.100
1.000E-06,0.100
1.010E-06,0.100
1.020E-06,-0.080
1.030E-06,-0.140
1.040E-06,-0.400
1.050E-06,-0.540
1.060E-06,-0.720
1.070E-06,-0.520
1.080E-06,-0.580
1.090E-06,-0.460
1.100E-06,-0.340
1.110E-06,-0.380
1.120E-06,-0.340
1.130E-06,-0.380
1.140E-06,-0.320
1.150E-06,-0.220
1.160E-06,0.060
1.170E-06,0.240
1.180E-06,0.460
1.190E-06,0.880
1.200E-06,1.240
1.210E-06,0.900
1.220E-06,0.760
1.230E-06,0.620
1.240E-06,0.460
1.250E-06,0.260
1.260E-06,0.320
1.270E-06,-0.140
1.280E-06,-0.260
1.290E-06,0.060
1.300E-06,-0.360
1.310E-06,-0.340
1.320E-06,-0.360
1.330E-06,-0.440
1.340E-06,-0.280
1.350E-06,-0.380
1.360E-06,-0.260
1.370E-06,-0.140
1.380E-06,-0.140
1.390E-06,-0.360
1.400E-06,-0.380
1.410E-06,-0.320
1.420E-06,-0.380
1.430E-06,-0.200
1.440E-06,0.080
1.450E-06,0.060
1.460E-06,0.080
1.470E-06,0.000
1.480E-06,-0.040
1.490E-06,-0.060
1.500E-06,-0.200
1.510E-06,-0.120
1.520E-06,-0.180
1.530E-06,-0.260
1.540E-06,-0.240
1.550E-06,-0.280
1.560E-06,-0.340
1.570E-06,-0.300
1.580E-06,-0.340
1.590E-06,-0.260
1.600E-06,-0.240
1.610E-06,-0.220
1.620E-06,-0.160
1.630E-06,-0.060
1.640E-06,0.000
1.650E-06,0.000
1.660E-06,0.040
1.670E-06,0.100
1.680E-06,0.060
1.690E-06,0.080
1.700E-06,0.100
1.710E-06,0.120
1.720E-06,0.100
1.730E-06,0.000
1.740E-06,-0.020
1.750E-06,-0.080
1.760E-06,-0.140
1.770E-06,-0.120
1.780E-06,-0.160
1.790E-06,-0.220
1.800E-06,-0.260
1.810E-06,-0.240
1.820E-06,-0.280
1.830E-06,-0.020
1.840E-06,-0.140
1.850E-06,-0.440
1.860E-06,-0.900
1.870E-06,-0.500
1.880E-06,-1.440
1.890E-06,-0.480
1.900E-06,-0.520
1.910E-06,-0.500
1.920E-06,0.200
1.930E-06,-0.020
1.940E-06,0.060
1.950E-06,-0.220
1.960E-06,-0.020
1.970E-06,0.180
1.980E-06,0.360
1.990E-06,0.360
2.000E-06,0.580
2.010E-06,0.440
2.020E-06,0.180
2.030E-06,0.100
2.040E-06,0.080
2.050E-06,-0.020
2.060E-06,0.080
2.070E-06,0.000
2.080E-06,0.020
2.090E-06,-0.300
2.100E-06,-0.040
2.110E-06,0.580
2.120E-06,1.000
2.130E-06,0.640
2.140E-06,0.700
2.150E-06,0.460
2.160E-06,-0.100
2.170E-06,-0.440
2.180E-06,-0.560
2.190E-06,-0.420
2.200E-06,-0.420
2.210E-06,-0.440
2.220E-06,-0.360
2.230E-06,-0.480
2.240E-06,-0.600
2.250E-06,-0.540
2.260E-06,-0.560
2.270E-06,-0.400
2.280E-06,-0.200
2.290E-06,-0.120
2.300E-06,-0.020
2.310E-06,-0.080
2.320E-06,-0.100
2.330E-06,-0.080
2.340E-06,0.000
2.350E-06,0.040
2.360E-06,0.160
2.370E-06,0.260
2.380E-06,0.320
2.390E-06,0.220
2.400E-06,0.320
2.410E-06,0.220
2.420E-06,0.320
2.430E-06,0.260
2.440E-06,0.280
2.450E-06,0.260
2.460E-06,0.260
2.470E-06,0.260
2.480E-06,0.220
2.490E-06,0.160
2.500E-06,0.200
2.510E-06,0.200
2.520E-06,0.200
2.530E-06,0.320
2.540E-06,0.360
2.550E-06,0.320
2.560E-06,0.280
2.570E-06,0.260
2.580E-06,0.200
2.590E-06,0.100
2.600E-06,0.100
2.610E-06,0.020
2.620E-06,-0.020
2.630E-06,-0.060
2.640E-06,-0.120
2.650E-06,-0.160
2.660E-06,-0.180
2.670E-06,-0.220
2.680E-06,-0.160
2.690E-06,-0.180
2.700E-06,-0.180
2.710E-06,-0.180
2.720E-06,-0.180
2.730E-06,-0.160
2.740E-06,-0.140
2.750E-06,-0.080
2.760E-06,-0.040
2.770E-06,0.000
2.780E-06,-0.060
2.790E-06,-0.060
2.800E-06,-0.100
2.810E-06,-0.040
2.820E-06,-0.060
2.830E-06,-0.040
2.840E-06,-0.100
2.850E-06,-0.160
2.860E-06,-0.160
2.870E-06,-0.240
2.880E-06,-0.240
2.890E-06,-0.260
2.900E-06,-0.280
2.910E-06,-0.280
2.920E-06,-0.340
2.930E-06,-0.420
2.940E-06,-0.240
2.950E-06,-0.180
2.960E-06,0.080
2.970E-06,-0.040
2.980E-06,-0.160
2.990E-06,-0.260
3.000E-06,-0.460
3.010E-06,-0.600
3.020E-06,-0.500
3.030E-06,-0.440
3.040E-06,-0.240
3.050E-06,-0.200
3.060E-06,-0.200
3.070E-06,-0.140
3.080E-06,-0.180
3.090E-06,-0.020
3.100E-06,0.040
3.110E-06,0.160
3.120E-06,0.300
3.130E-06,0.360
3.140E-06,0.340
3.150E-06,0.360
3.160E-06,0.440
3.170E-06,0.380
3.180E-06,0.400
3.190E-06,0.460
3.200E-06,0.560
3.210E-06,0.500
3.220E-06,0.520
3.230E-06,0.480
3.240E-06,0.320
3.250E-06,0.260
3.260E-06,0.320
3.270E-06,0.380
