mediciones/8-28/-28/WaveData65801.csv

#timebase=2000000(ps)
,#voltbase=500000(mv/100)
#size=4000
-8.350E-06,0.060
-8.340E-06,0.020
-8.330E-06,0.040
-8.320E-06,0.020
-8.310E-06,0.020
-8.300E-06,0.040
-8.290E-06,0.060
-8.280E-06,0.040
-8.270E-06,0.000
-8.260E-06,0.040
-8.250E-06,0.040
-8.240E-06,0.020
-8.230E-06,0.040
-8.220E-06,0.020
-8.210E-06,0.040
-8.200E-06,0.080
-8.190E-06,0.040
-8.180E-06,0.040
-8.170E-06,0.060
-8.160E-06,0.040
-8.150E-06,0.060
-8.140E-06,0.060
-8.130E-06,0.020
-8.120E-06,0.020
-8.110E-06,0.040
-8.100E-06,0.060
-8.090E-06,0.040
-8.080E-06,0.020
-8.070E-06,0.060
-8.060E-06,0.040
-8.050E-06,0.040
-8.040E-06,0.020
-8.030E-06,0.060
-8.020E-06,0.060
-8.010E-06,0.060
-8.000E-06,0.020
-7.990E-06,0.040
-7.980E-06,0.040
-7.970E-06,0.060
-7.960E-06,0.040
-7.950E-06,0.020
-7.940E-06,0.040
-7.930E-06,0.040
-7.920E-06,0.080
-7.910E-06,0.040
-7.900E-06,0.040
-7.890E-06,0.060
-7.880E-06,0.020
-7.870E-06,0.040
-7.860E-06,0.040
-7.850E-06,0.060
-7.840E-06,0.060
-7.830E-06,0.060
-7.820E-06,0.040
-7.810E-06,0.000
-7.800E-06,0.020
-7.790E-06,0.060
-7.780E-06,0.040
-7.770E-06,0.040
-7.760E-06,0.040
-7.750E-06,0.060
-7.740E-06,0.040
-7.730E-06,0.020
-7.720E-06,0.060
-7.710E-06,0.040
-7.700E-06,0.020
-7.690E-06,0.020
-7.680E-06,0.020
-7.670E-06,0.060
-7.660E-06,0.040
-7.650E-06,0.060
-7.640E-06,0.040
-7.630E-06,0.000
-7.620E-06,0.020
-7.610E-06,0.040
-7.600E-06,0.040
-7.590E-06,0.040
-7.580E-06,0.040
-7.570E-06,0.080
-7.560E-06,0.040
-7.550E-06,0.040
-7.540E-06,0.060
-7.530E-06,0.040
-7.520E-06,0.040
-7.510E-06,0.040
-7.500E-06,0.060
-7.490E-06,0.060
-7.480E-06,0.020
-7.470E-06,0.060
-7.460E-06,0.020
-7.450E-06,0.040
-7.440E-06,0.040
-7.430E-06,0.040
-7.420E-06,0.020
-7.410E-06,0.020
-7.400E-06,0.020
-7.390E-06,0.040
-7.380E-06,0.060
-7.370E-06,0.040
-7.360E-06,0.020
-7.350E-06,0.060
-7.340E-06,0.020
-7.330E-06,0.040
-7.320E-06,0.020
-7.310E-06,0.040
-7.300E-06,0.040
-7.290E-06,0.040
-7.280E-06,0.020
-7.270E-06,0.060
-7.260E-06,0.040
-7.250E-06,0.040
-7.240E-06,0.040
-7.230E-06,0.020
-7.220E-06,0.060
-7.210E-06,0.020
-7.200E-06,0.040
-7.190E-06,0.040
-7.180E-06,0.020
-7.170E-06,0.040
-7.160E-06,0.020
-7.150E-06,0.060
-7.140E-06,0.040
-7.130E-06,0.060
-7.120E-06,0.060
-7.110E-06,0.040
-7.100E-06,0.000
-7.090E-06,0.000
-7.080E-06,0.040
-7.070E-06,0.040
-7.060E-06,0.060
-7.050E-06,0.060
-7.040E-06,0.060
-7.030E-06,0.060
-7.020E-06,-0.020
-7.010E-06,0.020
-7.000E-06,0.060
-6.990E-06,0.020
-6.980E-06,0.040
-6.970E-06,0.060
-6.960E-06,0.020
-6.950E-06,0.040
-6.940E-06,0.060
-6.930E-06,0.040
-6.920E-06,0.040
-6.910E-06,0.040
-6.900E-06,0.060
-6.890E-06,0.060
-6.880E-06,0.000
-6.870E-06,0.040
-6.860E-06,0.040
-6.850E-06,0.000
-6.840E-06,0.040
-6.830E-06,0.040
-6.820E-06,0.040
-6.810E-06,0.020
-6.800E-06,0.020
-6.790E-06,0.040
-6.780E-06,0.060
-6.770E-06,0.020
-6.760E-06,0.040
-6.750E-06,0.060
-6.740E-06,0.040
-6.730E-06,0.040
-6.720E-06,0.040
-6.710E-06,0.060
-6.700E-06,0.060
-6.690E-06,0.000
-6.680E-06,0.060
-6.670E-06,0.060
-6.660E-06,0.060
-6.650E-06,0.040
-6.640E-06,0.020
-6.630E-06,0.040
-6.620E-06,0.040
-6.610E-06,0.020
-6.600E-06,0.040
-6.590E-06,0.040
-6.580E-06,0.020
-6.570E-06,0.060
-6.560E-06,0.040
-6.550E-06,0.020
-6.540E-06,0.040
-6.530E-06,0.060
-6.520E-06,0.040
-6.510E-06,0.020
-6.500E-06,0.020
-6.490E-06,0.020
-6.480E-06,0.060
-6.470E-06,0.080
-6.460E-06,0.060
-6.450E-06,0.040
-6.440E-06,0.040
-6.430E-06,0.000
-6.420E-06,0.040
-6.410E-06,0.060
-6.400E-06,0.040
-6.390E-06,0.020
-6.380E-06,0.040
-6.370E-06,0.040
-6.360E-06,0.020
-6.350E-06,-0.020
-6.340E-06,0.020
-6.330E-06,0.020
-6.320E-06,0.020
-6.310E-06,0.040
-6.300E-06,0.020
-6.290E-06,0.040
-6.280E-06,0.020
-6.270E-06,0.060
-6.260E-06,0.040
-6.250E-06,0.040
-6.240E-06,0.020
-6.230E-06,0.020
-6.220E-06,0.040
-6.210E-06,0.040
-6.200E-06,0.040
-6.190E-06,0.060
-6.180E-06,0.060
-6.170E-06,0.040
-6.160E-06,0.020
-6.150E-06,0.020
-6.140E-06,0.040
-6.130E-06,0.060
-6.120E-06,0.020
-6.110E-06,0.020
-6.100E-06,0.060
-6.090E-06,0.040
-6.080E-06,0.060
-6.070E-06,0.080
-6.060E-06,0.060
-6.050E-06,0.060
-6.040E-06,0.060
-6.030E-06,0.020
-6.020E-06,0.020
-6.010E-06,0.000
-6.000E-06,-0.220
-5.990E-06,-0.800
-5.980E-06,-1.800
-5.970E-06,-2.800
-5.960E-06,-3.340
-5.950E-06,-3.340
-5.940E-06,-1.800
-5.930E-06,-1.520
-5.920E-06,0.860
-5.910E-06,1.280
-5.900E-06,2.100
-5.890E-06,2.080
-5.880E-06,2.080
-5.870E-06,2.060
-5.860E-06,2.080
-5.850E-06,2.080
-5.840E-06,2.100
-5.830E-06,1.040
-5.820E-06,0.900
-5.810E-06,-0.360
-5.800E-06,-0.560
-5.790E-06,-0.840
-5.780E-06,-0.980
-5.770E-06,-0.500
-5.760E-06,-0.360
-5.750E-06,-0.180
-5.740E-06,-0.220
-5.730E-06,-0.500
-5.720E-06,-0.920
-5.710E-06,-1.380
-5.700E-06,-1.660
-5.690E-06,-1.960
-5.680E-06,-2.000
-5.670E-06,-1.760
-5.660E-06,-1.380
-5.650E-06,-0.980
-5.640E-06,-0.380
-5.630E-06,0.320
-5.620E-06,0.860
-5.610E-06,1.380
-5.600E-06,1.760
-5.590E-06,1.800
-5.580E-06,1.680
-5.570E-06,1.380
-5.560E-06,1.020
-5.550E-06,0.520
-5.540E-06,0.040
-5.530E-06,-0.380
-5.520E-06,-0.700
-5.510E-06,-0.860
-5.500E-06,-0.960
-5.490E-06,-0.960
-5.480E-06,-0.800
-5.470E-06,-0.680
-5.460E-06,-0.520
-5.450E-06,-0.400
-5.440E-06,-0.240
-5.430E-06,-0.040
-5.420E-06,0.160
-5.410E-06,0.360
-5.400E-06,0.600
-5.390E-06,0.760
-5.380E-06,0.900
-5.370E-06,0.980
-5.360E-06,0.980
-5.350E-06,0.920
-5.340E-06,0.800
-5.330E-06,0.640
-5.320E-06,0.520
-5.310E-06,0.320
-5.300E-06,0.140
-5.290E-06,-0.020
-5.280E-06,-0.180
-5.270E-06,-0.320
-5.260E-06,-0.420
-5.250E-06,-0.480
-5.240E-06,-0.540
-5.230E-06,-0.580
-5.220E-06,-0.600
-5.210E-06,-0.600
-5.200E-06,-0.540
-5.190E-06,-0.500
-5.180E-06,-0.320
-5.170E-06,-0.200
-5.160E-06,0.080
-5.150E-06,0.300
-5.140E-06,0.540
-5.130E-06,0.740
-5.120E-06,0.860
-5.110E-06,0.920
-5.100E-06,0.900
-5.090E-06,0.800
-5.080E-06,0.660
-5.070E-06,0.480
-5.060E-06,0.300
-5.050E-06,0.000
-5.040E-06,-0.180
-5.030E-06,-0.420
-5.020E-06,-0.560
-5.010E-06,-0.600
-5.000E-06,-0.660
-4.990E-06,-0.560
-4.980E-06,-0.420
-4.970E-06,-0.340
-4.960E-06,-0.280
-4.950E-06,-0.080
-4.940E-06,-0.040
-4.930E-06,0.020
-4.920E-06,0.020
-4.910E-06,0.100
-4.900E-06,0.120
-4.890E-06,0.140
-4.880E-06,0.140
-4.870E-06,0.160
-4.860E-06,0.160
-4.850E-06,0.180
-4.840E-06,0.180
-4.830E-06,0.200
-4.820E-06,0.220
-4.810E-06,0.220
-4.800E-06,0.180
-4.790E-06,0.160
-4.780E-06,0.100
-4.770E-06,0.040
-4.760E-06,-0.020
-4.750E-06,-0.040
-4.740E-06,-0.060
-4.730E-06,-0.100
-4.720E-06,-0.080
-4.710E-06,0.020
-4.700E-06,-0.020
-4.690E-06,0.040
-4.680E-06,0.060
-4.670E-06,0.140
-4.660E-06,0.100
-4.650E-06,0.140
-4.640E-06,0.120
-4.630E-06,0.080
-4.620E-06,0.040
-4.610E-06,0.100
-4.600E-06,0.040
-4.590E-06,0.060
-4.580E-06,0.080
-4.570E-06,0.020
-4.560E-06,0.020
-4.550E-06,0.000
-4.540E-06,0.000
-4.530E-06,-0.020
-4.520E-06,-0.060
-4.510E-06,-0.060
-4.500E-06,-0.100
-4.490E-06,-0.100
-4.480E-06,-0.120
-4.470E-06,-0.120
-4.460E-06,-0.120
-4.450E-06,-0.080
-4.440E-06,-0.060
-4.430E-06,-0.020
-4.420E-06,0.000
-4.410E-06,-0.020
-4.400E-06,0.000
-4.390E-06,0.000
-4.380E-06,0.020
-4.370E-06,-0.020
-4.360E-06,-0.020
-4.350E-06,-0.020
-4.340E-06,0.000
-4.330E-06,-0.020
-4.320E-06,0.040
-4.310E-06,0.060
-4.300E-06,0.080
-4.290E-06,0.100
-4.280E-06,0.180
-4.270E-06,0.180
-4.260E-06,0.160
-4.250E-06,0.200
-4.240E-06,0.180
-4.230E-06,0.120
-4.220E-06,0.120
-4.210E-06,0.080
-4.200E-06,0.000
-4.190E-06,-0.020
-4.180E-06,-0.080
-4.170E-06,-0.100
-4.160E-06,-0.120
-4.150E-06,-0.160
-4.140E-06,-0.120
-4.130E-06,-0.180
-4.120E-06,-0.180
-4.110E-06,-0.140
-4.100E-06,-0.160
-4.090E-06,-0.120
-4.080E-06,-0.100
-4.070E-06,-0.020
-4.060E-06,-0.020
-4.050E-06,-0.020
-4.040E-06,0.000
-4.030E-06,0.040
-4.020E-06,0.060
-4.010E-06,0.120
-4.000E-06,0.100
-3.990E-06,0.100
-3.980E-06,0.120
-3.970E-06,0.060
-3.960E-06,0.100
-3.950E-06,0.140
-3.940E-06,-0.020
-3.930E-06,0.140
-3.920E-06,0.040
-3.910E-06,0.000
-3.900E-06,0.040
-3.890E-06,0.000
-3.880E-06,-0.040
-3.870E-06,-0.020
-3.860E-06,-0.060
-3.850E-06,-0.040
-3.840E-06,-0.040
-3.830E-06,-0.040
-3.820E-06,-0.020
-3.810E-06,0.040
-3.800E-06,0.060
-3.790E-06,0.080
-3.780E-06,0.060
-3.770E-06,0.160
-3.760E-06,0.140
-3.750E-06,0.080
-3.740E-06,0.080
-3.730E-06,0.100
-3.720E-06,0.100
-3.710E-06,0.060
-3.700E-06,0.020
-3.690E-06,0.060
-3.680E-06,0.020
-3.670E-06,0.100
-3.660E-06,0.200
-3.650E-06,0.500
-3.640E-06,1.000
-3.630E-06,1.520
-3.620E-06,1.900
-3.610E-06,1.980
-3.600E-06,1.700
-3.590E-06,1.180
-3.580E-06,0.480
-3.570E-06,-0.240
-3.560E-06,-0.920
-3.550E-06,-1.420
-3.540E-06,-1.760
-3.530E-06,-1.980
-3.520E-06,-1.960
-3.510E-06,-1.800
-3.500E-06,-1.460
-3.490E-06,-1.040
-3.480E-06,-0.760
-3.470E-06,-0.560
-3.460E-06,-0.460
-3.450E-06,-0.360
-3.440E-06,-0.240
-3.430E-06,-0.100
-3.420E-06,0.000
-3.410E-06,0.100
-3.400E-06,0.160
-3.390E-06,0.260
-3.380E-06,0.420
-3.370E-06,0.700
-3.360E-06,0.900
-3.350E-06,1.080
-3.340E-06,1.160
-3.330E-06,1.020
-3.320E-06,1.160
-3.310E-06,0.600
-3.300E-06,0.620
-3.290E-06,-0.020
-3.280E-06,-0.060
-3.270E-06,-0.420
-3.260E-06,-0.620
-3.250E-06,-0.800
-3.240E-06,-0.880
-3.230E-06,-0.880
-3.220E-06,-0.740
-3.210E-06,-0.520
-3.200E-06,-0.180
-3.190E-06,0.120
-3.180E-06,0.500
-3.170E-06,0.680
-3.160E-06,0.840
-3.150E-06,0.880
-3.140E-06,0.840
-3.130E-06,0.720
-3.120E-06,0.600
-3.110E-06,0.440
-3.100E-06,0.260
-3.090E-06,0.080
-3.080E-06,-0.120
-3.070E-06,-0.240
-3.060E-06,-0.320
-3.050E-06,-0.440
-3.040E-06,-0.460
-3.030E-06,-0.420
-3.020E-06,-0.380
-3.010E-06,-0.320
-3.000E-06,-0.260
-2.990E-06,-0.240
-2.980E-06,-0.240
-2.970E-06,-0.260
-2.960E-06,-0.260
-2.950E-06,-0.260
-2.940E-06,-0.260
-2.930E-06,-0.240
-2.920E-06,-0.160
-2.910E-06,-0.040
-2.900E-06,0.100
-2.890E-06,0.200
-2.880E-06,0.300
-2.870E-06,0.400
-2.860E-06,0.420
-2.850E-06,0.400
-2.840E-06,0.240
-2.830E-06,0.220
-2.820E-06,-0.180
-2.810E-06,-0.040
-2.800E-06,-0.500
-2.790E-06,-0.300
-2.780E-06,-0.680
-2.770E-06,-0.340
-2.760E-06,-0.680
-2.750E-06,-0.380
-2.740E-06,-0.360
-2.730E-06,-0.240
-2.720E-06,-0.100
-2.710E-06,0.000
-2.700E-06,0.180
-2.690E-06,0.240
-2.680E-06,0.240
-2.670E-06,0.300
-2.660E-06,0.220
-2.650E-06,0.240
-2.640E-06,0.180
-2.630E-06,0.080
-2.620E-06,0.020
-2.610E-06,-0.040
-2.600E-06,-0.040
-2.590E-06,-0.060
-2.580E-06,-0.020
-2.570E-06,-0.120
-2.560E-06,-0.120
-2.550E-06,-0.220
-2.540E-06,0.220
-2.530E-06,-0.180
-2.520E-06,0.300
-2.510E-06,-0.240
-2.500E-06,0.060
-2.490E-06,-0.100
-2.480E-06,-0.080
-2.470E-06,-0.140
-2.460E-06,-0.180
-2.450E-06,-0.240
-2.440E-06,-0.240
-2.430E-06,-0.220
-2.420E-06,-0.160
-2.410E-06,-0.120
-2.400E-06,-0.080
-2.390E-06,-0.080
-2.380E-06,-0.080
-2.370E-06,-0.160
-2.360E-06,-0.180
-2.350E-06,-0.040
-2.340E-06,-0.260
-2.330E-06,-0.020
-2.320E-06,-0.260
-2.310E-06,-0.340
-2.300E-06,-0.220
-2.290E-06,-0.320
-2.280E-06,-0.240
-2.270E-06,-0.260
-2.260E-06,-0.280
-2.250E-06,-0.180
-2.240E-06,-0.200
-2.230E-06,-0.160
-2.220E-06,-0.160
-2.210E-06,-0.120
-2.200E-06,-0.100
-2.190E-06,-0.120
-2.180E-06,-0.100
-2.170E-06,-0.140
-2.160E-06,-0.180
-2.150E-06,-0.220
-2.140E-06,-0.300
-2.130E-06,0.220
-2.120E-06,-0.220
-2.110E-06,0.300
-2.100E-06,-0.320
-2.090E-06,0.080
-2.080E-06,-0.020
-2.070E-06,0.080
-2.060E-06,0.160
-2.050E-06,0.180
-2.040E-06,0.140
-2.030E-06,0.100
-2.020E-06,0.000
-2.010E-06,0.000
-2.000E-06,-0.040
-1.990E-06,0.020
-1.980E-06,-0.040
-1.970E-06,-0.020
-1.960E-06,-0.040
-1.950E-06,-0.080
-1.940E-06,-0.060
-1.930E-06,-0.060
-1.920E-06,-0.100
-1.910E-06,-0.100
-1.900E-06,-0.140
-1.890E-06,-0.140
-1.880E-06,-0.180
-1.870E-06,-0.180
-1.860E-06,-0.120
-1.850E-06,-0.100
-1.840E-06,-0.100
-1.830E-06,-0.020
-1.820E-06,-0.140
-1.810E-06,0.000
-1.800E-06,-0.160
-1.790E-06,0.040
-1.780E-06,-0.160
-1.770E-06,0.180
-1.760E-06,-0.120
-1.750E-06,0.080
-1.740E-06,-0.060
-1.730E-06,-0.100
-1.720E-06,-0.080
-1.710E-06,-0.140
-1.700E-06,-0.100
-1.690E-06,-0.140
-1.680E-06,-0.160
-1.670E-06,-0.180
-1.660E-06,-0.240
-1.650E-06,-0.240
-1.640E-06,-0.200
-1.630E-06,-0.200
-1.620E-06,-0.180
-1.610E-06,-0.220
-1.600E-06,-0.240
-1.590E-06,-0.280
-1.580E-06,-0.180
-1.570E-06,-0.200
-1.560E-06,-0.160
-1.550E-06,-0.160
-1.540E-06,-0.140
-1.530E-06,-0.120
-1.520E-06,-0.160
-1.510E-06,-0.160
-1.500E-06,-0.160
-1.490E-06,-0.140
-1.480E-06,-0.160
-1.470E-06,-0.160
-1.460E-06,-0.260
-1.450E-06,-0.260
-1.440E-06,-0.320
-1.430E-06,-0.400
-1.420E-06,-0.400
-1.410E-06,-0.420
-1.400E-06,-0.340
-1.390E-06,-0.420
-1.380E-06,-0.300
-1.370E-06,-0.380
-1.360E-06,-0.240
-1.350E-06,-0.340
-1.340E-06,-0.100
-1.330E-06,-0.100
-1.320E-06,-0.100
-1.310E-06,-0.020
-1.300E-06,-0.180
-1.290E-06,-0.160
-1.280E-06,-0.300
-1.270E-06,-0.240
-1.260E-06,0.140
-1.250E-06,-0.180
-1.240E-06,0.180
-1.230E-06,-0.080
-1.220E-06,-0.100
-1.210E-06,0.060
-1.200E-06,-0.160
-1.190E-06,-0.080
-1.180E-06,-0.140
-1.170E-06,-0.160
-1.160E-06,-0.200
-1.150E-06,-0.260
-1.140E-06,-0.260
-1.130E-06,-0.260
-1.120E-06,-0.320
-1.110E-06,-0.360
-1.100E-06,-0.340
-1.090E-06,-0.300
-1.080E-06,-0.180
-1.070E-06,-0.180
-1.060E-06,-0.240
-1.050E-06,-0.180
-1.040E-06,-0.280
-1.030E-06,-0.200
-1.020E-06,-0.340
-1.010E-06,-0.100
-1.000E-06,-0.160
-9.900E-07,-0.140
-9.800E-07,0.340
-9.700E-07,0.500
-9.600E-07,0.200
-9.500E-07,0.500
-9.400E-07,-0.120
-9.300E-07,-0.320
-9.200E-07,-0.360
-9.100E-07,-0.880
-9.000E-07,-0.700
-8.900E-07,-1.400
-8.800E-07,-1.460
-8.700E-07,-1.300
-8.600E-07,-1.160
-8.500E-07,-1.180
-8.400E-07,-1.260
-8.300E-07,-1.260
-8.200E-07,-1.300
-8.100E-07,-1.120
-8.000E-07,-0.780
-7.900E-07,-0.980
-7.800E-07,-0.440
-7.700E-07,-0.780
-7.600E-07,-0.180
-7.500E-07,-0.460
-7.400E-07,-0.340
-7.300E-07,-0.280
-7.200E-07,-0.440
-7.100E-07,-0.200
-7.000E-07,-0.260
-6.900E-07,-0.140
-6.800E-07,-0.160
-6.700E-07,-0.180
-6.600E-07,-0.340
-6.500E-07,-0.260
-6.400E-07,-0.300
-6.300E-07,-0.200
-6.200E-07,-0.380
-6.100E-07,-0.420
-6.000E-07,-0.440
-5.900E-07,-0.640
-5.800E-07,-0.060
-5.700E-07,-0.520
-5.600E-07,-0.100
-5.500E-07,-0.820
-5.400E-07,-0.760
-5.300E-07,-0.620
-5.200E-07,-0.800
-5.100E-07,-0.620
-5.000E-07,-0.680
-4.900E-07,-0.500
-4.800E-07,-0.760
-4.700E-07,-0.600
-4.600E-07,-0.620
-4.500E-07,-0.760
-4.400E-07,-0.760
-4.300E-07,-1.040
-4.200E-07,-0.940
-4.100E-07,-0.920
-4.000E-07,-0.860
-3.900E-07,-0.800
-3.800E-07,-1.000
-3.700E-07,-0.940
-3.600E-07,-0.780
-3.500E-07,-1.000
-3.400E-07,-0.760
-3.300E-07,-0.760
-3.200E-07,-0.680
-3.100E-07,-0.720
-3.000E-07,-0.700
-2.900E-07,-0.680
-2.800E-07,-0.560
-2.700E-07,-0.560
-2.600E-07,-0.420
-2.500E-07,-0.340
-2.400E-07,-0.280
-2.300E-07,-0.260
-2.200E-07,-0.180
-2.100E-07,-0.160
-2.000E-07,-0.160
-1.900E-07,-0.200
-1.800E-07,-0.240
-1.700E-07,-0.180
-1.600E-07,-0.360
-1.500E-07,-0.420
-1.400E-07,-0.180
-1.300E-07,-0.520
-1.200E-07,-0.600
-1.100E-07,-0.800
-1.000E-07,-0.560
-9.000E-08,-0.840
-8.000E-08,-0.640
-7.000E-08,-1.440
-6.000E-08,-0.860
-5.000E-08,-1.800
-4.000E-08,-1.200
-3.000E-08,-2.140
-2.000E-08,-1.600
-1.000E-08,-2.200
0.000E+00,-1.720
1.000E-08,-1.400
2.000E-08,-1.760
3.000E-08,-1.360
4.000E-08,-0.600
5.000E-08,-1.060
6.000E-08,-1.080
7.000E-08,1.820
8.000E-08,2.100
9.000E-08,2.080
1.000E-07,2.080
1.100E-07,-1.820
1.200E-07,-3.340
1.300E-07,-3.340
1.400E-07,-3.320
1.500E-07,-3.320
1.600E-07,-0.100
1.700E-07,0.440
1.800E-07,1.680
1.900E-07,0.700
2.000E-07,-0.520
2.100E-07,-2.980
2.200E-07,-3.320
2.300E-07,-3.340
2.400E-07,-2.500
2.500E-07,-1.780
2.600E-07,-0.780
2.700E-07,-0.400
2.800E-07,-0.200
2.900E-07,-0.620
3.000E-07,-0.760
3.100E-07,-0.700
3.200E-07,0.120
3.300E-07,1.180
3.400E-07,1.500
3.500E-07,1.920
3.600E-07,1.560
3.700E-07,1.200
3.800E-07,0.760
3.900E-07,0.200
4.000E-07,-0.040
4.100E-07,-0.180
4.200E-07,-0.200
4.300E-07,-0.600
4.400E-07,-1.000
4.500E-07,-1.360
4.600E-07,-1.660
4.700E-07,-2.000
4.800E-07,-2.020
4.900E-07,-1.940
5.000E-07,-1.720
5.100E-07,-1.600
5.200E-07,-1.540
5.300E-07,-1.520
5.400E-07,-1.720
5.500E-07,-2.020
5.600E-07,-2.380
5.700E-07,-2.740
5.800E-07,-2.900
5.900E-07,-3.180
6.000E-07,-3.180
6.100E-07,-3.300
6.200E-07,-3.320
6.300E-07,-3.340
6.400E-07,-3.320
6.500E-07,-3.340
6.600E-07,-3.340
6.700E-07,-3.260
6.800E-07,-2.820
6.900E-07,-2.300
7.000E-07,-1.660
7.100E-07,-1.020
7.200E-07,-0.420
7.300E-07,-0.660
7.400E-07,-0.940
7.500E-07,-0.500
7.600E-07,-0.800
7.700E-07,-0.560
7.800E-07,-1.220
7.900E-07,-1.360
8.000E-07,-1.820
8.100E-07,-2.180
8.200E-07,-2.520
8.300E-07,-2.480
8.400E-07,-2.780
8.500E-07,-2.480
8.600E-07,-2.560
8.700E-07,-2.520
8.800E-07,-2.160
8.900E-07,-2.380
9.000E-07,-1.940
9.100E-07,-2.240
9.200E-07,-1.700
9.300E-07,-1.560
9.400E-07,-1.240
9.500E-07,-0.940
9.600E-07,-1.160
9.700E-07,-0.940
9.800E-07,-0.680
9.900E-07,-0.860
1.000E-06,-0.120
1.010E-06,-0.340
1.020E-06,-0.340
1.030E-06,-0.460
1.040E-06,-1.040
1.050E-06,-1.280
1.060E-06,-1.800
1.070E-06,-1.960
1.080E-06,-1.800
1.090E-06,-1.820
1.100E-06,-1.800
1.110E-06,-1.720
1.120E-06,-1.680
1.130E-06,-1.580
1.140E-06,-1.480
1.150E-06,-1.540
1.160E-06,-1.560
1.170E-06,-1.160
1.180E-06,-1.300
1.190E-06,-1.080
1.200E-06,-0.940
1.210E-06,-0.860
1.220E-06,-0.960
1.230E-06,-1.100
1.240E-06,-1.240
1.250E-06,-1.240
1.260E-06,-1.660
1.270E-06,-1.700
1.280E-06,-1.680
1.290E-06,-1.680
1.300E-06,-1.600
1.310E-06,-1.720
1.320E-06,-1.600
1.330E-06,-1.480
1.340E-06,-1.520
1.350E-06,-1.440
1.360E-06,-1.340
1.370E-06,-1.260
1.380E-06,-1.060
1.390E-06,-0.900
1.400E-06,-0.900
1.410E-06,-0.820
1.420E-06,-0.860
1.430E-06,-0.840
1.440E-06,-0.700
1.450E-06,-0.600
1.460E-06,-0.460
1.470E-06,-0.340
1.480E-06,-0.320
1.490E-06,-0.240
1.500E-06,-0.260
1.510E-06,-0.280
1.520E-06,-0.380
1.530E-06,-0.420
1.540E-06,-0.520
1.550E-06,-0.560
1.560E-06,-0.660
1.570E-06,-0.660
1.580E-06,-0.700
1.590E-06,-0.780
1.600E-06,-0.880
1.610E-06,-0.920
1.620E-06,-0.920
1.630E-06,-0.880
1.640E-06,-0.840
1.650E-06,-0.840
1.660E-06,-0.800
1.670E-06,-0.840
1.680E-06,-0.860
1.690E-06,-1.000
1.700E-06,-1.120
1.710E-06,-1.240
1.720E-06,-1.340
1.730E-06,-1.440
1.740E-06,-1.420
1.750E-06,-1.400
1.760E-06,-1.420
1.770E-06,-1.220
1.780E-06,-1.260
1.790E-06,-1.320
1.800E-06,-1.580
1.810E-06,-1.700
1.820E-06,-1.680
1.830E-06,-1.740
1.840E-06,-1.980
1.850E-06,-1.960
1.860E-06,-2.040
1.870E-06,-1.960
1.880E-06,-2.080
1.890E-06,-2.080
1.900E-06,-2.040
1.910E-06,-1.900
1.920E-06,-1.820
1.930E-06,-1.800
1.940E-06,-1.760
1.950E-06,-1.780
1.960E-06,-1.620
1.970E-06,-1.660
1.980E-06,-1.560
1.990E-06,-1.440
2.000E-06,-1.440
2.010E-06,-1.320
2.020E-06,-1.240
2.030E-06,-1.180
2.040E-06,-1.100
2.050E-06,-1.100
2.060E-06,-1.020
2.070E-06,-1.040
2.080E-06,-1.020
2.090E-06,-0.940
2.100E-06,-0.880
2.110E-06,-0.960
2.120E-06,-0.900
2.130E-06,-1.140
2.140E-06,-0.920
2.150E-06,-1.100
2.160E-06,-1.100
2.170E-06,-1.240
2.180E-06,-1.260
2.190E-06,-1.400
2.200E-06,-1.520
2.210E-06,-1.600
2.220E-06,-1.680
2.230E-06,-1.620
2.240E-06,-1.640
2.250E-06,-1.640
2.260E-06,-1.620
2.270E-06,-1.680
2.280E-06,-1.700
2.290E-06,-1.700
2.300E-06,-1.760
2.310E-06,-1.680
2.320E-06,-1.620
2.330E-06,-1.760
2.340E-06,-1.720
2.350E-06,-2.040
2.360E-06,-1.800
2.370E-06,-1.940
2.380E-06,-1.900
2.390E-06,-1.920
2.400E-06,-1.920
2.410E-06,-1.880
2.420E-06,-1.940
2.430E-06,-1.820
2.440E-06,-1.880
2.450E-06,-1.620
2.460E-06,-1.660
2.470E-06,-1.580
2.480E-06,-1.560
2.490E-06,-1.540
2.500E-06,-1.500
2.510E-06,-1.300
2.520E-06,-1.300
2.530E-06,-1.180
2.540E-06,-1.080
2.550E-06,-1.100
2.560E-06,-0.980
2.570E-06,-1.020
2.580E-06,-0.860
2.590E-06,-0.740
2.600E-06,-0.540
2.610E-06,-0.340
2.620E-06,-0.320
2.630E-06,-0.120
2.640E-06,-0.180
2.650E-06,-0.100
2.660E-06,-0.080
2.670E-06,-0.040
2.680E-06,0.120
2.690E-06,0.060
2.700E-06,0.180
2.710E-06,0.040
2.720E-06,0.120
2.730E-06,0.120
2.740E-06,0.200
2.750E-06,0.180
2.760E-06,0.280
2.770E-06,0.260
2.780E-06,0.240
2.790E-06,0.280
2.800E-06,0.220
2.810E-06,0.320
2.820E-06,0.320
2.830E-06,0.400
2.840E-06,0.240
2.850E-06,0.280
2.860E-06,0.220
2.870E-06,0.380
2.880E-06,0.240
2.890E-06,0.280
2.900E-06,0.400
2.910E-06,0.300
2.920E-06,0.380
2.930E-06,0.220
2.940E-06,0.240
2.950E-06,0.080
2.960E-06,0.040
2.970E-06,0.000
2.980E-06,-0.060
2.990E-06,-0.160
3.000E-06,-0.080
3.010E-06,-0.120
3.020E-06,-0.120
3.030E-06,-0.320
3.040E-06,-0.440
3.050E-06,-0.420
3.060E-06,-0.420
3.070E-06,-0.540
3.080E-06,-0.580
3.090E-06,-0.580
3.100E-06,-0.700
3.110E-06,-0.620
3.120E-06,-0.660
3.130E-06,-0.540
3.140E-06,-0.500
3.150E-06,-0.300
3.160E-06,-0.240
