mediciones/8-28/-28/WaveData65791.csv

#timebase=2000000(ps)
,#voltbase=500000(mv/100)
#size=4000
-8.350E-06,0.040
-8.340E-06,0.060
-8.330E-06,0.040
-8.320E-06,0.040
-8.310E-06,0.040
-8.300E-06,0.040
-8.290E-06,0.060
-8.280E-06,0.040
-8.270E-06,0.000
-8.260E-06,0.040
-8.250E-06,0.020
-8.240E-06,0.040
-8.230E-06,0.060
-8.220E-06,0.020
-8.210E-06,0.000
-8.200E-06,0.040
-8.190E-06,0.020
-8.180E-06,0.060
-8.170E-06,0.080
-8.160E-06,0.060
-8.150E-06,0.020
-8.140E-06,0.040
-8.130E-06,0.040
-8.120E-06,0.080
-8.110E-06,0.060
-8.100E-06,0.020
-8.090E-06,0.060
-8.080E-06,0.020
-8.070E-06,0.020
-8.060E-06,0.040
-8.050E-06,0.020
-8.040E-06,0.040
-8.030E-06,0.060
-8.020E-06,0.060
-8.010E-06,0.040
-8.000E-06,0.020
-7.990E-06,0.060
-7.980E-06,0.020
-7.970E-06,0.080
-7.960E-06,0.060
-7.950E-06,0.000
-7.940E-06,0.040
-7.930E-06,0.040
-7.920E-06,0.040
-7.910E-06,0.060
-7.900E-06,0.040
-7.890E-06,0.020
-7.880E-06,0.060
-7.870E-06,0.060
-7.860E-06,0.080
-7.850E-06,0.020
-7.840E-06,0.040
-7.830E-06,0.040
-7.820E-06,0.060
-7.810E-06,0.020
-7.800E-06,0.060
-7.790E-06,0.060
-7.780E-06,0.040
-7.770E-06,0.020
-7.760E-06,0.020
-7.750E-06,0.020
-7.740E-06,0.040
-7.730E-06,0.060
-7.720E-06,0.040
-7.710E-06,0.060
-7.700E-06,0.060
-7.690E-06,0.020
-7.680E-06,0.000
-7.670E-06,0.040
-7.660E-06,0.060
-7.650E-06,0.020
-7.640E-06,0.020
-7.630E-06,0.040
-7.620E-06,0.040
-7.610E-06,0.040
-7.600E-06,0.060
-7.590E-06,0.040
-7.580E-06,0.020
-7.570E-06,0.040
-7.560E-06,0.060
-7.550E-06,0.040
-7.540E-06,0.060
-7.530E-06,0.080
-7.520E-06,0.060
-7.510E-06,0.020
-7.500E-06,0.040
-7.490E-06,0.040
-7.480E-06,0.020
-7.470E-06,0.020
-7.460E-06,0.040
-7.450E-06,0.020
-7.440E-06,0.040
-7.430E-06,0.060
-7.420E-06,0.040
-7.410E-06,0.060
-7.400E-06,0.040
-7.390E-06,0.040
-7.380E-06,0.060
-7.370E-06,0.040
-7.360E-06,0.060
-7.350E-06,0.060
-7.340E-06,0.060
-7.330E-06,0.040
-7.320E-06,0.020
-7.310E-06,0.040
-7.300E-06,0.020
-7.290E-06,0.020
-7.280E-06,0.020
-7.270E-06,0.020
-7.260E-06,0.060
-7.250E-06,0.020
-7.240E-06,0.060
-7.230E-06,0.080
-7.220E-06,0.020
-7.210E-06,0.060
-7.200E-06,0.060
-7.190E-06,0.020
-7.180E-06,0.040
-7.170E-06,0.020
-7.160E-06,0.040
-7.150E-06,0.020
-7.140E-06,0.040
-7.130E-06,0.060
-7.120E-06,0.040
-7.110E-06,0.000
-7.100E-06,0.060
-7.090E-06,0.040
-7.080E-06,0.040
-7.070E-06,0.020
-7.060E-06,0.060
-7.050E-06,0.020
-7.040E-06,0.020
-7.030E-06,0.060
-7.020E-06,0.040
-7.010E-06,0.020
-7.000E-06,0.040
-6.990E-06,0.060
-6.980E-06,0.080
-6.970E-06,0.020
-6.960E-06,0.040
-6.950E-06,0.040
-6.940E-06,0.060
-6.930E-06,0.040
-6.920E-06,0.020
-6.910E-06,0.040
-6.900E-06,0.020
-6.890E-06,0.060
-6.880E-06,0.020
-6.870E-06,0.040
-6.860E-06,0.060
-6.850E-06,0.060
-6.840E-06,0.020
-6.830E-06,0.040
-6.820E-06,0.080
-6.810E-06,0.060
-6.800E-06,0.020
-6.790E-06,0.040
-6.780E-06,0.060
-6.770E-06,0.040
-6.760E-06,0.060
-6.750E-06,0.060
-6.740E-06,0.040
-6.730E-06,0.040
-6.720E-06,0.040
-6.710E-06,0.040
-6.700E-06,0.080
-6.690E-06,0.040
-6.680E-06,0.020
-6.670E-06,0.040
-6.660E-06,0.040
-6.650E-06,0.060
-6.640E-06,0.060
-6.630E-06,0.040
-6.620E-06,0.020
-6.610E-06,0.020
-6.600E-06,0.020
-6.590E-06,0.080
-6.580E-06,0.000
-6.570E-06,0.040
-6.560E-06,0.020
-6.550E-06,0.020
-6.540E-06,0.040
-6.530E-06,0.040
-6.520E-06,0.080
-6.510E-06,0.060
-6.500E-06,0.040
-6.490E-06,0.020
-6.480E-06,0.040
-6.470E-06,0.040
-6.460E-06,0.000
-6.450E-06,0.040
-6.440E-06,0.060
-6.430E-06,0.060
-6.420E-06,0.040
-6.410E-06,0.040
-6.400E-06,0.040
-6.390E-06,0.000
-6.380E-06,0.060
-6.370E-06,0.020
-6.360E-06,0.020
-6.350E-06,0.020
-6.340E-06,0.060
-6.330E-06,0.040
-6.320E-06,0.060
-6.310E-06,0.040
-6.300E-06,0.040
-6.290E-06,0.060
-6.280E-06,0.040
-6.270E-06,0.060
-6.260E-06,0.020
-6.250E-06,0.040
-6.240E-06,0.020
-6.230E-06,0.020
-6.220E-06,0.040
-6.210E-06,0.000
-6.200E-06,0.040
-6.190E-06,0.000
-6.180E-06,0.040
-6.170E-06,0.020
-6.160E-06,0.040
-6.150E-06,0.040
-6.140E-06,0.020
-6.130E-06,0.040
-6.120E-06,0.040
-6.110E-06,0.060
-6.100E-06,0.060
-6.090E-06,0.060
-6.080E-06,0.060
-6.070E-06,0.020
-6.060E-06,0.020
-6.050E-06,0.040
-6.040E-06,0.060
-6.030E-06,0.000
-6.020E-06,0.020
-6.010E-06,0.040
-6.000E-06,0.060
-5.990E-06,0.060
-5.980E-06,0.040
-5.970E-06,0.040
-5.960E-06,0.080
-5.950E-06,0.060
-5.940E-06,0.020
-5.930E-06,0.060
-5.920E-06,0.020
-5.910E-06,0.040
-5.900E-06,0.060
-5.890E-06,0.040
-5.880E-06,0.020
-5.870E-06,0.040
-5.860E-06,0.060
-5.850E-06,0.040
-5.840E-06,0.040
-5.830E-06,0.040
-5.820E-06,0.060
-5.810E-06,0.040
-5.800E-06,0.040
-5.790E-06,0.060
-5.780E-06,0.060
-5.770E-06,0.080
-5.760E-06,0.060
-5.750E-06,0.060
-5.740E-06,0.020
-5.730E-06,0.040
-5.720E-06,0.060
-5.710E-06,0.040
-5.700E-06,0.060
-5.690E-06,0.040
-5.680E-06,0.040
-5.670E-06,0.060
-5.660E-06,0.080
-5.650E-06,0.060
-5.640E-06,0.020
-5.630E-06,0.020
-5.620E-06,0.040
-5.610E-06,0.060
-5.600E-06,0.040
-5.590E-06,0.020
-5.580E-06,0.040
-5.570E-06,0.040
-5.560E-06,0.020
-5.550E-06,0.040
-5.540E-06,0.060
-5.530E-06,0.060
-5.520E-06,0.020
-5.510E-06,0.020
-5.500E-06,0.060
-5.490E-06,0.020
-5.480E-06,0.080
-5.470E-06,0.040
-5.460E-06,0.040
-5.450E-06,0.060
-5.440E-06,-0.020
-5.430E-06,-0.360
-5.420E-06,-1.080
-5.410E-06,-2.120
-5.400E-06,-3.000
-5.390E-06,-2.800
-5.380E-06,-2.780
-5.370E-06,-1.480
-5.360E-06,-1.040
-5.350E-06,0.980
-5.340E-06,1.720
-5.330E-06,1.760
-5.320E-06,2.080
-5.310E-06,2.080
-5.300E-06,2.060
-5.290E-06,2.080
-5.280E-06,2.080
-5.270E-06,2.060
-5.260E-06,1.040
-5.250E-06,0.420
-5.240E-06,-0.260
-5.230E-06,-0.760
-5.220E-06,-0.820
-5.210E-06,-0.620
-5.200E-06,-0.380
-5.190E-06,-0.200
-5.180E-06,-0.120
-5.170E-06,-0.340
-5.160E-06,-0.660
-5.150E-06,-1.020
-5.140E-06,-1.400
-5.130E-06,-1.720
-5.120E-06,-1.900
-5.110E-06,-1.800
-5.100E-06,-1.660
-5.090E-06,-1.300
-5.080E-06,-0.720
-5.070E-06,-0.140
-5.060E-06,0.440
-5.050E-06,1.060
-5.040E-06,1.460
-5.030E-06,1.660
-5.020E-06,1.700
-5.010E-06,1.580
-5.000E-06,1.220
-4.990E-06,0.780
-4.980E-06,0.360
-4.970E-06,-0.120
-4.960E-06,-0.520
-4.950E-06,-0.740
-4.940E-06,-0.880
-4.930E-06,-0.920
-4.920E-06,-0.860
-4.910E-06,-0.800
-4.900E-06,-0.680
-4.890E-06,-0.560
-4.880E-06,-0.360
-4.870E-06,-0.220
-4.860E-06,-0.040
-4.850E-06,0.220
-4.840E-06,0.440
-4.830E-06,0.640
-4.820E-06,0.780
-4.810E-06,0.940
-4.800E-06,0.980
-4.790E-06,0.980
-4.780E-06,0.880
-4.770E-06,0.800
-4.760E-06,0.640
-4.750E-06,0.480
-4.740E-06,0.320
-4.730E-06,0.140
-4.720E-06,-0.040
-4.710E-06,-0.200
-4.700E-06,-0.320
-4.690E-06,-0.420
-4.680E-06,-0.480
-4.670E-06,-0.500
-4.660E-06,-0.580
-4.650E-06,-0.600
-4.640E-06,-0.600
-4.630E-06,-0.560
-4.620E-06,-0.440
-4.610E-06,-0.280
-4.600E-06,-0.080
-4.590E-06,0.140
-4.580E-06,0.400
-4.570E-06,0.560
-4.560E-06,0.740
-4.550E-06,0.840
-4.540E-06,0.880
-4.530E-06,0.860
-4.520E-06,0.720
-4.510E-06,0.560
-4.500E-06,0.360
-4.490E-06,0.160
-4.480E-06,-0.060
-4.470E-06,-0.260
-4.460E-06,-0.420
-4.450E-06,-0.500
-4.440E-06,-0.540
-4.430E-06,-0.520
-4.420E-06,-0.460
-4.410E-06,-0.380
-4.400E-06,-0.280
-4.390E-06,-0.200
-4.380E-06,-0.060
-4.370E-06,0.000
-4.360E-06,0.060
-4.350E-06,0.060
-4.340E-06,0.100
-4.330E-06,0.100
-4.320E-06,0.100
-4.310E-06,0.120
-4.300E-06,0.160
-4.290E-06,0.160
-4.280E-06,0.200
-4.270E-06,0.200
-4.260E-06,0.220
-4.250E-06,0.200
-4.240E-06,0.180
-4.230E-06,0.120
-4.220E-06,0.080
-4.210E-06,0.060
-4.200E-06,0.000
-4.190E-06,-0.040
-4.180E-06,-0.080
-4.170E-06,-0.080
-4.160E-06,-0.080
-4.150E-06,-0.020
-4.140E-06,0.020
-4.130E-06,0.080
-4.120E-06,0.060
-4.110E-06,0.100
-4.100E-06,0.140
-4.090E-06,0.120
-4.080E-06,0.140
-4.070E-06,0.080
-4.060E-06,0.080
-4.050E-06,0.080
-4.040E-06,0.080
-4.030E-06,0.060
-4.020E-06,0.020
-4.010E-06,0.020
-4.000E-06,0.040
-3.990E-06,0.000
-3.980E-06,0.060
-3.970E-06,0.020
-3.960E-06,0.040
-3.950E-06,0.000
-3.940E-06,-0.040
-3.930E-06,-0.100
-3.920E-06,-0.100
-3.910E-06,-0.160
-3.900E-06,-0.140
-3.890E-06,-0.140
-3.880E-06,-0.100
-3.870E-06,-0.060
-3.860E-06,-0.060
-3.850E-06,0.000
-3.840E-06,-0.040
-3.830E-06,-0.040
-3.820E-06,-0.020
-3.810E-06,-0.060
-3.800E-06,-0.080
-3.790E-06,-0.060
-3.780E-06,-0.040
-3.770E-06,-0.020
-3.760E-06,-0.020
-3.750E-06,0.020
-3.740E-06,0.000
-3.730E-06,0.060
-3.720E-06,0.120
-3.710E-06,0.180
-3.700E-06,0.200
-3.690E-06,0.220
-3.680E-06,0.220
-3.670E-06,0.200
-3.660E-06,0.160
-3.650E-06,0.140
-3.640E-06,0.120
-3.630E-06,0.080
-3.620E-06,0.000
-3.610E-06,-0.020
-3.600E-06,-0.080
-3.590E-06,-0.100
-3.580E-06,-0.120
-3.570E-06,-0.140
-3.560E-06,-0.140
-3.550E-06,-0.100
-3.540E-06,-0.120
-3.530E-06,-0.080
-3.520E-06,-0.060
-3.510E-06,-0.040
-3.500E-06,0.000
-3.490E-06,0.020
-3.480E-06,0.060
-3.470E-06,0.040
-3.460E-06,0.080
-3.450E-06,0.080
-3.440E-06,0.060
-3.430E-06,0.100
-3.420E-06,0.140
-3.410E-06,0.120
-3.400E-06,0.120
-3.390E-06,0.120
-3.380E-06,0.100
-3.370E-06,0.080
-3.360E-06,0.020
-3.350E-06,0.000
-3.340E-06,-0.040
-3.330E-06,-0.060
-3.320E-06,-0.040
-3.310E-06,-0.080
-3.300E-06,-0.100
-3.290E-06,-0.080
-3.280E-06,-0.060
-3.270E-06,-0.060
-3.260E-06,-0.040
-3.250E-06,0.000
-3.240E-06,0.040
-3.230E-06,0.080
-3.220E-06,0.100
-3.210E-06,0.140
-3.200E-06,0.160
-3.190E-06,0.140
-3.180E-06,0.120
-3.170E-06,0.100
-3.160E-06,0.080
-3.150E-06,0.080
-3.140E-06,0.080
-3.130E-06,0.100
-3.120E-06,0.140
-3.110E-06,0.220
-3.100E-06,0.460
-3.090E-06,0.900
-3.080E-06,1.440
-3.070E-06,1.800
-3.060E-06,1.940
-3.050E-06,1.720
-3.040E-06,1.260
-3.030E-06,0.640
-3.020E-06,-0.100
-3.010E-06,-0.720
-3.000E-06,-1.300
-2.990E-06,-1.680
-2.980E-06,-1.900
-2.970E-06,-1.960
-2.960E-06,-1.880
-2.950E-06,-1.620
-2.940E-06,-1.280
-2.930E-06,-0.920
-2.920E-06,-0.640
-2.910E-06,-0.480
-2.900E-06,-0.320
-2.890E-06,-0.180
-2.880E-06,-0.120
-2.870E-06,0.000
-2.860E-06,0.080
-2.850E-06,0.160
-2.840E-06,0.280
-2.830E-06,0.440
-2.820E-06,0.700
-2.810E-06,0.880
-2.800E-06,1.020
-2.790E-06,1.080
-2.780E-06,1.020
-2.770E-06,0.840
-2.760E-06,0.560
-2.750E-06,0.260
-2.740E-06,-0.040
-2.730E-06,-0.300
-2.720E-06,-0.600
-2.710E-06,-0.820
-2.700E-06,-1.000
-2.690E-06,-1.060
-2.680E-06,-1.040
-2.670E-06,-0.880
-2.660E-06,-0.600
-2.650E-06,-0.300
-2.640E-06,0.060
-2.630E-06,0.380
-2.620E-06,0.600
-2.610E-06,0.800
-2.600E-06,0.880
-2.590E-06,0.900
-2.580E-06,0.820
-2.570E-06,0.680
-2.560E-06,0.520
-2.550E-06,0.300
-2.540E-06,0.080
-2.530E-06,-0.080
-2.520E-06,-0.260
-2.510E-06,-0.400
-2.500E-06,-0.520
-2.490E-06,-0.580
-2.480E-06,-0.560
-2.470E-06,-0.580
-2.460E-06,-0.560
-2.450E-06,-0.480
-2.440E-06,-0.460
-2.430E-06,-0.440
-2.420E-06,-0.440
-2.410E-06,-0.440
-2.400E-06,-0.400
-2.390E-06,-0.360
-2.380E-06,-0.460
-2.370E-06,-0.340
-2.360E-06,-0.420
-2.350E-06,0.260
-2.340E-06,-0.020
-2.330E-06,0.640
-2.320E-06,0.180
-2.310E-06,0.580
-2.300E-06,0.400
-2.290E-06,0.320
-2.280E-06,0.180
-2.270E-06,0.020
-2.260E-06,-0.180
-2.250E-06,-0.300
-2.240E-06,-0.580
-2.230E-06,-0.640
-2.220E-06,-0.700
-2.210E-06,-0.660
-2.200E-06,-0.660
-2.190E-06,-0.520
-2.180E-06,-0.320
-2.170E-06,-0.180
-2.160E-06,0.060
-2.150E-06,0.160
-2.140E-06,0.260
-2.130E-06,0.080
-2.120E-06,0.060
-2.110E-06,0.040
-2.100E-06,0.100
-2.090E-06,0.160
-2.080E-06,-0.020
-2.070E-06,-0.040
-2.060E-06,-0.140
-2.050E-06,-0.160
-2.040E-06,-0.060
-2.030E-06,-0.100
-2.020E-06,0.080
-2.010E-06,0.100
-2.000E-06,-0.020
-1.990E-06,0.020
-1.980E-06,0.000
-1.970E-06,0.000
-1.960E-06,-0.040
-1.950E-06,-0.080
-1.940E-06,-0.040
-1.930E-06,-0.040
-1.920E-06,-0.040
-1.910E-06,-0.040
-1.900E-06,-0.080
-1.890E-06,-0.040
-1.880E-06,-0.020
-1.870E-06,0.040
-1.860E-06,0.080
-1.850E-06,0.100
-1.840E-06,0.200
-1.830E-06,0.180
-1.820E-06,0.140
-1.810E-06,0.140
-1.800E-06,0.140
-1.790E-06,0.060
-1.780E-06,-0.020
-1.770E-06,-0.140
-1.760E-06,-0.180
-1.750E-06,-0.200
-1.740E-06,-0.240
-1.730E-06,-0.240
-1.720E-06,-0.220
-1.710E-06,-0.160
-1.700E-06,-0.120
-1.690E-06,-0.120
-1.680E-06,-0.100
-1.670E-06,-0.080
-1.660E-06,-0.080
-1.650E-06,-0.120
-1.640E-06,-0.160
-1.630E-06,-0.180
-1.620E-06,-0.180
-1.610E-06,-0.160
-1.600E-06,-0.140
-1.590E-06,-0.160
-1.580E-06,-0.160
-1.570E-06,-0.140
-1.560E-06,-0.080
-1.550E-06,-0.100
-1.540E-06,-0.020
-1.530E-06,-0.020
-1.520E-06,0.000
-1.510E-06,-0.020
-1.500E-06,-0.020
-1.490E-06,-0.020
-1.480E-06,-0.020
-1.470E-06,-0.040
-1.460E-06,-0.040
-1.450E-06,-0.100
-1.440E-06,-0.280
-1.430E-06,-0.300
-1.420E-06,-0.340
-1.410E-06,0.220
-1.400E-06,-0.260
-1.390E-06,0.320
-1.380E-06,-0.320
-1.370E-06,-0.080
-1.360E-06,-0.260
-1.350E-06,-0.240
-1.340E-06,-0.220
-1.330E-06,-0.280
-1.320E-06,-0.260
-1.310E-06,-0.360
-1.300E-06,-0.380
-1.290E-06,-0.380
-1.280E-06,-0.380
-1.270E-06,-0.280
-1.260E-06,-0.240
-1.250E-06,-0.280
-1.240E-06,-0.280
-1.230E-06,-0.260
-1.220E-06,-0.260
-1.210E-06,-0.300
-1.200E-06,-0.260
-1.190E-06,-0.400
-1.180E-06,-0.180
-1.170E-06,-0.300
-1.160E-06,-0.360
-1.150E-06,-0.240
-1.140E-06,-0.340
-1.130E-06,-0.280
-1.120E-06,-0.340
-1.110E-06,-0.380
-1.100E-06,-0.340
-1.090E-06,-0.500
-1.080E-06,-0.440
-1.070E-06,-0.680
-1.060E-06,-0.240
-1.050E-06,-0.680
-1.040E-06,-0.140
-1.030E-06,-0.560
-1.020E-06,-0.140
-1.010E-06,-0.320
-1.000E-06,-0.200
-9.900E-07,-0.160
-9.800E-07,-0.120
-9.700E-07,-0.060
-9.600E-07,-0.080
-9.500E-07,-0.080
-9.400E-07,-0.040
-9.300E-07,-0.100
-9.200E-07,-0.080
-9.100E-07,-0.120
-9.000E-07,-0.180
-8.900E-07,-0.040
-8.800E-07,-0.220
-8.700E-07,-0.020
-8.600E-07,-0.260
-8.500E-07,-0.020
-8.400E-07,-0.240
-8.300E-07,-0.100
-8.200E-07,-0.160
-8.100E-07,-0.140
-8.000E-07,-0.020
-7.900E-07,-0.080
-7.800E-07,-0.040
-7.700E-07,-0.020
-7.600E-07,-0.040
-7.500E-07,-0.020
-7.400E-07,-0.020
-7.300E-07,0.000
-7.200E-07,0.020
-7.100E-07,-0.020
-7.000E-07,0.060
-6.900E-07,0.040
-6.800E-07,0.080
-6.700E-07,-0.020
-6.600E-07,-0.060
-6.500E-07,-0.060
-6.400E-07,-0.020
-6.300E-07,-0.040
-6.200E-07,-0.020
-6.100E-07,-0.100
-6.000E-07,-0.180
-5.900E-07,-0.180
-5.800E-07,-0.280
-5.700E-07,-0.060
-5.600E-07,-0.340
-5.500E-07,-0.180
-5.400E-07,-0.460
-5.300E-07,-0.540
-5.200E-07,-0.460
-5.100E-07,-0.600
-5.000E-07,-0.600
-4.900E-07,-0.620
-4.800E-07,-0.620
-4.700E-07,-0.560
-4.600E-07,-0.620
-4.500E-07,-0.540
-4.400E-07,-0.500
-4.300E-07,-0.500
-4.200E-07,-0.520
-4.100E-07,-0.560
-4.000E-07,-0.540
-3.900E-07,-0.580
-3.800E-07,-0.660
-3.700E-07,-0.560
-3.600E-07,-0.720
-3.500E-07,-0.600
-3.400E-07,-0.700
-3.300E-07,-0.360
-3.200E-07,-0.440
-3.100E-07,-0.300
-3.000E-07,-0.380
-2.900E-07,-0.440
-2.800E-07,-0.520
-2.700E-07,-0.660
-2.600E-07,-0.680
-2.500E-07,-0.900
-2.400E-07,-0.640
-2.300E-07,-1.020
-2.200E-07,-0.660
-2.100E-07,-0.960
-2.000E-07,-0.860
-1.900E-07,-0.840
-1.800E-07,-0.820
-1.700E-07,-0.840
-1.600E-07,-0.660
-1.500E-07,-0.260
-1.400E-07,-0.860
-1.300E-07,-0.320
-1.200E-07,-0.440
-1.100E-07,0.260
-1.000E-07,-1.100
-9.000E-08,1.160
-8.000E-08,-0.840
-7.000E-08,1.280
-6.000E-08,-0.600
-5.000E-08,0.960
-4.000E-08,0.460
-3.000E-08,-1.000
-2.000E-08,-1.000
-1.000E-08,-0.580
0.000E+00,-1.760
1.000E-08,-1.640
2.000E-08,-2.460
3.000E-08,-2.000
4.000E-08,-0.740
5.000E-08,-0.340
6.000E-08,0.060
7.000E-08,-0.840
8.000E-08,-0.620
9.000E-08,-0.700
1.000E-07,-0.980
1.100E-07,-0.380
1.200E-07,0.400
1.300E-07,-0.200
1.400E-07,0.960
1.500E-07,0.340
1.600E-07,0.620
1.700E-07,0.160
1.800E-07,0.200
1.900E-07,0.060
2.000E-07,0.080
2.100E-07,-0.020
2.200E-07,0.260
2.300E-07,0.140
2.400E-07,0.040
2.500E-07,-0.240
2.600E-07,-0.440
2.700E-07,-0.780
2.800E-07,-0.840
2.900E-07,-1.040
3.000E-07,-1.080
3.100E-07,-1.360
3.200E-07,-1.360
3.300E-07,-0.180
3.400E-07,0.260
3.500E-07,1.680
3.600E-07,1.700
3.700E-07,1.080
3.800E-07,0.220
3.900E-07,-1.660
4.000E-07,-2.340
4.100E-07,-2.720
4.200E-07,-2.680
4.300E-07,-2.080
4.400E-07,-1.780
4.500E-07,-1.600
4.600E-07,-1.780
4.700E-07,-1.800
4.800E-07,-2.080
4.900E-07,-1.720
5.000E-07,-1.460
5.100E-07,-1.020
5.200E-07,-0.640
5.300E-07,-0.320
5.400E-07,-0.180
5.500E-07,0.080
5.600E-07,0.080
5.700E-07,0.480
5.800E-07,0.320
5.900E-07,0.540
6.000E-07,0.800
6.100E-07,0.920
6.200E-07,1.180
6.300E-07,0.960
6.400E-07,0.960
6.500E-07,0.740
6.600E-07,0.480
6.700E-07,0.340
6.800E-07,0.340
6.900E-07,0.240
7.000E-07,-0.060
7.100E-07,-0.180
7.200E-07,-0.440
7.300E-07,-0.620
7.400E-07,-0.680
7.500E-07,-0.680
7.600E-07,-0.560
7.700E-07,-0.520
7.800E-07,-0.380
7.900E-07,-0.340
8.000E-07,-0.160
8.100E-07,-0.120
8.200E-07,-0.140
8.300E-07,-0.100
8.400E-07,-0.120
8.500E-07,-0.240
8.600E-07,-0.340
8.700E-07,-0.600
8.800E-07,-0.560
8.900E-07,-0.900
9.000E-07,-1.060
9.100E-07,-1.240
9.200E-07,-1.200
9.300E-07,-1.140
9.400E-07,-1.260
9.500E-07,-1.020
9.600E-07,-0.960
9.700E-07,-0.680
9.800E-07,-0.660
9.900E-07,-0.720
1.000E-06,-0.760
1.010E-06,-1.080
1.020E-06,-1.040
1.030E-06,-0.860
1.040E-06,-0.680
1.050E-06,-0.480
1.060E-06,-0.420
1.070E-06,-0.280
1.080E-06,-0.320
1.090E-06,-0.580
1.100E-06,-0.360
1.110E-06,-0.680
1.120E-06,-0.480
1.130E-06,-0.780
1.140E-06,-1.020
1.150E-06,-1.200
1.160E-06,-1.560
1.170E-06,-1.720
1.180E-06,-1.780
1.190E-06,-1.920
1.200E-06,-1.980
1.210E-06,-2.200
1.220E-06,-2.420
1.230E-06,-2.380
1.240E-06,-2.360
1.250E-06,-2.380
1.260E-06,-2.220
1.270E-06,-2.160
1.280E-06,-2.040
1.290E-06,-1.960
1.300E-06,-1.740
1.310E-06,-1.780
1.320E-06,-1.780
1.330E-06,-1.860
1.340E-06,-1.800
1.350E-06,-1.780
1.360E-06,-1.680
1.370E-06,-1.560
1.380E-06,-1.480
1.390E-06,-1.340
1.400E-06,-1.360
1.410E-06,-1.180
1.420E-06,-1.280
1.430E-06,-1.100
1.440E-06,-1.000
1.450E-06,-1.000
1.460E-06,-1.160
1.470E-06,-1.160
1.480E-06,-1.140
1.490E-06,-1.120
1.500E-06,-1.000
1.510E-06,-0.520
1.520E-06,-0.620
1.530E-06,-0.700
1.540E-06,-1.060
1.550E-06,-0.840
1.560E-06,0.200
1.570E-06,1.220
1.580E-06,2.040
1.590E-06,2.080
1.600E-06,1.260
1.610E-06,-1.060
1.620E-06,-1.500
1.630E-06,-3.340
1.640E-06,-3.020
1.650E-06,-3.320
1.660E-06,-3.100
1.670E-06,-2.200
1.680E-06,-2.140
1.690E-06,-0.960
1.700E-06,0.180
1.710E-06,0.880
1.720E-06,-0.220
1.730E-06,-1.580
1.740E-06,-3.320
1.750E-06,-3.340
1.760E-06,-3.340
1.770E-06,-3.340
1.780E-06,-3.180
1.790E-06,-3.320
1.800E-06,-2.000
1.810E-06,-2.900
1.820E-06,-2.800
1.830E-06,-3.100
1.840E-06,-3.020
1.850E-06,-1.940
1.860E-06,-1.280
1.870E-06,-0.020
1.880E-06,0.320
1.890E-06,0.580
1.900E-06,0.160
1.910E-06,-0.020
1.920E-06,-0.220
1.930E-06,-0.380
1.940E-06,-0.180
1.950E-06,0.040
1.960E-06,0.060
1.970E-06,0.040
1.980E-06,-0.300
1.990E-06,-0.540
2.000E-06,-0.940
2.010E-06,-1.200
2.020E-06,-1.340
2.030E-06,-1.340
2.040E-06,-1.340
2.050E-06,-1.140
2.060E-06,-1.020
2.070E-06,-0.940
2.080E-06,-0.880
2.090E-06,-0.960
2.100E-06,-0.940
2.110E-06,-0.820
2.120E-06,-0.540
2.130E-06,-0.320
2.140E-06,-0.040
2.150E-06,0.140
2.160E-06,0.160
2.170E-06,0.120
2.180E-06,-0.060
2.190E-06,-0.280
2.200E-06,-0.520
2.210E-06,-0.720
2.220E-06,-0.880
2.230E-06,-1.000
2.240E-06,-1.140
2.250E-06,-1.040
2.260E-06,-1.200
2.270E-06,-1.060
2.280E-06,-1.400
2.290E-06,-1.000
2.300E-06,-1.160
2.310E-06,-0.640
2.320E-06,-0.620
2.330E-06,-0.340
2.340E-06,-0.180
2.350E-06,-0.200
2.360E-06,-0.340
2.370E-06,-0.500
2.380E-06,-0.660
2.390E-06,-0.700
2.400E-06,-0.860
2.410E-06,-0.860
2.420E-06,-0.760
2.430E-06,-0.700
2.440E-06,-0.560
2.450E-06,-0.600
2.460E-06,-0.680
2.470E-06,-0.940
2.480E-06,-1.260
2.490E-06,-1.560
2.500E-06,-1.880
2.510E-06,-2.120
2.520E-06,-2.260
2.530E-06,-2.260
2.540E-06,-2.200
2.550E-06,-1.980
2.560E-06,-1.740
2.570E-06,-1.520
2.580E-06,-1.360
2.590E-06,-1.200
2.600E-06,-1.080
2.610E-06,-0.920
2.620E-06,-0.800
2.630E-06,-0.560
2.640E-06,-0.460
2.650E-06,-0.360
2.660E-06,-0.480
2.670E-06,-0.600
2.680E-06,-1.020
2.690E-06,-1.180
2.700E-06,-1.580
2.710E-06,-1.660
2.720E-06,-1.780
2.730E-06,-1.840
2.740E-06,-1.740
2.750E-06,-1.780
2.760E-06,-1.620
2.770E-06,-1.540
2.780E-06,-1.400
2.790E-06,-1.260
2.800E-06,-1.180
2.810E-06,-1.000
2.820E-06,-0.920
2.830E-06,-0.840
2.840E-06,-0.740
2.850E-06,-0.780
2.860E-06,-0.580
2.870E-06,-0.540
2.880E-06,-0.460
2.890E-06,-0.360
2.900E-06,-0.460
2.910E-06,-0.280
2.920E-06,-0.440
2.930E-06,-0.340
2.940E-06,-0.280
2.950E-06,-0.380
2.960E-06,-0.520
2.970E-06,-0.560
2.980E-06,-0.540
2.990E-06,-0.600
3.000E-06,-0.660
3.010E-06,-0.680
3.020E-06,-0.640
3.030E-06,-0.660
3.040E-06,-0.620
3.050E-06,-0.580
3.060E-06,-0.600
3.070E-06,-0.600
3.080E-06,-0.560
3.090E-06,-0.560
3.100E-06,-0.420
3.110E-06,-0.320
3.120E-06,-0.260
3.130E-06,-0.120
3.140E-06,-0.260
3.150E-06,-0.500
3.160E-06,-0.660
3.170E-06,-0.800
3.180E-06,-0.620
3.190E-06,-0.720
