mediciones/8-28/-28/WaveData65797.csv

#timebase=2000000(ps)
,#voltbase=500000(mv/100)
#size=4000
-8.350E-06,0.040
-8.340E-06,0.020
-8.330E-06,0.040
-8.320E-06,0.080
-8.310E-06,0.060
-8.300E-06,0.060
-8.290E-06,0.020
-8.280E-06,0.040
-8.270E-06,0.040
-8.260E-06,0.060
-8.250E-06,0.060
-8.240E-06,0.040
-8.230E-06,0.020
-8.220E-06,0.040
-8.210E-06,0.020
-8.200E-06,0.060
-8.190E-06,0.020
-8.180E-06,0.020
-8.170E-06,0.020
-8.160E-06,-0.020
-8.150E-06,0.040
-8.140E-06,0.020
-8.130E-06,0.040
-8.120E-06,0.040
-8.110E-06,0.040
-8.100E-06,0.080
-8.090E-06,0.020
-8.080E-06,0.040
-8.070E-06,0.080
-8.060E-06,0.060
-8.050E-06,0.040
-8.040E-06,0.040
-8.030E-06,0.020
-8.020E-06,0.080
-8.010E-06,0.040
-8.000E-06,0.060
-7.990E-06,0.020
-7.980E-06,0.020
-7.970E-06,0.060
-7.960E-06,0.020
-7.950E-06,0.020
-7.940E-06,0.060
-7.930E-06,0.060
-7.920E-06,0.060
-7.910E-06,0.060
-7.900E-06,0.040
-7.890E-06,0.040
-7.880E-06,0.040
-7.870E-06,0.040
-7.860E-06,0.060
-7.850E-06,0.060
-7.840E-06,0.060
-7.830E-06,0.060
-7.820E-06,0.060
-7.810E-06,0.080
-7.800E-06,0.020
-7.790E-06,0.040
-7.780E-06,0.060
-7.770E-06,0.020
-7.760E-06,0.020
-7.750E-06,0.040
-7.740E-06,0.060
-7.730E-06,0.040
-7.720E-06,0.020
-7.710E-06,0.040
-7.700E-06,0.020
-7.690E-06,0.040
-7.680E-06,0.040
-7.670E-06,0.060
-7.660E-06,0.040
-7.650E-06,0.060
-7.640E-06,0.020
-7.630E-06,0.020
-7.620E-06,0.080
-7.610E-06,0.040
-7.600E-06,0.080
-7.590E-06,0.020
-7.580E-06,0.020
-7.570E-06,0.040
-7.560E-06,0.080
-7.550E-06,0.040
-7.540E-06,0.000
-7.530E-06,0.040
-7.520E-06,0.060
-7.510E-06,0.060
-7.500E-06,0.020
-7.490E-06,0.000
-7.480E-06,0.060
-7.470E-06,0.040
-7.460E-06,0.000
-7.450E-06,0.040
-7.440E-06,0.080
-7.430E-06,0.040
-7.420E-06,0.060
-7.410E-06,0.040
-7.400E-06,0.020
-7.390E-06,0.040
-7.380E-06,0.040
-7.370E-06,0.020
-7.360E-06,0.040
-7.350E-06,0.040
-7.340E-06,0.060
-7.330E-06,0.040
-7.320E-06,0.040
-7.310E-06,0.080
-7.300E-06,0.020
-7.290E-06,0.020
-7.280E-06,0.020
-7.270E-06,0.020
-7.260E-06,0.020
-7.250E-06,0.040
-7.240E-06,0.060
-7.230E-06,0.060
-7.220E-06,0.040
-7.210E-06,0.040
-7.200E-06,0.000
-7.190E-06,0.040
-7.180E-06,0.060
-7.170E-06,0.060
-7.160E-06,0.060
-7.150E-06,0.020
-7.140E-06,0.040
-7.130E-06,0.040
-7.120E-06,0.060
-7.110E-06,0.040
-7.100E-06,0.040
-7.090E-06,0.060
-7.080E-06,0.020
-7.070E-06,0.020
-7.060E-06,0.040
-7.050E-06,0.040
-7.040E-06,0.060
-7.030E-06,0.080
-7.020E-06,0.020
-7.010E-06,0.040
-7.000E-06,0.020
-6.990E-06,0.040
-6.980E-06,0.020
-6.970E-06,0.040
-6.960E-06,0.040
-6.950E-06,0.020
-6.940E-06,0.040
-6.930E-06,0.040
-6.920E-06,0.040
-6.910E-06,0.060
-6.900E-06,0.080
-6.890E-06,0.040
-6.880E-06,0.020
-6.870E-06,0.060
-6.860E-06,0.060
-6.850E-06,0.020
-6.840E-06,0.080
-6.830E-06,0.040
-6.820E-06,0.040
-6.810E-06,0.060
-6.800E-06,0.060
-6.790E-06,0.060
-6.780E-06,0.060
-6.770E-06,0.000
-6.760E-06,0.040
-6.750E-06,0.060
-6.740E-06,0.060
-6.730E-06,0.060
-6.720E-06,0.040
-6.710E-06,0.040
-6.700E-06,0.020
-6.690E-06,0.060
-6.680E-06,0.040
-6.670E-06,0.040
-6.660E-06,0.040
-6.650E-06,0.040
-6.640E-06,0.040
-6.630E-06,0.060
-6.620E-06,0.040
-6.610E-06,0.040
-6.600E-06,0.080
-6.590E-06,0.040
-6.580E-06,0.040
-6.570E-06,0.040
-6.560E-06,0.020
-6.550E-06,0.040
-6.540E-06,0.060
-6.530E-06,0.040
-6.520E-06,0.060
-6.510E-06,0.040
-6.500E-06,0.020
-6.490E-06,0.040
-6.480E-06,0.040
-6.470E-06,0.060
-6.460E-06,0.020
-6.450E-06,0.060
-6.440E-06,0.000
-6.430E-06,0.040
-6.420E-06,0.020
-6.410E-06,0.060
-6.400E-06,0.060
-6.390E-06,0.040
-6.380E-06,0.060
-6.370E-06,0.040
-6.360E-06,0.040
-6.350E-06,0.020
-6.340E-06,0.080
-6.330E-06,0.060
-6.320E-06,0.060
-6.310E-06,0.060
-6.300E-06,0.060
-6.290E-06,0.080
-6.280E-06,0.020
-6.270E-06,0.000
-6.260E-06,0.040
-6.250E-06,0.020
-6.240E-06,0.040
-6.230E-06,0.060
-6.220E-06,0.040
-6.210E-06,0.040
-6.200E-06,0.060
-6.190E-06,0.060
-6.180E-06,0.040
-6.170E-06,0.040
-6.160E-06,0.020
-6.150E-06,0.040
-6.140E-06,0.080
-6.130E-06,0.040
-6.120E-06,0.040
-6.110E-06,0.020
-6.100E-06,0.060
-6.090E-06,0.020
-6.080E-06,0.040
-6.070E-06,0.040
-6.060E-06,0.020
-6.050E-06,0.040
-6.040E-06,0.020
-6.030E-06,0.040
-6.020E-06,0.040
-6.010E-06,0.020
-6.000E-06,0.040
-5.990E-06,0.020
-5.980E-06,0.040
-5.970E-06,0.020
-5.960E-06,0.020
-5.950E-06,0.040
-5.940E-06,0.060
-5.930E-06,0.020
-5.920E-06,-0.020
-5.910E-06,0.060
-5.900E-06,0.040
-5.890E-06,0.040
-5.880E-06,0.060
-5.870E-06,0.060
-5.860E-06,0.040
-5.850E-06,0.060
-5.840E-06,0.040
-5.830E-06,0.060
-5.820E-06,0.080
-5.810E-06,0.060
-5.800E-06,0.020
-5.790E-06,0.060
-5.780E-06,0.040
-5.770E-06,0.040
-5.760E-06,0.060
-5.750E-06,0.020
-5.740E-06,0.040
-5.730E-06,0.040
-5.720E-06,0.060
-5.710E-06,0.020
-5.700E-06,0.040
-5.690E-06,0.080
-5.680E-06,0.020
-5.670E-06,0.020
-5.660E-06,0.020
-5.650E-06,0.060
-5.640E-06,0.060
-5.630E-06,0.020
-5.620E-06,0.040
-5.610E-06,0.020
-5.600E-06,0.060
-5.590E-06,0.040
-5.580E-06,0.040
-5.570E-06,0.060
-5.560E-06,0.040
-5.550E-06,0.060
-5.540E-06,0.020
-5.530E-06,0.040
-5.520E-06,0.040
-5.510E-06,0.040
-5.500E-06,0.040
-5.490E-06,0.020
-5.480E-06,0.060
-5.470E-06,0.060
-5.460E-06,0.060
-5.450E-06,0.020
-5.440E-06,0.060
-5.430E-06,0.020
-5.420E-06,0.040
-5.410E-06,0.040
-5.400E-06,0.060
-5.390E-06,0.040
-5.380E-06,0.060
-5.370E-06,0.080
-5.360E-06,0.020
-5.350E-06,0.040
-5.340E-06,0.040
-5.330E-06,0.020
-5.320E-06,0.020
-5.310E-06,0.040
-5.300E-06,0.020
-5.290E-06,0.020
-5.280E-06,0.080
-5.270E-06,0.080
-5.260E-06,0.060
-5.250E-06,0.020
-5.240E-06,0.040
-5.230E-06,0.040
-5.220E-06,0.020
-5.210E-06,0.080
-5.200E-06,0.040
-5.190E-06,-0.020
-5.180E-06,0.020
-5.170E-06,0.040
-5.160E-06,0.060
-5.150E-06,0.060
-5.140E-06,0.060
-5.130E-06,0.020
-5.120E-06,0.040
-5.110E-06,0.040
-5.100E-06,0.080
-5.090E-06,0.060
-5.080E-06,0.020
-5.070E-06,0.020
-5.060E-06,0.040
-5.050E-06,0.040
-5.040E-06,0.040
-5.030E-06,0.020
-5.020E-06,0.040
-5.010E-06,0.060
-5.000E-06,0.020
-4.990E-06,0.040
-4.980E-06,0.060
-4.970E-06,0.060
-4.960E-06,0.020
-4.950E-06,0.080
-4.940E-06,0.080
-4.930E-06,0.020
-4.920E-06,0.060
-4.910E-06,0.060
-4.900E-06,0.020
-4.890E-06,0.020
-4.880E-06,0.040
-4.870E-06,0.040
-4.860E-06,0.060
-4.850E-06,0.040
-4.840E-06,0.040
-4.830E-06,0.060
-4.820E-06,0.040
-4.810E-06,0.020
-4.800E-06,0.060
-4.790E-06,0.060
-4.780E-06,0.060
-4.770E-06,0.060
-4.760E-06,0.060
-4.750E-06,0.020
-4.740E-06,0.040
-4.730E-06,0.060
-4.720E-06,0.040
-4.710E-06,0.020
-4.700E-06,0.060
-4.690E-06,0.020
-4.680E-06,0.060
-4.670E-06,0.040
-4.660E-06,0.080
-4.650E-06,0.020
-4.640E-06,0.040
-4.630E-06,0.060
-4.620E-06,0.060
-4.610E-06,-0.020
-4.600E-06,0.060
-4.590E-06,0.040
-4.580E-06,0.060
-4.570E-06,0.000
-4.560E-06,0.060
-4.550E-06,0.040
-4.540E-06,0.020
-4.530E-06,0.040
-4.520E-06,0.040
-4.510E-06,0.020
-4.500E-06,0.020
-4.490E-06,0.040
-4.480E-06,0.060
-4.470E-06,0.040
-4.460E-06,0.060
-4.450E-06,0.060
-4.440E-06,0.080
-4.430E-06,0.040
-4.420E-06,0.040
-4.410E-06,0.040
-4.400E-06,0.040
-4.390E-06,0.040
-4.380E-06,0.060
-4.370E-06,0.060
-4.360E-06,0.040
-4.350E-06,0.020
-4.340E-06,0.040
-4.330E-06,0.080
-4.320E-06,0.000
-4.310E-06,0.040
-4.300E-06,0.060
-4.290E-06,0.060
-4.280E-06,0.040
-4.270E-06,0.020
-4.260E-06,0.020
-4.250E-06,0.080
-4.240E-06,0.040
-4.230E-06,0.020
-4.220E-06,0.020
-4.210E-06,0.040
-4.200E-06,0.060
-4.190E-06,0.040
-4.180E-06,0.020
-4.170E-06,0.060
-4.160E-06,0.080
-4.150E-06,0.060
-4.140E-06,0.060
-4.130E-06,0.020
-4.120E-06,0.020
-4.110E-06,0.040
-4.100E-06,0.040
-4.090E-06,0.060
-4.080E-06,0.040
-4.070E-06,0.020
-4.060E-06,0.040
-4.050E-06,0.060
-4.040E-06,0.060
-4.030E-06,0.080
-4.020E-06,0.020
-4.010E-06,0.040
-4.000E-06,0.040
-3.990E-06,0.000
-3.980E-06,0.000
-3.970E-06,0.040
-3.960E-06,0.020
-3.950E-06,0.040
-3.940E-06,0.060
-3.930E-06,0.040
-3.920E-06,0.020
-3.910E-06,0.040
-3.900E-06,0.040
-3.890E-06,0.040
-3.880E-06,0.040
-3.870E-06,0.040
-3.860E-06,0.060
-3.850E-06,0.040
-3.840E-06,0.040
-3.830E-06,0.040
-3.820E-06,0.040
-3.810E-06,0.020
-3.800E-06,0.040
-3.790E-06,-0.020
-3.780E-06,0.040
-3.770E-06,0.060
-3.760E-06,0.020
-3.750E-06,0.020
-3.740E-06,0.040
-3.730E-06,0.020
-3.720E-06,0.020
-3.710E-06,0.060
-3.700E-06,0.060
-3.690E-06,0.020
-3.680E-06,0.060
-3.670E-06,0.020
-3.660E-06,0.040
-3.650E-06,0.040
-3.640E-06,0.020
-3.630E-06,0.060
-3.620E-06,0.020
-3.610E-06,0.060
-3.600E-06,0.060
-3.590E-06,0.060
-3.580E-06,0.020
-3.570E-06,0.020
-3.560E-06,0.040
-3.550E-06,0.060
-3.540E-06,0.060
-3.530E-06,0.040
-3.520E-06,0.040
-3.510E-06,0.080
-3.500E-06,0.020
-3.490E-06,0.060
-3.480E-06,0.060
-3.470E-06,0.060
-3.460E-06,0.060
-3.450E-06,0.020
-3.440E-06,0.020
-3.430E-06,0.000
-3.420E-06,0.020
-3.410E-06,-0.020
-3.400E-06,-0.380
-3.390E-06,-1.160
-3.380E-06,-2.200
-3.370E-06,-3.180
-3.360E-06,-3.160
-3.350E-06,-3.120
-3.340E-06,-2.360
-3.330E-06,-0.340
-3.320E-06,0.740
-3.310E-06,1.920
-3.300E-06,2.080
-3.290E-06,2.080
-3.280E-06,2.080
-3.270E-06,2.080
-3.260E-06,2.080
-3.250E-06,2.100
-3.240E-06,1.980
-3.230E-06,1.140
-3.220E-06,0.220
-3.210E-06,-0.300
-3.200E-06,-0.840
-3.190E-06,-0.680
-3.180E-06,-0.580
-3.170E-06,-0.480
-3.160E-06,-0.200
-3.150E-06,-0.180
-3.140E-06,-0.420
-3.130E-06,-0.780
-3.120E-06,-1.080
-3.110E-06,-1.520
-3.100E-06,-1.840
-3.090E-06,-1.960
-3.080E-06,-1.940
-3.070E-06,-1.720
-3.060E-06,-1.360
-3.050E-06,-0.720
-3.040E-06,-0.160
-3.030E-06,0.520
-3.020E-06,1.160
-3.010E-06,1.560
-3.000E-06,1.820
-2.990E-06,1.840
-2.980E-06,1.620
-2.970E-06,1.280
-2.960E-06,0.860
-2.950E-06,0.380
-2.940E-06,-0.120
-2.930E-06,-0.500
-2.920E-06,-0.780
-2.910E-06,-0.920
-2.900E-06,-0.980
-2.890E-06,-0.920
-2.880E-06,-0.820
-2.870E-06,-0.680
-2.860E-06,-0.500
-2.850E-06,-0.320
-2.840E-06,-0.180
-2.830E-06,0.020
-2.820E-06,0.240
-2.810E-06,0.440
-2.800E-06,0.640
-2.790E-06,0.800
-2.780E-06,0.880
-2.770E-06,0.960
-2.760E-06,0.940
-2.750E-06,0.860
-2.740E-06,0.760
-2.730E-06,0.600
-2.720E-06,0.440
-2.710E-06,0.260
-2.700E-06,0.100
-2.690E-06,-0.020
-2.680E-06,-0.180
-2.670E-06,-0.260
-2.660E-06,-0.360
-2.650E-06,-0.460
-2.640E-06,-0.520
-2.630E-06,-0.620
-2.620E-06,-0.660
-2.610E-06,-0.620
-2.600E-06,-0.580
-2.590E-06,-0.480
-2.580E-06,-0.340
-2.570E-06,-0.100
-2.560E-06,0.140
-2.550E-06,0.380
-2.540E-06,0.560
-2.530E-06,0.760
-2.520E-06,0.860
-2.510E-06,0.900
-2.500E-06,0.800
-2.490E-06,0.680
-2.480E-06,0.480
-2.470E-06,0.280
-2.460E-06,0.040
-2.450E-06,-0.200
-2.440E-06,-0.340
-2.430E-06,-0.520
-2.420E-06,-0.580
-2.410E-06,-0.620
-2.400E-06,-0.620
-2.390E-06,-0.520
-2.380E-06,-0.400
-2.370E-06,-0.320
-2.360E-06,-0.200
-2.350E-06,-0.100
-2.340E-06,-0.080
-2.330E-06,-0.020
-2.320E-06,0.000
-2.310E-06,0.040
-2.300E-06,0.100
-2.290E-06,0.060
-2.280E-06,0.020
-2.270E-06,-0.040
-2.260E-06,-0.100
-2.250E-06,-0.140
-2.240E-06,0.280
-2.230E-06,-0.180
-2.220E-06,0.340
-2.210E-06,-0.140
-2.200E-06,-0.100
-2.190E-06,0.020
-2.180E-06,-0.140
-2.170E-06,-0.080
-2.160E-06,-0.100
-2.150E-06,-0.240
-2.140E-06,-0.200
-2.130E-06,-0.260
-2.120E-06,-0.220
-2.110E-06,-0.160
-2.100E-06,-0.180
-2.090E-06,-0.040
-2.080E-06,-0.040
-2.070E-06,-0.040
-2.060E-06,0.040
-2.050E-06,-0.020
-2.040E-06,0.060
-2.030E-06,-0.020
-2.020E-06,-0.020
-2.010E-06,0.040
-2.000E-06,-0.020
-1.990E-06,-0.020
-1.980E-06,0.000
-1.970E-06,-0.100
-1.960E-06,0.040
-1.950E-06,-0.120
-1.940E-06,-0.020
-1.930E-06,-0.120
-1.920E-06,0.180
-1.910E-06,-0.220
-1.900E-06,0.040
-1.890E-06,-0.120
-1.880E-06,-0.120
-1.870E-06,-0.080
-1.860E-06,-0.200
-1.850E-06,-0.120
-1.840E-06,-0.220
-1.830E-06,-0.220
-1.820E-06,-0.200
-1.810E-06,-0.260
-1.800E-06,-0.340
-1.790E-06,-0.220
-1.780E-06,-0.400
-1.770E-06,-0.140
-1.760E-06,-0.200
-1.750E-06,-0.220
-1.740E-06,-0.160
-1.730E-06,-0.140
-1.720E-06,-0.160
-1.710E-06,-0.140
-1.700E-06,-0.180
-1.690E-06,-0.040
-1.680E-06,-0.220
-1.670E-06,-0.040
-1.660E-06,-0.100
-1.650E-06,-0.100
-1.640E-06,0.160
-1.630E-06,-0.140
-1.620E-06,0.140
-1.610E-06,-0.080
-1.600E-06,-0.220
-1.590E-06,-0.100
-1.580E-06,-0.500
-1.570E-06,-0.520
-1.560E-06,-0.600
-1.550E-06,-0.680
-1.540E-06,-0.700
-1.530E-06,-0.720
-1.520E-06,-0.680
-1.510E-06,-0.740
-1.500E-06,-0.760
-1.490E-06,-0.760
-1.480E-06,-0.800
-1.470E-06,-0.840
-1.460E-06,-0.860
-1.450E-06,-0.560
-1.440E-06,-0.800
-1.430E-06,-0.560
-1.420E-06,-0.820
-1.410E-06,-0.780
-1.400E-06,-0.680
-1.390E-06,-0.740
-1.380E-06,-0.700
-1.370E-06,-0.700
-1.360E-06,-0.780
-1.350E-06,-0.800
-1.340E-06,-0.840
-1.330E-06,-0.860
-1.320E-06,-0.520
-1.310E-06,-0.820
-1.300E-06,-0.480
-1.290E-06,-0.840
-1.280E-06,-0.800
-1.270E-06,-0.840
-1.260E-06,-1.000
-1.250E-06,-1.100
-1.240E-06,-1.100
-1.230E-06,-1.380
-1.220E-06,-1.220
-1.210E-06,-1.240
-1.200E-06,-1.040
-1.190E-06,-1.280
-1.180E-06,-1.080
-1.170E-06,-1.100
-1.160E-06,-1.320
-1.150E-06,-1.500
-1.140E-06,-1.680
-1.130E-06,-1.720
-1.120E-06,-1.440
-1.110E-06,-1.840
-1.100E-06,-1.560
-1.090E-06,-1.980
-1.080E-06,-1.880
-1.070E-06,-1.780
-1.060E-06,-1.420
-1.050E-06,-0.780
-1.040E-06,-0.700
-1.030E-06,-0.840
-1.020E-06,-1.440
-1.010E-06,-2.160
-1.000E-06,-2.380
-9.900E-07,-3.180
-9.800E-07,-3.340
-9.700E-07,-3.340
-9.600E-07,-3.320
-9.500E-07,-3.340
-9.400E-07,-3.340
-9.300E-07,-3.340
-9.200E-07,-3.320
-9.100E-07,-3.340
-9.000E-07,-3.340
-8.900E-07,-3.340
-8.800E-07,-3.160
-8.700E-07,-2.920
-8.600E-07,-2.600
-8.500E-07,-2.440
-8.400E-07,-2.140
-8.300E-07,-1.820
-8.200E-07,-1.560
-8.100E-07,-1.200
-8.000E-07,-0.940
-7.900E-07,-0.680
-7.800E-07,-0.520
-7.700E-07,-0.420
-7.600E-07,-0.400
-7.500E-07,-0.500
-7.400E-07,-0.700
-7.300E-07,-0.840
-7.200E-07,-1.080
-7.100E-07,-1.320
-7.000E-07,-1.560
-6.900E-07,-1.760
-6.800E-07,-1.880
-6.700E-07,-1.940
-6.600E-07,-1.940
-6.500E-07,-1.860
-6.400E-07,-1.700
-6.300E-07,-1.440
-6.200E-07,-1.180
-6.100E-07,-0.900
-6.000E-07,-0.740
-5.900E-07,-0.540
-5.800E-07,-0.460
-5.700E-07,-0.440
-5.600E-07,-0.500
-5.500E-07,-0.620
-5.400E-07,-0.780
-5.300E-07,-0.940
-5.200E-07,-1.080
-5.100E-07,-1.340
-5.000E-07,-1.560
-4.900E-07,-1.700
-4.800E-07,-1.860
-4.700E-07,-1.960
-4.600E-07,-2.120
-4.500E-07,-2.280
-4.400E-07,-2.400
-4.300E-07,-2.480
-4.200E-07,-2.480
-4.100E-07,-2.520
-4.000E-07,-2.520
-3.900E-07,-2.540
-3.800E-07,-2.420
-3.700E-07,-2.340
-3.600E-07,-2.340
-3.500E-07,-2.200
-3.400E-07,-2.080
-3.300E-07,-1.880
-3.200E-07,-1.640
-3.100E-07,-1.500
-3.000E-07,-1.380
-2.900E-07,-1.260
-2.800E-07,-1.280
-2.700E-07,-1.360
-2.600E-07,-1.460
-2.500E-07,-1.660
-2.400E-07,-1.900
-2.300E-07,-2.220
-2.200E-07,-2.620
-2.100E-07,-2.920
-2.000E-07,-3.160
-1.900E-07,-3.340
-1.800E-07,-3.340
-1.700E-07,-3.340
-1.600E-07,-3.320
-1.500E-07,-3.340
-1.400E-07,-3.340
-1.300E-07,-3.360
-1.200E-07,-3.340
-1.100E-07,-3.340
-1.000E-07,-3.320
-9.000E-08,-3.340
-8.000E-08,-3.340
-7.000E-08,-3.340
-6.000E-08,-3.340
-5.000E-08,-3.340
-4.000E-08,-3.340
-3.000E-08,-3.340
-2.000E-08,-3.340
-1.000E-08,-3.320
0.000E+00,-3.320
1.000E-08,-3.320
2.000E-08,-3.320
3.000E-08,-3.340
4.000E-08,-3.340
5.000E-08,-3.340
6.000E-08,-3.340
7.000E-08,-3.340
8.000E-08,-3.340
9.000E-08,-3.360
1.000E-07,-3.360
1.100E-07,-3.360
1.200E-07,-3.360
1.300E-07,-3.340
1.400E-07,-3.340
1.500E-07,-3.340
1.600E-07,-3.340
1.700E-07,-3.340
1.800E-07,-3.180
1.900E-07,-2.780
2.000E-07,-2.480
2.100E-07,-2.140
2.200E-07,-1.800
2.300E-07,-1.380
2.400E-07,-0.880
2.500E-07,-0.400
2.600E-07,0.040
2.700E-07,0.440
2.800E-07,0.820
2.900E-07,1.140
3.000E-07,1.440
3.100E-07,1.660
3.200E-07,1.800
3.300E-07,1.920
3.400E-07,2.000
3.500E-07,2.020
3.600E-07,2.040
3.700E-07,2.040
3.800E-07,1.920
3.900E-07,1.820
4.000E-07,1.660
4.100E-07,1.480
4.200E-07,1.340
4.300E-07,1.160
4.400E-07,1.020
4.500E-07,0.860
4.600E-07,0.740
4.700E-07,0.740
4.800E-07,0.600
4.900E-07,0.560
5.000E-07,0.460
5.100E-07,0.060
5.200E-07,-0.020
5.300E-07,-0.320
5.400E-07,-0.300
5.500E-07,-0.240
5.600E-07,-0.600
5.700E-07,-0.480
5.800E-07,-0.720
5.900E-07,-0.700
6.000E-07,-0.800
6.100E-07,-0.880
6.200E-07,-0.780
6.300E-07,-0.860
6.400E-07,-0.760
6.500E-07,-0.760
6.600E-07,-0.640
6.700E-07,-0.560
6.800E-07,-0.460
6.900E-07,-0.340
7.000E-07,-0.240
7.100E-07,-0.080
7.200E-07,0.000
7.300E-07,0.200
7.400E-07,0.320
7.500E-07,0.400
7.600E-07,0.440
7.700E-07,0.520
7.800E-07,0.580
7.900E-07,0.640
8.000E-07,0.680
8.100E-07,0.720
8.200E-07,0.780
8.300E-07,0.760
8.400E-07,0.760
8.500E-07,0.740
8.600E-07,0.660
8.700E-07,0.620
8.800E-07,0.580
8.900E-07,0.520
9.000E-07,0.460
9.100E-07,0.420
9.200E-07,0.360
9.300E-07,0.320
9.400E-07,0.280
9.500E-07,0.260
9.600E-07,0.240
9.700E-07,0.240
9.800E-07,0.220
9.900E-07,0.200
1.000E-06,0.180
1.010E-06,0.160
1.020E-06,0.160
1.030E-06,0.180
1.040E-06,0.200
1.050E-06,0.280
1.060E-06,0.340
1.070E-06,0.360
1.080E-06,0.380
1.090E-06,0.320
1.100E-06,0.320
1.110E-06,0.320
1.120E-06,0.320
1.130E-06,0.280
1.140E-06,0.260
1.150E-06,0.260
1.160E-06,0.300
1.170E-06,0.320
1.180E-06,0.540
1.190E-06,0.460
1.200E-06,0.480
1.210E-06,0.300
1.220E-06,0.680
1.230E-06,0.320
1.240E-06,0.640
1.250E-06,0.520
1.260E-06,0.500
1.270E-06,0.760
1.280E-06,0.440
1.290E-06,0.760
1.300E-06,0.460
1.310E-06,0.500
1.320E-06,0.360
1.330E-06,0.380
1.340E-06,0.320
1.350E-06,0.220
1.360E-06,0.260
1.370E-06,0.200
1.380E-06,0.180
1.390E-06,0.120
1.400E-06,0.180
1.410E-06,0.180
1.420E-06,0.160
1.430E-06,0.200
1.440E-06,0.180
1.450E-06,0.180
1.460E-06,0.180
1.470E-06,0.180
1.480E-06,0.160
1.490E-06,0.140
1.500E-06,0.080
1.510E-06,0.100
1.520E-06,0.040
1.530E-06,-0.020
1.540E-06,0.000
1.550E-06,-0.020
1.560E-06,0.020
1.570E-06,0.100
1.580E-06,0.180
1.590E-06,0.240
1.600E-06,0.320
1.610E-06,0.320
1.620E-06,0.340
1.630E-06,0.360
1.640E-06,0.360
1.650E-06,0.360
1.660E-06,0.340
1.670E-06,0.340
1.680E-06,0.320
1.690E-06,0.300
1.700E-06,0.260
1.710E-06,0.240
1.720E-06,0.280
1.730E-06,0.300
1.740E-06,0.320
1.750E-06,0.340
1.760E-06,0.500
1.770E-06,0.220
1.780E-06,0.000
1.790E-06,0.080
1.800E-06,0.260
1.810E-06,0.160
1.820E-06,0.380
1.830E-06,-0.080
1.840E-06,0.400
1.850E-06,0.220
1.860E-06,0.120
1.870E-06,0.220
1.880E-06,0.200
1.890E-06,0.280
1.900E-06,0.180
1.910E-06,0.300
1.920E-06,0.320
1.930E-06,0.300
1.940E-06,0.260
1.950E-06,0.280
1.960E-06,0.200
1.970E-06,0.180
1.980E-06,0.180
1.990E-06,0.140
2.000E-06,0.160
2.010E-06,0.140
2.020E-06,0.140
2.030E-06,0.160
2.040E-06,0.140
2.050E-06,0.120
2.060E-06,0.120
2.070E-06,0.100
2.080E-06,0.020
2.090E-06,0.020
2.100E-06,-0.040
2.110E-06,-0.080
2.120E-06,-0.100
2.130E-06,-0.100
2.140E-06,-0.060
2.150E-06,-0.040
2.160E-06,0.020
2.170E-06,0.160
2.180E-06,0.260
2.190E-06,0.360
2.200E-06,0.460
2.210E-06,0.520
2.220E-06,0.600
2.230E-06,0.640
2.240E-06,0.660
2.250E-06,0.640
2.260E-06,0.640
2.270E-06,0.620
2.280E-06,0.560
2.290E-06,0.500
2.300E-06,0.440
2.310E-06,0.380
2.320E-06,0.340
2.330E-06,0.240
2.340E-06,0.180
2.350E-06,0.120
2.360E-06,0.020
2.370E-06,0.000
2.380E-06,-0.040
2.390E-06,-0.060
2.400E-06,-0.120
2.410E-06,-0.160
2.420E-06,-0.200
2.430E-06,-0.220
2.440E-06,-0.200
2.450E-06,-0.260
2.460E-06,-0.620
2.470E-06,-0.680
2.480E-06,-0.680
2.490E-06,-0.360
2.500E-06,-0.420
2.510E-06,-0.480
2.520E-06,-0.320
2.530E-06,-0.340
2.540E-06,-0.180
2.550E-06,-0.180
2.560E-06,-0.100
2.570E-06,-0.040
2.580E-06,0.020
2.590E-06,0.020
2.600E-06,0.060
2.610E-06,0.020
2.620E-06,0.060
2.630E-06,0.000
2.640E-06,0.040
2.650E-06,0.120
2.660E-06,0.220
2.670E-06,0.320
2.680E-06,0.520
2.690E-06,0.740
2.700E-06,0.920
2.710E-06,1.100
2.720E-06,1.280
2.730E-06,1.440
2.740E-06,1.520
2.750E-06,1.600
2.760E-06,1.720
2.770E-06,1.760
2.780E-06,1.820
2.790E-06,1.920
2.800E-06,2.020
2.810E-06,2.080
2.820E-06,2.080
2.830E-06,2.080
2.840E-06,2.080
2.850E-06,2.060
2.860E-06,2.080
2.870E-06,2.100
2.880E-06,2.080
2.890E-06,2.080
2.900E-06,2.080
2.910E-06,2.100
2.920E-06,2.100
2.930E-06,2.080
2.940E-06,2.080
2.950E-06,2.060
2.960E-06,2.080
2.970E-06,2.080
2.980E-06,2.080
2.990E-06,2.080
3.000E-06,1.980
3.010E-06,1.940
3.020E-06,1.860
3.030E-06,1.840
3.040E-06,1.760
3.050E-06,1.680
3.060E-06,1.560
3.070E-06,1.420
3.080E-06,1.320
3.090E-06,0.760
3.100E-06,-1.000
3.110E-06,-3.340
3.120E-06,-3.340
3.130E-06,-3.320
3.140E-06,-3.320
3.150E-06,-3.320
3.160E-06,-3.320
3.170E-06,-3.340
3.180E-06,-3.340
3.190E-06,-3.340
3.200E-06,-3.340
3.210E-06,-3.340
3.220E-06,-3.360
3.230E-06,-3.360
3.240E-06,-3.340
3.250E-06,-3.340
3.260E-06,-2.460
3.270E-06,-3.340
3.280E-06,-2.340
3.290E-06,-2.800
3.300E-06,-2.840
3.310E-06,-2.740
3.320E-06,-2.780
3.330E-06,-2.540
3.340E-06,-2.460
