mediciones/8-23,28 tiempo vuelo limpias/175.5/WaveData65121.csv

#timebase=2000000(ps)
,#voltbase=500000(mv/100)
#size=4000
-1.140E-05,0.100
-1.139E-05,0.060
-1.138E-05,0.060
-1.137E-05,0.040
-1.136E-05,0.060
-1.135E-05,0.080
-1.134E-05,0.080
-1.133E-05,0.060
-1.132E-05,0.040
-1.131E-05,0.060
-1.130E-05,0.080
-1.129E-05,0.060
-1.128E-05,0.060
-1.127E-05,0.080
-1.126E-05,0.060
-1.125E-05,0.060
-1.124E-05,0.020
-1.123E-05,0.080
-1.122E-05,0.080
-1.121E-05,0.040
-1.120E-05,0.060
-1.119E-05,0.060
-1.118E-05,0.080
-1.117E-05,0.060
-1.116E-05,0.080
-1.115E-05,0.040
-1.114E-05,0.060
-1.113E-05,0.060
-1.112E-05,0.040
-1.111E-05,0.080
-1.110E-05,0.080
-1.109E-05,0.100
-1.108E-05,0.020
-1.107E-05,0.040
-1.106E-05,0.080
-1.105E-05,0.060
-1.104E-05,0.020
-1.103E-05,0.080
-1.102E-05,0.040
-1.101E-05,0.080
-1.100E-05,0.040
-1.099E-05,0.100
-1.098E-05,0.040
-1.097E-05,0.080
-1.096E-05,0.060
-1.095E-05,0.080
-1.094E-05,0.060
-1.093E-05,0.060
-1.092E-05,0.080
-1.091E-05,0.040
-1.090E-05,0.080
-1.089E-05,0.080
-1.088E-05,0.040
-1.087E-05,0.060
-1.086E-05,0.080
-1.085E-05,0.020
-1.084E-05,0.040
-1.083E-05,0.080
-1.082E-05,0.040
-1.081E-05,0.060
-1.080E-05,0.020
-1.079E-05,0.020
-1.078E-05,0.060
-1.077E-05,0.080
-1.076E-05,0.080
-1.075E-05,0.080
-1.074E-05,0.060
-1.073E-05,0.060
-1.072E-05,0.080
-1.071E-05,0.060
-1.070E-05,0.060
-1.069E-05,0.080
-1.068E-05,0.040
-1.067E-05,0.060
-1.066E-05,0.060
-1.065E-05,0.060
-1.064E-05,0.040
-1.063E-05,0.020
-1.062E-05,0.080
-1.061E-05,0.120
-1.060E-05,0.100
-1.059E-05,0.080
-1.058E-05,0.060
-1.057E-05,0.080
-1.056E-05,0.080
-1.055E-05,0.040
-1.054E-05,0.040
-1.053E-05,0.080
-1.052E-05,0.080
-1.051E-05,0.040
-1.050E-05,0.040
-1.049E-05,0.060
-1.048E-05,0.060
-1.047E-05,0.060
-1.046E-05,0.020
-1.045E-05,0.080
-1.044E-05,0.080
-1.043E-05,0.060
-1.042E-05,0.060
-1.041E-05,0.040
-1.040E-05,0.060
-1.039E-05,0.080
-1.038E-05,0.120
-1.037E-05,0.060
-1.036E-05,0.040
-1.035E-05,0.080
-1.034E-05,0.060
-1.033E-05,0.060
-1.032E-05,0.040
-1.031E-05,0.080
-1.030E-05,0.060
-1.029E-05,0.060
-1.028E-05,0.040
-1.027E-05,0.040
-1.026E-05,0.060
-1.025E-05,0.060
-1.024E-05,0.060
-1.023E-05,0.060
-1.022E-05,0.080
-1.021E-05,0.080
-1.020E-05,0.060
-1.019E-05,0.040
-1.018E-05,0.060
-1.017E-05,0.060
-1.016E-05,0.060
-1.015E-05,0.060
-1.014E-05,0.060
-1.013E-05,0.060
-1.012E-05,0.040
-1.011E-05,0.060
-1.010E-05,0.040
-1.009E-05,0.060
-1.008E-05,0.060
-1.007E-05,0.040
-1.006E-05,0.060
-1.005E-05,0.060
-1.004E-05,0.040
-1.003E-05,0.040
-1.002E-05,0.080
-1.001E-05,0.060
-1.000E-05,0.080
-9.990E-06,0.060
-9.980E-06,0.060
-9.970E-06,0.060
-9.960E-06,0.040
-9.950E-06,0.080
-9.940E-06,0.060
-9.930E-06,0.060
-9.920E-06,0.060
-9.910E-06,0.060
-9.900E-06,0.040
-9.890E-06,0.040
-9.880E-06,0.060
-9.870E-06,0.020
-9.860E-06,0.040
-9.850E-06,0.040
-9.840E-06,0.020
-9.830E-06,0.060
-9.820E-06,0.060
-9.810E-06,0.040
-9.800E-06,0.080
-9.790E-06,0.080
-9.780E-06,0.040
-9.770E-06,0.060
-9.760E-06,0.060
-9.750E-06,0.060
-9.740E-06,0.020
-9.730E-06,0.080
-9.720E-06,0.040
-9.710E-06,0.080
-9.700E-06,0.060
-9.690E-06,0.060
-9.680E-06,0.080
-9.670E-06,0.060
-9.660E-06,0.060
-9.650E-06,0.060
-9.640E-06,0.060
-9.630E-06,0.080
-9.620E-06,0.080
-9.610E-06,0.060
-9.600E-06,0.080
-9.590E-06,0.040
-9.580E-06,0.060
-9.570E-06,0.060
-9.560E-06,0.040
-9.550E-06,0.080
-9.540E-06,0.060
-9.530E-06,0.080
-9.520E-06,0.060
-9.510E-06,0.060
-9.500E-06,0.060
-9.490E-06,0.060
-9.480E-06,0.060
-9.470E-06,0.040
-9.460E-06,0.040
-9.450E-06,0.080
-9.440E-06,0.040
-9.430E-06,0.080
-9.420E-06,0.080
-9.410E-06,0.040
-9.400E-06,0.040
-9.390E-06,0.040
-9.380E-06,0.060
-9.370E-06,0.060
-9.360E-06,0.080
-9.350E-06,0.080
-9.340E-06,0.060
-9.330E-06,0.060
-9.320E-06,0.100
-9.310E-06,0.060
-9.300E-06,0.060
-9.290E-06,0.060
-9.280E-06,0.040
-9.270E-06,0.040
-9.260E-06,0.040
-9.250E-06,0.060
-9.240E-06,0.080
-9.230E-06,0.080
-9.220E-06,0.040
-9.210E-06,0.040
-9.200E-06,0.060
-9.190E-06,0.040
-9.180E-06,0.080
-9.170E-06,0.080
-9.160E-06,0.060
-9.150E-06,0.040
-9.140E-06,0.080
-9.130E-06,0.060
-9.120E-06,0.020
-9.110E-06,0.020
-9.100E-06,0.080
-9.090E-06,0.100
-9.080E-06,0.080
-9.070E-06,0.060
-9.060E-06,0.040
-9.050E-06,0.040
-9.040E-06,0.080
-9.030E-06,0.060
-9.020E-06,0.060
-9.010E-06,0.060
-9.000E-06,0.080
-8.990E-06,0.060
-8.980E-06,0.060
-8.970E-06,0.060
-8.960E-06,0.040
-8.950E-06,0.080
-8.940E-06,0.060
-8.930E-06,0.080
-8.920E-06,0.040
-8.910E-06,0.060
-8.900E-06,0.040
-8.890E-06,0.060
-8.880E-06,0.060
-8.870E-06,0.040
-8.860E-06,0.080
-8.850E-06,0.060
-8.840E-06,0.080
-8.830E-06,0.080
-8.820E-06,0.060
-8.810E-06,0.040
-8.800E-06,0.060
-8.790E-06,0.080
-8.780E-06,0.080
-8.770E-06,0.040
-8.760E-06,0.080
-8.750E-06,0.060
-8.740E-06,0.040
-8.730E-06,0.060
-8.720E-06,0.060
-8.710E-06,0.060
-8.700E-06,0.080
-8.690E-06,0.060
-8.680E-06,0.080
-8.670E-06,0.060
-8.660E-06,0.060
-8.650E-06,0.040
-8.640E-06,0.040
-8.630E-06,0.060
-8.620E-06,0.080
-8.610E-06,0.060
-8.600E-06,0.080
-8.590E-06,0.060
-8.580E-06,0.020
-8.570E-06,0.060
-8.560E-06,0.080
-8.550E-06,0.080
-8.540E-06,0.060
-8.530E-06,0.080
-8.520E-06,0.040
-8.510E-06,0.040
-8.500E-06,0.060
-8.490E-06,0.060
-8.480E-06,0.060
-8.470E-06,0.080
-8.460E-06,0.040
-8.450E-06,0.060
-8.440E-06,0.040
-8.430E-06,0.060
-8.420E-06,0.060
-8.410E-06,0.060
-8.400E-06,0.060
-8.390E-06,0.080
-8.380E-06,0.040
-8.370E-06,0.060
-8.360E-06,0.080
-8.350E-06,0.060
-8.340E-06,0.060
-8.330E-06,0.040
-8.320E-06,0.040
-8.310E-06,0.040
-8.300E-06,0.020
-8.290E-06,0.060
-8.280E-06,0.100
-8.270E-06,0.040
-8.260E-06,0.060
-8.250E-06,0.080
-8.240E-06,0.080
-8.230E-06,0.040
-8.220E-06,0.080
-8.210E-06,0.020
-8.200E-06,0.060
-8.190E-06,0.080
-8.180E-06,0.040
-8.170E-06,0.060
-8.160E-06,0.040
-8.150E-06,0.080
-8.140E-06,0.060
-8.130E-06,0.080
-8.120E-06,0.040
-8.110E-06,0.060
-8.100E-06,0.060
-8.090E-06,0.060
-8.080E-06,0.080
-8.070E-06,0.040
-8.060E-06,0.060
-8.050E-06,0.040
-8.040E-06,0.040
-8.030E-06,0.060
-8.020E-06,0.080
-8.010E-06,0.080
-8.000E-06,0.060
-7.990E-06,0.100
-7.980E-06,0.080
-7.970E-06,0.080
-7.960E-06,0.060
-7.950E-06,0.060
-7.940E-06,0.060
-7.930E-06,0.060
-7.920E-06,0.060
-7.910E-06,0.080
-7.900E-06,0.080
-7.890E-06,0.040
-7.880E-06,0.040
-7.870E-06,0.060
-7.860E-06,0.060
-7.850E-06,0.040
-7.840E-06,0.060
-7.830E-06,0.040
-7.820E-06,0.080
-7.810E-06,0.060
-7.800E-06,0.040
-7.790E-06,0.040
-7.780E-06,0.060
-7.770E-06,0.040
-7.760E-06,0.080
-7.750E-06,0.060
-7.740E-06,0.080
-7.730E-06,0.040
-7.720E-06,0.060
-7.710E-06,0.060
-7.700E-06,0.060
-7.690E-06,0.060
-7.680E-06,0.060
-7.670E-06,0.060
-7.660E-06,0.080
-7.650E-06,0.100
-7.640E-06,0.040
-7.630E-06,0.060
-7.620E-06,0.080
-7.610E-06,0.060
-7.600E-06,0.040
-7.590E-06,0.060
-7.580E-06,0.040
-7.570E-06,0.040
-7.560E-06,0.060
-7.550E-06,0.040
-7.540E-06,0.080
-7.530E-06,0.060
-7.520E-06,0.060
-7.510E-06,0.060
-7.500E-06,0.060
-7.490E-06,0.060
-7.480E-06,0.060
-7.470E-06,0.080
-7.460E-06,0.060
-7.450E-06,0.060
-7.440E-06,0.080
-7.430E-06,0.040
-7.420E-06,0.060
-7.410E-06,0.060
-7.400E-06,0.040
-7.390E-06,0.060
-7.380E-06,0.060
-7.370E-06,0.060
-7.360E-06,0.040
-7.350E-06,0.040
-7.340E-06,0.080
-7.330E-06,0.040
-7.320E-06,0.020
-7.310E-06,0.060
-7.300E-06,0.040
-7.290E-06,0.060
-7.280E-06,0.080
-7.270E-06,0.060
-7.260E-06,0.060
-7.250E-06,0.080
-7.240E-06,0.060
-7.230E-06,0.020
-7.220E-06,0.040
-7.210E-06,0.060
-7.200E-06,0.020
-7.190E-06,0.040
-7.180E-06,0.080
-7.170E-06,0.100
-7.160E-06,0.060
-7.150E-06,0.060
-7.140E-06,0.080
-7.130E-06,0.040
-7.120E-06,0.040
-7.110E-06,0.080
-7.100E-06,0.060
-7.090E-06,0.060
-7.080E-06,0.080
-7.070E-06,0.060
-7.060E-06,0.060
-7.050E-06,0.040
-7.040E-06,0.040
-7.030E-06,0.060
-7.020E-06,0.060
-7.010E-06,0.080
-7.000E-06,0.060
-6.990E-06,0.040
-6.980E-06,0.060
-6.970E-06,0.060
-6.960E-06,0.060
-6.950E-06,0.060
-6.940E-06,0.060
-6.930E-06,0.080
-6.920E-06,0.060
-6.910E-06,0.080
-6.900E-06,0.060
-6.890E-06,0.060
-6.880E-06,0.040
-6.870E-06,0.060
-6.860E-06,0.060
-6.850E-06,0.080
-6.840E-06,0.060
-6.830E-06,0.060
-6.820E-06,0.020
-6.810E-06,0.080
-6.800E-06,0.060
-6.790E-06,0.080
-6.780E-06,0.040
-6.770E-06,0.060
-6.760E-06,0.060
-6.750E-06,0.020
-6.740E-06,0.080
-6.730E-06,0.040
-6.720E-06,0.040
-6.710E-06,0.060
-6.700E-06,0.080
-6.690E-06,0.080
-6.680E-06,0.100
-6.670E-06,0.060
-6.660E-06,0.060
-6.650E-06,0.080
-6.640E-06,0.060
-6.630E-06,0.060
-6.620E-06,0.080
-6.610E-06,0.080
-6.600E-06,0.080
-6.590E-06,0.080
-6.580E-06,0.040
-6.570E-06,0.080
-6.560E-06,0.040
-6.550E-06,0.080
-6.540E-06,0.080
-6.530E-06,0.060
-6.520E-06,0.040
-6.510E-06,0.080
-6.500E-06,0.040
-6.490E-06,0.040
-6.480E-06,0.040
-6.470E-06,0.060
-6.460E-06,0.080
-6.450E-06,0.100
-6.440E-06,0.020
-6.430E-06,0.080
-6.420E-06,0.080
-6.410E-06,0.040
-6.400E-06,0.080
-6.390E-06,0.040
-6.380E-06,0.080
-6.370E-06,0.020
-6.360E-06,0.060
-6.350E-06,0.060
-6.340E-06,0.060
-6.330E-06,0.080
-6.320E-06,0.080
-6.310E-06,0.040
-6.300E-06,0.060
-6.290E-06,0.060
-6.280E-06,0.040
-6.270E-06,0.040
-6.260E-06,0.060
-6.250E-06,0.060
-6.240E-06,0.060
-6.230E-06,0.060
-6.220E-06,0.060
-6.210E-06,0.060
-6.200E-06,0.040
-6.190E-06,0.060
-6.180E-06,0.040
-6.170E-06,0.060
-6.160E-06,0.060
-6.150E-06,0.060
-6.140E-06,0.100
-6.130E-06,0.040
-6.120E-06,0.040
-6.110E-06,0.060
-6.100E-06,0.080
-6.090E-06,0.080
-6.080E-06,0.060
-6.070E-06,0.080
-6.060E-06,0.060
-6.050E-06,0.040
-6.040E-06,0.060
-6.030E-06,0.080
-6.020E-06,0.080
-6.010E-06,0.040
-6.000E-06,0.080
-5.990E-06,0.060
-5.980E-06,0.060
-5.970E-06,0.060
-5.960E-06,0.060
-5.950E-06,0.080
-5.940E-06,0.060
-5.930E-06,0.080
-5.920E-06,0.080
-5.910E-06,0.060
-5.900E-06,0.060
-5.890E-06,0.060
-5.880E-06,0.040
-5.870E-06,0.080
-5.860E-06,0.060
-5.850E-06,0.060
-5.840E-06,0.040
-5.830E-06,0.060
-5.820E-06,0.080
-5.810E-06,0.060
-5.800E-06,0.060
-5.790E-06,0.080
-5.780E-06,0.060
-5.770E-06,0.060
-5.760E-06,0.040
-5.750E-06,0.060
-5.740E-06,0.060
-5.730E-06,0.020
-5.720E-06,0.060
-5.710E-06,0.060
-5.700E-06,0.040
-5.690E-06,0.060
-5.680E-06,0.080
-5.670E-06,0.080
-5.660E-06,0.080
-5.650E-06,0.060
-5.640E-06,0.080
-5.630E-06,0.060
-5.620E-06,0.040
-5.610E-06,0.040
-5.600E-06,0.080
-5.590E-06,0.060
-5.580E-06,0.080
-5.570E-06,0.080
-5.560E-06,0.080
-5.550E-06,0.060
-5.540E-06,0.060
-5.530E-06,0.040
-5.520E-06,0.060
-5.510E-06,0.080
-5.500E-06,0.040
-5.490E-06,0.080
-5.480E-06,0.080
-5.470E-06,0.060
-5.460E-06,0.060
-5.450E-06,0.040
-5.440E-06,0.060
-5.430E-06,0.040
-5.420E-06,0.080
-5.410E-06,0.020
-5.400E-06,0.020
-5.390E-06,0.060
-5.380E-06,0.080
-5.370E-06,0.080
-5.360E-06,0.040
-5.350E-06,0.040
-5.340E-06,0.020
-5.330E-06,0.080
-5.320E-06,0.060
-5.310E-06,0.040
-5.300E-06,0.060
-5.290E-06,0.100
-5.280E-06,0.060
-5.270E-06,0.040
-5.260E-06,0.080
-5.250E-06,0.040
-5.240E-06,0.060
-5.230E-06,0.060
-5.220E-06,0.040
-5.210E-06,0.020
-5.200E-06,0.060
-5.190E-06,0.060
-5.180E-06,0.040
-5.170E-06,0.100
-5.160E-06,0.060
-5.150E-06,0.080
-5.140E-06,0.060
-5.130E-06,0.040
-5.120E-06,0.060
-5.110E-06,0.040
-5.100E-06,0.060
-5.090E-06,0.040
-5.080E-06,0.060
-5.070E-06,0.100
-5.060E-06,0.060
-5.050E-06,0.060
-5.040E-06,0.080
-5.030E-06,0.060
-5.020E-06,0.060
-5.010E-06,0.060
-5.000E-06,0.080
-4.990E-06,0.040
-4.980E-06,0.060
-4.970E-06,0.060
-4.960E-06,0.080
-4.950E-06,0.060
-4.940E-06,0.060
-4.930E-06,0.080
-4.920E-06,0.080
-4.910E-06,0.060
-4.900E-06,0.060
-4.890E-06,0.060
-4.880E-06,0.020
-4.870E-06,0.060
-4.860E-06,0.060
-4.850E-06,0.060
-4.840E-06,0.060
-4.830E-06,0.060
-4.820E-06,0.060
-4.810E-06,0.080
-4.800E-06,0.040
-4.790E-06,0.060
-4.780E-06,0.060
-4.770E-06,0.080
-4.760E-06,0.080
-4.750E-06,0.040
-4.740E-06,0.060
-4.730E-06,0.040
-4.720E-06,0.060
-4.710E-06,0.060
-4.700E-06,0.060
-4.690E-06,0.060
-4.680E-06,0.060
-4.670E-06,0.100
-4.660E-06,0.040
-4.650E-06,0.100
-4.640E-06,0.040
-4.630E-06,0.040
-4.620E-06,0.040
-4.610E-06,0.040
-4.600E-06,0.040
-4.590E-06,0.080
-4.580E-06,0.040
-4.570E-06,0.040
-4.560E-06,0.060
-4.550E-06,0.080
-4.540E-06,0.040
-4.530E-06,0.040
-4.520E-06,0.080
-4.510E-06,0.020
-4.500E-06,0.080
-4.490E-06,0.080
-4.480E-06,0.080
-4.470E-06,0.060
-4.460E-06,0.060
-4.450E-06,0.080
-4.440E-06,0.060
-4.430E-06,0.060
-4.420E-06,0.060
-4.410E-06,0.040
-4.400E-06,0.040
-4.390E-06,0.080
-4.380E-06,0.040
-4.370E-06,0.080
-4.360E-06,0.060
-4.350E-06,0.040
-4.340E-06,0.100
-4.330E-06,0.080
-4.320E-06,0.060
-4.310E-06,0.060
-4.300E-06,0.080
-4.290E-06,0.060
-4.280E-06,0.020
-4.270E-06,0.020
-4.260E-06,0.080
-4.250E-06,0.040
-4.240E-06,0.080
-4.230E-06,0.080
-4.220E-06,0.060
-4.210E-06,0.040
-4.200E-06,0.080
-4.190E-06,0.060
-4.180E-06,0.080
-4.170E-06,0.040
-4.160E-06,0.040
-4.150E-06,0.060
-4.140E-06,0.060
-4.130E-06,0.040
-4.120E-06,0.040
-4.110E-06,0.060
-4.100E-06,0.060
-4.090E-06,0.040
-4.080E-06,0.060
-4.070E-06,0.080
-4.060E-06,0.020
-4.050E-06,0.060
-4.040E-06,0.040
-4.030E-06,0.040
-4.020E-06,0.060
-4.010E-06,0.080
-4.000E-06,0.080
-3.990E-06,0.060
-3.980E-06,0.060
-3.970E-06,0.080
-3.960E-06,0.040
-3.950E-06,0.080
-3.940E-06,0.080
-3.930E-06,0.020
-3.920E-06,0.080
-3.910E-06,0.080
-3.900E-06,0.080
-3.890E-06,0.040
-3.880E-06,0.060
-3.870E-06,0.080
-3.860E-06,0.060
-3.850E-06,0.060
-3.840E-06,0.080
-3.830E-06,0.080
-3.820E-06,0.040
-3.810E-06,0.040
-3.800E-06,0.040
-3.790E-06,0.060
-3.780E-06,0.080
-3.770E-06,0.060
-3.760E-06,0.080
-3.750E-06,0.040
-3.740E-06,0.060
-3.730E-06,0.040
-3.720E-06,0.080
-3.710E-06,0.060
-3.700E-06,0.020
-3.690E-06,0.060
-3.680E-06,0.100
-3.670E-06,0.060
-3.660E-06,0.020
-3.650E-06,0.080
-3.640E-06,0.080
-3.630E-06,0.040
-3.620E-06,0.080
-3.610E-06,0.040
-3.600E-06,0.080
-3.590E-06,0.040
-3.580E-06,0.080
-3.570E-06,0.060
-3.560E-06,0.060
-3.550E-06,0.060
-3.540E-06,0.080
-3.530E-06,0.060
-3.520E-06,0.060
-3.510E-06,0.080
-3.500E-06,0.080
-3.490E-06,0.080
-3.480E-06,0.080
-3.470E-06,0.020
-3.460E-06,0.060
-3.450E-06,0.040
-3.440E-06,0.060
-3.430E-06,0.060
-3.420E-06,0.060
-3.410E-06,0.060
-3.400E-06,0.080
-3.390E-06,0.040
-3.380E-06,0.040
-3.370E-06,0.040
-3.360E-06,0.080
-3.350E-06,0.040
-3.340E-06,0.040
-3.330E-06,0.080
-3.320E-06,0.080
-3.310E-06,0.060
-3.300E-06,0.060
-3.290E-06,0.080
-3.280E-06,0.080
-3.270E-06,0.060
-3.260E-06,0.060
-3.250E-06,0.040
-3.240E-06,0.060
-3.230E-06,0.060
-3.220E-06,0.080
-3.210E-06,0.060
-3.200E-06,0.060
-3.190E-06,0.060
-3.180E-06,0.080
-3.170E-06,0.040
-3.160E-06,0.080
-3.150E-06,0.080
-3.140E-06,0.060
-3.130E-06,0.040
-3.120E-06,0.080
-3.110E-06,0.060
-3.100E-06,0.080
-3.090E-06,0.080
-3.080E-06,0.060
-3.070E-06,0.060
-3.060E-06,0.060
-3.050E-06,0.060
-3.040E-06,0.040
-3.030E-06,0.040
-3.020E-06,0.060
-3.010E-06,0.040
-3.000E-06,0.060
-2.990E-06,0.020
-2.980E-06,0.040
-2.970E-06,0.060
-2.960E-06,0.040
-2.950E-06,0.060
-2.940E-06,0.040
-2.930E-06,0.040
-2.920E-06,0.060
-2.910E-06,0.080
-2.900E-06,0.040
-2.890E-06,0.040
-2.880E-06,0.080
-2.870E-06,0.040
-2.860E-06,0.060
-2.850E-06,0.080
-2.840E-06,0.020
-2.830E-06,0.080
-2.820E-06,0.060
-2.810E-06,0.060
-2.800E-06,0.060
-2.790E-06,0.080
-2.780E-06,0.060
-2.770E-06,0.040
-2.760E-06,0.060
-2.750E-06,0.080
-2.740E-06,0.060
-2.730E-06,0.040
-2.720E-06,0.080
-2.710E-06,0.080
-2.700E-06,0.080
-2.690E-06,0.060
-2.680E-06,0.040
-2.670E-06,0.060
-2.660E-06,0.080
-2.650E-06,0.060
-2.640E-06,0.020
-2.630E-06,0.040
-2.620E-06,0.060
-2.610E-06,0.060
-2.600E-06,0.080
-2.590E-06,0.060
-2.580E-06,0.060
-2.570E-06,0.060
-2.560E-06,0.040
-2.550E-06,0.080
-2.540E-06,0.080
-2.530E-06,0.100
-2.520E-06,0.040
-2.510E-06,0.040
-2.500E-06,0.060
-2.490E-06,0.040
-2.480E-06,0.060
-2.470E-06,0.080
-2.460E-06,0.060
-2.450E-06,0.060
-2.440E-06,0.060
-2.430E-06,0.080
-2.420E-06,0.040
-2.410E-06,0.080
-2.400E-06,0.040
-2.390E-06,0.080
-2.380E-06,0.060
-2.370E-06,0.080
-2.360E-06,0.060
-2.350E-06,0.080
-2.340E-06,0.080
-2.330E-06,0.060
-2.320E-06,0.060
-2.310E-06,0.080
-2.300E-06,0.080
-2.290E-06,0.020
-2.280E-06,0.060
-2.270E-06,0.040
-2.260E-06,-0.140
-2.250E-06,-0.640
-2.240E-06,-1.460
-2.230E-06,-2.120
-2.220E-06,-2.120
-2.210E-06,-2.120
-2.200E-06,-2.120
-2.190E-06,-2.120
-2.180E-06,-0.780
-2.170E-06,0.520
-2.160E-06,2.000
-2.150E-06,2.920
-2.140E-06,3.300
-2.130E-06,3.320
-2.120E-06,3.300
-2.110E-06,3.300
-2.100E-06,3.320
-2.090E-06,2.740
-2.080E-06,1.580
-2.070E-06,0.520
-2.060E-06,-0.140
-2.050E-06,-0.720
-2.040E-06,-0.700
-2.030E-06,-0.660
-2.020E-06,-0.620
-2.010E-06,-0.400
-2.000E-06,-0.400
-1.990E-06,-0.620
-1.980E-06,-0.960
-1.970E-06,-1.320
-1.960E-06,-1.740
-1.950E-06,-2.060
-1.940E-06,-2.100
-1.930E-06,-2.120
-1.920E-06,-1.980
-1.910E-06,-1.520
-1.900E-06,-0.900
-1.890E-06,-0.220
-1.880E-06,0.500
-1.870E-06,1.260
-1.860E-06,1.720
-1.850E-06,1.980
-1.840E-06,2.020
-1.830E-06,1.760
-1.820E-06,1.440
-1.810E-06,0.900
-1.800E-06,0.400
-1.790E-06,-0.120
-1.780E-06,-0.540
-1.770E-06,-0.820
-1.760E-06,-1.080
-1.750E-06,-1.100
-1.740E-06,-1.080
-1.730E-06,-0.960
-1.720E-06,-0.820
-1.710E-06,-0.600
-1.700E-06,-0.380
-1.690E-06,-0.200
-1.680E-06,0.040
-1.670E-06,0.320
-1.660E-06,0.580
-1.650E-06,0.840
-1.640E-06,1.040
-1.630E-06,1.160
-1.620E-06,1.260
-1.610E-06,1.220
-1.600E-06,1.120
-1.590E-06,1.100
-1.580E-06,0.860
-1.570E-06,0.640
-1.560E-06,0.380
-1.550E-06,0.180
-1.540E-06,-0.120
-1.530E-06,-0.220
-1.520E-06,-0.340
-1.510E-06,-0.480
-1.500E-06,-0.580
-1.490E-06,-0.640
-1.480E-06,-0.720
-1.470E-06,-0.820
-1.460E-06,-0.760
-1.450E-06,-0.580
-1.440E-06,-0.520
-1.430E-06,-0.380
-1.420E-06,-0.140
-1.410E-06,0.080
-1.400E-06,0.380
-1.390E-06,0.600
-1.380E-06,0.860
-1.370E-06,1.040
-1.360E-06,1.000
-1.350E-06,1.000
-1.340E-06,0.880
-1.330E-06,0.800
-1.320E-06,0.400
-1.310E-06,0.300
-1.300E-06,-0.120
-1.290E-06,-0.300
-1.280E-06,-0.580
-1.270E-06,-0.720
-1.260E-06,-0.640
-1.250E-06,-0.680
-1.240E-06,-0.660
-1.230E-06,-0.580
-1.220E-06,-0.480
-1.210E-06,-0.420
-1.200E-06,-0.360
-1.190E-06,-0.240
-1.180E-06,-0.200
-1.170E-06,-0.140
-1.160E-06,-0.180
-1.150E-06,0.000
-1.140E-06,-0.140
-1.130E-06,0.120
-1.120E-06,0.140
-1.110E-06,0.040
-1.100E-06,-0.120
-1.090E-06,0.020
-1.080E-06,-0.120
-1.070E-06,-0.040
-1.060E-06,-0.180
-1.050E-06,0.220
-1.040E-06,0.420
-1.030E-06,-0.080
-1.020E-06,-0.060
-1.010E-06,-0.120
-1.000E-06,-0.360
-9.900E-07,-0.480
-9.800E-07,-0.540
-9.700E-07,0.180
-9.600E-07,0.220
-9.500E-07,0.020
-9.400E-07,0.180
-9.300E-07,0.080
-9.200E-07,0.040
-9.100E-07,-0.120
-9.000E-07,-0.080
-8.900E-07,0.200
-8.800E-07,0.180
-8.700E-07,0.240
-8.600E-07,0.200
-8.500E-07,0.160
-8.400E-07,0.180
-8.300E-07,0.120
-8.200E-07,0.120
-8.100E-07,0.120
-8.000E-07,0.040
-7.900E-07,-0.080
-7.800E-07,-0.100
-7.700E-07,-0.160
-7.600E-07,-0.400
-7.500E-07,-0.360
-7.400E-07,-0.480
-7.300E-07,-0.580
-7.200E-07,-0.760
-7.100E-07,-0.800
-7.000E-07,-0.660
-6.900E-07,-0.840
-6.800E-07,-0.400
-6.700E-07,-0.520
-6.600E-07,-0.260
-6.500E-07,-0.360
-6.400E-07,-0.380
-6.300E-07,-0.060
-6.200E-07,-0.100
-6.100E-07,-0.480
-6.000E-07,-0.200
-5.900E-07,-0.580
-5.800E-07,-0.620
-5.700E-07,-0.980
-5.600E-07,-0.800
-5.500E-07,-0.560
-5.400E-07,-0.520
-5.300E-07,-0.220
-5.200E-07,0.040
-5.100E-07,0.040
-5.000E-07,-0.060
-4.900E-07,-0.280
-4.800E-07,-0.280
-4.700E-07,-0.400
-4.600E-07,-0.320
-4.500E-07,-0.180
-4.400E-07,0.200
-4.300E-07,1.000
-4.200E-07,1.500
-4.100E-07,2.100
-4.000E-07,1.920
-3.900E-07,1.120
-3.800E-07,0.200
-3.700E-07,-1.080
-3.600E-07,-1.200
-3.500E-07,-2.100
-3.400E-07,-2.100
-3.300E-07,-2.100
-3.200E-07,-2.120
-3.100E-07,-2.120
-3.000E-07,-2.140
-2.900E-07,-2.120
-2.800E-07,-2.120
-2.700E-07,-2.080
-2.600E-07,-1.700
-2.500E-07,-1.480
-2.400E-07,-1.460
-2.300E-07,-1.480
-2.200E-07,-1.360
-2.100E-07,-0.720
-2.000E-07,-0.900
-1.900E-07,-0.320
-1.800E-07,-0.060
-1.700E-07,0.400
-1.600E-07,0.400
-1.500E-07,-0.120
-1.400E-07,-0.180
-1.300E-07,-0.260
-1.200E-07,-0.080
-1.100E-07,0.040
-1.000E-07,-0.920
-9.000E-08,-1.500
-8.000E-08,-2.120
-7.000E-08,-2.120
-6.000E-08,-2.120
-5.000E-08,-2.120
-4.000E-08,-2.120
-3.000E-08,-2.100
-2.000E-08,-2.120
-1.000E-08,-2.120
0.000E+00,-2.140
1.000E-08,-2.120
2.000E-08,-2.120
3.000E-08,-2.120
4.000E-08,-2.060
5.000E-08,-1.040
6.000E-08,-0.860
7.000E-08,-1.100
8.000E-08,-0.860
9.000E-08,0.020
1.000E-07,0.160
1.100E-07,1.440
1.200E-07,1.060
1.300E-07,1.340
1.400E-07,-0.120
1.500E-07,-1.220
1.600E-07,-2.120
1.700E-07,-2.120
1.800E-07,-2.120
1.900E-07,-2.140
2.000E-07,-2.140
2.100E-07,-2.140
2.200E-07,-2.120
2.300E-07,-2.120
