mediciones/curva carac 8-28 limpias/-8/WaveData65658.csv

#timebase=2000000(ps)
,#voltbase=500000(mv/100)
#size=4000
-8.350E-06,0.040
-8.340E-06,0.000
-8.330E-06,0.000
-8.320E-06,0.020
-8.310E-06,0.020
-8.300E-06,0.040
-8.290E-06,0.020
-8.280E-06,0.040
-8.270E-06,0.040
-8.260E-06,0.060
-8.250E-06,0.040
-8.240E-06,0.080
-8.230E-06,0.060
-8.220E-06,0.060
-8.210E-06,0.040
-8.200E-06,0.060
-8.190E-06,0.020
-8.180E-06,0.040
-8.170E-06,0.040
-8.160E-06,0.060
-8.150E-06,0.040
-8.140E-06,0.020
-8.130E-06,0.060
-8.120E-06,0.060
-8.110E-06,0.060
-8.100E-06,0.020
-8.090E-06,0.020
-8.080E-06,0.020
-8.070E-06,0.040
-8.060E-06,0.000
-8.050E-06,0.040
-8.040E-06,0.040
-8.030E-06,0.040
-8.020E-06,0.060
-8.010E-06,0.060
-8.000E-06,0.020
-7.990E-06,0.000
-7.980E-06,0.040
-7.970E-06,0.060
-7.960E-06,0.000
-7.950E-06,0.020
-7.940E-06,0.020
-7.930E-06,0.060
-7.920E-06,0.040
-7.910E-06,0.020
-7.900E-06,0.020
-7.890E-06,0.020
-7.880E-06,0.040
-7.870E-06,0.020
-7.860E-06,-0.020
-7.850E-06,0.040
-7.840E-06,0.020
-7.830E-06,0.040
-7.820E-06,0.040
-7.810E-06,0.020
-7.800E-06,0.060
-7.790E-06,0.040
-7.780E-06,0.020
-7.770E-06,0.020
-7.760E-06,0.040
-7.750E-06,0.060
-7.740E-06,0.060
-7.730E-06,0.020
-7.720E-06,0.020
-7.710E-06,0.020
-7.700E-06,0.060
-7.690E-06,0.020
-7.680E-06,0.020
-7.670E-06,0.020
-7.660E-06,0.060
-7.650E-06,0.000
-7.640E-06,0.020
-7.630E-06,0.060
-7.620E-06,0.020
-7.610E-06,0.060
-7.600E-06,0.060
-7.590E-06,0.060
-7.580E-06,0.040
-7.570E-06,0.060
-7.560E-06,0.040
-7.550E-06,0.060
-7.540E-06,0.060
-7.530E-06,0.060
-7.520E-06,0.020
-7.510E-06,0.040
-7.500E-06,0.040
-7.490E-06,0.080
-7.480E-06,0.040
-7.470E-06,0.040
-7.460E-06,0.060
-7.450E-06,0.040
-7.440E-06,0.020
-7.430E-06,0.040
-7.420E-06,0.040
-7.410E-06,0.080
-7.400E-06,0.040
-7.390E-06,0.020
-7.380E-06,0.040
-7.370E-06,0.020
-7.360E-06,0.040
-7.350E-06,0.020
-7.340E-06,0.020
-7.330E-06,0.040
-7.320E-06,0.020
-7.310E-06,0.060
-7.300E-06,0.020
-7.290E-06,0.040
-7.280E-06,0.060
-7.270E-06,0.060
-7.260E-06,0.020
-7.250E-06,0.060
-7.240E-06,0.040
-7.230E-06,0.080
-7.220E-06,0.020
-7.210E-06,0.000
-7.200E-06,0.020
-7.190E-06,0.020
-7.180E-06,0.040
-7.170E-06,0.040
-7.160E-06,0.040
-7.150E-06,0.060
-7.140E-06,0.060
-7.130E-06,0.040
-7.120E-06,0.060
-7.110E-06,0.080
-7.100E-06,0.040
-7.090E-06,0.060
-7.080E-06,0.060
-7.070E-06,0.000
-7.060E-06,0.040
-7.050E-06,0.040
-7.040E-06,0.060
-7.030E-06,0.040
-7.020E-06,0.020
-7.010E-06,0.020
-7.000E-06,0.040
-6.990E-06,0.000
-6.980E-06,0.040
-6.970E-06,0.040
-6.960E-06,0.020
-6.950E-06,0.020
-6.940E-06,0.060
-6.930E-06,0.020
-6.920E-06,0.040
-6.910E-06,0.020
-6.900E-06,0.060
-6.890E-06,0.080
-6.880E-06,0.060
-6.870E-06,0.060
-6.860E-06,0.000
-6.850E-06,0.020
-6.840E-06,0.020
-6.830E-06,0.020
-6.820E-06,0.040
-6.810E-06,0.040
-6.800E-06,0.060
-6.790E-06,0.040
-6.780E-06,0.040
-6.770E-06,0.060
-6.760E-06,0.020
-6.750E-06,0.060
-6.740E-06,0.040
-6.730E-06,0.020
-6.720E-06,0.040
-6.710E-06,-0.020
-6.700E-06,0.040
-6.690E-06,0.020
-6.680E-06,0.020
-6.670E-06,0.040
-6.660E-06,0.040
-6.650E-06,0.020
-6.640E-06,0.040
-6.630E-06,0.020
-6.620E-06,0.000
-6.610E-06,0.020
-6.600E-06,0.020
-6.590E-06,0.020
-6.580E-06,0.060
-6.570E-06,0.040
-6.560E-06,0.040
-6.550E-06,0.040
-6.540E-06,0.040
-6.530E-06,0.060
-6.520E-06,0.020
-6.510E-06,0.040
-6.500E-06,0.060
-6.490E-06,0.040
-6.480E-06,0.040
-6.470E-06,0.000
-6.460E-06,0.000
-6.450E-06,0.040
-6.440E-06,0.040
-6.430E-06,0.060
-6.420E-06,0.040
-6.410E-06,0.020
-6.400E-06,0.040
-6.390E-06,0.060
-6.380E-06,0.040
-6.370E-06,0.020
-6.360E-06,0.040
-6.350E-06,0.060
-6.340E-06,0.040
-6.330E-06,0.040
-6.320E-06,0.060
-6.310E-06,0.060
-6.300E-06,0.040
-6.290E-06,0.040
-6.280E-06,0.020
-6.270E-06,0.040
-6.260E-06,0.020
-6.250E-06,0.060
-6.240E-06,0.060
-6.230E-06,0.080
-6.220E-06,0.040
-6.210E-06,0.040
-6.200E-06,0.060
-6.190E-06,0.060
-6.180E-06,0.060
-6.170E-06,0.060
-6.160E-06,0.040
-6.150E-06,0.040
-6.140E-06,0.020
-6.130E-06,0.040
-6.120E-06,0.060
-6.110E-06,0.040
-6.100E-06,0.020
-6.090E-06,0.040
-6.080E-06,0.040
-6.070E-06,0.040
-6.060E-06,0.020
-6.050E-06,0.080
-6.040E-06,0.040
-6.030E-06,0.020
-6.020E-06,0.040
-6.010E-06,0.060
-6.000E-06,0.040
-5.990E-06,0.060
-5.980E-06,0.060
-5.970E-06,0.060
-5.960E-06,0.020
-5.950E-06,0.040
-5.940E-06,0.040
-5.930E-06,0.060
-5.920E-06,0.060
-5.910E-06,0.020
-5.900E-06,0.040
-5.890E-06,0.060
-5.880E-06,0.080
-5.870E-06,0.040
-5.860E-06,0.060
-5.850E-06,0.040
-5.840E-06,0.080
-5.830E-06,0.020
-5.820E-06,0.040
-5.810E-06,0.040
-5.800E-06,0.080
-5.790E-06,0.040
-5.780E-06,0.020
-5.770E-06,0.040
-5.760E-06,0.060
-5.750E-06,0.040
-5.740E-06,0.080
-5.730E-06,0.040
-5.720E-06,0.020
-5.710E-06,0.080
-5.700E-06,0.040
-5.690E-06,0.020
-5.680E-06,0.060
-5.670E-06,0.040
-5.660E-06,0.020
-5.650E-06,0.040
-5.640E-06,0.040
-5.630E-06,0.000
-5.620E-06,0.040
-5.610E-06,0.060
-5.600E-06,0.060
-5.590E-06,0.040
-5.580E-06,0.020
-5.570E-06,0.020
-5.560E-06,0.080
-5.550E-06,0.040
-5.540E-06,0.040
-5.530E-06,0.000
-5.520E-06,0.060
-5.510E-06,0.020
-5.500E-06,0.020
-5.490E-06,0.020
-5.480E-06,0.040
-5.470E-06,0.020
-5.460E-06,0.040
-5.450E-06,0.040
-5.440E-06,0.040
-5.430E-06,0.000
-5.420E-06,0.040
-5.410E-06,0.040
-5.400E-06,0.060
-5.390E-06,0.040
-5.380E-06,0.040
-5.370E-06,0.040
-5.360E-06,0.040
-5.350E-06,0.040
-5.340E-06,0.020
-5.330E-06,0.040
-5.320E-06,0.040
-5.310E-06,0.060
-5.300E-06,0.040
-5.290E-06,0.020
-5.280E-06,0.040
-5.270E-06,0.040
-5.260E-06,0.020
-5.250E-06,0.020
-5.240E-06,0.020
-5.230E-06,0.020
-5.220E-06,0.020
-5.210E-06,0.020
-5.200E-06,0.060
-5.190E-06,0.040
-5.180E-06,0.080
-5.170E-06,0.040
-5.160E-06,0.040
-5.150E-06,0.020
-5.140E-06,0.040
-5.130E-06,-0.020
-5.120E-06,0.060
-5.110E-06,0.040
-5.100E-06,0.040
-5.090E-06,0.060
-5.080E-06,0.040
-5.070E-06,0.020
-5.060E-06,0.040
-5.050E-06,0.020
-5.040E-06,0.020
-5.030E-06,0.040
-5.020E-06,0.040
-5.010E-06,0.060
-5.000E-06,0.040
-4.990E-06,0.060
-4.980E-06,0.040
-4.970E-06,0.040
-4.960E-06,0.040
-4.950E-06,0.040
-4.940E-06,0.060
-4.930E-06,0.040
-4.920E-06,0.020
-4.910E-06,0.020
-4.900E-06,0.020
-4.890E-06,0.040
-4.880E-06,0.060
-4.870E-06,0.020
-4.860E-06,0.040
-4.850E-06,0.040
-4.840E-06,0.020
-4.830E-06,0.020
-4.820E-06,0.020
-4.810E-06,0.040
-4.800E-06,0.080
-4.790E-06,0.040
-4.780E-06,0.000
-4.770E-06,0.040
-4.760E-06,-0.020
-4.750E-06,0.060
-4.740E-06,0.040
-4.730E-06,0.040
-4.720E-06,0.020
-4.710E-06,0.060
-4.700E-06,0.080
-4.690E-06,0.060
-4.680E-06,0.080
-4.670E-06,0.020
-4.660E-06,0.020
-4.650E-06,0.060
-4.640E-06,0.040
-4.630E-06,0.060
-4.620E-06,0.060
-4.610E-06,0.020
-4.600E-06,0.040
-4.590E-06,0.040
-4.580E-06,0.080
-4.570E-06,0.000
-4.560E-06,0.060
-4.550E-06,0.040
-4.540E-06,0.040
-4.530E-06,0.020
-4.520E-06,0.060
-4.510E-06,0.040
-4.500E-06,0.020
-4.490E-06,0.040
-4.480E-06,0.060
-4.470E-06,0.080
-4.460E-06,0.060
-4.450E-06,0.060
-4.440E-06,0.040
-4.430E-06,0.040
-4.420E-06,0.060
-4.410E-06,0.020
-4.400E-06,0.020
-4.390E-06,0.040
-4.380E-06,0.040
-4.370E-06,0.060
-4.360E-06,0.060
-4.350E-06,0.020
-4.340E-06,0.040
-4.330E-06,0.000
-4.320E-06,0.040
-4.310E-06,0.000
-4.300E-06,0.040
-4.290E-06,0.020
-4.280E-06,0.040
-4.270E-06,0.080
-4.260E-06,0.040
-4.250E-06,0.000
-4.240E-06,0.060
-4.230E-06,0.000
-4.220E-06,0.040
-4.210E-06,0.040
-4.200E-06,0.020
-4.190E-06,0.060
-4.180E-06,0.020
-4.170E-06,0.040
-4.160E-06,0.020
-4.150E-06,0.060
-4.140E-06,0.020
-4.130E-06,0.040
-4.120E-06,0.060
-4.110E-06,0.020
-4.100E-06,0.060
-4.090E-06,0.080
-4.080E-06,0.020
-4.070E-06,0.040
-4.060E-06,0.080
-4.050E-06,0.020
-4.040E-06,0.020
-4.030E-06,0.040
-4.020E-06,0.060
-4.010E-06,0.020
-4.000E-06,0.040
-3.990E-06,0.060
-3.980E-06,0.040
-3.970E-06,0.020
-3.960E-06,0.020
-3.950E-06,0.040
-3.940E-06,0.060
-3.930E-06,0.080
-3.920E-06,0.020
-3.910E-06,0.040
-3.900E-06,0.060
-3.890E-06,0.060
-3.880E-06,0.020
-3.870E-06,0.040
-3.860E-06,0.040
-3.850E-06,0.060
-3.840E-06,0.040
-3.830E-06,0.020
-3.820E-06,0.040
-3.810E-06,0.060
-3.800E-06,0.020
-3.790E-06,0.020
-3.780E-06,0.060
-3.770E-06,0.040
-3.760E-06,0.060
-3.750E-06,0.060
-3.740E-06,0.060
-3.730E-06,0.020
-3.720E-06,0.020
-3.710E-06,0.000
-3.700E-06,0.060
-3.690E-06,0.040
-3.680E-06,0.060
-3.670E-06,0.060
-3.660E-06,0.060
-3.650E-06,0.060
-3.640E-06,0.020
-3.630E-06,0.040
-3.620E-06,0.020
-3.610E-06,0.040
-3.600E-06,0.020
-3.590E-06,0.020
-3.580E-06,0.020
-3.570E-06,0.020
-3.560E-06,0.040
-3.550E-06,0.040
-3.540E-06,0.020
-3.530E-06,0.020
-3.520E-06,0.040
-3.510E-06,0.060
-3.500E-06,0.080
-3.490E-06,0.040
-3.480E-06,0.020
-3.470E-06,0.040
-3.460E-06,0.040
-3.450E-06,0.020
-3.440E-06,0.060
-3.430E-06,0.040
-3.420E-06,0.060
-3.410E-06,0.020
-3.400E-06,0.060
-3.390E-06,0.020
-3.380E-06,0.060
-3.370E-06,0.060
-3.360E-06,0.020
-3.350E-06,0.000
-3.340E-06,-0.280
-3.330E-06,-0.980
-3.320E-06,-2.020
-3.310E-06,-2.980
-3.300E-06,-3.340
-3.290E-06,-3.220
-3.280E-06,-2.320
-3.270E-06,-0.860
-3.260E-06,0.360
-3.250E-06,1.580
-3.240E-06,2.080
-3.230E-06,2.100
-3.220E-06,2.080
-3.210E-06,2.080
-3.200E-06,2.060
-3.190E-06,2.080
-3.180E-06,2.080
-3.170E-06,1.380
-3.160E-06,0.380
-3.150E-06,-0.280
-3.140E-06,-0.740
-3.130E-06,-0.800
-3.120E-06,-0.680
-3.110E-06,-0.520
-3.100E-06,-0.260
-3.090E-06,-0.300
-3.080E-06,-0.520
-3.070E-06,-0.780
-3.060E-06,-1.180
-3.050E-06,-1.540
-3.040E-06,-1.780
-3.030E-06,-1.960
-3.020E-06,-1.960
-3.010E-06,-1.780
-3.000E-06,-1.400
-2.990E-06,-0.940
-2.980E-06,-0.300
-2.970E-06,0.340
-2.960E-06,1.020
-2.950E-06,1.460
-2.940E-06,1.780
-2.930E-06,1.820
-2.920E-06,1.580
-2.910E-06,1.280
-2.900E-06,0.880
-2.890E-06,0.360
-2.880E-06,-0.120
-2.870E-06,-0.500
-2.860E-06,-0.780
-2.850E-06,-0.940
-2.840E-06,-1.020
-2.830E-06,-0.960
-2.820E-06,-0.880
-2.810E-06,-0.700
-2.800E-06,-0.520
-2.790E-06,-0.380
-2.780E-06,-0.220
-2.770E-06,0.040
-2.760E-06,0.260
-2.750E-06,0.500
-2.740E-06,0.700
-2.730E-06,0.980
-2.720E-06,1.100
-2.710E-06,1.180
-2.700E-06,1.080
-2.690E-06,0.980
-2.680E-06,0.900
-2.670E-06,0.760
-2.660E-06,0.500
-2.650E-06,0.320
-2.640E-06,0.180
-2.630E-06,-0.040
-2.620E-06,-0.420
-2.610E-06,-0.560
-2.600E-06,-0.580
-2.590E-06,-0.660
-2.580E-06,-0.740
-2.570E-06,-0.740
-2.560E-06,-0.700
-2.550E-06,-0.600
-2.540E-06,-0.720
-2.530E-06,-0.660
-2.520E-06,-0.500
-2.510E-06,-0.160
-2.500E-06,-0.040
-2.490E-06,0.280
-2.480E-06,0.520
-2.470E-06,0.820
-2.460E-06,0.840
-2.450E-06,0.860
-2.440E-06,0.920
-2.430E-06,0.800
-2.420E-06,0.680
-2.410E-06,0.520
-2.400E-06,0.260
-2.390E-06,0.000
-2.380E-06,-0.180
-2.370E-06,-0.340
-2.360E-06,-0.460
-2.350E-06,-0.440
-2.340E-06,-0.400
-2.330E-06,-0.440
-2.320E-06,-0.320
-2.310E-06,-0.280
-2.300E-06,-0.260
-2.290E-06,-0.160
-2.280E-06,-0.020
-2.270E-06,-0.040
-2.260E-06,-0.020
-2.250E-06,0.200
-2.240E-06,0.240
-2.230E-06,0.260
-2.220E-06,0.080
-2.210E-06,0.060
-2.200E-06,0.040
-2.190E-06,0.000
-2.180E-06,0.080
-2.170E-06,0.120
-2.160E-06,0.120
-2.150E-06,0.080
-2.140E-06,-0.200
-2.130E-06,-0.040
-2.120E-06,-0.160
-2.110E-06,-0.180
-2.100E-06,-0.180
-2.090E-06,-0.240
-2.080E-06,-0.140
-2.070E-06,-0.180
-2.060E-06,-0.040
-2.050E-06,0.060
-2.040E-06,0.000
-2.030E-06,0.100
-2.020E-06,0.220
-2.010E-06,0.180
-2.000E-06,0.180
-1.990E-06,0.020
-1.980E-06,0.060
-1.970E-06,-0.040
-1.960E-06,-0.060
-1.950E-06,-0.100
-1.940E-06,-0.060
-1.930E-06,-0.140
-1.920E-06,-0.120
-1.910E-06,-0.040
-1.900E-06,-0.320
-1.890E-06,0.000
-1.880E-06,-0.300
-1.870E-06,-0.080
-1.860E-06,-0.160
-1.850E-06,-0.160
-1.840E-06,-0.300
-1.830E-06,-0.220
-1.820E-06,-0.220
-1.810E-06,-0.300
-1.800E-06,-0.040
-1.790E-06,-0.180
-1.780E-06,0.000
-1.770E-06,-0.160
-1.760E-06,-0.200
-1.750E-06,-0.140
-1.740E-06,-0.240
-1.730E-06,-0.120
-1.720E-06,-0.160
-1.710E-06,-0.060
-1.700E-06,0.020
-1.690E-06,-0.060
-1.680E-06,-0.100
-1.670E-06,-0.100
-1.660E-06,-0.080
-1.650E-06,-0.020
-1.640E-06,-0.020
-1.630E-06,0.100
-1.620E-06,0.220
-1.610E-06,0.280
-1.600E-06,0.360
-1.590E-06,0.380
-1.580E-06,0.480
-1.570E-06,0.440
-1.560E-06,0.340
-1.550E-06,0.340
-1.540E-06,0.100
-1.530E-06,-0.100
-1.520E-06,-0.120
-1.510E-06,-0.220
-1.500E-06,-0.260
-1.490E-06,-0.320
-1.480E-06,-0.360
-1.470E-06,-0.220
-1.460E-06,0.380
-1.450E-06,0.920
-1.440E-06,1.800
-1.430E-06,2.040
-1.420E-06,1.800
-1.410E-06,1.180
-1.400E-06,0.400
-1.390E-06,-0.620
-1.380E-06,-1.180
-1.370E-06,-1.880
-1.360E-06,-1.900
-1.350E-06,-2.020
-1.340E-06,-1.720
-1.330E-06,-1.800
-1.320E-06,-2.060
-1.310E-06,-1.800
-1.300E-06,-1.600
-1.290E-06,-1.220
-1.280E-06,-0.520
-1.270E-06,-0.420
-1.260E-06,-0.220
-1.250E-06,-0.140
-1.240E-06,-0.200
-1.230E-06,-0.200
-1.220E-06,-0.240
-1.210E-06,-0.640
-1.200E-06,0.400
-1.190E-06,0.380
-1.180E-06,0.640
-1.170E-06,0.220
-1.160E-06,0.320
-1.150E-06,0.280
-1.140E-06,-0.080
-1.130E-06,-0.100
-1.120E-06,-0.240
-1.110E-06,-0.440
-1.100E-06,-0.620
-1.090E-06,-0.940
-1.080E-06,-1.160
-1.070E-06,-1.260
-1.060E-06,-1.380
-1.050E-06,-1.000
-1.040E-06,-1.020
-1.030E-06,-0.520
-1.020E-06,-0.340
-1.010E-06,0.160
-1.000E-06,0.280
-9.900E-07,0.620
-9.800E-07,0.820
-9.700E-07,0.920
-9.600E-07,1.080
-9.500E-07,1.040
-9.400E-07,0.900
-9.300E-07,0.720
-9.200E-07,0.400
-9.100E-07,0.160
-9.000E-07,-0.240
-8.900E-07,-0.480
-8.800E-07,-0.760
-8.700E-07,-0.600
-8.600E-07,-0.920
-8.500E-07,-0.720
-8.400E-07,-0.940
-8.300E-07,-0.720
-8.200E-07,-0.500
-8.100E-07,-0.360
-8.000E-07,-0.200
-7.900E-07,-0.180
-7.800E-07,-0.160
-7.700E-07,-0.180
-7.600E-07,-0.140
-7.500E-07,-0.100
-7.400E-07,0.020
-7.300E-07,0.020
-7.200E-07,-0.020
-7.100E-07,-0.100
-7.000E-07,-0.160
-6.900E-07,-0.360
-6.800E-07,-0.420
-6.700E-07,-0.520
-6.600E-07,-0.600
-6.500E-07,-0.540
-6.400E-07,-0.740
-6.300E-07,-0.660
-6.200E-07,-0.900
-6.100E-07,-0.180
-6.000E-07,-0.460
-5.900E-07,0.280
-5.800E-07,-0.700
-5.700E-07,-0.400
-5.600E-07,-0.920
-5.500E-07,-1.180
-5.400E-07,-1.360
-5.300E-07,-1.260
-5.200E-07,-1.100
-5.100E-07,-1.100
-5.000E-07,-1.000
-4.900E-07,-0.940
-4.800E-07,-0.980
-4.700E-07,-0.360
-4.600E-07,-1.240
-4.500E-07,-0.820
-4.400E-07,-1.540
-4.300E-07,-1.000
-4.200E-07,-1.200
-4.100E-07,-1.000
-4.000E-07,-0.960
-3.900E-07,-0.860
-3.800E-07,-0.620
-3.700E-07,-0.600
-3.600E-07,-0.440
-3.500E-07,-0.240
-3.400E-07,0.000
-3.300E-07,0.140
-3.200E-07,0.220
-3.100E-07,-0.080
-3.000E-07,0.160
-2.900E-07,0.400
-2.800E-07,0.060
-2.700E-07,0.080
-2.600E-07,-0.020
-2.500E-07,0.100
-2.400E-07,0.120
-2.300E-07,0.200
-2.200E-07,0.440
-2.100E-07,0.060
-2.000E-07,-0.280
-1.900E-07,-0.720
-1.800E-07,-1.300
-1.700E-07,-1.340
-1.600E-07,-1.740
-1.500E-07,-1.780
-1.400E-07,-1.800
-1.300E-07,-1.540
-1.200E-07,-1.380
-1.100E-07,-1.560
-1.000E-07,-1.580
-9.000E-08,-1.620
-8.000E-08,-2.040
-7.000E-08,-1.960
-6.000E-08,-2.080
-5.000E-08,-1.760
-4.000E-08,-1.620
-3.000E-08,-1.840
-2.000E-08,-2.000
-1.000E-08,-2.340
0.000E+00,-2.740
1.000E-08,-2.920
2.000E-08,-2.780
3.000E-08,-2.400
4.000E-08,-1.880
5.000E-08,-1.460
6.000E-08,-1.180
7.000E-08,-1.280
8.000E-08,-1.460
9.000E-08,-1.760
1.000E-07,-1.560
1.100E-07,-1.420
1.200E-07,-1.700
1.300E-07,-1.180
1.400E-07,-1.660
1.500E-07,-1.160
1.600E-07,-2.080
1.700E-07,-1.560
1.800E-07,-2.160
1.900E-07,-1.720
2.000E-07,-2.040
2.100E-07,-2.300
2.200E-07,-1.560
2.300E-07,-2.920
2.400E-07,-3.340
2.500E-07,-3.340
2.600E-07,-3.340
2.700E-07,-3.340
2.800E-07,-3.340
2.900E-07,-3.340
3.000E-07,-3.060
3.100E-07,-2.700
3.200E-07,-2.800
3.300E-07,-1.960
3.400E-07,-2.820
3.500E-07,-0.900
3.600E-07,-3.340
3.700E-07,-2.440
3.800E-07,-3.340
3.900E-07,-3.340
4.000E-07,-3.340
4.100E-07,-3.320
4.200E-07,-3.320
4.300E-07,-2.880
4.400E-07,-2.140
4.500E-07,-2.020
4.600E-07,-1.800
4.700E-07,-1.520
4.800E-07,-1.140
4.900E-07,-0.500
5.000E-07,-0.080
5.100E-07,0.540
5.200E-07,0.900
5.300E-07,1.000
5.400E-07,1.040
5.500E-07,0.940
5.600E-07,1.000
5.700E-07,1.140
5.800E-07,1.340
5.900E-07,1.460
6.000E-07,1.660
6.100E-07,1.680
6.200E-07,1.660
6.300E-07,1.440
6.400E-07,1.300
6.500E-07,1.080
6.600E-07,1.000
6.700E-07,0.880
6.800E-07,0.700
6.900E-07,0.500
7.000E-07,0.220
7.100E-07,-0.120
7.200E-07,-0.340
7.300E-07,-0.540
7.400E-07,-0.660
7.500E-07,-0.740
7.600E-07,-0.680
7.700E-07,-0.680
7.800E-07,-0.600
7.900E-07,-0.560
8.000E-07,-0.740
8.100E-07,-0.960
8.200E-07,-1.320
8.300E-07,-1.580
8.400E-07,-1.800
8.500E-07,-2.020
8.600E-07,-2.180
8.700E-07,-2.340
8.800E-07,-2.440
8.900E-07,-2.660
9.000E-07,-2.860
9.100E-07,-2.820
9.200E-07,-2.900
9.300E-07,-2.780
9.400E-07,-2.720
9.500E-07,-2.620
9.600E-07,-2.640
9.700E-07,-2.660
9.800E-07,-2.840
9.900E-07,-2.920
1.000E-06,-3.000
1.010E-06,-3.080
1.020E-06,-3.060
1.030E-06,-3.000
1.040E-06,-2.840
1.050E-06,-2.760
1.060E-06,-2.560
1.070E-06,-2.400
1.080E-06,-2.380
1.090E-06,-2.280
1.100E-06,-2.540
1.110E-06,-2.420
1.120E-06,-2.540
1.130E-06,-2.400
1.140E-06,-2.340
1.150E-06,-2.220
1.160E-06,-2.040
1.170E-06,-1.880
1.180E-06,-1.780
1.190E-06,-1.720
1.200E-06,-1.680
1.210E-06,-1.620
1.220E-06,-1.460
1.230E-06,-1.280
1.240E-06,-1.000
1.250E-06,-0.900
1.260E-06,-0.660
1.270E-06,-0.660
1.280E-06,-0.400
1.290E-06,-0.420
1.300E-06,-0.360
1.310E-06,-0.300
1.320E-06,-0.240
1.330E-06,-0.220
1.340E-06,-0.260
1.350E-06,-0.160
1.360E-06,-0.200
1.370E-06,-0.100
1.380E-06,-0.080
1.390E-06,-0.120
1.400E-06,-0.040
1.410E-06,-0.140
1.420E-06,-0.240
1.430E-06,-0.220
1.440E-06,-0.400
1.450E-06,-0.440
1.460E-06,-0.560
1.470E-06,-0.560
1.480E-06,-0.560
1.490E-06,-0.460
1.500E-06,-0.460
1.510E-06,-0.480
1.520E-06,-0.420
1.530E-06,-0.360
1.540E-06,-0.240
1.550E-06,-0.140
1.560E-06,-0.120
1.570E-06,-0.160
1.580E-06,-0.140
1.590E-06,-0.340
1.600E-06,-0.220
1.610E-06,-0.220
1.620E-06,-0.240
1.630E-06,-0.260
1.640E-06,-0.260
1.650E-06,-0.460
1.660E-06,-0.480
1.670E-06,-0.580
1.680E-06,-0.520
1.690E-06,-0.640
1.700E-06,-0.540
1.710E-06,-0.780
1.720E-06,-0.680
1.730E-06,-0.480
1.740E-06,-0.300
1.750E-06,-0.100
1.760E-06,-0.020
1.770E-06,-0.060
1.780E-06,-0.160
1.790E-06,-0.060
1.800E-06,0.000
1.810E-06,0.140
1.820E-06,0.180
1.830E-06,0.160
1.840E-06,0.140
1.850E-06,0.080
1.860E-06,0.080
1.870E-06,0.040
1.880E-06,0.080
1.890E-06,0.100
1.900E-06,0.120
1.910E-06,0.120
1.920E-06,0.160
1.930E-06,0.120
1.940E-06,0.120
1.950E-06,0.080
1.960E-06,0.040
1.970E-06,-0.020
1.980E-06,0.000
1.990E-06,-0.020
2.000E-06,-0.040
2.010E-06,-0.040
2.020E-06,0.000
2.030E-06,0.040
2.040E-06,0.160
2.050E-06,0.240
2.060E-06,0.360
2.070E-06,0.500
2.080E-06,0.580
2.090E-06,0.660
2.100E-06,0.660
2.110E-06,0.640
2.120E-06,0.560
2.130E-06,0.460
2.140E-06,0.340
2.150E-06,0.240
2.160E-06,0.220
2.170E-06,0.240
2.180E-06,0.180
2.190E-06,0.260
2.200E-06,0.240
2.210E-06,0.360
2.220E-06,0.260
2.230E-06,0.320
2.240E-06,0.300
2.250E-06,0.280
2.260E-06,0.360
2.270E-06,0.280
2.280E-06,0.260
2.290E-06,0.260
2.300E-06,0.240
2.310E-06,0.260
2.320E-06,0.260
2.330E-06,0.280
2.340E-06,0.220
2.350E-06,0.220
2.360E-06,0.240
2.370E-06,0.320
2.380E-06,0.360
2.390E-06,0.340
2.400E-06,0.340
2.410E-06,0.360
2.420E-06,0.340
2.430E-06,0.340
2.440E-06,0.380
2.450E-06,0.380
2.460E-06,0.420
2.470E-06,0.360
2.480E-06,0.360
2.490E-06,0.340
2.500E-06,0.300
2.510E-06,0.280
2.520E-06,0.260
2.530E-06,0.260
2.540E-06,0.240
2.550E-06,0.240
2.560E-06,0.260
2.570E-06,0.260
2.580E-06,0.300
2.590E-06,0.300
2.600E-06,0.280
2.610E-06,0.260
2.620E-06,0.300
2.630E-06,0.240
2.640E-06,0.260
2.650E-06,0.200
2.660E-06,0.280
2.670E-06,0.260
2.680E-06,0.340
2.690E-06,0.400
2.700E-06,0.480
2.710E-06,0.520
2.720E-06,0.560
2.730E-06,0.620
2.740E-06,0.680
2.750E-06,0.720
2.760E-06,0.760
2.770E-06,0.720
2.780E-06,0.780
2.790E-06,0.780
2.800E-06,0.760
2.810E-06,0.720
2.820E-06,0.720
2.830E-06,0.700
2.840E-06,0.720
2.850E-06,0.660
2.860E-06,0.660
2.870E-06,0.600
2.880E-06,0.540
2.890E-06,0.520
2.900E-06,0.440
2.910E-06,0.400
2.920E-06,0.360
2.930E-06,0.260
2.940E-06,0.200
2.950E-06,0.180
2.960E-06,0.100
2.970E-06,0.100
2.980E-06,0.060
2.990E-06,0.020
3.000E-06,0.020
3.010E-06,-0.100
3.020E-06,-0.120
3.030E-06,-0.180
3.040E-06,-0.200
3.050E-06,-0.240
3.060E-06,-0.260
3.070E-06,-0.300
3.080E-06,-0.200
3.090E-06,-0.180
3.100E-06,-0.180
3.110E-06,-0.240
3.120E-06,-0.200
3.130E-06,-0.180
3.140E-06,-0.140
3.150E-06,-0.140
3.160E-06,-0.060
3.170E-06,-0.040
3.180E-06,-0.040
3.190E-06,-0.020
3.200E-06,-0.060
3.210E-06,-0.040
3.220E-06,-0.040
3.230E-06,-0.040
3.240E-06,-0.020
3.250E-06,0.080
3.260E-06,0.180
3.270E-06,0.260
3.280E-06,0.360
3.290E-06,0.500
3.300E-06,0.620
3.310E-06,0.720
3.320E-06,0.800
