mediciones/curva carac 8-28 limpias/53/WaveData65539.csv

#timebase=2000000(ps)
,#voltbase=500000(mv/100)
#size=4000
-8.350E-06,0.060
-8.340E-06,0.080
-8.330E-06,0.060
-8.320E-06,0.040
-8.310E-06,0.080
-8.300E-06,0.080
-8.290E-06,0.040
-8.280E-06,0.020
-8.270E-06,0.060
-8.260E-06,0.060
-8.250E-06,0.080
-8.240E-06,0.060
-8.230E-06,0.040
-8.220E-06,0.060
-8.210E-06,0.100
-8.200E-06,0.060
-8.190E-06,0.080
-8.180E-06,0.080
-8.170E-06,0.060
-8.160E-06,0.080
-8.150E-06,0.040
-8.140E-06,0.060
-8.130E-06,0.040
-8.120E-06,0.040
-8.110E-06,0.040
-8.100E-06,0.080
-8.090E-06,0.060
-8.080E-06,0.040
-8.070E-06,0.080
-8.060E-06,0.060
-8.050E-06,0.080
-8.040E-06,0.040
-8.030E-06,0.040
-8.020E-06,0.060
-8.010E-06,0.060
-8.000E-06,0.080
-7.990E-06,0.040
-7.980E-06,0.060
-7.970E-06,0.060
-7.960E-06,0.060
-7.950E-06,0.060
-7.940E-06,0.040
-7.930E-06,0.060
-7.920E-06,0.060
-7.910E-06,0.080
-7.900E-06,0.060
-7.890E-06,0.060
-7.880E-06,0.060
-7.870E-06,0.060
-7.860E-06,0.040
-7.850E-06,0.040
-7.840E-06,0.060
-7.830E-06,0.040
-7.820E-06,0.040
-7.810E-06,0.080
-7.800E-06,0.040
-7.790E-06,0.040
-7.780E-06,0.100
-7.770E-06,0.040
-7.760E-06,0.080
-7.750E-06,0.060
-7.740E-06,0.020
-7.730E-06,0.060
-7.720E-06,0.060
-7.710E-06,0.060
-7.700E-06,0.060
-7.690E-06,0.060
-7.680E-06,0.060
-7.670E-06,0.040
-7.660E-06,0.060
-7.650E-06,0.080
-7.640E-06,0.100
-7.630E-06,0.060
-7.620E-06,0.100
-7.610E-06,0.080
-7.600E-06,0.060
-7.590E-06,0.040
-7.580E-06,0.040
-7.570E-06,0.060
-7.560E-06,0.060
-7.550E-06,0.060
-7.540E-06,0.080
-7.530E-06,0.060
-7.520E-06,0.080
-7.510E-06,0.060
-7.500E-06,0.080
-7.490E-06,0.040
-7.480E-06,0.060
-7.470E-06,0.060
-7.460E-06,0.060
-7.450E-06,0.060
-7.440E-06,0.060
-7.430E-06,0.060
-7.420E-06,0.060
-7.410E-06,0.060
-7.400E-06,0.060
-7.390E-06,0.080
-7.380E-06,0.060
-7.370E-06,0.100
-7.360E-06,0.040
-7.350E-06,0.060
-7.340E-06,0.080
-7.330E-06,0.040
-7.320E-06,0.080
-7.310E-06,0.040
-7.300E-06,0.040
-7.290E-06,0.080
-7.280E-06,0.060
-7.270E-06,0.080
-7.260E-06,0.060
-7.250E-06,0.060
-7.240E-06,0.060
-7.230E-06,0.080
-7.220E-06,0.060
-7.210E-06,0.060
-7.200E-06,0.060
-7.190E-06,0.060
-7.180E-06,0.060
-7.170E-06,0.080
-7.160E-06,0.040
-7.150E-06,0.060
-7.140E-06,0.040
-7.130E-06,0.120
-7.120E-06,0.080
-7.110E-06,0.040
-7.100E-06,0.060
-7.090E-06,0.100
-7.080E-06,0.080
-7.070E-06,0.060
-7.060E-06,0.060
-7.050E-06,0.020
-7.040E-06,0.040
-7.030E-06,0.060
-7.020E-06,0.060
-7.010E-06,0.080
-7.000E-06,0.060
-6.990E-06,0.040
-6.980E-06,0.060
-6.970E-06,0.060
-6.960E-06,0.040
-6.950E-06,0.080
-6.940E-06,0.060
-6.930E-06,0.060
-6.920E-06,0.080
-6.910E-06,0.040
-6.900E-06,0.080
-6.890E-06,0.080
-6.880E-06,0.040
-6.870E-06,0.080
-6.860E-06,0.080
-6.850E-06,0.040
-6.840E-06,0.060
-6.830E-06,0.040
-6.820E-06,0.040
-6.810E-06,0.040
-6.800E-06,0.060
-6.790E-06,0.060
-6.780E-06,0.080
-6.770E-06,0.080
-6.760E-06,0.080
-6.750E-06,0.040
-6.740E-06,0.020
-6.730E-06,0.080
-6.720E-06,0.040
-6.710E-06,0.060
-6.700E-06,0.080
-6.690E-06,0.040
-6.680E-06,0.040
-6.670E-06,0.060
-6.660E-06,0.040
-6.650E-06,0.080
-6.640E-06,0.060
-6.630E-06,0.060
-6.620E-06,0.060
-6.610E-06,0.080
-6.600E-06,0.040
-6.590E-06,0.060
-6.580E-06,0.100
-6.570E-06,0.060
-6.560E-06,0.020
-6.550E-06,0.060
-6.540E-06,0.060
-6.530E-06,0.080
-6.520E-06,0.080
-6.510E-06,0.060
-6.500E-06,0.100
-6.490E-06,0.020
-6.480E-06,0.060
-6.470E-06,0.060
-6.460E-06,0.040
-6.450E-06,0.060
-6.440E-06,0.060
-6.430E-06,0.040
-6.420E-06,0.080
-6.410E-06,0.100
-6.400E-06,0.060
-6.390E-06,0.080
-6.380E-06,0.060
-6.370E-06,0.060
-6.360E-06,0.040
-6.350E-06,0.080
-6.340E-06,0.080
-6.330E-06,0.060
-6.320E-06,0.040
-6.310E-06,0.100
-6.300E-06,0.060
-6.290E-06,0.060
-6.280E-06,0.060
-6.270E-06,0.060
-6.260E-06,0.080
-6.250E-06,0.040
-6.240E-06,0.060
-6.230E-06,0.060
-6.220E-06,0.040
-6.210E-06,0.080
-6.200E-06,0.060
-6.190E-06,0.080
-6.180E-06,0.100
-6.170E-06,0.100
-6.160E-06,0.040
-6.150E-06,0.060
-6.140E-06,0.060
-6.130E-06,0.080
-6.120E-06,0.100
-6.110E-06,0.060
-6.100E-06,0.060
-6.090E-06,0.060
-6.080E-06,0.040
-6.070E-06,0.040
-6.060E-06,0.080
-6.050E-06,0.040
-6.040E-06,0.040
-6.030E-06,0.060
-6.020E-06,0.060
-6.010E-06,0.060
-6.000E-06,0.020
-5.990E-06,0.060
-5.980E-06,0.060
-5.970E-06,0.060
-5.960E-06,0.060
-5.950E-06,0.060
-5.940E-06,0.080
-5.930E-06,0.020
-5.920E-06,0.040
-5.910E-06,0.060
-5.900E-06,0.080
-5.890E-06,0.060
-5.880E-06,0.040
-5.870E-06,0.040
-5.860E-06,0.040
-5.850E-06,0.100
-5.840E-06,0.060
-5.830E-06,0.060
-5.820E-06,0.060
-5.810E-06,0.060
-5.800E-06,0.040
-5.790E-06,0.060
-5.780E-06,0.040
-5.770E-06,0.060
-5.760E-06,0.080
-5.750E-06,0.080
-5.740E-06,0.080
-5.730E-06,0.040
-5.720E-06,0.060
-5.710E-06,0.080
-5.700E-06,0.060
-5.690E-06,0.080
-5.680E-06,0.080
-5.670E-06,0.060
-5.660E-06,0.040
-5.650E-06,0.040
-5.640E-06,0.060
-5.630E-06,0.080
-5.620E-06,0.040
-5.610E-06,0.060
-5.600E-06,0.060
-5.590E-06,0.080
-5.580E-06,0.020
-5.570E-06,0.060
-5.560E-06,0.060
-5.550E-06,0.040
-5.540E-06,0.060
-5.530E-06,0.060
-5.520E-06,0.080
-5.510E-06,0.080
-5.500E-06,0.060
-5.490E-06,0.060
-5.480E-06,0.040
-5.470E-06,0.080
-5.460E-06,0.060
-5.450E-06,0.080
-5.440E-06,0.060
-5.430E-06,0.040
-5.420E-06,0.080
-5.410E-06,0.060
-5.400E-06,0.040
-5.390E-06,0.080
-5.380E-06,0.060
-5.370E-06,0.080
-5.360E-06,0.040
-5.350E-06,0.060
-5.340E-06,0.060
-5.330E-06,0.060
-5.320E-06,0.080
-5.310E-06,0.080
-5.300E-06,0.020
-5.290E-06,0.040
-5.280E-06,0.040
-5.270E-06,0.060
-5.260E-06,0.080
-5.250E-06,0.040
-5.240E-06,0.120
-5.230E-06,0.060
-5.220E-06,0.060
-5.210E-06,0.080
-5.200E-06,0.040
-5.190E-06,0.060
-5.180E-06,0.060
-5.170E-06,0.040
-5.160E-06,0.060
-5.150E-06,0.080
-5.140E-06,0.020
-5.130E-06,0.080
-5.120E-06,0.060
-5.110E-06,0.060
-5.100E-06,0.040
-5.090E-06,0.060
-5.080E-06,0.060
-5.070E-06,0.100
-5.060E-06,0.060
-5.050E-06,0.080
-5.040E-06,0.040
-5.030E-06,0.120
-5.020E-06,0.060
-5.010E-06,0.040
-5.000E-06,0.080
-4.990E-06,0.060
-4.980E-06,0.040
-4.970E-06,0.060
-4.960E-06,0.080
-4.950E-06,0.080
-4.940E-06,0.060
-4.930E-06,0.060
-4.920E-06,0.060
-4.910E-06,0.060
-4.900E-06,0.060
-4.890E-06,0.060
-4.880E-06,0.040
-4.870E-06,0.060
-4.860E-06,0.080
-4.850E-06,0.040
-4.840E-06,0.040
-4.830E-06,0.060
-4.820E-06,0.080
-4.810E-06,0.040
-4.800E-06,0.080
-4.790E-06,0.060
-4.780E-06,0.080
-4.770E-06,0.080
-4.760E-06,0.060
-4.750E-06,0.080
-4.740E-06,0.020
-4.730E-06,0.060
-4.720E-06,0.080
-4.710E-06,0.040
-4.700E-06,0.060
-4.690E-06,0.020
-4.680E-06,0.080
-4.670E-06,0.080
-4.660E-06,0.060
-4.650E-06,0.060
-4.640E-06,0.040
-4.630E-06,0.040
-4.620E-06,0.080
-4.610E-06,0.040
-4.600E-06,0.020
-4.590E-06,0.080
-4.580E-06,0.100
-4.570E-06,0.060
-4.560E-06,0.060
-4.550E-06,0.100
-4.540E-06,0.100
-4.530E-06,0.060
-4.520E-06,0.040
-4.510E-06,0.020
-4.500E-06,0.060
-4.490E-06,0.060
-4.480E-06,0.060
-4.470E-06,0.080
-4.460E-06,0.080
-4.450E-06,0.040
-4.440E-06,0.040
-4.430E-06,0.060
-4.420E-06,0.060
-4.410E-06,0.060
-4.400E-06,0.080
-4.390E-06,0.040
-4.380E-06,0.100
-4.370E-06,0.060
-4.360E-06,0.080
-4.350E-06,0.060
-4.340E-06,0.060
-4.330E-06,0.040
-4.320E-06,0.080
-4.310E-06,0.040
-4.300E-06,0.060
-4.290E-06,0.040
-4.280E-06,0.040
-4.270E-06,0.080
-4.260E-06,0.060
-4.250E-06,0.040
-4.240E-06,0.080
-4.230E-06,0.060
-4.220E-06,0.060
-4.210E-06,0.060
-4.200E-06,0.060
-4.190E-06,0.060
-4.180E-06,0.060
-4.170E-06,0.040
-4.160E-06,0.080
-4.150E-06,0.100
-4.140E-06,0.060
-4.130E-06,0.060
-4.120E-06,0.060
-4.110E-06,0.040
-4.100E-06,0.040
-4.090E-06,0.080
-4.080E-06,0.060
-4.070E-06,0.040
-4.060E-06,0.040
-4.050E-06,0.060
-4.040E-06,0.040
-4.030E-06,0.060
-4.020E-06,0.040
-4.010E-06,0.080
-4.000E-06,0.060
-3.990E-06,0.060
-3.980E-06,0.080
-3.970E-06,0.060
-3.960E-06,0.100
-3.950E-06,0.060
-3.940E-06,0.040
-3.930E-06,0.060
-3.920E-06,0.060
-3.910E-06,0.080
-3.900E-06,0.100
-3.890E-06,0.040
-3.880E-06,0.060
-3.870E-06,0.100
-3.860E-06,0.060
-3.850E-06,0.060
-3.840E-06,0.080
-3.830E-06,0.060
-3.820E-06,0.060
-3.810E-06,0.080
-3.800E-06,0.040
-3.790E-06,0.020
-3.780E-06,0.040
-3.770E-06,0.060
-3.760E-06,0.020
-3.750E-06,0.060
-3.740E-06,0.080
-3.730E-06,0.060
-3.720E-06,0.060
-3.710E-06,0.100
-3.700E-06,0.080
-3.690E-06,0.020
-3.680E-06,0.040
-3.670E-06,0.040
-3.660E-06,0.080
-3.650E-06,0.080
-3.640E-06,0.060
-3.630E-06,0.060
-3.620E-06,0.060
-3.610E-06,0.080
-3.600E-06,0.040
-3.590E-06,0.060
-3.580E-06,0.080
-3.570E-06,0.080
-3.560E-06,0.060
-3.550E-06,0.040
-3.540E-06,0.040
-3.530E-06,0.080
-3.520E-06,0.040
-3.510E-06,0.080
-3.500E-06,0.060
-3.490E-06,0.060
-3.480E-06,0.060
-3.470E-06,0.060
-3.460E-06,0.120
-3.450E-06,0.060
-3.440E-06,0.060
-3.430E-06,0.060
-3.420E-06,0.020
-3.410E-06,0.060
-3.400E-06,0.020
-3.390E-06,0.060
-3.380E-06,0.060
-3.370E-06,0.040
-3.360E-06,0.040
-3.350E-06,0.060
-3.340E-06,0.120
-3.330E-06,0.060
-3.320E-06,0.040
-3.310E-06,0.060
-3.300E-06,0.100
-3.290E-06,0.040
-3.280E-06,0.080
-3.270E-06,0.060
-3.260E-06,0.080
-3.250E-06,0.060
-3.240E-06,0.080
-3.230E-06,0.080
-3.220E-06,0.080
-3.210E-06,0.060
-3.200E-06,0.060
-3.190E-06,0.060
-3.180E-06,0.080
-3.170E-06,0.060
-3.160E-06,0.060
-3.150E-06,0.040
-3.140E-06,0.080
-3.130E-06,0.060
-3.120E-06,0.080
-3.110E-06,0.060
-3.100E-06,0.060
-3.090E-06,0.080
-3.080E-06,0.060
-3.070E-06,0.040
-3.060E-06,0.080
-3.050E-06,0.060
-3.040E-06,0.080
-3.030E-06,0.060
-3.020E-06,0.060
-3.010E-06,0.040
-3.000E-06,-0.020
-2.990E-06,-0.340
-2.980E-06,-1.120
-2.970E-06,-2.140
-2.960E-06,-2.120
-2.950E-06,-2.120
-2.940E-06,-2.120
-2.930E-06,-2.120
-2.920E-06,-2.120
-2.910E-06,-1.040
-2.900E-06,0.700
-2.890E-06,2.360
-2.880E-06,3.300
-2.870E-06,3.300
-2.860E-06,3.300
-2.850E-06,3.280
-2.840E-06,3.300
-2.830E-06,3.320
-2.820E-06,3.100
-2.810E-06,1.880
-2.800E-06,0.760
-2.790E-06,-0.140
-2.780E-06,-0.640
-2.770E-06,-0.900
-2.760E-06,-0.820
-2.750E-06,-0.740
-2.740E-06,-0.660
-2.730E-06,-0.700
-2.720E-06,-0.940
-2.710E-06,-1.300
-2.700E-06,-1.800
-2.690E-06,-2.120
-2.680E-06,-2.120
-2.670E-06,-2.120
-2.660E-06,-2.120
-2.650E-06,-2.120
-2.640E-06,-1.820
-2.630E-06,-1.120
-2.620E-06,-0.160
-2.610E-06,0.700
-2.600E-06,1.500
-2.590E-06,2.040
-2.580E-06,2.400
-2.570E-06,2.380
-2.560E-06,2.140
-2.550E-06,1.680
-2.540E-06,1.100
-2.530E-06,0.480
-2.520E-06,-0.200
-2.510E-06,-0.720
-2.500E-06,-1.060
-2.490E-06,-1.380
-2.480E-06,-1.360
-2.470E-06,-1.360
-2.460E-06,-1.120
-2.450E-06,-0.940
-2.440E-06,-0.680
-2.430E-06,-0.420
-2.420E-06,-0.160
-2.410E-06,0.260
-2.400E-06,0.560
-2.390E-06,0.780
-2.380E-06,1.020
-2.370E-06,1.380
-2.360E-06,1.400
-2.350E-06,1.520
-2.340E-06,1.400
-2.330E-06,1.420
-2.320E-06,1.100
-2.310E-06,0.940
-2.300E-06,0.620
-2.290E-06,0.480
-2.280E-06,0.460
-2.270E-06,-0.080
-2.260E-06,-0.140
-2.250E-06,-0.400
-2.240E-06,-0.620
-2.230E-06,-0.840
-2.220E-06,-0.940
-2.210E-06,-0.920
-2.200E-06,-0.940
-2.190E-06,-0.960
-2.180E-06,-0.800
-2.170E-06,-0.700
-2.160E-06,-0.440
-2.150E-06,-0.140
-2.140E-06,0.120
-2.130E-06,0.520
-2.120E-06,0.720
-2.110E-06,1.120
-2.100E-06,1.340
-2.090E-06,1.260
-2.080E-06,1.200
-2.070E-06,1.300
-2.060E-06,0.840
-2.050E-06,0.540
-2.040E-06,0.220
-2.030E-06,-0.100
-2.020E-06,-0.440
-2.010E-06,-0.620
-2.000E-06,-0.820
-1.990E-06,-0.800
-1.980E-06,-0.780
-1.970E-06,-0.620
-1.960E-06,-0.540
-1.950E-06,-0.420
-1.940E-06,-0.260
-1.930E-06,-0.140
-1.920E-06,-0.040
-1.910E-06,0.080
-1.900E-06,0.200
-1.890E-06,0.200
-1.880E-06,0.180
-1.870E-06,0.180
-1.860E-06,0.220
-1.850E-06,0.260
-1.840E-06,0.300
-1.830E-06,0.360
-1.820E-06,0.360
-1.810E-06,0.400
-1.800E-06,0.340
-1.790E-06,0.320
-1.780E-06,0.260
-1.770E-06,0.140
-1.760E-06,0.180
-1.750E-06,-0.060
-1.740E-06,-0.040
-1.730E-06,-0.220
-1.720E-06,-0.100
-1.710E-06,0.020
-1.700E-06,-0.040
-1.690E-06,-0.140
-1.680E-06,-0.080
-1.670E-06,-0.200
-1.660E-06,-0.240
-1.650E-06,-0.120
-1.640E-06,0.020
-1.630E-06,0.220
-1.620E-06,0.140
-1.610E-06,0.400
-1.600E-06,0.100
-1.590E-06,0.220
-1.580E-06,-0.020
-1.570E-06,-0.060
-1.560E-06,-0.140
-1.550E-06,-0.140
-1.540E-06,-0.080
-1.530E-06,-0.060
-1.520E-06,-0.100
-1.510E-06,0.000
-1.500E-06,-0.060
-1.490E-06,-0.100
-1.480E-06,-0.140
-1.470E-06,-0.140
-1.460E-06,-0.160
-1.450E-06,-0.100
-1.440E-06,-0.060
-1.430E-06,-0.060
-1.420E-06,-0.040
-1.410E-06,-0.080
-1.400E-06,0.020
-1.390E-06,-0.140
-1.380E-06,0.000
-1.370E-06,-0.600
-1.360E-06,0.100
-1.350E-06,0.180
-1.340E-06,-0.480
-1.330E-06,0.180
-1.320E-06,0.360
-1.310E-06,-0.400
-1.300E-06,0.220
-1.290E-06,-0.080
-1.280E-06,0.480
-1.270E-06,-0.140
-1.260E-06,0.200
-1.250E-06,0.120
-1.240E-06,-0.120
-1.230E-06,0.000
-1.220E-06,0.120
-1.210E-06,-0.120
-1.200E-06,-0.200
-1.190E-06,0.020
-1.180E-06,-0.220
-1.170E-06,-0.240
-1.160E-06,0.000
-1.150E-06,-0.220
-1.140E-06,-0.140
-1.130E-06,-0.240
-1.120E-06,-0.060
-1.110E-06,0.140
-1.100E-06,0.640
-1.090E-06,1.540
-1.080E-06,2.320
-1.070E-06,2.480
-1.060E-06,2.440
-1.050E-06,1.900
-1.040E-06,1.100
-1.030E-06,0.300
-1.020E-06,-0.320
-1.010E-06,-0.380
-1.000E-06,-0.520
-9.900E-07,-0.680
-9.800E-07,-1.380
-9.700E-07,-1.980
-9.600E-07,-2.120
-9.500E-07,-2.120
-9.400E-07,-2.140
-9.300E-07,-1.700
-9.200E-07,-1.420
-9.100E-07,-1.340
-9.000E-07,-1.280
-8.900E-07,-1.320
-8.800E-07,-1.320
-8.700E-07,-0.940
-8.600E-07,-0.320
-8.500E-07,0.240
-8.400E-07,0.580
-8.300E-07,0.840
-8.200E-07,1.020
-8.100E-07,1.200
-8.000E-07,1.300
-7.900E-07,1.380
-7.800E-07,1.580
-7.700E-07,1.540
-7.600E-07,1.260
-7.500E-07,0.900
-7.400E-07,0.480
-7.300E-07,0.000
-7.200E-07,-0.440
-7.100E-07,-0.760
-7.000E-07,-0.940
-6.900E-07,-1.080
-6.800E-07,-1.120
-6.700E-07,-1.280
-6.600E-07,-0.880
-6.500E-07,-0.500
-6.400E-07,0.020
-6.300E-07,0.380
-6.200E-07,0.640
-6.100E-07,0.660
-6.000E-07,0.420
-5.900E-07,0.400
-5.800E-07,0.300
-5.700E-07,0.380
-5.600E-07,0.380
-5.500E-07,0.300
-5.400E-07,0.120
-5.300E-07,-0.200
-5.200E-07,-0.380
-5.100E-07,-0.480
-5.000E-07,-0.640
-4.900E-07,-0.560
-4.800E-07,-0.560
-4.700E-07,-0.580
-4.600E-07,-0.600
-4.500E-07,-0.660
-4.400E-07,-0.680
-4.300E-07,-0.720
-4.200E-07,-0.640
-4.100E-07,-0.560
-4.000E-07,-0.420
-3.900E-07,-0.300
-3.800E-07,-0.140
-3.700E-07,0.060
-3.600E-07,0.240
-3.500E-07,0.360
-3.400E-07,0.600
-3.300E-07,0.800
-3.200E-07,0.760
-3.100E-07,0.760
-3.000E-07,0.540
-2.900E-07,0.340
-2.800E-07,0.040
-2.700E-07,-0.320
-2.600E-07,-0.280
-2.500E-07,-0.520
-2.400E-07,-0.520
-2.300E-07,-0.660
-2.200E-07,-0.700
-2.100E-07,-0.680
-2.000E-07,-0.740
-1.900E-07,-0.660
-1.800E-07,-0.520
-1.700E-07,-0.380
-1.600E-07,-0.220
-1.500E-07,-0.340
-1.400E-07,-0.140
-1.300E-07,-0.240
-1.200E-07,-0.160
-1.100E-07,-0.180
-1.000E-07,-0.180
-9.000E-08,-0.340
-8.000E-08,-0.060
-7.000E-08,-0.280
-6.000E-08,-0.060
-5.000E-08,0.520
-4.000E-08,-0.360
-3.000E-08,0.380
-2.000E-08,0.720
-1.000E-08,0.360
0.000E+00,0.020
1.000E-08,-0.500
2.000E-08,0.200
3.000E-08,0.020
4.000E-08,0.360
5.000E-08,0.220
6.000E-08,0.120
7.000E-08,0.000
8.000E-08,-0.120
9.000E-08,0.000
1.000E-07,-0.140
1.100E-07,-0.060
1.200E-07,-0.160
1.300E-07,-0.300
1.400E-07,-0.300
1.500E-07,-0.360
1.600E-07,-0.380
1.700E-07,-0.320
1.800E-07,-0.500
1.900E-07,-0.600
2.000E-07,-0.440
2.100E-07,-0.360
2.200E-07,-0.380
2.300E-07,-0.100
2.400E-07,0.040
2.500E-07,0.200
2.600E-07,0.400
2.700E-07,0.100
2.800E-07,0.680
2.900E-07,0.520
3.000E-07,0.480
3.100E-07,0.440
3.200E-07,0.340
3.300E-07,0.180
3.400E-07,0.100
3.500E-07,-0.120
3.600E-07,-0.140
3.700E-07,-0.180
3.800E-07,-0.340
3.900E-07,-0.340
4.000E-07,-0.300
4.100E-07,-0.200
4.200E-07,-0.260
4.300E-07,-0.380
4.400E-07,-0.480
4.500E-07,-0.440
4.600E-07,-0.460
4.700E-07,-0.460
4.800E-07,-0.320
4.900E-07,-0.280
5.000E-07,-0.120
5.100E-07,0.120
5.200E-07,0.120
5.300E-07,0.420
5.400E-07,0.520
5.500E-07,0.360
5.600E-07,0.560
5.700E-07,0.400
5.800E-07,0.180
5.900E-07,0.060
6.000E-07,-0.160
6.100E-07,-0.220
6.200E-07,-0.380
6.300E-07,-0.420
6.400E-07,-0.520
6.500E-07,-0.560
6.600E-07,-0.620
6.700E-07,-0.480
6.800E-07,-0.460
6.900E-07,-0.400
7.000E-07,-0.300
7.100E-07,-0.180
7.200E-07,-0.100
7.300E-07,0.020
7.400E-07,0.120
7.500E-07,0.200
7.600E-07,0.260
7.700E-07,0.300
7.800E-07,0.320
7.900E-07,0.320
8.000E-07,0.320
8.100E-07,0.300
8.200E-07,0.200
8.300E-07,0.160
8.400E-07,0.120
8.500E-07,0.000
8.600E-07,-0.060
8.700E-07,-0.140
8.800E-07,-0.200
8.900E-07,-0.300
9.000E-07,-0.400
9.100E-07,-0.400
9.200E-07,-0.440
9.300E-07,-0.420
9.400E-07,-0.420
9.500E-07,-0.320
9.600E-07,-0.320
9.700E-07,-0.140
9.800E-07,-0.140
9.900E-07,0.080
1.000E-06,0.180
1.010E-06,0.240
1.020E-06,0.360
1.030E-06,0.400
1.040E-06,0.420
1.050E-06,0.420
1.060E-06,0.380
1.070E-06,0.220
1.080E-06,0.080
1.090E-06,-0.020
1.100E-06,-0.160
1.110E-06,-0.220
1.120E-06,-0.180
1.130E-06,-0.120
1.140E-06,-0.180
1.150E-06,-0.160
1.160E-06,-0.180
1.170E-06,-0.040
1.180E-06,-0.100
1.190E-06,-0.140
1.200E-06,-0.080
1.210E-06,-0.140
1.220E-06,-0.080
1.230E-06,-0.220
1.240E-06,-0.160
1.250E-06,-0.220
1.260E-06,-0.200
1.270E-06,-0.120
1.280E-06,-0.300
1.290E-06,0.000
1.300E-06,-0.140
1.310E-06,-0.140
1.320E-06,-0.160
1.330E-06,-0.100
1.340E-06,-0.040
1.350E-06,-0.120
1.360E-06,-0.120
1.370E-06,-0.060
1.380E-06,-0.180
1.390E-06,-0.200
1.400E-06,-0.320
1.410E-06,-0.380
1.420E-06,-0.320
1.430E-06,-0.340
1.440E-06,-0.380
1.450E-06,-0.340
1.460E-06,-0.380
1.470E-06,-0.360
1.480E-06,-0.360
1.490E-06,-0.420
1.500E-06,-0.360
1.510E-06,-0.340
1.520E-06,-0.320
1.530E-06,-0.380
1.540E-06,-0.300
1.550E-06,-0.400
1.560E-06,-0.300
1.570E-06,-0.200
1.580E-06,-0.060
1.590E-06,0.060
1.600E-06,0.040
1.610E-06,0.040
1.620E-06,0.100
1.630E-06,-0.080
1.640E-06,-0.040
1.650E-06,-0.300
1.660E-06,-0.580
1.670E-06,-1.000
1.680E-06,-1.300
1.690E-06,-1.380
1.700E-06,-1.460
1.710E-06,-1.480
1.720E-06,-1.360
1.730E-06,-1.240
1.740E-06,-0.940
1.750E-06,-0.680
1.760E-06,-0.540
1.770E-06,-0.380
1.780E-06,-0.180
1.790E-06,0.060
1.800E-06,0.280
1.810E-06,0.400
1.820E-06,0.580
1.830E-06,0.600
1.840E-06,0.680
1.850E-06,0.640
1.860E-06,0.420
1.870E-06,0.060
1.880E-06,-0.840
1.890E-06,-1.360
1.900E-06,-1.840
1.910E-06,-1.840
1.920E-06,-1.840
1.930E-06,-1.600
1.940E-06,-1.400
1.950E-06,-1.360
1.960E-06,-1.360
1.970E-06,-1.460
1.980E-06,-1.460
1.990E-06,-1.320
2.000E-06,-0.960
2.010E-06,-0.440
2.020E-06,-0.280
2.030E-06,-0.020
2.040E-06,-0.320
2.050E-06,-0.280
2.060E-06,0.120
2.070E-06,0.640
2.080E-06,0.960
2.090E-06,1.300
2.100E-06,1.560
2.110E-06,1.720
2.120E-06,1.200
2.130E-06,-0.320
2.140E-06,-1.160
2.150E-06,-2.120
2.160E-06,-2.140
2.170E-06,-2.140
2.180E-06,-2.120
2.190E-06,-2.120
2.200E-06,-2.120
2.210E-06,-2.120
2.220E-06,-2.140
2.230E-06,-1.880
2.240E-06,-1.600
2.250E-06,-1.320
2.260E-06,-0.740
2.270E-06,-0.120
2.280E-06,0.800
2.290E-06,1.500
2.300E-06,1.380
2.310E-06,2.620
2.320E-06,1.780
2.330E-06,1.700
2.340E-06,0.560
2.350E-06,-0.360
2.360E-06,-1.960
2.370E-06,-2.120
2.380E-06,-2.120
2.390E-06,-2.120
2.400E-06,-2.140
2.410E-06,-2.120
2.420E-06,-2.120
2.430E-06,-2.120
2.440E-06,-2.140
2.450E-06,-2.140
2.460E-06,-1.960
2.470E-06,-1.560
2.480E-06,-0.740
2.490E-06,0.160
2.500E-06,0.960
2.510E-06,1.620
2.520E-06,1.860
2.530E-06,1.680
2.540E-06,1.040
2.550E-06,1.540
2.560E-06,1.380
2.570E-06,1.040
2.580E-06,0.480
2.590E-06,-0.800
2.600E-06,-1.740
2.610E-06,-2.120
2.620E-06,-2.140
2.630E-06,-2.120
2.640E-06,-2.120
2.650E-06,-2.120
2.660E-06,-2.140
2.670E-06,-2.140
2.680E-06,-2.120
2.690E-06,-2.120
2.700E-06,-2.100
2.710E-06,-2.120
2.720E-06,-2.120
2.730E-06,-2.060
2.740E-06,-2.120
2.750E-06,-2.120
2.760E-06,-2.120
2.770E-06,-2.140
2.780E-06,-2.120
2.790E-06,-2.120
2.800E-06,-2.120
2.810E-06,-2.120
2.820E-06,-2.120
2.830E-06,-2.100
2.840E-06,-2.100
2.850E-06,-2.100
2.860E-06,-2.120
2.870E-06,-2.120
2.880E-06,-2.140
2.890E-06,-2.140
2.900E-06,-1.600
2.910E-06,-1.020
2.920E-06,-0.660
2.930E-06,-0.320
2.940E-06,-0.020
2.950E-06,0.300
2.960E-06,0.700
2.970E-06,1.100
2.980E-06,1.480
2.990E-06,1.780
3.000E-06,2.040
3.010E-06,2.160
3.020E-06,2.120
3.030E-06,2.020
3.040E-06,1.860
3.050E-06,1.640
3.060E-06,1.420
3.070E-06,1.240
3.080E-06,1.020
3.090E-06,0.860
3.100E-06,0.660
3.110E-06,0.500
3.120E-06,0.340
3.130E-06,0.200
3.140E-06,0.140
3.150E-06,0.180
3.160E-06,0.240
3.170E-06,0.360
3.180E-06,0.420
3.190E-06,0.500
3.200E-06,0.500
3.210E-06,0.380
3.220E-06,0.180
3.230E-06,-0.060
3.240E-06,-0.260
3.250E-06,-0.420
3.260E-06,-0.520
3.270E-06,-0.600
3.280E-06,-0.640
3.290E-06,-0.720
3.300E-06,-0.780
3.310E-06,-0.760
3.320E-06,-0.760
3.330E-06,-0.720
