mediciones/curva carac 8-28 limpias/-60/WaveData651039.csv

#timebase=2000000(ps)
,#voltbase=500000(mv/100)
#size=4000
-8.350E-06,0.040
-8.340E-06,0.020
-8.330E-06,0.020
-8.320E-06,0.060
-8.310E-06,0.040
-8.300E-06,0.040
-8.290E-06,0.040
-8.280E-06,0.020
-8.270E-06,0.020
-8.260E-06,0.040
-8.250E-06,0.040
-8.240E-06,0.080
-8.230E-06,0.060
-8.220E-06,0.080
-8.210E-06,0.040
-8.200E-06,0.060
-8.190E-06,0.040
-8.180E-06,0.040
-8.170E-06,0.060
-8.160E-06,0.040
-8.150E-06,0.040
-8.140E-06,0.080
-8.130E-06,0.060
-8.120E-06,0.060
-8.110E-06,0.040
-8.100E-06,0.060
-8.090E-06,0.080
-8.080E-06,0.080
-8.070E-06,0.040
-8.060E-06,0.040
-8.050E-06,0.040
-8.040E-06,0.040
-8.030E-06,0.040
-8.020E-06,0.060
-8.010E-06,0.060
-8.000E-06,0.060
-7.990E-06,0.060
-7.980E-06,0.000
-7.970E-06,0.040
-7.960E-06,0.040
-7.950E-06,0.080
-7.940E-06,0.000
-7.930E-06,0.060
-7.920E-06,0.060
-7.910E-06,0.040
-7.900E-06,0.040
-7.890E-06,0.020
-7.880E-06,0.040
-7.870E-06,0.020
-7.860E-06,0.060
-7.850E-06,0.040
-7.840E-06,0.040
-7.830E-06,0.060
-7.820E-06,0.040
-7.810E-06,0.040
-7.800E-06,0.040
-7.790E-06,0.040
-7.780E-06,0.040
-7.770E-06,0.040
-7.760E-06,0.040
-7.750E-06,0.040
-7.740E-06,0.060
-7.730E-06,0.040
-7.720E-06,0.060
-7.710E-06,0.000
-7.700E-06,0.040
-7.690E-06,0.040
-7.680E-06,0.080
-7.670E-06,0.060
-7.660E-06,0.060
-7.650E-06,0.060
-7.640E-06,0.040
-7.630E-06,0.040
-7.620E-06,0.040
-7.610E-06,0.040
-7.600E-06,0.060
-7.590E-06,0.040
-7.580E-06,0.040
-7.570E-06,0.080
-7.560E-06,0.040
-7.550E-06,0.060
-7.540E-06,0.060
-7.530E-06,0.040
-7.520E-06,0.060
-7.510E-06,0.060
-7.500E-06,0.060
-7.490E-06,0.060
-7.480E-06,0.080
-7.470E-06,0.060
-7.460E-06,0.040
-7.450E-06,0.040
-7.440E-06,0.040
-7.430E-06,0.060
-7.420E-06,0.040
-7.410E-06,0.000
-7.400E-06,0.060
-7.390E-06,0.040
-7.380E-06,0.020
-7.370E-06,0.060
-7.360E-06,0.040
-7.350E-06,0.060
-7.340E-06,0.060
-7.330E-06,0.040
-7.320E-06,0.020
-7.310E-06,0.060
-7.300E-06,0.060
-7.290E-06,0.040
-7.280E-06,0.060
-7.270E-06,0.040
-7.260E-06,0.060
-7.250E-06,0.040
-7.240E-06,0.040
-7.230E-06,0.040
-7.220E-06,0.040
-7.210E-06,0.020
-7.200E-06,0.060
-7.190E-06,0.040
-7.180E-06,0.040
-7.170E-06,0.040
-7.160E-06,0.060
-7.150E-06,0.040
-7.140E-06,0.040
-7.130E-06,0.020
-7.120E-06,0.000
-7.110E-06,0.040
-7.100E-06,0.040
-7.090E-06,0.040
-7.080E-06,0.040
-7.070E-06,0.040
-7.060E-06,0.060
-7.050E-06,0.040
-7.040E-06,0.060
-7.030E-06,0.040
-7.020E-06,0.040
-7.010E-06,0.060
-7.000E-06,0.040
-6.990E-06,0.040
-6.980E-06,0.040
-6.970E-06,0.040
-6.960E-06,0.040
-6.950E-06,0.020
-6.940E-06,0.020
-6.930E-06,0.020
-6.920E-06,0.000
-6.910E-06,0.020
-6.900E-06,0.020
-6.890E-06,0.060
-6.880E-06,0.040
-6.870E-06,0.040
-6.860E-06,0.060
-6.850E-06,0.040
-6.840E-06,0.040
-6.830E-06,0.080
-6.820E-06,0.000
-6.810E-06,0.040
-6.800E-06,0.040
-6.790E-06,0.040
-6.780E-06,0.020
-6.770E-06,0.040
-6.760E-06,0.020
-6.750E-06,0.040
-6.740E-06,0.040
-6.730E-06,0.040
-6.720E-06,0.040
-6.710E-06,0.040
-6.700E-06,0.040
-6.690E-06,0.020
-6.680E-06,0.040
-6.670E-06,0.060
-6.660E-06,0.060
-6.650E-06,0.040
-6.640E-06,0.020
-6.630E-06,0.000
-6.620E-06,0.000
-6.610E-06,0.040
-6.600E-06,0.040
-6.590E-06,0.020
-6.580E-06,0.020
-6.570E-06,0.060
-6.560E-06,0.040
-6.550E-06,0.000
-6.540E-06,0.040
-6.530E-06,0.060
-6.520E-06,0.080
-6.510E-06,0.040
-6.500E-06,0.040
-6.490E-06,0.060
-6.480E-06,0.040
-6.470E-06,0.040
-6.460E-06,0.020
-6.450E-06,0.040
-6.440E-06,0.040
-6.430E-06,0.060
-6.420E-06,0.040
-6.410E-06,0.040
-6.400E-06,0.040
-6.390E-06,0.040
-6.380E-06,0.040
-6.370E-06,0.060
-6.360E-06,0.080
-6.350E-06,0.060
-6.340E-06,0.000
-6.330E-06,0.040
-6.320E-06,0.040
-6.310E-06,0.040
-6.300E-06,0.040
-6.290E-06,0.060
-6.280E-06,0.060
-6.270E-06,0.040
-6.260E-06,0.040
-6.250E-06,0.040
-6.240E-06,0.040
-6.230E-06,0.040
-6.220E-06,0.040
-6.210E-06,0.040
-6.200E-06,0.040
-6.190E-06,0.040
-6.180E-06,0.040
-6.170E-06,0.040
-6.160E-06,0.040
-6.150E-06,0.060
-6.140E-06,0.020
-6.130E-06,0.040
-6.120E-06,0.040
-6.110E-06,0.060
-6.100E-06,0.040
-6.090E-06,0.020
-6.080E-06,0.040
-6.070E-06,0.060
-6.060E-06,0.060
-6.050E-06,0.060
-6.040E-06,0.060
-6.030E-06,0.060
-6.020E-06,0.060
-6.010E-06,0.040
-6.000E-06,0.060
-5.990E-06,0.020
-5.980E-06,0.000
-5.970E-06,0.060
-5.960E-06,0.060
-5.950E-06,0.060
-5.940E-06,0.040
-5.930E-06,0.060
-5.920E-06,0.040
-5.910E-06,0.040
-5.900E-06,0.060
-5.890E-06,0.060
-5.880E-06,0.060
-5.870E-06,0.020
-5.860E-06,0.040
-5.850E-06,0.020
-5.840E-06,0.040
-5.830E-06,0.000
-5.820E-06,0.040
-5.810E-06,0.040
-5.800E-06,0.040
-5.790E-06,0.020
-5.780E-06,0.040
-5.770E-06,0.060
-5.760E-06,0.060
-5.750E-06,0.020
-5.740E-06,0.020
-5.730E-06,0.020
-5.720E-06,0.040
-5.710E-06,0.060
-5.700E-06,0.040
-5.690E-06,0.040
-5.680E-06,0.040
-5.670E-06,0.040
-5.660E-06,0.060
-5.650E-06,0.040
-5.640E-06,0.040
-5.630E-06,0.040
-5.620E-06,0.040
-5.610E-06,0.040
-5.600E-06,0.040
-5.590E-06,0.060
-5.580E-06,0.060
-5.570E-06,0.000
-5.560E-06,0.060
-5.550E-06,0.060
-5.540E-06,0.060
-5.530E-06,0.060
-5.520E-06,0.060
-5.510E-06,0.060
-5.500E-06,0.040
-5.490E-06,0.040
-5.480E-06,0.060
-5.470E-06,0.020
-5.460E-06,0.020
-5.450E-06,0.060
-5.440E-06,0.040
-5.430E-06,0.040
-5.420E-06,0.020
-5.410E-06,0.040
-5.400E-06,0.040
-5.390E-06,0.040
-5.380E-06,0.060
-5.370E-06,0.000
-5.360E-06,0.020
-5.350E-06,0.020
-5.340E-06,0.020
-5.330E-06,0.040
-5.320E-06,0.060
-5.310E-06,0.040
-5.300E-06,0.040
-5.290E-06,0.040
-5.280E-06,0.040
-5.270E-06,0.040
-5.260E-06,0.040
-5.250E-06,0.060
-5.240E-06,0.040
-5.230E-06,0.040
-5.220E-06,0.060
-5.210E-06,0.040
-5.200E-06,0.020
-5.190E-06,0.080
-5.180E-06,0.040
-5.170E-06,0.040
-5.160E-06,0.040
-5.150E-06,0.040
-5.140E-06,0.060
-5.130E-06,0.020
-5.120E-06,0.080
-5.110E-06,0.040
-5.100E-06,0.040
-5.090E-06,0.040
-5.080E-06,0.060
-5.070E-06,0.040
-5.060E-06,0.040
-5.050E-06,0.060
-5.040E-06,0.060
-5.030E-06,0.040
-5.020E-06,0.040
-5.010E-06,0.080
-5.000E-06,0.060
-4.990E-06,0.060
-4.980E-06,0.100
-4.970E-06,0.120
-4.960E-06,0.100
-4.950E-06,0.100
-4.940E-06,0.060
-4.930E-06,0.080
-4.920E-06,0.060
-4.910E-06,0.040
-4.900E-06,0.060
-4.890E-06,0.000
-4.880E-06,0.000
-4.870E-06,0.000
-4.860E-06,-0.040
-4.850E-06,-0.040
-4.840E-06,0.000
-4.830E-06,0.000
-4.820E-06,0.000
-4.810E-06,0.000
-4.800E-06,0.000
-4.790E-06,0.040
-4.780E-06,0.020
-4.770E-06,0.020
-4.760E-06,0.040
-4.750E-06,0.060
-4.740E-06,0.080
-4.730E-06,0.080
-4.720E-06,0.100
-4.710E-06,0.100
-4.700E-06,0.060
-4.690E-06,0.100
-4.680E-06,0.080
-4.670E-06,0.080
-4.660E-06,0.080
-4.650E-06,0.080
-4.640E-06,0.060
-4.630E-06,0.040
-4.620E-06,0.040
-4.610E-06,0.040
-4.600E-06,0.020
-4.590E-06,0.020
-4.580E-06,0.020
-4.570E-06,0.000
-4.560E-06,0.040
-4.550E-06,0.000
-4.540E-06,0.040
-4.530E-06,0.040
-4.520E-06,0.040
-4.510E-06,0.060
-4.500E-06,0.080
-4.490E-06,0.060
-4.480E-06,0.060
-4.470E-06,0.080
-4.460E-06,0.060
-4.450E-06,0.060
-4.440E-06,0.060
-4.430E-06,0.100
-4.420E-06,0.080
-4.410E-06,0.060
-4.400E-06,0.060
-4.390E-06,0.040
-4.380E-06,0.040
-4.370E-06,0.040
-4.360E-06,0.020
-4.350E-06,0.000
-4.340E-06,0.040
-4.330E-06,0.020
-4.320E-06,0.020
-4.310E-06,0.000
-4.300E-06,0.020
-4.290E-06,0.020
-4.280E-06,0.020
-4.270E-06,0.020
-4.260E-06,0.020
-4.250E-06,0.000
-4.240E-06,0.020
-4.230E-06,0.040
-4.220E-06,0.020
-4.210E-06,0.080
-4.200E-06,0.060
-4.190E-06,0.060
-4.180E-06,0.060
-4.170E-06,0.040
-4.160E-06,0.040
-4.150E-06,0.020
-4.140E-06,0.000
-4.130E-06,0.020
-4.120E-06,0.000
-4.110E-06,0.040
-4.100E-06,0.020
-4.090E-06,0.020
-4.080E-06,0.020
-4.070E-06,0.040
-4.060E-06,0.020
-4.050E-06,0.020
-4.040E-06,0.020
-4.030E-06,0.040
-4.020E-06,0.040
-4.010E-06,0.020
-4.000E-06,0.040
-3.990E-06,0.040
-3.980E-06,0.020
-3.970E-06,0.020
-3.960E-06,0.020
-3.950E-06,0.060
-3.940E-06,0.040
-3.930E-06,0.020
-3.920E-06,0.040
-3.910E-06,0.060
-3.900E-06,0.020
-3.890E-06,0.040
-3.880E-06,0.000
-3.870E-06,0.020
-3.860E-06,0.000
-3.850E-06,0.020
-3.840E-06,0.000
-3.830E-06,0.020
-3.820E-06,0.000
-3.810E-06,-0.040
-3.800E-06,0.020
-3.790E-06,-0.040
-3.780E-06,0.000
-3.770E-06,-0.040
-3.760E-06,-0.040
-3.750E-06,-0.040
-3.740E-06,-0.100
-3.730E-06,0.060
-3.720E-06,-0.100
-3.710E-06,0.080
-3.700E-06,-0.080
-3.690E-06,-0.040
-3.680E-06,0.000
-3.670E-06,-0.060
-3.660E-06,-0.060
-3.650E-06,-0.040
-3.640E-06,-0.080
-3.630E-06,-0.040
-3.620E-06,-0.080
-3.610E-06,-0.020
-3.600E-06,-0.040
-3.590E-06,0.020
-3.580E-06,-0.020
-3.570E-06,-0.080
-3.560E-06,-0.260
-3.550E-06,-0.080
-3.540E-06,-0.300
-3.530E-06,-0.120
-3.520E-06,-0.140
-3.510E-06,0.060
-3.500E-06,-0.020
-3.490E-06,0.040
-3.480E-06,0.000
-3.470E-06,-0.020
-3.460E-06,-0.020
-3.450E-06,-0.040
-3.440E-06,0.000
-3.430E-06,0.000
-3.420E-06,0.040
-3.410E-06,0.040
-3.400E-06,0.040
-3.390E-06,0.080
-3.380E-06,0.080
-3.370E-06,0.060
-3.360E-06,0.060
-3.350E-06,0.040
-3.340E-06,0.040
-3.330E-06,0.060
-3.320E-06,0.040
-3.310E-06,0.000
-3.300E-06,-0.020
-3.290E-06,-0.080
-3.280E-06,-0.060
-3.270E-06,-0.100
-3.260E-06,-0.140
-3.250E-06,-0.080
-3.240E-06,-0.100
-3.230E-06,-0.140
-3.220E-06,-0.100
-3.210E-06,-0.160
-3.200E-06,-0.180
-3.190E-06,-0.180
-3.180E-06,-0.280
-3.170E-06,-0.140
-3.160E-06,-0.260
-3.150E-06,-0.120
-3.140E-06,-0.180
-3.130E-06,-0.020
-3.120E-06,-0.220
-3.110E-06,0.040
-3.100E-06,-0.120
-3.090E-06,-0.080
-3.080E-06,-0.080
-3.070E-06,-0.100
-3.060E-06,-0.080
-3.050E-06,-0.040
-3.040E-06,-0.120
-3.030E-06,-0.080
-3.020E-06,0.000
-3.010E-06,-0.180
-3.000E-06,-0.080
-2.990E-06,-0.020
-2.980E-06,0.020
-2.970E-06,-0.040
-2.960E-06,0.080
-2.950E-06,-0.040
-2.940E-06,0.000
-2.930E-06,-0.040
-2.920E-06,-0.040
-2.910E-06,0.000
-2.900E-06,-0.020
-2.890E-06,0.000
-2.880E-06,0.000
-2.870E-06,0.060
-2.860E-06,0.080
-2.850E-06,0.060
-2.840E-06,0.120
-2.830E-06,0.060
-2.820E-06,0.060
-2.810E-06,0.080
-2.800E-06,0.060
-2.790E-06,0.080
-2.780E-06,0.060
-2.770E-06,0.080
-2.760E-06,0.060
-2.750E-06,0.020
-2.740E-06,0.000
-2.730E-06,-0.040
-2.720E-06,0.000
-2.710E-06,0.020
-2.700E-06,0.040
-2.690E-06,0.040
-2.680E-06,0.000
-2.670E-06,-0.080
-2.660E-06,-0.120
-2.650E-06,-0.060
-2.640E-06,-0.220
-2.630E-06,-0.060
-2.620E-06,-0.260
-2.610E-06,-0.140
-2.600E-06,-0.180
-2.590E-06,-0.140
-2.580E-06,-0.180
-2.570E-06,-0.140
-2.560E-06,-0.100
-2.550E-06,-0.140
-2.540E-06,-0.140
-2.530E-06,-0.180
-2.520E-06,-0.160
-2.510E-06,-0.160
-2.500E-06,-0.100
-2.490E-06,-0.200
-2.480E-06,-0.080
-2.470E-06,-0.180
-2.460E-06,-0.120
-2.450E-06,-0.180
-2.440E-06,-0.060
-2.430E-06,-0.200
-2.420E-06,-0.020
-2.410E-06,-0.100
-2.400E-06,-0.040
-2.390E-06,-0.020
-2.380E-06,-0.060
-2.370E-06,-0.080
-2.360E-06,-0.120
-2.350E-06,-0.100
-2.340E-06,-0.040
-2.330E-06,-0.060
-2.320E-06,0.160
-2.310E-06,0.000
-2.300E-06,0.040
-2.290E-06,-0.240
-2.280E-06,-0.040
-2.270E-06,-0.280
-2.260E-06,-0.280
-2.250E-06,-0.300
-2.240E-06,-0.360
-2.230E-06,-0.360
-2.220E-06,-0.440
-2.210E-06,-0.480
-2.200E-06,-0.500
-2.190E-06,-0.560
-2.180E-06,-0.540
-2.170E-06,-0.560
-2.160E-06,-0.600
-2.150E-06,-0.600
-2.140E-06,-0.480
-2.130E-06,-0.540
-2.120E-06,-0.440
-2.110E-06,-0.560
-2.100E-06,-0.440
-2.090E-06,-0.580
-2.080E-06,-0.380
-2.070E-06,-0.560
-2.060E-06,-0.380
-2.050E-06,-0.460
-2.040E-06,-0.440
-2.030E-06,-0.500
-2.020E-06,-0.540
-2.010E-06,-0.520
-2.000E-06,-0.580
-1.990E-06,-0.600
-1.980E-06,-0.580
-1.970E-06,-0.600
-1.960E-06,-0.400
-1.950E-06,-0.600
-1.940E-06,-0.360
-1.930E-06,-0.620
-1.920E-06,-0.480
-1.910E-06,-0.560
-1.900E-06,-0.340
-1.890E-06,-0.260
-1.880E-06,-0.200
-1.870E-06,-0.260
-1.860E-06,-0.180
-1.850E-06,-0.280
-1.840E-06,-0.280
-1.830E-06,-0.380
-1.820E-06,-0.260
-1.810E-06,-0.180
-1.800E-06,-0.280
-1.790E-06,-0.080
-1.780E-06,-0.160
-1.770E-06,-0.160
-1.760E-06,-0.120
-1.750E-06,-0.220
-1.740E-06,-0.120
-1.730E-06,-0.180
-1.720E-06,-0.140
-1.710E-06,-0.180
-1.700E-06,-0.260
-1.690E-06,-0.200
-1.680E-06,-0.280
-1.670E-06,-0.280
-1.660E-06,-0.240
-1.650E-06,-0.140
-1.640E-06,-0.140
-1.630E-06,-0.160
-1.620E-06,-0.100
-1.610E-06,-0.180
-1.600E-06,-0.160
-1.590E-06,-0.120
-1.580E-06,-0.100
-1.570E-06,-0.180
-1.560E-06,-0.120
-1.550E-06,-0.200
-1.540E-06,-0.120
-1.530E-06,-0.240
-1.520E-06,-0.160
-1.510E-06,-0.320
-1.500E-06,-0.200
-1.490E-06,-0.400
-1.480E-06,-0.320
-1.470E-06,-0.360
-1.460E-06,-0.300
-1.450E-06,-0.280
-1.440E-06,-0.360
-1.430E-06,-0.300
-1.420E-06,-0.460
-1.410E-06,-0.340
-1.400E-06,-0.440
-1.390E-06,-0.400
-1.380E-06,-0.240
-1.370E-06,-0.180
-1.360E-06,-0.160
-1.350E-06,-0.200
-1.340E-06,-0.280
-1.330E-06,-0.360
-1.320E-06,-0.460
-1.310E-06,-0.280
-1.300E-06,-0.460
-1.290E-06,-0.360
-1.280E-06,-0.420
-1.270E-06,-0.320
-1.260E-06,-0.400
-1.250E-06,-0.620
-1.240E-06,-0.380
-1.230E-06,-0.680
-1.220E-06,-0.500
-1.210E-06,-0.700
-1.200E-06,-0.560
-1.190E-06,-0.720
-1.180E-06,-0.720
-1.170E-06,-0.800
-1.160E-06,-0.760
-1.150E-06,-0.860
-1.140E-06,-0.860
-1.130E-06,-0.860
-1.120E-06,-0.820
-1.110E-06,-0.920
-1.100E-06,-0.600
-1.090E-06,-0.680
-1.080E-06,-0.480
-1.070E-06,-0.600
-1.060E-06,-0.620
-1.050E-06,-0.680
-1.040E-06,-0.520
-1.030E-06,-0.820
-1.020E-06,-0.640
-1.010E-06,-0.620
-1.000E-06,-0.680
-9.900E-07,-0.560
-9.800E-07,-0.800
-9.700E-07,-0.760
-9.600E-07,-0.880
-9.500E-07,-0.780
-9.400E-07,-0.600
-9.300E-07,-0.580
-9.200E-07,-0.420
-9.100E-07,-0.500
-9.000E-07,-0.400
-8.900E-07,-0.480
-8.800E-07,-0.440
-8.700E-07,-0.460
-8.600E-07,-0.460
-8.500E-07,-0.540
-8.400E-07,-0.380
-8.300E-07,-0.280
-8.200E-07,-0.340
-8.100E-07,-0.180
-8.000E-07,-0.340
-7.900E-07,-0.260
-7.800E-07,-0.180
-7.700E-07,-0.280
-7.600E-07,-0.140
-7.500E-07,-0.160
-7.400E-07,-0.120
-7.300E-07,-0.180
-7.200E-07,-0.200
-7.100E-07,-0.260
-7.000E-07,-0.260
-6.900E-07,-0.380
-6.800E-07,-0.560
-6.700E-07,-0.640
-6.600E-07,-0.620
-6.500E-07,-0.520
-6.400E-07,-0.480
-6.300E-07,-0.420
-6.200E-07,-0.400
-6.100E-07,-0.560
-6.000E-07,-0.580
-5.900E-07,-0.660
-5.800E-07,-0.580
-5.700E-07,-0.560
-5.600E-07,-0.540
-5.500E-07,-0.580
-5.400E-07,-0.620
-5.300E-07,-0.700
-5.200E-07,-0.760
-5.100E-07,-0.760
-5.000E-07,-0.700
-4.900E-07,-0.780
-4.800E-07,-0.600
-4.700E-07,-0.780
-4.600E-07,-0.740
-4.500E-07,-0.740
-4.400E-07,-0.800
-4.300E-07,-0.740
-4.200E-07,-0.860
-4.100E-07,-0.780
-4.000E-07,-0.960
-3.900E-07,-0.720
-3.800E-07,-0.800
-3.700E-07,-0.600
-3.600E-07,-0.520
-3.500E-07,-0.560
-3.400E-07,-0.800
-3.300E-07,-0.860
-3.200E-07,-0.320
-3.100E-07,-0.440
-3.000E-07,-0.800
-2.900E-07,-0.780
-2.800E-07,-1.300
-2.700E-07,-0.660
-2.600E-07,-1.120
-2.500E-07,-1.060
-2.400E-07,-1.580
-2.300E-07,-1.280
-2.200E-07,-1.360
-2.100E-07,-1.200
-2.000E-07,-0.800
-1.900E-07,-1.820
-1.800E-07,-2.280
-1.700E-07,-3.600
-1.600E-07,-2.580
-1.500E-07,-3.100
-1.400E-07,-0.940
-1.300E-07,-1.340
-1.200E-07,-0.020
-1.100E-07,-0.600
-1.000E-07,-1.040
-9.000E-08,-2.480
-8.000E-08,-3.600
-7.000E-08,-3.600
-6.000E-08,-3.600
-5.000E-08,-3.600
-4.000E-08,-3.600
-3.000E-08,-3.600
-2.000E-08,-3.600
-1.000E-08,-3.400
0.000E+00,-3.080
1.000E-08,-2.880
2.000E-08,-2.660
3.000E-08,-2.560
4.000E-08,-2.140
5.000E-08,-1.960
6.000E-08,-1.620
7.000E-08,-1.420
8.000E-08,-1.460
9.000E-08,-1.600
1.000E-07,-2.020
1.100E-07,-2.320
1.200E-07,-2.660
1.300E-07,-2.860
1.400E-07,-3.140
1.500E-07,-3.340
1.600E-07,-3.580
1.700E-07,-3.580
1.800E-07,-3.580
1.900E-07,-3.580
2.000E-07,-3.600
2.100E-07,-3.600
2.200E-07,-3.600
2.300E-07,-3.580
2.400E-07,-3.580
2.500E-07,-3.600
2.600E-07,-3.600
2.700E-07,-3.600
2.800E-07,-3.600
2.900E-07,-3.600
3.000E-07,-3.460
3.100E-07,-3.100
3.200E-07,-2.800
3.300E-07,-2.540
3.400E-07,-2.320
3.500E-07,-2.200
3.600E-07,-2.140
3.700E-07,-2.140
3.800E-07,-2.140
3.900E-07,-2.240
4.000E-07,-2.200
4.100E-07,-2.220
4.200E-07,-2.160
4.300E-07,-2.140
4.400E-07,-2.040
4.500E-07,-1.960
4.600E-07,-1.840
4.700E-07,-1.720
4.800E-07,-1.500
4.900E-07,-1.260
5.000E-07,-1.020
5.100E-07,-0.840
5.200E-07,-0.780
5.300E-07,-0.880
5.400E-07,-1.060
5.500E-07,-1.120
5.600E-07,-1.120
5.700E-07,-1.100
5.800E-07,-1.160
5.900E-07,-1.200
6.000E-07,-1.200
6.100E-07,-1.220
6.200E-07,-1.280
6.300E-07,-1.320
6.400E-07,-1.340
6.500E-07,-1.420
6.600E-07,-1.580
6.700E-07,-1.800
6.800E-07,-2.180
6.900E-07,-2.460
7.000E-07,-2.780
7.100E-07,-2.880
7.200E-07,-2.880
7.300E-07,-2.840
7.400E-07,-2.680
7.500E-07,-2.480
7.600E-07,-2.280
7.700E-07,-2.100
7.800E-07,-2.100
7.900E-07,-2.040
8.000E-07,-1.980
8.100E-07,-1.820
8.200E-07,-1.680
8.300E-07,-1.720
8.400E-07,-1.800
8.500E-07,-1.840
8.600E-07,-1.880
8.700E-07,-1.920
8.800E-07,-1.980
8.900E-07,-2.060
9.000E-07,-2.080
9.100E-07,-2.140
9.200E-07,-2.180
9.300E-07,-2.140
9.400E-07,-2.080
9.500E-07,-1.980
9.600E-07,-1.960
9.700E-07,-1.940
9.800E-07,-1.880
9.900E-07,-1.860
1.000E-06,-1.880
1.010E-06,-1.920
1.020E-06,-1.940
1.030E-06,-1.940
1.040E-06,-1.920
1.050E-06,-1.860
1.060E-06,-1.800
1.070E-06,-1.720
1.080E-06,-1.640
1.090E-06,-1.580
1.100E-06,-1.540
1.110E-06,-1.520
1.120E-06,-1.480
1.130E-06,-1.420
1.140E-06,-1.380
1.150E-06,-1.340
1.160E-06,-1.320
1.170E-06,-1.340
1.180E-06,-1.360
1.190E-06,-1.340
1.200E-06,-1.340
1.210E-06,-1.320
1.220E-06,-1.380
1.230E-06,-1.300
1.240E-06,-1.280
1.250E-06,-1.260
1.260E-06,-1.260
1.270E-06,-1.320
1.280E-06,-1.320
1.290E-06,-1.360
1.300E-06,-1.340
1.310E-06,-1.360
1.320E-06,-1.340
1.330E-06,-1.280
1.340E-06,-1.240
1.350E-06,-1.200
1.360E-06,-1.200
1.370E-06,-1.180
1.380E-06,-1.200
1.390E-06,-1.180
1.400E-06,-1.140
1.410E-06,-1.080
1.420E-06,-1.020
1.430E-06,-1.020
1.440E-06,-1.020
1.450E-06,-0.980
1.460E-06,-0.960
1.470E-06,-0.940
1.480E-06,-0.860
1.490E-06,-0.780
1.500E-06,-0.700
1.510E-06,-0.620
1.520E-06,-0.620
1.530E-06,-0.620
1.540E-06,-0.660
1.550E-06,-0.600
1.560E-06,-0.580
1.570E-06,-0.640
1.580E-06,-0.680
1.590E-06,-0.660
1.600E-06,-0.520
1.610E-06,-0.420
1.620E-06,-0.360
1.630E-06,-0.240
1.640E-06,-0.120
1.650E-06,-0.080
1.660E-06,-0.100
1.670E-06,-0.120
1.680E-06,-0.140
1.690E-06,-0.200
1.700E-06,-0.260
1.710E-06,-0.280
1.720E-06,-0.340
1.730E-06,-0.340
1.740E-06,-0.400
1.750E-06,-0.380
1.760E-06,-0.400
1.770E-06,-0.380
1.780E-06,-0.360
1.790E-06,-0.360
1.800E-06,-0.420
1.810E-06,-0.500
1.820E-06,-0.500
1.830E-06,-0.500
1.840E-06,-0.520
1.850E-06,-0.480
1.860E-06,-0.460
1.870E-06,-0.480
1.880E-06,-0.500
1.890E-06,-0.540
1.900E-06,-0.540
1.910E-06,-0.520
1.920E-06,-0.420
1.930E-06,-0.340
1.940E-06,-0.260
1.950E-06,-0.200
1.960E-06,-0.180
1.970E-06,-0.140
1.980E-06,-0.120
1.990E-06,-0.160
2.000E-06,-0.220
2.010E-06,-0.200
2.020E-06,-0.200
2.030E-06,-0.220
2.040E-06,-0.240
2.050E-06,-0.320
2.060E-06,-0.340
2.070E-06,-0.400
2.080E-06,-0.460
2.090E-06,-0.500
2.100E-06,-0.520
2.110E-06,-0.500
2.120E-06,-0.480
2.130E-06,-0.380
2.140E-06,-0.280
2.150E-06,-0.140
2.160E-06,-0.040
2.170E-06,0.020
2.180E-06,0.040
2.190E-06,0.020
2.200E-06,0.000
2.210E-06,-0.080
2.220E-06,-0.180
2.230E-06,-0.300
2.240E-06,-0.380
2.250E-06,-0.500
2.260E-06,-0.600
2.270E-06,-0.760
2.280E-06,-0.840
2.290E-06,-0.880
2.300E-06,-0.860
2.310E-06,-0.780
2.320E-06,-0.740
2.330E-06,-0.620
2.340E-06,-0.600
2.350E-06,-0.540
2.360E-06,-0.480
2.370E-06,-0.440
2.380E-06,-0.420
2.390E-06,-0.380
2.400E-06,-0.400
2.410E-06,-0.420
2.420E-06,-0.440
2.430E-06,-0.420
2.440E-06,-0.380
2.450E-06,-0.360
2.460E-06,-0.320
2.470E-06,-0.320
2.480E-06,-0.280
2.490E-06,-0.300
2.500E-06,-0.300
2.510E-06,-0.260
2.520E-06,-0.280
2.530E-06,-0.160
2.540E-06,-0.100
2.550E-06,0.000
2.560E-06,0.080
2.570E-06,0.220
2.580E-06,0.280
2.590E-06,0.340
2.600E-06,0.380
2.610E-06,0.420
2.620E-06,0.400
2.630E-06,0.400
2.640E-06,0.360
2.650E-06,0.340
2.660E-06,0.300
2.670E-06,0.260
2.680E-06,0.200
2.690E-06,0.160
2.700E-06,0.120
2.710E-06,0.060
2.720E-06,-0.020
2.730E-06,-0.100
2.740E-06,-0.160
2.750E-06,-0.260
2.760E-06,-0.320
2.770E-06,-0.420
2.780E-06,-0.520
2.790E-06,-0.600
2.800E-06,-0.760
2.810E-06,-0.860
2.820E-06,-0.920
2.830E-06,-0.980
2.840E-06,-1.020
2.850E-06,-1.120
2.860E-06,-1.220
2.870E-06,-1.280
2.880E-06,-1.380
2.890E-06,-1.440
2.900E-06,-1.500
2.910E-06,-1.540
2.920E-06,-1.520
2.930E-06,-1.520
2.940E-06,-1.460
2.950E-06,-1.480
2.960E-06,-1.500
2.970E-06,-1.500
2.980E-06,-1.480
2.990E-06,-1.440
3.000E-06,-1.360
3.010E-06,-1.320
3.020E-06,-1.260
3.030E-06,-1.220
3.040E-06,-1.240
3.050E-06,-1.240
3.060E-06,-1.200
3.070E-06,-1.200
3.080E-06,-1.140
3.090E-06,-1.080
3.100E-06,-1.020
3.110E-06,-0.940
3.120E-06,-0.860
3.130E-06,-0.740
3.140E-06,-0.620
3.150E-06,-0.440
3.160E-06,-0.340
3.170E-06,-0.280
3.180E-06,-0.180
