mediciones/curva carac 8-28 limpias/51/WaveData65511.csv

#timebase=2000000(ps)
,#voltbase=500000(mv/100)
#size=4000
-8.350E-06,0.080
-8.340E-06,0.080
-8.330E-06,0.060
-8.320E-06,0.100
-8.310E-06,0.100
-8.300E-06,0.140
-8.290E-06,0.160
-8.280E-06,0.140
-8.270E-06,0.160
-8.260E-06,0.180
-8.250E-06,0.160
-8.240E-06,0.160
-8.230E-06,0.120
-8.220E-06,0.100
-8.210E-06,0.100
-8.200E-06,0.040
-8.190E-06,0.020
-8.180E-06,0.040
-8.170E-06,0.020
-8.160E-06,0.000
-8.150E-06,-0.020
-8.140E-06,0.000
-8.130E-06,0.020
-8.120E-06,0.020
-8.110E-06,0.040
-8.100E-06,0.020
-8.090E-06,0.060
-8.080E-06,0.060
-8.070E-06,0.100
-8.060E-06,0.080
-8.050E-06,0.100
-8.040E-06,0.140
-8.030E-06,0.160
-8.020E-06,0.140
-8.010E-06,0.140
-8.000E-06,0.180
-7.990E-06,0.180
-7.980E-06,0.180
-7.970E-06,0.140
-7.960E-06,0.140
-7.950E-06,0.120
-7.940E-06,0.140
-7.930E-06,0.140
-7.920E-06,0.100
-7.910E-06,0.060
-7.900E-06,0.040
-7.890E-06,0.020
-7.880E-06,0.020
-7.870E-06,0.000
-7.860E-06,0.040
-7.850E-06,-0.020
-7.840E-06,0.000
-7.830E-06,0.020
-7.820E-06,0.040
-7.810E-06,0.040
-7.800E-06,0.040
-7.790E-06,0.080
-7.780E-06,0.100
-7.770E-06,0.120
-7.760E-06,0.140
-7.750E-06,0.120
-7.740E-06,0.080
-7.730E-06,0.120
-7.720E-06,0.100
-7.710E-06,0.100
-7.700E-06,0.100
-7.690E-06,0.100
-7.680E-06,0.020
-7.670E-06,0.020
-7.660E-06,0.040
-7.650E-06,0.000
-7.640E-06,-0.020
-7.630E-06,0.020
-7.620E-06,0.020
-7.610E-06,0.020
-7.600E-06,0.040
-7.590E-06,0.020
-7.580E-06,0.020
-7.570E-06,0.080
-7.560E-06,0.020
-7.550E-06,0.040
-7.540E-06,0.060
-7.530E-06,0.080
-7.520E-06,0.080
-7.510E-06,0.060
-7.500E-06,0.100
-7.490E-06,0.080
-7.480E-06,0.100
-7.470E-06,0.100
-7.460E-06,0.140
-7.450E-06,0.120
-7.440E-06,0.100
-7.430E-06,0.120
-7.420E-06,0.060
-7.410E-06,0.080
-7.400E-06,0.080
-7.390E-06,0.020
-7.380E-06,0.040
-7.370E-06,0.000
-7.360E-06,0.020
-7.350E-06,0.040
-7.340E-06,0.040
-7.330E-06,0.040
-7.320E-06,0.040
-7.310E-06,0.040
-7.300E-06,0.040
-7.290E-06,0.040
-7.280E-06,0.000
-7.270E-06,0.020
-7.260E-06,0.040
-7.250E-06,0.040
-7.240E-06,0.040
-7.230E-06,0.040
-7.220E-06,0.040
-7.210E-06,0.020
-7.200E-06,0.040
-7.190E-06,0.020
-7.180E-06,0.080
-7.170E-06,0.060
-7.160E-06,0.060
-7.150E-06,0.060
-7.140E-06,0.080
-7.130E-06,0.040
-7.120E-06,0.080
-7.110E-06,0.040
-7.100E-06,0.020
-7.090E-06,0.080
-7.080E-06,0.040
-7.070E-06,0.060
-7.060E-06,0.040
-7.050E-06,0.020
-7.040E-06,0.020
-7.030E-06,0.040
-7.020E-06,0.020
-7.010E-06,-0.020
-7.000E-06,0.020
-6.990E-06,0.020
-6.980E-06,0.020
-6.970E-06,0.020
-6.960E-06,0.040
-6.950E-06,0.040
-6.940E-06,0.000
-6.930E-06,0.020
-6.920E-06,0.040
-6.910E-06,0.000
-6.900E-06,0.020
-6.890E-06,0.040
-6.880E-06,0.040
-6.870E-06,0.000
-6.860E-06,0.020
-6.850E-06,-0.020
-6.840E-06,0.000
-6.830E-06,0.020
-6.820E-06,0.000
-6.810E-06,0.020
-6.800E-06,0.020
-6.790E-06,0.080
-6.780E-06,0.060
-6.770E-06,0.060
-6.760E-06,0.040
-6.750E-06,0.040
-6.740E-06,0.020
-6.730E-06,0.040
-6.720E-06,0.040
-6.710E-06,0.020
-6.700E-06,0.080
-6.690E-06,0.080
-6.680E-06,0.060
-6.670E-06,0.120
-6.660E-06,0.100
-6.650E-06,0.080
-6.640E-06,0.080
-6.630E-06,0.020
-6.620E-06,0.080
-6.610E-06,0.020
-6.600E-06,0.080
-6.590E-06,0.080
-6.580E-06,0.040
-6.570E-06,0.040
-6.560E-06,0.040
-6.550E-06,0.020
-6.540E-06,0.020
-6.530E-06,0.020
-6.520E-06,0.000
-6.510E-06,0.000
-6.500E-06,0.020
-6.490E-06,0.000
-6.480E-06,0.000
-6.470E-06,0.000
-6.460E-06,0.020
-6.450E-06,0.020
-6.440E-06,0.000
-6.430E-06,0.020
-6.420E-06,0.040
-6.410E-06,0.020
-6.400E-06,0.040
-6.390E-06,0.080
-6.380E-06,0.080
-6.370E-06,0.080
-6.360E-06,0.080
-6.350E-06,0.060
-6.340E-06,0.100
-6.330E-06,0.100
-6.320E-06,0.120
-6.310E-06,0.060
-6.300E-06,0.060
-6.290E-06,0.100
-6.280E-06,0.080
-6.270E-06,0.060
-6.260E-06,0.120
-6.250E-06,0.080
-6.240E-06,0.060
-6.230E-06,0.080
-6.220E-06,0.100
-6.210E-06,0.100
-6.200E-06,0.080
-6.190E-06,0.080
-6.180E-06,0.080
-6.170E-06,0.060
-6.160E-06,0.020
-6.150E-06,0.040
-6.140E-06,0.040
-6.130E-06,0.020
-6.120E-06,0.040
-6.110E-06,0.000
-6.100E-06,0.020
-6.090E-06,0.000
-6.080E-06,0.000
-6.070E-06,0.000
-6.060E-06,0.040
-6.050E-06,0.000
-6.040E-06,0.040
-6.030E-06,0.040
-6.020E-06,0.040
-6.010E-06,0.060
-6.000E-06,0.040
-5.990E-06,0.020
-5.980E-06,0.040
-5.970E-06,0.040
-5.960E-06,0.040
-5.950E-06,0.040
-5.940E-06,0.020
-5.930E-06,0.020
-5.920E-06,0.020
-5.910E-06,0.040
-5.900E-06,0.000
-5.890E-06,0.040
-5.880E-06,0.000
-5.870E-06,0.020
-5.860E-06,0.020
-5.850E-06,-0.020
-5.840E-06,-0.020
-5.830E-06,-0.020
-5.820E-06,-0.020
-5.810E-06,0.020
-5.800E-06,-0.020
-5.790E-06,-0.060
-5.780E-06,0.040
-5.770E-06,0.040
-5.760E-06,-0.040
-5.750E-06,0.060
-5.740E-06,-0.020
-5.730E-06,0.180
-5.720E-06,0.020
-5.710E-06,0.100
-5.700E-06,0.060
-5.690E-06,0.100
-5.680E-06,0.020
-5.670E-06,0.000
-5.660E-06,0.040
-5.650E-06,-0.120
-5.640E-06,-0.120
-5.630E-06,-0.180
-5.620E-06,-0.120
-5.610E-06,-0.120
-5.600E-06,-0.080
-5.590E-06,-0.060
-5.580E-06,-0.100
-5.570E-06,-0.080
-5.560E-06,0.040
-5.550E-06,-0.060
-5.540E-06,-0.020
-5.530E-06,-0.020
-5.520E-06,-0.020
-5.510E-06,0.000
-5.500E-06,0.040
-5.490E-06,0.040
-5.480E-06,0.020
-5.470E-06,0.100
-5.460E-06,0.140
-5.450E-06,0.260
-5.440E-06,0.060
-5.430E-06,0.040
-5.420E-06,0.040
-5.410E-06,-0.060
-5.400E-06,-0.100
-5.390E-06,-0.060
-5.380E-06,0.000
-5.370E-06,0.000
-5.360E-06,-0.020
-5.350E-06,0.020
-5.340E-06,0.000
-5.330E-06,-0.020
-5.320E-06,-0.040
-5.310E-06,-0.020
-5.300E-06,0.020
-5.290E-06,0.000
-5.280E-06,0.060
-5.270E-06,0.080
-5.260E-06,0.020
-5.250E-06,0.040
-5.240E-06,0.060
-5.230E-06,0.000
-5.220E-06,0.020
-5.210E-06,0.020
-5.200E-06,0.100
-5.190E-06,-0.020
-5.180E-06,-0.120
-5.170E-06,-0.100
-5.160E-06,-0.160
-5.150E-06,-0.140
-5.140E-06,-0.160
-5.130E-06,-0.140
-5.120E-06,-0.120
-5.110E-06,-0.120
-5.100E-06,-0.120
-5.090E-06,-0.140
-5.080E-06,-0.140
-5.070E-06,-0.100
-5.060E-06,-0.060
-5.050E-06,-0.060
-5.040E-06,0.020
-5.030E-06,0.080
-5.020E-06,0.080
-5.010E-06,0.140
-5.000E-06,0.160
-4.990E-06,0.220
-4.980E-06,0.200
-4.970E-06,0.260
-4.960E-06,0.300
-4.950E-06,0.300
-4.940E-06,0.300
-4.930E-06,0.300
-4.920E-06,0.260
-4.910E-06,0.200
-4.900E-06,0.200
-4.890E-06,0.180
-4.880E-06,0.180
-4.870E-06,0.160
-4.860E-06,0.140
-4.850E-06,0.100
-4.840E-06,0.060
-4.830E-06,0.060
-4.820E-06,0.040
-4.810E-06,0.020
-4.800E-06,-0.020
-4.790E-06,-0.020
-4.780E-06,0.020
-4.770E-06,0.000
-4.760E-06,0.040
-4.750E-06,0.000
-4.740E-06,-0.020
-4.730E-06,-0.020
-4.720E-06,0.000
-4.710E-06,-0.020
-4.700E-06,0.000
-4.690E-06,-0.040
-4.680E-06,-0.060
-4.670E-06,-0.060
-4.660E-06,-0.020
-4.650E-06,0.020
-4.640E-06,0.020
-4.630E-06,0.040
-4.620E-06,0.000
-4.610E-06,-0.040
-4.600E-06,-0.080
-4.590E-06,-0.080
-4.580E-06,-0.060
-4.570E-06,-0.060
-4.560E-06,-0.020
-4.550E-06,0.040
-4.540E-06,0.020
-4.530E-06,0.040
-4.520E-06,0.040
-4.510E-06,0.040
-4.500E-06,0.100
-4.490E-06,0.100
-4.480E-06,0.100
-4.470E-06,0.140
-4.460E-06,0.120
-4.450E-06,0.140
-4.440E-06,0.140
-4.430E-06,0.140
-4.420E-06,0.120
-4.410E-06,0.120
-4.400E-06,0.120
-4.390E-06,0.120
-4.380E-06,0.100
-4.370E-06,0.100
-4.360E-06,0.080
-4.350E-06,0.040
-4.340E-06,0.020
-4.330E-06,0.040
-4.320E-06,0.020
-4.310E-06,0.000
-4.300E-06,0.020
-4.290E-06,0.020
-4.280E-06,0.020
-4.270E-06,0.020
-4.260E-06,0.040
-4.250E-06,0.060
-4.240E-06,0.020
-4.230E-06,0.080
-4.220E-06,0.060
-4.210E-06,0.060
-4.200E-06,0.060
-4.190E-06,0.020
-4.180E-06,0.020
-4.170E-06,0.040
-4.160E-06,0.120
-4.150E-06,0.160
-4.140E-06,0.140
-4.130E-06,0.040
-4.120E-06,0.000
-4.110E-06,-0.120
-4.100E-06,-0.160
-4.090E-06,-0.240
-4.080E-06,-0.240
-4.070E-06,-0.260
-4.060E-06,-0.220
-4.050E-06,-0.260
-4.040E-06,-0.240
-4.030E-06,-0.220
-4.020E-06,-0.220
-4.010E-06,-0.180
-4.000E-06,-0.180
-3.990E-06,-0.160
-3.980E-06,-0.120
-3.970E-06,-0.140
-3.960E-06,-0.100
-3.950E-06,-0.080
-3.940E-06,-0.100
-3.930E-06,-0.060
-3.920E-06,-0.060
-3.910E-06,-0.060
-3.900E-06,-0.020
-3.890E-06,-0.060
-3.880E-06,-0.040
-3.870E-06,-0.060
-3.860E-06,-0.060
-3.850E-06,-0.060
-3.840E-06,-0.020
-3.830E-06,-0.040
-3.820E-06,0.020
-3.810E-06,0.020
-3.800E-06,0.000
-3.790E-06,0.000
-3.780E-06,0.020
-3.770E-06,0.020
-3.760E-06,0.020
-3.750E-06,0.000
-3.740E-06,0.040
-3.730E-06,0.020
-3.720E-06,0.060
-3.710E-06,0.100
-3.700E-06,0.020
-3.690E-06,0.040
-3.680E-06,0.040
-3.670E-06,0.020
-3.660E-06,-0.020
-3.650E-06,0.020
-3.640E-06,0.000
-3.630E-06,-0.020
-3.620E-06,-0.060
-3.610E-06,-0.060
-3.600E-06,-0.100
-3.590E-06,-0.100
-3.580E-06,-0.140
-3.570E-06,-0.100
-3.560E-06,0.100
-3.550E-06,0.100
-3.540E-06,0.260
-3.530E-06,0.100
-3.520E-06,0.080
-3.510E-06,-0.140
-3.500E-06,-0.240
-3.490E-06,-0.300
-3.480E-06,-0.220
-3.470E-06,-0.200
-3.460E-06,-0.100
-3.450E-06,-0.140
-3.440E-06,-0.160
-3.430E-06,-0.140
-3.420E-06,-0.140
-3.410E-06,-0.100
-3.400E-06,-0.040
-3.390E-06,0.020
-3.380E-06,0.120
-3.370E-06,0.120
-3.360E-06,0.200
-3.350E-06,0.180
-3.340E-06,0.160
-3.330E-06,0.180
-3.320E-06,0.260
-3.310E-06,0.260
-3.300E-06,0.300
-3.290E-06,0.320
-3.280E-06,0.340
-3.270E-06,0.300
-3.260E-06,0.280
-3.250E-06,0.220
-3.240E-06,0.200
-3.230E-06,0.140
-3.220E-06,0.140
-3.210E-06,0.100
-3.200E-06,0.100
-3.190E-06,0.040
-3.180E-06,0.040
-3.170E-06,-0.020
-3.160E-06,-0.040
-3.150E-06,-0.060
-3.140E-06,-0.120
-3.130E-06,-0.040
-3.120E-06,0.000
-3.110E-06,0.000
-3.100E-06,0.060
-3.090E-06,0.040
-3.080E-06,0.020
-3.070E-06,-0.020
-3.060E-06,0.000
-3.050E-06,0.020
-3.040E-06,-0.020
-3.030E-06,0.020
-3.020E-06,0.020
-3.010E-06,0.040
-3.000E-06,0.020
-2.990E-06,0.020
-2.980E-06,0.020
-2.970E-06,-0.020
-2.960E-06,0.020
-2.950E-06,0.000
-2.940E-06,-0.020
-2.930E-06,0.040
-2.920E-06,0.040
-2.910E-06,0.100
-2.900E-06,0.100
-2.890E-06,0.100
-2.880E-06,0.040
-2.870E-06,0.060
-2.860E-06,0.060
-2.850E-06,0.040
-2.840E-06,0.020
-2.830E-06,-0.020
-2.820E-06,-0.040
-2.810E-06,0.000
-2.800E-06,-0.040
-2.790E-06,-0.040
-2.780E-06,-0.080
-2.770E-06,-0.100
-2.760E-06,-0.160
-2.750E-06,-0.220
-2.740E-06,-0.260
-2.730E-06,-0.260
-2.720E-06,-0.240
-2.710E-06,-0.220
-2.700E-06,-0.220
-2.690E-06,-0.320
-2.680E-06,-0.300
-2.670E-06,-0.300
-2.660E-06,-0.220
-2.650E-06,-0.220
-2.640E-06,-0.180
-2.630E-06,-0.120
-2.620E-06,-0.120
-2.610E-06,-0.120
-2.600E-06,-0.120
-2.590E-06,-0.040
-2.580E-06,-0.040
-2.570E-06,-0.040
-2.560E-06,-0.060
-2.550E-06,-0.040
-2.540E-06,-0.080
-2.530E-06,-0.040
-2.520E-06,0.020
-2.510E-06,0.040
-2.500E-06,0.040
-2.490E-06,-0.020
-2.480E-06,-0.020
-2.470E-06,0.020
-2.460E-06,0.040
-2.450E-06,-0.020
-2.440E-06,-0.020
-2.430E-06,-0.060
-2.420E-06,-0.080
-2.410E-06,-0.060
-2.400E-06,-0.120
-2.390E-06,-0.100
-2.380E-06,-0.160
-2.370E-06,-0.180
-2.360E-06,-0.240
-2.350E-06,-0.240
-2.340E-06,-0.280
-2.330E-06,-0.220
-2.320E-06,-0.200
-2.310E-06,-0.200
-2.300E-06,-0.160
-2.290E-06,0.020
-2.280E-06,-0.020
-2.270E-06,0.140
-2.260E-06,0.040
-2.250E-06,-0.020
-2.240E-06,-0.140
-2.230E-06,-0.260
-2.220E-06,-0.260
-2.210E-06,-0.280
-2.200E-06,-0.220
-2.190E-06,-0.280
-2.180E-06,-0.280
-2.170E-06,-0.320
-2.160E-06,-0.300
-2.150E-06,-0.280
-2.140E-06,-0.280
-2.130E-06,-0.200
-2.120E-06,-0.140
-2.110E-06,-0.080
-2.100E-06,-0.080
-2.090E-06,-0.100
-2.080E-06,-0.100
-2.070E-06,-0.080
-2.060E-06,-0.120
-2.050E-06,-0.100
-2.040E-06,-0.140
-2.030E-06,-0.140
-2.020E-06,-0.140
-2.010E-06,-0.160
-2.000E-06,-0.140
-1.990E-06,-0.140
-1.980E-06,-0.160
-1.970E-06,-0.140
-1.960E-06,-0.200
-1.950E-06,-0.240
-1.940E-06,-0.220
-1.930E-06,-0.160
-1.920E-06,-0.120
-1.910E-06,0.060
-1.900E-06,0.360
-1.890E-06,0.340
-1.880E-06,0.240
-1.870E-06,0.040
-1.860E-06,-0.140
-1.850E-06,-0.260
-1.840E-06,-0.160
-1.830E-06,-0.020
-1.820E-06,0.080
-1.810E-06,0.360
-1.800E-06,0.280
-1.790E-06,0.280
-1.780E-06,0.120
-1.770E-06,-0.140
-1.760E-06,-0.180
-1.750E-06,-0.280
-1.740E-06,-0.180
-1.730E-06,-0.400
-1.720E-06,-0.400
-1.710E-06,-0.500
-1.700E-06,-0.440
-1.690E-06,-0.440
-1.680E-06,-0.340
-1.670E-06,-0.280
-1.660E-06,-0.220
-1.650E-06,-0.040
-1.640E-06,-0.020
-1.630E-06,0.000
-1.620E-06,-0.100
-1.610E-06,-0.180
-1.600E-06,-0.260
-1.590E-06,-0.300
-1.580E-06,-0.320
-1.570E-06,-0.320
-1.560E-06,-0.340
-1.550E-06,-0.500
-1.540E-06,-0.320
-1.530E-06,-0.220
-1.520E-06,-0.040
-1.510E-06,0.220
-1.500E-06,0.400
-1.490E-06,0.440
-1.480E-06,0.280
-1.470E-06,0.220
-1.460E-06,-0.080
-1.450E-06,-0.020
-1.440E-06,-0.060
-1.430E-06,-0.120
-1.420E-06,-0.140
-1.410E-06,-0.480
-1.400E-06,-0.440
-1.390E-06,-0.440
-1.380E-06,-0.320
-1.370E-06,-0.280
-1.360E-06,-0.200
-1.350E-06,0.200
-1.340E-06,0.100
-1.330E-06,0.240
-1.320E-06,0.440
-1.310E-06,0.540
-1.300E-06,0.380
-1.290E-06,0.200
-1.280E-06,-0.120
-1.270E-06,-0.300
-1.260E-06,-0.580
-1.250E-06,-0.700
-1.240E-06,-0.700
-1.230E-06,-0.620
-1.220E-06,-0.580
-1.210E-06,-0.600
-1.200E-06,-0.520
-1.190E-06,-0.460
-1.180E-06,-0.460
-1.170E-06,-0.540
-1.160E-06,-0.380
-1.150E-06,-0.460
-1.140E-06,-0.180
-1.130E-06,-0.040
-1.120E-06,0.020
-1.110E-06,-0.040
-1.100E-06,-0.100
-1.090E-06,-0.200
-1.080E-06,-0.260
-1.070E-06,-0.320
-1.060E-06,-0.220
-1.050E-06,-0.040
-1.040E-06,0.060
-1.030E-06,0.120
-1.020E-06,0.020
-1.010E-06,-0.020
-1.000E-06,0.120
-9.900E-07,-0.120
-9.800E-07,-0.120
-9.700E-07,-0.200
-9.600E-07,-0.120
-9.500E-07,-0.060
-9.400E-07,0.000
-9.300E-07,-0.060
-9.200E-07,-0.060
-9.100E-07,-0.120
-9.000E-07,-0.220
-8.900E-07,-0.160
-8.800E-07,-0.160
-8.700E-07,-0.120
-8.600E-07,-0.140
-8.500E-07,-0.100
-8.400E-07,-0.160
-8.300E-07,-0.200
-8.200E-07,-0.360
-8.100E-07,-0.380
-8.000E-07,-0.320
-7.900E-07,-0.260
-7.800E-07,-0.300
-7.700E-07,-0.260
-7.600E-07,-0.280
-7.500E-07,-0.320
-7.400E-07,-0.180
-7.300E-07,-0.140
-7.200E-07,-0.300
-7.100E-07,-0.200
-7.000E-07,-0.340
-6.900E-07,-0.240
-6.800E-07,-0.480
-6.700E-07,-0.440
-6.600E-07,-0.580
-6.500E-07,-0.500
-6.400E-07,-0.500
-6.300E-07,-0.420
-6.200E-07,-0.300
-6.100E-07,-0.160
-6.000E-07,-0.040
-5.900E-07,0.060
-5.800E-07,0.120
-5.700E-07,0.140
-5.600E-07,0.160
-5.500E-07,0.200
-5.400E-07,0.080
-5.300E-07,0.040
-5.200E-07,0.000
-5.100E-07,-0.080
-5.000E-07,-0.360
-4.900E-07,-0.280
-4.800E-07,-0.300
-4.700E-07,-0.440
-4.600E-07,-0.480
-4.500E-07,-0.380
-4.400E-07,-0.300
-4.300E-07,-0.340
-4.200E-07,-0.300
-4.100E-07,-0.340
-4.000E-07,-0.340
-3.900E-07,-0.380
-3.800E-07,-0.300
-3.700E-07,-0.280
-3.600E-07,-0.220
-3.500E-07,-0.240
-3.400E-07,-0.260
-3.300E-07,-0.320
-3.200E-07,-0.480
-3.100E-07,-0.680
-3.000E-07,-0.760
-2.900E-07,-1.080
-2.800E-07,-1.000
-2.700E-07,-1.460
-2.600E-07,-1.640
-2.500E-07,-2.060
-2.400E-07,-2.020
-2.300E-07,-2.040
-2.200E-07,-1.940
-2.100E-07,-1.900
-2.000E-07,-1.720
-1.900E-07,-1.680
-1.800E-07,-1.700
-1.700E-07,-1.600
-1.600E-07,-1.380
-1.500E-07,-1.240
-1.400E-07,-1.080
-1.300E-07,-1.020
-1.200E-07,-0.760
-1.100E-07,-0.800
-1.000E-07,-0.600
-9.000E-08,-1.000
-8.000E-08,-0.260
-7.000E-08,0.180
-6.000E-08,1.120
-5.000E-08,1.720
-4.000E-08,1.860
-3.000E-08,0.840
-2.000E-08,0.080
-1.000E-08,-1.800
0.000E+00,-2.120
1.000E-08,-2.120
2.000E-08,-2.120
3.000E-08,-2.120
4.000E-08,-2.120
5.000E-08,-2.100
6.000E-08,-2.100
7.000E-08,-1.680
8.000E-08,-1.860
9.000E-08,-2.060
1.000E-07,-2.080
1.100E-07,-2.140
1.200E-07,-1.900
1.300E-07,-1.320
1.400E-07,-0.820
1.500E-07,-0.220
1.600E-07,0.160
1.700E-07,1.020
1.800E-07,1.040
1.900E-07,1.420
2.000E-07,0.360
2.100E-07,0.220
2.200E-07,-0.120
2.300E-07,-0.880
2.400E-07,-1.780
2.500E-07,-2.100
2.600E-07,-2.100
2.700E-07,-2.100
2.800E-07,-2.120
2.900E-07,-2.120
3.000E-07,-2.120
3.100E-07,-2.120
3.200E-07,-2.100
3.300E-07,-2.120
3.400E-07,-2.120
3.500E-07,-1.420
3.600E-07,-0.100
3.700E-07,1.560
3.800E-07,1.280
3.900E-07,3.300
4.000E-07,2.760
4.100E-07,1.220
4.200E-07,1.020
4.300E-07,0.260
4.400E-07,-0.020
4.500E-07,0.060
4.600E-07,-2.120
4.700E-07,-1.180
4.800E-07,-2.100
4.900E-07,-2.120
5.000E-07,-2.120
5.100E-07,-2.140
5.200E-07,-2.140
5.300E-07,-2.140
5.400E-07,-2.140
5.500E-07,-2.120
5.600E-07,-2.120
5.700E-07,-2.040
5.800E-07,-1.700
5.900E-07,-1.080
6.000E-07,-0.480
6.100E-07,-0.160
6.200E-07,0.460
6.300E-07,0.640
6.400E-07,0.920
6.500E-07,1.000
6.600E-07,1.100
6.700E-07,1.280
6.800E-07,1.720
6.900E-07,1.980
7.000E-07,1.920
7.100E-07,1.820
7.200E-07,1.300
7.300E-07,0.640
7.400E-07,-0.400
7.500E-07,-1.180
7.600E-07,-2.120
7.700E-07,-2.120
7.800E-07,-2.120
7.900E-07,-2.120
8.000E-07,-1.960
8.100E-07,-1.740
8.200E-07,-1.160
8.300E-07,-1.120
8.400E-07,-0.900
8.500E-07,-0.740
8.600E-07,-0.580
8.700E-07,-0.420
8.800E-07,-0.320
8.900E-07,-0.280
9.000E-07,-0.340
9.100E-07,-0.320
9.200E-07,-0.260
9.300E-07,-0.200
9.400E-07,-0.160
9.500E-07,-0.240
9.600E-07,-0.300
9.700E-07,-0.360
9.800E-07,-0.380
9.900E-07,-0.480
1.000E-06,-0.520
1.010E-06,-0.660
1.020E-06,-0.760
1.030E-06,-0.760
1.040E-06,-0.720
1.050E-06,-0.560
1.060E-06,-0.280
1.070E-06,0.120
1.080E-06,0.560
1.090E-06,0.520
1.100E-06,0.520
1.110E-06,0.500
1.120E-06,0.700
1.130E-06,0.920
1.140E-06,0.980
1.150E-06,1.280
1.160E-06,1.320
1.170E-06,1.160
1.180E-06,0.980
1.190E-06,0.760
1.200E-06,0.540
1.210E-06,0.380
1.220E-06,0.260
1.230E-06,0.080
1.240E-06,-0.220
1.250E-06,-0.720
1.260E-06,-1.220
1.270E-06,-1.180
1.280E-06,-0.800
1.290E-06,-0.440
1.300E-06,-0.260
1.310E-06,-0.140
1.320E-06,-0.120
1.330E-06,-0.120
1.340E-06,-0.240
1.350E-06,-0.260
1.360E-06,-0.380
1.370E-06,-0.340
1.380E-06,-0.520
1.390E-06,-0.640
1.400E-06,-0.900
1.410E-06,-0.800
1.420E-06,-0.560
1.430E-06,-0.320
1.440E-06,0.120
1.450E-06,0.300
1.460E-06,0.620
1.470E-06,0.720
1.480E-06,0.840
1.490E-06,0.860
1.500E-06,0.860
1.510E-06,0.760
1.520E-06,0.620
1.530E-06,0.580
1.540E-06,0.480
1.550E-06,0.340
1.560E-06,0.180
1.570E-06,0.040
1.580E-06,-0.040
1.590E-06,-0.100
1.600E-06,-0.100
1.610E-06,-0.120
1.620E-06,-0.020
1.630E-06,0.040
1.640E-06,0.080
1.650E-06,0.120
1.660E-06,0.200
1.670E-06,0.220
1.680E-06,0.280
1.690E-06,0.320
1.700E-06,0.360
1.710E-06,0.480
1.720E-06,0.540
1.730E-06,0.640
1.740E-06,0.700
1.750E-06,0.780
1.760E-06,0.800
1.770E-06,0.800
1.780E-06,0.780
1.790E-06,0.700
1.800E-06,0.640
1.810E-06,0.560
1.820E-06,0.460
1.830E-06,0.360
1.840E-06,0.280
1.850E-06,0.200
1.860E-06,0.120
1.870E-06,0.080
1.880E-06,0.040
1.890E-06,0.060
1.900E-06,0.080
1.910E-06,0.160
1.920E-06,0.280
1.930E-06,0.820
1.940E-06,1.660
1.950E-06,2.280
1.960E-06,2.380
1.970E-06,1.220
1.980E-06,0.360
1.990E-06,-0.280
2.000E-06,-0.580
2.010E-06,-1.180
2.020E-06,-1.320
2.030E-06,-1.440
2.040E-06,-1.140
2.050E-06,-1.100
2.060E-06,-0.620
2.070E-06,-0.180
2.080E-06,0.300
2.090E-06,0.640
2.100E-06,1.040
2.110E-06,1.200
2.120E-06,1.100
2.130E-06,0.940
2.140E-06,0.760
2.150E-06,0.540
2.160E-06,0.500
2.170E-06,0.500
2.180E-06,0.460
2.190E-06,0.480
2.200E-06,0.540
2.210E-06,0.540
2.220E-06,0.520
2.230E-06,0.580
2.240E-06,0.660
2.250E-06,0.680
2.260E-06,0.600
2.270E-06,0.560
2.280E-06,0.520
2.290E-06,0.400
2.300E-06,0.280
2.310E-06,0.220
2.320E-06,0.140
2.330E-06,0.180
2.340E-06,0.200
2.350E-06,0.320
2.360E-06,0.420
2.370E-06,0.540
2.380E-06,0.680
2.390E-06,0.760
2.400E-06,0.740
2.410E-06,0.780
2.420E-06,0.720
2.430E-06,0.660
2.440E-06,0.540
2.450E-06,0.480
2.460E-06,0.340
2.470E-06,0.180
2.480E-06,0.120
2.490E-06,0.120
2.500E-06,0.060
2.510E-06,0.080
2.520E-06,0.180
2.530E-06,0.300
2.540E-06,0.360
2.550E-06,0.480
2.560E-06,0.580
2.570E-06,0.620
2.580E-06,0.600
2.590E-06,0.620
2.600E-06,0.620
2.610E-06,0.580
2.620E-06,0.540
2.630E-06,0.520
2.640E-06,0.480
2.650E-06,0.420
2.660E-06,0.400
2.670E-06,0.400
2.680E-06,0.380
2.690E-06,0.360
2.700E-06,0.420
2.710E-06,0.400
2.720E-06,0.400
2.730E-06,0.420
2.740E-06,0.360
2.750E-06,0.340
2.760E-06,0.320
2.770E-06,0.220
2.780E-06,0.200
2.790E-06,0.180
2.800E-06,0.140
2.810E-06,0.160
2.820E-06,0.160
2.830E-06,0.200
2.840E-06,0.200
2.850E-06,0.260
2.860E-06,0.300
2.870E-06,0.320
2.880E-06,0.380
2.890E-06,0.420
2.900E-06,0.400
2.910E-06,0.460
2.920E-06,0.500
2.930E-06,0.480
2.940E-06,0.540
2.950E-06,0.540
2.960E-06,0.540
2.970E-06,0.580
2.980E-06,0.640
2.990E-06,0.680
3.000E-06,0.740
3.010E-06,0.780
3.020E-06,0.800
3.030E-06,0.860
3.040E-06,0.860
3.050E-06,0.880
3.060E-06,0.900
3.070E-06,0.900
3.080E-06,0.860
3.090E-06,0.860
3.100E-06,0.820
3.110E-06,0.800
3.120E-06,0.800
3.130E-06,0.760
3.140E-06,0.760
3.150E-06,0.720
3.160E-06,0.700
3.170E-06,0.720
3.180E-06,0.660
3.190E-06,0.640
3.200E-06,0.640
3.210E-06,0.620
3.220E-06,0.620
3.230E-06,0.600
3.240E-06,0.580
3.250E-06,0.600
3.260E-06,0.580
3.270E-06,0.560
3.280E-06,0.520
