mediciones/curva carac 8-28 limpias/-35/WaveData65853.csv

#timebase=2000000(ps)
,#voltbase=500000(mv/100)
#size=4000
-8.350E-06,0.060
-8.340E-06,0.000
-8.330E-06,0.060
-8.320E-06,0.040
-8.310E-06,0.080
-8.300E-06,0.060
-8.290E-06,0.020
-8.280E-06,0.060
-8.270E-06,0.080
-8.260E-06,0.040
-8.250E-06,0.020
-8.240E-06,0.040
-8.230E-06,0.080
-8.220E-06,0.060
-8.210E-06,0.060
-8.200E-06,0.060
-8.190E-06,0.060
-8.180E-06,0.020
-8.170E-06,0.040
-8.160E-06,0.040
-8.150E-06,0.060
-8.140E-06,0.040
-8.130E-06,0.020
-8.120E-06,0.040
-8.110E-06,0.040
-8.100E-06,0.060
-8.090E-06,0.020
-8.080E-06,0.060
-8.070E-06,0.060
-8.060E-06,0.040
-8.050E-06,0.020
-8.040E-06,0.060
-8.030E-06,0.040
-8.020E-06,0.060
-8.010E-06,0.000
-8.000E-06,0.020
-7.990E-06,0.020
-7.980E-06,0.020
-7.970E-06,0.040
-7.960E-06,0.020
-7.950E-06,0.020
-7.940E-06,0.060
-7.930E-06,0.040
-7.920E-06,0.020
-7.910E-06,0.060
-7.900E-06,0.020
-7.890E-06,0.060
-7.880E-06,0.020
-7.870E-06,0.040
-7.860E-06,0.000
-7.850E-06,0.040
-7.840E-06,0.020
-7.830E-06,0.040
-7.820E-06,0.060
-7.810E-06,0.020
-7.800E-06,0.060
-7.790E-06,0.020
-7.780E-06,0.040
-7.770E-06,0.000
-7.760E-06,0.040
-7.750E-06,0.040
-7.740E-06,0.080
-7.730E-06,0.040
-7.720E-06,0.040
-7.710E-06,0.040
-7.700E-06,0.040
-7.690E-06,0.040
-7.680E-06,0.060
-7.670E-06,0.060
-7.660E-06,0.060
-7.650E-06,0.060
-7.640E-06,0.060
-7.630E-06,0.040
-7.620E-06,0.020
-7.610E-06,0.060
-7.600E-06,0.040
-7.590E-06,0.020
-7.580E-06,0.020
-7.570E-06,0.020
-7.560E-06,0.060
-7.550E-06,0.040
-7.540E-06,0.060
-7.530E-06,0.020
-7.520E-06,0.020
-7.510E-06,0.020
-7.500E-06,0.040
-7.490E-06,0.040
-7.480E-06,0.040
-7.470E-06,0.040
-7.460E-06,0.040
-7.450E-06,0.080
-7.440E-06,0.020
-7.430E-06,0.040
-7.420E-06,0.080
-7.410E-06,0.020
-7.400E-06,0.020
-7.390E-06,0.040
-7.380E-06,0.040
-7.370E-06,0.020
-7.360E-06,0.040
-7.350E-06,0.040
-7.340E-06,0.020
-7.330E-06,0.020
-7.320E-06,0.060
-7.310E-06,0.040
-7.300E-06,0.040
-7.290E-06,0.080
-7.280E-06,0.040
-7.270E-06,0.060
-7.260E-06,0.080
-7.250E-06,0.080
-7.240E-06,0.060
-7.230E-06,0.000
-7.220E-06,0.040
-7.210E-06,0.060
-7.200E-06,0.040
-7.190E-06,0.020
-7.180E-06,0.040
-7.170E-06,0.060
-7.160E-06,0.040
-7.150E-06,0.060
-7.140E-06,0.060
-7.130E-06,0.020
-7.120E-06,0.040
-7.110E-06,0.040
-7.100E-06,0.060
-7.090E-06,-0.020
-7.080E-06,0.020
-7.070E-06,0.040
-7.060E-06,0.060
-7.050E-06,0.020
-7.040E-06,0.020
-7.030E-06,0.060
-7.020E-06,0.040
-7.010E-06,0.040
-7.000E-06,0.020
-6.990E-06,0.040
-6.980E-06,0.080
-6.970E-06,0.020
-6.960E-06,0.040
-6.950E-06,0.060
-6.940E-06,0.060
-6.930E-06,0.060
-6.920E-06,0.060
-6.910E-06,0.060
-6.900E-06,0.020
-6.890E-06,0.060
-6.880E-06,0.040
-6.870E-06,0.080
-6.860E-06,0.040
-6.850E-06,0.020
-6.840E-06,0.080
-6.830E-06,0.060
-6.820E-06,0.000
-6.810E-06,0.040
-6.800E-06,0.040
-6.790E-06,0.060
-6.780E-06,0.080
-6.770E-06,0.020
-6.760E-06,0.040
-6.750E-06,0.060
-6.740E-06,0.040
-6.730E-06,0.000
-6.720E-06,0.040
-6.710E-06,0.060
-6.700E-06,0.040
-6.690E-06,0.040
-6.680E-06,0.020
-6.670E-06,0.020
-6.660E-06,0.060
-6.650E-06,0.060
-6.640E-06,0.040
-6.630E-06,0.020
-6.620E-06,0.040
-6.610E-06,0.060
-6.600E-06,0.040
-6.590E-06,0.080
-6.580E-06,0.020
-6.570E-06,0.020
-6.560E-06,0.000
-6.550E-06,0.020
-6.540E-06,0.040
-6.530E-06,0.080
-6.520E-06,0.040
-6.510E-06,0.020
-6.500E-06,0.060
-6.490E-06,-0.020
-6.480E-06,0.040
-6.470E-06,0.060
-6.460E-06,0.060
-6.450E-06,0.040
-6.440E-06,0.080
-6.430E-06,0.020
-6.420E-06,-0.020
-6.410E-06,0.040
-6.400E-06,0.060
-6.390E-06,0.060
-6.380E-06,0.040
-6.370E-06,0.060
-6.360E-06,0.060
-6.350E-06,0.020
-6.340E-06,0.040
-6.330E-06,0.040
-6.320E-06,0.020
-6.310E-06,0.040
-6.300E-06,0.060
-6.290E-06,0.020
-6.280E-06,-0.020
-6.270E-06,0.060
-6.260E-06,0.020
-6.250E-06,0.020
-6.240E-06,0.040
-6.230E-06,0.040
-6.220E-06,0.020
-6.210E-06,0.040
-6.200E-06,0.000
-6.190E-06,0.020
-6.180E-06,0.040
-6.170E-06,0.080
-6.160E-06,0.060
-6.150E-06,0.000
-6.140E-06,0.000
-6.130E-06,0.040
-6.120E-06,0.040
-6.110E-06,0.060
-6.100E-06,0.040
-6.090E-06,0.040
-6.080E-06,0.020
-6.070E-06,0.040
-6.060E-06,0.020
-6.050E-06,0.040
-6.040E-06,0.060
-6.030E-06,0.040
-6.020E-06,0.020
-6.010E-06,0.040
-6.000E-06,0.060
-5.990E-06,0.020
-5.980E-06,0.040
-5.970E-06,0.080
-5.960E-06,0.040
-5.950E-06,0.060
-5.940E-06,0.020
-5.930E-06,0.040
-5.920E-06,0.080
-5.910E-06,0.040
-5.900E-06,0.020
-5.890E-06,0.060
-5.880E-06,0.080
-5.870E-06,0.040
-5.860E-06,0.020
-5.850E-06,0.040
-5.840E-06,0.020
-5.830E-06,0.060
-5.820E-06,0.040
-5.810E-06,0.060
-5.800E-06,0.040
-5.790E-06,0.060
-5.780E-06,0.020
-5.770E-06,0.040
-5.760E-06,0.060
-5.750E-06,0.020
-5.740E-06,0.060
-5.730E-06,0.020
-5.720E-06,0.060
-5.710E-06,0.080
-5.700E-06,0.020
-5.690E-06,0.000
-5.680E-06,0.040
-5.670E-06,0.060
-5.660E-06,0.040
-5.650E-06,0.060
-5.640E-06,0.060
-5.630E-06,0.040
-5.620E-06,0.060
-5.610E-06,0.040
-5.600E-06,0.080
-5.590E-06,0.000
-5.580E-06,0.060
-5.570E-06,0.060
-5.560E-06,0.040
-5.550E-06,0.060
-5.540E-06,0.040
-5.530E-06,0.060
-5.520E-06,0.040
-5.510E-06,0.040
-5.500E-06,0.060
-5.490E-06,0.020
-5.480E-06,0.060
-5.470E-06,0.060
-5.460E-06,0.060
-5.450E-06,0.040
-5.440E-06,0.040
-5.430E-06,0.040
-5.420E-06,0.060
-5.410E-06,0.040
-5.400E-06,0.020
-5.390E-06,0.040
-5.380E-06,0.060
-5.370E-06,0.060
-5.360E-06,0.020
-5.350E-06,0.040
-5.340E-06,0.080
-5.330E-06,0.040
-5.320E-06,0.020
-5.310E-06,0.060
-5.300E-06,0.060
-5.290E-06,0.080
-5.280E-06,0.060
-5.270E-06,0.040
-5.260E-06,0.020
-5.250E-06,0.060
-5.240E-06,0.040
-5.230E-06,0.040
-5.220E-06,0.060
-5.210E-06,0.040
-5.200E-06,0.060
-5.190E-06,0.040
-5.180E-06,0.040
-5.170E-06,0.060
-5.160E-06,0.040
-5.150E-06,0.000
-5.140E-06,0.000
-5.130E-06,0.040
-5.120E-06,0.040
-5.110E-06,0.060
-5.100E-06,0.040
-5.090E-06,0.020
-5.080E-06,0.040
-5.070E-06,0.060
-5.060E-06,0.060
-5.050E-06,0.020
-5.040E-06,0.040
-5.030E-06,0.020
-5.020E-06,0.020
-5.010E-06,0.020
-5.000E-06,0.020
-4.990E-06,0.040
-4.980E-06,0.020
-4.970E-06,0.040
-4.960E-06,0.040
-4.950E-06,0.060
-4.940E-06,0.040
-4.930E-06,0.060
-4.920E-06,0.020
-4.910E-06,0.040
-4.900E-06,0.040
-4.890E-06,0.020
-4.880E-06,0.040
-4.870E-06,0.040
-4.860E-06,0.060
-4.850E-06,0.020
-4.840E-06,0.020
-4.830E-06,0.060
-4.820E-06,0.040
-4.810E-06,0.040
-4.800E-06,0.060
-4.790E-06,0.020
-4.780E-06,0.020
-4.770E-06,0.040
-4.760E-06,0.020
-4.750E-06,0.020
-4.740E-06,0.060
-4.730E-06,0.020
-4.720E-06,0.060
-4.710E-06,0.020
-4.700E-06,0.040
-4.690E-06,0.040
-4.680E-06,0.040
-4.670E-06,0.040
-4.660E-06,0.080
-4.650E-06,0.020
-4.640E-06,0.040
-4.630E-06,0.060
-4.620E-06,0.040
-4.610E-06,0.020
-4.600E-06,0.060
-4.590E-06,0.020
-4.580E-06,0.000
-4.570E-06,0.040
-4.560E-06,0.020
-4.550E-06,0.060
-4.540E-06,0.040
-4.530E-06,0.040
-4.520E-06,0.040
-4.510E-06,0.040
-4.500E-06,0.060
-4.490E-06,0.020
-4.480E-06,0.020
-4.470E-06,0.060
-4.460E-06,0.020
-4.450E-06,0.020
-4.440E-06,0.020
-4.430E-06,0.040
-4.420E-06,0.040
-4.410E-06,0.020
-4.400E-06,0.040
-4.390E-06,0.020
-4.380E-06,0.060
-4.370E-06,0.060
-4.360E-06,0.060
-4.350E-06,0.020
-4.340E-06,0.040
-4.330E-06,0.060
-4.320E-06,0.080
-4.310E-06,0.040
-4.300E-06,0.020
-4.290E-06,0.040
-4.280E-06,0.000
-4.270E-06,0.060
-4.260E-06,0.000
-4.250E-06,0.040
-4.240E-06,0.060
-4.230E-06,0.040
-4.220E-06,0.060
-4.210E-06,0.060
-4.200E-06,0.040
-4.190E-06,0.020
-4.180E-06,0.020
-4.170E-06,0.060
-4.160E-06,0.020
-4.150E-06,0.040
-4.140E-06,0.040
-4.130E-06,0.080
-4.120E-06,0.020
-4.110E-06,0.020
-4.100E-06,0.040
-4.090E-06,0.020
-4.080E-06,0.020
-4.070E-06,0.060
-4.060E-06,0.060
-4.050E-06,0.060
-4.040E-06,0.080
-4.030E-06,0.020
-4.020E-06,0.040
-4.010E-06,0.060
-4.000E-06,0.020
-3.990E-06,0.040
-3.980E-06,0.060
-3.970E-06,0.020
-3.960E-06,0.060
-3.950E-06,0.040
-3.940E-06,0.040
-3.930E-06,0.080
-3.920E-06,0.040
-3.910E-06,0.020
-3.900E-06,0.040
-3.890E-06,0.040
-3.880E-06,0.020
-3.870E-06,0.000
-3.860E-06,0.040
-3.850E-06,0.060
-3.840E-06,0.060
-3.830E-06,0.020
-3.820E-06,0.020
-3.810E-06,0.040
-3.800E-06,0.080
-3.790E-06,0.020
-3.780E-06,0.020
-3.770E-06,0.000
-3.760E-06,0.040
-3.750E-06,0.060
-3.740E-06,0.020
-3.730E-06,0.000
-3.720E-06,0.040
-3.710E-06,0.060
-3.700E-06,0.060
-3.690E-06,0.060
-3.680E-06,0.080
-3.670E-06,0.020
-3.660E-06,0.020
-3.650E-06,0.040
-3.640E-06,0.040
-3.630E-06,0.060
-3.620E-06,0.060
-3.610E-06,0.060
-3.600E-06,0.080
-3.590E-06,0.020
-3.580E-06,0.040
-3.570E-06,0.040
-3.560E-06,0.020
-3.550E-06,0.040
-3.540E-06,0.060
-3.530E-06,0.060
-3.520E-06,0.060
-3.510E-06,0.000
-3.500E-06,0.060
-3.490E-06,0.080
-3.480E-06,0.020
-3.470E-06,0.000
-3.460E-06,0.020
-3.450E-06,0.080
-3.440E-06,0.040
-3.430E-06,0.040
-3.420E-06,0.040
-3.410E-06,0.040
-3.400E-06,0.040
-3.390E-06,0.000
-3.380E-06,0.040
-3.370E-06,0.060
-3.360E-06,0.040
-3.350E-06,0.040
-3.340E-06,0.040
-3.330E-06,0.060
-3.320E-06,0.060
-3.310E-06,0.020
-3.300E-06,0.060
-3.290E-06,0.060
-3.280E-06,0.040
-3.270E-06,0.040
-3.260E-06,0.020
-3.250E-06,0.040
-3.240E-06,0.040
-3.230E-06,0.040
-3.220E-06,0.020
-3.210E-06,-0.020
-3.200E-06,-0.320
-3.190E-06,-1.060
-3.180E-06,-2.100
-3.170E-06,-3.000
-3.160E-06,-3.340
-3.150E-06,-3.060
-3.140E-06,-2.200
-3.130E-06,-1.000
-3.120E-06,0.380
-3.110E-06,1.620
-3.100E-06,2.080
-3.090E-06,2.100
-3.080E-06,2.100
-3.070E-06,2.080
-3.060E-06,2.100
-3.050E-06,2.080
-3.040E-06,2.060
-3.030E-06,1.300
-3.020E-06,0.420
-3.010E-06,-0.260
-3.000E-06,-0.620
-2.990E-06,-0.780
-2.980E-06,-0.640
-2.970E-06,-0.440
-2.960E-06,-0.340
-2.950E-06,-0.340
-2.940E-06,-0.520
-2.930E-06,-0.820
-2.920E-06,-1.200
-2.910E-06,-1.560
-2.900E-06,-1.880
-2.890E-06,-2.040
-2.880E-06,-2.020
-2.870E-06,-1.840
-2.860E-06,-1.500
-2.850E-06,-0.900
-2.840E-06,-0.260
-2.830E-06,0.400
-2.820E-06,1.020
-2.810E-06,1.560
-2.800E-06,1.760
-2.790E-06,1.780
-2.780E-06,1.540
-2.770E-06,1.240
-2.760E-06,0.780
-2.750E-06,0.340
-2.740E-06,-0.100
-2.730E-06,-0.480
-2.720E-06,-0.720
-2.710E-06,-0.960
-2.700E-06,-0.980
-2.690E-06,-0.960
-2.680E-06,-0.820
-2.670E-06,-0.680
-2.660E-06,-0.500
-2.650E-06,-0.280
-2.640E-06,-0.140
-2.630E-06,0.040
-2.620E-06,0.320
-2.610E-06,0.540
-2.600E-06,0.840
-2.590E-06,0.840
-2.580E-06,0.920
-2.570E-06,1.060
-2.560E-06,0.600
-2.550E-06,1.180
-2.540E-06,0.620
-2.530E-06,0.700
-2.520E-06,0.080
-2.510E-06,0.300
-2.500E-06,-0.300
-2.490E-06,-0.260
-2.480E-06,-0.360
-2.470E-06,-0.420
-2.460E-06,-0.440
-2.450E-06,-0.600
-2.440E-06,-0.640
-2.430E-06,-0.780
-2.420E-06,-0.740
-2.410E-06,-0.700
-2.400E-06,-0.680
-2.390E-06,-0.500
-2.380E-06,-0.260
-2.370E-06,-0.140
-2.360E-06,0.080
-2.350E-06,0.380
-2.340E-06,0.560
-2.330E-06,0.700
-2.320E-06,0.880
-2.310E-06,0.920
-2.300E-06,0.940
-2.290E-06,0.920
-2.280E-06,0.860
-2.270E-06,0.440
-2.260E-06,0.420
-2.250E-06,0.300
-2.240E-06,0.160
-2.230E-06,-0.220
-2.220E-06,-0.580
-2.210E-06,-0.680
-2.200E-06,-0.920
-2.190E-06,-0.960
-2.180E-06,-0.280
-2.170E-06,-0.560
-2.160E-06,0.060
-2.150E-06,0.080
-2.140E-06,-0.200
-2.130E-06,-0.240
-2.120E-06,-0.300
-2.110E-06,-0.220
-2.100E-06,-0.120
-2.090E-06,-0.180
-2.080E-06,0.100
-2.070E-06,0.080
-2.060E-06,0.080
-2.050E-06,0.100
-2.040E-06,0.060
-2.030E-06,0.100
-2.020E-06,0.200
-2.010E-06,0.180
-2.000E-06,0.160
-1.990E-06,0.160
-1.980E-06,0.120
-1.970E-06,0.040
-1.960E-06,-0.020
-1.950E-06,0.000
-1.940E-06,0.000
-1.930E-06,0.000
-1.920E-06,0.080
-1.910E-06,0.100
-1.900E-06,0.100
-1.890E-06,0.160
-1.880E-06,0.240
-1.870E-06,0.320
-1.860E-06,0.340
-1.850E-06,0.360
-1.840E-06,0.360
-1.830E-06,0.200
-1.820E-06,0.160
-1.810E-06,0.080
-1.800E-06,-0.080
-1.790E-06,-0.020
-1.780E-06,-0.140
-1.770E-06,0.260
-1.760E-06,-0.340
-1.750E-06,0.080
-1.740E-06,-0.520
-1.730E-06,-0.320
-1.720E-06,-0.480
-1.710E-06,-0.440
-1.700E-06,-0.420
-1.690E-06,-0.380
-1.680E-06,-0.460
-1.670E-06,-0.420
-1.660E-06,-0.480
-1.650E-06,-0.420
-1.640E-06,-0.360
-1.630E-06,-0.380
-1.620E-06,-0.300
-1.610E-06,-0.360
-1.600E-06,-0.180
-1.590E-06,-0.400
-1.580E-06,-0.240
-1.570E-06,-0.340
-1.560E-06,0.000
-1.550E-06,-0.360
-1.540E-06,-0.080
-1.530E-06,-0.940
-1.520E-06,-1.000
-1.510E-06,-0.980
-1.500E-06,-0.920
-1.490E-06,-0.760
-1.480E-06,-0.740
-1.470E-06,-0.660
-1.460E-06,-0.640
-1.450E-06,-0.780
-1.440E-06,-0.720
-1.430E-06,-0.840
-1.420E-06,-0.840
-1.410E-06,-1.040
-1.400E-06,-1.000
-1.390E-06,-1.400
-1.380E-06,-1.340
-1.370E-06,-1.620
-1.360E-06,-1.800
-1.350E-06,-1.760
-1.340E-06,-2.000
-1.330E-06,-1.600
-1.320E-06,-1.600
-1.310E-06,-0.840
-1.300E-06,-0.460
-1.290E-06,0.300
-1.280E-06,0.160
-1.270E-06,0.060
-1.260E-06,-0.700
-1.250E-06,-1.500
-1.240E-06,-2.400
-1.230E-06,-3.340
-1.220E-06,-3.340
-1.210E-06,-3.340
-1.200E-06,-3.340
-1.190E-06,-3.340
-1.180E-06,-3.340
-1.170E-06,-3.340
-1.160E-06,-3.360
-1.150E-06,-3.340
-1.140E-06,-3.340
-1.130E-06,-3.340
-1.120E-06,-3.180
-1.110E-06,-3.340
-1.100E-06,-3.340
-1.090E-06,-3.260
-1.080E-06,-3.060
-1.070E-06,-2.360
-1.060E-06,-1.860
-1.050E-06,-1.380
-1.040E-06,-1.180
-1.030E-06,-1.020
-1.020E-06,-0.660
-1.010E-06,-0.800
-1.000E-06,-0.440
-9.900E-07,-0.680
-9.800E-07,-0.720
-9.700E-07,-0.980
-9.600E-07,-1.400
-9.500E-07,-1.780
-9.400E-07,-2.200
-9.300E-07,-2.720
-9.200E-07,-3.100
-9.100E-07,-3.320
-9.000E-07,-3.300
-8.900E-07,-3.340
-8.800E-07,-3.320
-8.700E-07,-3.340
-8.600E-07,-3.300
-8.500E-07,-3.260
-8.400E-07,-3.220
-8.300E-07,-2.980
-8.200E-07,-3.140
-8.100E-07,-3.340
-8.000E-07,-2.640
-7.900E-07,-3.300
-7.800E-07,-2.900
-7.700E-07,-3.340
-7.600E-07,-3.160
-7.500E-07,-3.340
-7.400E-07,-3.320
-7.300E-07,-3.340
-7.200E-07,-3.340
-7.100E-07,-3.340
-7.000E-07,-3.340
-6.900E-07,-3.340
-6.800E-07,-3.340
-6.700E-07,-3.320
-6.600E-07,-3.280
-6.500E-07,-3.280
-6.400E-07,-2.860
-6.300E-07,-2.840
-6.200E-07,-2.500
-6.100E-07,-2.180
-6.000E-07,-1.920
-5.900E-07,-1.760
-5.800E-07,-1.260
-5.700E-07,-1.240
-5.600E-07,-0.800
-5.500E-07,-0.760
-5.400E-07,-0.520
-5.300E-07,-0.500
-5.200E-07,-0.440
-5.100E-07,-0.460
-5.000E-07,-0.600
-4.900E-07,-0.920
-4.800E-07,-1.120
-4.700E-07,-1.520
-4.600E-07,-2.300
-4.500E-07,-2.940
-4.400E-07,-3.340
-4.300E-07,-3.320
-4.200E-07,-3.320
-4.100E-07,-3.340
-4.000E-07,-3.340
-3.900E-07,-3.200
-3.800E-07,-3.240
-3.700E-07,-2.840
-3.600E-07,-2.440
-3.500E-07,-1.960
-3.400E-07,-1.620
-3.300E-07,-1.440
-3.200E-07,-1.240
-3.100E-07,-1.020
-3.000E-07,-0.940
-2.900E-07,-0.760
-2.800E-07,-0.660
-2.700E-07,-0.640
-2.600E-07,-0.780
-2.500E-07,-0.860
-2.400E-07,-1.060
-2.300E-07,-1.180
-2.200E-07,-0.240
-2.100E-07,-1.100
-2.000E-07,-1.680
-1.900E-07,-2.980
-1.800E-07,-2.040
-1.700E-07,-3.340
-1.600E-07,-1.580
-1.500E-07,-0.980
-1.400E-07,-1.820
-1.300E-07,-1.360
-1.200E-07,-2.760
-1.100E-07,-2.020
-1.000E-07,-2.320
-9.000E-08,-1.560
-8.000E-08,-0.800
-7.000E-08,-0.060
-6.000E-08,0.260
-5.000E-08,1.800
-4.000E-08,2.080
-3.000E-08,2.100
-2.000E-08,2.080
-1.000E-08,0.080
0.000E+00,-0.880
1.000E-08,-1.760
2.000E-08,-3.340
3.000E-08,-2.740
4.000E-08,-3.320
5.000E-08,-2.160
6.000E-08,-1.880
7.000E-08,-1.780
8.000E-08,-1.880
9.000E-08,-1.680
1.000E-07,-1.700
1.100E-07,-1.360
1.200E-07,-0.300
1.300E-07,0.120
1.400E-07,0.620
1.500E-07,1.300
1.600E-07,1.400
1.700E-07,1.200
1.800E-07,1.440
1.900E-07,1.240
2.000E-07,1.660
2.100E-07,1.760
2.200E-07,1.960
2.300E-07,2.040
2.400E-07,1.700
2.500E-07,1.340
2.600E-07,0.920
2.700E-07,0.320
2.800E-07,-0.080
2.900E-07,-0.380
3.000E-07,-0.780
3.100E-07,-1.040
3.200E-07,-1.360
3.300E-07,-1.640
3.400E-07,-1.600
3.500E-07,-1.740
3.600E-07,-1.580
3.700E-07,-1.460
3.800E-07,-1.080
3.900E-07,-0.620
4.000E-07,-0.180
4.100E-07,0.260
4.200E-07,0.380
4.300E-07,0.320
4.400E-07,0.200
4.500E-07,-0.020
4.600E-07,-0.260
4.700E-07,-0.440
4.800E-07,-0.700
4.900E-07,-0.880
5.000E-07,-1.100
5.100E-07,-1.340
5.200E-07,-1.500
5.300E-07,-1.660
5.400E-07,-1.760
5.500E-07,-1.840
5.600E-07,-1.820
5.700E-07,-1.640
5.800E-07,-1.420
5.900E-07,-1.120
6.000E-07,-0.920
6.100E-07,-0.800
6.200E-07,-0.620
6.300E-07,-0.280
6.400E-07,0.380
6.500E-07,0.880
6.600E-07,0.940
6.700E-07,0.440
6.800E-07,-0.180
6.900E-07,-0.980
7.000E-07,-2.140
7.100E-07,-2.420
7.200E-07,-3.340
7.300E-07,-3.080
7.400E-07,-3.320
7.500E-07,-3.160
7.600E-07,-3.020
7.700E-07,-3.080
7.800E-07,-3.060
7.900E-07,-3.060
8.000E-07,-3.060
8.100E-07,-2.660
8.200E-07,-2.080
8.300E-07,-1.640
8.400E-07,-1.160
8.500E-07,-0.760
8.600E-07,-0.600
8.700E-07,-0.340
8.800E-07,-0.140
8.900E-07,0.320
9.000E-07,0.540
9.100E-07,0.820
9.200E-07,0.680
9.300E-07,0.560
9.400E-07,0.160
9.500E-07,-0.260
9.600E-07,-0.280
9.700E-07,-0.140
9.800E-07,0.020
9.900E-07,0.220
1.000E-06,0.700
1.010E-06,0.600
1.020E-06,0.720
1.030E-06,0.500
1.040E-06,0.200
1.050E-06,-0.180
1.060E-06,-0.480
1.070E-06,-0.460
1.080E-06,-0.520
1.090E-06,-0.380
1.100E-06,-0.020
1.110E-06,0.160
1.120E-06,0.240
1.130E-06,0.300
1.140E-06,0.380
1.150E-06,0.060
1.160E-06,-0.180
1.170E-06,-0.280
1.180E-06,-0.340
1.190E-06,-0.420
1.200E-06,-0.480
1.210E-06,-0.540
1.220E-06,-0.620
1.230E-06,-0.840
1.240E-06,-0.900
1.250E-06,-1.020
1.260E-06,-0.880
1.270E-06,-0.920
1.280E-06,-0.740
1.290E-06,-0.700
1.300E-06,-0.640
1.310E-06,-0.740
1.320E-06,-0.840
1.330E-06,-0.920
1.340E-06,-0.800
1.350E-06,-0.700
1.360E-06,-0.480
1.370E-06,-0.160
1.380E-06,0.080
1.390E-06,0.440
1.400E-06,0.780
1.410E-06,0.780
1.420E-06,1.000
1.430E-06,0.700
1.440E-06,0.660
1.450E-06,0.020
1.460E-06,-0.340
1.470E-06,-1.080
1.480E-06,-1.000
1.490E-06,-2.360
1.500E-06,-2.020
1.510E-06,-2.560
1.520E-06,-2.400
1.530E-06,-2.420
1.540E-06,-2.440
1.550E-06,-2.200
1.560E-06,-2.200
1.570E-06,-1.960
1.580E-06,-1.860
1.590E-06,-1.520
1.600E-06,-1.440
1.610E-06,-1.320
1.620E-06,-1.020
1.630E-06,-0.900
1.640E-06,-0.860
1.650E-06,-0.780
1.660E-06,-0.660
1.670E-06,-0.500
1.680E-06,-0.180
1.690E-06,0.300
1.700E-06,0.600
1.710E-06,0.680
1.720E-06,0.180
1.730E-06,0.160
1.740E-06,-0.120
1.750E-06,-0.100
1.760E-06,0.460
1.770E-06,0.360
1.780E-06,0.680
1.790E-06,0.320
1.800E-06,0.260
1.810E-06,-0.280
1.820E-06,-0.520
1.830E-06,-1.500
1.840E-06,-1.320
1.850E-06,-2.180
1.860E-06,-1.960
1.870E-06,-2.640
1.880E-06,-2.440
1.890E-06,-2.400
1.900E-06,-1.900
1.910E-06,-1.920
1.920E-06,-1.600
1.930E-06,-1.360
1.940E-06,-1.160
1.950E-06,-0.920
1.960E-06,-0.720
1.970E-06,-0.540
1.980E-06,-0.260
1.990E-06,-0.140
2.000E-06,-0.060
2.010E-06,-0.040
2.020E-06,0.040
2.030E-06,0.080
2.040E-06,0.160
2.050E-06,0.080
2.060E-06,0.080
2.070E-06,0.180
2.080E-06,-0.140
2.090E-06,-0.100
2.100E-06,-0.800
2.110E-06,0.220
2.120E-06,0.080
2.130E-06,0.640
2.140E-06,-0.420
2.150E-06,-0.640
2.160E-06,-1.360
2.170E-06,-1.040
2.180E-06,-1.000
2.190E-06,-0.080
2.200E-06,0.160
2.210E-06,1.120
2.220E-06,1.980
2.230E-06,0.340
2.240E-06,2.100
2.250E-06,2.080
2.260E-06,2.080
2.270E-06,2.060
2.280E-06,2.080
2.290E-06,-2.820
2.300E-06,-2.880
2.310E-06,-3.340
2.320E-06,-3.340
2.330E-06,-3.360
2.340E-06,-3.340
2.350E-06,-3.340
2.360E-06,-3.340
2.370E-06,-3.360
2.380E-06,-3.340
2.390E-06,-3.340
2.400E-06,-3.320
2.410E-06,-2.660
2.420E-06,-0.440
2.430E-06,1.280
2.440E-06,2.060
2.450E-06,2.080
2.460E-06,2.100
2.470E-06,2.080
2.480E-06,2.080
2.490E-06,2.080
2.500E-06,2.060
2.510E-06,2.080
2.520E-06,2.080
2.530E-06,2.100
2.540E-06,2.100
2.550E-06,2.080
2.560E-06,1.600
2.570E-06,0.680
2.580E-06,-0.100
2.590E-06,-0.780
2.600E-06,-1.160
2.610E-06,-1.360
2.620E-06,-1.480
2.630E-06,-1.380
2.640E-06,-1.500
2.650E-06,-0.600
2.660E-06,-0.400
2.670E-06,0.800
2.680E-06,1.400
2.690E-06,2.080
2.700E-06,2.100
2.710E-06,2.100
2.720E-06,2.080
2.730E-06,2.100
2.740E-06,2.080
2.750E-06,1.620
2.760E-06,0.820
2.770E-06,-0.040
2.780E-06,-0.940
2.790E-06,-1.680
2.800E-06,-2.320
2.810E-06,-2.800
2.820E-06,-3.060
2.830E-06,-3.220
2.840E-06,-3.240
2.850E-06,-3.100
2.860E-06,-2.820
2.870E-06,-2.480
2.880E-06,-2.040
2.890E-06,-1.620
2.900E-06,-1.180
2.910E-06,-0.840
2.920E-06,-0.500
2.930E-06,-0.060
2.940E-06,0.440
2.950E-06,0.880
2.960E-06,1.360
2.970E-06,1.900
2.980E-06,2.080
2.990E-06,2.060
3.000E-06,2.080
3.010E-06,1.960
3.020E-06,1.460
3.030E-06,0.980
3.040E-06,0.240
3.050E-06,-0.500
3.060E-06,-1.020
3.070E-06,-1.520
3.080E-06,-1.860
3.090E-06,-2.060
3.100E-06,-2.160
3.110E-06,-1.960
3.120E-06,-1.700
3.130E-06,-1.240
3.140E-06,-0.700
3.150E-06,-0.320
3.160E-06,0.260
3.170E-06,0.560
3.180E-06,0.960
3.190E-06,1.020
3.200E-06,1.400
3.210E-06,1.140
3.220E-06,1.400
3.230E-06,1.020
3.240E-06,0.940
3.250E-06,0.800
3.260E-06,0.560
3.270E-06,0.540
3.280E-06,0.420
3.290E-06,0.380
3.300E-06,0.380
