mediciones/curva carac 8-28 limpias/-35/WaveData65857.csv

#timebase=2000000(ps)
,#voltbase=500000(mv/100)
#size=4000
-8.350E-06,0.060
-8.340E-06,0.060
-8.330E-06,0.060
-8.320E-06,0.060
-8.310E-06,0.020
-8.300E-06,0.040
-8.290E-06,0.020
-8.280E-06,0.060
-8.270E-06,0.040
-8.260E-06,0.020
-8.250E-06,0.080
-8.240E-06,-0.020
-8.230E-06,0.020
-8.220E-06,0.060
-8.210E-06,0.000
-8.200E-06,0.020
-8.190E-06,0.040
-8.180E-06,0.040
-8.170E-06,0.060
-8.160E-06,0.060
-8.150E-06,0.020
-8.140E-06,0.040
-8.130E-06,0.080
-8.120E-06,0.040
-8.110E-06,0.020
-8.100E-06,0.020
-8.090E-06,0.060
-8.080E-06,0.020
-8.070E-06,0.040
-8.060E-06,0.060
-8.050E-06,0.060
-8.040E-06,0.060
-8.030E-06,0.060
-8.020E-06,0.060
-8.010E-06,0.080
-8.000E-06,0.020
-7.990E-06,0.040
-7.980E-06,0.040
-7.970E-06,0.060
-7.960E-06,0.040
-7.950E-06,0.020
-7.940E-06,0.020
-7.930E-06,0.040
-7.920E-06,0.040
-7.910E-06,0.020
-7.900E-06,0.040
-7.890E-06,-0.020
-7.880E-06,0.040
-7.870E-06,0.040
-7.860E-06,0.040
-7.850E-06,0.040
-7.840E-06,0.000
-7.830E-06,0.000
-7.820E-06,0.040
-7.810E-06,0.020
-7.800E-06,0.040
-7.790E-06,0.060
-7.780E-06,0.060
-7.770E-06,0.040
-7.760E-06,0.040
-7.750E-06,0.020
-7.740E-06,0.020
-7.730E-06,0.040
-7.720E-06,0.020
-7.710E-06,0.040
-7.700E-06,0.060
-7.690E-06,0.040
-7.680E-06,0.020
-7.670E-06,0.040
-7.660E-06,0.060
-7.650E-06,0.040
-7.640E-06,0.020
-7.630E-06,0.040
-7.620E-06,0.040
-7.610E-06,0.040
-7.600E-06,0.040
-7.590E-06,0.040
-7.580E-06,0.060
-7.570E-06,0.020
-7.560E-06,0.020
-7.550E-06,0.020
-7.540E-06,0.020
-7.530E-06,0.040
-7.520E-06,0.040
-7.510E-06,0.060
-7.500E-06,0.020
-7.490E-06,0.080
-7.480E-06,0.020
-7.470E-06,0.040
-7.460E-06,0.040
-7.450E-06,0.060
-7.440E-06,0.020
-7.430E-06,0.000
-7.420E-06,0.040
-7.410E-06,0.060
-7.400E-06,0.040
-7.390E-06,0.060
-7.380E-06,0.020
-7.370E-06,0.060
-7.360E-06,0.060
-7.350E-06,0.060
-7.340E-06,0.040
-7.330E-06,0.040
-7.320E-06,0.040
-7.310E-06,0.080
-7.300E-06,0.060
-7.290E-06,0.020
-7.280E-06,0.000
-7.270E-06,0.040
-7.260E-06,0.060
-7.250E-06,0.060
-7.240E-06,0.020
-7.230E-06,0.020
-7.220E-06,0.040
-7.210E-06,0.040
-7.200E-06,0.020
-7.190E-06,0.040
-7.180E-06,0.020
-7.170E-06,0.060
-7.160E-06,0.020
-7.150E-06,0.040
-7.140E-06,0.040
-7.130E-06,0.060
-7.120E-06,0.040
-7.110E-06,0.080
-7.100E-06,0.060
-7.090E-06,0.060
-7.080E-06,0.020
-7.070E-06,0.000
-7.060E-06,0.060
-7.050E-06,0.060
-7.040E-06,0.020
-7.030E-06,0.020
-7.020E-06,0.040
-7.010E-06,0.060
-7.000E-06,0.020
-6.990E-06,0.040
-6.980E-06,0.040
-6.970E-06,0.020
-6.960E-06,0.060
-6.950E-06,0.040
-6.940E-06,0.040
-6.930E-06,0.060
-6.920E-06,0.060
-6.910E-06,0.060
-6.900E-06,0.040
-6.890E-06,0.060
-6.880E-06,0.020
-6.870E-06,0.040
-6.860E-06,0.060
-6.850E-06,0.060
-6.840E-06,0.020
-6.830E-06,0.040
-6.820E-06,-0.020
-6.810E-06,0.020
-6.800E-06,0.040
-6.790E-06,0.040
-6.780E-06,0.020
-6.770E-06,0.020
-6.760E-06,0.040
-6.750E-06,0.060
-6.740E-06,0.080
-6.730E-06,0.060
-6.720E-06,0.040
-6.710E-06,0.020
-6.700E-06,-0.020
-6.690E-06,0.080
-6.680E-06,0.040
-6.670E-06,0.060
-6.660E-06,0.020
-6.650E-06,0.040
-6.640E-06,0.040
-6.630E-06,0.060
-6.620E-06,0.040
-6.610E-06,0.020
-6.600E-06,0.000
-6.590E-06,0.040
-6.580E-06,0.020
-6.570E-06,0.060
-6.560E-06,0.020
-6.550E-06,0.040
-6.540E-06,0.080
-6.530E-06,0.020
-6.520E-06,0.040
-6.510E-06,0.040
-6.500E-06,0.060
-6.490E-06,0.040
-6.480E-06,0.060
-6.470E-06,0.060
-6.460E-06,0.060
-6.450E-06,0.060
-6.440E-06,0.060
-6.430E-06,0.020
-6.420E-06,0.020
-6.410E-06,0.040
-6.400E-06,0.020
-6.390E-06,0.040
-6.380E-06,0.020
-6.370E-06,0.020
-6.360E-06,0.020
-6.350E-06,0.040
-6.340E-06,0.000
-6.330E-06,0.020
-6.320E-06,0.060
-6.310E-06,0.040
-6.300E-06,0.020
-6.290E-06,0.020
-6.280E-06,0.020
-6.270E-06,0.060
-6.260E-06,0.040
-6.250E-06,0.020
-6.240E-06,0.040
-6.230E-06,0.060
-6.220E-06,0.040
-6.210E-06,0.020
-6.200E-06,0.060
-6.190E-06,0.020
-6.180E-06,0.060
-6.170E-06,0.020
-6.160E-06,0.040
-6.150E-06,0.020
-6.140E-06,0.040
-6.130E-06,0.040
-6.120E-06,0.020
-6.110E-06,-0.020
-6.100E-06,0.020
-6.090E-06,0.060
-6.080E-06,0.020
-6.070E-06,0.020
-6.060E-06,0.060
-6.050E-06,0.020
-6.040E-06,0.040
-6.030E-06,0.020
-6.020E-06,0.020
-6.010E-06,0.020
-6.000E-06,0.020
-5.990E-06,0.040
-5.980E-06,0.020
-5.970E-06,0.020
-5.960E-06,0.040
-5.950E-06,0.000
-5.940E-06,0.020
-5.930E-06,0.020
-5.920E-06,0.080
-5.910E-06,0.020
-5.900E-06,0.020
-5.890E-06,0.040
-5.880E-06,0.060
-5.870E-06,0.040
-5.860E-06,0.020
-5.850E-06,0.020
-5.840E-06,0.060
-5.830E-06,0.020
-5.820E-06,0.040
-5.810E-06,0.020
-5.800E-06,0.020
-5.790E-06,0.060
-5.780E-06,0.060
-5.770E-06,0.060
-5.760E-06,0.020
-5.750E-06,0.040
-5.740E-06,0.020
-5.730E-06,0.040
-5.720E-06,0.000
-5.710E-06,0.040
-5.700E-06,0.040
-5.690E-06,0.080
-5.680E-06,0.020
-5.670E-06,0.000
-5.660E-06,0.040
-5.650E-06,0.040
-5.640E-06,0.040
-5.630E-06,0.060
-5.620E-06,0.060
-5.610E-06,0.020
-5.600E-06,0.040
-5.590E-06,0.040
-5.580E-06,0.060
-5.570E-06,0.060
-5.560E-06,0.040
-5.550E-06,0.020
-5.540E-06,0.040
-5.530E-06,0.000
-5.520E-06,0.020
-5.510E-06,0.040
-5.500E-06,0.040
-5.490E-06,0.020
-5.480E-06,0.040
-5.470E-06,0.020
-5.460E-06,0.040
-5.450E-06,0.040
-5.440E-06,0.040
-5.430E-06,0.060
-5.420E-06,0.040
-5.410E-06,0.020
-5.400E-06,0.040
-5.390E-06,0.020
-5.380E-06,0.040
-5.370E-06,0.040
-5.360E-06,0.020
-5.350E-06,0.000
-5.340E-06,0.060
-5.330E-06,0.040
-5.320E-06,0.020
-5.310E-06,0.020
-5.300E-06,0.020
-5.290E-06,0.040
-5.280E-06,0.060
-5.270E-06,0.040
-5.260E-06,0.000
-5.250E-06,0.020
-5.240E-06,0.040
-5.230E-06,0.080
-5.220E-06,0.040
-5.210E-06,0.000
-5.200E-06,0.040
-5.190E-06,0.040
-5.180E-06,0.080
-5.170E-06,0.020
-5.160E-06,0.040
-5.150E-06,0.000
-5.140E-06,0.060
-5.130E-06,0.040
-5.120E-06,0.020
-5.110E-06,0.060
-5.100E-06,0.040
-5.090E-06,0.000
-5.080E-06,0.060
-5.070E-06,0.040
-5.060E-06,0.060
-5.050E-06,0.060
-5.040E-06,0.040
-5.030E-06,0.020
-5.020E-06,0.040
-5.010E-06,0.020
-5.000E-06,0.000
-4.990E-06,0.040
-4.980E-06,0.040
-4.970E-06,0.080
-4.960E-06,0.040
-4.950E-06,0.020
-4.940E-06,0.040
-4.930E-06,0.060
-4.920E-06,0.040
-4.910E-06,0.020
-4.900E-06,0.020
-4.890E-06,0.060
-4.880E-06,0.020
-4.870E-06,0.020
-4.860E-06,0.040
-4.850E-06,0.020
-4.840E-06,0.040
-4.830E-06,0.060
-4.820E-06,0.060
-4.810E-06,0.040
-4.800E-06,0.060
-4.790E-06,0.020
-4.780E-06,0.060
-4.770E-06,0.040
-4.760E-06,0.020
-4.750E-06,0.060
-4.740E-06,0.020
-4.730E-06,0.040
-4.720E-06,0.020
-4.710E-06,0.040
-4.700E-06,0.060
-4.690E-06,0.040
-4.680E-06,0.020
-4.670E-06,0.040
-4.660E-06,0.020
-4.650E-06,0.020
-4.640E-06,0.020
-4.630E-06,0.020
-4.620E-06,0.040
-4.610E-06,0.060
-4.600E-06,0.020
-4.590E-06,0.020
-4.580E-06,0.060
-4.570E-06,0.060
-4.560E-06,0.040
-4.550E-06,0.040
-4.540E-06,0.020
-4.530E-06,0.060
-4.520E-06,0.020
-4.510E-06,0.040
-4.500E-06,0.020
-4.490E-06,0.000
-4.480E-06,0.040
-4.470E-06,0.060
-4.460E-06,0.060
-4.450E-06,0.020
-4.440E-06,0.060
-4.430E-06,0.060
-4.420E-06,0.040
-4.410E-06,0.020
-4.400E-06,0.020
-4.390E-06,0.040
-4.380E-06,0.040
-4.370E-06,0.040
-4.360E-06,0.060
-4.350E-06,0.020
-4.340E-06,0.060
-4.330E-06,0.060
-4.320E-06,0.060
-4.310E-06,0.020
-4.300E-06,0.060
-4.290E-06,0.080
-4.280E-06,0.040
-4.270E-06,0.040
-4.260E-06,0.060
-4.250E-06,0.020
-4.240E-06,0.020
-4.230E-06,0.040
-4.220E-06,0.020
-4.210E-06,0.040
-4.200E-06,0.040
-4.190E-06,0.040
-4.180E-06,0.040
-4.170E-06,0.040
-4.160E-06,0.060
-4.150E-06,0.040
-4.140E-06,0.000
-4.130E-06,0.040
-4.120E-06,0.040
-4.110E-06,0.020
-4.100E-06,0.040
-4.090E-06,0.020
-4.080E-06,0.040
-4.070E-06,0.020
-4.060E-06,0.060
-4.050E-06,0.040
-4.040E-06,0.040
-4.030E-06,0.040
-4.020E-06,0.020
-4.010E-06,0.020
-4.000E-06,0.040
-3.990E-06,0.020
-3.980E-06,0.040
-3.970E-06,0.020
-3.960E-06,0.060
-3.950E-06,0.040
-3.940E-06,0.060
-3.930E-06,0.060
-3.920E-06,0.080
-3.910E-06,0.020
-3.900E-06,0.040
-3.890E-06,0.060
-3.880E-06,0.060
-3.870E-06,0.060
-3.860E-06,0.040
-3.850E-06,0.060
-3.840E-06,0.060
-3.830E-06,0.040
-3.820E-06,0.080
-3.810E-06,0.040
-3.800E-06,0.000
-3.790E-06,0.040
-3.780E-06,0.020
-3.770E-06,0.040
-3.760E-06,0.060
-3.750E-06,0.060
-3.740E-06,0.020
-3.730E-06,0.060
-3.720E-06,0.020
-3.710E-06,0.060
-3.700E-06,0.040
-3.690E-06,0.060
-3.680E-06,0.060
-3.670E-06,0.020
-3.660E-06,0.040
-3.650E-06,0.020
-3.640E-06,0.060
-3.630E-06,0.040
-3.620E-06,0.040
-3.610E-06,0.060
-3.600E-06,0.040
-3.590E-06,0.060
-3.580E-06,0.060
-3.570E-06,-0.020
-3.560E-06,0.040
-3.550E-06,0.040
-3.540E-06,0.060
-3.530E-06,0.020
-3.520E-06,0.080
-3.510E-06,0.060
-3.500E-06,0.020
-3.490E-06,0.040
-3.480E-06,0.040
-3.470E-06,0.040
-3.460E-06,0.040
-3.450E-06,0.020
-3.440E-06,0.020
-3.430E-06,0.040
-3.420E-06,0.020
-3.410E-06,0.020
-3.400E-06,0.060
-3.390E-06,0.000
-3.380E-06,0.040
-3.370E-06,0.040
-3.360E-06,0.020
-3.350E-06,0.040
-3.340E-06,0.060
-3.330E-06,0.020
-3.320E-06,0.060
-3.310E-06,0.060
-3.300E-06,0.060
-3.290E-06,0.040
-3.280E-06,0.060
-3.270E-06,-0.020
-3.260E-06,-0.340
-3.250E-06,-1.080
-3.240E-06,-2.160
-3.230E-06,-3.140
-3.220E-06,-3.360
-3.210E-06,-3.360
-3.200E-06,-3.360
-3.190E-06,-2.220
-3.180E-06,-0.740
-3.170E-06,0.920
-3.160E-06,2.080
-3.150E-06,2.100
-3.140E-06,2.100
-3.130E-06,2.080
-3.120E-06,2.080
-3.110E-06,2.060
-3.100E-06,2.080
-3.090E-06,2.080
-3.080E-06,1.520
-3.070E-06,0.480
-3.060E-06,-0.340
-3.050E-06,-0.780
-3.040E-06,-0.860
-3.030E-06,-0.740
-3.020E-06,-0.600
-3.010E-06,-0.520
-3.000E-06,-0.560
-2.990E-06,-0.840
-2.980E-06,-1.260
-2.970E-06,-1.780
-2.960E-06,-2.200
-2.950E-06,-2.540
-2.940E-06,-2.680
-2.930E-06,-2.540
-2.920E-06,-2.200
-2.910E-06,-1.640
-2.900E-06,-0.860
-2.890E-06,-0.040
-2.880E-06,0.800
-2.870E-06,1.540
-2.860E-06,1.940
-2.850E-06,2.080
-2.840E-06,2.100
-2.830E-06,1.860
-2.820E-06,1.360
-2.810E-06,0.800
-2.800E-06,0.280
-2.790E-06,-0.340
-2.780E-06,-0.800
-2.770E-06,-1.100
-2.760E-06,-1.280
-2.750E-06,-1.340
-2.740E-06,-1.240
-2.730E-06,-1.040
-2.720E-06,-0.840
-2.710E-06,-0.680
-2.700E-06,-0.340
-2.690E-06,0.160
-2.680E-06,0.440
-2.670E-06,0.580
-2.660E-06,0.780
-2.650E-06,0.940
-2.640E-06,0.940
-2.630E-06,1.220
-2.620E-06,1.120
-2.610E-06,1.240
-2.600E-06,1.160
-2.590E-06,0.920
-2.580E-06,0.780
-2.570E-06,0.480
-2.560E-06,0.360
-2.550E-06,0.140
-2.540E-06,-0.160
-2.530E-06,-0.240
-2.520E-06,-0.420
-2.510E-06,-0.560
-2.500E-06,-0.700
-2.490E-06,-0.740
-2.480E-06,-0.900
-2.470E-06,-0.920
-2.460E-06,-0.920
-2.450E-06,-0.780
-2.440E-06,-0.640
-2.430E-06,-0.440
-2.420E-06,-0.080
-2.410E-06,0.240
-2.400E-06,0.520
-2.390E-06,0.780
-2.380E-06,1.020
-2.370E-06,1.080
-2.360E-06,1.140
-2.350E-06,0.960
-2.340E-06,0.940
-2.330E-06,0.400
-2.320E-06,0.720
-2.310E-06,0.080
-2.300E-06,0.560
-2.290E-06,-0.820
-2.280E-06,-0.340
-2.270E-06,-0.840
-2.260E-06,-0.940
-2.250E-06,-0.840
-2.240E-06,-0.700
-2.230E-06,-0.500
-2.220E-06,-0.320
-2.210E-06,-0.380
-2.200E-06,-0.080
-2.190E-06,-0.180
-2.180E-06,0.000
-2.170E-06,0.060
-2.160E-06,0.020
-2.150E-06,0.080
-2.140E-06,0.180
-2.130E-06,0.120
-2.120E-06,0.180
-2.110E-06,0.200
-2.100E-06,0.180
-2.090E-06,0.200
-2.080E-06,0.240
-2.070E-06,0.260
-2.060E-06,0.220
-2.050E-06,0.200
-2.040E-06,0.160
-2.030E-06,0.100
-2.020E-06,0.060
-2.010E-06,0.080
-2.000E-06,0.080
-1.990E-06,0.060
-1.980E-06,0.060
-1.970E-06,0.060
-1.960E-06,0.080
-1.950E-06,0.100
-1.940E-06,0.120
-1.930E-06,0.060
-1.920E-06,0.060
-1.910E-06,-0.040
-1.900E-06,0.300
-1.890E-06,-0.100
-1.880E-06,0.320
-1.870E-06,-0.120
-1.860E-06,0.060
-1.850E-06,-0.120
-1.840E-06,-0.200
-1.830E-06,-0.240
-1.820E-06,-0.440
-1.810E-06,-0.360
-1.800E-06,-0.420
-1.790E-06,-0.320
-1.780E-06,-0.340
-1.770E-06,-0.420
-1.760E-06,-0.360
-1.750E-06,-0.600
-1.740E-06,-0.540
-1.730E-06,-0.680
-1.720E-06,-0.480
-1.710E-06,-0.420
-1.700E-06,-0.420
-1.690E-06,-0.260
-1.680E-06,-0.180
-1.670E-06,-0.460
-1.660E-06,-0.020
-1.650E-06,-0.320
-1.640E-06,-0.320
-1.630E-06,-0.160
-1.620E-06,-0.340
-1.610E-06,0.280
-1.600E-06,-0.580
-1.590E-06,-0.120
-1.580E-06,-0.040
-1.570E-06,0.100
-1.560E-06,-0.500
-1.550E-06,0.420
-1.540E-06,-0.260
-1.530E-06,0.300
-1.520E-06,-0.340
-1.510E-06,0.340
-1.500E-06,0.080
-1.490E-06,0.160
-1.480E-06,0.080
-1.470E-06,0.040
-1.460E-06,-0.100
-1.450E-06,-0.260
-1.440E-06,-0.240
-1.430E-06,-0.260
-1.420E-06,-0.080
-1.410E-06,-0.040
-1.400E-06,0.000
-1.390E-06,0.140
-1.380E-06,0.160
-1.370E-06,0.720
-1.360E-06,1.320
-1.350E-06,1.900
-1.340E-06,2.080
-1.330E-06,2.060
-1.320E-06,1.560
-1.310E-06,0.900
-1.300E-06,-0.380
-1.290E-06,-0.920
-1.280E-06,-1.460
-1.270E-06,-1.420
-1.260E-06,-1.520
-1.250E-06,-1.880
-1.240E-06,-2.380
-1.230E-06,-2.780
-1.220E-06,-2.840
-1.210E-06,-2.400
-1.200E-06,-1.840
-1.190E-06,-1.280
-1.180E-06,-1.020
-1.170E-06,-0.780
-1.160E-06,-0.700
-1.150E-06,-0.720
-1.140E-06,-0.580
-1.130E-06,-0.060
-1.120E-06,0.500
-1.110E-06,1.020
-1.100E-06,1.240
-1.090E-06,1.460
-1.080E-06,1.440
-1.070E-06,1.480
-1.060E-06,1.480
-1.050E-06,1.500
-1.040E-06,1.160
-1.030E-06,0.980
-1.020E-06,0.840
-1.010E-06,-0.180
-1.000E-06,-0.280
-9.900E-07,-1.200
-9.800E-07,-1.880
-9.700E-07,-2.240
-9.600E-07,-2.620
-9.500E-07,-2.460
-9.400E-07,-2.400
-9.300E-07,-2.060
-9.200E-07,-1.640
-9.100E-07,-1.240
-9.000E-07,-0.420
-8.900E-07,-0.360
-8.800E-07,0.500
-8.700E-07,0.100
-8.600E-07,0.260
-8.500E-07,0.340
-8.400E-07,-0.100
-8.300E-07,0.300
-8.200E-07,-0.100
-8.100E-07,-0.200
-8.000E-07,0.100
-7.900E-07,-0.300
-7.800E-07,-0.480
-7.700E-07,-0.440
-7.600E-07,-0.700
-7.500E-07,-0.680
-7.400E-07,-0.940
-7.300E-07,-0.980
-7.200E-07,-0.980
-7.100E-07,-1.100
-7.000E-07,-1.140
-6.900E-07,-1.080
-6.800E-07,-0.860
-6.700E-07,-0.840
-6.600E-07,-0.580
-6.500E-07,-0.360
-6.400E-07,-0.200
-6.300E-07,0.640
-6.200E-07,0.120
-6.100E-07,0.640
-6.000E-07,0.460
-5.900E-07,-0.020
-5.800E-07,-0.240
-5.700E-07,-0.660
-5.600E-07,-0.720
-5.500E-07,-1.400
-5.400E-07,-1.260
-5.300E-07,-1.940
-5.200E-07,-1.580
-5.100E-07,-1.920
-5.000E-07,-1.660
-4.900E-07,-1.660
-4.800E-07,-1.640
-4.700E-07,-1.340
-4.600E-07,-1.380
-4.500E-07,-1.220
-4.400E-07,-0.940
-4.300E-07,-0.640
-4.200E-07,-0.620
-4.100E-07,0.100
-4.000E-07,-0.300
-3.900E-07,0.280
-3.800E-07,0.080
-3.700E-07,0.180
-3.600E-07,-0.460
-3.500E-07,-1.180
-3.400E-07,-1.800
-3.300E-07,-1.780
-3.200E-07,-1.460
-3.100E-07,-1.480
-3.000E-07,-1.180
-2.900E-07,-1.120
-2.800E-07,-0.940
-2.700E-07,-1.100
-2.600E-07,-1.200
-2.500E-07,-0.580
-2.400E-07,-0.460
-2.300E-07,-0.180
-2.200E-07,-1.000
-2.100E-07,-1.060
-2.000E-07,-1.480
-1.900E-07,-2.320
-1.800E-07,-2.500
-1.700E-07,-3.340
-1.600E-07,-3.000
-1.500E-07,-3.100
-1.400E-07,-2.540
-1.300E-07,-1.980
-1.200E-07,-1.500
-1.100E-07,-1.060
-1.000E-07,-1.000
-9.000E-08,-0.880
-8.000E-08,-0.860
-7.000E-08,-0.720
-6.000E-08,-0.440
-5.000E-08,-0.100
-4.000E-08,0.160
-3.000E-08,0.340
-2.000E-08,0.360
-1.000E-08,0.580
0.000E+00,0.620
1.000E-08,0.500
2.000E-08,0.500
3.000E-08,0.380
4.000E-08,0.240
5.000E-08,0.160
6.000E-08,-0.080
7.000E-08,-0.260
8.000E-08,-0.360
9.000E-08,-0.580
1.000E-07,-0.660
1.100E-07,-0.780
1.200E-07,-0.860
1.300E-07,-0.820
1.400E-07,-0.860
1.500E-07,-0.860
1.600E-07,-0.940
1.700E-07,-0.920
1.800E-07,-0.900
1.900E-07,-0.760
2.000E-07,-0.660
2.100E-07,-0.480
2.200E-07,-0.320
2.300E-07,-0.300
2.400E-07,-0.360
2.500E-07,-0.440
2.600E-07,-0.660
2.700E-07,-0.840
2.800E-07,-1.040
2.900E-07,-1.200
3.000E-07,-1.280
3.100E-07,-1.160
3.200E-07,-1.240
3.300E-07,-1.340
3.400E-07,-0.940
3.500E-07,-0.720
3.600E-07,-0.420
3.700E-07,-0.340
3.800E-07,-1.020
3.900E-07,-2.320
4.000E-07,-3.340
4.100E-07,-3.340
4.200E-07,-3.340
4.300E-07,-3.340
4.400E-07,-3.340
4.500E-07,-3.340
4.600E-07,-3.240
4.700E-07,-2.960
4.800E-07,-2.640
4.900E-07,-2.040
5.000E-07,-1.820
5.100E-07,-1.520
5.200E-07,-1.980
5.300E-07,-3.340
5.400E-07,-3.340
5.500E-07,-3.340
5.600E-07,-3.340
5.700E-07,-3.320
5.800E-07,-3.320
5.900E-07,-3.340
6.000E-07,-3.340
6.100E-07,-2.820
6.200E-07,-2.540
6.300E-07,-2.340
6.400E-07,-2.120
6.500E-07,-1.860
6.600E-07,-1.480
6.700E-07,-0.840
6.800E-07,-0.420
6.900E-07,-0.080
7.000E-07,-0.040
7.100E-07,-0.020
7.200E-07,-0.280
7.300E-07,-0.600
7.400E-07,-0.800
7.500E-07,-1.180
7.600E-07,-1.160
7.700E-07,-1.360
7.800E-07,-1.280
7.900E-07,-1.300
8.000E-07,-1.480
8.100E-07,-1.460
8.200E-07,-1.620
8.300E-07,-1.800
8.400E-07,-2.060
8.500E-07,-2.260
8.600E-07,-2.460
8.700E-07,-2.540
8.800E-07,-2.620
8.900E-07,-2.540
9.000E-07,-2.440
9.100E-07,-2.320
9.200E-07,-2.200
9.300E-07,-1.940
9.400E-07,-1.780
9.500E-07,-1.600
9.600E-07,-1.440
9.700E-07,-1.360
9.800E-07,-1.360
9.900E-07,-1.400
1.000E-06,-1.540
1.010E-06,-1.700
1.020E-06,-1.840
1.030E-06,-1.920
1.040E-06,-1.920
1.050E-06,-2.020
1.060E-06,-1.940
1.070E-06,-1.980
1.080E-06,-1.920
1.090E-06,-1.840
1.100E-06,-1.820
1.110E-06,-1.780
1.120E-06,-1.660
1.130E-06,-1.500
1.140E-06,-1.380
1.150E-06,-1.340
1.160E-06,-1.120
1.170E-06,-1.240
1.180E-06,-1.160
1.190E-06,-1.100
1.200E-06,-0.860
1.210E-06,-0.740
1.220E-06,-0.520
1.230E-06,-0.400
1.240E-06,-0.180
1.250E-06,-0.100
1.260E-06,-0.120
1.270E-06,-0.140
1.280E-06,-0.420
1.290E-06,-0.360
1.300E-06,-0.700
1.310E-06,-0.780
1.320E-06,-0.940
1.330E-06,-1.020
1.340E-06,-1.140
1.350E-06,-1.120
1.360E-06,-0.960
1.370E-06,-0.880
1.380E-06,-0.700
1.390E-06,-0.520
1.400E-06,-0.260
1.410E-06,-0.120
1.420E-06,-0.080
1.430E-06,-0.080
1.440E-06,0.160
1.450E-06,0.000
1.460E-06,0.020
1.470E-06,0.040
1.480E-06,0.000
1.490E-06,0.080
1.500E-06,0.020
1.510E-06,0.020
1.520E-06,0.160
1.530E-06,0.120
1.540E-06,0.200
1.550E-06,-0.080
1.560E-06,0.120
1.570E-06,-0.080
1.580E-06,0.080
1.590E-06,-0.080
1.600E-06,-0.120
1.610E-06,-0.160
1.620E-06,-0.320
1.630E-06,-0.240
1.640E-06,-0.480
1.650E-06,-0.360
1.660E-06,-0.300
1.670E-06,-0.280
1.680E-06,-0.260
1.690E-06,-0.320
1.700E-06,-0.120
1.710E-06,-0.080
1.720E-06,-0.080
1.730E-06,-0.100
1.740E-06,0.040
1.750E-06,0.100
1.760E-06,0.040
1.770E-06,0.080
1.780E-06,-0.040
1.790E-06,0.060
1.800E-06,0.020
1.810E-06,-0.060
1.820E-06,0.120
1.830E-06,-0.020
1.840E-06,-0.020
1.850E-06,0.000
1.860E-06,0.160
1.870E-06,0.080
1.880E-06,0.160
1.890E-06,0.100
1.900E-06,0.200
1.910E-06,0.140
1.920E-06,0.060
1.930E-06,0.160
1.940E-06,0.200
1.950E-06,0.240
1.960E-06,0.160
1.970E-06,0.060
1.980E-06,0.280
1.990E-06,0.060
2.000E-06,0.220
2.010E-06,0.160
2.020E-06,0.160
2.030E-06,0.200
2.040E-06,0.020
2.050E-06,0.260
2.060E-06,0.120
2.070E-06,0.100
2.080E-06,0.140
2.090E-06,0.000
2.100E-06,0.160
2.110E-06,-0.020
2.120E-06,0.060
2.130E-06,0.200
2.140E-06,0.000
2.150E-06,0.200
2.160E-06,0.160
2.170E-06,0.220
2.180E-06,0.180
2.190E-06,0.080
2.200E-06,0.260
2.210E-06,0.140
2.220E-06,0.280
2.230E-06,0.300
2.240E-06,0.260
2.250E-06,0.420
2.260E-06,0.220
2.270E-06,0.420
2.280E-06,0.320
2.290E-06,0.380
2.300E-06,0.380
2.310E-06,0.420
2.320E-06,0.500
2.330E-06,0.300
2.340E-06,0.300
2.350E-06,0.280
2.360E-06,0.400
2.370E-06,0.240
2.380E-06,0.340
2.390E-06,0.280
2.400E-06,0.260
2.410E-06,0.280
2.420E-06,0.080
2.430E-06,0.260
2.440E-06,0.160
2.450E-06,0.180
2.460E-06,0.080
2.470E-06,0.160
2.480E-06,0.080
2.490E-06,0.120
2.500E-06,0.120
2.510E-06,0.160
2.520E-06,0.180
2.530E-06,0.140
2.540E-06,0.160
2.550E-06,0.200
2.560E-06,0.180
2.570E-06,0.240
2.580E-06,0.240
2.590E-06,0.240
2.600E-06,0.240
2.610E-06,0.220
2.620E-06,0.260
2.630E-06,0.220
2.640E-06,0.200
2.650E-06,0.160
2.660E-06,0.180
2.670E-06,0.160
2.680E-06,0.180
2.690E-06,0.200
2.700E-06,0.240
2.710E-06,0.300
2.720E-06,0.120
2.730E-06,0.080
2.740E-06,0.160
2.750E-06,0.320
2.760E-06,0.240
2.770E-06,0.120
2.780E-06,0.340
2.790E-06,0.080
2.800E-06,0.260
2.810E-06,0.140
2.820E-06,0.220
2.830E-06,0.160
2.840E-06,0.120
2.850E-06,0.100
2.860E-06,0.120
2.870E-06,0.120
2.880E-06,0.120
2.890E-06,0.140
2.900E-06,0.160
2.910E-06,0.180
2.920E-06,0.180
2.930E-06,0.140
2.940E-06,0.160
2.950E-06,0.140
2.960E-06,0.240
2.970E-06,0.120
2.980E-06,0.000
2.990E-06,0.000
3.000E-06,0.140
3.010E-06,0.160
3.020E-06,0.180
3.030E-06,0.020
3.040E-06,0.300
3.050E-06,0.220
3.060E-06,0.320
3.070E-06,0.320
3.080E-06,0.440
3.090E-06,0.500
3.100E-06,0.500
3.110E-06,0.600
3.120E-06,0.720
3.130E-06,0.800
3.140E-06,0.860
3.150E-06,0.980
3.160E-06,1.000
3.170E-06,1.000
3.180E-06,1.040
3.190E-06,1.020
3.200E-06,1.000
3.210E-06,0.980
3.220E-06,0.940
3.230E-06,0.920
3.240E-06,0.840
3.250E-06,0.780
3.260E-06,0.740
3.270E-06,0.680
3.280E-06,0.620
3.290E-06,0.580
3.300E-06,0.500
3.310E-06,0.420
3.320E-06,0.380
3.330E-06,0.320
3.340E-06,0.320
3.350E-06,0.260
