mediciones/8-28/0.001/WaveData6616.csv

#timebase=2000000(ps)
,#voltbase=200000(mv/100)
#size=4000
-8.350E-06,0.000
-8.340E-06,0.000
-8.330E-06,0.000
-8.320E-06,0.000
-8.310E-06,0.000
-8.300E-06,0.008
-8.290E-06,0.000
-8.280E-06,0.008
-8.270E-06,0.000
-8.260E-06,0.008
-8.250E-06,0.008
-8.240E-06,0.008
-8.230E-06,0.000
-8.220E-06,0.008
-8.210E-06,0.000
-8.200E-06,0.000
-8.190E-06,0.000
-8.180E-06,0.000
-8.170E-06,0.008
-8.160E-06,0.008
-8.150E-06,0.000
-8.140E-06,0.008
-8.130E-06,0.000
-8.120E-06,0.008
-8.110E-06,0.008
-8.100E-06,0.000
-8.090E-06,0.008
-8.080E-06,0.000
-8.070E-06,0.008
-8.060E-06,0.008
-8.050E-06,0.008
-8.040E-06,0.000
-8.030E-06,0.008
-8.020E-06,0.008
-8.010E-06,0.008
-8.000E-06,0.008
-7.990E-06,0.008
-7.980E-06,0.000
-7.970E-06,0.008
-7.960E-06,0.008
-7.950E-06,0.008
-7.940E-06,0.000
-7.930E-06,0.008
-7.920E-06,0.008
-7.910E-06,0.008
-7.900E-06,0.008
-7.890E-06,-0.008
-7.880E-06,0.008
-7.870E-06,-0.008
-7.860E-06,0.008
-7.850E-06,0.008
-7.840E-06,0.008
-7.830E-06,0.008
-7.820E-06,0.008
-7.810E-06,0.000
-7.800E-06,0.000
-7.790E-06,0.008
-7.780E-06,0.000
-7.770E-06,-0.008
-7.760E-06,0.000
-7.750E-06,0.008
-7.740E-06,0.000
-7.730E-06,0.000
-7.720E-06,0.008
-7.710E-06,0.000
-7.700E-06,0.008
-7.690E-06,0.000
-7.680E-06,0.008
-7.670E-06,0.000
-7.660E-06,0.000
-7.650E-06,0.000
-7.640E-06,0.008
-7.630E-06,0.008
-7.620E-06,0.008
-7.610E-06,0.008
-7.600E-06,0.008
-7.590E-06,0.000
-7.580E-06,0.008
-7.570E-06,0.000
-7.560E-06,0.008
-7.550E-06,0.008
-7.540E-06,0.000
-7.530E-06,0.000
-7.520E-06,0.000
-7.510E-06,0.008
-7.500E-06,0.008
-7.490E-06,0.008
-7.480E-06,0.000
-7.470E-06,0.000
-7.460E-06,0.000
-7.450E-06,0.000
-7.440E-06,0.008
-7.430E-06,0.000
-7.420E-06,-0.008
-7.410E-06,0.000
-7.400E-06,0.008
-7.390E-06,0.000
-7.380E-06,0.008
-7.370E-06,0.008
-7.360E-06,0.000
-7.350E-06,0.008
-7.340E-06,0.000
-7.330E-06,0.000
-7.320E-06,0.000
-7.310E-06,0.000
-7.300E-06,0.008
-7.290E-06,0.000
-7.280E-06,0.000
-7.270E-06,0.000
-7.260E-06,0.008
-7.250E-06,0.000
-7.240E-06,0.008
-7.230E-06,0.000
-7.220E-06,-0.008
-7.210E-06,0.000
-7.200E-06,0.000
-7.190E-06,0.000
-7.180E-06,0.000
-7.170E-06,0.000
-7.160E-06,0.000
-7.150E-06,0.000
-7.140E-06,0.008
-7.130E-06,0.000
-7.120E-06,0.000
-7.110E-06,0.008
-7.100E-06,0.000
-7.090E-06,0.008
-7.080E-06,0.000
-7.070E-06,0.008
-7.060E-06,0.008
-7.050E-06,0.008
-7.040E-06,0.000
-7.030E-06,0.000
-7.020E-06,0.000
-7.010E-06,0.008
-7.000E-06,0.008
-6.990E-06,0.000
-6.980E-06,0.000
-6.970E-06,0.000
-6.960E-06,0.008
-6.950E-06,0.008
-6.940E-06,0.008
-6.930E-06,0.008
-6.920E-06,0.008
-6.910E-06,0.000
-6.900E-06,0.008
-6.890E-06,0.000
-6.880E-06,0.008
-6.870E-06,-0.008
-6.860E-06,0.008
-6.850E-06,0.008
-6.840E-06,-0.008
-6.830E-06,0.016
-6.820E-06,0.008
-6.810E-06,0.008
-6.800E-06,0.008
-6.790E-06,0.000
-6.780E-06,0.008
-6.770E-06,0.000
-6.760E-06,0.008
-6.750E-06,0.008
-6.740E-06,0.000
-6.730E-06,0.000
-6.720E-06,0.008
-6.710E-06,0.008
-6.700E-06,0.008
-6.690E-06,0.008
-6.680E-06,0.008
-6.670E-06,0.000
-6.660E-06,0.008
-6.650E-06,0.008
-6.640E-06,0.008
-6.630E-06,0.008
-6.620E-06,0.000
-6.610E-06,0.000
-6.600E-06,0.008
-6.590E-06,0.000
-6.580E-06,0.000
-6.570E-06,0.000
-6.560E-06,0.000
-6.550E-06,0.000
-6.540E-06,0.008
-6.530E-06,0.000
-6.520E-06,-0.008
-6.510E-06,0.000
-6.500E-06,0.000
-6.490E-06,0.008
-6.480E-06,0.000
-6.470E-06,0.000
-6.460E-06,0.008
-6.450E-06,0.008
-6.440E-06,0.008
-6.430E-06,0.000
-6.420E-06,0.000
-6.410E-06,0.008
-6.400E-06,0.000
-6.390E-06,0.000
-6.380E-06,0.008
-6.370E-06,0.000
-6.360E-06,0.008
-6.350E-06,0.000
-6.340E-06,0.008
-6.330E-06,0.000
-6.320E-06,0.000
-6.310E-06,0.000
-6.300E-06,0.008
-6.290E-06,0.000
-6.280E-06,0.000
-6.270E-06,0.008
-6.260E-06,0.000
-6.250E-06,0.000
-6.240E-06,0.000
-6.230E-06,0.008
-6.220E-06,0.008
-6.210E-06,0.008
-6.200E-06,0.000
-6.190E-06,0.008
-6.180E-06,0.008
-6.170E-06,0.008
-6.160E-06,0.008
-6.150E-06,0.000
-6.140E-06,0.000
-6.130E-06,0.008
-6.120E-06,0.000
-6.110E-06,0.000
-6.100E-06,0.008
-6.090E-06,0.000
-6.080E-06,0.008
-6.070E-06,0.008
-6.060E-06,0.000
-6.050E-06,0.008
-6.040E-06,0.008
-6.030E-06,0.008
-6.020E-06,0.008
-6.010E-06,0.000
-6.000E-06,0.000
-5.990E-06,0.008
-5.980E-06,0.000
-5.970E-06,0.000
-5.960E-06,0.000
-5.950E-06,-0.008
-5.940E-06,0.000
-5.930E-06,0.000
-5.920E-06,0.000
-5.910E-06,0.008
-5.900E-06,0.008
-5.890E-06,0.000
-5.880E-06,0.016
-5.870E-06,0.008
-5.860E-06,0.008
-5.850E-06,0.000
-5.840E-06,0.008
-5.830E-06,0.000
-5.820E-06,0.000
-5.810E-06,0.008
-5.800E-06,0.008
-5.790E-06,0.032
-5.780E-06,0.048
-5.770E-06,0.096
-5.760E-06,0.136
-5.750E-06,0.160
-5.740E-06,0.128
-5.730E-06,0.064
-5.720E-06,-0.080
-5.710E-06,-0.216
-5.700E-06,-0.232
-5.690E-06,-0.216
-5.680E-06,-0.120
-5.670E-06,0.032
-5.660E-06,0.120
-5.650E-06,0.120
-5.640E-06,0.120
-5.630E-06,0.088
-5.620E-06,0.032
-5.610E-06,0.032
-5.600E-06,0.056
-5.590E-06,0.064
-5.580E-06,0.064
-5.570E-06,0.032
-5.560E-06,-0.024
-5.550E-06,-0.096
-5.540E-06,-0.128
-5.530E-06,-0.104
-5.520E-06,-0.040
-5.510E-06,0.072
-5.500E-06,0.136
-5.490E-06,0.160
-5.480E-06,0.112
-5.470E-06,0.040
-5.460E-06,-0.040
-5.450E-06,-0.088
-5.440E-06,-0.104
-5.430E-06,-0.072
-5.420E-06,-0.016
-5.410E-06,0.024
-5.400E-06,0.032
-5.390E-06,0.008
-5.380E-06,-0.008
-5.370E-06,-0.016
-5.360E-06,-0.008
-5.350E-06,0.032
-5.340E-06,0.064
-5.330E-06,0.072
-5.320E-06,0.072
-5.310E-06,0.040
-5.300E-06,-0.016
-5.290E-06,-0.048
-5.280E-06,-0.080
-5.270E-06,-0.072
-5.260E-06,-0.016
-5.250E-06,0.032
-5.240E-06,0.056
-5.230E-06,0.048
-5.220E-06,0.040
-5.210E-06,-0.008
-5.200E-06,-0.008
-5.190E-06,-0.008
-5.180E-06,0.008
-5.170E-06,0.016
-5.160E-06,0.048
-5.150E-06,0.040
-5.140E-06,0.000
-5.130E-06,-0.016
-5.120E-06,-0.040
-5.110E-06,-0.008
-5.100E-06,0.008
-5.090E-06,0.056
-5.080E-06,0.056
-5.070E-06,0.024
-5.060E-06,0.000
-5.050E-06,-0.040
-5.040E-06,-0.056
-5.030E-06,-0.040
-5.020E-06,0.008
-5.010E-06,0.040
-5.000E-06,0.064
-4.990E-06,0.024
-4.980E-06,-0.008
-4.970E-06,-0.040
-4.960E-06,-0.048
-4.950E-06,-0.040
-4.940E-06,-0.008
-4.930E-06,0.008
-4.920E-06,0.048
-4.910E-06,0.032
-4.900E-06,0.016
-4.890E-06,-0.008
-4.880E-06,-0.008
-4.870E-06,-0.016
-4.860E-06,0.016
-4.850E-06,0.040
-4.840E-06,0.048
-4.830E-06,0.040
-4.820E-06,0.024
-4.810E-06,0.024
-4.800E-06,0.008
-4.790E-06,-0.008
-4.780E-06,-0.016
-4.770E-06,0.000
-4.760E-06,0.016
-4.750E-06,0.016
-4.740E-06,0.008
-4.730E-06,0.016
-4.720E-06,-0.024
-4.710E-06,0.008
-4.700E-06,0.112
-4.690E-06,0.072
-4.680E-06,0.056
-4.670E-06,0.088
-4.660E-06,-0.080
-4.650E-06,-0.048
-4.640E-06,0.048
-4.630E-06,-0.080
-4.620E-06,0.016
-4.610E-06,-0.008
-4.600E-06,0.056
-4.590E-06,0.056
-4.580E-06,0.016
-4.570E-06,0.000
-4.560E-06,-0.040
-4.550E-06,-0.008
-4.540E-06,-0.016
-4.530E-06,0.016
-4.520E-06,-0.008
-4.510E-06,-0.016
-4.500E-06,-0.016
-4.490E-06,-0.008
-4.480E-06,0.008
-4.470E-06,0.048
-4.460E-06,0.008
-4.450E-06,0.016
-4.440E-06,0.016
-4.430E-06,0.000
-4.420E-06,0.000
-4.410E-06,0.064
-4.400E-06,0.032
-4.390E-06,0.064
-4.380E-06,0.064
-4.370E-06,0.088
-4.360E-06,0.008
-4.350E-06,0.024
-4.340E-06,-0.072
-4.330E-06,-0.128
-4.320E-06,-0.088
-4.310E-06,-0.016
-4.300E-06,0.120
-4.290E-06,0.112
-4.280E-06,0.184
-4.270E-06,0.016
-4.260E-06,-0.008
-4.250E-06,-0.016
-4.240E-06,-0.096
-4.230E-06,-0.144
-4.220E-06,-0.040
-4.210E-06,-0.112
-4.200E-06,0.104
-4.190E-06,0.128
-4.180E-06,0.168
-4.170E-06,-0.104
-4.160E-06,-0.008
-4.150E-06,-0.248
-4.140E-06,-0.128
-4.130E-06,0.024
-4.120E-06,0.216
-4.110E-06,0.272
-4.100E-06,0.120
-4.090E-06,-0.040
-4.080E-06,-0.248
-4.070E-06,-0.168
-4.060E-06,-0.064
-4.050E-06,0.056
-4.040E-06,0.096
-4.030E-06,0.128
-4.020E-06,0.096
-4.010E-06,0.024
-4.000E-06,-0.048
-3.990E-06,-0.128
-3.980E-06,-0.128
-3.970E-06,-0.072
-3.960E-06,0.040
-3.950E-06,0.048
-3.940E-06,0.088
-3.930E-06,0.040
-3.920E-06,0.024
-3.910E-06,-0.016
-3.900E-06,0.048
-3.890E-06,0.048
-3.880E-06,0.128
-3.870E-06,0.128
-3.860E-06,0.064
-3.850E-06,0.072
-3.840E-06,-0.088
-3.830E-06,-0.040
-3.820E-06,-0.128
-3.810E-06,0.000
-3.800E-06,-0.048
-3.790E-06,-0.024
-3.780E-06,0.008
-3.770E-06,-0.024
-3.760E-06,0.064
-3.750E-06,0.032
-3.740E-06,0.000
-3.730E-06,-0.072
-3.720E-06,-0.008
-3.710E-06,-0.016
-3.700E-06,0.096
-3.690E-06,0.080
-3.680E-06,0.080
-3.670E-06,0.016
-3.660E-06,-0.048
-3.650E-06,-0.080
-3.640E-06,-0.120
-3.630E-06,-0.032
-3.620E-06,0.016
-3.610E-06,0.120
-3.600E-06,0.128
-3.590E-06,0.120
-3.580E-06,0.040
-3.570E-06,0.000
-3.560E-06,-0.024
-3.550E-06,0.016
-3.540E-06,0.056
-3.530E-06,0.064
-3.520E-06,0.040
-3.510E-06,-0.040
-3.500E-06,-0.064
-3.490E-06,-0.080
-3.480E-06,-0.016
-3.470E-06,0.000
-3.460E-06,0.064
-3.450E-06,-0.024
-3.440E-06,-0.112
-3.430E-06,-0.136
-3.420E-06,-0.120
-3.410E-06,0.016
-3.400E-06,0.088
-3.390E-06,0.192
-3.380E-06,0.128
-3.370E-06,0.040
-3.360E-06,-0.080
-3.350E-06,-0.152
-3.340E-06,-0.152
-3.330E-06,-0.072
-3.320E-06,0.056
-3.310E-06,0.120
-3.300E-06,0.176
-3.290E-06,0.064
-3.280E-06,-0.032
-3.270E-06,-0.144
-3.260E-06,-0.136
-3.250E-06,-0.064
-3.240E-06,0.080
-3.230E-06,0.144
-3.220E-06,0.152
-3.210E-06,0.064
-3.200E-06,-0.016
-3.190E-06,-0.088
-3.180E-06,-0.080
-3.170E-06,-0.040
-3.160E-06,0.000
-3.150E-06,0.056
-3.140E-06,0.048
-3.130E-06,0.064
-3.120E-06,0.000
-3.110E-06,0.000
-3.100E-06,-0.040
-3.090E-06,-0.016
-3.080E-06,0.000
-3.070E-06,-0.024
-3.060E-06,0.008
-3.050E-06,-0.008
-3.040E-06,0.048
-3.030E-06,0.016
-3.020E-06,0.048
-3.010E-06,0.024
-3.000E-06,-0.016
-2.990E-06,0.016
-2.980E-06,-0.056
-2.970E-06,-0.016
-2.960E-06,-0.024
-2.950E-06,0.080
-2.940E-06,0.056
-2.930E-06,0.032
-2.920E-06,-0.008
-2.910E-06,-0.024
-2.900E-06,-0.016
-2.890E-06,0.000
-2.880E-06,0.016
-2.870E-06,-0.016
-2.860E-06,0.000
-2.850E-06,-0.016
-2.840E-06,0.032
-2.830E-06,0.000
-2.820E-06,0.008
-2.810E-06,-0.008
-2.800E-06,0.016
-2.790E-06,0.032
-2.780E-06,0.024
-2.770E-06,0.048
-2.760E-06,0.040
-2.750E-06,0.032
-2.740E-06,0.016
-2.730E-06,0.008
-2.720E-06,-0.016
-2.710E-06,0.000
-2.700E-06,0.016
-2.690E-06,0.048
-2.680E-06,0.064
-2.670E-06,0.072
-2.660E-06,0.040
-2.650E-06,-0.008
-2.640E-06,-0.040
-2.630E-06,-0.048
-2.620E-06,-0.040
-2.610E-06,0.008
-2.600E-06,0.064
-2.590E-06,0.088
-2.580E-06,0.080
-2.570E-06,0.016
-2.560E-06,-0.120
-2.550E-06,-0.112
-2.540E-06,-0.208
-2.530E-06,-0.120
-2.520E-06,-0.016
-2.510E-06,0.088
-2.500E-06,0.200
-2.490E-06,0.184
-2.480E-06,0.104
-2.470E-06,-0.120
-2.460E-06,-0.192
-2.450E-06,-0.272
-2.440E-06,-0.072
-2.430E-06,0.056
-2.420E-06,0.232
-2.410E-06,0.232
-2.400E-06,0.184
-2.390E-06,0.048
-2.380E-06,-0.200
-2.370E-06,-0.216
-2.360E-06,-0.256
-2.350E-06,0.024
-2.340E-06,0.120
-2.330E-06,0.336
-2.320E-06,0.224
-2.310E-06,0.120
-2.300E-06,-0.248
-2.290E-06,-0.264
-2.280E-06,-0.312
-2.270E-06,-0.104
-2.260E-06,0.184
-2.250E-06,0.384
-2.240E-06,0.328
-2.230E-06,-0.016
-2.220E-06,-0.136
-2.210E-06,-0.288
-2.200E-06,-0.200
-2.190E-06,-0.072
-2.180E-06,0.112
-2.170E-06,0.168
-2.160E-06,0.200
-2.150E-06,0.136
-2.140E-06,-0.040
-2.130E-06,-0.144
-2.120E-06,-0.208
-2.110E-06,-0.112
-2.100E-06,-0.008
-2.090E-06,0.176
-2.080E-06,0.184
-2.070E-06,0.096
-2.060E-06,-0.008
-2.050E-06,-0.104
-2.040E-06,-0.104
-2.030E-06,-0.088
-2.020E-06,0.008
-2.010E-06,0.072
-2.000E-06,0.128
-1.990E-06,0.088
-1.980E-06,0.040
-1.970E-06,-0.048
-1.960E-06,-0.080
-1.950E-06,-0.072
-1.940E-06,-0.024
-1.930E-06,0.016
-1.920E-06,0.072
-1.910E-06,0.064
-1.900E-06,0.024
-1.890E-06,0.000
-1.880E-06,-0.024
-1.870E-06,-0.048
-1.860E-06,-0.008
-1.850E-06,0.008
-1.840E-06,0.032
-1.830E-06,0.056
-1.820E-06,0.040
-1.810E-06,0.000
-1.800E-06,-0.016
-1.790E-06,-0.024
-1.780E-06,-0.016
-1.770E-06,0.000
-1.760E-06,0.032
-1.750E-06,0.048
-1.740E-06,0.056
-1.730E-06,0.032
-1.720E-06,-0.008
-1.710E-06,-0.024
-1.700E-06,-0.016
-1.690E-06,0.000
-1.680E-06,0.008
-1.670E-06,0.032
-1.660E-06,0.024
-1.650E-06,0.024
-1.640E-06,0.032
-1.630E-06,-0.008
-1.620E-06,-0.008
-1.610E-06,-0.016
-1.600E-06,0.008
-1.590E-06,0.016
-1.580E-06,0.016
-1.570E-06,0.024
-1.560E-06,0.000
-1.550E-06,-0.016
-1.540E-06,0.008
-1.530E-06,0.032
-1.520E-06,0.016
-1.510E-06,0.008
-1.500E-06,0.016
-1.490E-06,0.008
-1.480E-06,0.000
-1.470E-06,-0.024
-1.460E-06,-0.024
-1.450E-06,-0.008
-1.440E-06,0.040
-1.430E-06,0.056
-1.420E-06,0.024
-1.410E-06,-0.008
-1.400E-06,-0.032
-1.390E-06,-0.048
-1.380E-06,-0.016
-1.370E-06,0.016
-1.360E-06,0.048
-1.350E-06,0.048
-1.340E-06,0.032
-1.330E-06,-0.016
-1.320E-06,-0.032
-1.310E-06,-0.032
-1.300E-06,-0.016
-1.290E-06,0.016
-1.280E-06,0.024
-1.270E-06,0.040
-1.260E-06,0.016
-1.250E-06,0.000
-1.240E-06,-0.016
-1.230E-06,-0.016
-1.220E-06,-0.008
-1.210E-06,0.008
-1.200E-06,0.032
-1.190E-06,0.024
-1.180E-06,0.024
-1.170E-06,0.008
-1.160E-06,0.000
-1.150E-06,-0.008
-1.140E-06,-0.008
-1.130E-06,0.000
-1.120E-06,0.008
-1.110E-06,0.024
-1.100E-06,0.024
-1.090E-06,0.016
-1.080E-06,0.008
-1.070E-06,0.000
-1.060E-06,-0.008
-1.050E-06,0.000
-1.040E-06,0.016
-1.030E-06,0.024
-1.020E-06,0.016
-1.010E-06,0.024
-1.000E-06,0.008
-9.900E-07,-0.008
-9.800E-07,-0.016
-9.700E-07,-0.016
-9.600E-07,0.000
-9.500E-07,0.024
-9.400E-07,0.040
-9.300E-07,0.024
-9.200E-07,0.032
-9.100E-07,0.000
-9.000E-07,-0.008
-8.900E-07,-0.008
-8.800E-07,-0.008
-8.700E-07,0.008
-8.600E-07,0.016
-8.500E-07,0.032
-8.400E-07,0.048
-8.300E-07,0.024
-8.200E-07,0.000
-8.100E-07,-0.008
-8.000E-07,-0.016
-7.900E-07,-0.016
-7.800E-07,0.016
-7.700E-07,0.032
-7.600E-07,0.056
-7.500E-07,0.056
-7.400E-07,0.032
-7.300E-07,0.008
-7.200E-07,-0.008
-7.100E-07,-0.016
-7.000E-07,0.000
-6.900E-07,0.032
-6.800E-07,0.040
-6.700E-07,0.056
-6.600E-07,0.040
-6.500E-07,0.024
-6.400E-07,-0.008
-6.300E-07,0.000
-6.200E-07,0.000
-6.100E-07,0.032
-6.000E-07,0.048
-5.900E-07,0.064
-5.800E-07,0.064
-5.700E-07,0.040
-5.600E-07,0.032
-5.500E-07,-0.024
-5.400E-07,0.032
-5.300E-07,-0.024
-5.200E-07,0.040
-5.100E-07,0.032
-5.000E-07,0.104
-4.900E-07,0.000
-4.800E-07,0.056
-4.700E-07,-0.144
-4.600E-07,-0.104
-4.500E-07,-0.168
-4.400E-07,0.000
-4.300E-07,0.072
-4.200E-07,0.168
-4.100E-07,0.144
-4.000E-07,0.088
-3.900E-07,0.000
-3.800E-07,-0.064
-3.700E-07,-0.104
-3.600E-07,-0.080
-3.500E-07,0.064
-3.400E-07,0.152
-3.300E-07,0.224
-3.200E-07,0.184
-3.100E-07,0.080
-3.000E-07,-0.040
-2.900E-07,-0.080
-2.800E-07,-0.072
-2.700E-07,0.016
-2.600E-07,0.144
-2.500E-07,0.216
-2.400E-07,0.192
-2.300E-07,0.136
-2.200E-07,-0.008
-2.100E-07,-0.064
-2.000E-07,-0.088
-1.900E-07,-0.008
-1.800E-07,0.064
-1.700E-07,0.240
-1.600E-07,0.208
-1.500E-07,0.168
-1.400E-07,0.056
-1.300E-07,-0.120
-1.200E-07,-0.400
-1.100E-07,-0.184
-1.000E-07,-0.824
-9.000E-08,-0.792
-8.000E-08,-0.816
-7.000E-08,-0.056
-6.000E-08,0.496
-5.000E-08,0.904
-4.000E-08,1.192
-3.000E-08,0.408
-2.000E-08,-0.232
-1.000E-08,-0.824
0.000E+00,-0.824
1.000E-08,-0.624
2.000E-08,0.264
3.000E-08,0.824
4.000E-08,0.880
5.000E-08,0.640
6.000E-08,-0.048
7.000E-08,-0.568
8.000E-08,-0.816
9.000E-08,-0.600
1.000E-07,-0.176
1.100E-07,0.456
1.200E-07,0.800
1.300E-07,0.712
1.400E-07,0.232
1.500E-07,-0.288
1.600E-07,-0.632
1.700E-07,-0.616
1.800E-07,-0.248
1.900E-07,0.168
2.000E-07,0.520
2.100E-07,0.560
2.200E-07,0.360
2.300E-07,-0.024
2.400E-07,-0.296
2.500E-07,-0.408
2.600E-07,-0.240
2.700E-07,0.064
2.800E-07,0.344
2.900E-07,0.464
3.000E-07,0.384
3.100E-07,0.192
3.200E-07,-0.024
3.300E-07,-0.120
3.400E-07,-0.072
3.500E-07,0.056
3.600E-07,0.128
3.700E-07,0.128
3.800E-07,-0.016
3.900E-07,-0.168
4.000E-07,-0.264
4.100E-07,-0.304
4.200E-07,-0.176
4.300E-07,0.048
4.400E-07,0.176
4.500E-07,0.232
4.600E-07,0.120
4.700E-07,-0.016
4.800E-07,-0.144
4.900E-07,-0.232
5.000E-07,-0.144
5.100E-07,-0.072
5.200E-07,0.056
5.300E-07,0.096
5.400E-07,0.088
5.500E-07,0.072
5.600E-07,0.024
5.700E-07,-0.048
5.800E-07,-0.104
5.900E-07,-0.040
6.000E-07,0.016
6.100E-07,0.080
6.200E-07,0.136
6.300E-07,0.160
6.400E-07,0.104
6.500E-07,0.048
6.600E-07,-0.032
6.700E-07,-0.024
6.800E-07,0.032
6.900E-07,0.144
7.000E-07,0.224
7.100E-07,0.248
7.200E-07,0.216
7.300E-07,0.024
7.400E-07,-0.304
7.500E-07,-0.496
7.600E-07,-0.672
7.700E-07,-0.512
7.800E-07,-0.072
7.900E-07,0.264
8.000E-07,0.584
8.100E-07,0.624
8.200E-07,0.280
8.300E-07,-0.120
8.400E-07,-0.544
8.500E-07,-0.632
8.600E-07,-0.456
8.700E-07,-0.008
8.800E-07,0.432
8.900E-07,0.592
9.000E-07,0.456
9.100E-07,0.112
9.200E-07,-0.264
9.300E-07,-0.448
9.400E-07,-0.368
9.500E-07,-0.072
9.600E-07,0.256
9.700E-07,0.496
9.800E-07,0.536
9.900E-07,0.336
1.000E-06,0.072
1.010E-06,-0.144
1.020E-06,-0.272
1.030E-06,-0.240
1.040E-06,-0.080
1.050E-06,0.136
1.060E-06,0.328
1.070E-06,0.392
1.080E-06,0.304
1.090E-06,0.064
1.100E-06,-0.208
1.110E-06,-0.360
1.120E-06,-0.384
1.130E-06,-0.240
1.140E-06,0.072
1.150E-06,0.336
1.160E-06,0.320
1.170E-06,0.200
1.180E-06,-0.192
1.190E-06,-0.448
1.200E-06,-0.568
1.210E-06,-0.368
1.220E-06,0.088
1.230E-06,0.424
1.240E-06,0.640
1.250E-06,0.424
1.260E-06,0.104
1.270E-06,-0.344
1.280E-06,-0.488
1.290E-06,-0.448
1.300E-06,-0.152
1.310E-06,0.184
1.320E-06,0.424
1.330E-06,0.472
1.340E-06,0.240
1.350E-06,-0.008
1.360E-06,-0.296
1.370E-06,-0.304
1.380E-06,-0.200
1.390E-06,0.104
1.400E-06,0.376
1.410E-06,0.488
1.420E-06,0.464
1.430E-06,0.224
1.440E-06,-0.008
1.450E-06,-0.216
1.460E-06,-0.264
1.470E-06,-0.136
1.480E-06,0.024
1.490E-06,0.320
1.500E-06,0.280
1.510E-06,0.264
1.520E-06,0.000
1.530E-06,-0.104
1.540E-06,-0.336
1.550E-06,-0.336
1.560E-06,-0.376
1.570E-06,-0.128
1.580E-06,-0.120
1.590E-06,0.056
1.600E-06,0.080
1.610E-06,0.128
1.620E-06,0.184
1.630E-06,0.128
1.640E-06,0.088
1.650E-06,0.056
1.660E-06,-0.016
1.670E-06,-0.040
1.680E-06,0.000
1.690E-06,0.120
1.700E-06,0.192
1.710E-06,0.304
1.720E-06,0.288
1.730E-06,0.192
1.740E-06,0.112
1.750E-06,0.000
1.760E-06,-0.032
1.770E-06,0.048
1.780E-06,0.144
1.790E-06,0.216
1.800E-06,0.192
1.810E-06,0.080
1.820E-06,-0.016
1.830E-06,-0.136
1.840E-06,-0.064
1.850E-06,0.056
1.860E-06,0.192
1.870E-06,0.280
1.880E-06,0.184
1.890E-06,0.056
1.900E-06,-0.104
1.910E-06,-0.064
1.920E-06,-0.064
1.930E-06,0.240
1.940E-06,0.344
1.950E-06,0.416
1.960E-06,0.272
1.970E-06,0.088
1.980E-06,-0.088
1.990E-06,-0.216
2.000E-06,-0.104
2.010E-06,0.144
2.020E-06,0.424
2.030E-06,0.544
2.040E-06,0.456
2.050E-06,0.200
2.060E-06,-0.080
2.070E-06,-0.240
2.080E-06,-0.184
2.090E-06,0.048
2.100E-06,0.288
2.110E-06,0.496
2.120E-06,0.272
2.130E-06,-0.320
2.140E-06,-0.824
2.150E-06,-0.816
2.160E-06,-0.824
2.170E-06,-0.824
2.180E-06,-0.200
2.190E-06,0.816
2.200E-06,1.272
2.210E-06,1.280
2.220E-06,1.280
2.230E-06,0.544
2.240E-06,-0.824
2.250E-06,-0.816
2.260E-06,-0.824
2.270E-06,-0.816
2.280E-06,0.800
2.290E-06,1.280
2.300E-06,1.280
2.310E-06,0.600
2.320E-06,-0.096
2.330E-06,-0.816
2.340E-06,-0.816
2.350E-06,-0.816
2.360E-06,0.080
2.370E-06,1.184
2.380E-06,1.288
2.390E-06,1.280
2.400E-06,0.376
2.410E-06,-0.408
2.420E-06,-0.816
2.430E-06,-0.816
2.440E-06,-0.304
2.450E-06,0.504
2.460E-06,1.104
2.470E-06,1.200
2.480E-06,0.816
2.490E-06,0.128
2.500E-06,-0.424
2.510E-06,-0.672
2.520E-06,-0.344
2.530E-06,0.136
2.540E-06,0.720
2.550E-06,0.928
2.560E-06,0.784
2.570E-06,0.384
2.580E-06,-0.120
2.590E-06,-0.408
2.600E-06,-0.392
2.610E-06,-0.080
2.620E-06,0.288
2.630E-06,0.640
2.640E-06,0.672
2.650E-06,0.528
2.660E-06,0.208
2.670E-06,-0.080
2.680E-06,-0.224
2.690E-06,-0.224
2.700E-06,-0.176
2.710E-06,-0.056
2.720E-06,-0.016
2.730E-06,-0.192
2.740E-06,-0.344
2.750E-06,-0.464
2.760E-06,-0.600
2.770E-06,-0.440
2.780E-06,-0.472
2.790E-06,-0.192
2.800E-06,0.056
2.810E-06,0.304
2.820E-06,0.480
2.830E-06,0.312
2.840E-06,0.168
2.850E-06,0.128
2.860E-06,-0.064
2.870E-06,0.000
2.880E-06,-0.024
2.890E-06,0.120
2.900E-06,0.128
2.910E-06,0.176
2.920E-06,0.232
2.930E-06,0.208
2.940E-06,0.248
2.950E-06,0.224
2.960E-06,0.240
2.970E-06,0.192
2.980E-06,0.184
2.990E-06,0.184
3.000E-06,0.224
3.010E-06,0.248
3.020E-06,0.240
3.030E-06,0.216
3.040E-06,0.184
3.050E-06,0.136
3.060E-06,0.104
3.070E-06,0.136
3.080E-06,0.192
3.090E-06,0.280
3.100E-06,0.312
3.110E-06,0.328
3.120E-06,0.264
3.130E-06,0.192
3.140E-06,0.136
3.150E-06,0.128
3.160E-06,0.144
3.170E-06,0.184
3.180E-06,0.232
3.190E-06,0.240
3.200E-06,0.224
3.210E-06,0.184
3.220E-06,0.160
3.230E-06,0.128
3.240E-06,0.136
3.250E-06,0.168
3.260E-06,0.208
3.270E-06,0.224
3.280E-06,0.224
3.290E-06,0.192
3.300E-06,0.184
3.310E-06,0.168
3.320E-06,0.152
3.330E-06,0.128
3.340E-06,0.120
