mediciones/8-28/0.001/WaveData6617.csv

#timebase=2000000(ps)
,#voltbase=500000(mv/100)
#size=4000
-8.350E-06,0.060
-8.340E-06,0.060
-8.330E-06,0.060
-8.320E-06,0.040
-8.310E-06,0.020
-8.300E-06,0.040
-8.290E-06,0.040
-8.280E-06,0.040
-8.270E-06,0.060
-8.260E-06,0.060
-8.250E-06,0.080
-8.240E-06,0.080
-8.230E-06,0.040
-8.220E-06,0.060
-8.210E-06,0.020
-8.200E-06,0.020
-8.190E-06,0.040
-8.180E-06,0.060
-8.170E-06,0.040
-8.160E-06,0.060
-8.150E-06,0.040
-8.140E-06,0.060
-8.130E-06,0.040
-8.120E-06,0.020
-8.110E-06,0.020
-8.100E-06,0.060
-8.090E-06,0.060
-8.080E-06,0.060
-8.070E-06,0.040
-8.060E-06,0.040
-8.050E-06,0.040
-8.040E-06,0.040
-8.030E-06,0.060
-8.020E-06,0.040
-8.010E-06,0.040
-8.000E-06,0.060
-7.990E-06,0.060
-7.980E-06,0.040
-7.970E-06,0.060
-7.960E-06,0.020
-7.950E-06,0.040
-7.940E-06,0.040
-7.930E-06,0.060
-7.920E-06,0.060
-7.910E-06,0.060
-7.900E-06,0.060
-7.890E-06,0.060
-7.880E-06,0.040
-7.870E-06,0.040
-7.860E-06,0.060
-7.850E-06,0.060
-7.840E-06,0.040
-7.830E-06,0.040
-7.820E-06,0.060
-7.810E-06,0.040
-7.800E-06,0.040
-7.790E-06,0.080
-7.780E-06,0.060
-7.770E-06,0.060
-7.760E-06,0.040
-7.750E-06,0.040
-7.740E-06,0.040
-7.730E-06,0.020
-7.720E-06,0.040
-7.710E-06,0.040
-7.700E-06,0.020
-7.690E-06,0.020
-7.680E-06,0.060
-7.670E-06,0.040
-7.660E-06,0.060
-7.650E-06,0.040
-7.640E-06,0.040
-7.630E-06,0.020
-7.620E-06,0.040
-7.610E-06,0.040
-7.600E-06,0.060
-7.590E-06,0.060
-7.580E-06,0.040
-7.570E-06,0.060
-7.560E-06,0.060
-7.550E-06,0.060
-7.540E-06,0.040
-7.530E-06,0.040
-7.520E-06,0.020
-7.510E-06,0.020
-7.500E-06,0.020
-7.490E-06,0.020
-7.480E-06,0.040
-7.470E-06,0.040
-7.460E-06,0.020
-7.450E-06,0.060
-7.440E-06,0.080
-7.430E-06,0.040
-7.420E-06,0.040
-7.410E-06,0.040
-7.400E-06,0.040
-7.390E-06,0.040
-7.380E-06,0.040
-7.370E-06,0.040
-7.360E-06,0.060
-7.350E-06,0.060
-7.340E-06,0.040
-7.330E-06,0.040
-7.320E-06,0.060
-7.310E-06,0.060
-7.300E-06,0.040
-7.290E-06,0.060
-7.280E-06,0.020
-7.270E-06,0.060
-7.260E-06,0.060
-7.250E-06,0.060
-7.240E-06,0.080
-7.230E-06,0.060
-7.220E-06,0.020
-7.210E-06,0.040
-7.200E-06,0.040
-7.190E-06,0.040
-7.180E-06,0.100
-7.170E-06,0.060
-7.160E-06,0.060
-7.150E-06,0.060
-7.140E-06,0.080
-7.130E-06,0.080
-7.120E-06,0.060
-7.110E-06,0.040
-7.100E-06,0.040
-7.090E-06,0.040
-7.080E-06,0.040
-7.070E-06,0.060
-7.060E-06,0.060
-7.050E-06,0.060
-7.040E-06,0.060
-7.030E-06,0.040
-7.020E-06,0.020
-7.010E-06,0.060
-7.000E-06,0.060
-6.990E-06,0.040
-6.980E-06,0.020
-6.970E-06,0.060
-6.960E-06,0.060
-6.950E-06,0.080
-6.940E-06,0.060
-6.930E-06,0.040
-6.920E-06,0.040
-6.910E-06,0.020
-6.900E-06,0.040
-6.890E-06,0.040
-6.880E-06,0.040
-6.870E-06,0.060
-6.860E-06,0.060
-6.850E-06,0.060
-6.840E-06,0.020
-6.830E-06,0.060
-6.820E-06,0.060
-6.810E-06,0.060
-6.800E-06,0.020
-6.790E-06,0.020
-6.780E-06,0.040
-6.770E-06,0.040
-6.760E-06,0.080
-6.750E-06,0.080
-6.740E-06,0.060
-6.730E-06,0.060
-6.720E-06,0.060
-6.710E-06,0.060
-6.700E-06,0.040
-6.690E-06,0.040
-6.680E-06,0.040
-6.670E-06,0.020
-6.660E-06,0.020
-6.650E-06,0.060
-6.640E-06,0.060
-6.630E-06,0.020
-6.620E-06,0.060
-6.610E-06,0.040
-6.600E-06,0.040
-6.590E-06,0.060
-6.580E-06,0.060
-6.570E-06,0.040
-6.560E-06,0.040
-6.550E-06,0.060
-6.540E-06,0.040
-6.530E-06,0.040
-6.520E-06,0.040
-6.510E-06,0.060
-6.500E-06,0.060
-6.490E-06,0.060
-6.480E-06,0.080
-6.470E-06,0.080
-6.460E-06,0.060
-6.450E-06,0.040
-6.440E-06,0.020
-6.430E-06,0.080
-6.420E-06,0.080
-6.410E-06,0.040
-6.400E-06,0.040
-6.390E-06,0.040
-6.380E-06,0.040
-6.370E-06,0.040
-6.360E-06,0.060
-6.350E-06,0.040
-6.340E-06,0.040
-6.330E-06,0.060
-6.320E-06,0.040
-6.310E-06,0.060
-6.300E-06,0.060
-6.290E-06,0.060
-6.280E-06,0.040
-6.270E-06,0.040
-6.260E-06,0.060
-6.250E-06,0.040
-6.240E-06,0.060
-6.230E-06,0.060
-6.220E-06,0.060
-6.210E-06,0.040
-6.200E-06,0.060
-6.190E-06,0.040
-6.180E-06,0.060
-6.170E-06,0.040
-6.160E-06,0.040
-6.150E-06,0.040
-6.140E-06,0.040
-6.130E-06,0.060
-6.120E-06,0.040
-6.110E-06,0.040
-6.100E-06,0.040
-6.090E-06,0.060
-6.080E-06,0.060
-6.070E-06,0.060
-6.060E-06,0.040
-6.050E-06,0.040
-6.040E-06,0.040
-6.030E-06,0.040
-6.020E-06,0.040
-6.010E-06,0.040
-6.000E-06,0.060
-5.990E-06,0.040
-5.980E-06,0.060
-5.970E-06,0.040
-5.960E-06,0.040
-5.950E-06,0.080
-5.940E-06,0.060
-5.930E-06,0.040
-5.920E-06,0.060
-5.910E-06,0.020
-5.900E-06,0.060
-5.890E-06,0.040
-5.880E-06,0.060
-5.870E-06,0.040
-5.860E-06,0.040
-5.850E-06,0.040
-5.840E-06,0.040
-5.830E-06,0.060
-5.820E-06,0.020
-5.810E-06,0.000
-5.800E-06,-0.120
-5.790E-06,-0.460
-5.780E-06,-0.920
-5.770E-06,-1.360
-5.760E-06,-1.620
-5.750E-06,-1.680
-5.740E-06,-1.500
-5.730E-06,-0.920
-5.720E-06,-0.260
-5.710E-06,0.260
-5.700E-06,1.280
-5.690E-06,1.800
-5.680E-06,1.820
-5.670E-06,1.840
-5.660E-06,1.840
-5.650E-06,1.820
-5.640E-06,1.820
-5.630E-06,0.940
-5.620E-06,0.080
-5.610E-06,-0.760
-5.600E-06,-1.320
-5.590E-06,-1.800
-5.580E-06,-2.140
-5.570E-06,-1.980
-5.560E-06,-1.500
-5.550E-06,-1.060
-5.540E-06,-0.720
-5.530E-06,-0.420
-5.520E-06,-0.140
-5.510E-06,0.020
-5.500E-06,0.060
-5.490E-06,-0.080
-5.480E-06,-0.260
-5.470E-06,-0.420
-5.460E-06,-0.300
-5.450E-06,-0.260
-5.440E-06,-0.100
-5.430E-06,0.180
-5.420E-06,0.540
-5.410E-06,0.840
-5.400E-06,0.960
-5.390E-06,0.980
-5.380E-06,0.880
-5.370E-06,0.660
-5.360E-06,0.500
-5.350E-06,0.200
-5.340E-06,-0.160
-5.330E-06,-0.480
-5.320E-06,-0.600
-5.310E-06,-0.580
-5.300E-06,-0.500
-5.290E-06,-0.380
-5.280E-06,-0.160
-5.270E-06,0.000
-5.260E-06,0.140
-5.250E-06,0.380
-5.240E-06,0.460
-5.230E-06,0.420
-5.220E-06,0.400
-5.210E-06,0.420
-5.200E-06,0.340
-5.190E-06,0.180
-5.180E-06,0.180
-5.170E-06,0.140
-5.160E-06,0.060
-5.150E-06,0.020
-5.140E-06,0.200
-5.130E-06,0.120
-5.120E-06,-0.320
-5.110E-06,-0.520
-5.100E-06,-0.340
-5.090E-06,-0.260
-5.080E-06,-0.380
-5.070E-06,-0.480
-5.060E-06,-0.380
-5.050E-06,-0.440
-5.040E-06,-0.400
-5.030E-06,-0.200
-5.020E-06,-0.020
-5.010E-06,0.100
-5.000E-06,0.140
-4.990E-06,0.180
-4.980E-06,0.320
-4.970E-06,0.440
-4.960E-06,0.500
-4.950E-06,0.520
-4.940E-06,0.680
-4.930E-06,0.680
-4.920E-06,0.560
-4.910E-06,0.540
-4.900E-06,0.540
-4.890E-06,0.400
-4.880E-06,0.160
-4.870E-06,-0.020
-4.860E-06,-0.140
-4.850E-06,-0.300
-4.840E-06,-0.500
-4.830E-06,-0.660
-4.820E-06,-0.680
-4.810E-06,-0.640
-4.800E-06,-0.660
-4.790E-06,-0.580
-4.780E-06,-0.460
-4.770E-06,-0.320
-4.760E-06,-0.200
-4.750E-06,-0.020
-4.740E-06,0.120
-4.730E-06,0.260
-4.720E-06,0.240
-4.710E-06,0.180
-4.700E-06,0.280
-4.690E-06,0.380
-4.680E-06,0.380
-4.670E-06,0.340
-4.660E-06,0.400
-4.650E-06,0.420
-4.640E-06,0.080
-4.630E-06,-0.020
-4.620E-06,0.060
-4.610E-06,0.160
-4.600E-06,0.060
-4.590E-06,0.020
-4.580E-06,-0.280
-4.570E-06,-0.240
-4.560E-06,-0.180
-4.550E-06,-0.160
-4.540E-06,-0.020
-4.530E-06,-0.140
-4.520E-06,0.180
-4.510E-06,0.160
-4.500E-06,-0.120
-4.490E-06,-0.100
-4.480E-06,-0.020
-4.470E-06,0.120
-4.460E-06,0.220
-4.450E-06,0.000
-4.440E-06,-0.120
-4.430E-06,-0.080
-4.420E-06,-0.100
-4.410E-06,0.020
-4.400E-06,0.020
-4.390E-06,-0.020
-4.380E-06,-0.020
-4.370E-06,-0.140
-4.360E-06,0.260
-4.350E-06,0.120
-4.340E-06,0.060
-4.330E-06,0.060
-4.320E-06,-0.120
-4.310E-06,-0.260
-4.300E-06,-0.140
-4.290E-06,-0.180
-4.280E-06,-0.060
-4.270E-06,-0.340
-4.260E-06,-0.460
-4.250E-06,-0.120
-4.240E-06,0.720
-4.230E-06,0.720
-4.220E-06,-0.400
-4.210E-06,-0.220
-4.200E-06,0.420
-4.190E-06,0.620
-4.180E-06,0.160
-4.170E-06,0.580
-4.160E-06,0.700
-4.150E-06,-0.640
-4.140E-06,-1.120
-4.130E-06,0.220
-4.120E-06,0.480
-4.110E-06,0.180
-4.100E-06,-0.340
-4.090E-06,-0.440
-4.080E-06,-0.100
-4.070E-06,-0.200
-4.060E-06,0.080
-4.050E-06,0.040
-4.040E-06,-0.040
-4.030E-06,0.080
-4.020E-06,-0.020
-4.010E-06,-0.040
-4.000E-06,0.220
-3.990E-06,0.400
-3.980E-06,0.400
-3.970E-06,0.720
-3.960E-06,1.000
-3.950E-06,0.920
-3.940E-06,0.540
-3.930E-06,0.420
-3.920E-06,0.480
-3.910E-06,0.480
-3.900E-06,0.120
-3.890E-06,-0.480
-3.880E-06,-0.840
-3.870E-06,-1.080
-3.860E-06,-0.960
-3.850E-06,-0.900
-3.840E-06,-1.260
-3.830E-06,-0.880
-3.820E-06,-0.200
-3.810E-06,-0.160
-3.800E-06,0.220
-3.790E-06,-0.160
-3.780E-06,0.220
-3.770E-06,0.860
-3.760E-06,0.900
-3.750E-06,0.960
-3.740E-06,0.580
-3.730E-06,0.240
-3.720E-06,0.080
-3.710E-06,0.060
-3.700E-06,0.360
-3.690E-06,-0.720
-3.680E-06,-0.740
-3.670E-06,0.040
-3.660E-06,0.200
-3.650E-06,-0.400
-3.640E-06,-0.720
-3.630E-06,-0.400
-3.620E-06,0.040
-3.610E-06,0.140
-3.600E-06,0.060
-3.590E-06,0.060
-3.580E-06,0.000
-3.570E-06,-0.080
-3.560E-06,-0.040
-3.550E-06,-0.040
-3.540E-06,0.320
-3.530E-06,0.660
-3.520E-06,0.620
-3.510E-06,0.420
-3.500E-06,0.300
-3.490E-06,0.260
-3.480E-06,0.280
-3.470E-06,0.480
-3.460E-06,0.600
-3.450E-06,0.000
-3.440E-06,-0.300
-3.430E-06,0.000
-3.420E-06,-0.540
-3.410E-06,-1.100
-3.400E-06,-0.760
-3.390E-06,-0.420
-3.380E-06,-0.380
-3.370E-06,-0.460
-3.360E-06,-0.280
-3.350E-06,-0.380
-3.340E-06,-0.320
-3.330E-06,0.100
-3.320E-06,0.320
-3.310E-06,0.560
-3.300E-06,0.640
-3.290E-06,0.540
-3.280E-06,0.340
-3.270E-06,0.420
-3.260E-06,0.400
-3.250E-06,0.200
-3.240E-06,0.180
-3.230E-06,0.280
-3.220E-06,0.240
-3.210E-06,-0.140
-3.200E-06,-0.340
-3.190E-06,-0.040
-3.180E-06,0.020
-3.170E-06,-0.060
-3.160E-06,-0.040
-3.150E-06,0.020
-3.140E-06,0.000
-3.130E-06,0.060
-3.120E-06,-0.740
-3.110E-06,-0.680
-3.100E-06,0.160
-3.090E-06,0.160
-3.080E-06,-0.300
-3.070E-06,-0.580
-3.060E-06,-0.260
-3.050E-06,0.040
-3.040E-06,0.000
-3.030E-06,0.060
-3.020E-06,0.300
-3.010E-06,0.220
-3.000E-06,0.220
-2.990E-06,-0.220
-2.980E-06,-0.700
-2.970E-06,-0.060
-2.960E-06,0.460
-2.950E-06,-0.080
-2.940E-06,-0.460
-2.930E-06,-0.460
-2.920E-06,-0.100
-2.910E-06,-0.120
-2.900E-06,-0.100
-2.890E-06,0.060
-2.880E-06,0.100
-2.870E-06,0.160
-2.860E-06,0.200
-2.850E-06,0.260
-2.840E-06,0.300
-2.830E-06,0.340
-2.820E-06,0.320
-2.810E-06,0.320
-2.800E-06,0.220
-2.790E-06,0.040
-2.780E-06,-0.160
-2.770E-06,-0.160
-2.760E-06,-0.100
-2.750E-06,-0.220
-2.740E-06,-0.320
-2.730E-06,-0.340
-2.720E-06,-0.260
-2.710E-06,-0.280
-2.700E-06,-0.280
-2.690E-06,-0.280
-2.680E-06,-0.260
-2.670E-06,-0.260
-2.660E-06,-0.180
-2.650E-06,-0.040
-2.640E-06,-0.060
-2.630E-06,-0.100
-2.620E-06,-0.140
-2.610E-06,-0.140
-2.600E-06,-0.160
-2.590E-06,0.000
-2.580E-06,0.160
-2.570E-06,0.080
-2.560E-06,0.060
-2.550E-06,0.420
-2.540E-06,0.280
-2.530E-06,0.400
-2.520E-06,0.280
-2.510E-06,-0.280
-2.500E-06,-0.380
-2.490E-06,0.060
-2.480E-06,0.420
-2.470E-06,0.260
-2.460E-06,-0.080
-2.450E-06,-0.100
-2.440E-06,-0.160
-2.430E-06,-0.360
-2.420E-06,-0.100
-2.410E-06,0.460
-2.400E-06,0.360
-2.390E-06,0.200
-2.380E-06,-0.160
-2.370E-06,-0.420
-2.360E-06,-0.300
-2.350E-06,0.360
-2.340E-06,0.040
-2.330E-06,-0.620
-2.320E-06,0.280
-2.310E-06,0.260
-2.300E-06,0.740
-2.290E-06,0.620
-2.280E-06,-1.800
-2.270E-06,-1.340
-2.260E-06,1.620
-2.250E-06,1.260
-2.240E-06,-0.860
-2.230E-06,-0.940
-2.220E-06,0.200
-2.210E-06,0.380
-2.200E-06,-0.620
-2.190E-06,-0.360
-2.180E-06,0.340
-2.170E-06,0.080
-2.160E-06,-0.160
-2.150E-06,-0.300
-2.140E-06,-0.060
-2.130E-06,0.380
-2.120E-06,0.060
-2.110E-06,-0.500
-2.100E-06,-0.020
-2.090E-06,0.680
-2.080E-06,0.280
-2.070E-06,-0.400
-2.060E-06,-0.060
-2.050E-06,0.440
-2.040E-06,0.120
-2.030E-06,-0.280
-2.020E-06,-0.160
-2.010E-06,0.060
-2.000E-06,0.060
-1.990E-06,-0.140
-1.980E-06,-0.320
-1.970E-06,-0.200
-1.960E-06,0.060
-1.950E-06,0.060
-1.940E-06,-0.100
-1.930E-06,0.020
-1.920E-06,0.180
-1.910E-06,0.060
-1.900E-06,-0.100
-1.890E-06,0.100
-1.880E-06,0.300
-1.870E-06,0.200
-1.860E-06,-0.020
-1.850E-06,-0.080
-1.840E-06,0.060
-1.830E-06,0.080
-1.820E-06,0.000
-1.810E-06,-0.040
-1.800E-06,-0.040
-1.790E-06,0.020
-1.780E-06,-0.060
-1.770E-06,-0.120
-1.760E-06,-0.060
-1.750E-06,-0.100
-1.740E-06,-0.100
-1.730E-06,-0.100
-1.720E-06,-0.080
-1.710E-06,-0.080
-1.700E-06,-0.100
-1.690E-06,-0.100
-1.680E-06,0.000
-1.670E-06,-0.020
-1.660E-06,-0.060
-1.650E-06,0.000
-1.640E-06,0.000
-1.630E-06,-0.020
-1.620E-06,-0.040
-1.610E-06,-0.060
-1.600E-06,-0.040
-1.590E-06,-0.040
-1.580E-06,-0.120
-1.570E-06,-0.120
-1.560E-06,-0.080
-1.550E-06,0.100
-1.540E-06,0.020
-1.530E-06,-0.340
-1.520E-06,-0.380
-1.510E-06,-0.040
-1.500E-06,0.100
-1.490E-06,0.000
-1.480E-06,-0.120
-1.470E-06,-0.160
-1.460E-06,-0.160
-1.450E-06,0.000
-1.440E-06,-0.080
-1.430E-06,-0.020
-1.420E-06,0.140
-1.410E-06,0.040
-1.400E-06,-0.160
-1.390E-06,-0.180
-1.380E-06,0.000
-1.370E-06,0.060
-1.360E-06,-0.020
-1.350E-06,-0.040
-1.340E-06,-0.020
-1.330E-06,-0.100
-1.320E-06,-0.160
-1.310E-06,-0.080
-1.300E-06,-0.040
-1.290E-06,-0.040
-1.280E-06,-0.080
-1.270E-06,-0.080
-1.260E-06,-0.040
-1.250E-06,-0.020
-1.240E-06,-0.080
-1.230E-06,-0.180
-1.220E-06,-0.080
-1.210E-06,0.020
-1.200E-06,-0.020
-1.190E-06,-0.080
-1.180E-06,-0.160
-1.170E-06,-0.140
-1.160E-06,-0.060
-1.150E-06,0.020
-1.140E-06,-0.060
-1.130E-06,-0.100
-1.120E-06,-0.060
-1.110E-06,-0.040
-1.100E-06,-0.120
-1.090E-06,-0.120
-1.080E-06,-0.080
-1.070E-06,-0.040
-1.060E-06,-0.060
-1.050E-06,-0.140
-1.040E-06,-0.120
-1.030E-06,-0.100
-1.020E-06,-0.120
-1.010E-06,-0.080
-1.000E-06,-0.100
-9.900E-07,-0.160
-9.800E-07,-0.080
-9.700E-07,-0.040
-9.600E-07,-0.060
-9.500E-07,-0.100
-9.400E-07,-0.100
-9.300E-07,-0.060
-9.200E-07,0.020
-9.100E-07,0.000
-9.000E-07,-0.040
-8.900E-07,-0.020
-8.800E-07,0.000
-8.700E-07,0.000
-8.600E-07,-0.020
-8.500E-07,-0.020
-8.400E-07,-0.020
-8.300E-07,-0.020
-8.200E-07,0.020
-8.100E-07,0.020
-8.000E-07,0.040
-7.900E-07,0.020
-7.800E-07,-0.020
-7.700E-07,-0.040
-7.600E-07,-0.060
-7.500E-07,-0.020
-7.400E-07,0.000
-7.300E-07,0.020
-7.200E-07,-0.020
-7.100E-07,-0.100
-7.000E-07,-0.100
-6.900E-07,-0.020
-6.800E-07,0.000
-6.700E-07,-0.060
-6.600E-07,0.000
-6.500E-07,0.000
-6.400E-07,-0.060
-6.300E-07,-0.120
-6.200E-07,-0.140
-6.100E-07,-0.080
-6.000E-07,-0.080
-5.900E-07,-0.140
-5.800E-07,-0.140
-5.700E-07,-0.220
-5.600E-07,-0.260
-5.500E-07,-0.160
-5.400E-07,0.020
-5.300E-07,0.040
-5.200E-07,-0.140
-5.100E-07,0.000
-5.000E-07,-0.500
-4.900E-07,0.060
-4.800E-07,0.600
-4.700E-07,0.500
-4.600E-07,0.220
-4.500E-07,0.080
-4.400E-07,0.340
-4.300E-07,0.320
-4.200E-07,-0.100
-4.100E-07,-0.280
-4.000E-07,-0.140
-3.900E-07,0.040
-3.800E-07,-0.080
-3.700E-07,-0.340
-3.600E-07,-0.480
-3.500E-07,-0.360
-3.400E-07,-0.180
-3.300E-07,-0.080
-3.200E-07,-0.020
-3.100E-07,-0.140
-3.000E-07,-0.240
-2.900E-07,-0.140
-2.800E-07,0.080
-2.700E-07,0.040
-2.600E-07,-0.280
-2.500E-07,-0.380
-2.400E-07,-0.180
-2.300E-07,0.000
-2.200E-07,0.060
-2.100E-07,-0.120
-2.000E-07,-0.380
-1.900E-07,-0.440
-1.800E-07,-0.300
-1.700E-07,0.120
-1.600E-07,-0.300
-1.500E-07,-0.720
-1.400E-07,-0.360
-1.300E-07,-0.280
-1.200E-07,0.240
-1.100E-07,0.780
-1.000E-07,0.320
-9.000E-08,1.820
-8.000E-08,1.840
-7.000E-08,-1.240
-6.000E-08,-2.760
-5.000E-08,-2.240
-4.000E-08,-0.100
-3.000E-08,0.660
-2.000E-08,-0.420
-1.000E-08,-1.400
0.000E+00,-2.620
1.000E-08,-1.660
2.000E-08,-0.600
3.000E-08,0.380
4.000E-08,1.340
5.000E-08,1.060
6.000E-08,-0.440
7.000E-08,-0.680
8.000E-08,0.560
9.000E-08,0.860
1.000E-07,-0.560
1.100E-07,-0.960
1.200E-07,-0.080
1.300E-07,0.040
1.400E-07,-0.580
1.500E-07,-1.200
1.600E-07,-1.260
1.700E-07,-0.980
1.800E-07,-0.860
1.900E-07,-1.020
2.000E-07,-1.100
2.100E-07,-0.900
2.200E-07,-0.700
2.300E-07,-0.820
2.400E-07,-0.960
2.500E-07,-1.100
2.600E-07,-0.880
2.700E-07,-0.640
2.800E-07,-0.640
2.900E-07,-0.620
3.000E-07,-0.560
3.100E-07,-0.580
3.200E-07,-0.680
3.300E-07,-0.820
3.400E-07,-0.720
3.500E-07,-0.620
3.600E-07,-0.440
3.700E-07,-0.180
3.800E-07,-0.160
3.900E-07,-0.380
4.000E-07,-0.640
4.100E-07,-0.940
4.200E-07,-0.580
4.300E-07,-0.540
4.400E-07,-0.780
4.500E-07,-1.280
4.600E-07,-1.580
4.700E-07,-1.780
4.800E-07,-1.360
4.900E-07,-0.740
5.000E-07,-0.460
5.100E-07,-0.600
5.200E-07,-0.860
5.300E-07,-0.260
5.400E-07,-0.080
5.500E-07,-0.160
5.600E-07,-0.100
5.700E-07,0.160
5.800E-07,0.240
5.900E-07,-0.100
6.000E-07,-0.540
6.100E-07,-0.580
6.200E-07,-0.280
6.300E-07,-0.300
6.400E-07,-0.280
6.500E-07,-0.320
6.600E-07,-0.620
6.700E-07,-0.780
6.800E-07,-0.800
6.900E-07,-0.540
7.000E-07,-0.280
7.100E-07,-0.520
7.200E-07,-0.720
7.300E-07,-0.680
7.400E-07,0.140
7.500E-07,1.560
7.600E-07,1.500
7.700E-07,0.320
7.800E-07,0.160
7.900E-07,-0.720
8.000E-07,-0.320
8.100E-07,-0.240
8.200E-07,0.120
8.300E-07,0.080
8.400E-07,-1.100
8.500E-07,-1.700
8.600E-07,-1.420
8.700E-07,-0.600
8.800E-07,0.140
8.900E-07,0.000
9.000E-07,-0.260
9.100E-07,-0.040
9.200E-07,0.000
9.300E-07,0.080
9.400E-07,-0.200
9.500E-07,-0.380
9.600E-07,-0.200
9.700E-07,-0.140
9.800E-07,0.120
9.900E-07,-0.240
1.000E-06,-0.420
1.010E-06,-0.220
1.020E-06,0.080
1.030E-06,0.500
1.040E-06,0.540
1.050E-06,0.240
1.060E-06,-0.200
1.070E-06,-0.540
1.080E-06,-0.440
1.090E-06,0.120
1.100E-06,0.320
1.110E-06,0.640
1.120E-06,0.300
1.130E-06,-0.820
1.140E-06,-1.200
1.150E-06,-1.000
1.160E-06,0.160
1.170E-06,1.480
1.180E-06,0.900
1.190E-06,-0.460
1.200E-06,-1.600
1.210E-06,-1.280
1.220E-06,-0.540
1.230E-06,-0.300
1.240E-06,-0.440
1.250E-06,-0.840
1.260E-06,-1.280
1.270E-06,-1.280
1.280E-06,-0.840
1.290E-06,-0.060
1.300E-06,-0.180
1.310E-06,-0.140
1.320E-06,0.100
1.330E-06,0.260
1.340E-06,0.060
1.350E-06,0.240
1.360E-06,0.080
1.370E-06,-0.040
1.380E-06,-0.360
1.390E-06,-0.380
1.400E-06,-0.260
1.410E-06,-0.620
1.420E-06,-0.820
1.430E-06,-0.440
1.440E-06,-0.040
1.450E-06,0.280
1.460E-06,0.160
1.470E-06,-0.100
1.480E-06,-0.140
1.490E-06,-0.260
1.500E-06,0.140
1.510E-06,1.000
1.520E-06,0.920
1.530E-06,-0.260
1.540E-06,-1.100
1.550E-06,-0.180
1.560E-06,0.700
1.570E-06,0.300
1.580E-06,0.240
1.590E-06,-0.500
1.600E-06,-0.940
1.610E-06,-1.300
1.620E-06,-1.840
1.630E-06,-1.480
1.640E-06,-1.220
1.650E-06,-1.440
1.660E-06,-1.480
1.670E-06,-1.340
1.680E-06,-0.880
1.690E-06,-0.320
1.700E-06,-0.500
1.710E-06,0.020
1.720E-06,0.700
1.730E-06,0.820
1.740E-06,0.580
1.750E-06,0.180
1.760E-06,0.200
1.770E-06,0.420
1.780E-06,0.160
1.790E-06,0.020
1.800E-06,0.140
1.810E-06,0.100
1.820E-06,-0.080
1.830E-06,-0.640
1.840E-06,-1.320
1.850E-06,-1.620
1.860E-06,-1.300
1.870E-06,-0.680
1.880E-06,-0.340
1.890E-06,-0.720
1.900E-06,-1.120
1.910E-06,-1.340
1.920E-06,-1.380
1.930E-06,-0.980
1.940E-06,-0.860
1.950E-06,-0.620
1.960E-06,-0.400
1.970E-06,-0.520
1.980E-06,-0.780
1.990E-06,-0.920
2.000E-06,-0.440
2.010E-06,-0.660
2.020E-06,-1.400
2.030E-06,-1.560
2.040E-06,-1.160
2.050E-06,-0.640
2.060E-06,-0.680
2.070E-06,-1.580
2.080E-06,-2.320
2.090E-06,-2.340
2.100E-06,-1.320
2.110E-06,-0.880
2.120E-06,-1.640
2.130E-06,-1.420
2.140E-06,-0.480
2.150E-06,0.300
2.160E-06,1.240
2.170E-06,0.200
2.180E-06,0.240
2.190E-06,-2.800
2.200E-06,-3.600
2.210E-06,-3.600
2.220E-06,-3.600
2.230E-06,-3.600
2.240E-06,-2.600
2.250E-06,-3.600
2.260E-06,-2.840
2.270E-06,-3.620
2.280E-06,-3.600
2.290E-06,-0.060
2.300E-06,1.820
2.310E-06,1.800
2.320E-06,-0.940
2.330E-06,-2.360
2.340E-06,-1.320
2.350E-06,-0.540
2.360E-06,-0.920
2.370E-06,-1.800
2.380E-06,-3.140
2.390E-06,-2.860
2.400E-06,-2.120
2.410E-06,-2.040
2.420E-06,-2.340
2.430E-06,-2.980
2.440E-06,-2.560
2.450E-06,-1.760
2.460E-06,-0.760
2.470E-06,-0.300
2.480E-06,-0.500
2.490E-06,-0.540
2.500E-06,-0.600
2.510E-06,-0.440
2.520E-06,-0.240
2.530E-06,-0.520
2.540E-06,-0.540
2.550E-06,-0.340
2.560E-06,-0.160
2.570E-06,0.060
2.580E-06,0.180
2.590E-06,0.180
2.600E-06,0.120
2.610E-06,0.000
2.620E-06,0.160
2.630E-06,0.220
2.640E-06,0.040
2.650E-06,-0.360
2.660E-06,-0.880
2.670E-06,-1.020
2.680E-06,-0.860
2.690E-06,-0.580
2.700E-06,0.100
2.710E-06,0.160
2.720E-06,-0.840
2.730E-06,-0.400
2.740E-06,0.360
2.750E-06,0.560
2.760E-06,1.100
2.770E-06,1.320
2.780E-06,1.360
2.790E-06,-0.280
2.800E-06,-2.380
2.810E-06,-3.160
2.820E-06,-3.120
2.830E-06,-3.340
2.840E-06,-3.620
2.850E-06,-3.620
2.860E-06,-3.600
2.870E-06,-2.580
2.880E-06,-2.060
2.890E-06,-1.360
2.900E-06,0.220
2.910E-06,1.460
2.920E-06,1.680
2.930E-06,1.600
2.940E-06,1.680
2.950E-06,1.840
2.960E-06,1.840
2.970E-06,1.400
2.980E-06,0.520
2.990E-06,0.140
3.000E-06,0.260
3.010E-06,0.280
3.020E-06,0.240
3.030E-06,0.300
3.040E-06,0.240
3.050E-06,0.340
3.060E-06,0.440
3.070E-06,0.460
3.080E-06,0.440
3.090E-06,0.320
3.100E-06,0.240
3.110E-06,0.080
3.120E-06,-0.180
3.130E-06,-0.340
3.140E-06,-0.340
3.150E-06,-0.460
3.160E-06,-0.460
3.170E-06,-0.380
3.180E-06,-0.260
3.190E-06,-0.060
3.200E-06,0.000
3.210E-06,-0.020
3.220E-06,-0.140
3.230E-06,-0.200
