mediciones/curva carac 8-28 limpias/-6/WaveData65654.csv

#timebase=2000000(ps)
,#voltbase=500000(mv/100)
#size=4000
-8.350E-06,0.060
-8.340E-06,0.040
-8.330E-06,0.000
-8.320E-06,0.040
-8.310E-06,0.040
-8.300E-06,0.020
-8.290E-06,0.060
-8.280E-06,0.040
-8.270E-06,0.040
-8.260E-06,0.020
-8.250E-06,0.040
-8.240E-06,0.020
-8.230E-06,0.040
-8.220E-06,0.060
-8.210E-06,0.020
-8.200E-06,0.040
-8.190E-06,0.060
-8.180E-06,0.020
-8.170E-06,0.060
-8.160E-06,0.040
-8.150E-06,0.040
-8.140E-06,0.040
-8.130E-06,0.040
-8.120E-06,0.040
-8.110E-06,0.040
-8.100E-06,0.060
-8.090E-06,0.020
-8.080E-06,0.020
-8.070E-06,0.020
-8.060E-06,0.040
-8.050E-06,0.040
-8.040E-06,0.060
-8.030E-06,0.060
-8.020E-06,0.080
-8.010E-06,0.040
-8.000E-06,0.020
-7.990E-06,0.020
-7.980E-06,0.040
-7.970E-06,0.060
-7.960E-06,0.060
-7.950E-06,0.060
-7.940E-06,0.060
-7.930E-06,0.020
-7.920E-06,0.020
-7.910E-06,0.060
-7.900E-06,0.040
-7.890E-06,0.060
-7.880E-06,0.060
-7.870E-06,0.080
-7.860E-06,0.040
-7.850E-06,0.060
-7.840E-06,0.040
-7.830E-06,0.020
-7.820E-06,0.020
-7.810E-06,0.020
-7.800E-06,0.020
-7.790E-06,0.040
-7.780E-06,0.020
-7.770E-06,0.040
-7.760E-06,0.020
-7.750E-06,0.060
-7.740E-06,0.040
-7.730E-06,0.060
-7.720E-06,0.020
-7.710E-06,0.020
-7.700E-06,0.060
-7.690E-06,0.020
-7.680E-06,0.040
-7.670E-06,0.020
-7.660E-06,0.020
-7.650E-06,0.060
-7.640E-06,0.060
-7.630E-06,0.080
-7.620E-06,0.020
-7.610E-06,0.020
-7.600E-06,0.020
-7.590E-06,0.080
-7.580E-06,0.060
-7.570E-06,0.060
-7.560E-06,0.040
-7.550E-06,0.000
-7.540E-06,0.020
-7.530E-06,0.040
-7.520E-06,0.060
-7.510E-06,0.020
-7.500E-06,0.020
-7.490E-06,0.060
-7.480E-06,0.040
-7.470E-06,0.020
-7.460E-06,0.020
-7.450E-06,0.040
-7.440E-06,0.020
-7.430E-06,0.060
-7.420E-06,0.040
-7.410E-06,0.040
-7.400E-06,0.060
-7.390E-06,0.000
-7.380E-06,-0.020
-7.370E-06,0.040
-7.360E-06,0.060
-7.350E-06,0.060
-7.340E-06,0.060
-7.330E-06,0.060
-7.320E-06,0.020
-7.310E-06,0.020
-7.300E-06,0.080
-7.290E-06,0.040
-7.280E-06,0.020
-7.270E-06,0.040
-7.260E-06,0.000
-7.250E-06,0.040
-7.240E-06,0.080
-7.230E-06,0.020
-7.220E-06,0.060
-7.210E-06,0.020
-7.200E-06,0.020
-7.190E-06,0.080
-7.180E-06,0.040
-7.170E-06,0.060
-7.160E-06,0.060
-7.150E-06,0.020
-7.140E-06,0.060
-7.130E-06,0.020
-7.120E-06,0.040
-7.110E-06,0.080
-7.100E-06,0.040
-7.090E-06,0.040
-7.080E-06,0.060
-7.070E-06,0.040
-7.060E-06,0.000
-7.050E-06,0.040
-7.040E-06,0.000
-7.030E-06,0.040
-7.020E-06,0.020
-7.010E-06,0.020
-7.000E-06,0.040
-6.990E-06,0.000
-6.980E-06,0.040
-6.970E-06,0.040
-6.960E-06,0.060
-6.950E-06,0.060
-6.940E-06,0.040
-6.930E-06,0.040
-6.920E-06,0.020
-6.910E-06,0.040
-6.900E-06,0.020
-6.890E-06,0.000
-6.880E-06,0.040
-6.870E-06,0.020
-6.860E-06,0.020
-6.850E-06,0.040
-6.840E-06,0.020
-6.830E-06,0.040
-6.820E-06,0.020
-6.810E-06,0.040
-6.800E-06,0.000
-6.790E-06,0.060
-6.780E-06,0.040
-6.770E-06,0.020
-6.760E-06,0.040
-6.750E-06,0.040
-6.740E-06,0.080
-6.730E-06,0.020
-6.720E-06,0.000
-6.710E-06,0.020
-6.700E-06,0.060
-6.690E-06,0.040
-6.680E-06,0.060
-6.670E-06,0.060
-6.660E-06,0.040
-6.650E-06,0.060
-6.640E-06,0.040
-6.630E-06,0.020
-6.620E-06,0.040
-6.610E-06,0.080
-6.600E-06,0.040
-6.590E-06,0.040
-6.580E-06,0.040
-6.570E-06,0.060
-6.560E-06,0.040
-6.550E-06,0.060
-6.540E-06,0.020
-6.530E-06,0.040
-6.520E-06,0.040
-6.510E-06,0.020
-6.500E-06,0.020
-6.490E-06,0.060
-6.480E-06,0.020
-6.470E-06,0.020
-6.460E-06,0.040
-6.450E-06,0.040
-6.440E-06,0.040
-6.430E-06,0.040
-6.420E-06,0.060
-6.410E-06,0.020
-6.400E-06,0.020
-6.390E-06,0.020
-6.380E-06,0.020
-6.370E-06,0.020
-6.360E-06,0.040
-6.350E-06,0.060
-6.340E-06,0.060
-6.330E-06,0.040
-6.320E-06,0.040
-6.310E-06,0.000
-6.300E-06,0.040
-6.290E-06,0.040
-6.280E-06,0.040
-6.270E-06,0.060
-6.260E-06,0.040
-6.250E-06,0.040
-6.240E-06,0.040
-6.230E-06,0.000
-6.220E-06,0.040
-6.210E-06,0.000
-6.200E-06,0.020
-6.190E-06,0.040
-6.180E-06,0.040
-6.170E-06,0.040
-6.160E-06,0.060
-6.150E-06,0.060
-6.140E-06,0.020
-6.130E-06,0.020
-6.120E-06,0.040
-6.110E-06,0.040
-6.100E-06,0.060
-6.090E-06,0.020
-6.080E-06,0.060
-6.070E-06,0.040
-6.060E-06,0.080
-6.050E-06,0.020
-6.040E-06,0.040
-6.030E-06,0.040
-6.020E-06,0.060
-6.010E-06,0.020
-6.000E-06,0.060
-5.990E-06,0.060
-5.980E-06,0.040
-5.970E-06,0.060
-5.960E-06,0.040
-5.950E-06,0.040
-5.940E-06,0.020
-5.930E-06,0.060
-5.920E-06,0.060
-5.910E-06,0.080
-5.900E-06,0.040
-5.890E-06,0.000
-5.880E-06,0.080
-5.870E-06,0.020
-5.860E-06,0.040
-5.850E-06,0.040
-5.840E-06,0.060
-5.830E-06,0.040
-5.820E-06,0.020
-5.810E-06,0.040
-5.800E-06,0.040
-5.790E-06,0.040
-5.780E-06,0.060
-5.770E-06,0.040
-5.760E-06,0.000
-5.750E-06,0.040
-5.740E-06,0.040
-5.730E-06,0.040
-5.720E-06,0.060
-5.710E-06,0.020
-5.700E-06,0.000
-5.690E-06,0.020
-5.680E-06,0.040
-5.670E-06,0.020
-5.660E-06,0.040
-5.650E-06,0.040
-5.640E-06,0.040
-5.630E-06,0.020
-5.620E-06,0.040
-5.610E-06,0.020
-5.600E-06,0.000
-5.590E-06,0.060
-5.580E-06,0.060
-5.570E-06,0.000
-5.560E-06,0.040
-5.550E-06,0.060
-5.540E-06,0.060
-5.530E-06,0.080
-5.520E-06,0.020
-5.510E-06,0.020
-5.500E-06,0.040
-5.490E-06,0.080
-5.480E-06,0.040
-5.470E-06,0.020
-5.460E-06,0.040
-5.450E-06,0.000
-5.440E-06,0.000
-5.430E-06,0.020
-5.420E-06,0.020
-5.410E-06,0.020
-5.400E-06,0.020
-5.390E-06,0.040
-5.380E-06,0.060
-5.370E-06,0.060
-5.360E-06,0.060
-5.350E-06,0.060
-5.340E-06,0.020
-5.330E-06,0.040
-5.320E-06,0.060
-5.310E-06,0.040
-5.300E-06,0.020
-5.290E-06,0.040
-5.280E-06,0.020
-5.270E-06,0.020
-5.260E-06,0.000
-5.250E-06,0.060
-5.240E-06,0.040
-5.230E-06,0.020
-5.220E-06,0.040
-5.210E-06,0.040
-5.200E-06,0.020
-5.190E-06,0.060
-5.180E-06,0.040
-5.170E-06,0.040
-5.160E-06,0.060
-5.150E-06,0.040
-5.140E-06,0.040
-5.130E-06,0.060
-5.120E-06,0.080
-5.110E-06,0.040
-5.100E-06,0.060
-5.090E-06,0.060
-5.080E-06,0.040
-5.070E-06,0.040
-5.060E-06,0.060
-5.050E-06,0.060
-5.040E-06,0.040
-5.030E-06,0.060
-5.020E-06,0.060
-5.010E-06,0.060
-5.000E-06,0.060
-4.990E-06,0.080
-4.980E-06,0.040
-4.970E-06,0.020
-4.960E-06,0.060
-4.950E-06,0.040
-4.940E-06,0.060
-4.930E-06,0.040
-4.920E-06,0.060
-4.910E-06,0.060
-4.900E-06,0.040
-4.890E-06,0.080
-4.880E-06,0.060
-4.870E-06,0.040
-4.860E-06,0.060
-4.850E-06,0.000
-4.840E-06,0.020
-4.830E-06,0.040
-4.820E-06,0.040
-4.810E-06,0.020
-4.800E-06,0.060
-4.790E-06,0.040
-4.780E-06,0.040
-4.770E-06,0.020
-4.760E-06,0.040
-4.750E-06,0.040
-4.740E-06,0.000
-4.730E-06,0.040
-4.720E-06,0.020
-4.710E-06,0.040
-4.700E-06,0.020
-4.690E-06,0.020
-4.680E-06,0.040
-4.670E-06,0.040
-4.660E-06,0.080
-4.650E-06,0.040
-4.640E-06,0.040
-4.630E-06,0.040
-4.620E-06,0.060
-4.610E-06,0.040
-4.600E-06,0.020
-4.590E-06,0.040
-4.580E-06,0.040
-4.570E-06,0.020
-4.560E-06,0.060
-4.550E-06,0.020
-4.540E-06,0.020
-4.530E-06,0.060
-4.520E-06,0.080
-4.510E-06,0.080
-4.500E-06,0.000
-4.490E-06,0.040
-4.480E-06,0.040
-4.470E-06,0.040
-4.460E-06,0.040
-4.450E-06,0.040
-4.440E-06,0.040
-4.430E-06,0.020
-4.420E-06,0.060
-4.410E-06,0.060
-4.400E-06,0.060
-4.390E-06,0.040
-4.380E-06,0.020
-4.370E-06,0.040
-4.360E-06,0.020
-4.350E-06,0.060
-4.340E-06,0.040
-4.330E-06,0.040
-4.320E-06,0.060
-4.310E-06,0.040
-4.300E-06,0.040
-4.290E-06,0.040
-4.280E-06,0.020
-4.270E-06,0.060
-4.260E-06,0.020
-4.250E-06,0.040
-4.240E-06,0.020
-4.230E-06,0.060
-4.220E-06,0.040
-4.210E-06,0.040
-4.200E-06,0.080
-4.190E-06,0.040
-4.180E-06,0.080
-4.170E-06,0.040
-4.160E-06,0.000
-4.150E-06,0.000
-4.140E-06,0.040
-4.130E-06,0.060
-4.120E-06,0.060
-4.110E-06,0.040
-4.100E-06,0.040
-4.090E-06,0.060
-4.080E-06,0.060
-4.070E-06,0.020
-4.060E-06,0.040
-4.050E-06,0.020
-4.040E-06,0.040
-4.030E-06,0.040
-4.020E-06,0.040
-4.010E-06,0.060
-4.000E-06,0.020
-3.990E-06,0.040
-3.980E-06,0.040
-3.970E-06,0.020
-3.960E-06,0.060
-3.950E-06,0.020
-3.940E-06,0.040
-3.930E-06,0.020
-3.920E-06,0.020
-3.910E-06,0.020
-3.900E-06,0.020
-3.890E-06,0.040
-3.880E-06,0.020
-3.870E-06,0.040
-3.860E-06,0.040
-3.850E-06,0.060
-3.840E-06,0.060
-3.830E-06,0.060
-3.820E-06,0.020
-3.810E-06,0.040
-3.800E-06,0.040
-3.790E-06,0.020
-3.780E-06,0.020
-3.770E-06,0.020
-3.760E-06,0.020
-3.750E-06,0.020
-3.740E-06,0.000
-3.730E-06,-0.260
-3.720E-06,-1.020
-3.710E-06,-2.000
-3.700E-06,-2.880
-3.690E-06,-3.240
-3.680E-06,-3.300
-3.670E-06,-0.780
-3.660E-06,-0.960
-3.650E-06,-0.160
-3.640E-06,2.020
-3.630E-06,2.080
-3.620E-06,2.100
-3.610E-06,2.100
-3.600E-06,2.080
-3.590E-06,2.080
-3.580E-06,2.100
-3.570E-06,2.100
-3.560E-06,0.940
-3.550E-06,0.200
-3.540E-06,-0.260
-3.530E-06,-0.740
-3.520E-06,-0.700
-3.510E-06,-0.700
-3.500E-06,-0.160
-3.490E-06,-0.200
-3.480E-06,-0.320
-3.470E-06,-0.440
-3.460E-06,-0.720
-3.450E-06,-1.040
-3.440E-06,-1.420
-3.430E-06,-1.620
-3.420E-06,-1.820
-3.410E-06,-1.700
-3.400E-06,-1.480
-3.390E-06,-1.260
-3.380E-06,-0.740
-3.370E-06,-0.160
-3.360E-06,0.400
-3.350E-06,0.960
-3.340E-06,1.400
-3.330E-06,1.660
-3.320E-06,1.560
-3.310E-06,1.420
-3.300E-06,1.100
-3.290E-06,0.660
-3.280E-06,0.280
-3.270E-06,-0.120
-3.260E-06,-0.460
-3.250E-06,-0.740
-3.240E-06,-0.880
-3.230E-06,-0.880
-3.220E-06,-0.860
-3.210E-06,-0.720
-3.200E-06,-0.580
-3.190E-06,-0.420
-3.180E-06,-0.280
-3.170E-06,-0.100
-3.160E-06,0.060
-3.150E-06,0.300
-3.140E-06,0.500
-3.130E-06,0.700
-3.120E-06,0.840
-3.110E-06,0.940
-3.100E-06,0.980
-3.090E-06,0.940
-3.080E-06,0.840
-3.070E-06,0.760
-3.060E-06,0.540
-3.050E-06,0.380
-3.040E-06,0.220
-3.030E-06,0.060
-3.020E-06,-0.100
-3.010E-06,-0.240
-3.000E-06,-0.300
-2.990E-06,-0.440
-2.980E-06,-0.460
-2.970E-06,-0.540
-2.960E-06,-0.580
-2.950E-06,-0.560
-2.940E-06,-0.640
-2.930E-06,-0.560
-2.920E-06,-0.500
-2.910E-06,-0.320
-2.900E-06,-0.160
-2.890E-06,0.080
-2.880E-06,0.300
-2.870E-06,0.500
-2.860E-06,0.700
-2.850E-06,0.800
-2.840E-06,0.860
-2.830E-06,0.840
-2.820E-06,0.660
-2.810E-06,0.520
-2.800E-06,0.300
-2.790E-06,0.080
-2.780E-06,-0.160
-2.770E-06,-0.340
-2.760E-06,-0.380
-2.750E-06,-0.600
-2.740E-06,-0.500
-2.730E-06,-0.560
-2.720E-06,-0.460
-2.710E-06,-0.360
-2.700E-06,-0.280
-2.690E-06,-0.140
-2.680E-06,-0.080
-2.670E-06,-0.040
-2.660E-06,-0.020
-2.650E-06,0.000
-2.640E-06,0.020
-2.630E-06,0.040
-2.620E-06,0.080
-2.610E-06,0.080
-2.600E-06,0.100
-2.590E-06,0.060
-2.580E-06,0.080
-2.570E-06,-0.040
-2.560E-06,0.320
-2.550E-06,-0.040
-2.540E-06,0.380
-2.530E-06,-0.080
-2.520E-06,0.160
-2.510E-06,0.000
-2.500E-06,0.000
-2.490E-06,-0.040
-2.480E-06,-0.060
-2.470E-06,-0.080
-2.460E-06,-0.100
-2.450E-06,-0.100
-2.440E-06,-0.060
-2.430E-06,-0.020
-2.420E-06,0.020
-2.410E-06,0.000
-2.400E-06,0.060
-2.390E-06,-0.040
-2.380E-06,0.000
-2.370E-06,0.120
-2.360E-06,-0.140
-2.350E-06,0.140
-2.340E-06,-0.080
-2.330E-06,-0.100
-2.320E-06,0.020
-2.310E-06,-0.120
-2.300E-06,-0.040
-2.290E-06,-0.060
-2.280E-06,-0.100
-2.270E-06,-0.100
-2.260E-06,-0.180
-2.250E-06,-0.200
-2.240E-06,-0.140
-2.230E-06,-0.240
-2.220E-06,-0.160
-2.210E-06,-0.260
-2.200E-06,-0.160
-2.190E-06,-0.340
-2.180E-06,-0.020
-2.170E-06,-0.380
-2.160E-06,-0.120
-2.150E-06,-0.320
-2.140E-06,-0.180
-2.130E-06,-0.140
-2.120E-06,-0.180
-2.110E-06,-0.080
-2.100E-06,0.060
-2.090E-06,0.120
-2.080E-06,0.080
-2.070E-06,0.160
-2.060E-06,-0.100
-2.050E-06,-0.220
-2.040E-06,-0.460
-2.030E-06,-0.160
-2.020E-06,-0.240
-2.010E-06,0.060
-2.000E-06,-0.160
-1.990E-06,0.200
-1.980E-06,0.080
-1.970E-06,0.080
-1.960E-06,0.100
-1.950E-06,0.040
-1.940E-06,-0.160
-1.930E-06,0.260
-1.920E-06,0.240
-1.910E-06,0.020
-1.900E-06,0.060
-1.890E-06,0.040
-1.880E-06,-0.080
-1.870E-06,-0.160
-1.860E-06,-0.300
-1.850E-06,-0.100
-1.840E-06,-0.180
-1.830E-06,-0.260
-1.820E-06,-0.280
-1.810E-06,-0.160
-1.800E-06,-0.100
-1.790E-06,-0.160
-1.780E-06,-0.120
-1.770E-06,0.080
-1.760E-06,-0.180
-1.750E-06,-0.080
-1.740E-06,-0.200
-1.730E-06,-0.100
-1.720E-06,-0.260
-1.710E-06,-0.020
-1.700E-06,-0.140
-1.690E-06,-0.040
-1.680E-06,-0.260
-1.670E-06,0.020
-1.660E-06,-0.320
-1.650E-06,0.020
-1.640E-06,-0.400
-1.630E-06,0.000
-1.620E-06,-0.320
-1.610E-06,-0.200
-1.600E-06,-0.240
-1.590E-06,-0.240
-1.580E-06,-0.180
-1.570E-06,-0.220
-1.560E-06,-0.240
-1.550E-06,-0.240
-1.540E-06,-0.220
-1.530E-06,-0.200
-1.520E-06,-0.180
-1.510E-06,-0.020
-1.500E-06,-0.020
-1.490E-06,0.120
-1.480E-06,0.160
-1.470E-06,0.220
-1.460E-06,0.120
-1.450E-06,0.060
-1.440E-06,0.100
-1.430E-06,0.020
-1.420E-06,0.000
-1.410E-06,0.020
-1.400E-06,0.240
-1.390E-06,0.800
-1.380E-06,1.180
-1.370E-06,2.080
-1.360E-06,1.840
-1.350E-06,2.080
-1.340E-06,1.080
-1.330E-06,0.860
-1.320E-06,-0.360
-1.310E-06,-0.960
-1.300E-06,-1.860
-1.290E-06,-2.320
-1.280E-06,-2.200
-1.270E-06,-1.940
-1.260E-06,-1.800
-1.250E-06,-2.380
-1.240E-06,-2.200
-1.230E-06,-2.360
-1.220E-06,-2.540
-1.210E-06,-2.040
-1.200E-06,-2.380
-1.190E-06,-1.740
-1.180E-06,-1.960
-1.170E-06,-1.800
-1.160E-06,-1.800
-1.150E-06,-1.280
-1.140E-06,-1.200
-1.130E-06,-0.040
-1.120E-06,-0.100
-1.110E-06,0.760
-1.100E-06,0.560
-1.090E-06,1.120
-1.080E-06,0.880
-1.070E-06,0.900
-1.060E-06,0.660
-1.050E-06,0.480
-1.040E-06,0.400
-1.030E-06,0.120
-1.020E-06,-0.360
-1.010E-06,-0.680
-1.000E-06,-1.020
-9.900E-07,-1.240
-9.800E-07,-1.260
-9.700E-07,-1.100
-9.600E-07,-0.940
-9.500E-07,-0.660
-9.400E-07,-0.400
-9.300E-07,-0.120
-9.200E-07,0.020
-9.100E-07,0.300
-9.000E-07,0.360
-8.900E-07,0.640
-8.800E-07,0.300
-8.700E-07,0.220
-8.600E-07,-0.120
-8.500E-07,-0.220
-8.400E-07,-0.340
-8.300E-07,-0.200
-8.200E-07,-0.240
-8.100E-07,-0.040
-8.000E-07,-0.480
-7.900E-07,-0.140
-7.800E-07,-0.520
-7.700E-07,-0.020
-7.600E-07,-0.140
-7.500E-07,0.080
-7.400E-07,0.480
-7.300E-07,0.120
-7.200E-07,0.320
-7.100E-07,-0.260
-7.000E-07,-0.940
-6.900E-07,-1.420
-6.800E-07,-1.680
-6.700E-07,-1.800
-6.600E-07,-2.380
-6.500E-07,-2.040
-6.400E-07,-2.040
-6.300E-07,-2.440
-6.200E-07,-1.940
-6.100E-07,-1.920
-6.000E-07,-1.980
-5.900E-07,-1.820
-5.800E-07,-1.720
-5.700E-07,-1.500
-5.600E-07,-1.660
-5.500E-07,-1.700
-5.400E-07,-1.700
-5.300E-07,-1.860
-5.200E-07,-1.200
-5.100E-07,-1.380
-5.000E-07,-0.860
-4.900E-07,-0.800
-4.800E-07,-0.620
-4.700E-07,-0.360
-4.600E-07,-0.380
-4.500E-07,-0.360
-4.400E-07,-0.340
-4.300E-07,-0.260
-4.200E-07,-0.140
-4.100E-07,-0.260
-4.000E-07,-0.240
-3.900E-07,-0.340
-3.800E-07,-0.380
-3.700E-07,-0.600
-3.600E-07,-0.600
-3.500E-07,-0.760
-3.400E-07,-0.620
-3.300E-07,-0.480
-3.200E-07,-0.660
-3.100E-07,-0.380
-3.000E-07,-0.480
-2.900E-07,-0.300
-2.800E-07,-0.280
-2.700E-07,-0.260
-2.600E-07,-0.360
-2.500E-07,-0.360
-2.400E-07,-0.360
-2.300E-07,-0.140
-2.200E-07,-0.280
-2.100E-07,-0.260
-2.000E-07,-0.340
-1.900E-07,-0.520
-1.800E-07,-0.540
-1.700E-07,-0.800
-1.600E-07,-0.820
-1.500E-07,-0.580
-1.400E-07,-0.800
-1.300E-07,-0.240
-1.200E-07,-1.020
-1.100E-07,-0.420
-1.000E-07,-1.280
-9.000E-08,-1.480
-8.000E-08,-1.960
-7.000E-08,-1.700
-6.000E-08,-1.920
-5.000E-08,-2.000
-4.000E-08,-1.860
-3.000E-08,-1.700
-2.000E-08,-1.560
-1.000E-08,-1.460
0.000E+00,-1.200
1.000E-08,-1.100
2.000E-08,-1.180
3.000E-08,-0.940
4.000E-08,-0.960
5.000E-08,-0.760
6.000E-08,-0.860
7.000E-08,-1.180
8.000E-08,-1.540
9.000E-08,-2.240
1.000E-07,-2.440
1.100E-07,-2.580
1.200E-07,-2.460
1.300E-07,-2.540
1.400E-07,-2.300
1.500E-07,-2.060
1.600E-07,-1.920
1.700E-07,-0.960
1.800E-07,-1.160
1.900E-07,0.520
2.000E-07,2.100
2.100E-07,2.100
2.200E-07,2.080
2.300E-07,2.080
2.400E-07,0.140
2.500E-07,-1.540
2.600E-07,-3.340
2.700E-07,-3.320
2.800E-07,-3.340
2.900E-07,-3.340
3.000E-07,-3.360
3.100E-07,-3.360
3.200E-07,-3.340
3.300E-07,-3.340
3.400E-07,-3.340
3.500E-07,-3.360
3.600E-07,-3.360
3.700E-07,-3.360
3.800E-07,-2.120
3.900E-07,-1.080
4.000E-07,-0.080
4.100E-07,0.480
4.200E-07,0.980
4.300E-07,1.220
4.400E-07,1.280
4.500E-07,1.620
4.600E-07,1.740
4.700E-07,1.740
4.800E-07,1.760
4.900E-07,1.620
5.000E-07,1.260
5.100E-07,0.820
5.200E-07,0.080
5.300E-07,-0.740
5.400E-07,-1.700
5.500E-07,-2.440
5.600E-07,-3.340
5.700E-07,-3.340
5.800E-07,-3.340
5.900E-07,-3.340
6.000E-07,-3.340
6.100E-07,-3.340
6.200E-07,-3.340
6.300E-07,-2.740
6.400E-07,-2.240
6.500E-07,-1.720
6.600E-07,-1.020
6.700E-07,-0.680
6.800E-07,-0.380
6.900E-07,-0.280
7.000E-07,-0.520
7.100E-07,-0.900
7.200E-07,-1.520
7.300E-07,-2.320
7.400E-07,-2.800
7.500E-07,-3.300
7.600E-07,-3.340
7.700E-07,-3.340
7.800E-07,-3.320
7.900E-07,-3.340
8.000E-07,-3.340
8.100E-07,-3.240
8.200E-07,-3.080
8.300E-07,-2.760
8.400E-07,-2.720
8.500E-07,-2.220
8.600E-07,-2.200
8.700E-07,-1.700
8.800E-07,-1.440
8.900E-07,-1.080
9.000E-07,-0.640
9.100E-07,-0.300
9.200E-07,0.220
9.300E-07,0.600
9.400E-07,1.020
9.500E-07,1.320
9.600E-07,1.460
9.700E-07,1.560
9.800E-07,1.200
9.900E-07,1.120
1.000E-06,0.600
1.010E-06,0.200
1.020E-06,-0.240
1.030E-06,-0.780
1.040E-06,-1.180
1.050E-06,-1.460
1.060E-06,-1.540
1.070E-06,-1.540
1.080E-06,-1.300
1.090E-06,-1.100
1.100E-06,-0.620
1.110E-06,-0.580
1.120E-06,0.120
1.130E-06,0.100
1.140E-06,0.600
1.150E-06,0.540
1.160E-06,0.760
1.170E-06,0.800
1.180E-06,0.640
1.190E-06,0.680
1.200E-06,0.600
1.210E-06,0.560
1.220E-06,0.420
1.230E-06,0.320
1.240E-06,0.200
1.250E-06,0.140
1.260E-06,0.180
1.270E-06,0.080
1.280E-06,0.080
1.290E-06,0.080
1.300E-06,-0.040
1.310E-06,-0.260
1.320E-06,-0.360
1.330E-06,-0.520
1.340E-06,-0.600
1.350E-06,-0.680
1.360E-06,-0.720
1.370E-06,-0.660
1.380E-06,-0.660
1.390E-06,-0.580
1.400E-06,-0.380
1.410E-06,-0.380
1.420E-06,-0.280
1.430E-06,-0.340
1.440E-06,-0.200
1.450E-06,-0.300
1.460E-06,-0.300
1.470E-06,-0.440
1.480E-06,-0.440
1.490E-06,-0.480
1.500E-06,-0.560
1.510E-06,-0.520
1.520E-06,-0.640
1.530E-06,-0.500
1.540E-06,-0.520
1.550E-06,-0.360
1.560E-06,-0.200
1.570E-06,0.120
1.580E-06,-0.160
1.590E-06,0.000
1.600E-06,-0.560
1.610E-06,-0.580
1.620E-06,-0.840
1.630E-06,-0.740
1.640E-06,-0.960
1.650E-06,-0.820
1.660E-06,-1.100
1.670E-06,-0.500
1.680E-06,-0.860
1.690E-06,-0.180
1.700E-06,-0.140
1.710E-06,0.180
1.720E-06,0.020
1.730E-06,0.100
1.740E-06,0.280
1.750E-06,0.520
1.760E-06,0.540
1.770E-06,0.600
1.780E-06,0.620
1.790E-06,0.520
1.800E-06,0.420
1.810E-06,0.360
1.820E-06,0.300
1.830E-06,0.300
1.840E-06,0.280
1.850E-06,0.280
1.860E-06,0.280
1.870E-06,0.280
1.880E-06,0.240
1.890E-06,0.220
1.900E-06,0.160
1.910E-06,0.100
1.920E-06,0.060
1.930E-06,0.080
1.940E-06,0.120
1.950E-06,0.180
1.960E-06,0.320
1.970E-06,0.420
1.980E-06,0.580
1.990E-06,0.700
2.000E-06,0.820
2.010E-06,0.920
2.020E-06,1.040
2.030E-06,1.080
2.040E-06,1.100
2.050E-06,1.040
2.060E-06,0.980
2.070E-06,0.880
2.080E-06,0.840
2.090E-06,0.800
2.100E-06,0.700
2.110E-06,0.580
2.120E-06,0.500
2.130E-06,0.420
2.140E-06,0.400
2.150E-06,0.340
2.160E-06,0.300
2.170E-06,0.300
2.180E-06,0.300
2.190E-06,0.320
2.200E-06,0.320
2.210E-06,0.340
2.220E-06,0.340
2.230E-06,0.380
2.240E-06,0.420
2.250E-06,0.380
2.260E-06,0.380
2.270E-06,0.420
2.280E-06,0.440
2.290E-06,0.420
2.300E-06,0.440
2.310E-06,0.480
2.320E-06,0.520
2.330E-06,0.540
2.340E-06,0.520
2.350E-06,0.500
2.360E-06,0.460
2.370E-06,0.420
2.380E-06,0.400
2.390E-06,0.360
2.400E-06,0.340
2.410E-06,0.260
2.420E-06,0.260
2.430E-06,0.220
2.440E-06,0.240
2.450E-06,0.240
2.460E-06,0.280
2.470E-06,0.340
2.480E-06,0.380
2.490E-06,0.400
2.500E-06,0.360
2.510E-06,0.380
2.520E-06,0.420
2.530E-06,0.440
2.540E-06,0.500
2.550E-06,0.520
2.560E-06,0.580
2.570E-06,0.600
2.580E-06,0.640
2.590E-06,0.680
2.600E-06,0.680
2.610E-06,0.700
2.620E-06,0.720
2.630E-06,0.720
2.640E-06,0.740
2.650E-06,0.740
2.660E-06,0.740
2.670E-06,0.700
2.680E-06,0.660
2.690E-06,0.640
2.700E-06,0.580
2.710E-06,0.560
2.720E-06,0.560
2.730E-06,0.580
2.740E-06,0.580
2.750E-06,0.560
2.760E-06,0.580
2.770E-06,0.580
2.780E-06,0.560
2.790E-06,0.600
2.800E-06,0.600
2.810E-06,0.600
2.820E-06,0.660
2.830E-06,0.680
2.840E-06,0.720
2.850E-06,0.760
2.860E-06,0.820
2.870E-06,0.800
2.880E-06,0.860
2.890E-06,0.880
2.900E-06,0.860
2.910E-06,0.860
2.920E-06,0.840
2.930E-06,0.800
2.940E-06,0.780
2.950E-06,0.700
2.960E-06,0.660
2.970E-06,0.620
2.980E-06,0.560
2.990E-06,0.560
3.000E-06,0.540
3.010E-06,0.560
3.020E-06,0.600
3.030E-06,0.600
3.040E-06,0.680
3.050E-06,0.680
3.060E-06,0.680
3.070E-06,0.700
3.080E-06,0.660
3.090E-06,0.580
3.100E-06,0.520
3.110E-06,0.480
3.120E-06,0.420
3.130E-06,0.400
3.140E-06,0.320
3.150E-06,0.300
3.160E-06,0.300
3.170E-06,0.300
3.180E-06,0.360
3.190E-06,0.380
3.200E-06,0.460
3.210E-06,0.520
3.220E-06,0.580
3.230E-06,0.620
3.240E-06,0.660
3.250E-06,0.660
3.260E-06,0.680
3.270E-06,0.680
3.280E-06,0.660
3.290E-06,0.640
3.300E-06,0.660
3.310E-06,0.600
3.320E-06,0.560
3.330E-06,0.540
3.340E-06,0.500
