mediciones/8-28/-2/WaveData65616.csv

#timebase=2000000(ps)
,#voltbase=500000(mv/100)
#size=4000
-8.350E-06,0.000
-8.340E-06,0.020
-8.330E-06,0.040
-8.320E-06,0.060
-8.310E-06,0.080
-8.300E-06,0.000
-8.290E-06,0.020
-8.280E-06,0.000
-8.270E-06,0.040
-8.260E-06,0.040
-8.250E-06,0.060
-8.240E-06,0.040
-8.230E-06,0.060
-8.220E-06,0.000
-8.210E-06,0.020
-8.200E-06,0.040
-8.190E-06,-0.020
-8.180E-06,0.040
-8.170E-06,0.080
-8.160E-06,0.040
-8.150E-06,0.020
-8.140E-06,0.040
-8.130E-06,0.040
-8.120E-06,0.040
-8.110E-06,-0.020
-8.100E-06,0.040
-8.090E-06,0.040
-8.080E-06,0.020
-8.070E-06,0.060
-8.060E-06,0.000
-8.050E-06,0.020
-8.040E-06,0.040
-8.030E-06,0.060
-8.020E-06,0.060
-8.010E-06,0.020
-8.000E-06,0.060
-7.990E-06,0.040
-7.980E-06,0.020
-7.970E-06,0.000
-7.960E-06,0.040
-7.950E-06,0.060
-7.940E-06,0.060
-7.930E-06,0.040
-7.920E-06,0.020
-7.910E-06,0.020
-7.900E-06,0.020
-7.890E-06,0.060
-7.880E-06,0.020
-7.870E-06,0.040
-7.860E-06,0.020
-7.850E-06,0.060
-7.840E-06,0.060
-7.830E-06,0.020
-7.820E-06,0.000
-7.810E-06,0.040
-7.800E-06,0.000
-7.790E-06,0.040
-7.780E-06,0.060
-7.770E-06,0.060
-7.760E-06,0.040
-7.750E-06,0.020
-7.740E-06,0.060
-7.730E-06,0.040
-7.720E-06,0.000
-7.710E-06,0.040
-7.700E-06,0.040
-7.690E-06,0.060
-7.680E-06,0.020
-7.670E-06,0.020
-7.660E-06,0.040
-7.650E-06,0.020
-7.640E-06,0.020
-7.630E-06,0.000
-7.620E-06,0.040
-7.610E-06,0.060
-7.600E-06,0.020
-7.590E-06,0.060
-7.580E-06,0.080
-7.570E-06,0.060
-7.560E-06,0.060
-7.550E-06,0.080
-7.540E-06,0.020
-7.530E-06,0.040
-7.520E-06,0.060
-7.510E-06,0.040
-7.500E-06,-0.020
-7.490E-06,0.040
-7.480E-06,0.060
-7.470E-06,0.060
-7.460E-06,0.060
-7.450E-06,0.020
-7.440E-06,0.040
-7.430E-06,0.020
-7.420E-06,0.020
-7.410E-06,0.040
-7.400E-06,0.060
-7.390E-06,0.080
-7.380E-06,0.020
-7.370E-06,0.040
-7.360E-06,0.040
-7.350E-06,0.020
-7.340E-06,0.020
-7.330E-06,0.060
-7.320E-06,0.060
-7.310E-06,0.020
-7.300E-06,0.020
-7.290E-06,0.020
-7.280E-06,0.060
-7.270E-06,0.060
-7.260E-06,0.060
-7.250E-06,0.020
-7.240E-06,0.040
-7.230E-06,0.040
-7.220E-06,0.020
-7.210E-06,0.000
-7.200E-06,0.020
-7.190E-06,0.040
-7.180E-06,0.060
-7.170E-06,0.060
-7.160E-06,0.000
-7.150E-06,0.000
-7.140E-06,0.040
-7.130E-06,0.040
-7.120E-06,0.020
-7.110E-06,0.020
-7.100E-06,0.040
-7.090E-06,0.040
-7.080E-06,0.060
-7.070E-06,0.020
-7.060E-06,0.020
-7.050E-06,0.040
-7.040E-06,0.020
-7.030E-06,0.020
-7.020E-06,0.020
-7.010E-06,0.020
-7.000E-06,0.060
-6.990E-06,0.040
-6.980E-06,0.040
-6.970E-06,0.060
-6.960E-06,0.020
-6.950E-06,0.000
-6.940E-06,0.020
-6.930E-06,0.020
-6.920E-06,0.040
-6.910E-06,0.040
-6.900E-06,0.060
-6.890E-06,0.040
-6.880E-06,0.020
-6.870E-06,0.040
-6.860E-06,0.020
-6.850E-06,0.040
-6.840E-06,0.040
-6.830E-06,0.020
-6.820E-06,0.000
-6.810E-06,0.040
-6.800E-06,0.040
-6.790E-06,0.020
-6.780E-06,0.000
-6.770E-06,0.040
-6.760E-06,0.020
-6.750E-06,0.040
-6.740E-06,0.000
-6.730E-06,0.020
-6.720E-06,0.020
-6.710E-06,0.020
-6.700E-06,0.060
-6.690E-06,0.060
-6.680E-06,0.040
-6.670E-06,0.080
-6.660E-06,0.040
-6.650E-06,0.020
-6.640E-06,0.040
-6.630E-06,0.020
-6.620E-06,0.060
-6.610E-06,0.040
-6.600E-06,0.060
-6.590E-06,0.060
-6.580E-06,0.040
-6.570E-06,0.080
-6.560E-06,0.040
-6.550E-06,0.020
-6.540E-06,0.040
-6.530E-06,0.020
-6.520E-06,0.040
-6.510E-06,0.040
-6.500E-06,0.020
-6.490E-06,0.040
-6.480E-06,0.040
-6.470E-06,0.060
-6.460E-06,0.020
-6.450E-06,0.040
-6.440E-06,0.060
-6.430E-06,0.020
-6.420E-06,0.060
-6.410E-06,0.020
-6.400E-06,0.020
-6.390E-06,0.060
-6.380E-06,0.040
-6.370E-06,0.020
-6.360E-06,0.060
-6.350E-06,0.040
-6.340E-06,0.020
-6.330E-06,0.000
-6.320E-06,0.040
-6.310E-06,0.020
-6.300E-06,0.000
-6.290E-06,0.040
-6.280E-06,0.020
-6.270E-06,0.020
-6.260E-06,0.020
-6.250E-06,0.040
-6.240E-06,0.040
-6.230E-06,0.060
-6.220E-06,0.040
-6.210E-06,0.020
-6.200E-06,0.000
-6.190E-06,0.020
-6.180E-06,0.060
-6.170E-06,0.000
-6.160E-06,0.060
-6.150E-06,0.040
-6.140E-06,0.020
-6.130E-06,0.020
-6.120E-06,0.060
-6.110E-06,0.020
-6.100E-06,0.080
-6.090E-06,0.040
-6.080E-06,0.040
-6.070E-06,0.000
-6.060E-06,0.060
-6.050E-06,0.020
-6.040E-06,0.020
-6.030E-06,0.080
-6.020E-06,0.040
-6.010E-06,0.020
-6.000E-06,0.060
-5.990E-06,0.040
-5.980E-06,0.020
-5.970E-06,0.040
-5.960E-06,0.020
-5.950E-06,0.040
-5.940E-06,0.040
-5.930E-06,0.060
-5.920E-06,0.040
-5.910E-06,0.000
-5.900E-06,0.040
-5.890E-06,0.060
-5.880E-06,0.040
-5.870E-06,0.060
-5.860E-06,0.040
-5.850E-06,0.000
-5.840E-06,0.040
-5.830E-06,0.060
-5.820E-06,0.040
-5.810E-06,0.020
-5.800E-06,0.020
-5.790E-06,0.040
-5.780E-06,0.040
-5.770E-06,0.020
-5.760E-06,0.020
-5.750E-06,0.040
-5.740E-06,0.040
-5.730E-06,0.020
-5.720E-06,0.040
-5.710E-06,0.040
-5.700E-06,0.060
-5.690E-06,0.060
-5.680E-06,0.040
-5.670E-06,0.020
-5.660E-06,0.060
-5.650E-06,0.060
-5.640E-06,0.020
-5.630E-06,0.020
-5.620E-06,0.020
-5.610E-06,0.020
-5.600E-06,0.040
-5.590E-06,0.040
-5.580E-06,0.040
-5.570E-06,0.040
-5.560E-06,0.040
-5.550E-06,0.060
-5.540E-06,0.040
-5.530E-06,0.060
-5.520E-06,0.040
-5.510E-06,0.000
-5.500E-06,0.020
-5.490E-06,0.040
-5.480E-06,0.000
-5.470E-06,0.020
-5.460E-06,0.020
-5.450E-06,0.060
-5.440E-06,0.040
-5.430E-06,0.040
-5.420E-06,0.060
-5.410E-06,0.040
-5.400E-06,0.080
-5.390E-06,0.040
-5.380E-06,0.060
-5.370E-06,0.060
-5.360E-06,0.000
-5.350E-06,0.020
-5.340E-06,0.040
-5.330E-06,0.020
-5.320E-06,0.040
-5.310E-06,0.020
-5.300E-06,0.060
-5.290E-06,0.040
-5.280E-06,0.060
-5.270E-06,0.080
-5.260E-06,0.020
-5.250E-06,0.000
-5.240E-06,0.060
-5.230E-06,0.040
-5.220E-06,0.020
-5.210E-06,0.020
-5.200E-06,0.040
-5.190E-06,0.000
-5.180E-06,0.060
-5.170E-06,0.020
-5.160E-06,0.020
-5.150E-06,0.040
-5.140E-06,0.020
-5.130E-06,0.040
-5.120E-06,0.060
-5.110E-06,0.020
-5.100E-06,0.040
-5.090E-06,0.060
-5.080E-06,0.040
-5.070E-06,0.060
-5.060E-06,0.040
-5.050E-06,0.020
-5.040E-06,0.020
-5.030E-06,0.020
-5.020E-06,0.060
-5.010E-06,0.060
-5.000E-06,0.060
-4.990E-06,0.040
-4.980E-06,0.020
-4.970E-06,0.020
-4.960E-06,0.040
-4.950E-06,0.060
-4.940E-06,0.020
-4.930E-06,0.020
-4.920E-06,0.060
-4.910E-06,0.040
-4.900E-06,0.020
-4.890E-06,0.020
-4.880E-06,0.040
-4.870E-06,0.020
-4.860E-06,0.040
-4.850E-06,0.000
-4.840E-06,0.040
-4.830E-06,0.060
-4.820E-06,0.020
-4.810E-06,-0.020
-4.800E-06,0.040
-4.790E-06,0.020
-4.780E-06,0.020
-4.770E-06,0.000
-4.760E-06,0.060
-4.750E-06,0.020
-4.740E-06,0.040
-4.730E-06,0.060
-4.720E-06,0.020
-4.710E-06,0.020
-4.700E-06,0.040
-4.690E-06,0.000
-4.680E-06,0.040
-4.670E-06,0.020
-4.660E-06,0.040
-4.650E-06,0.060
-4.640E-06,0.020
-4.630E-06,0.040
-4.620E-06,0.060
-4.610E-06,0.040
-4.600E-06,0.060
-4.590E-06,0.020
-4.580E-06,0.020
-4.570E-06,0.040
-4.560E-06,0.020
-4.550E-06,0.040
-4.540E-06,0.020
-4.530E-06,0.040
-4.520E-06,0.020
-4.510E-06,0.080
-4.500E-06,0.040
-4.490E-06,0.020
-4.480E-06,0.040
-4.470E-06,0.020
-4.460E-06,0.020
-4.450E-06,0.020
-4.440E-06,0.020
-4.430E-06,0.040
-4.420E-06,0.020
-4.410E-06,0.040
-4.400E-06,0.040
-4.390E-06,0.020
-4.380E-06,0.060
-4.370E-06,0.040
-4.360E-06,0.020
-4.350E-06,0.020
-4.340E-06,0.040
-4.330E-06,0.020
-4.320E-06,0.020
-4.310E-06,0.060
-4.300E-06,0.000
-4.290E-06,0.020
-4.280E-06,0.060
-4.270E-06,0.000
-4.260E-06,0.040
-4.250E-06,0.020
-4.240E-06,0.000
-4.230E-06,0.020
-4.220E-06,0.040
-4.210E-06,0.040
-4.200E-06,0.040
-4.190E-06,0.040
-4.180E-06,0.040
-4.170E-06,0.060
-4.160E-06,0.040
-4.150E-06,0.020
-4.140E-06,0.040
-4.130E-06,0.060
-4.120E-06,0.040
-4.110E-06,0.060
-4.100E-06,0.060
-4.090E-06,0.040
-4.080E-06,0.060
-4.070E-06,0.020
-4.060E-06,0.020
-4.050E-06,0.040
-4.040E-06,0.080
-4.030E-06,0.020
-4.020E-06,0.060
-4.010E-06,0.040
-4.000E-06,0.000
-3.990E-06,0.040
-3.980E-06,0.040
-3.970E-06,0.020
-3.960E-06,0.000
-3.950E-06,0.040
-3.940E-06,0.020
-3.930E-06,0.040
-3.920E-06,0.060
-3.910E-06,-0.020
-3.900E-06,0.040
-3.890E-06,0.040
-3.880E-06,0.060
-3.870E-06,0.060
-3.860E-06,0.040
-3.850E-06,0.060
-3.840E-06,0.040
-3.830E-06,0.020
-3.820E-06,0.020
-3.810E-06,0.020
-3.800E-06,0.020
-3.790E-06,0.040
-3.780E-06,0.040
-3.770E-06,0.060
-3.760E-06,0.040
-3.750E-06,0.000
-3.740E-06,0.020
-3.730E-06,0.000
-3.720E-06,0.040
-3.710E-06,0.040
-3.700E-06,0.020
-3.690E-06,0.040
-3.680E-06,0.020
-3.670E-06,0.040
-3.660E-06,0.020
-3.650E-06,0.020
-3.640E-06,0.020
-3.630E-06,-0.020
-3.620E-06,0.040
-3.610E-06,0.040
-3.600E-06,0.060
-3.590E-06,0.060
-3.580E-06,0.040
-3.570E-06,0.020
-3.560E-06,0.040
-3.550E-06,0.040
-3.540E-06,0.020
-3.530E-06,0.040
-3.520E-06,-0.020
-3.510E-06,0.020
-3.500E-06,0.020
-3.490E-06,0.080
-3.480E-06,0.040
-3.470E-06,0.060
-3.460E-06,0.040
-3.450E-06,0.060
-3.440E-06,0.060
-3.430E-06,0.040
-3.420E-06,0.060
-3.410E-06,0.080
-3.400E-06,0.080
-3.390E-06,0.020
-3.380E-06,0.040
-3.370E-06,0.020
-3.360E-06,0.020
-3.350E-06,0.040
-3.340E-06,0.040
-3.330E-06,0.000
-3.320E-06,0.040
-3.310E-06,0.020
-3.300E-06,-0.180
-3.290E-06,-0.760
-3.280E-06,-1.720
-3.270E-06,-2.680
-3.260E-06,-2.660
-3.250E-06,-2.820
-3.240E-06,-1.620
-3.230E-06,-1.020
-3.220E-06,0.500
-3.210E-06,1.340
-3.200E-06,1.720
-3.190E-06,2.060
-3.180E-06,2.080
-3.170E-06,2.080
-3.160E-06,2.080
-3.150E-06,2.100
-3.140E-06,2.080
-3.130E-06,1.020
-3.120E-06,0.440
-3.110E-06,-0.100
-3.100E-06,-0.660
-3.090E-06,-0.720
-3.080E-06,-0.580
-3.070E-06,-0.340
-3.060E-06,-0.160
-3.050E-06,-0.080
-3.040E-06,-0.360
-3.030E-06,-0.640
-3.020E-06,-0.900
-3.010E-06,-1.360
-3.000E-06,-1.600
-2.990E-06,-1.780
-2.980E-06,-1.800
-2.970E-06,-1.640
-2.960E-06,-1.340
-2.950E-06,-0.740
-2.940E-06,-0.300
-2.930E-06,0.340
-2.920E-06,0.860
-2.910E-06,1.320
-2.900E-06,1.540
-2.890E-06,1.600
-2.880E-06,1.460
-2.870E-06,1.160
-2.860E-06,0.780
-2.850E-06,0.320
-2.840E-06,-0.060
-2.830E-06,-0.400
-2.820E-06,-0.680
-2.810E-06,-0.820
-2.800E-06,-0.840
-2.790E-06,-0.800
-2.780E-06,-0.740
-2.770E-06,-0.620
-2.760E-06,-0.440
-2.750E-06,-0.260
-2.740E-06,-0.100
-2.730E-06,0.040
-2.720E-06,0.280
-2.710E-06,0.440
-2.700E-06,0.640
-2.690E-06,0.780
-2.680E-06,0.880
-2.670E-06,0.940
-2.660E-06,0.880
-2.650E-06,0.860
-2.640E-06,0.740
-2.630E-06,0.580
-2.620E-06,0.440
-2.610E-06,0.340
-2.600E-06,0.160
-2.590E-06,0.000
-2.580E-06,-0.080
-2.570E-06,-0.200
-2.560E-06,-0.260
-2.550E-06,-0.420
-2.540E-06,-0.460
-2.530E-06,-0.580
-2.520E-06,-0.580
-2.510E-06,-0.620
-2.500E-06,-0.600
-2.490E-06,-0.500
-2.480E-06,-0.420
-2.470E-06,-0.320
-2.460E-06,-0.120
-2.450E-06,0.100
-2.440E-06,0.260
-2.430E-06,0.420
-2.420E-06,0.540
-2.410E-06,0.560
-2.400E-06,0.580
-2.390E-06,0.440
-2.380E-06,0.300
-2.370E-06,0.160
-2.360E-06,-0.060
-2.350E-06,-0.240
-2.340E-06,-0.400
-2.330E-06,-0.500
-2.320E-06,-0.600
-2.310E-06,-0.640
-2.300E-06,-0.640
-2.290E-06,-0.580
-2.280E-06,-0.520
-2.270E-06,-0.380
-2.260E-06,-0.280
-2.250E-06,-0.180
-2.240E-06,-0.120
-2.230E-06,-0.080
-2.220E-06,-0.040
-2.210E-06,-0.040
-2.200E-06,-0.040
-2.190E-06,0.000
-2.180E-06,-0.020
-2.170E-06,0.200
-2.160E-06,-0.040
-2.150E-06,0.220
-2.140E-06,0.020
-2.130E-06,0.420
-2.120E-06,0.000
-2.110E-06,0.320
-2.100E-06,0.160
-2.090E-06,0.120
-2.080E-06,0.140
-2.070E-06,-0.060
-2.060E-06,-0.060
-2.050E-06,-0.100
-2.040E-06,-0.140
-2.030E-06,-0.160
-2.020E-06,-0.200
-2.010E-06,-0.180
-2.000E-06,-0.120
-1.990E-06,-0.180
-1.980E-06,-0.080
-1.970E-06,-0.080
-1.960E-06,0.160
-1.950E-06,0.080
-1.940E-06,0.100
-1.930E-06,0.060
-1.920E-06,-0.020
-1.910E-06,-0.080
-1.900E-06,-0.180
-1.890E-06,-0.120
-1.880E-06,-0.140
-1.870E-06,-0.120
-1.860E-06,-0.080
-1.850E-06,-0.120
-1.840E-06,-0.100
-1.830E-06,-0.120
-1.820E-06,-0.120
-1.810E-06,-0.200
-1.800E-06,-0.240
-1.790E-06,-0.240
-1.780E-06,-0.240
-1.770E-06,-0.260
-1.760E-06,-0.260
-1.750E-06,-0.200
-1.740E-06,-0.220
-1.730E-06,-0.260
-1.720E-06,-0.220
-1.710E-06,-0.160
-1.700E-06,-0.160
-1.690E-06,-0.160
-1.680E-06,-0.180
-1.670E-06,-0.180
-1.660E-06,-0.180
-1.650E-06,-0.180
-1.640E-06,-0.160
-1.630E-06,-0.140
-1.620E-06,-0.160
-1.610E-06,-0.140
-1.600E-06,-0.140
-1.590E-06,-0.120
-1.580E-06,-0.060
-1.570E-06,-0.020
-1.560E-06,0.040
-1.550E-06,0.120
-1.540E-06,0.180
-1.530E-06,0.240
-1.520E-06,0.280
-1.510E-06,0.200
-1.500E-06,0.180
-1.490E-06,0.140
-1.480E-06,-0.040
-1.470E-06,-0.080
-1.460E-06,-0.180
-1.450E-06,-0.260
-1.440E-06,-0.340
-1.430E-06,-0.420
-1.420E-06,-0.540
-1.410E-06,-0.440
-1.400E-06,-0.680
-1.390E-06,-0.500
-1.380E-06,-0.800
-1.370E-06,-0.280
-1.360E-06,-0.400
-1.350E-06,-0.280
-1.340E-06,-0.180
-1.330E-06,-0.460
-1.320E-06,-0.240
-1.310E-06,-0.240
-1.300E-06,-0.100
-1.290E-06,-0.260
-1.280E-06,0.120
-1.270E-06,-0.380
-1.260E-06,-0.140
-1.250E-06,-0.440
-1.240E-06,-0.420
-1.230E-06,-0.600
-1.220E-06,-0.720
-1.210E-06,-0.800
-1.200E-06,-0.940
-1.190E-06,-1.140
-1.180E-06,-1.360
-1.170E-06,-1.520
-1.160E-06,-0.820
-1.150E-06,-1.360
-1.140E-06,-0.740
-1.130E-06,-1.060
-1.120E-06,-0.940
-1.110E-06,-0.540
-1.100E-06,-1.020
-1.090E-06,-0.960
-1.080E-06,-0.960
-1.070E-06,-1.100
-1.060E-06,-1.260
-1.050E-06,-1.260
-1.040E-06,-1.020
-1.030E-06,-1.080
-1.020E-06,-1.020
-1.010E-06,-0.820
-1.000E-06,-0.900
-9.900E-07,-0.700
-9.800E-07,-0.900
-9.700E-07,-0.840
-9.600E-07,-0.880
-9.500E-07,-0.980
-9.400E-07,-0.800
-9.300E-07,-0.400
-9.200E-07,-0.020
-9.100E-07,0.600
-9.000E-07,1.020
-8.900E-07,1.200
-8.800E-07,1.000
-8.700E-07,0.560
-8.600E-07,0.080
-8.500E-07,-0.620
-8.400E-07,-1.020
-8.300E-07,-1.420
-8.200E-07,-1.520
-8.100E-07,-1.600
-8.000E-07,-1.500
-7.900E-07,-1.340
-7.800E-07,-1.100
-7.700E-07,-0.900
-7.600E-07,-0.680
-7.500E-07,-0.480
-7.400E-07,-0.460
-7.300E-07,-0.120
-7.200E-07,-0.220
-7.100E-07,-0.260
-7.000E-07,-0.440
-6.900E-07,-0.620
-6.800E-07,-0.920
-6.700E-07,-1.140
-6.600E-07,-0.820
-6.500E-07,-0.940
-6.400E-07,-0.560
-6.300E-07,-0.740
-6.200E-07,-0.520
-6.100E-07,-0.600
-6.000E-07,-0.500
-5.900E-07,-0.620
-5.800E-07,-0.600
-5.700E-07,-0.520
-5.600E-07,-0.740
-5.500E-07,-0.700
-5.400E-07,-1.060
-5.300E-07,-1.120
-5.200E-07,-1.400
-5.100E-07,-1.680
-5.000E-07,-1.720
-4.900E-07,-2.080
-4.800E-07,-1.720
-4.700E-07,-1.680
-4.600E-07,-1.460
-4.500E-07,-1.520
-4.400E-07,-1.460
-4.300E-07,-1.560
-4.200E-07,-1.240
-4.100E-07,-1.720
-4.000E-07,-1.060
-3.900E-07,-1.500
-3.800E-07,-0.900
-3.700E-07,-1.460
-3.600E-07,-1.220
-3.500E-07,-1.360
-3.400E-07,-1.300
-3.300E-07,-1.020
-3.200E-07,-0.840
-3.100E-07,-0.500
-3.000E-07,-0.300
-2.900E-07,-0.180
-2.800E-07,-0.040
-2.700E-07,0.020
-2.600E-07,0.160
-2.500E-07,0.200
-2.400E-07,0.180
-2.300E-07,0.080
-2.200E-07,0.080
-2.100E-07,-0.020
-2.000E-07,-0.080
-1.900E-07,-0.060
-1.800E-07,-0.120
-1.700E-07,-0.180
-1.600E-07,-0.040
-1.500E-07,0.060
-1.400E-07,0.520
-1.300E-07,0.800
-1.200E-07,0.780
-1.100E-07,0.300
-1.000E-07,-0.160
-9.000E-08,-1.220
-8.000E-08,-1.620
-7.000E-08,-2.000
-6.000E-08,-2.220
-5.000E-08,-2.100
-4.000E-08,-2.420
-3.000E-08,-2.220
-2.000E-08,-2.420
-1.000E-08,-2.480
0.000E+00,-2.540
1.000E-08,-2.320
2.000E-08,-1.960
3.000E-08,-1.520
4.000E-08,-1.040
5.000E-08,-0.560
6.000E-08,-0.360
7.000E-08,-0.220
8.000E-08,-0.220
9.000E-08,-0.080
1.000E-07,0.040
1.100E-07,0.180
1.200E-07,0.320
1.300E-07,0.420
1.400E-07,0.440
1.500E-07,0.540
1.600E-07,0.640
1.700E-07,0.680
1.800E-07,0.760
1.900E-07,0.840
2.000E-07,0.840
2.100E-07,0.740
2.200E-07,0.620
2.300E-07,0.460
2.400E-07,0.300
2.500E-07,0.120
2.600E-07,-0.040
2.700E-07,-0.160
2.800E-07,-0.140
2.900E-07,-0.120
3.000E-07,-0.060
3.100E-07,-0.020
3.200E-07,0.000
3.300E-07,0.020
3.400E-07,-0.040
3.500E-07,-0.080
3.600E-07,-0.160
3.700E-07,-0.280
3.800E-07,-0.300
3.900E-07,-0.400
4.000E-07,-0.580
4.100E-07,-1.340
4.200E-07,-1.160
4.300E-07,-1.760
4.400E-07,-1.520
4.500E-07,-1.780
4.600E-07,-1.820
4.700E-07,-1.720
4.800E-07,-1.760
4.900E-07,-1.640
5.000E-07,-1.520
5.100E-07,-1.460
5.200E-07,-1.280
5.300E-07,-1.180
5.400E-07,-1.160
5.500E-07,-1.000
5.600E-07,-1.040
5.700E-07,-0.860
5.800E-07,-0.860
5.900E-07,-0.760
6.000E-07,-0.660
6.100E-07,-0.660
6.200E-07,-0.500
6.300E-07,-0.440
6.400E-07,-0.480
6.500E-07,-0.400
6.600E-07,-0.440
6.700E-07,-0.460
6.800E-07,-0.500
6.900E-07,-0.520
7.000E-07,-0.540
7.100E-07,-0.580
7.200E-07,-0.580
7.300E-07,-0.560
7.400E-07,-0.500
7.500E-07,-0.440
7.600E-07,-0.340
7.700E-07,-0.240
7.800E-07,0.100
7.900E-07,0.260
8.000E-07,0.340
8.100E-07,0.380
8.200E-07,0.260
8.300E-07,0.580
8.400E-07,0.660
8.500E-07,0.420
8.600E-07,0.660
8.700E-07,0.740
8.800E-07,0.400
8.900E-07,0.260
9.000E-07,0.540
9.100E-07,0.220
9.200E-07,0.320
9.300E-07,0.080
9.400E-07,0.020
9.500E-07,-0.320
9.600E-07,-0.360
9.700E-07,-0.560
9.800E-07,-0.500
9.900E-07,-0.460
1.000E-06,-0.400
1.010E-06,-0.260
1.020E-06,-0.180
1.030E-06,0.060
1.040E-06,0.180
1.050E-06,0.220
1.060E-06,0.200
1.070E-06,0.320
1.080E-06,0.320
1.090E-06,0.220
1.100E-06,0.180
1.110E-06,0.160
1.120E-06,0.120
1.130E-06,0.140
1.140E-06,0.140
1.150E-06,0.120
1.160E-06,0.120
1.170E-06,0.100
1.180E-06,0.060
1.190E-06,0.100
1.200E-06,0.080
1.210E-06,0.080
1.220E-06,0.080
1.230E-06,0.080
1.240E-06,0.100
1.250E-06,0.100
1.260E-06,0.100
1.270E-06,0.120
1.280E-06,0.200
1.290E-06,0.240
1.300E-06,0.320
1.310E-06,0.440
1.320E-06,0.540
1.330E-06,0.600
1.340E-06,0.640
1.350E-06,0.660
1.360E-06,0.700
1.370E-06,0.700
1.380E-06,0.640
1.390E-06,0.600
1.400E-06,0.520
1.410E-06,0.480
1.420E-06,0.420
1.430E-06,0.340
1.440E-06,0.320
1.450E-06,0.320
1.460E-06,0.300
1.470E-06,0.300
1.480E-06,0.300
1.490E-06,0.300
1.500E-06,0.300
1.510E-06,0.320
1.520E-06,0.300
1.530E-06,0.280
1.540E-06,0.260
1.550E-06,0.240
1.560E-06,0.260
1.570E-06,0.240
1.580E-06,0.200
1.590E-06,0.200
1.600E-06,0.180
1.610E-06,0.200
1.620E-06,0.180
1.630E-06,0.200
1.640E-06,0.220
1.650E-06,0.200
1.660E-06,0.200
1.670E-06,0.180
1.680E-06,0.180
1.690E-06,0.160
1.700E-06,0.160
1.710E-06,0.100
1.720E-06,0.100
1.730E-06,0.080
1.740E-06,0.080
1.750E-06,0.100
1.760E-06,0.100
1.770E-06,0.120
1.780E-06,0.120
1.790E-06,0.120
1.800E-06,0.140
1.810E-06,0.180
1.820E-06,0.180
1.830E-06,0.160
1.840E-06,0.180
1.850E-06,0.220
1.860E-06,0.220
1.870E-06,0.220
1.880E-06,0.240
1.890E-06,0.260
1.900E-06,0.260
1.910E-06,0.280
1.920E-06,0.280
1.930E-06,0.280
1.940E-06,0.260
1.950E-06,0.240
1.960E-06,0.220
1.970E-06,0.220
1.980E-06,0.180
1.990E-06,0.160
2.000E-06,0.220
2.010E-06,0.220
2.020E-06,0.260
2.030E-06,0.300
2.040E-06,0.380
2.050E-06,0.460
2.060E-06,0.520
2.070E-06,0.600
2.080E-06,0.680
2.090E-06,0.720
2.100E-06,0.760
2.110E-06,0.840
2.120E-06,0.840
2.130E-06,0.880
2.140E-06,0.940
2.150E-06,0.940
2.160E-06,0.960
2.170E-06,0.920
2.180E-06,0.920
2.190E-06,0.880
2.200E-06,0.840
2.210E-06,0.800
2.220E-06,0.740
2.230E-06,0.720
2.240E-06,0.640
2.250E-06,0.600
2.260E-06,0.560
2.270E-06,0.500
2.280E-06,0.480
2.290E-06,0.440
2.300E-06,0.420
2.310E-06,0.360
2.320E-06,0.300
2.330E-06,0.260
2.340E-06,0.220
2.350E-06,0.140
2.360E-06,0.100
2.370E-06,0.040
2.380E-06,0.020
2.390E-06,-0.020
2.400E-06,-0.020
2.410E-06,-0.020
2.420E-06,-0.020
2.430E-06,0.000
2.440E-06,0.040
2.450E-06,0.040
2.460E-06,0.100
2.470E-06,0.120
2.480E-06,0.160
2.490E-06,0.200
2.500E-06,0.260
2.510E-06,0.260
2.520E-06,0.320
2.530E-06,0.380
2.540E-06,0.440
2.550E-06,0.480
2.560E-06,0.520
2.570E-06,0.600
2.580E-06,0.680
2.590E-06,0.680
2.600E-06,0.700
2.610E-06,0.720
2.620E-06,0.720
2.630E-06,0.720
2.640E-06,0.680
2.650E-06,0.660
2.660E-06,0.620
2.670E-06,0.580
2.680E-06,0.540
2.690E-06,0.560
2.700E-06,0.520
2.710E-06,0.520
2.720E-06,0.520
2.730E-06,0.500
2.740E-06,0.500
2.750E-06,0.480
2.760E-06,0.480
2.770E-06,0.500
2.780E-06,0.480
2.790E-06,0.440
2.800E-06,0.440
2.810E-06,0.440
2.820E-06,0.440
2.830E-06,0.400
2.840E-06,0.400
2.850E-06,0.400
2.860E-06,0.380
2.870E-06,0.420
2.880E-06,0.420
2.890E-06,0.380
2.900E-06,0.420
2.910E-06,0.420
2.920E-06,0.440
2.930E-06,0.460
2.940E-06,0.480
2.950E-06,0.500
2.960E-06,0.500
2.970E-06,0.540
2.980E-06,0.580
2.990E-06,0.600
3.000E-06,0.620
3.010E-06,0.640
3.020E-06,0.640
3.030E-06,0.660
3.040E-06,0.660
3.050E-06,0.660
3.060E-06,0.700
3.070E-06,0.720
3.080E-06,0.780
3.090E-06,0.760
3.100E-06,0.800
3.110E-06,0.820
3.120E-06,0.840
3.130E-06,0.840
3.140E-06,0.860
3.150E-06,0.860
3.160E-06,0.840
3.170E-06,0.860
3.180E-06,0.840
3.190E-06,0.840
3.200E-06,0.820
3.210E-06,0.840
3.220E-06,0.840
3.230E-06,0.820
3.240E-06,0.820
3.250E-06,0.860
3.260E-06,0.840
3.270E-06,0.800
3.280E-06,0.780
3.290E-06,0.760
3.300E-06,0.760
3.310E-06,0.720
3.320E-06,0.680
3.330E-06,0.640
3.340E-06,0.600
3.350E-06,0.560
3.360E-06,0.560
3.370E-06,0.560
