mediciones/8-28/-2/WaveData65614.csv

#timebase=2000000(ps)
,#voltbase=500000(mv/100)
#size=4000
-8.350E-06,0.020
-8.340E-06,0.000
-8.330E-06,0.020
-8.320E-06,0.060
-8.310E-06,0.020
-8.300E-06,0.040
-8.290E-06,0.060
-8.280E-06,0.020
-8.270E-06,0.000
-8.260E-06,0.020
-8.250E-06,0.040
-8.240E-06,0.060
-8.230E-06,0.040
-8.220E-06,0.000
-8.210E-06,0.040
-8.200E-06,0.060
-8.190E-06,0.020
-8.180E-06,0.020
-8.170E-06,0.020
-8.160E-06,0.040
-8.150E-06,0.060
-8.140E-06,0.040
-8.130E-06,0.000
-8.120E-06,0.040
-8.110E-06,0.040
-8.100E-06,0.060
-8.090E-06,0.080
-8.080E-06,0.060
-8.070E-06,0.060
-8.060E-06,-0.020
-8.050E-06,0.040
-8.040E-06,0.060
-8.030E-06,0.040
-8.020E-06,0.020
-8.010E-06,0.040
-8.000E-06,0.040
-7.990E-06,0.020
-7.980E-06,0.080
-7.970E-06,0.040
-7.960E-06,0.040
-7.950E-06,0.020
-7.940E-06,0.040
-7.930E-06,0.060
-7.920E-06,0.060
-7.910E-06,0.060
-7.900E-06,0.060
-7.890E-06,0.060
-7.880E-06,0.020
-7.870E-06,0.040
-7.860E-06,0.020
-7.850E-06,0.060
-7.840E-06,0.020
-7.830E-06,0.020
-7.820E-06,0.020
-7.810E-06,0.060
-7.800E-06,0.060
-7.790E-06,0.020
-7.780E-06,0.060
-7.770E-06,0.060
-7.760E-06,0.040
-7.750E-06,0.020
-7.740E-06,0.020
-7.730E-06,0.060
-7.720E-06,0.080
-7.710E-06,0.020
-7.700E-06,0.040
-7.690E-06,0.000
-7.680E-06,0.040
-7.670E-06,0.060
-7.660E-06,0.040
-7.650E-06,0.060
-7.640E-06,0.040
-7.630E-06,0.000
-7.620E-06,0.040
-7.610E-06,0.040
-7.600E-06,0.000
-7.590E-06,0.040
-7.580E-06,0.020
-7.570E-06,0.040
-7.560E-06,0.040
-7.550E-06,0.020
-7.540E-06,0.020
-7.530E-06,0.040
-7.520E-06,0.000
-7.510E-06,0.020
-7.500E-06,0.040
-7.490E-06,0.020
-7.480E-06,0.060
-7.470E-06,0.040
-7.460E-06,0.060
-7.450E-06,0.060
-7.440E-06,0.060
-7.430E-06,0.040
-7.420E-06,0.060
-7.410E-06,0.000
-7.400E-06,0.040
-7.390E-06,0.060
-7.380E-06,0.020
-7.370E-06,0.040
-7.360E-06,0.040
-7.350E-06,0.040
-7.340E-06,0.080
-7.330E-06,0.020
-7.320E-06,0.020
-7.310E-06,0.040
-7.300E-06,0.020
-7.290E-06,0.040
-7.280E-06,0.080
-7.270E-06,0.040
-7.260E-06,0.080
-7.250E-06,0.060
-7.240E-06,0.040
-7.230E-06,0.080
-7.220E-06,0.080
-7.210E-06,-0.020
-7.200E-06,0.040
-7.190E-06,0.060
-7.180E-06,0.040
-7.170E-06,0.020
-7.160E-06,0.020
-7.150E-06,0.040
-7.140E-06,0.020
-7.130E-06,0.000
-7.120E-06,0.020
-7.110E-06,0.060
-7.100E-06,0.060
-7.090E-06,0.060
-7.080E-06,0.060
-7.070E-06,0.040
-7.060E-06,0.040
-7.050E-06,0.060
-7.040E-06,0.040
-7.030E-06,0.080
-7.020E-06,0.060
-7.010E-06,0.060
-7.000E-06,0.080
-6.990E-06,0.020
-6.980E-06,0.040
-6.970E-06,0.080
-6.960E-06,0.020
-6.950E-06,0.040
-6.940E-06,0.060
-6.930E-06,0.020
-6.920E-06,0.020
-6.910E-06,0.040
-6.900E-06,0.080
-6.890E-06,0.020
-6.880E-06,0.000
-6.870E-06,0.040
-6.860E-06,0.040
-6.850E-06,0.060
-6.840E-06,0.020
-6.830E-06,0.040
-6.820E-06,0.040
-6.810E-06,0.020
-6.800E-06,0.040
-6.790E-06,0.040
-6.780E-06,0.060
-6.770E-06,0.020
-6.760E-06,0.040
-6.750E-06,0.060
-6.740E-06,0.020
-6.730E-06,0.060
-6.720E-06,0.080
-6.710E-06,0.040
-6.700E-06,0.020
-6.690E-06,0.020
-6.680E-06,0.040
-6.670E-06,0.040
-6.660E-06,0.020
-6.650E-06,0.060
-6.640E-06,0.060
-6.630E-06,-0.020
-6.620E-06,0.040
-6.610E-06,0.040
-6.600E-06,0.060
-6.590E-06,0.020
-6.580E-06,0.040
-6.570E-06,0.020
-6.560E-06,0.040
-6.550E-06,0.040
-6.540E-06,0.020
-6.530E-06,0.020
-6.520E-06,0.040
-6.510E-06,0.040
-6.500E-06,0.060
-6.490E-06,0.060
-6.480E-06,0.060
-6.470E-06,0.020
-6.460E-06,0.020
-6.450E-06,0.020
-6.440E-06,0.080
-6.430E-06,0.060
-6.420E-06,0.020
-6.410E-06,0.000
-6.400E-06,0.040
-6.390E-06,0.040
-6.380E-06,0.080
-6.370E-06,0.040
-6.360E-06,0.040
-6.350E-06,0.040
-6.340E-06,0.020
-6.330E-06,0.040
-6.320E-06,0.040
-6.310E-06,0.020
-6.300E-06,0.060
-6.290E-06,0.060
-6.280E-06,0.040
-6.270E-06,0.060
-6.260E-06,0.020
-6.250E-06,0.040
-6.240E-06,0.040
-6.230E-06,0.020
-6.220E-06,0.040
-6.210E-06,0.020
-6.200E-06,0.060
-6.190E-06,0.040
-6.180E-06,0.060
-6.170E-06,0.060
-6.160E-06,0.040
-6.150E-06,0.020
-6.140E-06,0.040
-6.130E-06,0.000
-6.120E-06,0.020
-6.110E-06,0.040
-6.100E-06,0.040
-6.090E-06,0.080
-6.080E-06,0.020
-6.070E-06,0.040
-6.060E-06,0.020
-6.050E-06,0.040
-6.040E-06,0.000
-6.030E-06,0.020
-6.020E-06,0.020
-6.010E-06,0.040
-6.000E-06,0.060
-5.990E-06,0.020
-5.980E-06,0.000
-5.970E-06,0.040
-5.960E-06,0.060
-5.950E-06,0.040
-5.940E-06,0.040
-5.930E-06,0.060
-5.920E-06,0.060
-5.910E-06,0.000
-5.900E-06,0.000
-5.890E-06,0.020
-5.880E-06,0.040
-5.870E-06,0.040
-5.860E-06,0.040
-5.850E-06,0.020
-5.840E-06,0.040
-5.830E-06,0.060
-5.820E-06,0.040
-5.810E-06,0.060
-5.800E-06,0.060
-5.790E-06,0.040
-5.780E-06,0.000
-5.770E-06,0.000
-5.760E-06,0.040
-5.750E-06,0.020
-5.740E-06,0.040
-5.730E-06,0.040
-5.720E-06,0.060
-5.710E-06,0.020
-5.700E-06,0.020
-5.690E-06,0.020
-5.680E-06,0.020
-5.670E-06,0.040
-5.660E-06,0.020
-5.650E-06,0.040
-5.640E-06,0.060
-5.630E-06,0.020
-5.620E-06,0.040
-5.610E-06,0.020
-5.600E-06,0.040
-5.590E-06,0.060
-5.580E-06,0.040
-5.570E-06,0.020
-5.560E-06,0.020
-5.550E-06,0.060
-5.540E-06,0.060
-5.530E-06,0.020
-5.520E-06,0.020
-5.510E-06,0.020
-5.500E-06,0.040
-5.490E-06,0.060
-5.480E-06,0.020
-5.470E-06,0.040
-5.460E-06,0.040
-5.450E-06,0.060
-5.440E-06,0.040
-5.430E-06,0.020
-5.420E-06,0.040
-5.410E-06,0.060
-5.400E-06,0.040
-5.390E-06,0.060
-5.380E-06,0.020
-5.370E-06,0.040
-5.360E-06,0.020
-5.350E-06,0.020
-5.340E-06,0.020
-5.330E-06,0.060
-5.320E-06,0.040
-5.310E-06,0.000
-5.300E-06,0.060
-5.290E-06,0.040
-5.280E-06,0.060
-5.270E-06,0.040
-5.260E-06,0.040
-5.250E-06,0.040
-5.240E-06,0.080
-5.230E-06,0.040
-5.220E-06,0.040
-5.210E-06,0.040
-5.200E-06,0.060
-5.190E-06,0.080
-5.180E-06,0.040
-5.170E-06,0.040
-5.160E-06,0.060
-5.150E-06,0.060
-5.140E-06,0.020
-5.130E-06,0.040
-5.120E-06,0.080
-5.110E-06,0.060
-5.100E-06,0.020
-5.090E-06,0.020
-5.080E-06,0.060
-5.070E-06,0.040
-5.060E-06,0.080
-5.050E-06,0.040
-5.040E-06,0.060
-5.030E-06,0.060
-5.020E-06,0.020
-5.010E-06,0.040
-5.000E-06,0.040
-4.990E-06,0.040
-4.980E-06,0.060
-4.970E-06,0.040
-4.960E-06,0.040
-4.950E-06,0.060
-4.940E-06,0.040
-4.930E-06,0.040
-4.920E-06,0.040
-4.910E-06,0.060
-4.900E-06,0.020
-4.890E-06,0.060
-4.880E-06,0.020
-4.870E-06,0.000
-4.860E-06,0.060
-4.850E-06,0.020
-4.840E-06,0.060
-4.830E-06,0.020
-4.820E-06,0.000
-4.810E-06,0.020
-4.800E-06,0.020
-4.790E-06,0.020
-4.780E-06,0.040
-4.770E-06,0.000
-4.760E-06,0.040
-4.750E-06,0.060
-4.740E-06,0.000
-4.730E-06,0.040
-4.720E-06,0.020
-4.710E-06,0.000
-4.700E-06,0.040
-4.690E-06,0.020
-4.680E-06,0.040
-4.670E-06,0.020
-4.660E-06,0.060
-4.650E-06,0.060
-4.640E-06,0.000
-4.630E-06,0.040
-4.620E-06,0.080
-4.610E-06,0.060
-4.600E-06,0.020
-4.590E-06,0.040
-4.580E-06,0.020
-4.570E-06,0.040
-4.560E-06,0.020
-4.550E-06,0.040
-4.540E-06,0.020
-4.530E-06,0.040
-4.520E-06,0.060
-4.510E-06,0.020
-4.500E-06,0.040
-4.490E-06,0.020
-4.480E-06,0.040
-4.470E-06,0.000
-4.460E-06,0.040
-4.450E-06,0.040
-4.440E-06,0.040
-4.430E-06,0.060
-4.420E-06,0.060
-4.410E-06,0.040
-4.400E-06,0.020
-4.390E-06,0.040
-4.380E-06,0.020
-4.370E-06,0.040
-4.360E-06,0.020
-4.350E-06,0.060
-4.340E-06,0.060
-4.330E-06,0.040
-4.320E-06,0.060
-4.310E-06,0.060
-4.300E-06,0.020
-4.290E-06,0.040
-4.280E-06,0.080
-4.270E-06,0.060
-4.260E-06,0.060
-4.250E-06,0.060
-4.240E-06,0.040
-4.230E-06,0.000
-4.220E-06,0.040
-4.210E-06,0.020
-4.200E-06,0.060
-4.190E-06,0.020
-4.180E-06,0.000
-4.170E-06,0.040
-4.160E-06,0.060
-4.150E-06,0.000
-4.140E-06,0.040
-4.130E-06,0.040
-4.120E-06,0.060
-4.110E-06,0.020
-4.100E-06,0.060
-4.090E-06,0.060
-4.080E-06,0.020
-4.070E-06,0.020
-4.060E-06,0.020
-4.050E-06,0.040
-4.040E-06,0.080
-4.030E-06,0.040
-4.020E-06,0.040
-4.010E-06,0.040
-4.000E-06,0.040
-3.990E-06,0.040
-3.980E-06,0.020
-3.970E-06,0.040
-3.960E-06,0.040
-3.950E-06,0.040
-3.940E-06,0.060
-3.930E-06,0.080
-3.920E-06,0.020
-3.910E-06,0.060
-3.900E-06,0.060
-3.890E-06,0.040
-3.880E-06,0.020
-3.870E-06,0.040
-3.860E-06,0.020
-3.850E-06,0.020
-3.840E-06,0.020
-3.830E-06,0.000
-3.820E-06,0.040
-3.810E-06,0.040
-3.800E-06,0.060
-3.790E-06,0.040
-3.780E-06,0.040
-3.770E-06,0.060
-3.760E-06,0.040
-3.750E-06,0.020
-3.740E-06,0.040
-3.730E-06,0.040
-3.720E-06,0.040
-3.710E-06,0.020
-3.700E-06,0.040
-3.690E-06,0.020
-3.680E-06,0.040
-3.670E-06,0.040
-3.660E-06,0.000
-3.650E-06,0.060
-3.640E-06,0.060
-3.630E-06,0.020
-3.620E-06,0.060
-3.610E-06,0.020
-3.600E-06,0.000
-3.590E-06,0.040
-3.580E-06,0.020
-3.570E-06,0.020
-3.560E-06,0.020
-3.550E-06,0.020
-3.540E-06,0.020
-3.530E-06,0.040
-3.520E-06,0.040
-3.510E-06,0.060
-3.500E-06,0.000
-3.490E-06,0.000
-3.480E-06,0.040
-3.470E-06,0.020
-3.460E-06,0.040
-3.450E-06,0.060
-3.440E-06,0.080
-3.430E-06,0.000
-3.420E-06,0.020
-3.410E-06,0.060
-3.400E-06,0.020
-3.390E-06,0.060
-3.380E-06,0.060
-3.370E-06,0.040
-3.360E-06,0.020
-3.350E-06,0.000
-3.340E-06,0.040
-3.330E-06,0.040
-3.320E-06,0.040
-3.310E-06,-0.140
-3.300E-06,-0.620
-3.290E-06,-1.480
-3.280E-06,-2.440
-3.270E-06,-3.140
-3.260E-06,-2.600
-3.250E-06,-2.200
-3.240E-06,-1.560
-3.230E-06,0.420
-3.220E-06,1.080
-3.210E-06,1.900
-3.200E-06,2.080
-3.190E-06,2.100
-3.180E-06,2.100
-3.170E-06,2.080
-3.160E-06,2.100
-3.150E-06,2.020
-3.140E-06,1.400
-3.130E-06,0.520
-3.120E-06,-0.180
-3.110E-06,-0.440
-3.100E-06,-0.820
-3.090E-06,-0.460
-3.080E-06,-0.440
-3.070E-06,-0.320
-3.060E-06,-0.180
-3.050E-06,-0.320
-3.040E-06,-0.580
-3.030E-06,-0.900
-3.020E-06,-1.240
-3.010E-06,-1.500
-3.000E-06,-1.700
-2.990E-06,-1.640
-2.980E-06,-1.620
-2.970E-06,-1.320
-2.960E-06,-0.900
-2.950E-06,-0.360
-2.940E-06,0.200
-2.930E-06,0.780
-2.920E-06,1.220
-2.910E-06,1.480
-2.900E-06,1.540
-2.890E-06,1.480
-2.880E-06,1.180
-2.870E-06,0.820
-2.860E-06,0.420
-2.850E-06,0.000
-2.840E-06,-0.340
-2.830E-06,-0.600
-2.820E-06,-0.800
-2.810E-06,-0.880
-2.800E-06,-0.860
-2.790E-06,-0.740
-2.780E-06,-0.620
-2.770E-06,-0.500
-2.760E-06,-0.340
-2.750E-06,-0.180
-2.740E-06,-0.020
-2.730E-06,0.200
-2.720E-06,0.400
-2.710E-06,0.600
-2.700E-06,0.760
-2.690E-06,0.920
-2.680E-06,0.980
-2.670E-06,1.000
-2.660E-06,0.920
-2.650E-06,0.840
-2.640E-06,0.680
-2.630E-06,0.520
-2.620E-06,0.360
-2.610E-06,0.160
-2.600E-06,-0.080
-2.590E-06,-0.200
-2.580E-06,-0.320
-2.570E-06,-0.380
-2.560E-06,-0.440
-2.550E-06,-0.500
-2.540E-06,-0.520
-2.530E-06,-0.600
-2.520E-06,-0.560
-2.510E-06,-0.560
-2.500E-06,-0.480
-2.490E-06,-0.360
-2.480E-06,-0.200
-2.470E-06,0.040
-2.460E-06,0.240
-2.450E-06,0.480
-2.440E-06,0.660
-2.430E-06,0.760
-2.420E-06,0.860
-2.410E-06,0.820
-2.400E-06,0.740
-2.390E-06,0.660
-2.380E-06,0.440
-2.370E-06,0.300
-2.360E-06,0.080
-2.350E-06,-0.120
-2.340E-06,-0.280
-2.330E-06,-0.380
-2.320E-06,-0.460
-2.310E-06,-0.500
-2.300E-06,-0.480
-2.290E-06,-0.420
-2.280E-06,-0.340
-2.270E-06,-0.280
-2.260E-06,-0.200
-2.250E-06,-0.140
-2.240E-06,-0.080
-2.230E-06,-0.040
-2.220E-06,-0.080
-2.210E-06,-0.040
-2.200E-06,0.000
-2.190E-06,0.020
-2.180E-06,0.040
-2.170E-06,0.080
-2.160E-06,0.100
-2.150E-06,0.120
-2.140E-06,0.140
-2.130E-06,0.140
-2.120E-06,0.140
-2.110E-06,0.100
-2.100E-06,0.100
-2.090E-06,0.020
-2.080E-06,-0.040
-2.070E-06,-0.100
-2.060E-06,-0.100
-2.050E-06,-0.120
-2.040E-06,-0.100
-2.030E-06,-0.060
-2.020E-06,-0.040
-2.010E-06,-0.040
-2.000E-06,0.000
-1.990E-06,0.080
-1.980E-06,0.080
-1.970E-06,0.100
-1.960E-06,0.080
-1.950E-06,0.080
-1.940E-06,0.000
-1.930E-06,-0.020
-1.920E-06,0.000
-1.910E-06,-0.040
-1.900E-06,-0.020
-1.890E-06,-0.040
-1.880E-06,-0.020
-1.870E-06,-0.080
-1.860E-06,-0.060
-1.850E-06,-0.080
-1.840E-06,-0.100
-1.830E-06,-0.080
-1.820E-06,-0.120
-1.810E-06,-0.140
-1.800E-06,-0.140
-1.790E-06,-0.180
-1.780E-06,-0.160
-1.770E-06,-0.200
-1.760E-06,-0.180
-1.750E-06,-0.160
-1.740E-06,-0.160
-1.730E-06,-0.120
-1.720E-06,-0.140
-1.710E-06,-0.120
-1.700E-06,-0.100
-1.690E-06,-0.140
-1.680E-06,-0.060
-1.670E-06,-0.100
-1.660E-06,-0.040
-1.650E-06,-0.060
-1.640E-06,-0.040
-1.630E-06,-0.060
-1.620E-06,0.000
-1.610E-06,0.080
-1.600E-06,0.080
-1.590E-06,0.140
-1.580E-06,0.120
-1.570E-06,0.200
-1.560E-06,0.180
-1.550E-06,0.100
-1.540E-06,0.020
-1.530E-06,0.000
-1.520E-06,-0.020
-1.510E-06,-0.080
-1.500E-06,-0.180
-1.490E-06,-0.140
-1.480E-06,-0.180
-1.470E-06,-0.180
-1.460E-06,-0.240
-1.450E-06,-0.260
-1.440E-06,-0.220
-1.430E-06,-0.200
-1.420E-06,-0.240
-1.410E-06,-0.200
-1.400E-06,-0.180
-1.390E-06,-0.120
-1.380E-06,-0.120
-1.370E-06,-0.120
-1.360E-06,-0.080
-1.350E-06,-0.020
-1.340E-06,0.000
-1.330E-06,0.060
-1.320E-06,0.080
-1.310E-06,0.080
-1.300E-06,0.140
-1.290E-06,0.100
-1.280E-06,0.040
-1.270E-06,0.120
-1.260E-06,0.040
-1.250E-06,0.020
-1.240E-06,0.000
-1.230E-06,-0.020
-1.220E-06,-0.080
-1.210E-06,-0.240
-1.200E-06,-0.180
-1.190E-06,-0.360
-1.180E-06,-0.300
-1.170E-06,-0.400
-1.160E-06,-0.420
-1.150E-06,-0.440
-1.140E-06,-0.440
-1.130E-06,-0.360
-1.120E-06,-0.340
-1.110E-06,-0.220
-1.100E-06,-0.260
-1.090E-06,-0.400
-1.080E-06,-0.580
-1.070E-06,-0.420
-1.060E-06,-0.580
-1.050E-06,-0.640
-1.040E-06,-0.780
-1.030E-06,-0.760
-1.020E-06,-0.680
-1.010E-06,-0.680
-1.000E-06,-0.740
-9.900E-07,-0.740
-9.800E-07,-0.680
-9.700E-07,-0.720
-9.600E-07,-0.420
-9.500E-07,-0.160
-9.400E-07,0.500
-9.300E-07,1.000
-9.200E-07,1.320
-9.100E-07,1.500
-9.000E-07,1.100
-8.900E-07,0.560
-8.800E-07,-0.100
-8.700E-07,-0.800
-8.600E-07,-1.340
-8.500E-07,-1.660
-8.400E-07,-1.880
-8.300E-07,-1.860
-8.200E-07,-1.780
-8.100E-07,-1.700
-8.000E-07,-1.420
-7.900E-07,-1.120
-7.800E-07,-0.800
-7.700E-07,-0.460
-7.600E-07,-0.200
-7.500E-07,0.080
-7.400E-07,0.300
-7.300E-07,0.340
-7.200E-07,0.460
-7.100E-07,0.520
-7.000E-07,0.660
-6.900E-07,0.860
-6.800E-07,1.040
-6.700E-07,1.220
-6.600E-07,1.280
-6.500E-07,1.240
-6.400E-07,1.100
-6.300E-07,0.940
-6.200E-07,0.620
-6.100E-07,0.340
-6.000E-07,-0.020
-5.900E-07,-0.360
-5.800E-07,-0.680
-5.700E-07,-1.020
-5.600E-07,-1.100
-5.500E-07,-1.220
-5.400E-07,-1.280
-5.300E-07,-1.080
-5.200E-07,-0.980
-5.100E-07,-0.840
-5.000E-07,-0.600
-4.900E-07,0.160
-4.800E-07,0.320
-4.700E-07,0.580
-4.600E-07,0.540
-4.500E-07,0.480
-4.400E-07,0.480
-4.300E-07,0.540
-4.200E-07,0.360
-4.100E-07,0.380
-4.000E-07,0.220
-3.900E-07,0.080
-3.800E-07,-0.100
-3.700E-07,-0.340
-3.600E-07,-0.400
-3.500E-07,-0.400
-3.400E-07,-0.360
-3.300E-07,-0.340
-3.200E-07,-0.300
-3.100E-07,-0.200
-3.000E-07,-0.240
-2.900E-07,-0.280
-2.800E-07,-0.480
-2.700E-07,-0.360
-2.600E-07,-0.220
-2.500E-07,-0.040
-2.400E-07,0.020
-2.300E-07,0.720
-2.200E-07,0.640
-2.100E-07,0.160
-2.000E-07,-0.080
-1.900E-07,-1.500
-1.800E-07,-1.880
-1.700E-07,-3.340
-1.600E-07,-3.340
-1.500E-07,-3.340
-1.400E-07,-3.080
-1.300E-07,-2.200
-1.200E-07,-2.180
-1.100E-07,-2.060
-1.000E-07,-2.220
-9.000E-08,-2.280
-8.000E-08,-2.220
-7.000E-08,-1.660
-6.000E-08,-0.880
-5.000E-08,-0.060
-4.000E-08,0.820
-3.000E-08,1.120
-2.000E-08,1.260
-1.000E-08,1.200
0.000E+00,1.100
1.000E-08,0.960
2.000E-08,0.680
3.000E-08,0.680
4.000E-08,0.400
5.000E-08,0.100
6.000E-08,-0.200
7.000E-08,-0.440
8.000E-08,-0.520
9.000E-08,-0.600
1.000E-07,-0.400
1.100E-07,-0.260
1.200E-07,-0.040
1.300E-07,0.180
1.400E-07,0.340
1.500E-07,0.540
1.600E-07,0.780
1.700E-07,0.940
1.800E-07,1.100
1.900E-07,1.240
2.000E-07,1.360
2.100E-07,1.400
2.200E-07,1.340
2.300E-07,1.240
2.400E-07,1.040
2.500E-07,0.700
2.600E-07,0.480
2.700E-07,0.260
2.800E-07,0.000
2.900E-07,-0.220
3.000E-07,-0.400
3.100E-07,-0.560
3.200E-07,-0.820
3.300E-07,-0.960
3.400E-07,-1.080
3.500E-07,-1.120
3.600E-07,-1.140
3.700E-07,-1.060
3.800E-07,-0.820
3.900E-07,-0.500
4.000E-07,-0.140
4.100E-07,0.220
4.200E-07,0.500
4.300E-07,0.660
4.400E-07,0.840
4.500E-07,0.920
4.600E-07,1.020
4.700E-07,1.020
4.800E-07,0.960
4.900E-07,0.840
5.000E-07,0.720
5.100E-07,0.520
5.200E-07,0.400
5.300E-07,0.300
5.400E-07,0.140
5.500E-07,0.080
5.600E-07,0.080
5.700E-07,0.120
5.800E-07,-0.160
5.900E-07,-0.300
6.000E-07,-0.540
6.100E-07,-0.860
6.200E-07,-0.920
6.300E-07,-1.000
6.400E-07,-0.920
6.500E-07,-0.660
6.600E-07,-0.340
6.700E-07,0.100
6.800E-07,0.500
6.900E-07,0.880
7.000E-07,1.240
7.100E-07,1.540
7.200E-07,1.700
7.300E-07,1.820
7.400E-07,1.760
7.500E-07,1.480
7.600E-07,1.260
7.700E-07,1.060
7.800E-07,0.940
7.900E-07,0.780
8.000E-07,0.620
8.100E-07,0.420
8.200E-07,0.240
8.300E-07,0.100
8.400E-07,0.060
8.500E-07,0.020
8.600E-07,0.120
8.700E-07,0.220
8.800E-07,0.300
8.900E-07,0.360
9.000E-07,0.400
9.100E-07,0.420
9.200E-07,0.440
9.300E-07,0.380
9.400E-07,0.400
9.500E-07,0.440
9.600E-07,0.540
9.700E-07,0.600
9.800E-07,0.660
9.900E-07,0.760
1.000E-06,0.800
1.010E-06,0.800
1.020E-06,0.740
1.030E-06,0.660
1.040E-06,0.620
1.050E-06,0.540
1.060E-06,0.460
1.070E-06,0.380
1.080E-06,0.320
1.090E-06,0.280
1.100E-06,0.360
1.110E-06,0.380
1.120E-06,0.420
1.130E-06,0.440
1.140E-06,0.500
1.150E-06,0.560
1.160E-06,0.600
1.170E-06,0.660
1.180E-06,0.700
1.190E-06,0.720
1.200E-06,0.740
1.210E-06,0.680
1.220E-06,0.660
1.230E-06,0.620
1.240E-06,0.540
1.250E-06,0.500
1.260E-06,0.440
1.270E-06,0.380
1.280E-06,0.320
1.290E-06,0.340
1.300E-06,0.360
1.310E-06,0.360
1.320E-06,0.400
1.330E-06,0.340
1.340E-06,0.340
1.350E-06,0.280
1.360E-06,0.300
1.370E-06,0.240
1.380E-06,0.280
1.390E-06,0.280
1.400E-06,0.320
1.410E-06,0.320
1.420E-06,0.320
1.430E-06,-0.100
1.440E-06,-1.340
1.450E-06,-1.880
1.460E-06,-2.640
1.470E-06,-2.740
1.480E-06,-2.720
1.490E-06,-2.540
1.500E-06,-2.280
1.510E-06,-2.160
1.520E-06,-2.220
1.530E-06,-2.200
1.540E-06,-2.160
1.550E-06,-2.020
1.560E-06,-1.860
1.570E-06,-1.620
1.580E-06,-1.320
1.590E-06,-1.020
1.600E-06,-0.740
1.610E-06,-0.520
1.620E-06,-0.400
1.630E-06,-0.340
1.640E-06,-0.280
1.650E-06,-0.260
1.660E-06,-0.260
1.670E-06,-0.340
1.680E-06,-0.340
1.690E-06,-0.420
1.700E-06,-0.440
1.710E-06,-0.460
1.720E-06,-0.500
1.730E-06,-0.560
1.740E-06,-0.520
1.750E-06,-0.480
1.760E-06,-0.340
1.770E-06,-0.340
1.780E-06,-0.340
1.790E-06,-0.400
1.800E-06,-0.420
1.810E-06,-0.440
1.820E-06,-0.500
1.830E-06,-0.540
1.840E-06,-0.560
1.850E-06,-0.580
1.860E-06,-0.580
1.870E-06,-0.640
1.880E-06,-0.660
1.890E-06,-0.640
1.900E-06,-0.580
1.910E-06,-0.580
1.920E-06,-0.540
1.930E-06,-0.500
1.940E-06,-0.500
1.950E-06,-0.420
1.960E-06,-0.380
1.970E-06,-0.340
1.980E-06,-0.300
1.990E-06,-0.240
2.000E-06,-0.180
2.010E-06,-0.140
2.020E-06,-0.040
2.030E-06,-0.020
2.040E-06,0.100
2.050E-06,0.120
2.060E-06,0.220
2.070E-06,0.280
2.080E-06,0.400
2.090E-06,0.500
2.100E-06,0.580
2.110E-06,0.640
2.120E-06,0.680
2.130E-06,0.700
2.140E-06,0.700
2.150E-06,0.680
2.160E-06,0.680
2.170E-06,0.620
2.180E-06,0.580
2.190E-06,0.540
2.200E-06,0.480
2.210E-06,0.460
2.220E-06,0.480
2.230E-06,0.440
2.240E-06,0.480
2.250E-06,0.440
2.260E-06,0.420
2.270E-06,0.440
2.280E-06,0.380
2.290E-06,0.340
2.300E-06,0.340
2.310E-06,0.360
2.320E-06,0.320
2.330E-06,0.260
2.340E-06,0.300
2.350E-06,0.300
2.360E-06,0.280
2.370E-06,0.260
2.380E-06,0.260
2.390E-06,0.220
2.400E-06,0.260
2.410E-06,0.280
2.420E-06,0.280
2.430E-06,0.280
2.440E-06,0.240
2.450E-06,0.180
2.460E-06,0.060
2.470E-06,0.000
2.480E-06,-0.100
2.490E-06,-0.160
2.500E-06,-0.220
2.510E-06,-0.240
2.520E-06,-0.280
2.530E-06,-0.280
2.540E-06,-0.280
2.550E-06,-0.260
2.560E-06,-0.260
2.570E-06,-0.180
2.580E-06,-0.100
2.590E-06,-0.020
2.600E-06,0.060
2.610E-06,0.120
2.620E-06,0.160
2.630E-06,0.180
2.640E-06,0.220
2.650E-06,0.260
2.660E-06,0.260
2.670E-06,0.280
2.680E-06,0.260
2.690E-06,0.260
2.700E-06,0.260
2.710E-06,0.260
2.720E-06,0.220
2.730E-06,0.260
2.740E-06,0.260
2.750E-06,0.280
2.760E-06,0.280
2.770E-06,0.320
2.780E-06,0.380
2.790E-06,0.420
2.800E-06,0.500
2.810E-06,0.520
2.820E-06,0.500
2.830E-06,0.500
2.840E-06,0.500
2.850E-06,0.460
2.860E-06,0.500
2.870E-06,0.420
2.880E-06,0.480
2.890E-06,0.500
2.900E-06,0.480
2.910E-06,0.500
2.920E-06,0.520
2.930E-06,0.540
2.940E-06,0.540
2.950E-06,0.580
2.960E-06,0.600
2.970E-06,0.680
2.980E-06,0.700
2.990E-06,0.660
3.000E-06,0.680
3.010E-06,0.680
3.020E-06,0.660
3.030E-06,0.640
3.040E-06,0.620
3.050E-06,0.560
3.060E-06,0.540
3.070E-06,0.480
3.080E-06,0.400
3.090E-06,0.400
3.100E-06,0.360
3.110E-06,0.340
3.120E-06,0.280
3.130E-06,0.220
3.140E-06,0.180
3.150E-06,0.120
3.160E-06,0.040
3.170E-06,0.000
3.180E-06,0.000
3.190E-06,0.000
3.200E-06,0.000
3.210E-06,0.040
3.220E-06,0.100
3.230E-06,0.140
3.240E-06,0.160
3.250E-06,0.240
3.260E-06,0.260
3.270E-06,0.320
3.280E-06,0.380
3.290E-06,0.400
3.300E-06,0.420
3.310E-06,0.440
3.320E-06,0.520
3.330E-06,0.580
3.340E-06,0.680
3.350E-06,0.720
3.360E-06,0.780
3.370E-06,0.840
3.380E-06,0.840
