mediciones/8-28/-2/WaveData65620.csv

#timebase=2000000(ps)
,#voltbase=500000(mv/100)
#size=4000
-8.350E-06,0.020
-8.340E-06,0.040
-8.330E-06,0.040
-8.320E-06,0.020
-8.310E-06,0.040
-8.300E-06,0.020
-8.290E-06,0.040
-8.280E-06,0.060
-8.270E-06,0.020
-8.260E-06,0.020
-8.250E-06,0.040
-8.240E-06,0.020
-8.230E-06,0.060
-8.220E-06,0.020
-8.210E-06,0.020
-8.200E-06,0.040
-8.190E-06,0.060
-8.180E-06,0.040
-8.170E-06,0.040
-8.160E-06,0.060
-8.150E-06,0.020
-8.140E-06,0.020
-8.130E-06,0.040
-8.120E-06,0.020
-8.110E-06,0.020
-8.100E-06,0.020
-8.090E-06,0.040
-8.080E-06,0.060
-8.070E-06,0.060
-8.060E-06,0.020
-8.050E-06,0.040
-8.040E-06,0.020
-8.030E-06,0.020
-8.020E-06,0.060
-8.010E-06,0.060
-8.000E-06,0.040
-7.990E-06,0.040
-7.980E-06,0.060
-7.970E-06,0.040
-7.960E-06,0.000
-7.950E-06,0.040
-7.940E-06,0.060
-7.930E-06,0.020
-7.920E-06,0.040
-7.910E-06,0.060
-7.900E-06,0.040
-7.890E-06,0.060
-7.880E-06,0.060
-7.870E-06,0.060
-7.860E-06,0.000
-7.850E-06,0.040
-7.840E-06,0.020
-7.830E-06,0.040
-7.820E-06,0.060
-7.810E-06,0.000
-7.800E-06,0.020
-7.790E-06,0.040
-7.780E-06,0.040
-7.770E-06,0.040
-7.760E-06,0.080
-7.750E-06,0.060
-7.740E-06,0.060
-7.730E-06,0.060
-7.720E-06,0.020
-7.710E-06,0.020
-7.700E-06,0.040
-7.690E-06,0.020
-7.680E-06,0.040
-7.670E-06,0.040
-7.660E-06,0.040
-7.650E-06,0.020
-7.640E-06,0.040
-7.630E-06,0.080
-7.620E-06,0.040
-7.610E-06,0.020
-7.600E-06,0.040
-7.590E-06,0.040
-7.580E-06,0.060
-7.570E-06,0.040
-7.560E-06,0.040
-7.550E-06,0.060
-7.540E-06,0.040
-7.530E-06,0.040
-7.520E-06,0.020
-7.510E-06,0.040
-7.500E-06,0.020
-7.490E-06,0.060
-7.480E-06,0.080
-7.470E-06,0.080
-7.460E-06,0.020
-7.450E-06,0.020
-7.440E-06,0.040
-7.430E-06,0.060
-7.420E-06,0.040
-7.410E-06,0.020
-7.400E-06,0.020
-7.390E-06,0.040
-7.380E-06,0.060
-7.370E-06,0.020
-7.360E-06,0.020
-7.350E-06,0.040
-7.340E-06,0.060
-7.330E-06,0.040
-7.320E-06,0.040
-7.310E-06,0.040
-7.300E-06,0.060
-7.290E-06,0.020
-7.280E-06,0.040
-7.270E-06,0.020
-7.260E-06,0.040
-7.250E-06,0.060
-7.240E-06,0.060
-7.230E-06,0.060
-7.220E-06,0.080
-7.210E-06,0.000
-7.200E-06,0.040
-7.190E-06,0.040
-7.180E-06,0.040
-7.170E-06,0.060
-7.160E-06,0.060
-7.150E-06,0.040
-7.140E-06,0.020
-7.130E-06,0.060
-7.120E-06,0.020
-7.110E-06,0.020
-7.100E-06,0.040
-7.090E-06,0.060
-7.080E-06,0.040
-7.070E-06,0.020
-7.060E-06,0.000
-7.050E-06,0.020
-7.040E-06,0.020
-7.030E-06,0.060
-7.020E-06,0.060
-7.010E-06,0.060
-7.000E-06,0.040
-6.990E-06,0.060
-6.980E-06,0.060
-6.970E-06,0.040
-6.960E-06,0.020
-6.950E-06,0.020
-6.940E-06,0.040
-6.930E-06,0.060
-6.920E-06,0.020
-6.910E-06,0.040
-6.900E-06,0.060
-6.890E-06,0.060
-6.880E-06,0.060
-6.870E-06,0.060
-6.860E-06,0.040
-6.850E-06,0.040
-6.840E-06,0.080
-6.830E-06,0.060
-6.820E-06,0.020
-6.810E-06,0.040
-6.800E-06,0.020
-6.790E-06,0.040
-6.780E-06,0.040
-6.770E-06,0.040
-6.760E-06,0.020
-6.750E-06,0.040
-6.740E-06,0.040
-6.730E-06,0.060
-6.720E-06,0.080
-6.710E-06,0.060
-6.700E-06,0.020
-6.690E-06,0.020
-6.680E-06,0.040
-6.670E-06,0.000
-6.660E-06,0.060
-6.650E-06,0.060
-6.640E-06,0.080
-6.630E-06,0.040
-6.620E-06,0.020
-6.610E-06,0.060
-6.600E-06,0.060
-6.590E-06,0.060
-6.580E-06,0.060
-6.570E-06,0.040
-6.560E-06,0.060
-6.550E-06,0.040
-6.540E-06,0.040
-6.530E-06,0.020
-6.520E-06,0.040
-6.510E-06,0.060
-6.500E-06,0.020
-6.490E-06,0.060
-6.480E-06,0.040
-6.470E-06,0.040
-6.460E-06,0.020
-6.450E-06,0.040
-6.440E-06,0.020
-6.430E-06,0.040
-6.420E-06,0.020
-6.410E-06,0.040
-6.400E-06,0.040
-6.390E-06,0.040
-6.380E-06,0.060
-6.370E-06,0.060
-6.360E-06,0.060
-6.350E-06,0.060
-6.340E-06,0.020
-6.330E-06,0.060
-6.320E-06,0.040
-6.310E-06,0.040
-6.300E-06,-0.020
-6.290E-06,0.020
-6.280E-06,0.040
-6.270E-06,0.060
-6.260E-06,0.040
-6.250E-06,0.040
-6.240E-06,0.020
-6.230E-06,0.060
-6.220E-06,0.040
-6.210E-06,0.040
-6.200E-06,0.060
-6.190E-06,0.000
-6.180E-06,0.040
-6.170E-06,0.060
-6.160E-06,0.020
-6.150E-06,0.040
-6.140E-06,0.080
-6.130E-06,0.060
-6.120E-06,0.060
-6.110E-06,0.020
-6.100E-06,0.040
-6.090E-06,0.060
-6.080E-06,0.040
-6.070E-06,0.040
-6.060E-06,0.080
-6.050E-06,0.020
-6.040E-06,0.060
-6.030E-06,0.040
-6.020E-06,0.080
-6.010E-06,0.040
-6.000E-06,0.040
-5.990E-06,0.060
-5.980E-06,0.060
-5.970E-06,0.060
-5.960E-06,0.020
-5.950E-06,0.020
-5.940E-06,0.060
-5.930E-06,0.040
-5.920E-06,0.060
-5.910E-06,0.060
-5.900E-06,0.020
-5.890E-06,0.040
-5.880E-06,0.040
-5.870E-06,0.040
-5.860E-06,0.040
-5.850E-06,0.020
-5.840E-06,0.060
-5.830E-06,0.060
-5.820E-06,0.040
-5.810E-06,0.040
-5.800E-06,0.020
-5.790E-06,0.040
-5.780E-06,0.040
-5.770E-06,0.060
-5.760E-06,0.000
-5.750E-06,0.040
-5.740E-06,0.080
-5.730E-06,0.080
-5.720E-06,0.020
-5.710E-06,0.040
-5.700E-06,0.060
-5.690E-06,0.040
-5.680E-06,0.020
-5.670E-06,0.040
-5.660E-06,0.060
-5.650E-06,0.020
-5.640E-06,0.060
-5.630E-06,0.020
-5.620E-06,0.040
-5.610E-06,0.060
-5.600E-06,0.060
-5.590E-06,0.040
-5.580E-06,0.040
-5.570E-06,0.040
-5.560E-06,0.060
-5.550E-06,0.060
-5.540E-06,0.040
-5.530E-06,0.060
-5.520E-06,0.060
-5.510E-06,0.040
-5.500E-06,0.040
-5.490E-06,0.040
-5.480E-06,0.040
-5.470E-06,0.060
-5.460E-06,0.060
-5.450E-06,0.020
-5.440E-06,0.040
-5.430E-06,0.040
-5.420E-06,0.040
-5.410E-06,0.020
-5.400E-06,0.000
-5.390E-06,0.040
-5.380E-06,0.040
-5.370E-06,0.020
-5.360E-06,0.040
-5.350E-06,0.020
-5.340E-06,0.040
-5.330E-06,0.040
-5.320E-06,0.040
-5.310E-06,0.040
-5.300E-06,0.040
-5.290E-06,0.040
-5.280E-06,0.060
-5.270E-06,0.040
-5.260E-06,0.040
-5.250E-06,0.040
-5.240E-06,0.040
-5.230E-06,0.060
-5.220E-06,0.020
-5.210E-06,0.060
-5.200E-06,0.060
-5.190E-06,0.020
-5.180E-06,0.040
-5.170E-06,0.060
-5.160E-06,0.040
-5.150E-06,0.000
-5.140E-06,0.040
-5.130E-06,0.020
-5.120E-06,0.040
-5.110E-06,0.080
-5.100E-06,0.060
-5.090E-06,0.020
-5.080E-06,0.040
-5.070E-06,0.020
-5.060E-06,0.040
-5.050E-06,0.060
-5.040E-06,0.040
-5.030E-06,0.020
-5.020E-06,0.020
-5.010E-06,0.060
-5.000E-06,0.000
-4.990E-06,0.020
-4.980E-06,0.040
-4.970E-06,0.060
-4.960E-06,0.020
-4.950E-06,0.000
-4.940E-06,0.040
-4.930E-06,0.040
-4.920E-06,0.060
-4.910E-06,0.040
-4.900E-06,0.060
-4.890E-06,0.040
-4.880E-06,0.000
-4.870E-06,0.040
-4.860E-06,0.080
-4.850E-06,0.060
-4.840E-06,0.060
-4.830E-06,0.040
-4.820E-06,0.040
-4.810E-06,0.060
-4.800E-06,0.040
-4.790E-06,0.040
-4.780E-06,0.060
-4.770E-06,0.080
-4.760E-06,0.060
-4.750E-06,0.060
-4.740E-06,0.020
-4.730E-06,0.040
-4.720E-06,0.040
-4.710E-06,0.040
-4.700E-06,0.040
-4.690E-06,0.020
-4.680E-06,0.040
-4.670E-06,0.020
-4.660E-06,0.020
-4.650E-06,0.040
-4.640E-06,0.000
-4.630E-06,0.040
-4.620E-06,0.040
-4.610E-06,0.060
-4.600E-06,0.060
-4.590E-06,0.020
-4.580E-06,0.060
-4.570E-06,0.080
-4.560E-06,0.080
-4.550E-06,0.060
-4.540E-06,0.000
-4.530E-06,0.020
-4.520E-06,0.060
-4.510E-06,0.040
-4.500E-06,0.080
-4.490E-06,0.020
-4.480E-06,0.000
-4.470E-06,0.040
-4.460E-06,0.020
-4.450E-06,0.060
-4.440E-06,0.000
-4.430E-06,0.040
-4.420E-06,0.060
-4.410E-06,0.080
-4.400E-06,0.020
-4.390E-06,0.040
-4.380E-06,0.020
-4.370E-06,0.020
-4.360E-06,0.040
-4.350E-06,0.040
-4.340E-06,0.040
-4.330E-06,0.060
-4.320E-06,0.020
-4.310E-06,0.060
-4.300E-06,0.060
-4.290E-06,0.040
-4.280E-06,0.040
-4.270E-06,0.040
-4.260E-06,0.020
-4.250E-06,0.040
-4.240E-06,0.040
-4.230E-06,0.080
-4.220E-06,0.040
-4.210E-06,0.020
-4.200E-06,0.040
-4.190E-06,0.020
-4.180E-06,0.020
-4.170E-06,0.020
-4.160E-06,0.040
-4.150E-06,0.020
-4.140E-06,0.040
-4.130E-06,0.040
-4.120E-06,0.060
-4.110E-06,0.040
-4.100E-06,0.000
-4.090E-06,0.060
-4.080E-06,0.020
-4.070E-06,0.040
-4.060E-06,0.060
-4.050E-06,0.060
-4.040E-06,0.060
-4.030E-06,0.060
-4.020E-06,0.080
-4.010E-06,0.040
-4.000E-06,0.020
-3.990E-06,0.020
-3.980E-06,0.040
-3.970E-06,0.020
-3.960E-06,0.040
-3.950E-06,0.060
-3.940E-06,0.060
-3.930E-06,0.060
-3.920E-06,0.040
-3.910E-06,0.020
-3.900E-06,0.060
-3.890E-06,0.080
-3.880E-06,0.060
-3.870E-06,0.040
-3.860E-06,0.060
-3.850E-06,0.040
-3.840E-06,0.000
-3.830E-06,0.040
-3.820E-06,0.060
-3.810E-06,0.020
-3.800E-06,0.040
-3.790E-06,0.020
-3.780E-06,0.040
-3.770E-06,0.020
-3.760E-06,0.000
-3.750E-06,0.040
-3.740E-06,0.040
-3.730E-06,0.060
-3.720E-06,0.060
-3.710E-06,0.060
-3.700E-06,0.020
-3.690E-06,0.060
-3.680E-06,0.080
-3.670E-06,0.060
-3.660E-06,0.040
-3.650E-06,0.040
-3.640E-06,0.060
-3.630E-06,0.040
-3.620E-06,0.020
-3.610E-06,0.060
-3.600E-06,0.080
-3.590E-06,0.020
-3.580E-06,0.040
-3.570E-06,0.060
-3.560E-06,0.060
-3.550E-06,0.020
-3.540E-06,0.020
-3.530E-06,0.060
-3.520E-06,0.060
-3.510E-06,0.020
-3.500E-06,0.020
-3.490E-06,0.040
-3.480E-06,0.080
-3.470E-06,0.040
-3.460E-06,0.020
-3.450E-06,0.040
-3.440E-06,0.040
-3.430E-06,-0.160
-3.420E-06,-0.720
-3.410E-06,-1.660
-3.400E-06,-2.740
-3.390E-06,-3.340
-3.380E-06,-3.340
-3.370E-06,-3.320
-3.360E-06,-2.900
-3.350E-06,-1.560
-3.340E-06,0.180
-3.330E-06,1.660
-3.320E-06,2.080
-3.310E-06,2.060
-3.300E-06,2.080
-3.290E-06,2.100
-3.280E-06,2.080
-3.270E-06,2.080
-3.260E-06,2.080
-3.250E-06,2.060
-3.240E-06,1.040
-3.230E-06,-0.040
-3.220E-06,-0.580
-3.210E-06,-0.840
-3.200E-06,-0.940
-3.190E-06,-0.720
-3.180E-06,-0.680
-3.170E-06,-0.640
-3.160E-06,-0.780
-3.150E-06,-1.080
-3.140E-06,-1.620
-3.130E-06,-2.080
-3.120E-06,-2.440
-3.110E-06,-2.720
-3.100E-06,-2.760
-3.090E-06,-2.540
-3.080E-06,-2.040
-3.070E-06,-1.380
-3.060E-06,-0.580
-3.050E-06,0.340
-3.040E-06,1.180
-3.030E-06,1.840
-3.020E-06,2.080
-3.010E-06,2.080
-3.000E-06,2.100
-2.990E-06,1.840
-2.980E-06,1.320
-2.970E-06,0.680
-2.960E-06,0.100
-2.950E-06,-0.540
-2.940E-06,-0.960
-2.930E-06,-1.280
-2.920E-06,-1.440
-2.910E-06,-1.420
-2.900E-06,-1.240
-2.890E-06,-1.040
-2.880E-06,-0.660
-2.870E-06,-0.540
-2.860E-06,-0.240
-2.850E-06,0.060
-2.840E-06,0.260
-2.830E-06,0.520
-2.820E-06,0.880
-2.810E-06,1.080
-2.800E-06,1.320
-2.790E-06,1.380
-2.780E-06,1.380
-2.770E-06,1.320
-2.760E-06,1.140
-2.750E-06,0.920
-2.740E-06,0.720
-2.730E-06,0.480
-2.720E-06,0.240
-2.710E-06,-0.020
-2.700E-06,-0.240
-2.690E-06,-0.420
-2.680E-06,-0.600
-2.670E-06,-0.640
-2.660E-06,-0.660
-2.650E-06,-0.680
-2.640E-06,-0.880
-2.630E-06,-0.900
-2.620E-06,-0.880
-2.610E-06,-0.840
-2.600E-06,-0.660
-2.590E-06,-0.300
-2.580E-06,0.060
-2.570E-06,0.340
-2.560E-06,0.600
-2.550E-06,0.980
-2.540E-06,1.020
-2.530E-06,1.120
-2.520E-06,1.120
-2.510E-06,1.020
-2.500E-06,0.840
-2.490E-06,0.520
-2.480E-06,0.300
-2.470E-06,-0.080
-2.460E-06,-0.360
-2.450E-06,-0.540
-2.440E-06,-0.720
-2.430E-06,-0.760
-2.420E-06,-0.780
-2.410E-06,-0.720
-2.400E-06,-0.580
-2.390E-06,-0.440
-2.380E-06,-0.260
-2.370E-06,-0.140
-2.360E-06,0.040
-2.350E-06,0.080
-2.340E-06,0.160
-2.330E-06,0.180
-2.320E-06,0.080
-2.310E-06,0.120
-2.300E-06,0.260
-2.290E-06,0.200
-2.280E-06,0.280
-2.270E-06,0.240
-2.260E-06,0.300
-2.250E-06,0.200
-2.240E-06,0.220
-2.230E-06,0.220
-2.220E-06,0.160
-2.210E-06,-0.080
-2.200E-06,-0.020
-2.190E-06,-0.140
-2.180E-06,-0.140
-2.170E-06,-0.160
-2.160E-06,-0.300
-2.150E-06,-0.160
-2.140E-06,-0.140
-2.130E-06,-0.280
-2.120E-06,-0.200
-2.110E-06,0.000
-2.100E-06,-0.060
-2.090E-06,0.020
-2.080E-06,-0.020
-2.070E-06,0.060
-2.060E-06,0.000
-2.050E-06,0.100
-2.040E-06,0.060
-2.030E-06,0.000
-2.020E-06,-0.040
-2.010E-06,0.000
-2.000E-06,-0.120
-1.990E-06,-0.160
-1.980E-06,-0.180
-1.970E-06,-0.340
-1.960E-06,-0.440
-1.950E-06,-0.600
-1.940E-06,-0.580
-1.930E-06,-0.080
-1.920E-06,-0.520
-1.910E-06,-0.120
-1.900E-06,-0.360
-1.890E-06,-0.580
-1.880E-06,-0.140
-1.870E-06,-0.460
-1.860E-06,-0.160
-1.850E-06,-0.300
-1.840E-06,-0.280
-1.830E-06,-0.280
-1.820E-06,-0.360
-1.810E-06,-0.240
-1.800E-06,-0.340
-1.790E-06,-0.280
-1.780E-06,-0.300
-1.770E-06,-0.600
-1.760E-06,-0.580
-1.750E-06,-0.780
-1.740E-06,-0.280
-1.730E-06,-0.680
-1.720E-06,-0.140
-1.710E-06,-0.600
-1.700E-06,-0.400
-1.690E-06,-0.340
-1.680E-06,-0.060
-1.670E-06,-0.080
-1.660E-06,-0.080
-1.650E-06,-0.180
-1.640E-06,-0.320
-1.630E-06,-0.460
-1.620E-06,-0.520
-1.610E-06,-0.840
-1.600E-06,-0.900
-1.590E-06,-0.940
-1.580E-06,-1.020
-1.570E-06,-0.060
-1.560E-06,-0.260
-1.550E-06,0.680
-1.540E-06,0.980
-1.530E-06,1.440
-1.520E-06,1.600
-1.510E-06,1.360
-1.500E-06,0.760
-1.490E-06,-0.160
-1.480E-06,-0.800
-1.470E-06,-1.900
-1.460E-06,-2.100
-1.450E-06,-2.340
-1.440E-06,-2.760
-1.430E-06,-2.920
-1.420E-06,-3.340
-1.410E-06,-3.320
-1.400E-06,-3.220
-1.390E-06,-2.660
-1.380E-06,-1.900
-1.370E-06,-1.320
-1.360E-06,-0.920
-1.350E-06,-0.360
-1.340E-06,-0.320
-1.330E-06,0.120
-1.320E-06,-0.020
-1.310E-06,0.620
-1.300E-06,0.980
-1.290E-06,1.640
-1.280E-06,2.080
-1.270E-06,1.720
-1.260E-06,2.080
-1.250E-06,1.400
-1.240E-06,1.200
-1.230E-06,0.960
-1.220E-06,0.500
-1.210E-06,-0.440
-1.200E-06,-1.380
-1.190E-06,-1.620
-1.180E-06,-3.120
-1.170E-06,-3.340
-1.160E-06,-3.340
-1.150E-06,-3.340
-1.140E-06,-3.340
-1.130E-06,-3.180
-1.120E-06,-3.340
-1.110E-06,-2.140
-1.100E-06,-2.460
-1.090E-06,-1.280
-1.080E-06,-1.040
-1.070E-06,-0.600
-1.060E-06,-0.180
-1.050E-06,-0.180
-1.040E-06,0.380
-1.030E-06,0.700
-1.020E-06,0.660
-1.010E-06,0.660
-1.000E-06,0.520
-9.900E-07,0.320
-9.800E-07,-0.420
-9.700E-07,0.040
-9.600E-07,-0.340
-9.500E-07,-0.420
-9.400E-07,-0.960
-9.300E-07,-1.640
-9.200E-07,-2.020
-9.100E-07,-2.140
-9.000E-07,-2.800
-8.900E-07,-2.820
-8.800E-07,-3.120
-8.700E-07,-3.000
-8.600E-07,-2.720
-8.500E-07,-2.640
-8.400E-07,-2.520
-8.300E-07,-2.620
-8.200E-07,-2.420
-8.100E-07,-2.000
-8.000E-07,-1.740
-7.900E-07,-1.000
-7.800E-07,-0.820
-7.700E-07,-0.540
-7.600E-07,-0.260
-7.500E-07,-0.280
-7.400E-07,-0.340
-7.300E-07,-0.480
-7.200E-07,-0.440
-7.100E-07,-0.040
-7.000E-07,-0.740
-6.900E-07,0.020
-6.800E-07,-0.520
-6.700E-07,-0.200
-6.600E-07,-0.840
-6.500E-07,-0.620
-6.400E-07,-1.020
-6.300E-07,-1.000
-6.200E-07,-0.880
-6.100E-07,-0.500
-6.000E-07,-0.100
-5.900E-07,0.040
-5.800E-07,0.180
-5.700E-07,0.680
-5.600E-07,0.360
-5.500E-07,0.300
-5.400E-07,-0.160
-5.300E-07,-0.580
-5.200E-07,-0.620
-5.100E-07,-1.320
-5.000E-07,-1.200
-4.900E-07,-1.900
-4.800E-07,-1.840
-4.700E-07,-2.180
-4.600E-07,-2.080
-4.500E-07,-2.300
-4.400E-07,-1.960
-4.300E-07,-2.120
-4.200E-07,-1.880
-4.100E-07,-1.660
-4.000E-07,-1.680
-3.900E-07,-1.420
-3.800E-07,-1.420
-3.700E-07,-1.160
-3.600E-07,-1.180
-3.500E-07,-1.180
-3.400E-07,-0.980
-3.300E-07,-0.820
-3.200E-07,-0.680
-3.100E-07,-0.600
-3.000E-07,-0.540
-2.900E-07,-0.320
-2.800E-07,-0.220
-2.700E-07,-0.180
-2.600E-07,0.080
-2.500E-07,-0.720
-2.400E-07,-0.980
-2.300E-07,-1.720
-2.200E-07,-1.120
-2.100E-07,-1.300
-2.000E-07,-0.500
-1.900E-07,-0.500
-1.800E-07,-0.420
-1.700E-07,-0.480
-1.600E-07,-0.660
-1.500E-07,-0.660
-1.400E-07,-0.700
-1.300E-07,-0.680
-1.200E-07,-0.520
-1.100E-07,-0.540
-1.000E-07,-0.580
-9.000E-08,-0.680
-8.000E-08,-0.480
-7.000E-08,-0.480
-6.000E-08,0.560
-5.000E-08,0.440
-4.000E-08,1.660
-3.000E-08,1.340
-2.000E-08,1.020
-1.000E-08,-1.620
0.000E+00,-3.140
1.000E-08,-3.320
2.000E-08,-3.340
3.000E-08,-3.340
4.000E-08,-3.340
5.000E-08,-3.320
6.000E-08,-3.320
7.000E-08,-1.860
8.000E-08,-1.640
9.000E-08,0.800
1.000E-07,-1.680
1.100E-07,-2.300
1.200E-07,-3.360
1.300E-07,-3.340
1.400E-07,-3.340
1.500E-07,-3.340
1.600E-07,-3.360
1.700E-07,-2.660
1.800E-07,-1.780
1.900E-07,-1.200
2.000E-07,-1.160
2.100E-07,-1.040
2.200E-07,-0.980
2.300E-07,-0.020
2.400E-07,0.000
2.500E-07,0.560
2.600E-07,0.200
2.700E-07,0.520
2.800E-07,-0.120
2.900E-07,-0.660
3.000E-07,-1.200
3.100E-07,-1.700
3.200E-07,-1.860
3.300E-07,-2.300
3.400E-07,-2.340
3.500E-07,-2.400
3.600E-07,-2.340
3.700E-07,-2.160
3.800E-07,-1.860
3.900E-07,-1.620
4.000E-07,-1.380
4.100E-07,-1.460
4.200E-07,-1.660
4.300E-07,-1.980
4.400E-07,-2.420
4.500E-07,-2.840
4.600E-07,-3.160
4.700E-07,-3.340
4.800E-07,-3.320
4.900E-07,-3.260
5.000E-07,-3.060
5.100E-07,-3.020
5.200E-07,-2.900
5.300E-07,-2.700
5.400E-07,-2.520
5.500E-07,-2.280
5.600E-07,-2.080
5.700E-07,-1.980
5.800E-07,-1.900
5.900E-07,-2.020
6.000E-07,-2.080
6.100E-07,-2.220
6.200E-07,-2.260
6.300E-07,-2.140
6.400E-07,-2.220
6.500E-07,-2.020
6.600E-07,-1.780
6.700E-07,-1.440
6.800E-07,-1.040
6.900E-07,-0.660
7.000E-07,-0.360
7.100E-07,-0.120
7.200E-07,-0.040
7.300E-07,-0.040
7.400E-07,-0.220
7.500E-07,-0.480
7.600E-07,-0.660
7.700E-07,-0.840
7.800E-07,-0.900
7.900E-07,-0.920
8.000E-07,-0.900
8.100E-07,-0.840
8.200E-07,-0.760
8.300E-07,-0.660
8.400E-07,-0.540
8.500E-07,-0.440
8.600E-07,-0.460
8.700E-07,-0.540
8.800E-07,-0.620
8.900E-07,-0.800
9.000E-07,-0.980
9.100E-07,-1.100
9.200E-07,-1.240
9.300E-07,-1.280
9.400E-07,-1.260
9.500E-07,-1.180
9.600E-07,-1.040
9.700E-07,-0.900
9.800E-07,-0.680
9.900E-07,-0.520
1.000E-06,-0.320
1.010E-06,-0.160
1.020E-06,-0.080
1.030E-06,-0.060
1.040E-06,-0.040
1.050E-06,0.120
1.060E-06,-0.340
1.070E-06,-0.240
1.080E-06,-0.760
1.090E-06,-0.680
1.100E-06,-0.840
1.110E-06,-0.820
1.120E-06,-0.900
1.130E-06,-0.820
1.140E-06,-0.840
1.150E-06,-0.700
1.160E-06,-0.620
1.170E-06,-0.620
1.180E-06,-0.600
1.190E-06,-0.580
1.200E-06,-0.640
1.210E-06,-0.720
1.220E-06,-0.700
1.230E-06,-0.680
1.240E-06,-0.780
1.250E-06,-0.740
1.260E-06,-0.840
1.270E-06,-0.460
1.280E-06,-0.600
1.290E-06,-0.360
1.300E-06,-0.500
1.310E-06,-0.300
1.320E-06,-0.240
1.330E-06,-0.300
1.340E-06,-0.100
1.350E-06,-0.200
1.360E-06,-0.100
1.370E-06,-0.160
1.380E-06,-0.120
1.390E-06,-0.020
1.400E-06,-0.120
1.410E-06,-0.020
1.420E-06,-0.140
1.430E-06,0.080
1.440E-06,0.000
1.450E-06,0.020
1.460E-06,0.220
1.470E-06,0.240
1.480E-06,0.240
1.490E-06,0.240
1.500E-06,0.280
1.510E-06,0.280
1.520E-06,0.260
1.530E-06,0.260
1.540E-06,0.400
1.550E-06,0.140
1.560E-06,0.220
1.570E-06,-0.120
1.580E-06,0.340
1.590E-06,-0.020
1.600E-06,0.040
1.610E-06,-0.120
1.620E-06,-0.060
1.630E-06,-0.020
1.640E-06,-0.200
1.650E-06,-0.080
1.660E-06,-0.200
1.670E-06,-0.120
1.680E-06,-0.140
1.690E-06,-0.080
1.700E-06,-0.040
1.710E-06,0.080
1.720E-06,0.100
1.730E-06,-0.920
1.740E-06,-0.600
1.750E-06,-0.900
1.760E-06,-0.480
1.770E-06,-0.500
1.780E-06,-0.500
1.790E-06,-0.480
1.800E-06,-0.260
1.810E-06,-0.200
1.820E-06,-0.020
1.830E-06,0.120
1.840E-06,0.260
1.850E-06,0.260
1.860E-06,0.340
1.870E-06,0.420
1.880E-06,0.420
1.890E-06,0.500
1.900E-06,0.480
1.910E-06,0.500
1.920E-06,0.480
1.930E-06,0.440
1.940E-06,0.440
1.950E-06,0.380
1.960E-06,0.340
1.970E-06,0.340
1.980E-06,0.280
1.990E-06,0.260
2.000E-06,0.240
2.010E-06,0.220
2.020E-06,0.200
2.030E-06,0.240
2.040E-06,0.200
2.050E-06,0.200
2.060E-06,0.180
2.070E-06,0.200
2.080E-06,0.220
2.090E-06,0.260
2.100E-06,0.300
2.110E-06,0.380
2.120E-06,0.460
2.130E-06,0.560
2.140E-06,0.620
2.150E-06,0.680
2.160E-06,0.680
2.170E-06,0.680
2.180E-06,0.620
2.190E-06,0.540
2.200E-06,0.460
2.210E-06,0.420
2.220E-06,0.340
2.230E-06,0.280
2.240E-06,0.180
2.250E-06,0.180
2.260E-06,0.180
2.270E-06,0.240
2.280E-06,0.260
2.290E-06,0.320
2.300E-06,0.340
2.310E-06,0.400
2.320E-06,0.440
2.330E-06,0.460
2.340E-06,0.480
2.350E-06,0.500
2.360E-06,0.500
2.370E-06,0.520
2.380E-06,0.520
2.390E-06,0.500
2.400E-06,0.520
2.410E-06,0.520
2.420E-06,0.500
2.430E-06,0.480
2.440E-06,0.460
2.450E-06,0.440
2.460E-06,0.440
2.470E-06,0.400
2.480E-06,0.340
2.490E-06,0.340
2.500E-06,0.300
2.510E-06,0.280
2.520E-06,0.220
2.530E-06,0.220
2.540E-06,0.160
2.550E-06,0.160
2.560E-06,0.160
2.570E-06,0.160
2.580E-06,0.160
2.590E-06,0.180
2.600E-06,0.200
2.610E-06,0.200
2.620E-06,0.240
2.630E-06,0.220
2.640E-06,0.240
2.650E-06,0.240
2.660E-06,0.220
2.670E-06,0.240
2.680E-06,0.240
2.690E-06,0.260
2.700E-06,0.340
2.710E-06,0.340
2.720E-06,0.360
2.730E-06,0.400
2.740E-06,0.380
2.750E-06,0.420
2.760E-06,0.460
2.770E-06,0.480
2.780E-06,0.480
2.790E-06,0.500
2.800E-06,0.480
2.810E-06,0.500
2.820E-06,0.500
2.830E-06,0.520
2.840E-06,0.500
2.850E-06,0.560
2.860E-06,0.540
2.870E-06,0.540
2.880E-06,0.560
2.890E-06,0.600
2.900E-06,0.640
2.910E-06,0.700
2.920E-06,0.740
2.930E-06,0.780
2.940E-06,0.840
2.950E-06,0.880
2.960E-06,0.920
2.970E-06,0.940
2.980E-06,1.000
2.990E-06,0.960
3.000E-06,1.000
3.010E-06,0.980
3.020E-06,0.900
3.030E-06,0.820
3.040E-06,0.720
3.050E-06,0.600
3.060E-06,0.480
3.070E-06,0.400
3.080E-06,0.260
3.090E-06,0.200
3.100E-06,0.120
3.110E-06,0.060
3.120E-06,0.020
3.130E-06,-0.020
3.140E-06,-0.020
3.150E-06,-0.060
3.160E-06,-0.040
3.170E-06,0.000
3.180E-06,0.040
3.190E-06,0.060
3.200E-06,0.120
3.210E-06,0.180
3.220E-06,0.200
3.230E-06,0.180
3.240E-06,0.220
3.250E-06,0.160
3.260E-06,0.160
3.270E-06,0.160
3.280E-06,0.120
3.290E-06,0.080
3.300E-06,0.060
3.310E-06,0.040
3.320E-06,0.080
3.330E-06,0.040
