mediciones/8-28/64/WaveData65596.csv

#timebase=2000000(ps)
,#voltbase=500000(mv/100)
#size=4000
-8.350E-06,0.060
-8.340E-06,0.060
-8.330E-06,0.060
-8.320E-06,0.040
-8.310E-06,0.060
-8.300E-06,0.080
-8.290E-06,0.040
-8.280E-06,0.080
-8.270E-06,0.040
-8.260E-06,0.060
-8.250E-06,0.060
-8.240E-06,0.080
-8.230E-06,0.040
-8.220E-06,0.060
-8.210E-06,0.060
-8.200E-06,0.080
-8.190E-06,0.120
-8.180E-06,0.080
-8.170E-06,0.100
-8.160E-06,0.080
-8.150E-06,0.060
-8.140E-06,0.080
-8.130E-06,0.080
-8.120E-06,0.080
-8.110E-06,0.060
-8.100E-06,0.000
-8.090E-06,0.080
-8.080E-06,0.040
-8.070E-06,0.060
-8.060E-06,0.020
-8.050E-06,0.020
-8.040E-06,0.060
-8.030E-06,0.020
-8.020E-06,0.040
-8.010E-06,0.080
-8.000E-06,0.020
-7.990E-06,0.040
-7.980E-06,0.080
-7.970E-06,0.080
-7.960E-06,0.040
-7.950E-06,0.080
-7.940E-06,0.060
-7.930E-06,0.060
-7.920E-06,0.060
-7.910E-06,0.040
-7.900E-06,0.080
-7.890E-06,0.060
-7.880E-06,0.040
-7.870E-06,0.020
-7.860E-06,0.060
-7.850E-06,0.060
-7.840E-06,0.080
-7.830E-06,0.040
-7.820E-06,0.060
-7.810E-06,0.040
-7.800E-06,0.060
-7.790E-06,0.040
-7.780E-06,0.080
-7.770E-06,0.080
-7.760E-06,0.060
-7.750E-06,0.080
-7.740E-06,0.020
-7.730E-06,0.040
-7.720E-06,0.040
-7.710E-06,0.060
-7.700E-06,0.080
-7.690E-06,0.060
-7.680E-06,0.080
-7.670E-06,0.080
-7.660E-06,0.040
-7.650E-06,0.040
-7.640E-06,0.080
-7.630E-06,0.060
-7.620E-06,0.040
-7.610E-06,0.100
-7.600E-06,0.040
-7.590E-06,0.060
-7.580E-06,0.040
-7.570E-06,0.040
-7.560E-06,0.060
-7.550E-06,0.080
-7.540E-06,0.080
-7.530E-06,0.040
-7.520E-06,0.020
-7.510E-06,0.060
-7.500E-06,0.080
-7.490E-06,0.060
-7.480E-06,0.080
-7.470E-06,0.060
-7.460E-06,0.080
-7.450E-06,0.060
-7.440E-06,0.060
-7.430E-06,0.060
-7.420E-06,0.080
-7.410E-06,0.040
-7.400E-06,0.020
-7.390E-06,0.080
-7.380E-06,0.060
-7.370E-06,0.060
-7.360E-06,0.040
-7.350E-06,0.060
-7.340E-06,0.100
-7.330E-06,0.060
-7.320E-06,0.080
-7.310E-06,0.060
-7.300E-06,0.060
-7.290E-06,0.080
-7.280E-06,0.040
-7.270E-06,0.040
-7.260E-06,0.060
-7.250E-06,0.080
-7.240E-06,0.060
-7.230E-06,0.100
-7.220E-06,0.100
-7.210E-06,0.080
-7.200E-06,0.060
-7.190E-06,0.060
-7.180E-06,0.060
-7.170E-06,0.080
-7.160E-06,0.040
-7.150E-06,0.060
-7.140E-06,0.060
-7.130E-06,0.060
-7.120E-06,0.080
-7.110E-06,0.060
-7.100E-06,0.040
-7.090E-06,0.060
-7.080E-06,0.060
-7.070E-06,0.080
-7.060E-06,0.060
-7.050E-06,0.100
-7.040E-06,0.080
-7.030E-06,0.060
-7.020E-06,0.120
-7.010E-06,0.040
-7.000E-06,0.080
-6.990E-06,0.080
-6.980E-06,0.040
-6.970E-06,0.060
-6.960E-06,0.060
-6.950E-06,0.060
-6.940E-06,0.040
-6.930E-06,0.060
-6.920E-06,0.060
-6.910E-06,0.060
-6.900E-06,0.080
-6.890E-06,0.060
-6.880E-06,0.080
-6.870E-06,0.040
-6.860E-06,0.080
-6.850E-06,0.040
-6.840E-06,0.080
-6.830E-06,0.060
-6.820E-06,0.080
-6.810E-06,0.060
-6.800E-06,0.060
-6.790E-06,0.060
-6.780E-06,0.040
-6.770E-06,0.080
-6.760E-06,0.060
-6.750E-06,0.060
-6.740E-06,0.060
-6.730E-06,0.060
-6.720E-06,0.080
-6.710E-06,0.060
-6.700E-06,0.060
-6.690E-06,0.020
-6.680E-06,0.040
-6.670E-06,0.080
-6.660E-06,0.040
-6.650E-06,0.120
-6.640E-06,0.080
-6.630E-06,0.060
-6.620E-06,0.060
-6.610E-06,0.080
-6.600E-06,0.040
-6.590E-06,0.060
-6.580E-06,0.080
-6.570E-06,0.080
-6.560E-06,0.060
-6.550E-06,0.080
-6.540E-06,0.080
-6.530E-06,0.060
-6.520E-06,0.040
-6.510E-06,0.060
-6.500E-06,0.060
-6.490E-06,0.060
-6.480E-06,0.020
-6.470E-06,0.060
-6.460E-06,0.020
-6.450E-06,0.080
-6.440E-06,0.040
-6.430E-06,0.060
-6.420E-06,0.060
-6.410E-06,0.060
-6.400E-06,0.100
-6.390E-06,0.060
-6.380E-06,0.080
-6.370E-06,0.040
-6.360E-06,0.060
-6.350E-06,0.060
-6.340E-06,0.080
-6.330E-06,0.040
-6.320E-06,0.080
-6.310E-06,0.060
-6.300E-06,0.060
-6.290E-06,0.060
-6.280E-06,0.060
-6.270E-06,0.060
-6.260E-06,0.080
-6.250E-06,0.060
-6.240E-06,0.080
-6.230E-06,0.060
-6.220E-06,0.080
-6.210E-06,0.060
-6.200E-06,0.080
-6.190E-06,0.060
-6.180E-06,0.060
-6.170E-06,0.080
-6.160E-06,0.060
-6.150E-06,0.040
-6.140E-06,0.080
-6.130E-06,0.080
-6.120E-06,0.080
-6.110E-06,0.060
-6.100E-06,0.040
-6.090E-06,0.060
-6.080E-06,0.040
-6.070E-06,0.060
-6.060E-06,0.080
-6.050E-06,0.060
-6.040E-06,0.060
-6.030E-06,0.060
-6.020E-06,0.040
-6.010E-06,0.040
-6.000E-06,0.100
-5.990E-06,0.080
-5.980E-06,0.080
-5.970E-06,0.080
-5.960E-06,0.040
-5.950E-06,0.060
-5.940E-06,0.080
-5.930E-06,0.080
-5.920E-06,0.080
-5.910E-06,0.080
-5.900E-06,0.060
-5.890E-06,0.080
-5.880E-06,0.060
-5.870E-06,0.060
-5.860E-06,0.080
-5.850E-06,0.040
-5.840E-06,0.060
-5.830E-06,0.060
-5.820E-06,0.080
-5.810E-06,0.060
-5.800E-06,0.040
-5.790E-06,0.080
-5.780E-06,0.080
-5.770E-06,0.040
-5.760E-06,0.080
-5.750E-06,0.040
-5.740E-06,0.060
-5.730E-06,0.080
-5.720E-06,0.040
-5.710E-06,0.060
-5.700E-06,0.060
-5.690E-06,0.060
-5.680E-06,0.060
-5.670E-06,0.080
-5.660E-06,0.080
-5.650E-06,0.080
-5.640E-06,0.060
-5.630E-06,0.040
-5.620E-06,0.060
-5.610E-06,0.060
-5.600E-06,0.080
-5.590E-06,0.080
-5.580E-06,0.060
-5.570E-06,0.060
-5.560E-06,0.080
-5.550E-06,0.060
-5.540E-06,0.060
-5.530E-06,0.080
-5.520E-06,0.040
-5.510E-06,0.080
-5.500E-06,0.080
-5.490E-06,0.040
-5.480E-06,0.020
-5.470E-06,0.060
-5.460E-06,0.080
-5.450E-06,0.060
-5.440E-06,0.060
-5.430E-06,0.040
-5.420E-06,0.060
-5.410E-06,0.060
-5.400E-06,0.060
-5.390E-06,0.060
-5.380E-06,0.060
-5.370E-06,0.060
-5.360E-06,0.100
-5.350E-06,0.060
-5.340E-06,0.080
-5.330E-06,0.080
-5.320E-06,0.040
-5.310E-06,0.020
-5.300E-06,0.100
-5.290E-06,0.080
-5.280E-06,0.080
-5.270E-06,0.060
-5.260E-06,0.040
-5.250E-06,0.060
-5.240E-06,0.040
-5.230E-06,0.060
-5.220E-06,0.100
-5.210E-06,0.040
-5.200E-06,0.080
-5.190E-06,0.080
-5.180E-06,0.100
-5.170E-06,0.080
-5.160E-06,0.060
-5.150E-06,0.080
-5.140E-06,0.040
-5.130E-06,0.040
-5.120E-06,0.080
-5.110E-06,0.060
-5.100E-06,0.040
-5.090E-06,0.080
-5.080E-06,0.060
-5.070E-06,0.080
-5.060E-06,0.040
-5.050E-06,0.040
-5.040E-06,0.060
-5.030E-06,0.060
-5.020E-06,0.060
-5.010E-06,0.060
-5.000E-06,0.020
-4.990E-06,0.080
-4.980E-06,0.060
-4.970E-06,0.060
-4.960E-06,0.060
-4.950E-06,0.060
-4.940E-06,0.060
-4.930E-06,0.080
-4.920E-06,0.080
-4.910E-06,0.060
-4.900E-06,0.040
-4.890E-06,0.060
-4.880E-06,0.060
-4.870E-06,0.040
-4.860E-06,0.060
-4.850E-06,0.060
-4.840E-06,0.080
-4.830E-06,0.060
-4.820E-06,0.060
-4.810E-06,0.080
-4.800E-06,0.040
-4.790E-06,-0.020
-4.780E-06,-0.320
-4.770E-06,-1.080
-4.760E-06,-2.100
-4.750E-06,-2.120
-4.740E-06,-2.120
-4.730E-06,-2.120
-4.720E-06,-2.120
-4.710E-06,-2.120
-4.700E-06,-0.940
-4.690E-06,0.800
-4.680E-06,2.340
-4.670E-06,3.320
-4.660E-06,3.320
-4.650E-06,3.300
-4.640E-06,3.320
-4.630E-06,3.300
-4.620E-06,3.320
-4.610E-06,2.940
-4.600E-06,1.800
-4.590E-06,0.720
-4.580E-06,-0.100
-4.570E-06,-0.700
-4.560E-06,-0.860
-4.550E-06,-0.720
-4.540E-06,-0.580
-4.530E-06,-0.420
-4.520E-06,-0.400
-4.510E-06,-0.620
-4.500E-06,-1.080
-4.490E-06,-1.620
-4.480E-06,-2.120
-4.470E-06,-2.120
-4.460E-06,-2.120
-4.450E-06,-2.140
-4.440E-06,-2.120
-4.430E-06,-1.820
-4.420E-06,-1.160
-4.410E-06,-0.300
-4.400E-06,0.520
-4.390E-06,1.280
-4.380E-06,1.840
-4.370E-06,2.160
-4.360E-06,2.320
-4.350E-06,2.040
-4.340E-06,1.540
-4.330E-06,0.940
-4.320E-06,0.360
-4.310E-06,0.040
-4.300E-06,-0.640
-4.290E-06,-0.860
-4.280E-06,-1.100
-4.270E-06,-1.120
-4.260E-06,-1.220
-4.250E-06,-1.040
-4.240E-06,-0.920
-4.230E-06,-0.640
-4.220E-06,-0.420
-4.210E-06,-0.140
-4.200E-06,0.120
-4.190E-06,0.380
-4.180E-06,0.720
-4.170E-06,0.960
-4.160E-06,1.120
-4.150E-06,1.320
-4.140E-06,1.360
-4.130E-06,1.360
-4.120E-06,1.300
-4.110E-06,1.160
-4.100E-06,0.940
-4.090E-06,0.780
-4.080E-06,0.540
-4.070E-06,0.360
-4.060E-06,0.040
-4.050E-06,-0.120
-4.040E-06,-0.300
-4.030E-06,-0.600
-4.020E-06,-0.640
-4.010E-06,-1.040
-4.000E-06,-0.540
-3.990E-06,-0.880
-3.980E-06,-0.700
-3.970E-06,-0.700
-3.960E-06,-0.580
-3.950E-06,-0.520
-3.940E-06,-0.180
-3.930E-06,0.080
-3.920E-06,0.440
-3.910E-06,0.780
-3.900E-06,0.960
-3.890E-06,1.100
-3.880E-06,1.140
-3.870E-06,1.080
-3.860E-06,1.000
-3.850E-06,0.680
-3.840E-06,0.500
-3.830E-06,0.200
-3.820E-06,-0.120
-3.810E-06,-0.480
-3.800E-06,-0.640
-3.790E-06,-0.460
-3.780E-06,-0.720
-3.770E-06,-0.640
-3.760E-06,-0.380
-3.750E-06,-0.460
-3.740E-06,-0.500
-3.730E-06,-0.360
-3.720E-06,-0.280
-3.710E-06,-0.100
-3.700E-06,-0.160
-3.690E-06,0.000
-3.680E-06,0.040
-3.670E-06,0.040
-3.660E-06,0.120
-3.650E-06,0.140
-3.640E-06,0.180
-3.630E-06,0.220
-3.620E-06,0.320
-3.610E-06,0.340
-3.600E-06,0.400
-3.590E-06,0.380
-3.580E-06,0.320
-3.570E-06,0.300
-3.560E-06,0.220
-3.550E-06,0.160
-3.540E-06,0.120
-3.530E-06,0.060
-3.520E-06,0.060
-3.510E-06,0.000
-3.500E-06,0.040
-3.490E-06,0.020
-3.480E-06,-0.060
-3.470E-06,0.020
-3.460E-06,0.140
-3.450E-06,0.100
-3.440E-06,0.200
-3.430E-06,0.140
-3.420E-06,0.180
-3.410E-06,-0.020
-3.400E-06,0.420
-3.390E-06,0.300
-3.380E-06,0.340
-3.370E-06,0.100
-3.360E-06,0.220
-3.350E-06,-0.100
-3.340E-06,-0.260
-3.330E-06,-0.320
-3.320E-06,0.000
-3.310E-06,-0.140
-3.300E-06,-0.080
-3.290E-06,-0.220
-3.280E-06,-0.140
-3.270E-06,-0.240
-3.260E-06,-0.280
-3.250E-06,-0.160
-3.240E-06,-0.200
-3.230E-06,-0.140
-3.220E-06,-0.100
-3.210E-06,-0.080
-3.200E-06,-0.100
-3.190E-06,-0.060
-3.180E-06,0.000
-3.170E-06,-0.100
-3.160E-06,-0.160
-3.150E-06,-0.140
-3.140E-06,-0.120
-3.130E-06,-0.140
-3.120E-06,0.000
-3.110E-06,0.180
-3.100E-06,0.560
-3.090E-06,0.280
-3.080E-06,0.280
-3.070E-06,0.200
-3.060E-06,0.120
-3.050E-06,0.040
-3.040E-06,0.280
-3.030E-06,0.220
-3.020E-06,0.360
-3.010E-06,0.360
-3.000E-06,0.360
-2.990E-06,0.120
-2.980E-06,0.280
-2.970E-06,0.040
-2.960E-06,-0.440
-2.950E-06,-0.040
-2.940E-06,-0.120
-2.930E-06,-0.360
-2.920E-06,-0.300
-2.910E-06,-0.320
-2.900E-06,-0.300
-2.890E-06,-0.100
-2.880E-06,0.520
-2.870E-06,1.020
-2.860E-06,0.800
-2.850E-06,0.780
-2.840E-06,0.540
-2.830E-06,0.100
-2.820E-06,-0.140
-2.810E-06,-0.140
-2.800E-06,-0.320
-2.790E-06,-0.380
-2.780E-06,-0.220
-2.770E-06,-0.260
-2.760E-06,-0.480
-2.750E-06,-0.400
-2.740E-06,-0.040
-2.730E-06,-0.360
-2.720E-06,-0.200
-2.710E-06,0.000
-2.700E-06,-0.040
-2.690E-06,-0.300
-2.680E-06,-0.240
-2.670E-06,-0.480
-2.660E-06,-0.480
-2.650E-06,-0.520
-2.640E-06,-0.400
-2.630E-06,-0.300
-2.620E-06,-0.260
-2.610E-06,-0.120
-2.600E-06,-0.140
-2.590E-06,-0.220
-2.580E-06,-0.040
-2.570E-06,0.120
-2.560E-06,0.260
-2.550E-06,0.360
-2.540E-06,0.380
-2.530E-06,0.200
-2.520E-06,0.360
-2.510E-06,0.440
-2.500E-06,0.200
-2.490E-06,0.200
-2.480E-06,0.220
-2.470E-06,0.240
-2.460E-06,0.100
-2.450E-06,0.140
-2.440E-06,0.200
-2.430E-06,0.240
-2.420E-06,0.220
-2.410E-06,0.220
-2.400E-06,0.180
-2.390E-06,0.060
-2.380E-06,0.100
-2.370E-06,0.020
-2.360E-06,-0.060
-2.350E-06,-0.060
-2.340E-06,-0.080
-2.330E-06,-0.120
-2.320E-06,-0.280
-2.310E-06,-0.300
-2.300E-06,-0.420
-2.290E-06,-0.420
-2.280E-06,-0.380
-2.270E-06,-0.320
-2.260E-06,-0.260
-2.250E-06,-0.120
-2.240E-06,-0.060
-2.230E-06,-0.060
-2.220E-06,0.000
-2.210E-06,-0.100
-2.200E-06,-0.160
-2.190E-06,-0.300
-2.180E-06,-0.380
-2.170E-06,-0.340
-2.160E-06,-0.340
-2.150E-06,-0.280
-2.140E-06,-0.200
-2.130E-06,-0.140
-2.120E-06,-0.140
-2.110E-06,-0.100
-2.100E-06,-0.180
-2.090E-06,-0.200
-2.080E-06,-0.240
-2.070E-06,-0.280
-2.060E-06,-0.300
-2.050E-06,-0.280
-2.040E-06,-0.260
-2.030E-06,-0.280
-2.020E-06,-0.240
-2.010E-06,-0.220
-2.000E-06,-0.220
-1.990E-06,-0.220
-1.980E-06,-0.140
-1.970E-06,-0.140
-1.960E-06,-0.040
-1.950E-06,-0.080
-1.940E-06,0.060
-1.930E-06,-0.020
-1.920E-06,-0.060
-1.910E-06,0.120
-1.900E-06,0.040
-1.890E-06,-0.060
-1.880E-06,-0.060
-1.870E-06,0.020
-1.860E-06,-0.200
-1.850E-06,-0.320
-1.840E-06,-0.340
-1.830E-06,-0.280
-1.820E-06,-0.280
-1.810E-06,-0.240
-1.800E-06,-0.040
-1.790E-06,-0.060
-1.780E-06,-0.040
-1.770E-06,0.040
-1.760E-06,0.100
-1.750E-06,0.020
-1.740E-06,0.000
-1.730E-06,0.080
-1.720E-06,0.260
-1.710E-06,0.140
-1.700E-06,0.160
-1.690E-06,0.160
-1.680E-06,0.200
-1.670E-06,0.040
-1.660E-06,0.040
-1.650E-06,0.060
-1.640E-06,-0.100
-1.630E-06,0.060
-1.620E-06,-0.120
-1.610E-06,-0.060
-1.600E-06,0.020
-1.590E-06,-0.040
-1.580E-06,-0.180
-1.570E-06,-0.280
-1.560E-06,-0.360
-1.550E-06,-0.300
-1.540E-06,-0.340
-1.530E-06,-0.180
-1.520E-06,-0.180
-1.510E-06,-0.140
-1.500E-06,-0.140
-1.490E-06,-0.060
-1.480E-06,0.140
-1.470E-06,0.080
-1.460E-06,0.020
-1.450E-06,0.080
-1.440E-06,0.040
-1.430E-06,-0.060
-1.420E-06,-0.220
-1.410E-06,-0.140
-1.400E-06,0.080
-1.390E-06,0.060
-1.380E-06,-0.140
-1.370E-06,-0.160
-1.360E-06,-0.140
-1.350E-06,-0.280
-1.340E-06,-0.280
-1.330E-06,-0.180
-1.320E-06,-0.060
-1.310E-06,0.060
-1.300E-06,0.160
-1.290E-06,0.200
-1.280E-06,0.260
-1.270E-06,0.360
-1.260E-06,0.520
-1.250E-06,0.480
-1.240E-06,0.420
-1.230E-06,0.320
-1.220E-06,0.260
-1.210E-06,0.160
-1.200E-06,0.120
-1.190E-06,0.000
-1.180E-06,-0.020
-1.170E-06,-0.140
-1.160E-06,-0.140
-1.150E-06,-0.140
-1.140E-06,-0.160
-1.130E-06,-0.260
-1.120E-06,-0.240
-1.110E-06,-0.300
-1.100E-06,-0.300
-1.090E-06,-0.200
-1.080E-06,-0.540
-1.070E-06,-0.080
-1.060E-06,-0.300
-1.050E-06,-0.100
-1.040E-06,-0.240
-1.030E-06,-0.080
-1.020E-06,-0.140
-1.010E-06,-0.160
-1.000E-06,-0.360
-9.900E-07,-0.140
-9.800E-07,-0.220
-9.700E-07,-0.140
-9.600E-07,-0.180
-9.500E-07,-0.120
-9.400E-07,-0.140
-9.300E-07,-0.140
-9.200E-07,-0.140
-9.100E-07,-0.100
-9.000E-07,-0.020
-8.900E-07,-0.020
-8.800E-07,0.140
-8.700E-07,0.180
-8.600E-07,0.220
-8.500E-07,0.280
-8.400E-07,0.280
-8.300E-07,0.300
-8.200E-07,0.280
-8.100E-07,0.280
-8.000E-07,0.360
-7.900E-07,0.360
-7.800E-07,0.380
-7.700E-07,0.420
-7.600E-07,0.240
-7.500E-07,0.200
-7.400E-07,0.020
-7.300E-07,0.000
-7.200E-07,-0.140
-7.100E-07,-0.160
-7.000E-07,-0.220
-6.900E-07,-0.220
-6.800E-07,-0.280
-6.700E-07,-0.300
-6.600E-07,-0.300
-6.500E-07,-0.300
-6.400E-07,-0.280
-6.300E-07,-0.240
-6.200E-07,-0.220
-6.100E-07,-0.180
-6.000E-07,-0.120
-5.900E-07,-0.100
-5.800E-07,-0.060
-5.700E-07,-0.060
-5.600E-07,-0.020
-5.500E-07,0.040
-5.400E-07,0.060
-5.300E-07,0.120
-5.200E-07,0.140
-5.100E-07,0.160
-5.000E-07,0.180
-4.900E-07,0.180
-4.800E-07,0.200
-4.700E-07,0.120
-4.600E-07,0.080
-4.500E-07,0.060
-4.400E-07,0.060
-4.300E-07,0.080
-4.200E-07,0.060
-4.100E-07,0.140
-4.000E-07,0.120
-3.900E-07,0.100
-3.800E-07,0.020
-3.700E-07,-0.020
-3.600E-07,-0.040
-3.500E-07,-0.080
-3.400E-07,-0.060
-3.300E-07,-0.100
-3.200E-07,-0.120
-3.100E-07,-0.180
-3.000E-07,-0.240
-2.900E-07,-0.300
-2.800E-07,-0.320
-2.700E-07,-0.320
-2.600E-07,-0.300
-2.500E-07,-0.300
-2.400E-07,-0.300
-2.300E-07,-0.300
-2.200E-07,-0.320
-2.100E-07,-0.360
-2.000E-07,-0.360
-1.900E-07,-0.440
-1.800E-07,-0.400
-1.700E-07,-0.340
-1.600E-07,-0.300
-1.500E-07,-0.220
-1.400E-07,-0.160
-1.300E-07,-0.140
-1.200E-07,-0.180
-1.100E-07,-0.140
-1.000E-07,-0.140
-9.000E-08,-0.040
-8.000E-08,0.080
-7.000E-08,0.100
-6.000E-08,0.920
-5.000E-08,1.060
-4.000E-08,0.520
-3.000E-08,0.680
-2.000E-08,-0.480
-1.000E-08,-0.660
0.000E+00,-1.300
1.000E-08,-1.240
2.000E-08,-0.780
3.000E-08,-0.720
4.000E-08,-0.280
5.000E-08,-0.720
6.000E-08,-0.680
7.000E-08,-0.520
8.000E-08,-0.460
9.000E-08,-0.120
1.000E-07,0.180
1.100E-07,0.320
1.200E-07,0.000
1.300E-07,-0.140
1.400E-07,-0.680
1.500E-07,-0.460
1.600E-07,-0.560
1.700E-07,-0.220
1.800E-07,-0.140
1.900E-07,0.220
2.000E-07,-0.080
2.100E-07,-0.340
2.200E-07,-0.020
2.300E-07,0.200
2.400E-07,0.500
2.500E-07,0.580
2.600E-07,0.540
2.700E-07,0.020
2.800E-07,-0.380
2.900E-07,-0.900
3.000E-07,-0.880
3.100E-07,-0.900
3.200E-07,-0.700
3.300E-07,-0.380
3.400E-07,-0.300
3.500E-07,-0.200
3.600E-07,-0.220
3.700E-07,-0.280
3.800E-07,-0.160
3.900E-07,0.000
4.000E-07,0.200
4.100E-07,0.360
4.200E-07,0.400
4.300E-07,0.460
4.400E-07,0.440
4.500E-07,0.380
4.600E-07,0.380
4.700E-07,0.380
4.800E-07,0.420
4.900E-07,0.420
5.000E-07,0.300
5.100E-07,0.200
5.200E-07,0.100
5.300E-07,-0.120
5.400E-07,-0.260
5.500E-07,-0.380
5.600E-07,-0.380
5.700E-07,-0.480
5.800E-07,-0.520
5.900E-07,-0.560
6.000E-07,-0.640
6.100E-07,-0.680
6.200E-07,-0.780
6.300E-07,-0.820
6.400E-07,-0.880
6.500E-07,-0.680
6.600E-07,-0.520
6.700E-07,-0.300
6.800E-07,-0.080
6.900E-07,0.520
7.000E-07,0.280
7.100E-07,0.480
7.200E-07,1.820
7.300E-07,1.760
7.400E-07,1.000
7.500E-07,0.260
7.600E-07,-0.900
7.700E-07,-1.840
7.800E-07,-2.120
7.900E-07,-2.120
8.000E-07,-1.480
8.100E-07,-0.940
8.200E-07,-0.560
8.300E-07,-0.540
8.400E-07,-0.640
8.500E-07,-0.700
8.600E-07,-0.740
8.700E-07,-0.640
8.800E-07,-0.220
8.900E-07,0.340
9.000E-07,0.460
9.100E-07,0.520
9.200E-07,0.580
9.300E-07,0.580
9.400E-07,0.440
9.500E-07,0.500
9.600E-07,0.620
9.700E-07,0.820
9.800E-07,1.000
9.900E-07,1.040
1.000E-06,0.960
1.010E-06,0.780
1.020E-06,0.640
1.030E-06,0.420
1.040E-06,0.260
1.050E-06,0.120
1.060E-06,0.020
1.070E-06,-0.160
1.080E-06,-0.300
1.090E-06,-0.420
1.100E-06,-0.480
1.110E-06,-0.500
1.120E-06,-0.460
1.130E-06,-0.340
1.140E-06,-0.220
1.150E-06,-0.020
1.160E-06,0.080
1.170E-06,0.120
1.180E-06,0.100
1.190E-06,0.080
1.200E-06,-0.080
1.210E-06,-0.080
1.220E-06,-0.420
1.230E-06,-0.560
1.240E-06,-0.760
1.250E-06,-0.920
1.260E-06,-0.980
1.270E-06,-1.040
1.280E-06,-1.100
1.290E-06,-1.060
1.300E-06,-1.020
1.310E-06,-0.940
1.320E-06,-0.820
1.330E-06,-0.640
1.340E-06,-0.600
1.350E-06,-0.660
1.360E-06,-0.920
1.370E-06,-0.120
1.380E-06,0.540
1.390E-06,1.200
1.400E-06,1.100
1.410E-06,0.860
1.420E-06,-0.100
1.430E-06,-1.040
1.440E-06,-2.000
1.450E-06,-1.900
1.460E-06,-1.520
1.470E-06,-0.900
1.480E-06,-0.720
1.490E-06,-0.480
1.500E-06,-0.140
1.510E-06,-0.480
1.520E-06,-0.240
1.530E-06,-0.260
1.540E-06,-0.020
1.550E-06,-0.060
1.560E-06,-0.320
1.570E-06,-0.440
1.580E-06,-0.560
1.590E-06,-0.360
1.600E-06,-0.420
1.610E-06,-0.020
1.620E-06,0.000
1.630E-06,0.180
1.640E-06,0.060
1.650E-06,0.260
1.660E-06,0.120
1.670E-06,0.240
1.680E-06,0.620
1.690E-06,0.000
1.700E-06,-0.440
1.710E-06,-0.700
1.720E-06,-1.140
1.730E-06,-0.940
1.740E-06,-0.800
1.750E-06,-0.280
1.760E-06,-0.020
1.770E-06,0.460
1.780E-06,0.000
1.790E-06,-0.200
1.800E-06,-0.800
1.810E-06,-1.120
1.820E-06,-1.480
1.830E-06,-1.580
1.840E-06,-1.560
1.850E-06,-1.500
1.860E-06,-1.420
1.870E-06,-1.620
1.880E-06,-1.480
1.890E-06,-1.640
1.900E-06,-1.460
1.910E-06,-1.620
1.920E-06,-1.580
1.930E-06,-1.320
1.940E-06,-1.300
1.950E-06,-1.260
1.960E-06,-1.220
1.970E-06,-1.160
1.980E-06,-1.100
1.990E-06,-1.100
2.000E-06,-1.120
2.010E-06,-1.040
2.020E-06,-0.940
2.030E-06,-0.780
2.040E-06,-0.520
2.050E-06,-0.400
2.060E-06,0.380
2.070E-06,0.540
2.080E-06,1.180
2.090E-06,0.800
2.100E-06,0.940
2.110E-06,-0.220
2.120E-06,-0.980
2.130E-06,-2.140
2.140E-06,-2.140
2.150E-06,-2.120
2.160E-06,-1.460
2.170E-06,0.280
2.180E-06,0.600
2.190E-06,0.760
2.200E-06,-0.180
2.210E-06,-1.160
2.220E-06,-2.100
2.230E-06,-2.120
2.240E-06,-2.120
2.250E-06,-1.460
2.260E-06,-1.240
2.270E-06,-0.740
2.280E-06,-0.600
2.290E-06,-0.600
2.300E-06,-0.460
2.310E-06,-0.340
2.320E-06,-0.160
2.330E-06,0.320
2.340E-06,0.560
2.350E-06,0.820
2.360E-06,0.800
2.370E-06,0.780
2.380E-06,0.580
2.390E-06,0.520
2.400E-06,0.340
2.410E-06,0.400
2.420E-06,0.420
2.430E-06,0.540
2.440E-06,0.500
2.450E-06,0.500
2.460E-06,0.380
2.470E-06,0.300
2.480E-06,0.120
2.490E-06,0.040
2.500E-06,-0.020
2.510E-06,-0.120
2.520E-06,-0.300
2.530E-06,-0.340
2.540E-06,-0.480
2.550E-06,-0.620
2.560E-06,-0.860
2.570E-06,-0.960
2.580E-06,-1.060
2.590E-06,-1.100
2.600E-06,-1.120
2.610E-06,-1.000
2.620E-06,-0.960
2.630E-06,-0.780
2.640E-06,-1.020
2.650E-06,-1.120
2.660E-06,-1.320
2.670E-06,-1.340
2.680E-06,-1.500
2.690E-06,-1.380
2.700E-06,-1.320
2.710E-06,-0.980
2.720E-06,-0.900
2.730E-06,-0.740
2.740E-06,-0.620
2.750E-06,-0.660
2.760E-06,-0.720
2.770E-06,-0.920
2.780E-06,-1.020
2.790E-06,-1.100
2.800E-06,-0.960
2.810E-06,-0.500
2.820E-06,0.120
2.830E-06,0.560
2.840E-06,0.780
2.850E-06,1.000
2.860E-06,1.080
2.870E-06,1.040
2.880E-06,0.780
2.890E-06,0.240
2.900E-06,-0.740
2.910E-06,-1.500
2.920E-06,-2.120
2.930E-06,-2.120
2.940E-06,-2.120
2.950E-06,-2.120
2.960E-06,-2.120
2.970E-06,-2.120
2.980E-06,-2.120
2.990E-06,-2.120
3.000E-06,-2.140
3.010E-06,-2.120
3.020E-06,-1.820
3.030E-06,-1.500
3.040E-06,-1.260
3.050E-06,-0.940
3.060E-06,-0.740
3.070E-06,-0.540
3.080E-06,-0.560
3.090E-06,-0.400
3.100E-06,-0.580
3.110E-06,-0.720
3.120E-06,-0.380
3.130E-06,-0.140
3.140E-06,0.160
3.150E-06,0.260
3.160E-06,0.260
3.170E-06,0.040
3.180E-06,-0.300
3.190E-06,-0.840
3.200E-06,-0.980
3.210E-06,-1.280
3.220E-06,-1.480
3.230E-06,-1.680
3.240E-06,-1.920
3.250E-06,-2.080
3.260E-06,-2.100
