mediciones/8-28/64/WaveData65598.csv

#timebase=2000000(ps)
,#voltbase=500000(mv/100)
#size=4000
-8.350E-06,0.060
-8.340E-06,0.060
-8.330E-06,0.080
-8.320E-06,0.060
-8.310E-06,0.040
-8.300E-06,0.060
-8.290E-06,0.080
-8.280E-06,0.060
-8.270E-06,0.040
-8.260E-06,0.060
-8.250E-06,0.080
-8.240E-06,0.080
-8.230E-06,0.060
-8.220E-06,0.060
-8.210E-06,0.060
-8.200E-06,0.040
-8.190E-06,0.080
-8.180E-06,0.080
-8.170E-06,0.060
-8.160E-06,0.040
-8.150E-06,0.060
-8.140E-06,0.080
-8.130E-06,0.060
-8.120E-06,0.060
-8.110E-06,0.060
-8.100E-06,0.020
-8.090E-06,0.060
-8.080E-06,0.040
-8.070E-06,0.060
-8.060E-06,0.080
-8.050E-06,0.060
-8.040E-06,0.060
-8.030E-06,0.080
-8.020E-06,0.060
-8.010E-06,0.040
-8.000E-06,0.080
-7.990E-06,0.040
-7.980E-06,0.060
-7.970E-06,0.080
-7.960E-06,0.060
-7.950E-06,0.060
-7.940E-06,0.080
-7.930E-06,0.080
-7.920E-06,0.040
-7.910E-06,0.040
-7.900E-06,0.040
-7.890E-06,0.080
-7.880E-06,0.060
-7.870E-06,0.100
-7.860E-06,0.060
-7.850E-06,0.040
-7.840E-06,0.020
-7.830E-06,0.040
-7.820E-06,0.060
-7.810E-06,0.060
-7.800E-06,0.060
-7.790E-06,0.060
-7.780E-06,0.060
-7.770E-06,0.060
-7.760E-06,0.060
-7.750E-06,0.060
-7.740E-06,0.080
-7.730E-06,0.060
-7.720E-06,0.040
-7.710E-06,0.080
-7.700E-06,0.060
-7.690E-06,0.080
-7.680E-06,0.060
-7.670E-06,0.040
-7.660E-06,0.080
-7.650E-06,0.040
-7.640E-06,0.100
-7.630E-06,0.040
-7.620E-06,0.080
-7.610E-06,0.060
-7.600E-06,0.040
-7.590E-06,0.040
-7.580E-06,0.040
-7.570E-06,0.060
-7.560E-06,0.080
-7.550E-06,0.080
-7.540E-06,0.020
-7.530E-06,0.040
-7.520E-06,0.120
-7.510E-06,0.060
-7.500E-06,0.040
-7.490E-06,0.060
-7.480E-06,0.080
-7.470E-06,0.060
-7.460E-06,0.060
-7.450E-06,0.100
-7.440E-06,0.060
-7.430E-06,0.020
-7.420E-06,0.060
-7.410E-06,0.080
-7.400E-06,0.060
-7.390E-06,0.060
-7.380E-06,0.040
-7.370E-06,0.060
-7.360E-06,0.060
-7.350E-06,0.080
-7.340E-06,0.060
-7.330E-06,0.040
-7.320E-06,0.040
-7.310E-06,0.060
-7.300E-06,0.040
-7.290E-06,0.040
-7.280E-06,0.080
-7.270E-06,0.080
-7.260E-06,0.080
-7.250E-06,0.080
-7.240E-06,0.040
-7.230E-06,0.060
-7.220E-06,0.060
-7.210E-06,0.100
-7.200E-06,0.080
-7.190E-06,0.060
-7.180E-06,0.040
-7.170E-06,0.060
-7.160E-06,0.040
-7.150E-06,0.080
-7.140E-06,0.060
-7.130E-06,0.060
-7.120E-06,0.060
-7.110E-06,0.060
-7.100E-06,0.080
-7.090E-06,0.040
-7.080E-06,0.060
-7.070E-06,0.080
-7.060E-06,0.060
-7.050E-06,0.060
-7.040E-06,0.080
-7.030E-06,0.060
-7.020E-06,0.060
-7.010E-06,0.080
-7.000E-06,0.060
-6.990E-06,0.040
-6.980E-06,0.060
-6.970E-06,0.060
-6.960E-06,0.060
-6.950E-06,0.060
-6.940E-06,0.040
-6.930E-06,0.040
-6.920E-06,0.120
-6.910E-06,0.060
-6.900E-06,0.040
-6.890E-06,0.080
-6.880E-06,0.040
-6.870E-06,0.060
-6.860E-06,0.040
-6.850E-06,0.080
-6.840E-06,0.080
-6.830E-06,0.060
-6.820E-06,0.060
-6.810E-06,0.080
-6.800E-06,0.060
-6.790E-06,0.060
-6.780E-06,0.080
-6.770E-06,0.060
-6.760E-06,0.040
-6.750E-06,0.040
-6.740E-06,0.060
-6.730E-06,0.060
-6.720E-06,0.080
-6.710E-06,0.060
-6.700E-06,0.060
-6.690E-06,0.040
-6.680E-06,0.100
-6.670E-06,0.080
-6.660E-06,0.040
-6.650E-06,0.060
-6.640E-06,0.040
-6.630E-06,0.080
-6.620E-06,0.040
-6.610E-06,0.060
-6.600E-06,0.080
-6.590E-06,0.080
-6.580E-06,0.040
-6.570E-06,0.080
-6.560E-06,0.080
-6.550E-06,0.040
-6.540E-06,0.040
-6.530E-06,0.060
-6.520E-06,0.060
-6.510E-06,0.080
-6.500E-06,0.060
-6.490E-06,0.060
-6.480E-06,0.060
-6.470E-06,0.060
-6.460E-06,0.080
-6.450E-06,0.060
-6.440E-06,0.060
-6.430E-06,0.060
-6.420E-06,0.060
-6.410E-06,0.040
-6.400E-06,0.040
-6.390E-06,0.080
-6.380E-06,0.080
-6.370E-06,0.080
-6.360E-06,0.040
-6.350E-06,0.080
-6.340E-06,0.080
-6.330E-06,0.080
-6.320E-06,0.060
-6.310E-06,0.040
-6.300E-06,0.040
-6.290E-06,0.060
-6.280E-06,0.040
-6.270E-06,0.060
-6.260E-06,0.060
-6.250E-06,0.040
-6.240E-06,0.080
-6.230E-06,0.080
-6.220E-06,0.080
-6.210E-06,0.080
-6.200E-06,0.060
-6.190E-06,0.060
-6.180E-06,0.040
-6.170E-06,0.080
-6.160E-06,0.080
-6.150E-06,0.060
-6.140E-06,0.040
-6.130E-06,0.060
-6.120E-06,0.040
-6.110E-06,0.080
-6.100E-06,0.020
-6.090E-06,0.080
-6.080E-06,0.060
-6.070E-06,0.060
-6.060E-06,0.060
-6.050E-06,0.080
-6.040E-06,0.080
-6.030E-06,0.040
-6.020E-06,0.080
-6.010E-06,0.060
-6.000E-06,0.060
-5.990E-06,0.060
-5.980E-06,0.080
-5.970E-06,0.060
-5.960E-06,0.040
-5.950E-06,0.020
-5.940E-06,0.060
-5.930E-06,0.080
-5.920E-06,0.080
-5.910E-06,0.040
-5.900E-06,0.040
-5.890E-06,0.060
-5.880E-06,0.120
-5.870E-06,0.080
-5.860E-06,0.080
-5.850E-06,0.060
-5.840E-06,0.060
-5.830E-06,0.040
-5.820E-06,0.060
-5.810E-06,0.080
-5.800E-06,0.080
-5.790E-06,0.060
-5.780E-06,0.060
-5.770E-06,0.080
-5.760E-06,0.080
-5.750E-06,0.040
-5.740E-06,0.060
-5.730E-06,0.060
-5.720E-06,0.060
-5.710E-06,0.060
-5.700E-06,0.080
-5.690E-06,0.080
-5.680E-06,0.060
-5.670E-06,0.060
-5.660E-06,0.040
-5.650E-06,0.060
-5.640E-06,0.040
-5.630E-06,0.080
-5.620E-06,0.080
-5.610E-06,0.040
-5.600E-06,0.060
-5.590E-06,0.060
-5.580E-06,0.040
-5.570E-06,0.060
-5.560E-06,0.080
-5.550E-06,0.080
-5.540E-06,0.080
-5.530E-06,0.060
-5.520E-06,0.040
-5.510E-06,0.040
-5.500E-06,0.040
-5.490E-06,0.060
-5.480E-06,0.060
-5.470E-06,0.040
-5.460E-06,0.040
-5.450E-06,0.060
-5.440E-06,0.060
-5.430E-06,0.080
-5.420E-06,0.060
-5.410E-06,0.060
-5.400E-06,0.040
-5.390E-06,0.060
-5.380E-06,0.060
-5.370E-06,0.080
-5.360E-06,0.060
-5.350E-06,0.060
-5.340E-06,0.120
-5.330E-06,0.080
-5.320E-06,0.060
-5.310E-06,0.080
-5.300E-06,0.040
-5.290E-06,0.060
-5.280E-06,0.060
-5.270E-06,0.040
-5.260E-06,0.060
-5.250E-06,0.040
-5.240E-06,0.080
-5.230E-06,0.040
-5.220E-06,0.080
-5.210E-06,0.060
-5.200E-06,0.060
-5.190E-06,0.040
-5.180E-06,0.040
-5.170E-06,0.040
-5.160E-06,0.060
-5.150E-06,0.040
-5.140E-06,0.060
-5.130E-06,0.060
-5.120E-06,0.060
-5.110E-06,0.080
-5.100E-06,0.060
-5.090E-06,0.060
-5.080E-06,0.080
-5.070E-06,0.080
-5.060E-06,0.060
-5.050E-06,0.040
-5.040E-06,0.040
-5.030E-06,0.060
-5.020E-06,0.020
-5.010E-06,0.060
-5.000E-06,0.080
-4.990E-06,0.060
-4.980E-06,0.060
-4.970E-06,0.040
-4.960E-06,0.060
-4.950E-06,0.040
-4.940E-06,0.080
-4.930E-06,0.080
-4.920E-06,0.080
-4.910E-06,0.060
-4.900E-06,0.040
-4.890E-06,0.060
-4.880E-06,0.060
-4.870E-06,0.080
-4.860E-06,0.060
-4.850E-06,0.060
-4.840E-06,0.060
-4.830E-06,0.060
-4.820E-06,0.080
-4.810E-06,0.080
-4.800E-06,0.100
-4.790E-06,0.060
-4.780E-06,0.040
-4.770E-06,0.040
-4.760E-06,0.060
-4.750E-06,0.080
-4.740E-06,0.060
-4.730E-06,0.060
-4.720E-06,0.040
-4.710E-06,0.100
-4.700E-06,0.060
-4.690E-06,0.060
-4.680E-06,0.080
-4.670E-06,0.040
-4.660E-06,0.060
-4.650E-06,0.060
-4.640E-06,0.080
-4.630E-06,0.040
-4.620E-06,0.040
-4.610E-06,0.040
-4.600E-06,0.080
-4.590E-06,0.060
-4.580E-06,0.060
-4.570E-06,0.040
-4.560E-06,0.060
-4.550E-06,0.060
-4.540E-06,0.080
-4.530E-06,0.060
-4.520E-06,0.080
-4.510E-06,0.040
-4.500E-06,0.060
-4.490E-06,0.080
-4.480E-06,0.060
-4.470E-06,0.040
-4.460E-06,0.060
-4.450E-06,0.060
-4.440E-06,0.040
-4.430E-06,0.040
-4.420E-06,0.080
-4.410E-06,0.060
-4.400E-06,0.040
-4.390E-06,0.060
-4.380E-06,0.060
-4.370E-06,0.040
-4.360E-06,0.040
-4.350E-06,0.060
-4.340E-06,0.080
-4.330E-06,0.080
-4.320E-06,0.060
-4.310E-06,0.040
-4.300E-06,0.080
-4.290E-06,0.060
-4.280E-06,0.020
-4.270E-06,0.060
-4.260E-06,0.040
-4.250E-06,0.060
-4.240E-06,0.060
-4.230E-06,0.060
-4.220E-06,0.060
-4.210E-06,0.060
-4.200E-06,0.040
-4.190E-06,0.040
-4.180E-06,0.080
-4.170E-06,0.040
-4.160E-06,0.040
-4.150E-06,0.060
-4.140E-06,0.040
-4.130E-06,0.080
-4.120E-06,0.040
-4.110E-06,0.080
-4.100E-06,0.060
-4.090E-06,0.040
-4.080E-06,0.080
-4.070E-06,0.120
-4.060E-06,0.060
-4.050E-06,0.080
-4.040E-06,0.040
-4.030E-06,0.040
-4.020E-06,0.060
-4.010E-06,0.080
-4.000E-06,0.060
-3.990E-06,0.060
-3.980E-06,0.060
-3.970E-06,0.040
-3.960E-06,0.060
-3.950E-06,0.080
-3.940E-06,0.060
-3.930E-06,0.080
-3.920E-06,0.040
-3.910E-06,0.040
-3.900E-06,0.060
-3.890E-06,0.080
-3.880E-06,0.080
-3.870E-06,0.040
-3.860E-06,0.080
-3.850E-06,0.060
-3.840E-06,0.080
-3.830E-06,0.060
-3.820E-06,0.060
-3.810E-06,0.060
-3.800E-06,0.080
-3.790E-06,0.080
-3.780E-06,0.060
-3.770E-06,0.060
-3.760E-06,0.040
-3.750E-06,0.060
-3.740E-06,0.080
-3.730E-06,0.060
-3.720E-06,0.100
-3.710E-06,0.040
-3.700E-06,0.060
-3.690E-06,0.080
-3.680E-06,0.060
-3.670E-06,0.060
-3.660E-06,0.040
-3.650E-06,0.060
-3.640E-06,0.040
-3.630E-06,0.080
-3.620E-06,0.040
-3.610E-06,0.060
-3.600E-06,0.020
-3.590E-06,0.080
-3.580E-06,0.080
-3.570E-06,0.060
-3.560E-06,0.060
-3.550E-06,0.040
-3.540E-06,0.080
-3.530E-06,0.020
-3.520E-06,0.060
-3.510E-06,0.080
-3.500E-06,0.080
-3.490E-06,0.080
-3.480E-06,0.080
-3.470E-06,0.080
-3.460E-06,0.060
-3.450E-06,0.080
-3.440E-06,0.060
-3.430E-06,0.040
-3.420E-06,0.080
-3.410E-06,0.060
-3.400E-06,0.040
-3.390E-06,0.060
-3.380E-06,0.100
-3.370E-06,0.060
-3.360E-06,0.080
-3.350E-06,0.060
-3.340E-06,0.040
-3.330E-06,0.040
-3.320E-06,0.100
-3.310E-06,0.040
-3.300E-06,0.080
-3.290E-06,0.060
-3.280E-06,0.060
-3.270E-06,0.040
-3.260E-06,0.060
-3.250E-06,0.040
-3.240E-06,0.040
-3.230E-06,0.060
-3.220E-06,0.040
-3.210E-06,0.060
-3.200E-06,0.080
-3.190E-06,0.060
-3.180E-06,0.060
-3.170E-06,0.080
-3.160E-06,0.060
-3.150E-06,0.060
-3.140E-06,0.080
-3.130E-06,0.040
-3.120E-06,0.060
-3.110E-06,0.080
-3.100E-06,0.060
-3.090E-06,0.000
-3.080E-06,-0.260
-3.070E-06,-0.900
-3.060E-06,-1.940
-3.050E-06,-2.120
-3.040E-06,-2.120
-3.030E-06,-2.120
-3.020E-06,-2.120
-3.010E-06,-1.240
-3.000E-06,0.100
-2.990E-06,1.440
-2.980E-06,2.600
-2.970E-06,3.280
-2.960E-06,3.300
-2.950E-06,3.320
-2.940E-06,3.300
-2.930E-06,3.300
-2.920E-06,2.640
-2.910E-06,1.600
-2.900E-06,0.660
-2.890E-06,-0.080
-2.880E-06,-0.600
-2.870E-06,-0.780
-2.860E-06,-0.720
-2.850E-06,-0.520
-2.840E-06,-0.360
-2.830E-06,-0.280
-2.820E-06,-0.420
-2.810E-06,-0.740
-2.800E-06,-1.120
-2.790E-06,-1.500
-2.780E-06,-1.840
-2.770E-06,-2.000
-2.760E-06,-2.040
-2.750E-06,-1.900
-2.740E-06,-1.600
-2.730E-06,-1.020
-2.720E-06,-0.460
-2.710E-06,0.280
-2.700E-06,0.940
-2.690E-06,1.540
-2.680E-06,1.820
-2.670E-06,1.880
-2.660E-06,1.780
-2.650E-06,1.420
-2.640E-06,1.000
-2.630E-06,0.540
-2.620E-06,0.020
-2.610E-06,-0.420
-2.600E-06,-0.720
-2.590E-06,-0.900
-2.580E-06,-1.060
-2.570E-06,-1.040
-2.560E-06,-0.880
-2.550E-06,-0.680
-2.540E-06,-0.520
-2.530E-06,-0.360
-2.520E-06,-0.200
-2.510E-06,-0.040
-2.500E-06,0.300
-2.490E-06,0.720
-2.480E-06,0.740
-2.470E-06,1.020
-2.460E-06,1.140
-2.450E-06,1.180
-2.440E-06,1.040
-2.430E-06,1.020
-2.420E-06,0.980
-2.410E-06,0.800
-2.400E-06,0.600
-2.390E-06,0.400
-2.380E-06,0.180
-2.370E-06,-0.040
-2.360E-06,-0.180
-2.350E-06,-0.340
-2.340E-06,-0.480
-2.330E-06,-0.500
-2.320E-06,-0.560
-2.310E-06,-0.620
-2.300E-06,-0.660
-2.290E-06,-0.660
-2.280E-06,-0.640
-2.270E-06,-0.540
-2.260E-06,-0.400
-2.250E-06,-0.180
-2.240E-06,0.060
-2.230E-06,0.320
-2.220E-06,0.560
-2.210E-06,0.740
-2.200E-06,0.920
-2.190E-06,1.000
-2.180E-06,1.020
-2.170E-06,0.880
-2.160E-06,0.760
-2.150E-06,0.480
-2.140E-06,0.280
-2.130E-06,-0.080
-2.120E-06,-0.200
-2.110E-06,-0.340
-2.100E-06,-0.360
-2.090E-06,-0.260
-2.080E-06,-0.700
-2.070E-06,-0.500
-2.060E-06,-0.460
-2.050E-06,0.100
-2.040E-06,-0.200
-2.030E-06,-0.020
-2.020E-06,-0.160
-2.010E-06,-0.080
-2.000E-06,-0.320
-1.990E-06,-0.420
-1.980E-06,-0.360
-1.970E-06,-0.100
-1.960E-06,0.140
-1.950E-06,0.300
-1.940E-06,0.460
-1.930E-06,0.340
-1.920E-06,0.420
-1.910E-06,0.240
-1.900E-06,-0.240
-1.890E-06,-0.100
-1.880E-06,0.000
-1.870E-06,0.180
-1.860E-06,0.380
-1.850E-06,0.000
-1.840E-06,0.140
-1.830E-06,0.120
-1.820E-06,-0.280
-1.810E-06,-0.020
-1.800E-06,-0.320
-1.790E-06,0.120
-1.780E-06,0.300
-1.770E-06,0.080
-1.760E-06,0.440
-1.750E-06,0.200
-1.740E-06,0.100
-1.730E-06,0.020
-1.720E-06,-0.060
-1.710E-06,-0.020
-1.700E-06,-0.120
-1.690E-06,0.040
-1.680E-06,-0.040
-1.670E-06,0.040
-1.660E-06,0.140
-1.650E-06,0.140
-1.640E-06,0.240
-1.630E-06,0.280
-1.620E-06,0.220
-1.610E-06,0.180
-1.600E-06,0.020
-1.590E-06,0.000
-1.580E-06,0.020
-1.570E-06,-0.040
-1.560E-06,-0.260
-1.550E-06,-0.120
-1.540E-06,0.020
-1.530E-06,0.200
-1.520E-06,-0.120
-1.510E-06,-0.060
-1.500E-06,-0.060
-1.490E-06,0.400
-1.480E-06,-0.340
-1.470E-06,0.180
-1.460E-06,-0.060
-1.450E-06,-0.340
-1.440E-06,-0.660
-1.430E-06,0.400
-1.420E-06,-0.800
-1.410E-06,-0.520
-1.400E-06,-0.460
-1.390E-06,-0.320
-1.380E-06,-0.220
-1.370E-06,-0.180
-1.360E-06,-0.260
-1.350E-06,0.420
-1.340E-06,-0.500
-1.330E-06,0.000
-1.320E-06,-0.340
-1.310E-06,0.100
-1.300E-06,-0.380
-1.290E-06,0.120
-1.280E-06,-0.240
-1.270E-06,0.200
-1.260E-06,-0.100
-1.250E-06,-0.040
-1.240E-06,0.320
-1.230E-06,0.860
-1.220E-06,1.600
-1.210E-06,2.160
-1.200E-06,2.420
-1.190E-06,2.300
-1.180E-06,1.540
-1.170E-06,0.520
-1.160E-06,-0.480
-1.150E-06,-1.380
-1.140E-06,-2.100
-1.130E-06,-2.120
-1.120E-06,-2.120
-1.110E-06,-2.120
-1.100E-06,-1.800
-1.090E-06,-1.160
-1.080E-06,-0.660
-1.070E-06,-0.120
-1.060E-06,0.220
-1.050E-06,0.420
-1.040E-06,0.480
-1.030E-06,0.280
-1.020E-06,-0.020
-1.010E-06,-0.440
-1.000E-06,-0.680
-9.900E-07,-0.900
-9.800E-07,-0.860
-9.700E-07,-0.840
-9.600E-07,-0.620
-9.500E-07,-0.160
-9.400E-07,0.120
-9.300E-07,0.620
-9.200E-07,0.780
-9.100E-07,0.960
-9.000E-07,0.900
-8.900E-07,0.520
-8.800E-07,0.120
-8.700E-07,-0.300
-8.600E-07,-0.860
-8.500E-07,-1.240
-8.400E-07,-1.560
-8.300E-07,-1.700
-8.200E-07,-1.680
-8.100E-07,-1.600
-8.000E-07,-1.240
-7.900E-07,-0.880
-7.800E-07,-0.460
-7.700E-07,0.040
-7.600E-07,0.440
-7.500E-07,0.760
-7.400E-07,1.080
-7.300E-07,1.140
-7.200E-07,1.140
-7.100E-07,1.240
-7.000E-07,0.740
-6.900E-07,0.500
-6.800E-07,0.160
-6.700E-07,-0.380
-6.600E-07,-0.700
-6.500E-07,-1.060
-6.400E-07,-1.240
-6.300E-07,-1.260
-6.200E-07,-1.260
-6.100E-07,-1.160
-6.000E-07,-1.020
-5.900E-07,-0.860
-5.800E-07,-0.800
-5.700E-07,-0.780
-5.600E-07,-0.800
-5.500E-07,-0.820
-5.400E-07,-0.960
-5.300E-07,-1.000
-5.200E-07,-0.940
-5.100E-07,-0.820
-5.000E-07,-0.660
-4.900E-07,-0.360
-4.800E-07,-0.120
-4.700E-07,0.100
-4.600E-07,0.280
-4.500E-07,0.480
-4.400E-07,0.560
-4.300E-07,0.700
-4.200E-07,0.820
-4.100E-07,0.760
-4.000E-07,0.520
-3.900E-07,0.200
-3.800E-07,-0.260
-3.700E-07,-0.600
-3.600E-07,-0.840
-3.500E-07,-0.900
-3.400E-07,-0.800
-3.300E-07,-0.760
-3.200E-07,-0.580
-3.100E-07,-0.180
-3.000E-07,-0.380
-2.900E-07,-0.040
-2.800E-07,0.040
-2.700E-07,0.100
-2.600E-07,0.260
-2.500E-07,0.420
-2.400E-07,0.380
-2.300E-07,0.540
-2.200E-07,0.340
-2.100E-07,0.120
-2.000E-07,0.100
-1.900E-07,-0.360
-1.800E-07,-0.240
-1.700E-07,0.000
-1.600E-07,0.380
-1.500E-07,0.700
-1.400E-07,0.980
-1.300E-07,2.040
-1.200E-07,1.300
-1.100E-07,1.200
-1.000E-07,0.760
-9.000E-08,-0.760
-8.000E-08,-1.080
-7.000E-08,-2.120
-6.000E-08,-1.500
-5.000E-08,0.060
-4.000E-08,0.100
-3.000E-08,-0.140
-2.000E-08,-1.380
-1.000E-08,-2.140
0.000E+00,-2.140
1.000E-08,-2.120
2.000E-08,-2.120
3.000E-08,-2.120
4.000E-08,-2.140
5.000E-08,-2.140
6.000E-08,-2.000
7.000E-08,-1.920
8.000E-08,-1.880
9.000E-08,-2.020
1.000E-07,-1.860
1.100E-07,-1.600
1.200E-07,-0.880
1.300E-07,0.160
1.400E-07,0.380
1.500E-07,1.260
1.600E-07,0.520
1.700E-07,0.680
1.800E-07,0.220
1.900E-07,0.280
2.000E-07,0.280
2.100E-07,0.400
2.200E-07,0.180
2.300E-07,0.160
2.400E-07,-0.140
2.500E-07,-0.340
2.600E-07,-0.640
2.700E-07,-0.940
2.800E-07,-1.120
2.900E-07,-1.160
3.000E-07,-1.100
3.100E-07,-0.900
3.200E-07,-0.640
3.300E-07,-0.320
3.400E-07,0.020
3.500E-07,0.340
3.600E-07,0.580
3.700E-07,0.840
3.800E-07,1.040
3.900E-07,1.200
4.000E-07,1.280
4.100E-07,1.200
4.200E-07,1.100
4.300E-07,0.840
4.400E-07,0.540
4.500E-07,0.060
4.600E-07,-0.380
4.700E-07,-0.760
4.800E-07,-1.000
4.900E-07,-1.060
5.000E-07,-1.120
5.100E-07,-0.980
5.200E-07,-1.040
5.300E-07,-1.080
5.400E-07,-1.140
5.500E-07,-1.000
5.600E-07,-0.740
5.700E-07,-0.500
5.800E-07,-0.420
5.900E-07,-0.140
6.000E-07,-0.180
6.100E-07,-0.460
6.200E-07,-0.180
6.300E-07,0.480
6.400E-07,2.440
6.500E-07,3.300
6.600E-07,3.300
6.700E-07,3.300
6.800E-07,3.140
6.900E-07,1.760
7.000E-07,2.300
7.100E-07,-2.120
7.200E-07,-2.120
7.300E-07,-2.120
7.400E-07,-2.140
7.500E-07,-2.140
7.600E-07,-2.120
7.700E-07,-2.120
7.800E-07,-2.120
7.900E-07,-2.120
8.000E-07,-2.120
8.100E-07,-2.120
8.200E-07,-2.120
8.300E-07,-2.120
8.400E-07,-0.700
8.500E-07,0.880
8.600E-07,2.160
8.700E-07,3.140
8.800E-07,3.300
8.900E-07,3.300
9.000E-07,3.300
9.100E-07,3.320
9.200E-07,3.320
9.300E-07,3.300
9.400E-07,3.300
9.500E-07,3.320
9.600E-07,3.020
9.700E-07,2.220
9.800E-07,1.560
9.900E-07,0.800
1.000E-06,0.140
1.010E-06,-0.460
1.020E-06,-0.740
1.030E-06,-1.000
1.040E-06,-1.020
1.050E-06,-1.040
1.060E-06,-0.720
1.070E-06,-0.500
1.080E-06,0.080
1.090E-06,0.600
1.100E-06,1.340
1.110E-06,1.880
1.120E-06,2.300
1.130E-06,2.480
1.140E-06,2.400
1.150E-06,2.080
1.160E-06,1.640
1.170E-06,0.960
1.180E-06,0.160
1.190E-06,-0.740
1.200E-06,-1.700
1.210E-06,-2.120
1.220E-06,-2.120
1.230E-06,-2.120
1.240E-06,-2.120
1.250E-06,-2.120
1.260E-06,-2.120
1.270E-06,-2.140
1.280E-06,-2.140
1.290E-06,-2.140
1.300E-06,-2.120
1.310E-06,-2.120
1.320E-06,-2.100
1.330E-06,-2.120
1.340E-06,-2.120
1.350E-06,-2.020
1.360E-06,-1.740
1.370E-06,-1.660
1.380E-06,-1.260
1.390E-06,-0.960
1.400E-06,-0.540
1.410E-06,-0.240
1.420E-06,-0.160
1.430E-06,-0.180
1.440E-06,-0.300
1.450E-06,-0.560
1.460E-06,-0.760
1.470E-06,-1.020
1.480E-06,-1.260
1.490E-06,-1.460
1.500E-06,-1.620
1.510E-06,-1.640
1.520E-06,-1.600
1.530E-06,-1.360
1.540E-06,-1.080
1.550E-06,-0.680
1.560E-06,-0.220
1.570E-06,0.240
1.580E-06,0.680
1.590E-06,1.120
1.600E-06,1.520
1.610E-06,1.780
1.620E-06,1.960
1.630E-06,2.060
1.640E-06,2.060
1.650E-06,1.960
1.660E-06,1.760
1.670E-06,1.560
1.680E-06,1.380
1.690E-06,1.220
1.700E-06,1.060
1.710E-06,0.920
1.720E-06,0.780
1.730E-06,0.720
1.740E-06,0.580
1.750E-06,0.480
1.760E-06,0.360
1.770E-06,0.200
1.780E-06,0.080
1.790E-06,-0.120
1.800E-06,-0.240
1.810E-06,-0.380
1.820E-06,-0.460
1.830E-06,-0.520
1.840E-06,-0.620
1.850E-06,-0.580
1.860E-06,-0.560
1.870E-06,-0.460
1.880E-06,-0.340
1.890E-06,-0.280
1.900E-06,-0.120
1.910E-06,-0.060
1.920E-06,0.020
1.930E-06,0.080
1.940E-06,0.100
1.950E-06,0.100
1.960E-06,0.100
1.970E-06,0.100
1.980E-06,0.160
1.990E-06,0.180
2.000E-06,0.260
2.010E-06,0.340
2.020E-06,0.420
2.030E-06,0.520
2.040E-06,0.600
2.050E-06,0.700
2.060E-06,0.760
2.070E-06,0.780
2.080E-06,0.760
2.090E-06,0.800
2.100E-06,0.780
2.110E-06,0.760
2.120E-06,0.740
2.130E-06,0.740
2.140E-06,0.700
2.150E-06,0.720
2.160E-06,0.760
2.170E-06,0.780
2.180E-06,0.800
2.190E-06,0.780
2.200E-06,0.760
2.210E-06,0.720
2.220E-06,0.720
2.230E-06,0.640
2.240E-06,0.580
2.250E-06,0.540
2.260E-06,0.520
2.270E-06,0.480
2.280E-06,0.440
2.290E-06,0.400
2.300E-06,0.360
2.310E-06,0.320
2.320E-06,0.280
2.330E-06,0.260
2.340E-06,0.240
2.350E-06,0.220
2.360E-06,0.260
2.370E-06,0.280
2.380E-06,0.320
2.390E-06,0.360
2.400E-06,0.380
2.410E-06,0.380
2.420E-06,0.400
2.430E-06,0.440
2.440E-06,0.440
2.450E-06,0.420
2.460E-06,0.440
2.470E-06,0.440
2.480E-06,0.440
2.490E-06,0.420
2.500E-06,0.440
2.510E-06,0.460
2.520E-06,0.500
2.530E-06,0.520
2.540E-06,0.540
2.550E-06,0.560
2.560E-06,0.520
2.570E-06,0.520
2.580E-06,0.480
2.590E-06,0.420
2.600E-06,0.380
2.610E-06,0.360
2.620E-06,0.740
2.630E-06,1.100
2.640E-06,1.820
2.650E-06,1.500
2.660E-06,0.900
2.670E-06,-0.100
2.680E-06,-0.060
2.690E-06,-0.400
2.700E-06,-0.320
2.710E-06,-0.560
2.720E-06,-0.340
2.730E-06,-0.320
2.740E-06,-0.160
2.750E-06,0.040
2.760E-06,0.360
2.770E-06,0.700
2.780E-06,0.860
2.790E-06,1.080
2.800E-06,1.140
2.810E-06,1.020
2.820E-06,0.940
2.830E-06,0.840
2.840E-06,0.700
2.850E-06,0.540
2.860E-06,0.500
2.870E-06,0.460
2.880E-06,0.440
2.890E-06,0.440
2.900E-06,0.500
2.910E-06,0.540
2.920E-06,0.520
2.930E-06,0.580
2.940E-06,0.620
2.950E-06,0.640
2.960E-06,0.660
2.970E-06,0.680
2.980E-06,0.700
2.990E-06,0.700
3.000E-06,0.740
3.010E-06,0.760
3.020E-06,0.780
3.030E-06,0.880
3.040E-06,0.960
3.050E-06,1.020
3.060E-06,1.120
3.070E-06,1.180
3.080E-06,1.200
3.090E-06,1.160
3.100E-06,1.100
3.110E-06,0.940
3.120E-06,0.860
3.130E-06,0.740
3.140E-06,0.560
3.150E-06,0.480
3.160E-06,0.420
3.170E-06,0.300
3.180E-06,0.320
3.190E-06,0.300
3.200E-06,0.360
3.210E-06,0.380
3.220E-06,0.400
3.230E-06,0.480
3.240E-06,0.540
3.250E-06,0.580
3.260E-06,0.660
3.270E-06,0.720
3.280E-06,0.760
3.290E-06,0.820
3.300E-06,0.820
3.310E-06,0.820
3.320E-06,0.800
3.330E-06,0.760
3.340E-06,0.760
3.350E-06,0.740
3.360E-06,0.700
3.370E-06,0.640
3.380E-06,0.640
3.390E-06,0.580
3.400E-06,0.560
