mediciones/curva carac 8-28 limpias/58/WaveData65569.csv

#timebase=2000000(ps)
,#voltbase=500000(mv/100)
#size=4000
-8.350E-06,0.060
-8.340E-06,0.080
-8.330E-06,0.040
-8.320E-06,0.040
-8.310E-06,0.080
-8.300E-06,0.040
-8.290E-06,0.060
-8.280E-06,0.080
-8.270E-06,0.040
-8.260E-06,0.040
-8.250E-06,0.120
-8.240E-06,0.060
-8.230E-06,0.060
-8.220E-06,0.060
-8.210E-06,0.080
-8.200E-06,0.060
-8.190E-06,0.040
-8.180E-06,0.060
-8.170E-06,0.060
-8.160E-06,0.060
-8.150E-06,0.040
-8.140E-06,0.040
-8.130E-06,0.080
-8.120E-06,0.040
-8.110E-06,0.080
-8.100E-06,0.060
-8.090E-06,0.080
-8.080E-06,0.080
-8.070E-06,0.060
-8.060E-06,0.060
-8.050E-06,0.060
-8.040E-06,0.080
-8.030E-06,0.080
-8.020E-06,0.100
-8.010E-06,0.040
-8.000E-06,0.040
-7.990E-06,0.080
-7.980E-06,0.040
-7.970E-06,0.040
-7.960E-06,0.060
-7.950E-06,0.060
-7.940E-06,0.060
-7.930E-06,0.040
-7.920E-06,0.080
-7.910E-06,0.080
-7.900E-06,0.040
-7.890E-06,0.060
-7.880E-06,0.080
-7.870E-06,0.060
-7.860E-06,0.060
-7.850E-06,0.060
-7.840E-06,0.040
-7.830E-06,0.060
-7.820E-06,0.080
-7.810E-06,0.080
-7.800E-06,0.060
-7.790E-06,0.060
-7.780E-06,0.060
-7.770E-06,0.060
-7.760E-06,0.060
-7.750E-06,0.080
-7.740E-06,0.060
-7.730E-06,0.060
-7.720E-06,0.060
-7.710E-06,0.100
-7.700E-06,0.080
-7.690E-06,0.060
-7.680E-06,0.080
-7.670E-06,0.080
-7.660E-06,0.040
-7.650E-06,0.060
-7.640E-06,0.060
-7.630E-06,0.060
-7.620E-06,0.040
-7.610E-06,0.060
-7.600E-06,0.080
-7.590E-06,0.080
-7.580E-06,0.120
-7.570E-06,0.060
-7.560E-06,0.060
-7.550E-06,0.120
-7.540E-06,0.060
-7.530E-06,0.040
-7.520E-06,0.060
-7.510E-06,0.060
-7.500E-06,0.060
-7.490E-06,0.080
-7.480E-06,0.080
-7.470E-06,0.080
-7.460E-06,0.080
-7.450E-06,0.040
-7.440E-06,0.040
-7.430E-06,0.100
-7.420E-06,0.040
-7.410E-06,0.060
-7.400E-06,0.060
-7.390E-06,0.100
-7.380E-06,0.060
-7.370E-06,0.080
-7.360E-06,0.060
-7.350E-06,0.100
-7.340E-06,0.080
-7.330E-06,0.060
-7.320E-06,0.060
-7.310E-06,0.080
-7.300E-06,0.060
-7.290E-06,0.060
-7.280E-06,0.040
-7.270E-06,0.100
-7.260E-06,0.080
-7.250E-06,0.060
-7.240E-06,0.060
-7.230E-06,0.060
-7.220E-06,0.040
-7.210E-06,0.080
-7.200E-06,0.100
-7.190E-06,0.060
-7.180E-06,0.060
-7.170E-06,0.040
-7.160E-06,0.080
-7.150E-06,0.060
-7.140E-06,0.080
-7.130E-06,0.100
-7.120E-06,0.060
-7.110E-06,0.080
-7.100E-06,0.060
-7.090E-06,0.060
-7.080E-06,0.060
-7.070E-06,0.020
-7.060E-06,0.120
-7.050E-06,0.080
-7.040E-06,0.020
-7.030E-06,0.100
-7.020E-06,0.060
-7.010E-06,0.080
-7.000E-06,0.060
-6.990E-06,0.080
-6.980E-06,0.040
-6.970E-06,0.060
-6.960E-06,0.100
-6.950E-06,0.060
-6.940E-06,0.040
-6.930E-06,0.060
-6.920E-06,0.040
-6.910E-06,0.060
-6.900E-06,0.080
-6.890E-06,0.060
-6.880E-06,0.080
-6.870E-06,0.080
-6.860E-06,0.060
-6.850E-06,0.060
-6.840E-06,0.100
-6.830E-06,0.060
-6.820E-06,0.080
-6.810E-06,0.080
-6.800E-06,0.020
-6.790E-06,0.040
-6.780E-06,0.060
-6.770E-06,0.060
-6.760E-06,0.100
-6.750E-06,0.080
-6.740E-06,0.080
-6.730E-06,0.060
-6.720E-06,0.060
-6.710E-06,0.040
-6.700E-06,0.040
-6.690E-06,0.060
-6.680E-06,0.080
-6.670E-06,0.080
-6.660E-06,0.040
-6.650E-06,0.060
-6.640E-06,0.080
-6.630E-06,0.060
-6.620E-06,0.040
-6.610E-06,0.080
-6.600E-06,0.060
-6.590E-06,0.080
-6.580E-06,0.060
-6.570E-06,0.060
-6.560E-06,0.080
-6.550E-06,0.060
-6.540E-06,0.060
-6.530E-06,0.060
-6.520E-06,0.080
-6.510E-06,0.040
-6.500E-06,0.080
-6.490E-06,0.060
-6.480E-06,0.060
-6.470E-06,0.060
-6.460E-06,0.080
-6.450E-06,0.100
-6.440E-06,0.080
-6.430E-06,0.100
-6.420E-06,0.100
-6.410E-06,0.080
-6.400E-06,0.060
-6.390E-06,0.040
-6.380E-06,0.080
-6.370E-06,0.080
-6.360E-06,0.080
-6.350E-06,0.080
-6.340E-06,0.080
-6.330E-06,0.040
-6.320E-06,0.060
-6.310E-06,0.060
-6.300E-06,0.040
-6.290E-06,0.080
-6.280E-06,0.080
-6.270E-06,0.080
-6.260E-06,0.080
-6.250E-06,0.080
-6.240E-06,0.060
-6.230E-06,0.080
-6.220E-06,0.060
-6.210E-06,0.060
-6.200E-06,0.080
-6.190E-06,0.080
-6.180E-06,0.080
-6.170E-06,0.060
-6.160E-06,0.060
-6.150E-06,0.060
-6.140E-06,0.120
-6.130E-06,0.060
-6.120E-06,0.080
-6.110E-06,0.060
-6.100E-06,0.060
-6.090E-06,0.060
-6.080E-06,0.060
-6.070E-06,0.060
-6.060E-06,0.080
-6.050E-06,0.100
-6.040E-06,0.080
-6.030E-06,0.100
-6.020E-06,0.080
-6.010E-06,0.060
-6.000E-06,0.060
-5.990E-06,0.060
-5.980E-06,0.060
-5.970E-06,0.080
-5.960E-06,0.080
-5.950E-06,0.060
-5.940E-06,0.080
-5.930E-06,0.080
-5.920E-06,0.060
-5.910E-06,0.060
-5.900E-06,0.040
-5.890E-06,0.060
-5.880E-06,0.080
-5.870E-06,0.060
-5.860E-06,0.080
-5.850E-06,0.060
-5.840E-06,0.080
-5.830E-06,0.040
-5.820E-06,0.020
-5.810E-06,0.040
-5.800E-06,0.080
-5.790E-06,0.080
-5.780E-06,0.100
-5.770E-06,0.060
-5.760E-06,0.060
-5.750E-06,0.060
-5.740E-06,0.040
-5.730E-06,0.080
-5.720E-06,0.060
-5.710E-06,0.040
-5.700E-06,0.060
-5.690E-06,0.120
-5.680E-06,0.060
-5.670E-06,0.060
-5.660E-06,0.080
-5.650E-06,0.120
-5.640E-06,0.100
-5.630E-06,0.020
-5.620E-06,0.060
-5.610E-06,0.080
-5.600E-06,0.060
-5.590E-06,0.060
-5.580E-06,0.080
-5.570E-06,0.040
-5.560E-06,0.020
-5.550E-06,0.080
-5.540E-06,0.060
-5.530E-06,0.080
-5.520E-06,0.080
-5.510E-06,0.080
-5.500E-06,0.060
-5.490E-06,0.060
-5.480E-06,0.080
-5.470E-06,0.040
-5.460E-06,0.060
-5.450E-06,0.040
-5.440E-06,0.080
-5.430E-06,0.040
-5.420E-06,0.080
-5.410E-06,0.060
-5.400E-06,0.060
-5.390E-06,0.040
-5.380E-06,0.080
-5.370E-06,0.060
-5.360E-06,0.060
-5.350E-06,0.080
-5.340E-06,0.080
-5.330E-06,0.060
-5.320E-06,0.100
-5.310E-06,0.060
-5.300E-06,0.060
-5.290E-06,0.100
-5.280E-06,0.060
-5.270E-06,0.060
-5.260E-06,0.120
-5.250E-06,0.060
-5.240E-06,0.060
-5.230E-06,0.060
-5.220E-06,0.060
-5.210E-06,0.080
-5.200E-06,0.060
-5.190E-06,0.040
-5.180E-06,0.080
-5.170E-06,0.060
-5.160E-06,0.060
-5.150E-06,0.060
-5.140E-06,0.080
-5.130E-06,0.080
-5.120E-06,0.080
-5.110E-06,0.080
-5.100E-06,0.080
-5.090E-06,0.040
-5.080E-06,0.060
-5.070E-06,0.080
-5.060E-06,0.080
-5.050E-06,0.080
-5.040E-06,0.060
-5.030E-06,0.080
-5.020E-06,0.040
-5.010E-06,0.060
-5.000E-06,0.080
-4.990E-06,0.060
-4.980E-06,0.080
-4.970E-06,0.080
-4.960E-06,0.060
-4.950E-06,0.060
-4.940E-06,0.080
-4.930E-06,0.100
-4.920E-06,0.040
-4.910E-06,0.080
-4.900E-06,0.060
-4.890E-06,0.060
-4.880E-06,0.060
-4.870E-06,0.080
-4.860E-06,0.060
-4.850E-06,0.060
-4.840E-06,0.080
-4.830E-06,0.120
-4.820E-06,0.060
-4.810E-06,0.060
-4.800E-06,0.060
-4.790E-06,0.060
-4.780E-06,0.040
-4.770E-06,0.100
-4.760E-06,0.060
-4.750E-06,0.060
-4.740E-06,0.080
-4.730E-06,0.060
-4.720E-06,0.100
-4.710E-06,0.080
-4.700E-06,0.060
-4.690E-06,0.060
-4.680E-06,0.100
-4.670E-06,0.080
-4.660E-06,0.080
-4.650E-06,0.120
-4.640E-06,0.060
-4.630E-06,0.080
-4.620E-06,0.100
-4.610E-06,0.040
-4.600E-06,0.040
-4.590E-06,0.080
-4.580E-06,0.060
-4.570E-06,0.060
-4.560E-06,0.060
-4.550E-06,0.060
-4.540E-06,0.060
-4.530E-06,0.080
-4.520E-06,0.040
-4.510E-06,0.020
-4.500E-06,0.080
-4.490E-06,0.060
-4.480E-06,0.080
-4.470E-06,0.060
-4.460E-06,0.040
-4.450E-06,0.080
-4.440E-06,0.100
-4.430E-06,0.080
-4.420E-06,0.080
-4.410E-06,0.060
-4.400E-06,0.080
-4.390E-06,0.060
-4.380E-06,0.060
-4.370E-06,0.060
-4.360E-06,0.060
-4.350E-06,0.060
-4.340E-06,0.080
-4.330E-06,0.040
-4.320E-06,0.060
-4.310E-06,0.080
-4.300E-06,0.060
-4.290E-06,0.060
-4.280E-06,0.080
-4.270E-06,0.080
-4.260E-06,0.060
-4.250E-06,0.080
-4.240E-06,0.080
-4.230E-06,0.060
-4.220E-06,0.060
-4.210E-06,0.080
-4.200E-06,0.060
-4.190E-06,0.060
-4.180E-06,0.060
-4.170E-06,0.060
-4.160E-06,0.120
-4.150E-06,0.080
-4.140E-06,0.060
-4.130E-06,0.020
-4.120E-06,-0.100
-4.110E-06,-0.660
-4.100E-06,-1.560
-4.090E-06,-2.120
-4.080E-06,-2.120
-4.070E-06,-2.120
-4.060E-06,-2.140
-4.050E-06,-1.540
-4.040E-06,-0.240
-4.030E-06,1.140
-4.020E-06,2.300
-4.010E-06,3.120
-4.000E-06,3.300
-3.990E-06,3.320
-3.980E-06,3.320
-3.970E-06,3.300
-3.960E-06,2.760
-3.950E-06,1.880
-3.940E-06,0.880
-3.930E-06,0.140
-3.920E-06,-0.300
-3.910E-06,-0.800
-3.900E-06,-0.680
-3.890E-06,-0.480
-3.880E-06,-0.260
-3.870E-06,-0.060
-3.860E-06,-0.200
-3.850E-06,-0.300
-3.840E-06,-0.800
-3.830E-06,-1.320
-3.820E-06,-1.680
-3.810E-06,-2.060
-3.800E-06,-2.100
-3.790E-06,-1.980
-3.780E-06,-1.660
-3.770E-06,-1.180
-3.760E-06,-0.600
-3.750E-06,0.040
-3.740E-06,0.700
-3.730E-06,1.200
-3.720E-06,1.560
-3.710E-06,1.760
-3.700E-06,1.620
-3.690E-06,1.440
-3.680E-06,1.120
-3.670E-06,0.580
-3.660E-06,0.160
-3.650E-06,-0.280
-3.640E-06,-0.640
-3.630E-06,-0.840
-3.620E-06,-0.940
-3.610E-06,-0.880
-3.600E-06,-0.840
-3.590E-06,-0.640
-3.580E-06,-0.520
-3.570E-06,-0.360
-3.560E-06,-0.200
-3.550E-06,0.000
-3.540E-06,0.220
-3.530E-06,0.400
-3.520E-06,0.600
-3.510E-06,0.800
-3.500E-06,0.980
-3.490E-06,1.020
-3.480E-06,1.060
-3.470E-06,1.020
-3.460E-06,0.940
-3.450E-06,0.800
-3.440E-06,0.660
-3.430E-06,0.480
-3.420E-06,0.400
-3.410E-06,0.200
-3.400E-06,0.040
-3.390E-06,-0.100
-3.380E-06,-0.280
-3.370E-06,-0.420
-3.360E-06,-0.540
-3.350E-06,-0.560
-3.340E-06,-0.560
-3.330E-06,-0.620
-3.320E-06,-0.640
-3.310E-06,-0.540
-3.300E-06,-0.480
-3.290E-06,-0.320
-3.280E-06,-0.060
-3.270E-06,0.200
-3.260E-06,0.440
-3.250E-06,0.660
-3.240E-06,0.780
-3.230E-06,0.900
-3.220E-06,0.860
-3.210E-06,0.780
-3.200E-06,0.600
-3.190E-06,0.460
-3.180E-06,0.260
-3.170E-06,0.080
-3.160E-06,-0.140
-3.150E-06,-0.300
-3.140E-06,-0.420
-3.130E-06,-0.520
-3.120E-06,-0.480
-3.110E-06,-0.460
-3.100E-06,-0.380
-3.090E-06,-0.240
-3.080E-06,-0.140
-3.070E-06,-0.060
-3.060E-06,-0.020
-3.050E-06,0.020
-3.040E-06,-0.040
-3.030E-06,0.040
-3.020E-06,0.120
-3.010E-06,0.080
-3.000E-06,0.120
-2.990E-06,0.120
-2.980E-06,0.120
-2.970E-06,0.020
-2.960E-06,-0.040
-2.950E-06,0.160
-2.940E-06,0.400
-2.930E-06,-0.140
-2.920E-06,0.120
-2.910E-06,-0.020
-2.900E-06,0.120
-2.890E-06,-0.180
-2.880E-06,-0.020
-2.870E-06,-0.020
-2.860E-06,-0.060
-2.850E-06,-0.160
-2.840E-06,-0.100
-2.830E-06,-0.160
-2.820E-06,-0.040
-2.810E-06,-0.020
-2.800E-06,0.080
-2.790E-06,0.080
-2.780E-06,0.120
-2.770E-06,0.180
-2.760E-06,0.140
-2.750E-06,0.180
-2.740E-06,0.180
-2.730E-06,0.120
-2.720E-06,0.100
-2.710E-06,0.140
-2.700E-06,0.100
-2.690E-06,0.100
-2.680E-06,0.120
-2.670E-06,0.120
-2.660E-06,0.120
-2.650E-06,0.160
-2.640E-06,0.160
-2.630E-06,0.120
-2.620E-06,0.080
-2.610E-06,0.040
-2.600E-06,0.000
-2.590E-06,-0.040
-2.580E-06,-0.080
-2.570E-06,-0.020
-2.560E-06,-0.020
-2.550E-06,-0.020
-2.540E-06,-0.060
-2.530E-06,0.020
-2.520E-06,-0.140
-2.510E-06,0.000
-2.500E-06,-0.300
-2.490E-06,-0.240
-2.480E-06,-0.340
-2.470E-06,-0.380
-2.460E-06,-0.460
-2.450E-06,-0.120
-2.440E-06,-0.280
-2.430E-06,-0.180
-2.420E-06,-0.220
-2.410E-06,-0.100
-2.400E-06,-0.040
-2.390E-06,0.100
-2.380E-06,-0.080
-2.370E-06,0.200
-2.360E-06,0.040
-2.350E-06,-0.140
-2.340E-06,0.100
-2.330E-06,0.080
-2.320E-06,0.040
-2.310E-06,0.120
-2.300E-06,0.080
-2.290E-06,-0.020
-2.280E-06,-0.100
-2.270E-06,-0.060
-2.260E-06,0.080
-2.250E-06,0.420
-2.240E-06,1.200
-2.230E-06,2.060
-2.220E-06,2.360
-2.210E-06,2.220
-2.200E-06,1.860
-2.190E-06,1.060
-2.180E-06,0.200
-2.170E-06,-0.400
-2.160E-06,-0.720
-2.150E-06,-0.560
-2.140E-06,-0.540
-2.130E-06,-0.820
-2.120E-06,-1.420
-2.110E-06,-1.820
-2.100E-06,-2.020
-2.090E-06,-1.940
-2.080E-06,-1.500
-2.070E-06,-1.120
-2.060E-06,-0.900
-2.050E-06,-0.840
-2.040E-06,-0.900
-2.030E-06,-1.020
-2.020E-06,-1.020
-2.010E-06,-0.740
-2.000E-06,-0.180
-1.990E-06,0.180
-1.980E-06,0.500
-1.970E-06,0.700
-1.960E-06,0.860
-1.950E-06,0.960
-1.940E-06,1.040
-1.930E-06,1.060
-1.920E-06,1.040
-1.910E-06,0.960
-1.900E-06,0.720
-1.890E-06,0.460
-1.880E-06,0.100
-1.870E-06,-0.260
-1.860E-06,-0.620
-1.850E-06,-0.900
-1.840E-06,-1.040
-1.830E-06,-1.000
-1.820E-06,-0.780
-1.810E-06,-0.460
-1.800E-06,0.080
-1.790E-06,-0.260
-1.780E-06,0.180
-1.770E-06,0.140
-1.760E-06,0.220
-1.750E-06,0.060
-1.740E-06,0.300
-1.730E-06,0.220
-1.720E-06,0.340
-1.710E-06,0.200
-1.700E-06,0.100
-1.690E-06,-0.040
-1.680E-06,-0.140
-1.670E-06,-0.200
-1.660E-06,-0.260
-1.650E-06,-0.260
-1.640E-06,-0.140
-1.630E-06,-0.140
-1.620E-06,-0.220
-1.610E-06,-0.280
-1.600E-06,-0.320
-1.590E-06,-0.440
-1.580E-06,-0.520
-1.570E-06,-0.460
-1.560E-06,-0.440
-1.550E-06,-0.420
-1.540E-06,-0.400
-1.530E-06,-0.380
-1.520E-06,-0.300
-1.510E-06,-0.240
-1.500E-06,-0.140
-1.490E-06,0.000
-1.480E-06,0.140
-1.470E-06,0.240
-1.460E-06,0.320
-1.450E-06,0.260
-1.440E-06,0.220
-1.430E-06,0.120
-1.420E-06,-0.020
-1.410E-06,-0.140
-1.400E-06,-0.300
-1.390E-06,-0.400
-1.380E-06,-0.480
-1.370E-06,-0.540
-1.360E-06,-0.600
-1.350E-06,-0.580
-1.340E-06,-0.480
-1.330E-06,-0.420
-1.320E-06,-0.320
-1.310E-06,-0.200
-1.300E-06,-0.060
-1.290E-06,0.020
-1.280E-06,0.140
-1.270E-06,0.220
-1.260E-06,0.140
-1.250E-06,0.160
-1.240E-06,0.140
-1.230E-06,0.120
-1.220E-06,0.040
-1.210E-06,0.060
-1.200E-06,0.040
-1.190E-06,-0.020
-1.180E-06,-0.020
-1.170E-06,-0.060
-1.160E-06,-0.020
-1.150E-06,-0.100
-1.140E-06,-0.140
-1.130E-06,-0.200
-1.120E-06,-0.240
-1.110E-06,-0.300
-1.100E-06,-0.300
-1.090E-06,-0.400
-1.080E-06,-0.360
-1.070E-06,-0.400
-1.060E-06,-0.340
-1.050E-06,-0.320
-1.040E-06,-0.260
-1.030E-06,-0.180
-1.020E-06,-0.160
-1.010E-06,-0.140
-1.000E-06,-0.120
-9.900E-07,-0.120
-9.800E-07,-0.060
-9.700E-07,-0.100
-9.600E-07,-0.120
-9.500E-07,-0.100
-9.400E-07,-0.120
-9.300E-07,-0.080
-9.200E-07,-0.080
-9.100E-07,-0.100
-9.000E-07,-0.120
-8.900E-07,-0.080
-8.800E-07,-0.080
-8.700E-07,-0.040
-8.600E-07,0.000
-8.500E-07,0.040
-8.400E-07,0.040
-8.300E-07,0.020
-8.200E-07,0.060
-8.100E-07,0.100
-8.000E-07,0.100
-7.900E-07,0.180
-7.800E-07,0.200
-7.700E-07,0.220
-7.600E-07,0.180
-7.500E-07,0.180
-7.400E-07,0.160
-7.300E-07,0.140
-7.200E-07,0.180
-7.100E-07,0.120
-7.000E-07,0.120
-6.900E-07,0.100
-6.800E-07,0.080
-6.700E-07,0.120
-6.600E-07,0.100
-6.500E-07,0.040
-6.400E-07,0.080
-6.300E-07,0.020
-6.200E-07,0.040
-6.100E-07,0.020
-6.000E-07,0.000
-5.900E-07,0.020
-5.800E-07,-0.040
-5.700E-07,-0.060
-5.600E-07,-0.020
-5.500E-07,-0.020
-5.400E-07,0.000
-5.300E-07,-0.080
-5.200E-07,-0.140
-5.100E-07,-0.140
-5.000E-07,-0.140
-4.900E-07,-0.160
-4.800E-07,-0.140
-4.700E-07,-0.140
-4.600E-07,-0.160
-4.500E-07,-0.200
-4.400E-07,-0.240
-4.300E-07,-0.200
-4.200E-07,-0.100
-4.100E-07,-0.180
-4.000E-07,-0.200
-3.900E-07,-0.240
-3.800E-07,-0.220
-3.700E-07,-0.220
-3.600E-07,-0.240
-3.500E-07,-0.200
-3.400E-07,-0.160
-3.300E-07,-0.320
-3.200E-07,-0.300
-3.100E-07,-0.400
-3.000E-07,-0.360
-2.900E-07,-0.380
-2.800E-07,-0.300
-2.700E-07,-0.240
-2.600E-07,-0.260
-2.500E-07,-0.320
-2.400E-07,-0.320
-2.300E-07,-0.300
-2.200E-07,-0.320
-2.100E-07,-0.540
-2.000E-07,-0.560
-1.900E-07,-0.480
-1.800E-07,-0.480
-1.700E-07,-0.560
-1.600E-07,-0.400
-1.500E-07,-0.540
-1.400E-07,-0.240
-1.300E-07,-0.560
-1.200E-07,-0.140
-1.100E-07,-0.260
-1.000E-07,0.720
-9.000E-08,0.440
-8.000E-08,0.120
-7.000E-08,-0.360
-6.000E-08,1.020
-5.000E-08,0.280
-4.000E-08,-0.620
-3.000E-08,1.600
-2.000E-08,-1.460
-1.000E-08,-0.020
0.000E+00,-2.120
1.000E-08,-1.360
2.000E-08,-2.080
3.000E-08,-2.120
4.000E-08,-1.160
5.000E-08,-1.680
6.000E-08,-0.780
7.000E-08,-1.280
8.000E-08,-0.680
9.000E-08,-1.060
1.000E-07,-0.220
1.100E-07,-0.100
1.200E-07,0.120
1.300E-07,0.360
1.400E-07,0.720
1.500E-07,0.760
1.600E-07,0.700
1.700E-07,0.720
1.800E-07,0.600
1.900E-07,0.760
2.000E-07,0.960
2.100E-07,0.860
2.200E-07,0.860
2.300E-07,0.980
2.400E-07,0.860
2.500E-07,0.520
2.600E-07,0.380
2.700E-07,0.080
2.800E-07,-0.220
2.900E-07,-0.620
3.000E-07,-0.860
3.100E-07,-1.100
3.200E-07,-1.320
3.300E-07,-1.240
3.400E-07,-1.100
3.500E-07,-0.880
3.600E-07,-0.880
3.700E-07,-0.380
3.800E-07,-0.700
3.900E-07,0.640
4.000E-07,1.460
4.100E-07,2.540
4.200E-07,2.960
4.300E-07,1.600
4.400E-07,0.360
4.500E-07,-0.740
4.600E-07,-2.120
4.700E-07,-2.120
4.800E-07,-2.120
4.900E-07,-1.940
5.000E-07,-1.600
5.100E-07,-0.980
5.200E-07,-1.580
5.300E-07,-1.720
5.400E-07,-1.660
5.500E-07,-0.700
5.600E-07,-0.300
5.700E-07,-0.440
5.800E-07,0.740
5.900E-07,-0.220
6.000E-07,-0.480
6.100E-07,-1.220
6.200E-07,-0.900
6.300E-07,-0.620
6.400E-07,0.020
6.500E-07,0.520
6.600E-07,0.740
6.700E-07,0.980
6.800E-07,1.040
6.900E-07,0.920
7.000E-07,0.780
7.100E-07,0.680
7.200E-07,0.820
7.300E-07,0.680
7.400E-07,0.580
7.500E-07,0.280
7.600E-07,0.100
7.700E-07,-0.260
7.800E-07,-0.400
7.900E-07,-0.520
8.000E-07,-0.400
8.100E-07,-0.180
8.200E-07,0.060
8.300E-07,0.300
8.400E-07,0.440
8.500E-07,0.720
8.600E-07,0.800
8.700E-07,0.880
8.800E-07,0.860
8.900E-07,0.740
9.000E-07,0.460
9.100E-07,0.200
9.200E-07,-0.120
9.300E-07,-0.360
9.400E-07,-0.640
9.500E-07,-0.780
9.600E-07,-1.060
9.700E-07,-1.020
9.800E-07,-0.920
9.900E-07,-0.680
1.000E-06,-0.500
1.010E-06,-0.680
1.020E-06,-0.680
1.030E-06,-0.700
1.040E-06,-0.800
1.050E-06,-0.780
1.060E-06,-0.880
1.070E-06,-0.660
1.080E-06,-0.600
1.090E-06,-0.800
1.100E-06,-0.860
1.110E-06,-1.160
1.120E-06,-1.200
1.130E-06,-1.220
1.140E-06,-1.080
1.150E-06,-0.880
1.160E-06,-0.600
1.170E-06,-0.340
1.180E-06,-0.120
1.190E-06,-0.300
1.200E-06,-0.480
1.210E-06,-0.580
1.220E-06,-0.600
1.230E-06,-0.900
1.240E-06,-1.020
1.250E-06,-0.980
1.260E-06,-1.060
1.270E-06,-1.120
1.280E-06,-0.920
1.290E-06,-0.760
1.300E-06,-0.320
1.310E-06,-0.300
1.320E-06,0.040
1.330E-06,-0.160
1.340E-06,0.040
1.350E-06,-0.060
1.360E-06,0.400
1.370E-06,0.100
1.380E-06,-0.200
1.390E-06,-0.440
1.400E-06,-0.940
1.410E-06,-1.380
1.420E-06,-1.840
1.430E-06,-2.120
1.440E-06,-2.120
1.450E-06,-2.120
1.460E-06,-2.120
1.470E-06,-2.100
1.480E-06,-2.100
1.490E-06,-2.100
1.500E-06,-2.100
1.510E-06,-2.100
1.520E-06,-2.120
1.530E-06,-2.120
1.540E-06,-2.140
1.550E-06,-1.820
1.560E-06,-1.540
1.570E-06,-1.240
1.580E-06,-0.600
1.590E-06,-0.140
1.600E-06,0.580
1.610E-06,0.800
1.620E-06,0.460
1.630E-06,0.540
1.640E-06,-0.440
1.650E-06,-0.700
1.660E-06,-1.180
1.670E-06,-1.320
1.680E-06,-0.920
1.690E-06,-1.500
1.700E-06,-1.480
1.710E-06,-1.420
1.720E-06,-1.020
1.730E-06,-0.840
1.740E-06,-0.700
1.750E-06,-0.700
1.760E-06,-0.460
1.770E-06,-0.560
1.780E-06,-0.660
1.790E-06,-0.780
1.800E-06,-0.480
1.810E-06,0.080
1.820E-06,0.720
1.830E-06,1.280
1.840E-06,1.640
1.850E-06,1.920
1.860E-06,1.720
1.870E-06,1.380
1.880E-06,1.360
1.890E-06,0.880
1.900E-06,0.480
1.910E-06,0.000
1.920E-06,-1.000
1.930E-06,-1.880
1.940E-06,-2.080
1.950E-06,-2.020
1.960E-06,-1.460
1.970E-06,-1.200
1.980E-06,-0.940
1.990E-06,-1.160
2.000E-06,-1.660
2.010E-06,-2.140
2.020E-06,-2.140
2.030E-06,-2.120
2.040E-06,-1.840
2.050E-06,-1.040
2.060E-06,-0.320
2.070E-06,-0.320
2.080E-06,-0.300
2.090E-06,-0.880
2.100E-06,-0.840
2.110E-06,-1.060
2.120E-06,-0.620
2.130E-06,-0.640
2.140E-06,0.640
2.150E-06,1.000
2.160E-06,1.580
2.170E-06,0.880
2.180E-06,0.580
2.190E-06,-1.080
2.200E-06,-2.120
2.210E-06,-2.120
2.220E-06,-2.120
2.230E-06,-2.120
2.240E-06,-2.140
2.250E-06,-2.120
2.260E-06,-2.120
2.270E-06,-2.100
2.280E-06,-1.560
2.290E-06,-1.100
2.300E-06,-0.240
2.310E-06,0.280
2.320E-06,1.980
2.330E-06,2.140
2.340E-06,3.180
2.350E-06,3.300
2.360E-06,2.900
2.370E-06,1.220
2.380E-06,-0.040
2.390E-06,-1.440
2.400E-06,-2.020
2.410E-06,-1.900
2.420E-06,-1.800
2.430E-06,-1.200
2.440E-06,-0.980
2.450E-06,-1.100
2.460E-06,-1.300
2.470E-06,-1.420
2.480E-06,-1.620
2.490E-06,-1.460
2.500E-06,-1.340
2.510E-06,-1.140
2.520E-06,-0.700
2.530E-06,-0.520
2.540E-06,-0.260
2.550E-06,0.000
2.560E-06,0.340
2.570E-06,0.880
2.580E-06,1.380
2.590E-06,1.920
2.600E-06,2.240
2.610E-06,2.440
2.620E-06,2.340
2.630E-06,1.880
2.640E-06,1.280
2.650E-06,0.320
2.660E-06,-0.560
2.670E-06,-1.440
2.680E-06,-2.080
2.690E-06,-2.100
2.700E-06,-2.120
2.710E-06,-2.120
2.720E-06,-2.120
2.730E-06,-2.100
2.740E-06,-2.120
2.750E-06,-1.840
2.760E-06,-1.040
2.770E-06,0.000
2.780E-06,1.020
2.790E-06,1.840
2.800E-06,1.880
2.810E-06,0.880
2.820E-06,-0.140
2.830E-06,-1.480
2.840E-06,-2.120
2.850E-06,-2.140
2.860E-06,-2.120
2.870E-06,-2.120
2.880E-06,-2.100
2.890E-06,-2.120
2.900E-06,-1.080
2.910E-06,-1.080
2.920E-06,-0.980
2.930E-06,-1.720
2.940E-06,-2.120
2.950E-06,-2.120
2.960E-06,-2.120
2.970E-06,-2.120
2.980E-06,-2.120
2.990E-06,-2.120
3.000E-06,-2.100
3.010E-06,-2.120
3.020E-06,-1.660
3.030E-06,-1.380
3.040E-06,-1.580
3.050E-06,-1.680
3.060E-06,-1.540
3.070E-06,-1.220
3.080E-06,-0.680
3.090E-06,-0.040
3.100E-06,0.380
3.110E-06,0.520
3.120E-06,0.320
3.130E-06,0.020
3.140E-06,-0.220
3.150E-06,-0.460
3.160E-06,-0.480
3.170E-06,-0.540
3.180E-06,-0.540
3.190E-06,-0.620
3.200E-06,-0.600
3.210E-06,-0.520
3.220E-06,-0.400
3.230E-06,-0.300
3.240E-06,-0.240
3.250E-06,-0.320
3.260E-06,-0.500
3.270E-06,-0.800
3.280E-06,-1.080
