mediciones/curva carac 8-28 limpias/58/WaveData65561.csv

#timebase=2000000(ps)
,#voltbase=500000(mv/100)
#size=4000
-8.350E-06,0.080
-8.340E-06,0.060
-8.330E-06,0.020
-8.320E-06,0.060
-8.310E-06,0.080
-8.300E-06,0.060
-8.290E-06,0.020
-8.280E-06,0.060
-8.270E-06,0.040
-8.260E-06,0.040
-8.250E-06,0.080
-8.240E-06,0.040
-8.230E-06,0.020
-8.220E-06,0.080
-8.210E-06,0.060
-8.200E-06,0.080
-8.190E-06,0.060
-8.180E-06,0.060
-8.170E-06,0.080
-8.160E-06,0.040
-8.150E-06,0.060
-8.140E-06,0.080
-8.130E-06,0.060
-8.120E-06,0.060
-8.110E-06,0.060
-8.100E-06,0.040
-8.090E-06,0.080
-8.080E-06,0.060
-8.070E-06,0.060
-8.060E-06,0.080
-8.050E-06,0.060
-8.040E-06,0.100
-8.030E-06,0.060
-8.020E-06,0.080
-8.010E-06,0.020
-8.000E-06,0.040
-7.990E-06,0.060
-7.980E-06,0.080
-7.970E-06,0.040
-7.960E-06,0.080
-7.950E-06,0.080
-7.940E-06,0.020
-7.930E-06,0.060
-7.920E-06,0.040
-7.910E-06,0.080
-7.900E-06,0.040
-7.890E-06,0.060
-7.880E-06,0.060
-7.870E-06,0.060
-7.860E-06,0.040
-7.850E-06,0.060
-7.840E-06,0.080
-7.830E-06,0.060
-7.820E-06,0.080
-7.810E-06,0.040
-7.800E-06,0.080
-7.790E-06,0.040
-7.780E-06,0.040
-7.770E-06,0.080
-7.760E-06,0.040
-7.750E-06,0.060
-7.740E-06,0.040
-7.730E-06,0.040
-7.720E-06,0.060
-7.710E-06,0.060
-7.700E-06,0.060
-7.690E-06,0.060
-7.680E-06,0.060
-7.670E-06,0.080
-7.660E-06,0.040
-7.650E-06,0.040
-7.640E-06,0.060
-7.630E-06,0.060
-7.620E-06,0.060
-7.610E-06,0.080
-7.600E-06,0.060
-7.590E-06,0.040
-7.580E-06,0.060
-7.570E-06,0.060
-7.560E-06,0.060
-7.550E-06,0.040
-7.540E-06,0.080
-7.530E-06,0.060
-7.520E-06,0.080
-7.510E-06,0.060
-7.500E-06,0.060
-7.490E-06,0.040
-7.480E-06,0.060
-7.470E-06,0.060
-7.460E-06,0.080
-7.450E-06,0.060
-7.440E-06,0.060
-7.430E-06,0.040
-7.420E-06,0.060
-7.410E-06,0.060
-7.400E-06,0.040
-7.390E-06,0.060
-7.380E-06,0.040
-7.370E-06,0.060
-7.360E-06,0.060
-7.350E-06,0.060
-7.340E-06,0.060
-7.330E-06,0.040
-7.320E-06,0.060
-7.310E-06,0.080
-7.300E-06,0.060
-7.290E-06,0.040
-7.280E-06,0.080
-7.270E-06,0.060
-7.260E-06,0.080
-7.250E-06,0.040
-7.240E-06,0.080
-7.230E-06,0.060
-7.220E-06,0.060
-7.210E-06,0.040
-7.200E-06,0.060
-7.190E-06,0.060
-7.180E-06,0.060
-7.170E-06,0.080
-7.160E-06,0.060
-7.150E-06,0.060
-7.140E-06,0.060
-7.130E-06,0.020
-7.120E-06,0.080
-7.110E-06,0.060
-7.100E-06,0.040
-7.090E-06,0.060
-7.080E-06,0.060
-7.070E-06,0.080
-7.060E-06,0.060
-7.050E-06,0.060
-7.040E-06,0.040
-7.030E-06,0.060
-7.020E-06,0.060
-7.010E-06,0.040
-7.000E-06,0.060
-6.990E-06,0.060
-6.980E-06,0.060
-6.970E-06,0.060
-6.960E-06,0.060
-6.950E-06,0.060
-6.940E-06,0.060
-6.930E-06,0.040
-6.920E-06,0.040
-6.910E-06,0.040
-6.900E-06,0.080
-6.890E-06,0.040
-6.880E-06,0.060
-6.870E-06,0.040
-6.860E-06,0.040
-6.850E-06,0.060
-6.840E-06,0.080
-6.830E-06,0.020
-6.820E-06,0.040
-6.810E-06,0.080
-6.800E-06,0.040
-6.790E-06,0.060
-6.780E-06,0.060
-6.770E-06,0.080
-6.760E-06,0.060
-6.750E-06,0.040
-6.740E-06,0.020
-6.730E-06,0.080
-6.720E-06,0.080
-6.710E-06,0.040
-6.700E-06,0.060
-6.690E-06,0.080
-6.680E-06,0.060
-6.670E-06,0.080
-6.660E-06,0.040
-6.650E-06,0.040
-6.640E-06,0.040
-6.630E-06,0.060
-6.620E-06,0.040
-6.610E-06,0.060
-6.600E-06,0.060
-6.590E-06,0.060
-6.580E-06,0.020
-6.570E-06,0.100
-6.560E-06,0.040
-6.550E-06,0.040
-6.540E-06,0.080
-6.530E-06,0.080
-6.520E-06,0.040
-6.510E-06,0.060
-6.500E-06,0.040
-6.490E-06,0.060
-6.480E-06,0.020
-6.470E-06,0.040
-6.460E-06,0.060
-6.450E-06,0.060
-6.440E-06,0.040
-6.430E-06,0.060
-6.420E-06,0.060
-6.410E-06,0.060
-6.400E-06,0.080
-6.390E-06,0.040
-6.380E-06,0.060
-6.370E-06,0.020
-6.360E-06,0.060
-6.350E-06,0.080
-6.340E-06,0.020
-6.330E-06,0.060
-6.320E-06,0.060
-6.310E-06,0.060
-6.300E-06,0.080
-6.290E-06,0.060
-6.280E-06,0.060
-6.270E-06,0.060
-6.260E-06,0.060
-6.250E-06,0.080
-6.240E-06,0.060
-6.230E-06,0.040
-6.220E-06,0.060
-6.210E-06,0.080
-6.200E-06,0.060
-6.190E-06,0.060
-6.180E-06,0.080
-6.170E-06,0.060
-6.160E-06,0.020
-6.150E-06,0.060
-6.140E-06,0.040
-6.130E-06,0.060
-6.120E-06,0.080
-6.110E-06,0.040
-6.100E-06,0.040
-6.090E-06,0.080
-6.080E-06,0.020
-6.070E-06,0.040
-6.060E-06,0.080
-6.050E-06,0.060
-6.040E-06,0.040
-6.030E-06,0.060
-6.020E-06,0.060
-6.010E-06,0.040
-6.000E-06,0.060
-5.990E-06,0.080
-5.980E-06,0.060
-5.970E-06,0.040
-5.960E-06,0.080
-5.950E-06,0.060
-5.940E-06,0.060
-5.930E-06,0.040
-5.920E-06,0.040
-5.910E-06,0.060
-5.900E-06,0.040
-5.890E-06,0.080
-5.880E-06,0.040
-5.870E-06,0.080
-5.860E-06,0.040
-5.850E-06,0.040
-5.840E-06,0.040
-5.830E-06,0.080
-5.820E-06,0.060
-5.810E-06,0.040
-5.800E-06,0.040
-5.790E-06,0.020
-5.780E-06,0.080
-5.770E-06,0.060
-5.760E-06,0.020
-5.750E-06,0.080
-5.740E-06,0.060
-5.730E-06,0.100
-5.720E-06,0.060
-5.710E-06,0.020
-5.700E-06,0.060
-5.690E-06,0.060
-5.680E-06,0.080
-5.670E-06,0.060
-5.660E-06,0.060
-5.650E-06,0.040
-5.640E-06,0.040
-5.630E-06,0.040
-5.620E-06,0.020
-5.610E-06,0.040
-5.600E-06,0.040
-5.590E-06,0.060
-5.580E-06,0.040
-5.570E-06,0.040
-5.560E-06,0.080
-5.550E-06,0.060
-5.540E-06,0.060
-5.530E-06,0.080
-5.520E-06,0.020
-5.510E-06,0.060
-5.500E-06,0.060
-5.490E-06,0.060
-5.480E-06,0.060
-5.470E-06,0.060
-5.460E-06,0.060
-5.450E-06,0.040
-5.440E-06,0.080
-5.430E-06,0.020
-5.420E-06,0.080
-5.410E-06,0.060
-5.400E-06,0.040
-5.390E-06,0.040
-5.380E-06,0.020
-5.370E-06,0.060
-5.360E-06,0.040
-5.350E-06,0.040
-5.340E-06,0.080
-5.330E-06,0.040
-5.320E-06,0.020
-5.310E-06,0.080
-5.300E-06,0.040
-5.290E-06,0.060
-5.280E-06,0.060
-5.270E-06,0.060
-5.260E-06,0.060
-5.250E-06,0.080
-5.240E-06,0.040
-5.230E-06,0.060
-5.220E-06,0.080
-5.210E-06,0.040
-5.200E-06,0.040
-5.190E-06,0.040
-5.180E-06,0.020
-5.170E-06,0.060
-5.160E-06,0.020
-5.150E-06,0.040
-5.140E-06,0.060
-5.130E-06,0.040
-5.120E-06,0.040
-5.110E-06,0.040
-5.100E-06,0.080
-5.090E-06,0.100
-5.080E-06,0.060
-5.070E-06,0.080
-5.060E-06,0.040
-5.050E-06,0.040
-5.040E-06,0.060
-5.030E-06,0.040
-5.020E-06,0.060
-5.010E-06,0.060
-5.000E-06,0.040
-4.990E-06,0.060
-4.980E-06,0.060
-4.970E-06,0.040
-4.960E-06,0.060
-4.950E-06,0.080
-4.940E-06,0.060
-4.930E-06,0.080
-4.920E-06,0.040
-4.910E-06,0.080
-4.900E-06,0.020
-4.890E-06,0.080
-4.880E-06,0.040
-4.870E-06,0.080
-4.860E-06,0.060
-4.850E-06,0.040
-4.840E-06,0.060
-4.830E-06,0.060
-4.820E-06,0.060
-4.810E-06,0.060
-4.800E-06,0.060
-4.790E-06,0.060
-4.780E-06,0.080
-4.770E-06,0.060
-4.760E-06,0.080
-4.750E-06,0.080
-4.740E-06,0.040
-4.730E-06,0.060
-4.720E-06,0.060
-4.710E-06,0.060
-4.700E-06,0.060
-4.690E-06,0.080
-4.680E-06,0.040
-4.670E-06,0.060
-4.660E-06,0.060
-4.650E-06,0.060
-4.640E-06,0.060
-4.630E-06,0.080
-4.620E-06,0.080
-4.610E-06,0.040
-4.600E-06,0.080
-4.590E-06,0.020
-4.580E-06,0.040
-4.570E-06,0.040
-4.560E-06,0.040
-4.550E-06,0.080
-4.540E-06,0.080
-4.530E-06,0.080
-4.520E-06,0.040
-4.510E-06,0.060
-4.500E-06,0.060
-4.490E-06,0.060
-4.480E-06,0.040
-4.470E-06,0.080
-4.460E-06,0.040
-4.450E-06,0.040
-4.440E-06,0.060
-4.430E-06,0.060
-4.420E-06,0.020
-4.410E-06,0.040
-4.400E-06,0.060
-4.390E-06,0.080
-4.380E-06,0.060
-4.370E-06,0.060
-4.360E-06,0.080
-4.350E-06,0.040
-4.340E-06,0.080
-4.330E-06,0.040
-4.320E-06,0.040
-4.310E-06,0.080
-4.300E-06,0.080
-4.290E-06,0.060
-4.280E-06,0.080
-4.270E-06,0.080
-4.260E-06,0.060
-4.250E-06,0.100
-4.240E-06,0.060
-4.230E-06,0.040
-4.220E-06,0.060
-4.210E-06,0.040
-4.200E-06,0.100
-4.190E-06,0.040
-4.180E-06,0.100
-4.170E-06,0.060
-4.160E-06,0.060
-4.150E-06,0.020
-4.140E-06,0.060
-4.130E-06,0.060
-4.120E-06,0.040
-4.110E-06,0.040
-4.100E-06,0.060
-4.090E-06,0.040
-4.080E-06,0.080
-4.070E-06,0.020
-4.060E-06,0.060
-4.050E-06,0.080
-4.040E-06,0.080
-4.030E-06,0.060
-4.020E-06,0.060
-4.010E-06,0.040
-4.000E-06,0.080
-3.990E-06,0.040
-3.980E-06,0.080
-3.970E-06,0.060
-3.960E-06,0.060
-3.950E-06,0.080
-3.940E-06,0.080
-3.930E-06,0.040
-3.920E-06,0.060
-3.910E-06,0.080
-3.900E-06,0.040
-3.890E-06,0.060
-3.880E-06,0.060
-3.870E-06,0.080
-3.860E-06,0.040
-3.850E-06,0.060
-3.840E-06,0.080
-3.830E-06,0.080
-3.820E-06,0.040
-3.810E-06,0.080
-3.800E-06,0.040
-3.790E-06,0.020
-3.780E-06,0.060
-3.770E-06,0.020
-3.760E-06,0.040
-3.750E-06,0.040
-3.740E-06,0.080
-3.730E-06,0.040
-3.720E-06,0.060
-3.710E-06,0.060
-3.700E-06,0.040
-3.690E-06,0.040
-3.680E-06,0.060
-3.670E-06,0.040
-3.660E-06,0.040
-3.650E-06,0.080
-3.640E-06,0.040
-3.630E-06,0.040
-3.620E-06,0.060
-3.610E-06,0.040
-3.600E-06,0.060
-3.590E-06,0.060
-3.580E-06,0.040
-3.570E-06,0.020
-3.560E-06,0.040
-3.550E-06,0.080
-3.540E-06,0.080
-3.530E-06,0.060
-3.520E-06,0.060
-3.510E-06,0.040
-3.500E-06,-0.060
-3.490E-06,-0.500
-3.480E-06,-1.280
-3.470E-06,-2.120
-3.460E-06,-2.120
-3.450E-06,-2.120
-3.440E-06,-2.120
-3.430E-06,-2.120
-3.420E-06,-2.080
-3.410E-06,-0.540
-3.400E-06,1.140
-3.390E-06,2.660
-3.380E-06,3.280
-3.370E-06,3.300
-3.360E-06,3.320
-3.350E-06,3.300
-3.340E-06,3.300
-3.330E-06,3.300
-3.320E-06,2.660
-3.310E-06,1.480
-3.300E-06,0.460
-3.290E-06,-0.300
-3.280E-06,-0.820
-3.270E-06,-0.920
-3.260E-06,-0.760
-3.250E-06,-0.700
-3.240E-06,-0.660
-3.230E-06,-0.700
-3.220E-06,-0.960
-3.210E-06,-1.300
-3.200E-06,-1.840
-3.190E-06,-2.120
-3.180E-06,-2.120
-3.170E-06,-2.120
-3.160E-06,-2.120
-3.150E-06,-2.120
-3.140E-06,-1.580
-3.130E-06,-0.740
-3.120E-06,0.100
-3.110E-06,1.020
-3.100E-06,1.580
-3.090E-06,2.060
-3.080E-06,2.340
-3.070E-06,2.180
-3.060E-06,1.840
-3.050E-06,1.400
-3.040E-06,0.800
-3.030E-06,0.140
-3.020E-06,-0.460
-3.010E-06,-0.860
-3.000E-06,-1.160
-2.990E-06,-1.300
-2.980E-06,-1.280
-2.970E-06,-1.180
-2.960E-06,-0.980
-2.950E-06,-0.760
-2.940E-06,-0.480
-2.930E-06,-0.260
-2.920E-06,0.000
-2.910E-06,0.240
-2.900E-06,0.500
-2.890E-06,0.840
-2.880E-06,0.980
-2.870E-06,1.300
-2.860E-06,1.520
-2.850E-06,1.660
-2.840E-06,1.340
-2.830E-06,1.300
-2.820E-06,1.000
-2.810E-06,0.760
-2.800E-06,0.360
-2.790E-06,0.240
-2.780E-06,-0.140
-2.770E-06,-0.220
-2.760E-06,-0.520
-2.750E-06,-0.680
-2.740E-06,-0.900
-2.730E-06,-0.940
-2.720E-06,-1.020
-2.710E-06,-1.120
-2.700E-06,-0.980
-2.690E-06,-0.860
-2.680E-06,-0.700
-2.670E-06,-0.460
-2.660E-06,-0.140
-2.650E-06,0.100
-2.640E-06,0.340
-2.630E-06,0.580
-2.620E-06,0.840
-2.610E-06,1.000
-2.600E-06,1.080
-2.590E-06,1.140
-2.580E-06,1.160
-2.570E-06,0.700
-2.560E-06,0.680
-2.550E-06,-0.020
-2.540E-06,-0.280
-2.530E-06,-0.480
-2.520E-06,-0.500
-2.510E-06,-0.500
-2.500E-06,-1.000
-2.490E-06,-0.340
-2.480E-06,-0.660
-2.470E-06,-0.700
-2.460E-06,-0.500
-2.450E-06,-0.620
-2.440E-06,-0.320
-2.430E-06,-0.420
-2.420E-06,-0.320
-2.410E-06,-0.100
-2.400E-06,-0.120
-2.390E-06,0.120
-2.380E-06,-0.020
-2.370E-06,-0.040
-2.360E-06,0.180
-2.350E-06,0.120
-2.340E-06,0.160
-2.330E-06,0.240
-2.320E-06,0.360
-2.310E-06,0.280
-2.300E-06,0.260
-2.290E-06,0.200
-2.280E-06,0.040
-2.270E-06,0.340
-2.260E-06,-0.080
-2.250E-06,0.020
-2.240E-06,-0.240
-2.230E-06,-0.300
-2.220E-06,0.420
-2.210E-06,-0.180
-2.200E-06,0.500
-2.190E-06,0.240
-2.180E-06,-0.240
-2.170E-06,-0.060
-2.160E-06,-0.760
-2.150E-06,-0.240
-2.140E-06,-0.480
-2.130E-06,-0.200
-2.120E-06,-0.020
-2.110E-06,-0.180
-2.100E-06,-0.160
-2.090E-06,-0.240
-2.080E-06,-0.060
-2.070E-06,-0.300
-2.060E-06,-0.520
-2.050E-06,-0.400
-2.040E-06,-0.260
-2.030E-06,0.200
-2.020E-06,0.040
-2.010E-06,-0.480
-2.000E-06,0.400
-1.990E-06,-0.580
-1.980E-06,0.420
-1.970E-06,-0.340
-1.960E-06,0.360
-1.950E-06,0.560
-1.940E-06,-0.200
-1.930E-06,-0.560
-1.920E-06,-0.860
-1.910E-06,0.120
-1.900E-06,-0.600
-1.890E-06,0.280
-1.880E-06,-0.580
-1.870E-06,-0.020
-1.860E-06,-0.480
-1.850E-06,-0.260
-1.840E-06,-0.940
-1.830E-06,-0.360
-1.820E-06,-0.380
-1.810E-06,-0.480
-1.800E-06,-0.060
-1.790E-06,-0.360
-1.780E-06,0.120
-1.770E-06,-0.200
-1.760E-06,0.440
-1.750E-06,0.260
-1.740E-06,0.380
-1.730E-06,-0.300
-1.720E-06,-0.020
-1.710E-06,-0.600
-1.700E-06,-0.640
-1.690E-06,-0.460
-1.680E-06,-0.300
-1.670E-06,-0.240
-1.660E-06,-0.400
-1.650E-06,-0.360
-1.640E-06,-0.260
-1.630E-06,0.100
-1.620E-06,0.960
-1.610E-06,1.580
-1.600E-06,2.360
-1.590E-06,2.220
-1.580E-06,1.860
-1.570E-06,0.840
-1.560E-06,-0.060
-1.550E-06,-1.020
-1.540E-06,-1.780
-1.530E-06,-2.040
-1.520E-06,-2.080
-1.510E-06,-1.800
-1.500E-06,-2.040
-1.490E-06,-2.100
-1.480E-06,-2.140
-1.470E-06,-2.000
-1.460E-06,-1.560
-1.450E-06,-1.000
-1.440E-06,-0.480
-1.430E-06,-0.220
-1.420E-06,-0.120
-1.410E-06,-0.120
-1.400E-06,0.280
-1.390E-06,0.340
-1.380E-06,0.960
-1.370E-06,1.240
-1.360E-06,1.600
-1.350E-06,1.340
-1.340E-06,0.900
-1.330E-06,0.400
-1.320E-06,-0.200
-1.310E-06,-0.360
-1.300E-06,-0.700
-1.290E-06,-0.160
-1.280E-06,-0.040
-1.270E-06,0.080
-1.260E-06,0.100
-1.250E-06,-0.280
-1.240E-06,-0.500
-1.230E-06,-0.880
-1.220E-06,-0.980
-1.210E-06,-1.020
-1.200E-06,-1.020
-1.190E-06,-0.960
-1.180E-06,-0.880
-1.170E-06,-0.720
-1.160E-06,-0.600
-1.150E-06,-0.480
-1.140E-06,-0.300
-1.130E-06,-0.120
-1.120E-06,0.200
-1.110E-06,0.420
-1.100E-06,0.200
-1.090E-06,0.140
-1.080E-06,0.020
-1.070E-06,-0.480
-1.060E-06,-0.660
-1.050E-06,-0.320
-1.040E-06,-1.240
-1.030E-06,-0.520
-1.020E-06,-1.120
-1.010E-06,-0.560
-1.000E-06,-1.040
-9.900E-07,-0.460
-9.800E-07,-0.740
-9.700E-07,-0.160
-9.600E-07,-0.400
-9.500E-07,0.000
-9.400E-07,0.020
-9.300E-07,-0.020
-9.200E-07,-0.100
-9.100E-07,0.120
-9.000E-07,-0.140
-8.900E-07,0.080
-8.800E-07,0.120
-8.700E-07,0.200
-8.600E-07,0.380
-8.500E-07,0.620
-8.400E-07,0.780
-8.300E-07,0.740
-8.200E-07,1.320
-8.100E-07,0.780
-8.000E-07,0.880
-7.900E-07,0.040
-7.800E-07,-0.600
-7.700E-07,-1.300
-7.600E-07,-2.000
-7.500E-07,-2.120
-7.400E-07,-2.120
-7.300E-07,-2.100
-7.200E-07,-2.120
-7.100E-07,-2.120
-7.000E-07,-2.140
-6.900E-07,-2.120
-6.800E-07,-1.700
-6.700E-07,-1.260
-6.600E-07,-0.740
-6.500E-07,-0.500
-6.400E-07,-0.220
-6.300E-07,0.140
-6.200E-07,0.040
-6.100E-07,0.080
-6.000E-07,0.240
-5.900E-07,0.280
-5.800E-07,0.180
-5.700E-07,0.200
-5.600E-07,0.180
-5.500E-07,0.260
-5.400E-07,0.160
-5.300E-07,0.360
-5.200E-07,0.220
-5.100E-07,0.360
-5.000E-07,0.520
-4.900E-07,0.540
-4.800E-07,0.480
-4.700E-07,0.300
-4.600E-07,0.240
-4.500E-07,-0.380
-4.400E-07,-0.620
-4.300E-07,-0.980
-4.200E-07,-0.960
-4.100E-07,-0.900
-4.000E-07,-0.660
-3.900E-07,-0.580
-3.800E-07,-0.600
-3.700E-07,-0.580
-3.600E-07,-0.780
-3.500E-07,-0.660
-3.400E-07,-0.820
-3.300E-07,-0.880
-3.200E-07,-0.720
-3.100E-07,-0.540
-3.000E-07,-0.480
-2.900E-07,-0.640
-2.800E-07,-0.780
-2.700E-07,-1.020
-2.600E-07,-1.160
-2.500E-07,-1.340
-2.400E-07,-1.220
-2.300E-07,-1.160
-2.200E-07,-1.100
-2.100E-07,-1.260
-2.000E-07,-1.240
-1.900E-07,-1.220
-1.800E-07,-0.900
-1.700E-07,-0.720
-1.600E-07,-0.440
-1.500E-07,-0.520
-1.400E-07,-0.260
-1.300E-07,-1.400
-1.200E-07,-1.320
-1.100E-07,-0.400
-1.000E-07,-0.300
-9.000E-08,0.980
-8.000E-08,-1.380
-7.000E-08,-1.520
-6.000E-08,-2.140
-5.000E-08,0.340
-4.000E-08,-0.780
-3.000E-08,2.020
-2.000E-08,-0.400
-1.000E-08,-2.020
0.000E+00,-2.120
1.000E-08,-2.120
2.000E-08,-2.120
3.000E-08,-2.120
4.000E-08,-2.120
5.000E-08,-2.120
6.000E-08,-2.120
7.000E-08,-2.120
8.000E-08,-2.120
9.000E-08,-2.120
1.000E-07,-1.780
1.100E-07,-0.920
1.200E-07,0.540
1.300E-07,2.080
1.400E-07,3.300
1.500E-07,3.280
1.600E-07,3.300
1.700E-07,3.300
1.800E-07,3.280
1.900E-07,3.300
2.000E-07,3.300
2.100E-07,2.920
2.200E-07,2.500
2.300E-07,2.440
2.400E-07,2.040
2.500E-07,1.520
2.600E-07,0.920
2.700E-07,0.320
2.800E-07,-0.180
2.900E-07,-0.560
3.000E-07,-0.880
3.100E-07,-0.840
3.200E-07,-0.840
3.300E-07,-0.600
3.400E-07,-0.460
3.500E-07,-0.220
3.600E-07,0.000
3.700E-07,0.460
3.800E-07,0.800
3.900E-07,1.360
4.000E-07,1.780
4.100E-07,2.140
4.200E-07,2.240
4.300E-07,2.060
4.400E-07,1.660
4.500E-07,0.960
4.600E-07,0.160
4.700E-07,-0.680
4.800E-07,-1.520
4.900E-07,-2.140
5.000E-07,-2.140
5.100E-07,-2.120
5.200E-07,-2.120
5.300E-07,-2.120
5.400E-07,-2.120
5.500E-07,-2.120
5.600E-07,-2.120
5.700E-07,-1.840
5.800E-07,-1.160
5.900E-07,-0.440
6.000E-07,0.200
6.100E-07,0.760
6.200E-07,1.180
6.300E-07,1.460
6.400E-07,1.680
6.500E-07,1.880
6.600E-07,2.000
6.700E-07,2.060
6.800E-07,2.020
6.900E-07,1.940
7.000E-07,1.740
7.100E-07,1.480
7.200E-07,1.140
7.300E-07,0.820
7.400E-07,0.480
7.500E-07,0.140
7.600E-07,-0.160
7.700E-07,-0.440
7.800E-07,-0.620
7.900E-07,-0.740
8.000E-07,-0.740
8.100E-07,-0.640
8.200E-07,-0.420
8.300E-07,-0.120
8.400E-07,0.220
8.500E-07,0.620
8.600E-07,0.960
8.700E-07,1.200
8.800E-07,1.460
8.900E-07,1.560
9.000E-07,1.580
9.100E-07,1.520
9.200E-07,1.400
9.300E-07,1.180
9.400E-07,0.960
9.500E-07,0.700
9.600E-07,0.420
9.700E-07,0.120
9.800E-07,-0.140
9.900E-07,-0.320
1.000E-06,-0.460
1.010E-06,-0.560
1.020E-06,-0.640
1.030E-06,-0.600
1.040E-06,-0.600
1.050E-06,-0.560
1.060E-06,-0.540
1.070E-06,-0.480
1.080E-06,-0.480
1.090E-06,-0.480
1.100E-06,-0.520
1.110E-06,-0.500
1.120E-06,-0.580
1.130E-06,-0.560
1.140E-06,-0.580
1.150E-06,-0.520
1.160E-06,-0.500
1.170E-06,-0.480
1.180E-06,-0.480
1.190E-06,-0.480
1.200E-06,-0.420
1.210E-06,-0.420
1.220E-06,-0.380
1.230E-06,-0.340
1.240E-06,-0.320
1.250E-06,-0.260
1.260E-06,-0.200
1.270E-06,-0.100
1.280E-06,0.100
1.290E-06,0.220
1.300E-06,0.420
1.310E-06,0.100
1.320E-06,0.400
1.330E-06,0.120
1.340E-06,0.120
1.350E-06,-0.560
1.360E-06,-1.060
1.370E-06,-1.120
1.380E-06,-1.120
1.390E-06,-0.960
1.400E-06,-0.800
1.410E-06,-0.460
1.420E-06,0.060
1.430E-06,0.560
1.440E-06,0.980
1.450E-06,1.360
1.460E-06,1.640
1.470E-06,1.820
1.480E-06,1.940
1.490E-06,1.980
1.500E-06,1.860
1.510E-06,1.800
1.520E-06,1.580
1.530E-06,1.400
1.540E-06,1.140
1.550E-06,0.920
1.560E-06,0.700
1.570E-06,0.560
1.580E-06,0.440
1.590E-06,0.360
1.600E-06,0.240
1.610E-06,0.220
1.620E-06,0.180
1.630E-06,0.200
1.640E-06,0.120
1.650E-06,0.160
1.660E-06,0.180
1.670E-06,0.220
1.680E-06,0.320
1.690E-06,0.380
1.700E-06,0.440
1.710E-06,0.520
1.720E-06,0.600
1.730E-06,0.660
1.740E-06,0.680
1.750E-06,0.680
1.760E-06,0.680
1.770E-06,0.660
1.780E-06,0.640
1.790E-06,0.600
1.800E-06,0.540
1.810E-06,0.420
1.820E-06,0.380
1.830E-06,0.320
1.840E-06,0.260
1.850E-06,0.220
1.860E-06,0.220
1.870E-06,0.180
1.880E-06,0.200
1.890E-06,0.240
1.900E-06,0.280
1.910E-06,0.340
1.920E-06,0.420
1.930E-06,0.480
1.940E-06,0.520
1.950E-06,0.580
1.960E-06,0.700
1.970E-06,0.700
1.980E-06,0.760
1.990E-06,0.800
2.000E-06,0.840
2.010E-06,0.840
2.020E-06,0.800
2.030E-06,0.780
2.040E-06,0.800
2.050E-06,0.780
2.060E-06,0.760
2.070E-06,0.740
2.080E-06,0.760
2.090E-06,0.720
2.100E-06,0.700
2.110E-06,0.720
2.120E-06,0.660
2.130E-06,0.640
2.140E-06,0.600
2.150E-06,0.580
2.160E-06,0.600
2.170E-06,0.560
2.180E-06,0.580
2.190E-06,0.580
2.200E-06,0.580
2.210E-06,0.600
2.220E-06,0.620
2.230E-06,0.640
2.240E-06,0.700
2.250E-06,0.700
2.260E-06,0.740
2.270E-06,0.780
2.280E-06,0.800
2.290E-06,0.820
2.300E-06,0.800
2.310E-06,0.780
2.320E-06,0.780
2.330E-06,0.760
2.340E-06,0.760
2.350E-06,0.780
2.360E-06,0.720
2.370E-06,0.720
2.380E-06,0.660
2.390E-06,0.640
2.400E-06,0.600
2.410E-06,0.600
2.420E-06,0.580
2.430E-06,0.560
2.440E-06,0.540
2.450E-06,0.520
2.460E-06,0.480
2.470E-06,0.440
2.480E-06,0.480
2.490E-06,0.480
2.500E-06,0.460
2.510E-06,0.480
2.520E-06,0.480
2.530E-06,0.540
2.540E-06,0.520
2.550E-06,0.560
2.560E-06,0.580
2.570E-06,0.620
2.580E-06,0.700
2.590E-06,0.680
2.600E-06,0.660
2.610E-06,0.680
2.620E-06,0.640
2.630E-06,0.600
2.640E-06,0.520
2.650E-06,0.500
2.660E-06,0.440
2.670E-06,0.380
2.680E-06,0.340
2.690E-06,0.320
2.700E-06,0.260
2.710E-06,0.240
2.720E-06,0.220
2.730E-06,0.220
2.740E-06,0.240
2.750E-06,0.240
2.760E-06,0.280
2.770E-06,0.280
2.780E-06,0.360
2.790E-06,0.420
2.800E-06,0.500
2.810E-06,0.520
2.820E-06,0.540
2.830E-06,0.620
2.840E-06,0.700
2.850E-06,0.720
2.860E-06,0.800
2.870E-06,0.880
2.880E-06,0.940
2.890E-06,1.040
2.900E-06,1.100
2.910E-06,1.160
2.920E-06,1.260
2.930E-06,1.300
2.940E-06,1.400
2.950E-06,1.460
2.960E-06,1.480
2.970E-06,1.520
2.980E-06,1.520
2.990E-06,1.520
3.000E-06,1.460
3.010E-06,1.440
3.020E-06,1.380
3.030E-06,1.300
3.040E-06,1.200
3.050E-06,1.080
3.060E-06,1.000
3.070E-06,0.880
3.080E-06,0.800
3.090E-06,0.680
3.100E-06,0.600
3.110E-06,0.540
3.120E-06,0.440
3.130E-06,0.400
3.140E-06,0.360
3.150E-06,0.340
3.160E-06,0.300
3.170E-06,0.320
3.180E-06,0.360
3.190E-06,0.380
3.200E-06,0.420
3.210E-06,0.500
3.220E-06,0.540
3.230E-06,0.620
3.240E-06,0.740
3.250E-06,0.880
3.260E-06,0.960
3.270E-06,1.080
3.280E-06,1.180
3.290E-06,1.260
3.300E-06,1.360
3.310E-06,1.380
3.320E-06,1.420
3.330E-06,1.480
3.340E-06,1.540
3.350E-06,1.560
3.360E-06,1.580
3.370E-06,1.620
3.380E-06,1.640
3.390E-06,1.660
