mediciones/curva carac 8-28 limpias/-16/WaveData65723.csv

#timebase=2000000(ps)
,#voltbase=500000(mv/100)
#size=4000
-8.350E-06,0.020
-8.340E-06,0.040
-8.330E-06,0.060
-8.320E-06,0.060
-8.310E-06,0.060
-8.300E-06,0.080
-8.290E-06,0.020
-8.280E-06,0.020
-8.270E-06,0.060
-8.260E-06,0.040
-8.250E-06,0.060
-8.240E-06,0.060
-8.230E-06,0.040
-8.220E-06,0.020
-8.210E-06,0.020
-8.200E-06,0.040
-8.190E-06,0.040
-8.180E-06,0.020
-8.170E-06,0.040
-8.160E-06,0.040
-8.150E-06,0.080
-8.140E-06,0.040
-8.130E-06,0.040
-8.120E-06,0.040
-8.110E-06,0.040
-8.100E-06,0.060
-8.090E-06,0.040
-8.080E-06,0.020
-8.070E-06,0.040
-8.060E-06,0.060
-8.050E-06,0.060
-8.040E-06,0.020
-8.030E-06,0.040
-8.020E-06,0.040
-8.010E-06,0.080
-8.000E-06,0.040
-7.990E-06,0.040
-7.980E-06,0.000
-7.970E-06,0.040
-7.960E-06,0.020
-7.950E-06,0.040
-7.940E-06,0.080
-7.930E-06,0.020
-7.920E-06,0.060
-7.910E-06,0.040
-7.900E-06,0.040
-7.890E-06,0.020
-7.880E-06,0.040
-7.870E-06,0.040
-7.860E-06,0.080
-7.850E-06,0.040
-7.840E-06,0.040
-7.830E-06,0.040
-7.820E-06,0.040
-7.810E-06,0.020
-7.800E-06,0.040
-7.790E-06,0.060
-7.780E-06,0.040
-7.770E-06,0.040
-7.760E-06,0.020
-7.750E-06,0.060
-7.740E-06,0.060
-7.730E-06,0.060
-7.720E-06,0.060
-7.710E-06,0.040
-7.700E-06,0.020
-7.690E-06,0.080
-7.680E-06,0.040
-7.670E-06,0.000
-7.660E-06,0.040
-7.650E-06,0.060
-7.640E-06,0.080
-7.630E-06,0.040
-7.620E-06,0.020
-7.610E-06,0.020
-7.600E-06,0.040
-7.590E-06,0.040
-7.580E-06,0.020
-7.570E-06,0.040
-7.560E-06,0.060
-7.550E-06,0.020
-7.540E-06,0.040
-7.530E-06,0.040
-7.520E-06,0.060
-7.510E-06,0.040
-7.500E-06,0.040
-7.490E-06,0.040
-7.480E-06,0.040
-7.470E-06,0.020
-7.460E-06,0.060
-7.450E-06,0.040
-7.440E-06,0.020
-7.430E-06,0.040
-7.420E-06,0.040
-7.410E-06,0.020
-7.400E-06,0.040
-7.390E-06,0.060
-7.380E-06,0.040
-7.370E-06,0.020
-7.360E-06,0.040
-7.350E-06,0.040
-7.340E-06,0.020
-7.330E-06,0.040
-7.320E-06,0.040
-7.310E-06,0.040
-7.300E-06,0.060
-7.290E-06,0.040
-7.280E-06,0.040
-7.270E-06,0.040
-7.260E-06,0.020
-7.250E-06,0.060
-7.240E-06,0.040
-7.230E-06,0.020
-7.220E-06,0.040
-7.210E-06,0.060
-7.200E-06,0.040
-7.190E-06,0.020
-7.180E-06,0.040
-7.170E-06,0.040
-7.160E-06,0.060
-7.150E-06,0.040
-7.140E-06,0.060
-7.130E-06,0.020
-7.120E-06,0.040
-7.110E-06,0.040
-7.100E-06,0.040
-7.090E-06,0.060
-7.080E-06,0.040
-7.070E-06,0.020
-7.060E-06,0.020
-7.050E-06,0.040
-7.040E-06,0.060
-7.030E-06,0.020
-7.020E-06,0.000
-7.010E-06,0.020
-7.000E-06,0.060
-6.990E-06,0.020
-6.980E-06,0.040
-6.970E-06,0.060
-6.960E-06,0.040
-6.950E-06,0.060
-6.940E-06,0.020
-6.930E-06,0.020
-6.920E-06,0.020
-6.910E-06,0.080
-6.900E-06,0.060
-6.890E-06,0.060
-6.880E-06,0.040
-6.870E-06,0.040
-6.860E-06,0.020
-6.850E-06,0.040
-6.840E-06,0.020
-6.830E-06,0.060
-6.820E-06,0.000
-6.810E-06,0.040
-6.800E-06,0.040
-6.790E-06,0.040
-6.780E-06,0.020
-6.770E-06,0.040
-6.760E-06,0.020
-6.750E-06,0.020
-6.740E-06,0.040
-6.730E-06,0.060
-6.720E-06,0.060
-6.710E-06,0.020
-6.700E-06,0.060
-6.690E-06,0.060
-6.680E-06,0.040
-6.670E-06,0.040
-6.660E-06,0.020
-6.650E-06,0.040
-6.640E-06,0.060
-6.630E-06,0.020
-6.620E-06,0.060
-6.610E-06,-0.020
-6.600E-06,0.040
-6.590E-06,0.020
-6.580E-06,0.040
-6.570E-06,0.060
-6.560E-06,0.040
-6.550E-06,0.020
-6.540E-06,0.040
-6.530E-06,0.020
-6.520E-06,0.040
-6.510E-06,0.060
-6.500E-06,0.060
-6.490E-06,0.060
-6.480E-06,0.080
-6.470E-06,0.060
-6.460E-06,0.020
-6.450E-06,0.040
-6.440E-06,0.060
-6.430E-06,0.020
-6.420E-06,0.060
-6.410E-06,0.040
-6.400E-06,0.040
-6.390E-06,0.040
-6.380E-06,0.080
-6.370E-06,0.020
-6.360E-06,0.060
-6.350E-06,0.080
-6.340E-06,0.000
-6.330E-06,0.000
-6.320E-06,0.040
-6.310E-06,0.080
-6.300E-06,0.040
-6.290E-06,0.020
-6.280E-06,0.060
-6.270E-06,0.040
-6.260E-06,0.040
-6.250E-06,0.020
-6.240E-06,0.040
-6.230E-06,0.080
-6.220E-06,0.040
-6.210E-06,0.060
-6.200E-06,0.040
-6.190E-06,0.080
-6.180E-06,0.040
-6.170E-06,0.020
-6.160E-06,0.060
-6.150E-06,0.020
-6.140E-06,0.060
-6.130E-06,0.060
-6.120E-06,0.020
-6.110E-06,0.060
-6.100E-06,0.040
-6.090E-06,0.060
-6.080E-06,0.060
-6.070E-06,0.020
-6.060E-06,0.020
-6.050E-06,0.040
-6.040E-06,0.040
-6.030E-06,0.060
-6.020E-06,0.040
-6.010E-06,0.000
-6.000E-06,0.040
-5.990E-06,0.040
-5.980E-06,0.040
-5.970E-06,0.060
-5.960E-06,0.040
-5.950E-06,0.040
-5.940E-06,0.040
-5.930E-06,0.040
-5.920E-06,0.080
-5.910E-06,0.040
-5.900E-06,-0.020
-5.890E-06,0.040
-5.880E-06,0.040
-5.870E-06,0.040
-5.860E-06,0.040
-5.850E-06,0.000
-5.840E-06,0.060
-5.830E-06,0.000
-5.820E-06,0.040
-5.810E-06,0.060
-5.800E-06,0.060
-5.790E-06,0.040
-5.780E-06,0.080
-5.770E-06,0.040
-5.760E-06,0.040
-5.750E-06,0.060
-5.740E-06,0.040
-5.730E-06,0.000
-5.720E-06,0.040
-5.710E-06,0.020
-5.700E-06,0.000
-5.690E-06,0.020
-5.680E-06,0.060
-5.670E-06,0.040
-5.660E-06,0.060
-5.650E-06,0.040
-5.640E-06,0.060
-5.630E-06,0.020
-5.620E-06,0.020
-5.610E-06,0.060
-5.600E-06,0.060
-5.590E-06,0.040
-5.580E-06,0.060
-5.570E-06,0.020
-5.560E-06,0.060
-5.550E-06,0.060
-5.540E-06,0.060
-5.530E-06,0.020
-5.520E-06,0.040
-5.510E-06,0.040
-5.500E-06,0.020
-5.490E-06,0.040
-5.480E-06,0.020
-5.470E-06,0.040
-5.460E-06,0.040
-5.450E-06,0.060
-5.440E-06,0.040
-5.430E-06,0.060
-5.420E-06,0.080
-5.410E-06,0.020
-5.400E-06,0.020
-5.390E-06,0.040
-5.380E-06,0.000
-5.370E-06,0.060
-5.360E-06,0.060
-5.350E-06,0.080
-5.340E-06,0.020
-5.330E-06,0.040
-5.320E-06,0.040
-5.310E-06,0.000
-5.300E-06,0.020
-5.290E-06,0.040
-5.280E-06,0.040
-5.270E-06,0.060
-5.260E-06,0.040
-5.250E-06,0.020
-5.240E-06,0.040
-5.230E-06,0.040
-5.220E-06,0.060
-5.210E-06,0.060
-5.200E-06,0.060
-5.190E-06,0.080
-5.180E-06,0.060
-5.170E-06,0.080
-5.160E-06,0.060
-5.150E-06,0.020
-5.140E-06,0.040
-5.130E-06,0.060
-5.120E-06,0.020
-5.110E-06,0.040
-5.100E-06,0.020
-5.090E-06,0.060
-5.080E-06,0.020
-5.070E-06,0.040
-5.060E-06,0.020
-5.050E-06,0.060
-5.040E-06,0.020
-5.030E-06,0.020
-5.020E-06,0.020
-5.010E-06,0.060
-5.000E-06,0.040
-4.990E-06,0.040
-4.980E-06,0.060
-4.970E-06,0.060
-4.960E-06,0.020
-4.950E-06,0.040
-4.940E-06,0.080
-4.930E-06,0.040
-4.920E-06,0.000
-4.910E-06,0.060
-4.900E-06,0.040
-4.890E-06,0.060
-4.880E-06,0.040
-4.870E-06,0.000
-4.860E-06,0.020
-4.850E-06,0.040
-4.840E-06,0.040
-4.830E-06,0.060
-4.820E-06,0.060
-4.810E-06,0.040
-4.800E-06,0.040
-4.790E-06,0.020
-4.780E-06,0.040
-4.770E-06,0.040
-4.760E-06,0.020
-4.750E-06,0.040
-4.740E-06,0.060
-4.730E-06,0.020
-4.720E-06,0.060
-4.710E-06,0.040
-4.700E-06,0.020
-4.690E-06,0.020
-4.680E-06,0.000
-4.670E-06,0.040
-4.660E-06,0.000
-4.650E-06,0.060
-4.640E-06,0.020
-4.630E-06,0.020
-4.620E-06,0.040
-4.610E-06,0.060
-4.600E-06,0.020
-4.590E-06,0.060
-4.580E-06,0.060
-4.570E-06,0.060
-4.560E-06,0.000
-4.550E-06,0.060
-4.540E-06,0.040
-4.530E-06,0.020
-4.520E-06,0.060
-4.510E-06,0.040
-4.500E-06,0.060
-4.490E-06,0.060
-4.480E-06,0.080
-4.470E-06,0.020
-4.460E-06,0.040
-4.450E-06,0.040
-4.440E-06,0.080
-4.430E-06,0.040
-4.420E-06,0.020
-4.410E-06,0.020
-4.400E-06,0.060
-4.390E-06,0.040
-4.380E-06,0.020
-4.370E-06,0.020
-4.360E-06,0.060
-4.350E-06,0.060
-4.340E-06,0.020
-4.330E-06,0.060
-4.320E-06,0.040
-4.310E-06,0.080
-4.300E-06,0.040
-4.290E-06,0.060
-4.280E-06,0.040
-4.270E-06,0.000
-4.260E-06,0.020
-4.250E-06,0.080
-4.240E-06,0.080
-4.230E-06,0.020
-4.220E-06,0.020
-4.210E-06,0.040
-4.200E-06,0.040
-4.190E-06,0.040
-4.180E-06,0.040
-4.170E-06,0.020
-4.160E-06,0.060
-4.150E-06,0.040
-4.140E-06,0.020
-4.130E-06,0.040
-4.120E-06,0.040
-4.110E-06,0.040
-4.100E-06,0.060
-4.090E-06,0.020
-4.080E-06,0.040
-4.070E-06,0.060
-4.060E-06,0.080
-4.050E-06,0.040
-4.040E-06,0.080
-4.030E-06,0.000
-4.020E-06,0.040
-4.010E-06,0.040
-4.000E-06,0.020
-3.990E-06,0.020
-3.980E-06,0.060
-3.970E-06,0.020
-3.960E-06,0.040
-3.950E-06,0.080
-3.940E-06,0.000
-3.930E-06,0.020
-3.920E-06,0.040
-3.910E-06,0.060
-3.900E-06,0.040
-3.890E-06,0.060
-3.880E-06,0.040
-3.870E-06,0.040
-3.860E-06,0.060
-3.850E-06,0.000
-3.840E-06,0.040
-3.830E-06,0.060
-3.820E-06,0.040
-3.810E-06,0.040
-3.800E-06,0.020
-3.790E-06,0.040
-3.780E-06,0.040
-3.770E-06,0.020
-3.760E-06,0.040
-3.750E-06,0.040
-3.740E-06,0.060
-3.730E-06,0.040
-3.720E-06,0.060
-3.710E-06,0.060
-3.700E-06,0.060
-3.690E-06,0.060
-3.680E-06,0.060
-3.670E-06,0.060
-3.660E-06,0.020
-3.650E-06,0.040
-3.640E-06,0.040
-3.630E-06,0.000
-3.620E-06,0.040
-3.610E-06,0.100
-3.600E-06,0.000
-3.590E-06,0.040
-3.580E-06,0.000
-3.570E-06,0.040
-3.560E-06,0.020
-3.550E-06,0.080
-3.540E-06,0.040
-3.530E-06,0.020
-3.520E-06,0.040
-3.510E-06,0.040
-3.500E-06,0.080
-3.490E-06,0.040
-3.480E-06,0.060
-3.470E-06,0.060
-3.460E-06,0.060
-3.450E-06,0.040
-3.440E-06,0.020
-3.430E-06,0.020
-3.420E-06,0.060
-3.410E-06,0.020
-3.400E-06,0.040
-3.390E-06,0.060
-3.380E-06,0.060
-3.370E-06,0.060
-3.360E-06,0.060
-3.350E-06,0.060
-3.340E-06,0.000
-3.330E-06,0.020
-3.320E-06,0.040
-3.310E-06,0.040
-3.300E-06,0.060
-3.290E-06,0.060
-3.280E-06,0.020
-3.270E-06,0.040
-3.260E-06,0.060
-3.250E-06,0.040
-3.240E-06,0.040
-3.230E-06,0.060
-3.220E-06,0.040
-3.210E-06,0.040
-3.200E-06,0.040
-3.190E-06,0.060
-3.180E-06,0.040
-3.170E-06,0.000
-3.160E-06,0.020
-3.150E-06,0.040
-3.140E-06,0.020
-3.130E-06,0.040
-3.120E-06,0.040
-3.110E-06,0.040
-3.100E-06,0.040
-3.090E-06,0.060
-3.080E-06,-0.160
-3.070E-06,-0.680
-3.060E-06,-1.620
-3.050E-06,-2.620
-3.040E-06,-3.240
-3.030E-06,-3.340
-3.020E-06,-2.720
-3.010E-06,-0.780
-3.000E-06,-0.240
-2.990E-06,1.680
-2.980E-06,1.780
-2.970E-06,2.100
-2.960E-06,2.080
-2.950E-06,2.080
-2.940E-06,2.080
-2.930E-06,2.080
-2.920E-06,2.060
-2.910E-06,1.700
-2.900E-06,0.820
-2.890E-06,0.360
-2.880E-06,-0.660
-2.870E-06,-0.640
-2.860E-06,-0.780
-2.850E-06,-0.960
-2.840E-06,-0.600
-2.830E-06,-0.240
-2.820E-06,-0.360
-2.810E-06,-0.580
-2.800E-06,-0.940
-2.790E-06,-1.520
-2.780E-06,-1.840
-2.770E-06,-2.060
-2.760E-06,-2.140
-2.750E-06,-1.960
-2.740E-06,-1.620
-2.730E-06,-1.020
-2.720E-06,-0.500
-2.710E-06,0.160
-2.700E-06,0.880
-2.690E-06,1.340
-2.680E-06,1.680
-2.670E-06,1.900
-2.660E-06,1.840
-2.650E-06,1.520
-2.640E-06,1.180
-2.630E-06,0.720
-2.620E-06,0.160
-2.610E-06,-0.280
-2.600E-06,-0.580
-2.590E-06,-0.860
-2.580E-06,-0.940
-2.570E-06,-0.940
-2.560E-06,-0.820
-2.550E-06,-0.700
-2.540E-06,-0.540
-2.530E-06,-0.380
-2.520E-06,-0.220
-2.510E-06,-0.040
-2.500E-06,0.200
-2.490E-06,0.400
-2.480E-06,0.580
-2.470E-06,0.760
-2.460E-06,0.880
-2.450E-06,0.980
-2.440E-06,1.000
-2.430E-06,0.920
-2.420E-06,0.820
-2.410E-06,0.660
-2.400E-06,0.500
-2.390E-06,0.340
-2.380E-06,0.220
-2.370E-06,0.020
-2.360E-06,-0.100
-2.350E-06,-0.240
-2.340E-06,-0.300
-2.330E-06,-0.440
-2.320E-06,-0.520
-2.310E-06,-0.580
-2.300E-06,-0.600
-2.290E-06,-0.640
-2.280E-06,-0.600
-2.270E-06,-0.540
-2.260E-06,-0.400
-2.250E-06,-0.240
-2.240E-06,0.000
-2.230E-06,0.220
-2.220E-06,0.420
-2.210E-06,0.660
-2.200E-06,0.800
-2.190E-06,0.840
-2.180E-06,0.880
-2.170E-06,0.800
-2.160E-06,0.640
-2.150E-06,0.440
-2.140E-06,0.220
-2.130E-06,-0.020
-2.120E-06,-0.240
-2.110E-06,-0.440
-2.100E-06,-0.560
-2.090E-06,-0.600
-2.080E-06,-0.600
-2.070E-06,-0.540
-2.060E-06,-0.460
-2.050E-06,-0.360
-2.040E-06,-0.240
-2.030E-06,-0.140
-2.020E-06,-0.040
-2.010E-06,0.060
-2.000E-06,0.060
-1.990E-06,0.100
-1.980E-06,0.120
-1.970E-06,0.140
-1.960E-06,0.100
-1.950E-06,0.140
-1.940E-06,0.140
-1.930E-06,0.180
-1.920E-06,0.220
-1.910E-06,0.240
-1.900E-06,0.240
-1.890E-06,0.220
-1.880E-06,0.240
-1.870E-06,0.160
-1.860E-06,0.140
-1.850E-06,0.080
-1.840E-06,-0.060
-1.830E-06,0.000
-1.820E-06,-0.020
-1.810E-06,-0.200
-1.800E-06,-0.020
-1.790E-06,-0.140
-1.780E-06,-0.060
-1.770E-06,0.000
-1.760E-06,-0.020
-1.750E-06,0.040
-1.740E-06,0.000
-1.730E-06,0.040
-1.720E-06,0.040
-1.710E-06,0.000
-1.700E-06,0.060
-1.690E-06,0.000
-1.680E-06,-0.020
-1.670E-06,-0.020
-1.660E-06,-0.080
-1.650E-06,-0.080
-1.640E-06,-0.060
-1.630E-06,-0.180
-1.620E-06,-0.120
-1.610E-06,-0.280
-1.600E-06,0.140
-1.590E-06,-0.240
-1.580E-06,0.160
-1.570E-06,-0.280
-1.560E-06,-0.020
-1.550E-06,-0.100
-1.540E-06,-0.120
-1.530E-06,-0.140
-1.520E-06,-0.080
-1.510E-06,-0.180
-1.500E-06,-0.140
-1.490E-06,-0.180
-1.480E-06,-0.160
-1.470E-06,-0.160
-1.460E-06,-0.140
-1.450E-06,-0.160
-1.440E-06,-0.180
-1.430E-06,-0.280
-1.420E-06,-0.160
-1.410E-06,-0.220
-1.400E-06,0.020
-1.390E-06,-0.180
-1.380E-06,0.060
-1.370E-06,-0.100
-1.360E-06,0.300
-1.350E-06,-0.080
-1.340E-06,0.280
-1.330E-06,0.180
-1.320E-06,0.180
-1.310E-06,0.100
-1.300E-06,0.100
-1.290E-06,-0.080
-1.280E-06,-0.020
-1.270E-06,-0.240
-1.260E-06,-0.240
-1.250E-06,-0.320
-1.240E-06,-0.340
-1.230E-06,-0.220
-1.220E-06,-0.260
-1.210E-06,-0.220
-1.200E-06,-0.240
-1.190E-06,-0.300
-1.180E-06,-0.120
-1.170E-06,-0.140
-1.160E-06,-0.080
-1.150E-06,-0.060
-1.140E-06,-0.100
-1.130E-06,-0.080
-1.120E-06,-0.080
-1.110E-06,-0.060
-1.100E-06,0.080
-1.090E-06,0.160
-1.080E-06,0.080
-1.070E-06,-0.060
-1.060E-06,-0.180
-1.050E-06,0.220
-1.040E-06,-0.340
-1.030E-06,0.200
-1.020E-06,-0.380
-1.010E-06,-0.060
-1.000E-06,-0.140
-9.900E-07,-0.180
-9.800E-07,-0.220
-9.700E-07,-0.120
-9.600E-07,-0.280
-9.500E-07,-0.260
-9.400E-07,-0.400
-9.300E-07,-0.300
-9.200E-07,-0.340
-9.100E-07,-0.320
-9.000E-07,-0.240
-8.900E-07,-0.260
-8.800E-07,-0.140
-8.700E-07,-0.080
-8.600E-07,-0.040
-8.500E-07,0.120
-8.400E-07,0.080
-8.300E-07,-0.100
-8.200E-07,0.020
-8.100E-07,-0.260
-8.000E-07,-0.100
-7.900E-07,-0.380
-7.800E-07,0.160
-7.700E-07,-0.080
-7.600E-07,0.860
-7.500E-07,1.000
-7.400E-07,1.740
-7.300E-07,2.060
-7.200E-07,2.100
-7.100E-07,1.940
-7.000E-07,1.560
-6.900E-07,0.440
-6.800E-07,0.240
-6.700E-07,-0.940
-6.600E-07,-0.340
-6.500E-07,-1.240
-6.400E-07,-1.300
-6.300E-07,-2.520
-6.200E-07,-3.120
-6.100E-07,-3.340
-6.000E-07,-3.320
-5.900E-07,-3.200
-5.800E-07,-3.180
-5.700E-07,-2.560
-5.600E-07,-2.380
-5.500E-07,-1.980
-5.400E-07,-1.560
-5.300E-07,-1.380
-5.200E-07,-0.560
-5.100E-07,0.320
-5.000E-07,0.940
-4.900E-07,1.340
-4.800E-07,1.720
-4.700E-07,1.980
-4.600E-07,2.000
-4.500E-07,2.020
-4.400E-07,1.720
-4.300E-07,1.760
-4.200E-07,1.420
-4.100E-07,1.320
-4.000E-07,1.020
-3.900E-07,0.660
-3.800E-07,0.300
-3.700E-07,-0.120
-3.600E-07,-0.580
-3.500E-07,-0.500
-3.400E-07,-0.740
-3.300E-07,-0.580
-3.200E-07,-1.020
-3.100E-07,-0.940
-3.000E-07,-1.500
-2.900E-07,-1.560
-2.800E-07,-1.620
-2.700E-07,-1.820
-2.600E-07,-1.260
-2.500E-07,-0.780
-2.400E-07,-0.080
-2.300E-07,0.540
-2.200E-07,0.780
-2.100E-07,1.240
-2.000E-07,0.460
-1.900E-07,0.420
-1.800E-07,-0.600
-1.700E-07,-0.520
-1.600E-07,-0.860
-1.500E-07,-1.020
-1.400E-07,-1.140
-1.300E-07,-1.520
-1.200E-07,-1.460
-1.100E-07,-1.700
-1.000E-07,-1.500
-9.000E-08,-1.440
-8.000E-08,-1.560
-7.000E-08,-0.920
-6.000E-08,-1.020
-5.000E-08,-0.460
-4.000E-08,-0.480
-3.000E-08,-0.280
-2.000E-08,-0.440
-1.000E-08,-0.400
0.000E+00,-0.260
1.000E-08,0.080
2.000E-08,0.580
3.000E-08,0.660
4.000E-08,0.740
5.000E-08,0.480
6.000E-08,0.480
7.000E-08,0.080
8.000E-08,0.340
9.000E-08,0.120
1.000E-07,0.220
1.100E-07,0.180
1.200E-07,-0.120
1.300E-07,-0.500
1.400E-07,-0.800
1.500E-07,-1.120
1.600E-07,-1.280
1.700E-07,-1.680
1.800E-07,-1.820
1.900E-07,-1.780
2.000E-07,-1.260
2.100E-07,-1.380
2.200E-07,-0.880
2.300E-07,-1.380
2.400E-07,-1.020
2.500E-07,-1.520
2.600E-07,-1.320
2.700E-07,-1.620
2.800E-07,-1.620
2.900E-07,-1.760
3.000E-07,-1.620
3.100E-07,-2.000
3.200E-07,-2.020
3.300E-07,-2.260
3.400E-07,-1.900
3.500E-07,-1.980
3.600E-07,-1.980
3.700E-07,-1.940
3.800E-07,-1.580
3.900E-07,-1.780
4.000E-07,-1.280
4.100E-07,-1.280
4.200E-07,-1.260
4.300E-07,-1.180
4.400E-07,-1.080
4.500E-07,-1.100
4.600E-07,-1.200
4.700E-07,-1.180
4.800E-07,-1.120
4.900E-07,-1.340
5.000E-07,-1.160
5.100E-07,-1.620
5.200E-07,-1.460
5.300E-07,-1.460
5.400E-07,-1.340
5.500E-07,-0.880
5.600E-07,-0.860
5.700E-07,-0.680
5.800E-07,-0.700
5.900E-07,-0.860
6.000E-07,-0.880
6.100E-07,-0.960
6.200E-07,-0.920
6.300E-07,-0.840
6.400E-07,-0.740
6.500E-07,-0.480
6.600E-07,-0.480
6.700E-07,-0.460
6.800E-07,-0.360
6.900E-07,-0.340
7.000E-07,-0.300
7.100E-07,-0.260
7.200E-07,-0.340
7.300E-07,-0.340
7.400E-07,-0.400
7.500E-07,-0.500
7.600E-07,-0.360
7.700E-07,-0.440
7.800E-07,-0.420
7.900E-07,-0.600
8.000E-07,-0.540
8.100E-07,-0.480
8.200E-07,-0.720
8.300E-07,-0.940
8.400E-07,-1.180
8.500E-07,-1.380
8.600E-07,-1.360
8.700E-07,-1.100
8.800E-07,-0.960
8.900E-07,-0.660
9.000E-07,-0.620
9.100E-07,-0.520
9.200E-07,-0.600
9.300E-07,-0.820
9.400E-07,-1.020
9.500E-07,-1.040
9.600E-07,-1.120
9.700E-07,-0.920
9.800E-07,-0.580
9.900E-07,-0.620
1.000E-06,-0.680
1.010E-06,-0.780
1.020E-06,-0.860
1.030E-06,-0.600
1.040E-06,-0.780
1.050E-06,-0.700
1.060E-06,-1.260
1.070E-06,-1.560
1.080E-06,-2.200
1.090E-06,-2.380
1.100E-06,-2.700
1.110E-06,-2.360
1.120E-06,-2.460
1.130E-06,-1.920
1.140E-06,-1.700
1.150E-06,-1.620
1.160E-06,-1.500
1.170E-06,-1.600
1.180E-06,-1.680
1.190E-06,-1.340
1.200E-06,-0.840
1.210E-06,-0.580
1.220E-06,-0.260
1.230E-06,0.860
1.240E-06,1.040
1.250E-06,2.020
1.260E-06,0.840
1.270E-06,0.140
1.280E-06,-2.020
1.290E-06,-3.140
1.300E-06,-3.320
1.310E-06,-3.340
1.320E-06,-3.340
1.330E-06,-3.340
1.340E-06,-3.340
1.350E-06,-3.340
1.360E-06,-3.340
1.370E-06,-3.340
1.380E-06,-3.340
1.390E-06,-3.360
1.400E-06,-3.360
1.410E-06,-3.360
1.420E-06,-3.340
1.430E-06,-3.340
1.440E-06,-2.460
1.450E-06,-1.160
1.460E-06,0.000
1.470E-06,0.520
1.480E-06,0.980
1.490E-06,1.700
1.500E-06,1.820
1.510E-06,1.940
1.520E-06,1.780
1.530E-06,1.840
1.540E-06,1.640
1.550E-06,1.500
1.560E-06,1.020
1.570E-06,0.760
1.580E-06,0.300
1.590E-06,-0.060
1.600E-06,-0.480
1.610E-06,-0.660
1.620E-06,-0.660
1.630E-06,-0.580
1.640E-06,-0.200
1.650E-06,0.180
1.660E-06,0.980
1.670E-06,1.440
1.680E-06,2.100
1.690E-06,2.080
1.700E-06,2.080
1.710E-06,2.060
1.720E-06,2.080
1.730E-06,2.100
1.740E-06,2.080
1.750E-06,2.060
1.760E-06,1.960
1.770E-06,1.160
1.780E-06,0.180
1.790E-06,-0.780
1.800E-06,-1.780
1.810E-06,-2.540
1.820E-06,-3.180
1.830E-06,-3.360
1.840E-06,-3.340
1.850E-06,-3.340
1.860E-06,-3.320
1.870E-06,-3.340
1.880E-06,-3.040
1.890E-06,-2.340
1.900E-06,-2.120
1.910E-06,-1.860
1.920E-06,-1.800
1.930E-06,-1.500
1.940E-06,-1.180
1.950E-06,-0.940
1.960E-06,-0.680
1.970E-06,-0.200
1.980E-06,0.120
1.990E-06,0.240
2.000E-06,0.600
2.010E-06,0.980
2.020E-06,0.960
2.030E-06,1.140
2.040E-06,0.600
2.050E-06,0.240
2.060E-06,-0.320
2.070E-06,-0.300
2.080E-06,-0.420
2.090E-06,-0.500
2.100E-06,-0.660
2.110E-06,-0.620
2.120E-06,-0.520
2.130E-06,-0.440
2.140E-06,-0.160
2.150E-06,0.220
2.160E-06,0.520
2.170E-06,0.920
2.180E-06,1.240
2.190E-06,1.520
2.200E-06,1.680
2.210E-06,1.840
2.220E-06,1.860
2.230E-06,1.780
2.240E-06,1.680
2.250E-06,1.500
2.260E-06,1.320
2.270E-06,1.080
2.280E-06,0.880
2.290E-06,0.680
2.300E-06,0.580
2.310E-06,0.480
2.320E-06,0.400
2.330E-06,0.320
2.340E-06,0.260
2.350E-06,0.160
2.360E-06,0.080
2.370E-06,-0.080
2.380E-06,-0.220
2.390E-06,-0.320
2.400E-06,-0.420
2.410E-06,-0.540
2.420E-06,-0.600
2.430E-06,-0.580
2.440E-06,-0.600
2.450E-06,-0.460
2.460E-06,-0.300
2.470E-06,-0.180
2.480E-06,0.020
2.490E-06,0.100
2.500E-06,0.240
2.510E-06,0.200
2.520E-06,0.160
2.530E-06,0.060
2.540E-06,0.200
2.550E-06,0.100
2.560E-06,0.140
2.570E-06,0.080
2.580E-06,0.180
2.590E-06,0.160
2.600E-06,0.260
2.610E-06,0.280
2.620E-06,0.340
2.630E-06,0.400
2.640E-06,0.500
2.650E-06,0.580
2.660E-06,0.700
2.670E-06,0.800
2.680E-06,0.900
2.690E-06,1.000
2.700E-06,0.980
2.710E-06,0.920
2.720E-06,1.020
2.730E-06,0.900
2.740E-06,0.880
2.750E-06,0.920
2.760E-06,0.860
2.770E-06,0.860
2.780E-06,0.860
2.790E-06,0.920
2.800E-06,0.860
2.810E-06,0.800
2.820E-06,0.620
2.830E-06,0.560
2.840E-06,0.400
2.850E-06,0.380
2.860E-06,0.260
2.870E-06,0.220
2.880E-06,0.160
2.890E-06,0.060
2.900E-06,0.080
2.910E-06,0.040
2.920E-06,0.040
2.930E-06,0.080
2.940E-06,0.120
2.950E-06,0.120
2.960E-06,0.200
2.970E-06,0.220
2.980E-06,0.240
2.990E-06,0.360
3.000E-06,0.380
3.010E-06,0.460
3.020E-06,0.540
3.030E-06,0.640
3.040E-06,0.760
3.050E-06,0.760
3.060E-06,0.560
3.070E-06,0.680
3.080E-06,0.520
3.090E-06,0.640
3.100E-06,0.560
3.110E-06,0.580
3.120E-06,0.660
3.130E-06,0.660
3.140E-06,0.800
3.150E-06,0.740
3.160E-06,0.780
3.170E-06,0.760
3.180E-06,0.860
3.190E-06,0.700
3.200E-06,0.680
3.210E-06,0.520
3.220E-06,0.580
3.230E-06,0.360
3.240E-06,0.380
3.250E-06,0.240
3.260E-06,0.280
3.270E-06,0.200
3.280E-06,0.240
3.290E-06,0.280
3.300E-06,0.320
3.310E-06,0.360
3.320E-06,0.360
3.330E-06,0.420
3.340E-06,0.420
3.350E-06,0.440
