mediciones/curva carac 8-28 limpias/-57/WaveData651004.csv

#timebase=2000000(ps)
,#voltbase=200000(mv/100)
#size=4000
-8.350E-06,0.008
-8.340E-06,0.000
-8.330E-06,0.008
-8.320E-06,0.000
-8.310E-06,-0.008
-8.300E-06,0.000
-8.290E-06,0.008
-8.280E-06,0.008
-8.270E-06,0.008
-8.260E-06,0.000
-8.250E-06,0.000
-8.240E-06,0.008
-8.230E-06,0.000
-8.220E-06,0.008
-8.210E-06,0.000
-8.200E-06,0.008
-8.190E-06,0.008
-8.180E-06,0.016
-8.170E-06,0.008
-8.160E-06,0.008
-8.150E-06,0.000
-8.140E-06,0.016
-8.130E-06,0.000
-8.120E-06,0.000
-8.110E-06,0.000
-8.100E-06,0.008
-8.090E-06,0.000
-8.080E-06,0.000
-8.070E-06,0.000
-8.060E-06,0.000
-8.050E-06,0.008
-8.040E-06,0.008
-8.030E-06,0.000
-8.020E-06,0.008
-8.010E-06,0.008
-8.000E-06,0.008
-7.990E-06,0.000
-7.980E-06,0.008
-7.970E-06,0.008
-7.960E-06,0.008
-7.950E-06,0.008
-7.940E-06,0.008
-7.930E-06,0.008
-7.920E-06,0.000
-7.910E-06,0.008
-7.900E-06,0.008
-7.890E-06,0.000
-7.880E-06,0.008
-7.870E-06,0.000
-7.860E-06,0.024
-7.850E-06,0.056
-7.840E-06,-0.072
-7.830E-06,0.016
-7.820E-06,-0.120
-7.810E-06,-0.016
-7.800E-06,-0.152
-7.790E-06,0.024
-7.780E-06,0.048
-7.770E-06,0.088
-7.760E-06,0.064
-7.750E-06,0.064
-7.740E-06,-0.048
-7.730E-06,-0.088
-7.720E-06,-0.040
-7.710E-06,0.024
-7.700E-06,0.064
-7.690E-06,0.088
-7.680E-06,0.056
-7.670E-06,-0.008
-7.660E-06,-0.040
-7.650E-06,-0.088
-7.640E-06,-0.064
-7.630E-06,-0.008
-7.620E-06,0.048
-7.610E-06,0.080
-7.600E-06,0.088
-7.590E-06,-0.024
-7.580E-06,-0.016
-7.570E-06,-0.056
-7.560E-06,-0.056
-7.550E-06,0.056
-7.540E-06,0.024
-7.530E-06,0.056
-7.520E-06,0.048
-7.510E-06,-0.008
-7.500E-06,-0.008
-7.490E-06,-0.048
-7.480E-06,-0.048
-7.470E-06,0.040
-7.460E-06,0.008
-7.450E-06,0.040
-7.440E-06,0.064
-7.430E-06,-0.048
-7.420E-06,0.032
-7.410E-06,-0.016
-7.400E-06,-0.024
-7.390E-06,0.056
-7.380E-06,0.000
-7.370E-06,0.024
-7.360E-06,0.024
-7.350E-06,-0.024
-7.340E-06,0.008
-7.330E-06,0.000
-7.320E-06,-0.008
-7.310E-06,0.032
-7.300E-06,-0.016
-7.290E-06,0.008
-7.280E-06,0.024
-7.270E-06,-0.008
-7.260E-06,0.024
-7.250E-06,0.016
-7.240E-06,-0.008
-7.230E-06,0.040
-7.220E-06,-0.016
-7.210E-06,-0.008
-7.200E-06,0.008
-7.190E-06,-0.008
-7.180E-06,0.008
-7.170E-06,0.008
-7.160E-06,-0.008
-7.150E-06,0.016
-7.140E-06,0.000
-7.130E-06,0.000
-7.120E-06,0.008
-7.110E-06,-0.008
-7.100E-06,0.016
-7.090E-06,0.016
-7.080E-06,0.016
-7.070E-06,0.016
-7.060E-06,0.000
-7.050E-06,-0.008
-7.040E-06,-0.008
-7.030E-06,0.016
-7.020E-06,0.008
-7.010E-06,0.008
-7.000E-06,0.016
-6.990E-06,0.000
-6.980E-06,-0.008
-6.970E-06,-0.008
-6.960E-06,0.000
-6.950E-06,0.008
-6.940E-06,0.000
-6.930E-06,0.016
-6.920E-06,0.016
-6.910E-06,0.016
-6.900E-06,0.008
-6.890E-06,-0.008
-6.880E-06,0.008
-6.870E-06,0.008
-6.860E-06,0.000
-6.850E-06,0.008
-6.840E-06,0.016
-6.830E-06,-0.008
-6.820E-06,0.000
-6.810E-06,-0.008
-6.800E-06,0.000
-6.790E-06,0.016
-6.780E-06,0.000
-6.770E-06,0.016
-6.760E-06,0.016
-6.750E-06,-0.008
-6.740E-06,0.008
-6.730E-06,0.008
-6.720E-06,0.000
-6.710E-06,0.008
-6.700E-06,0.000
-6.690E-06,0.008
-6.680E-06,0.000
-6.670E-06,0.000
-6.660E-06,0.008
-6.650E-06,0.008
-6.640E-06,0.000
-6.630E-06,0.000
-6.620E-06,0.008
-6.610E-06,0.008
-6.600E-06,0.000
-6.590E-06,0.000
-6.580E-06,0.008
-6.570E-06,0.000
-6.560E-06,0.000
-6.550E-06,0.008
-6.540E-06,0.000
-6.530E-06,0.008
-6.520E-06,0.000
-6.510E-06,0.000
-6.500E-06,0.000
-6.490E-06,0.008
-6.480E-06,0.008
-6.470E-06,0.008
-6.460E-06,0.000
-6.450E-06,0.008
-6.440E-06,0.000
-6.430E-06,0.008
-6.420E-06,0.016
-6.410E-06,0.000
-6.400E-06,-0.008
-6.390E-06,0.008
-6.380E-06,0.008
-6.370E-06,0.008
-6.360E-06,0.000
-6.350E-06,0.008
-6.340E-06,0.008
-6.330E-06,0.016
-6.320E-06,0.000
-6.310E-06,0.000
-6.300E-06,0.008
-6.290E-06,0.008
-6.280E-06,0.016
-6.270E-06,0.008
-6.260E-06,0.008
-6.250E-06,0.000
-6.240E-06,0.008
-6.230E-06,0.000
-6.220E-06,0.000
-6.210E-06,0.008
-6.200E-06,0.008
-6.190E-06,0.000
-6.180E-06,0.016
-6.170E-06,0.008
-6.160E-06,0.000
-6.150E-06,0.000
-6.140E-06,0.008
-6.130E-06,0.008
-6.120E-06,0.000
-6.110E-06,0.000
-6.100E-06,0.000
-6.090E-06,0.008
-6.080E-06,0.000
-6.070E-06,0.008
-6.060E-06,0.008
-6.050E-06,0.000
-6.040E-06,0.016
-6.030E-06,0.000
-6.020E-06,0.016
-6.010E-06,-0.008
-6.000E-06,0.000
-5.990E-06,0.000
-5.980E-06,0.008
-5.970E-06,0.000
-5.960E-06,0.016
-5.950E-06,0.000
-5.940E-06,0.000
-5.930E-06,0.000
-5.920E-06,-0.008
-5.910E-06,0.000
-5.900E-06,0.000
-5.890E-06,0.016
-5.880E-06,0.008
-5.870E-06,0.008
-5.860E-06,0.008
-5.850E-06,0.008
-5.840E-06,0.008
-5.830E-06,0.000
-5.820E-06,0.016
-5.810E-06,0.000
-5.800E-06,0.000
-5.790E-06,0.008
-5.780E-06,0.000
-5.770E-06,0.008
-5.760E-06,0.008
-5.750E-06,0.000
-5.740E-06,0.000
-5.730E-06,0.008
-5.720E-06,0.016
-5.710E-06,0.000
-5.700E-06,0.016
-5.690E-06,0.000
-5.680E-06,0.008
-5.670E-06,0.008
-5.660E-06,0.000
-5.650E-06,0.000
-5.640E-06,-0.008
-5.630E-06,0.000
-5.620E-06,0.000
-5.610E-06,0.008
-5.600E-06,-0.008
-5.590E-06,0.000
-5.580E-06,0.016
-5.570E-06,0.008
-5.560E-06,0.008
-5.550E-06,0.008
-5.540E-06,0.008
-5.530E-06,0.008
-5.520E-06,0.040
-5.510E-06,0.000
-5.500E-06,0.056
-5.490E-06,0.032
-5.480E-06,-0.008
-5.470E-06,0.056
-5.460E-06,-0.024
-5.450E-06,0.000
-5.440E-06,0.032
-5.430E-06,-0.040
-5.420E-06,0.040
-5.410E-06,0.016
-5.400E-06,-0.008
-5.390E-06,0.048
-5.380E-06,-0.024
-5.370E-06,-0.008
-5.360E-06,0.032
-5.350E-06,-0.016
-5.340E-06,0.048
-5.330E-06,0.040
-5.320E-06,0.008
-5.310E-06,0.040
-5.300E-06,-0.048
-5.290E-06,-0.024
-5.280E-06,-0.008
-5.270E-06,-0.016
-5.260E-06,0.040
-5.250E-06,0.024
-5.240E-06,0.024
-5.230E-06,0.024
-5.220E-06,-0.008
-5.210E-06,-0.016
-5.200E-06,-0.024
-5.190E-06,0.008
-5.180E-06,-0.016
-5.170E-06,0.048
-5.160E-06,0.016
-5.150E-06,0.040
-5.140E-06,0.008
-5.130E-06,-0.024
-5.120E-06,-0.008
-5.110E-06,0.024
-5.100E-06,0.000
-5.090E-06,0.008
-5.080E-06,0.008
-5.070E-06,0.000
-5.060E-06,0.024
-5.050E-06,0.008
-5.040E-06,0.000
-5.030E-06,0.032
-5.020E-06,-0.008
-5.010E-06,0.000
-5.000E-06,0.016
-4.990E-06,-0.008
-4.980E-06,0.016
-4.970E-06,0.008
-4.960E-06,0.000
-4.950E-06,0.008
-4.940E-06,0.000
-4.930E-06,0.000
-4.920E-06,0.000
-4.910E-06,-0.008
-4.900E-06,0.016
-4.890E-06,0.024
-4.880E-06,0.016
-4.870E-06,0.016
-4.860E-06,0.000
-4.850E-06,0.008
-4.840E-06,0.000
-4.830E-06,0.000
-4.820E-06,0.008
-4.810E-06,0.000
-4.800E-06,0.000
-4.790E-06,-0.008
-4.780E-06,0.000
-4.770E-06,0.000
-4.760E-06,0.008
-4.750E-06,0.000
-4.740E-06,0.008
-4.730E-06,0.008
-4.720E-06,0.008
-4.710E-06,0.008
-4.700E-06,0.008
-4.690E-06,0.000
-4.680E-06,0.008
-4.670E-06,0.016
-4.660E-06,0.000
-4.650E-06,0.016
-4.640E-06,0.016
-4.630E-06,0.000
-4.620E-06,-0.008
-4.610E-06,-0.016
-4.600E-06,0.008
-4.590E-06,0.008
-4.580E-06,0.016
-4.570E-06,-0.008
-4.560E-06,0.016
-4.550E-06,0.008
-4.540E-06,0.000
-4.530E-06,0.008
-4.520E-06,-0.008
-4.510E-06,0.016
-4.500E-06,0.000
-4.490E-06,0.016
-4.480E-06,0.008
-4.470E-06,0.000
-4.460E-06,0.000
-4.450E-06,0.000
-4.440E-06,0.000
-4.430E-06,0.016
-4.420E-06,0.008
-4.410E-06,0.008
-4.400E-06,0.008
-4.390E-06,0.000
-4.380E-06,0.016
-4.370E-06,0.008
-4.360E-06,0.008
-4.350E-06,0.016
-4.340E-06,0.016
-4.330E-06,0.008
-4.320E-06,0.000
-4.310E-06,0.000
-4.300E-06,0.000
-4.290E-06,0.000
-4.280E-06,0.008
-4.270E-06,0.016
-4.260E-06,0.000
-4.250E-06,0.024
-4.240E-06,0.016
-4.230E-06,0.008
-4.220E-06,0.000
-4.210E-06,0.000
-4.200E-06,0.016
-4.190E-06,0.008
-4.180E-06,0.016
-4.170E-06,0.000
-4.160E-06,0.016
-4.150E-06,0.000
-4.140E-06,0.008
-4.130E-06,0.000
-4.120E-06,0.016
-4.110E-06,0.008
-4.100E-06,0.008
-4.090E-06,0.008
-4.080E-06,0.008
-4.070E-06,0.008
-4.060E-06,0.008
-4.050E-06,0.016
-4.040E-06,0.008
-4.030E-06,0.016
-4.020E-06,-0.008
-4.010E-06,0.008
-4.000E-06,0.000
-3.990E-06,0.000
-3.980E-06,-0.008
-3.970E-06,-0.008
-3.960E-06,0.016
-3.950E-06,-0.008
-3.940E-06,0.000
-3.930E-06,0.008
-3.920E-06,-0.008
-3.910E-06,0.016
-3.900E-06,0.000
-3.890E-06,0.000
-3.880E-06,0.008
-3.870E-06,0.000
-3.860E-06,0.016
-3.850E-06,0.008
-3.840E-06,0.000
-3.830E-06,0.024
-3.820E-06,-0.008
-3.810E-06,0.000
-3.800E-06,0.000
-3.790E-06,0.000
-3.780E-06,0.016
-3.770E-06,0.016
-3.760E-06,0.016
-3.750E-06,0.008
-3.740E-06,0.008
-3.730E-06,0.008
-3.720E-06,-0.008
-3.710E-06,0.008
-3.700E-06,0.032
-3.690E-06,0.016
-3.680E-06,0.008
-3.670E-06,-0.008
-3.660E-06,-0.008
-3.650E-06,0.024
-3.640E-06,0.008
-3.630E-06,-0.016
-3.620E-06,-0.048
-3.610E-06,0.000
-3.600E-06,-0.008
-3.590E-06,0.024
-3.580E-06,0.000
-3.570E-06,0.008
-3.560E-06,0.024
-3.550E-06,0.016
-3.540E-06,0.008
-3.530E-06,-0.008
-3.520E-06,-0.008
-3.510E-06,0.032
-3.500E-06,0.008
-3.490E-06,0.016
-3.480E-06,0.000
-3.470E-06,0.008
-3.460E-06,0.000
-3.450E-06,0.008
-3.440E-06,-0.008
-3.430E-06,0.008
-3.420E-06,0.000
-3.410E-06,0.008
-3.400E-06,0.016
-3.390E-06,0.000
-3.380E-06,0.016
-3.370E-06,0.000
-3.360E-06,0.000
-3.350E-06,0.016
-3.340E-06,0.008
-3.330E-06,0.000
-3.320E-06,0.008
-3.310E-06,-0.008
-3.300E-06,0.024
-3.290E-06,0.008
-3.280E-06,0.008
-3.270E-06,0.008
-3.260E-06,0.000
-3.250E-06,-0.008
-3.240E-06,0.008
-3.230E-06,-0.008
-3.220E-06,0.016
-3.210E-06,0.008
-3.200E-06,0.008
-3.190E-06,0.008
-3.180E-06,0.000
-3.170E-06,0.016
-3.160E-06,0.000
-3.150E-06,0.008
-3.140E-06,0.008
-3.130E-06,0.016
-3.120E-06,-0.008
-3.110E-06,0.024
-3.100E-06,0.008
-3.090E-06,0.000
-3.080E-06,0.016
-3.070E-06,0.000
-3.060E-06,0.016
-3.050E-06,0.008
-3.040E-06,0.000
-3.030E-06,0.024
-3.020E-06,0.008
-3.010E-06,0.008
-3.000E-06,0.016
-2.990E-06,-0.008
-2.980E-06,0.024
-2.970E-06,0.016
-2.960E-06,0.008
-2.950E-06,0.024
-2.940E-06,0.016
-2.930E-06,0.008
-2.920E-06,0.016
-2.910E-06,0.000
-2.900E-06,0.024
-2.890E-06,0.024
-2.880E-06,0.024
-2.870E-06,0.016
-2.860E-06,0.008
-2.850E-06,0.016
-2.840E-06,0.000
-2.830E-06,0.000
-2.820E-06,0.024
-2.810E-06,0.032
-2.800E-06,0.024
-2.790E-06,0.024
-2.780E-06,0.016
-2.770E-06,0.016
-2.760E-06,0.016
-2.750E-06,0.024
-2.740E-06,0.008
-2.730E-06,0.008
-2.720E-06,0.008
-2.710E-06,0.016
-2.700E-06,-0.008
-2.690E-06,-0.008
-2.680E-06,0.016
-2.670E-06,0.016
-2.660E-06,0.008
-2.650E-06,0.016
-2.640E-06,0.032
-2.630E-06,0.016
-2.620E-06,0.040
-2.610E-06,0.024
-2.600E-06,0.008
-2.590E-06,0.024
-2.580E-06,0.032
-2.570E-06,0.024
-2.560E-06,0.032
-2.550E-06,0.016
-2.540E-06,0.000
-2.530E-06,-0.136
-2.520E-06,-0.128
-2.510E-06,0.000
-2.500E-06,-0.096
-2.490E-06,0.072
-2.480E-06,0.152
-2.470E-06,-0.152
-2.460E-06,0.032
-2.450E-06,-0.072
-2.440E-06,-0.128
-2.430E-06,0.184
-2.420E-06,-0.032
-2.410E-06,0.048
-2.400E-06,0.088
-2.390E-06,-0.120
-2.380E-06,0.056
-2.370E-06,0.016
-2.360E-06,-0.064
-2.350E-06,0.088
-2.340E-06,-0.048
-2.330E-06,0.056
-2.320E-06,0.128
-2.310E-06,-0.088
-2.300E-06,0.048
-2.290E-06,-0.024
-2.280E-06,-0.056
-2.270E-06,0.080
-2.260E-06,-0.048
-2.250E-06,0.000
-2.240E-06,0.056
-2.230E-06,-0.088
-2.220E-06,0.056
-2.210E-06,0.032
-2.200E-06,-0.024
-2.190E-06,0.088
-2.180E-06,-0.048
-2.170E-06,0.000
-2.160E-06,0.024
-2.150E-06,-0.056
-2.140E-06,0.056
-2.130E-06,0.032
-2.120E-06,-0.016
-2.110E-06,0.048
-2.100E-06,-0.032
-2.090E-06,-0.008
-2.080E-06,0.024
-2.070E-06,-0.024
-2.060E-06,0.048
-2.050E-06,0.032
-2.040E-06,0.000
-2.030E-06,0.040
-2.020E-06,-0.008
-2.010E-06,-0.008
-2.000E-06,0.024
-1.990E-06,-0.016
-1.980E-06,0.032
-1.970E-06,-0.008
-1.960E-06,-0.016
-1.950E-06,0.032
-1.940E-06,-0.016
-1.930E-06,0.008
-1.920E-06,0.032
-1.910E-06,-0.016
-1.900E-06,0.016
-1.890E-06,-0.008
-1.880E-06,-0.024
-1.870E-06,0.040
-1.860E-06,0.000
-1.850E-06,0.024
-1.840E-06,0.024
-1.830E-06,-0.008
-1.820E-06,0.016
-1.810E-06,-0.008
-1.800E-06,-0.016
-1.790E-06,0.024
-1.780E-06,0.000
-1.770E-06,0.016
-1.760E-06,0.032
-1.750E-06,-0.016
-1.740E-06,0.016
-1.730E-06,0.000
-1.720E-06,-0.008
-1.710E-06,0.024
-1.700E-06,0.000
-1.690E-06,0.008
-1.680E-06,0.008
-1.670E-06,-0.008
-1.660E-06,0.024
-1.650E-06,0.016
-1.640E-06,0.008
-1.630E-06,0.016
-1.620E-06,0.008
-1.610E-06,0.008
-1.600E-06,0.008
-1.590E-06,-0.008
-1.580E-06,0.000
-1.570E-06,0.008
-1.560E-06,0.008
-1.550E-06,0.016
-1.540E-06,0.024
-1.530E-06,0.008
-1.520E-06,0.008
-1.510E-06,0.024
-1.500E-06,-0.008
-1.490E-06,0.000
-1.480E-06,0.016
-1.470E-06,-0.008
-1.460E-06,0.024
-1.450E-06,0.024
-1.440E-06,0.000
-1.430E-06,0.024
-1.420E-06,-0.016
-1.410E-06,-0.008
-1.400E-06,0.016
-1.390E-06,-0.008
-1.380E-06,0.032
-1.370E-06,0.024
-1.360E-06,0.016
-1.350E-06,0.024
-1.340E-06,-0.008
-1.330E-06,-0.008
-1.320E-06,0.008
-1.310E-06,0.000
-1.300E-06,0.016
-1.290E-06,0.024
-1.280E-06,0.008
-1.270E-06,0.008
-1.260E-06,-0.008
-1.250E-06,0.008
-1.240E-06,0.000
-1.230E-06,0.008
-1.220E-06,0.000
-1.210E-06,0.024
-1.200E-06,0.008
-1.190E-06,-0.008
-1.180E-06,0.000
-1.170E-06,0.008
-1.160E-06,-0.008
-1.150E-06,0.016
-1.140E-06,0.008
-1.130E-06,0.024
-1.120E-06,0.024
-1.110E-06,-0.008
-1.100E-06,0.008
-1.090E-06,-0.008
-1.080E-06,0.000
-1.070E-06,0.016
-1.060E-06,0.008
-1.050E-06,0.024
-1.040E-06,0.032
-1.030E-06,0.008
-1.020E-06,0.016
-1.010E-06,0.008
-1.000E-06,0.000
-9.900E-07,0.024
-9.800E-07,0.016
-9.700E-07,0.016
-9.600E-07,0.008
-9.500E-07,-0.008
-9.400E-07,-0.008
-9.300E-07,0.016
-9.200E-07,0.016
-9.100E-07,0.000
-9.000E-07,0.008
-8.900E-07,0.000
-8.800E-07,0.024
-8.700E-07,0.024
-8.600E-07,0.016
-8.500E-07,0.008
-8.400E-07,0.016
-8.300E-07,0.016
-8.200E-07,0.008
-8.100E-07,0.016
-8.000E-07,0.016
-7.900E-07,0.024
-7.800E-07,0.016
-7.700E-07,0.024
-7.600E-07,0.016
-7.500E-07,0.016
-7.400E-07,0.024
-7.300E-07,0.016
-7.200E-07,0.024
-7.100E-07,0.016
-7.000E-07,0.016
-6.900E-07,0.016
-6.800E-07,0.016
-6.700E-07,0.016
-6.600E-07,0.032
-6.500E-07,0.024
-6.400E-07,0.024
-6.300E-07,0.024
-6.200E-07,0.024
-6.100E-07,0.024
-6.000E-07,0.040
-5.900E-07,0.024
-5.800E-07,0.000
-5.700E-07,0.040
-5.600E-07,-0.008
-5.500E-07,0.032
-5.400E-07,-0.096
-5.300E-07,-0.472
-5.200E-07,-0.344
-5.100E-07,0.072
-5.000E-07,0.072
-4.900E-07,0.288
-4.800E-07,0.256
-4.700E-07,-0.136
-4.600E-07,-0.048
-4.500E-07,-0.184
-4.400E-07,-0.328
-4.300E-07,0.216
-4.200E-07,0.024
-4.100E-07,0.248
-4.000E-07,0.248
-3.900E-07,-0.136
-3.800E-07,0.024
-3.700E-07,-0.104
-3.600E-07,-0.112
-3.500E-07,0.176
-3.400E-07,0.048
-3.300E-07,0.128
-3.200E-07,0.216
-3.100E-07,-0.096
-3.000E-07,0.056
-2.900E-07,-0.072
-2.800E-07,-0.104
-2.700E-07,0.160
-2.600E-07,0.016
-2.500E-07,0.112
-2.400E-07,0.144
-2.300E-07,-0.080
-2.200E-07,0.064
-2.100E-07,-0.008
-2.000E-07,-0.072
-1.900E-07,0.144
-1.800E-07,-0.160
-1.700E-07,-0.248
-1.600E-07,-0.168
-1.500E-07,-0.080
-1.400E-07,0.240
-1.300E-07,0.272
-1.200E-07,0.248
-1.100E-07,-0.008
-1.000E-07,-0.312
-9.000E-08,-0.456
-8.000E-08,-0.304
-7.000E-08,0.032
-6.000E-08,0.200
-5.000E-08,0.248
-4.000E-08,0.256
-3.000E-08,-0.104
-2.000E-08,-0.120
-1.000E-08,-0.224
0.000E+00,-0.208
1.000E-08,0.112
2.000E-08,0.160
3.000E-08,0.224
4.000E-08,0.224
5.000E-08,-0.064
6.000E-08,-0.040
7.000E-08,-0.144
8.000E-08,-0.168
9.000E-08,0.104
1.000E-07,0.048
1.100E-07,0.152
1.200E-07,0.168
1.300E-07,-0.056
1.400E-07,0.024
1.500E-07,-0.040
1.600E-07,-0.072
1.700E-07,0.120
1.800E-07,0.072
1.900E-07,0.120
2.000E-07,0.144
2.100E-07,-0.024
2.200E-07,-0.008
2.300E-07,-0.120
2.400E-07,-0.088
2.500E-07,0.064
2.600E-07,0.088
2.700E-07,0.144
2.800E-07,0.152
2.900E-07,-0.008
3.000E-07,0.024
3.100E-07,-0.040
3.200E-07,-0.080
3.300E-07,0.096
3.400E-07,-0.088
3.500E-07,-0.104
3.600E-07,-0.080
3.700E-07,-0.056
3.800E-07,0.024
3.900E-07,0.064
4.000E-07,0.064
4.100E-07,-0.040
4.200E-07,0.016
4.300E-07,-0.008
4.400E-07,-0.056
4.500E-07,0.056
4.600E-07,-0.040
4.700E-07,0.008
4.800E-07,0.040
4.900E-07,-0.040
5.000E-07,0.056
5.100E-07,0.024
5.200E-07,0.032
5.300E-07,0.056
5.400E-07,0.056
5.500E-07,0.064
5.600E-07,0.080
5.700E-07,0.024
5.800E-07,0.104
5.900E-07,0.064
6.000E-07,0.024
6.100E-07,0.096
6.200E-07,-0.056
6.300E-07,-0.032
6.400E-07,0.008
6.500E-07,-0.048
6.600E-07,0.056
6.700E-07,0.008
6.800E-07,0.048
6.900E-07,0.040
7.000E-07,-0.080
7.100E-07,-0.128
7.200E-07,-0.176
7.300E-07,-0.016
7.400E-07,-0.160
7.500E-07,-0.024
7.600E-07,0.056
7.700E-07,-0.096
7.800E-07,0.088
7.900E-07,-0.016
8.000E-07,-0.008
8.100E-07,0.112
8.200E-07,-0.032
8.300E-07,-0.016
8.400E-07,0.024
8.500E-07,-0.048
8.600E-07,0.128
8.700E-07,0.064
8.800E-07,-0.040
8.900E-07,0.088
9.000E-07,-0.048
9.100E-07,0.056
9.200E-07,0.088
9.300E-07,-0.080
9.400E-07,0.088
9.500E-07,0.016
9.600E-07,-0.080
9.700E-07,0.128
9.800E-07,-0.120
9.900E-07,-0.072
1.000E-06,0.048
1.010E-06,-0.136
1.020E-06,0.144
1.030E-06,0.088
1.040E-06,0.000
1.050E-06,0.128
1.060E-06,-0.048
1.070E-06,0.000
1.080E-06,0.064
1.090E-06,-0.048
1.100E-06,0.168
1.110E-06,0.136
1.120E-06,0.000
1.130E-06,0.160
1.140E-06,-0.208
1.150E-06,-0.192
1.160E-06,-0.120
1.170E-06,-0.088
1.180E-06,0.096
1.190E-06,0.120
1.200E-06,0.088
1.210E-06,-0.008
1.220E-06,-0.120
1.230E-06,-0.152
1.240E-06,-0.104
1.250E-06,-0.016
1.260E-06,0.072
1.270E-06,0.120
1.280E-06,0.112
1.290E-06,-0.016
1.300E-06,-0.048
1.310E-06,-0.088
1.320E-06,-0.072
1.330E-06,0.024
1.340E-06,0.056
1.350E-06,0.080
1.360E-06,0.080
1.370E-06,-0.016
1.380E-06,0.008
1.390E-06,-0.040
1.400E-06,-0.032
1.410E-06,0.048
1.420E-06,0.032
1.430E-06,0.056
1.440E-06,0.064
1.450E-06,-0.008
1.460E-06,0.056
1.470E-06,0.032
1.480E-06,0.008
1.490E-06,0.064
1.500E-06,0.048
1.510E-06,0.080
1.520E-06,0.096
1.530E-06,0.008
1.540E-06,0.072
1.550E-06,0.056
1.560E-06,0.016
1.570E-06,0.088
1.580E-06,-0.032
1.590E-06,0.000
1.600E-06,0.024
1.610E-06,-0.008
1.620E-06,0.056
1.630E-06,0.040
1.640E-06,0.024
1.650E-06,0.048
1.660E-06,-0.040
1.670E-06,0.008
1.680E-06,0.016
1.690E-06,-0.016
1.700E-06,0.104
1.710E-06,0.144
1.720E-06,0.048
1.730E-06,0.056
1.740E-06,0.008
1.750E-06,-0.048
1.760E-06,-0.016
1.770E-06,-0.032
1.780E-06,0.040
1.790E-06,-0.008
1.800E-06,-0.056
1.810E-06,-0.080
1.820E-06,-0.104
1.830E-06,0.040
1.840E-06,0.064
1.850E-06,-0.032
1.860E-06,0.184
1.870E-06,0.192
1.880E-06,0.160
1.890E-06,0.192
1.900E-06,-0.176
1.910E-06,-0.416
1.920E-06,-0.736
1.930E-06,0.072
1.940E-06,-0.344
1.950E-06,0.328
1.960E-06,0.264
1.970E-06,-0.616
1.980E-06,0.224
1.990E-06,-0.152
2.000E-06,-0.384
2.010E-06,0.480
2.020E-06,-0.128
2.030E-06,0.056
2.040E-06,0.384
2.050E-06,-0.496
2.060E-06,0.240
2.070E-06,-0.048
2.080E-06,-0.208
2.090E-06,0.312
2.100E-06,-0.192
2.110E-06,0.080
2.120E-06,0.192
2.130E-06,-0.272
2.140E-06,0.096
2.150E-06,0.088
2.160E-06,-0.152
2.170E-06,0.248
2.180E-06,-0.208
2.190E-06,-0.016
2.200E-06,0.144
2.210E-06,-0.176
2.220E-06,0.168
2.230E-06,0.088
2.240E-06,0.080
2.250E-06,0.192
2.260E-06,0.088
2.270E-06,0.032
2.280E-06,0.048
2.290E-06,0.048
2.300E-06,-0.144
2.310E-06,-0.256
2.320E-06,-0.192
2.330E-06,-0.040
2.340E-06,0.120
2.350E-06,0.240
2.360E-06,0.088
2.370E-06,-0.016
2.380E-06,-0.136
2.390E-06,-0.168
2.400E-06,-0.096
2.410E-06,0.008
2.420E-06,0.152
2.430E-06,0.176
2.440E-06,0.152
2.450E-06,0.016
2.460E-06,-0.096
2.470E-06,-0.160
2.480E-06,-0.152
2.490E-06,0.032
2.500E-06,0.112
2.510E-06,0.120
2.520E-06,0.136
2.530E-06,-0.056
2.540E-06,-0.024
2.550E-06,-0.064
2.560E-06,-0.136
2.570E-06,0.096
2.580E-06,-0.024
2.590E-06,0.064
2.600E-06,0.120
2.610E-06,-0.120
2.620E-06,0.080
2.630E-06,-0.016
2.640E-06,-0.120
2.650E-06,0.128
2.660E-06,-0.120
2.670E-06,-0.008
2.680E-06,0.088
2.690E-06,-0.152
2.700E-06,0.112
2.710E-06,0.032
2.720E-06,-0.048
2.730E-06,0.128
2.740E-06,-0.080
2.750E-06,-0.032
2.760E-06,0.048
2.770E-06,-0.096
2.780E-06,0.136
2.790E-06,0.072
2.800E-06,-0.016
2.810E-06,0.120
2.820E-06,-0.096
2.830E-06,-0.056
2.840E-06,0.016
2.850E-06,-0.072
2.860E-06,0.128
2.870E-06,0.064
2.880E-06,0.048
2.890E-06,0.096
2.900E-06,-0.048
2.910E-06,-0.072
2.920E-06,-0.024
2.930E-06,-0.024
2.940E-06,0.080
2.950E-06,0.080
2.960E-06,0.056
2.970E-06,0.040
2.980E-06,0.000
2.990E-06,-0.008
3.000E-06,-0.008
3.010E-06,0.048
3.020E-06,0.048
3.030E-06,0.064
3.040E-06,0.064
3.050E-06,0.008
3.060E-06,0.024
3.070E-06,0.000
3.080E-06,0.008
3.090E-06,0.048
3.100E-06,0.048
3.110E-06,0.064
3.120E-06,0.072
3.130E-06,0.024
3.140E-06,0.056
3.150E-06,0.032
3.160E-06,0.032
3.170E-06,0.056
3.180E-06,0.056
3.190E-06,0.056
3.200E-06,0.056
3.210E-06,0.048
3.220E-06,0.064
3.230E-06,0.096
3.240E-06,0.168
3.250E-06,0.072
3.260E-06,0.120
3.270E-06,0.144
3.280E-06,-0.024
3.290E-06,0.144
3.300E-06,-0.720
3.310E-06,-0.824
3.320E-06,-0.824
3.330E-06,-0.008
3.340E-06,0.592
3.350E-06,0.792
3.360E-06,1.248
3.370E-06,-0.472
3.380E-06,-0.320
