mediciones/curva carac 8-28 limpias/-57/WaveData651007.csv

#timebase=2000000(ps)
,#voltbase=500000(mv/100)
#size=4000
-8.350E-06,0.060
-8.340E-06,0.040
-8.330E-06,0.040
-8.320E-06,0.040
-8.310E-06,0.060
-8.300E-06,0.060
-8.290E-06,0.040
-8.280E-06,0.060
-8.270E-06,0.040
-8.260E-06,0.040
-8.250E-06,0.040
-8.240E-06,0.040
-8.230E-06,0.040
-8.220E-06,0.020
-8.210E-06,0.020
-8.200E-06,0.040
-8.190E-06,0.040
-8.180E-06,0.040
-8.170E-06,0.060
-8.160E-06,0.040
-8.150E-06,0.040
-8.140E-06,0.060
-8.130E-06,0.060
-8.120E-06,0.040
-8.110E-06,0.040
-8.100E-06,0.040
-8.090E-06,0.040
-8.080E-06,0.060
-8.070E-06,0.040
-8.060E-06,0.040
-8.050E-06,0.020
-8.040E-06,0.040
-8.030E-06,0.040
-8.020E-06,0.040
-8.010E-06,0.060
-8.000E-06,0.060
-7.990E-06,0.040
-7.980E-06,0.040
-7.970E-06,0.040
-7.960E-06,0.040
-7.950E-06,0.060
-7.940E-06,0.040
-7.930E-06,0.040
-7.920E-06,0.060
-7.910E-06,0.040
-7.900E-06,0.040
-7.890E-06,0.040
-7.880E-06,0.060
-7.870E-06,0.060
-7.860E-06,0.040
-7.850E-06,0.020
-7.840E-06,0.040
-7.830E-06,0.040
-7.820E-06,0.020
-7.810E-06,0.040
-7.800E-06,0.040
-7.790E-06,0.040
-7.780E-06,0.060
-7.770E-06,0.060
-7.760E-06,0.080
-7.750E-06,0.040
-7.740E-06,0.040
-7.730E-06,0.080
-7.720E-06,0.040
-7.710E-06,0.060
-7.700E-06,0.020
-7.690E-06,0.020
-7.680E-06,0.040
-7.670E-06,0.040
-7.660E-06,0.040
-7.650E-06,0.060
-7.640E-06,0.060
-7.630E-06,0.040
-7.620E-06,0.060
-7.610E-06,0.040
-7.600E-06,0.040
-7.590E-06,0.020
-7.580E-06,0.040
-7.570E-06,0.060
-7.560E-06,0.040
-7.550E-06,0.040
-7.540E-06,0.040
-7.530E-06,0.040
-7.520E-06,0.060
-7.510E-06,0.040
-7.500E-06,0.060
-7.490E-06,0.060
-7.480E-06,0.060
-7.470E-06,0.040
-7.460E-06,0.040
-7.450E-06,0.060
-7.440E-06,0.040
-7.430E-06,0.060
-7.420E-06,0.060
-7.410E-06,0.060
-7.400E-06,0.060
-7.390E-06,0.060
-7.380E-06,0.040
-7.370E-06,0.040
-7.360E-06,0.040
-7.350E-06,0.060
-7.340E-06,0.040
-7.330E-06,0.040
-7.320E-06,0.040
-7.310E-06,0.060
-7.300E-06,0.040
-7.290E-06,0.040
-7.280E-06,0.020
-7.270E-06,0.060
-7.260E-06,0.040
-7.250E-06,0.020
-7.240E-06,0.040
-7.230E-06,0.060
-7.220E-06,0.040
-7.210E-06,0.040
-7.200E-06,0.040
-7.190E-06,0.020
-7.180E-06,0.080
-7.170E-06,0.080
-7.160E-06,0.040
-7.150E-06,0.040
-7.140E-06,0.060
-7.130E-06,0.040
-7.120E-06,0.020
-7.110E-06,0.060
-7.100E-06,0.040
-7.090E-06,0.060
-7.080E-06,0.040
-7.070E-06,0.040
-7.060E-06,0.060
-7.050E-06,0.040
-7.040E-06,0.040
-7.030E-06,0.020
-7.020E-06,0.040
-7.010E-06,0.020
-7.000E-06,0.020
-6.990E-06,0.060
-6.980E-06,0.040
-6.970E-06,0.040
-6.960E-06,0.040
-6.950E-06,0.040
-6.940E-06,0.040
-6.930E-06,0.080
-6.920E-06,0.060
-6.910E-06,0.080
-6.900E-06,0.060
-6.890E-06,0.060
-6.880E-06,0.060
-6.870E-06,0.080
-6.860E-06,0.060
-6.850E-06,0.080
-6.840E-06,0.080
-6.830E-06,0.060
-6.820E-06,0.040
-6.810E-06,0.040
-6.800E-06,0.040
-6.790E-06,0.040
-6.780E-06,0.040
-6.770E-06,0.020
-6.760E-06,0.020
-6.750E-06,0.020
-6.740E-06,0.020
-6.730E-06,0.040
-6.720E-06,0.040
-6.710E-06,0.040
-6.700E-06,0.040
-6.690E-06,0.060
-6.680E-06,0.060
-6.670E-06,0.040
-6.660E-06,0.040
-6.650E-06,0.060
-6.640E-06,0.040
-6.630E-06,0.060
-6.620E-06,0.040
-6.610E-06,0.020
-6.600E-06,0.060
-6.590E-06,0.060
-6.580E-06,0.000
-6.570E-06,0.060
-6.560E-06,0.040
-6.550E-06,0.040
-6.540E-06,0.040
-6.530E-06,0.040
-6.520E-06,0.060
-6.510E-06,0.040
-6.500E-06,0.040
-6.490E-06,0.040
-6.480E-06,0.040
-6.470E-06,0.040
-6.460E-06,0.040
-6.450E-06,0.060
-6.440E-06,0.040
-6.430E-06,0.040
-6.420E-06,0.040
-6.410E-06,0.040
-6.400E-06,0.000
-6.390E-06,0.040
-6.380E-06,0.060
-6.370E-06,0.040
-6.360E-06,0.040
-6.350E-06,0.060
-6.340E-06,0.040
-6.330E-06,0.060
-6.320E-06,0.060
-6.310E-06,0.040
-6.300E-06,0.040
-6.290E-06,0.060
-6.280E-06,0.040
-6.270E-06,0.020
-6.260E-06,0.060
-6.250E-06,0.060
-6.240E-06,0.040
-6.230E-06,0.060
-6.220E-06,0.040
-6.210E-06,0.040
-6.200E-06,0.040
-6.190E-06,0.060
-6.180E-06,0.060
-6.170E-06,0.040
-6.160E-06,0.060
-6.150E-06,0.040
-6.140E-06,0.040
-6.130E-06,0.040
-6.120E-06,0.040
-6.110E-06,0.020
-6.100E-06,0.060
-6.090E-06,0.040
-6.080E-06,0.040
-6.070E-06,0.040
-6.060E-06,0.040
-6.050E-06,0.080
-6.040E-06,0.040
-6.030E-06,0.060
-6.020E-06,0.040
-6.010E-06,0.040
-6.000E-06,0.060
-5.990E-06,0.060
-5.980E-06,0.080
-5.970E-06,0.080
-5.960E-06,0.060
-5.950E-06,0.060
-5.940E-06,0.060
-5.930E-06,0.040
-5.920E-06,0.040
-5.910E-06,0.040
-5.900E-06,0.020
-5.890E-06,0.020
-5.880E-06,0.020
-5.870E-06,0.060
-5.860E-06,0.040
-5.850E-06,0.040
-5.840E-06,0.060
-5.830E-06,0.060
-5.820E-06,0.040
-5.810E-06,0.040
-5.800E-06,0.060
-5.790E-06,0.060
-5.780E-06,0.060
-5.770E-06,0.080
-5.760E-06,0.060
-5.750E-06,0.060
-5.740E-06,0.060
-5.730E-06,0.080
-5.720E-06,0.060
-5.710E-06,0.060
-5.700E-06,0.040
-5.690E-06,0.040
-5.680E-06,0.040
-5.670E-06,0.040
-5.660E-06,0.060
-5.650E-06,0.060
-5.640E-06,0.060
-5.630E-06,0.080
-5.620E-06,0.040
-5.610E-06,0.020
-5.600E-06,0.040
-5.590E-06,0.060
-5.580E-06,0.040
-5.570E-06,0.080
-5.560E-06,0.060
-5.550E-06,0.040
-5.540E-06,0.040
-5.530E-06,0.040
-5.520E-06,0.040
-5.510E-06,0.060
-5.500E-06,0.040
-5.490E-06,0.020
-5.480E-06,0.020
-5.470E-06,0.080
-5.460E-06,0.040
-5.450E-06,0.040
-5.440E-06,0.040
-5.430E-06,0.040
-5.420E-06,0.060
-5.410E-06,0.040
-5.400E-06,0.060
-5.390E-06,0.040
-5.380E-06,0.020
-5.370E-06,0.040
-5.360E-06,0.020
-5.350E-06,0.040
-5.340E-06,0.040
-5.330E-06,0.040
-5.320E-06,0.020
-5.310E-06,0.040
-5.300E-06,0.040
-5.290E-06,0.040
-5.280E-06,0.040
-5.270E-06,0.040
-5.260E-06,0.040
-5.250E-06,0.060
-5.240E-06,0.040
-5.230E-06,0.060
-5.220E-06,0.080
-5.210E-06,0.080
-5.200E-06,0.080
-5.190E-06,0.060
-5.180E-06,0.040
-5.170E-06,0.040
-5.160E-06,0.060
-5.150E-06,0.060
-5.140E-06,0.060
-5.130E-06,0.040
-5.120E-06,0.040
-5.110E-06,0.080
-5.100E-06,0.060
-5.090E-06,0.040
-5.080E-06,0.060
-5.070E-06,0.060
-5.060E-06,0.080
-5.050E-06,0.040
-5.040E-06,0.040
-5.030E-06,0.060
-5.020E-06,0.040
-5.010E-06,0.040
-5.000E-06,0.060
-4.990E-06,0.040
-4.980E-06,0.060
-4.970E-06,0.020
-4.960E-06,0.020
-4.950E-06,0.060
-4.940E-06,0.080
-4.930E-06,0.060
-4.920E-06,0.040
-4.910E-06,0.060
-4.900E-06,0.060
-4.890E-06,0.040
-4.880E-06,0.060
-4.870E-06,0.040
-4.860E-06,0.040
-4.850E-06,0.040
-4.840E-06,0.020
-4.830E-06,0.020
-4.820E-06,0.060
-4.810E-06,0.060
-4.800E-06,0.040
-4.790E-06,0.040
-4.780E-06,0.040
-4.770E-06,0.040
-4.760E-06,0.060
-4.750E-06,0.060
-4.740E-06,0.040
-4.730E-06,0.040
-4.720E-06,0.020
-4.710E-06,0.060
-4.700E-06,0.040
-4.690E-06,0.060
-4.680E-06,0.060
-4.670E-06,0.040
-4.660E-06,0.040
-4.650E-06,0.040
-4.640E-06,0.020
-4.630E-06,0.040
-4.620E-06,0.060
-4.610E-06,0.040
-4.600E-06,0.040
-4.590E-06,0.040
-4.580E-06,0.040
-4.570E-06,0.080
-4.560E-06,0.040
-4.550E-06,0.040
-4.540E-06,0.020
-4.530E-06,0.060
-4.520E-06,0.060
-4.510E-06,0.040
-4.500E-06,0.040
-4.490E-06,0.060
-4.480E-06,0.060
-4.470E-06,0.040
-4.460E-06,0.040
-4.450E-06,0.060
-4.440E-06,0.040
-4.430E-06,0.040
-4.420E-06,0.020
-4.410E-06,0.060
-4.400E-06,0.020
-4.390E-06,0.040
-4.380E-06,0.040
-4.370E-06,0.040
-4.360E-06,0.020
-4.350E-06,0.020
-4.340E-06,0.040
-4.330E-06,0.040
-4.320E-06,0.060
-4.310E-06,0.060
-4.300E-06,0.060
-4.290E-06,0.040
-4.280E-06,0.040
-4.270E-06,0.080
-4.260E-06,0.040
-4.250E-06,0.060
-4.240E-06,0.060
-4.230E-06,0.060
-4.220E-06,0.040
-4.210E-06,0.040
-4.200E-06,0.040
-4.190E-06,0.020
-4.180E-06,0.040
-4.170E-06,0.040
-4.160E-06,0.040
-4.150E-06,0.060
-4.140E-06,0.060
-4.130E-06,0.060
-4.120E-06,0.060
-4.110E-06,0.040
-4.100E-06,0.060
-4.090E-06,0.060
-4.080E-06,0.040
-4.070E-06,0.020
-4.060E-06,0.080
-4.050E-06,0.040
-4.040E-06,0.040
-4.030E-06,0.040
-4.020E-06,0.060
-4.010E-06,0.020
-4.000E-06,0.060
-3.990E-06,0.060
-3.980E-06,0.040
-3.970E-06,0.060
-3.960E-06,0.040
-3.950E-06,0.060
-3.940E-06,0.060
-3.930E-06,0.040
-3.920E-06,0.060
-3.910E-06,0.060
-3.900E-06,0.040
-3.890E-06,0.020
-3.880E-06,0.060
-3.870E-06,0.040
-3.860E-06,0.060
-3.850E-06,0.060
-3.840E-06,0.040
-3.830E-06,0.060
-3.820E-06,0.060
-3.810E-06,0.060
-3.800E-06,0.040
-3.790E-06,0.040
-3.780E-06,0.020
-3.770E-06,0.060
-3.760E-06,0.060
-3.750E-06,0.020
-3.740E-06,0.060
-3.730E-06,0.060
-3.720E-06,0.020
-3.710E-06,0.060
-3.700E-06,0.060
-3.690E-06,0.040
-3.680E-06,0.060
-3.670E-06,0.040
-3.660E-06,0.060
-3.650E-06,0.080
-3.640E-06,0.080
-3.630E-06,0.040
-3.620E-06,0.060
-3.610E-06,0.040
-3.600E-06,0.060
-3.590E-06,0.080
-3.580E-06,0.040
-3.570E-06,0.040
-3.560E-06,0.060
-3.550E-06,0.060
-3.540E-06,0.060
-3.530E-06,0.060
-3.520E-06,0.040
-3.510E-06,0.040
-3.500E-06,0.040
-3.490E-06,0.040
-3.480E-06,0.040
-3.470E-06,0.040
-3.460E-06,0.060
-3.450E-06,0.060
-3.440E-06,0.040
-3.430E-06,0.040
-3.420E-06,0.040
-3.410E-06,0.040
-3.400E-06,0.040
-3.390E-06,0.040
-3.380E-06,0.040
-3.370E-06,0.060
-3.360E-06,0.080
-3.350E-06,0.060
-3.340E-06,0.040
-3.330E-06,0.040
-3.320E-06,0.040
-3.310E-06,0.020
-3.300E-06,0.040
-3.290E-06,0.020
-3.280E-06,0.040
-3.270E-06,0.040
-3.260E-06,0.060
-3.250E-06,0.040
-3.240E-06,0.040
-3.230E-06,0.020
-3.220E-06,0.080
-3.210E-06,0.040
-3.200E-06,0.040
-3.190E-06,0.060
-3.180E-06,0.060
-3.170E-06,0.060
-3.160E-06,0.020
-3.150E-06,0.040
-3.140E-06,0.040
-3.130E-06,0.040
-3.120E-06,0.040
-3.110E-06,0.060
-3.100E-06,0.080
-3.090E-06,0.040
-3.080E-06,0.060
-3.070E-06,0.060
-3.060E-06,0.040
-3.050E-06,0.060
-3.040E-06,0.060
-3.030E-06,0.060
-3.020E-06,0.040
-3.010E-06,0.060
-3.000E-06,0.020
-2.990E-06,0.020
-2.980E-06,0.020
-2.970E-06,0.040
-2.960E-06,0.040
-2.950E-06,0.060
-2.940E-06,0.040
-2.930E-06,0.060
-2.920E-06,0.060
-2.910E-06,0.060
-2.900E-06,0.060
-2.890E-06,0.040
-2.880E-06,0.000
-2.870E-06,0.060
-2.860E-06,0.060
-2.850E-06,0.060
-2.840E-06,0.080
-2.830E-06,0.080
-2.820E-06,0.060
-2.810E-06,0.080
-2.800E-06,0.040
-2.790E-06,0.040
-2.780E-06,0.040
-2.770E-06,0.040
-2.760E-06,0.040
-2.750E-06,0.040
-2.740E-06,0.040
-2.730E-06,0.040
-2.720E-06,0.060
-2.710E-06,0.040
-2.700E-06,0.040
-2.690E-06,0.060
-2.680E-06,0.040
-2.670E-06,0.040
-2.660E-06,0.020
-2.650E-06,0.040
-2.640E-06,0.060
-2.630E-06,0.060
-2.620E-06,0.040
-2.610E-06,0.040
-2.600E-06,0.040
-2.590E-06,0.040
-2.580E-06,0.040
-2.570E-06,0.060
-2.560E-06,0.040
-2.550E-06,0.040
-2.540E-06,0.040
-2.530E-06,0.060
-2.520E-06,0.060
-2.510E-06,0.040
-2.500E-06,0.040
-2.490E-06,0.040
-2.480E-06,0.020
-2.470E-06,0.020
-2.460E-06,0.060
-2.450E-06,0.040
-2.440E-06,0.080
-2.430E-06,0.040
-2.420E-06,0.040
-2.410E-06,0.040
-2.400E-06,0.060
-2.390E-06,0.040
-2.380E-06,0.060
-2.370E-06,0.060
-2.360E-06,0.060
-2.350E-06,0.060
-2.340E-06,0.060
-2.330E-06,0.020
-2.320E-06,0.040
-2.310E-06,0.020
-2.300E-06,0.060
-2.290E-06,0.080
-2.280E-06,0.060
-2.270E-06,0.060
-2.260E-06,0.060
-2.250E-06,0.040
-2.240E-06,0.040
-2.230E-06,0.040
-2.220E-06,0.040
-2.210E-06,0.040
-2.200E-06,0.060
-2.190E-06,0.040
-2.180E-06,0.060
-2.170E-06,0.000
-2.160E-06,0.040
-2.150E-06,0.060
-2.140E-06,0.020
-2.130E-06,0.000
-2.120E-06,0.060
-2.110E-06,0.040
-2.100E-06,0.040
-2.090E-06,0.020
-2.080E-06,-0.320
-2.070E-06,-0.980
-2.060E-06,-2.020
-2.050E-06,-2.980
-2.040E-06,-3.600
-2.030E-06,-3.220
-2.020E-06,-3.120
-2.010E-06,-1.980
-2.000E-06,-0.060
-1.990E-06,1.180
-1.980E-06,1.820
-1.970E-06,1.820
-1.960E-06,1.820
-1.950E-06,1.800
-1.940E-06,1.820
-1.930E-06,1.820
-1.920E-06,1.800
-1.910E-06,1.820
-1.900E-06,1.240
-1.890E-06,0.380
-1.880E-06,-0.480
-1.870E-06,-0.700
-1.860E-06,-0.700
-1.850E-06,-0.720
-1.840E-06,-0.600
-1.830E-06,-0.360
-1.820E-06,-0.440
-1.810E-06,-0.740
-1.800E-06,-1.080
-1.790E-06,-1.500
-1.780E-06,-1.980
-1.770E-06,-2.200
-1.760E-06,-2.360
-1.750E-06,-2.260
-1.740E-06,-1.920
-1.730E-06,-1.360
-1.720E-06,-0.720
-1.710E-06,0.040
-1.700E-06,0.840
-1.690E-06,1.440
-1.680E-06,1.820
-1.670E-06,1.820
-1.660E-06,1.840
-1.650E-06,1.740
-1.640E-06,1.340
-1.630E-06,0.860
-1.620E-06,0.280
-1.610E-06,-0.180
-1.600E-06,-0.640
-1.590E-06,-0.980
-1.580E-06,-1.100
-1.570E-06,-1.120
-1.560E-06,-1.020
-1.550E-06,-0.960
-1.540E-06,-0.800
-1.530E-06,-0.680
-1.520E-06,-0.560
-1.510E-06,-0.440
-1.500E-06,-0.160
-1.490E-06,0.060
-1.480E-06,0.320
-1.470E-06,0.580
-1.460E-06,0.800
-1.450E-06,0.960
-1.440E-06,1.000
-1.430E-06,0.920
-1.420E-06,0.860
-1.410E-06,0.660
-1.400E-06,0.620
-1.390E-06,0.280
-1.380E-06,0.120
-1.370E-06,-0.100
-1.360E-06,-0.280
-1.350E-06,-0.380
-1.340E-06,-0.560
-1.330E-06,-0.640
-1.320E-06,-0.720
-1.310E-06,-0.720
-1.300E-06,-0.820
-1.290E-06,-0.840
-1.280E-06,-0.800
-1.270E-06,-0.720
-1.260E-06,-0.580
-1.250E-06,-0.360
-1.240E-06,-0.100
-1.230E-06,0.160
-1.220E-06,0.440
-1.210E-06,0.700
-1.200E-06,0.880
-1.190E-06,0.920
-1.180E-06,0.980
-1.170E-06,0.880
-1.160E-06,0.640
-1.150E-06,0.600
-1.140E-06,0.100
-1.130E-06,0.200
-1.120E-06,-0.460
-1.110E-06,-0.260
-1.100E-06,-0.760
-1.090E-06,-0.500
-1.080E-06,-0.840
-1.070E-06,-0.640
-1.060E-06,-0.640
-1.050E-06,-0.500
-1.040E-06,-0.380
-1.030E-06,-0.280
-1.020E-06,-0.120
-1.010E-06,-0.140
-1.000E-06,-0.080
-9.900E-07,-0.100
-9.800E-07,-0.080
-9.700E-07,-0.100
-9.600E-07,-0.040
-9.500E-07,-0.040
-9.400E-07,-0.020
-9.300E-07,0.080
-9.200E-07,0.080
-9.100E-07,0.100
-9.000E-07,0.140
-8.900E-07,0.080
-8.800E-07,0.120
-8.700E-07,0.020
-8.600E-07,0.020
-8.500E-07,-0.060
-8.400E-07,-0.120
-8.300E-07,-0.160
-8.200E-07,-0.240
-8.100E-07,-0.240
-8.000E-07,-0.240
-7.900E-07,-0.260
-7.800E-07,-0.060
-7.700E-07,-0.340
-7.600E-07,-0.280
-7.500E-07,-0.480
-7.400E-07,0.180
-7.300E-07,-0.320
-7.200E-07,0.000
-7.100E-07,-0.200
-7.000E-07,-0.100
-6.900E-07,-0.180
-6.800E-07,-0.280
-6.700E-07,-0.380
-6.600E-07,-0.340
-6.500E-07,-0.440
-6.400E-07,-0.420
-6.300E-07,-0.580
-6.200E-07,-0.620
-6.100E-07,-0.700
-6.000E-07,-0.540
-5.900E-07,-0.660
-5.800E-07,-0.440
-5.700E-07,-0.560
-5.600E-07,-0.680
-5.500E-07,-0.760
-5.400E-07,-0.700
-5.300E-07,-0.760
-5.200E-07,-0.660
-5.100E-07,-0.840
-5.000E-07,-0.840
-4.900E-07,-0.940
-4.800E-07,-0.960
-4.700E-07,-1.200
-4.600E-07,-1.140
-4.500E-07,-1.260
-4.400E-07,-1.260
-4.300E-07,-1.260
-4.200E-07,-1.080
-4.100E-07,-1.100
-4.000E-07,-1.060
-3.900E-07,-1.040
-3.800E-07,-0.760
-3.700E-07,-0.780
-3.600E-07,-0.580
-3.500E-07,-0.600
-3.400E-07,-0.540
-3.300E-07,-0.460
-3.200E-07,-0.440
-3.100E-07,-0.580
-3.000E-07,-0.500
-2.900E-07,-0.960
-2.800E-07,-0.420
-2.700E-07,-0.860
-2.600E-07,-0.160
-2.500E-07,-0.420
-2.400E-07,-0.100
-2.300E-07,0.600
-2.200E-07,0.220
-2.100E-07,1.820
-2.000E-07,-0.740
-1.900E-07,1.820
-1.800E-07,-1.060
-1.700E-07,1.820
-1.600E-07,-1.260
-1.500E-07,-0.500
-1.400E-07,-1.280
-1.300E-07,-2.620
-1.200E-07,-0.600
-1.100E-07,-2.620
-1.000E-07,-2.700
-9.000E-08,-3.280
-8.000E-08,-3.580
-7.000E-08,-3.060
-6.000E-08,-3.360
-5.000E-08,-2.360
-4.000E-08,-1.800
-3.000E-08,-1.100
-2.000E-08,0.080
-1.000E-08,0.260
0.000E+00,0.920
1.000E-08,0.600
2.000E-08,0.520
3.000E-08,0.340
4.000E-08,0.480
5.000E-08,0.640
6.000E-08,0.920
7.000E-08,0.960
8.000E-08,0.900
9.000E-08,0.820
1.000E-07,0.520
1.100E-07,0.200
1.200E-07,0.220
1.300E-07,-0.180
1.400E-07,-0.120
1.500E-07,-0.500
1.600E-07,-1.000
1.700E-07,-1.440
1.800E-07,-2.100
1.900E-07,-2.560
2.000E-07,-2.840
2.100E-07,-2.680
2.200E-07,-2.620
2.300E-07,-1.820
2.400E-07,-1.620
2.500E-07,-0.880
2.600E-07,-0.660
2.700E-07,-0.380
2.800E-07,-0.080
2.900E-07,0.160
3.000E-07,0.240
3.100E-07,0.320
3.200E-07,0.200
3.300E-07,0.080
3.400E-07,-0.400
3.500E-07,-0.540
3.600E-07,-1.500
3.700E-07,-1.260
3.800E-07,-0.960
3.900E-07,-0.280
4.000E-07,1.380
4.100E-07,1.160
4.200E-07,1.820
4.300E-07,1.240
4.400E-07,-0.580
4.500E-07,-2.760
4.600E-07,-2.880
4.700E-07,-3.620
4.800E-07,-3.320
4.900E-07,-3.260
5.000E-07,-3.600
5.100E-07,-2.240
5.200E-07,-3.580
5.300E-07,-2.560
5.400E-07,-3.020
5.500E-07,-2.400
5.600E-07,-1.220
5.700E-07,-0.760
5.800E-07,-0.020
5.900E-07,0.580
6.000E-07,0.560
6.100E-07,0.680
6.200E-07,0.640
6.300E-07,0.360
6.400E-07,0.080
6.500E-07,-0.020
6.600E-07,-0.280
6.700E-07,-0.360
6.800E-07,-0.400
6.900E-07,-0.640
7.000E-07,-0.680
7.100E-07,-0.740
7.200E-07,-0.900
7.300E-07,-0.960
7.400E-07,-1.220
7.500E-07,-1.500
7.600E-07,-1.900
7.700E-07,-2.140
7.800E-07,-2.420
7.900E-07,-2.820
8.000E-07,-2.840
8.100E-07,-2.720
8.200E-07,-2.520
8.300E-07,-2.320
8.400E-07,-1.820
8.500E-07,-1.100
8.600E-07,-0.640
8.700E-07,0.000
8.800E-07,0.300
8.900E-07,0.580
9.000E-07,0.460
9.100E-07,0.120
9.200E-07,-0.520
9.300E-07,-1.020
9.400E-07,-1.160
9.500E-07,-1.720
9.600E-07,-1.980
9.700E-07,-2.040
9.800E-07,-2.300
9.900E-07,-2.540
1.000E-06,-2.960
1.010E-06,-3.240
1.020E-06,-3.440
1.030E-06,-3.400
1.040E-06,-3.340
1.050E-06,-2.860
1.060E-06,-2.560
1.070E-06,-2.200
1.080E-06,-2.020
1.090E-06,-1.740
1.100E-06,-1.660
1.110E-06,-1.480
1.120E-06,-1.180
1.130E-06,-0.940
1.140E-06,-0.760
1.150E-06,-0.720
1.160E-06,-0.600
1.170E-06,-0.820
1.180E-06,-1.040
1.190E-06,-1.320
1.200E-06,-1.800
1.210E-06,-2.180
1.220E-06,-2.560
1.230E-06,-2.880
1.240E-06,-3.280
1.250E-06,-3.600
1.260E-06,-3.600
1.270E-06,-3.600
1.280E-06,-3.620
1.290E-06,-3.600
1.300E-06,-3.600
1.310E-06,-3.560
1.320E-06,-3.400
1.330E-06,-3.140
1.340E-06,-2.800
1.350E-06,-2.460
1.360E-06,-2.080
1.370E-06,-1.700
1.380E-06,-1.540
1.390E-06,-1.660
1.400E-06,-2.120
1.410E-06,-2.580
1.420E-06,-2.980
1.430E-06,-3.340
1.440E-06,-3.240
1.450E-06,-3.160
1.460E-06,-2.860
1.470E-06,-2.520
1.480E-06,-2.260
1.490E-06,-1.720
1.500E-06,-1.520
1.510E-06,-1.260
1.520E-06,-0.920
1.530E-06,-0.760
1.540E-06,-0.780
1.550E-06,-0.320
1.560E-06,-0.460
1.570E-06,0.040
1.580E-06,-0.640
1.590E-06,-0.960
1.600E-06,-2.980
1.610E-06,-3.580
1.620E-06,-3.600
1.630E-06,-3.600
1.640E-06,-3.540
1.650E-06,-2.600
1.660E-06,-2.160
1.670E-06,-2.000
1.680E-06,-2.380
1.690E-06,-2.760
1.700E-06,-3.600
1.710E-06,-3.620
1.720E-06,-3.600
1.730E-06,-3.600
1.740E-06,-3.600
1.750E-06,-3.600
1.760E-06,-3.600
1.770E-06,-3.600
1.780E-06,-3.600
1.790E-06,-3.620
1.800E-06,-3.620
1.810E-06,-3.620
1.820E-06,-2.960
1.830E-06,-2.300
1.840E-06,-1.760
1.850E-06,-1.180
1.860E-06,-0.940
1.870E-06,-0.660
1.880E-06,-0.480
1.890E-06,-0.080
1.900E-06,0.080
1.910E-06,0.300
1.920E-06,0.620
1.930E-06,0.800
1.940E-06,1.060
1.950E-06,1.160
1.960E-06,1.220
1.970E-06,1.320
1.980E-06,1.340
1.990E-06,1.280
2.000E-06,1.300
2.010E-06,1.220
2.020E-06,1.300
2.030E-06,1.120
2.040E-06,0.920
2.050E-06,0.600
2.060E-06,0.400
2.070E-06,0.180
2.080E-06,0.060
2.090E-06,-0.020
2.100E-06,-0.100
2.110E-06,0.000
2.120E-06,0.040
2.130E-06,0.080
2.140E-06,0.060
2.150E-06,-0.100
2.160E-06,-0.120
2.170E-06,-0.380
2.180E-06,-0.500
2.190E-06,-0.680
2.200E-06,-0.940
2.210E-06,-1.180
2.220E-06,-1.420
2.230E-06,-1.620
2.240E-06,-1.640
2.250E-06,-1.720
2.260E-06,-1.660
2.270E-06,-1.600
2.280E-06,-1.520
2.290E-06,-1.320
2.300E-06,-1.300
2.310E-06,-1.180
2.320E-06,-1.060
2.330E-06,-1.140
2.340E-06,-1.160
2.350E-06,-1.280
2.360E-06,-1.120
2.370E-06,-1.100
2.380E-06,-0.940
2.390E-06,-0.840
2.400E-06,-0.600
2.410E-06,-0.320
2.420E-06,-0.280
2.430E-06,-0.100
2.440E-06,-0.060
2.450E-06,0.000
2.460E-06,0.060
2.470E-06,0.060
2.480E-06,-0.060
2.490E-06,-0.180
2.500E-06,-0.260
2.510E-06,-0.220
2.520E-06,-0.320
2.530E-06,-0.260
2.540E-06,-0.380
2.550E-06,-0.200
2.560E-06,-0.220
2.570E-06,-0.140
2.580E-06,-0.040
2.590E-06,0.000
2.600E-06,0.120
2.610E-06,0.080
2.620E-06,0.140
2.630E-06,0.100
2.640E-06,0.100
2.650E-06,0.120
2.660E-06,0.080
2.670E-06,-0.020
2.680E-06,0.060
2.690E-06,0.040
2.700E-06,0.100
2.710E-06,0.080
2.720E-06,0.240
2.730E-06,0.280
2.740E-06,0.360
2.750E-06,0.340
2.760E-06,0.240
2.770E-06,0.300
2.780E-06,0.200
2.790E-06,0.220
2.800E-06,0.160
2.810E-06,0.040
2.820E-06,-0.100
2.830E-06,-0.360
2.840E-06,-0.380
2.850E-06,-0.520
2.860E-06,-0.480
2.870E-06,-0.380
2.880E-06,-0.400
2.890E-06,-0.440
2.900E-06,-0.460
2.910E-06,-0.280
2.920E-06,-0.360
2.930E-06,-0.180
2.940E-06,-0.180
2.950E-06,-0.160
2.960E-06,-0.220
2.970E-06,-0.280
2.980E-06,-0.120
2.990E-06,-0.220
3.000E-06,-0.200
3.010E-06,-0.180
3.020E-06,-0.020
3.030E-06,-0.160
3.040E-06,-0.080
3.050E-06,0.080
3.060E-06,0.160
3.070E-06,0.180
3.080E-06,0.160
3.090E-06,0.260
3.100E-06,0.180
3.110E-06,0.060
3.120E-06,0.120
3.130E-06,0.080
3.140E-06,-0.040
3.150E-06,-0.140
3.160E-06,0.000
3.170E-06,0.080
3.180E-06,-0.020
3.190E-06,-0.020
3.200E-06,0.000
3.210E-06,0.080
3.220E-06,0.080
3.230E-06,0.060
3.240E-06,0.100
3.250E-06,0.060
3.260E-06,0.040
3.270E-06,0.040
3.280E-06,-0.040
3.290E-06,-0.140
3.300E-06,-0.180
3.310E-06,-0.080
3.320E-06,-0.120
3.330E-06,-0.100
3.340E-06,-0.120
