mediciones/curva carac 8-28 limpias/-45/WaveData65940.csv

#timebase=2000000(ps)
,#voltbase=500000(mv/100)
#size=4000
-8.350E-06,0.040
-8.340E-06,0.040
-8.330E-06,0.060
-8.320E-06,0.080
-8.310E-06,0.060
-8.300E-06,0.060
-8.290E-06,0.080
-8.280E-06,0.060
-8.270E-06,0.060
-8.260E-06,0.080
-8.250E-06,0.040
-8.240E-06,0.020
-8.230E-06,0.040
-8.220E-06,0.060
-8.210E-06,0.080
-8.200E-06,0.020
-8.190E-06,0.020
-8.180E-06,0.060
-8.170E-06,0.040
-8.160E-06,0.040
-8.150E-06,0.040
-8.140E-06,0.020
-8.130E-06,0.040
-8.120E-06,0.020
-8.110E-06,0.040
-8.100E-06,0.020
-8.090E-06,0.040
-8.080E-06,0.040
-8.070E-06,0.040
-8.060E-06,0.040
-8.050E-06,0.020
-8.040E-06,0.020
-8.030E-06,0.040
-8.020E-06,0.040
-8.010E-06,0.040
-8.000E-06,0.060
-7.990E-06,0.060
-7.980E-06,0.060
-7.970E-06,0.040
-7.960E-06,0.040
-7.950E-06,0.060
-7.940E-06,0.000
-7.930E-06,0.040
-7.920E-06,0.060
-7.910E-06,0.040
-7.900E-06,0.020
-7.890E-06,0.060
-7.880E-06,0.080
-7.870E-06,0.060
-7.860E-06,0.040
-7.850E-06,0.000
-7.840E-06,0.040
-7.830E-06,0.060
-7.820E-06,0.060
-7.810E-06,0.020
-7.800E-06,0.040
-7.790E-06,0.040
-7.780E-06,0.020
-7.770E-06,0.000
-7.760E-06,0.060
-7.750E-06,0.060
-7.740E-06,0.060
-7.730E-06,0.000
-7.720E-06,0.020
-7.710E-06,0.060
-7.700E-06,0.040
-7.690E-06,0.040
-7.680E-06,0.020
-7.670E-06,0.040
-7.660E-06,0.040
-7.650E-06,0.020
-7.640E-06,0.060
-7.630E-06,0.040
-7.620E-06,0.060
-7.610E-06,0.060
-7.600E-06,0.060
-7.590E-06,0.040
-7.580E-06,0.040
-7.570E-06,0.060
-7.560E-06,0.040
-7.550E-06,0.060
-7.540E-06,0.060
-7.530E-06,0.080
-7.520E-06,0.060
-7.510E-06,0.040
-7.500E-06,0.080
-7.490E-06,0.040
-7.480E-06,0.020
-7.470E-06,0.060
-7.460E-06,0.040
-7.450E-06,0.060
-7.440E-06,0.040
-7.430E-06,0.000
-7.420E-06,0.040
-7.410E-06,0.020
-7.400E-06,0.060
-7.390E-06,0.040
-7.380E-06,0.060
-7.370E-06,0.040
-7.360E-06,0.040
-7.350E-06,0.060
-7.340E-06,0.040
-7.330E-06,0.080
-7.320E-06,0.000
-7.310E-06,0.040
-7.300E-06,0.040
-7.290E-06,0.060
-7.280E-06,0.040
-7.270E-06,0.000
-7.260E-06,0.020
-7.250E-06,0.040
-7.240E-06,0.000
-7.230E-06,0.020
-7.220E-06,0.060
-7.210E-06,0.040
-7.200E-06,0.060
-7.190E-06,0.040
-7.180E-06,0.040
-7.170E-06,0.040
-7.160E-06,0.080
-7.150E-06,0.040
-7.140E-06,0.020
-7.130E-06,0.020
-7.120E-06,0.020
-7.110E-06,0.040
-7.100E-06,0.040
-7.090E-06,0.020
-7.080E-06,0.020
-7.070E-06,0.060
-7.060E-06,0.060
-7.050E-06,0.080
-7.040E-06,0.060
-7.030E-06,0.060
-7.020E-06,0.040
-7.010E-06,0.020
-7.000E-06,0.040
-6.990E-06,0.040
-6.980E-06,0.080
-6.970E-06,0.080
-6.960E-06,0.000
-6.950E-06,0.020
-6.940E-06,0.040
-6.930E-06,0.020
-6.920E-06,0.060
-6.910E-06,0.080
-6.900E-06,0.060
-6.890E-06,0.020
-6.880E-06,0.020
-6.870E-06,0.020
-6.860E-06,0.020
-6.850E-06,0.040
-6.840E-06,0.040
-6.830E-06,0.020
-6.820E-06,0.060
-6.810E-06,0.020
-6.800E-06,0.060
-6.790E-06,0.000
-6.780E-06,0.060
-6.770E-06,0.000
-6.760E-06,0.020
-6.750E-06,0.060
-6.740E-06,0.020
-6.730E-06,0.040
-6.720E-06,0.000
-6.710E-06,0.060
-6.700E-06,0.060
-6.690E-06,0.020
-6.680E-06,0.040
-6.670E-06,0.080
-6.660E-06,0.060
-6.650E-06,0.040
-6.640E-06,0.000
-6.630E-06,0.020
-6.620E-06,0.040
-6.610E-06,0.060
-6.600E-06,0.060
-6.590E-06,0.060
-6.580E-06,0.040
-6.570E-06,0.020
-6.560E-06,0.060
-6.550E-06,0.040
-6.540E-06,0.020
-6.530E-06,0.060
-6.520E-06,0.040
-6.510E-06,0.020
-6.500E-06,0.020
-6.490E-06,0.040
-6.480E-06,0.060
-6.470E-06,0.080
-6.460E-06,0.060
-6.450E-06,0.020
-6.440E-06,0.020
-6.430E-06,0.020
-6.420E-06,0.020
-6.410E-06,0.020
-6.400E-06,0.040
-6.390E-06,0.000
-6.380E-06,0.020
-6.370E-06,0.020
-6.360E-06,0.040
-6.350E-06,0.020
-6.340E-06,0.040
-6.330E-06,0.060
-6.320E-06,0.020
-6.310E-06,0.020
-6.300E-06,0.020
-6.290E-06,0.060
-6.280E-06,0.060
-6.270E-06,0.060
-6.260E-06,0.060
-6.250E-06,0.020
-6.240E-06,0.040
-6.230E-06,0.040
-6.220E-06,0.080
-6.210E-06,0.020
-6.200E-06,0.040
-6.190E-06,0.060
-6.180E-06,0.020
-6.170E-06,0.060
-6.160E-06,0.000
-6.150E-06,0.040
-6.140E-06,0.040
-6.130E-06,0.040
-6.120E-06,0.040
-6.110E-06,0.080
-6.100E-06,0.020
-6.090E-06,0.040
-6.080E-06,0.020
-6.070E-06,0.040
-6.060E-06,0.060
-6.050E-06,0.060
-6.040E-06,0.040
-6.030E-06,0.080
-6.020E-06,0.040
-6.010E-06,0.060
-6.000E-06,0.060
-5.990E-06,0.080
-5.980E-06,0.020
-5.970E-06,0.060
-5.960E-06,0.040
-5.950E-06,0.040
-5.940E-06,0.080
-5.930E-06,0.000
-5.920E-06,0.040
-5.910E-06,0.060
-5.900E-06,0.040
-5.890E-06,0.040
-5.880E-06,0.040
-5.870E-06,0.080
-5.860E-06,0.060
-5.850E-06,0.040
-5.840E-06,0.020
-5.830E-06,0.040
-5.820E-06,0.020
-5.810E-06,0.060
-5.800E-06,0.020
-5.790E-06,0.040
-5.780E-06,0.040
-5.770E-06,0.000
-5.760E-06,0.080
-5.750E-06,0.020
-5.740E-06,0.040
-5.730E-06,0.040
-5.720E-06,0.040
-5.710E-06,0.080
-5.700E-06,0.040
-5.690E-06,0.020
-5.680E-06,0.040
-5.670E-06,0.080
-5.660E-06,0.060
-5.650E-06,0.080
-5.640E-06,0.040
-5.630E-06,0.060
-5.620E-06,0.060
-5.610E-06,0.040
-5.600E-06,0.040
-5.590E-06,0.040
-5.580E-06,0.060
-5.570E-06,0.040
-5.560E-06,0.040
-5.550E-06,0.020
-5.540E-06,0.060
-5.530E-06,0.040
-5.520E-06,0.060
-5.510E-06,0.080
-5.500E-06,0.040
-5.490E-06,0.020
-5.480E-06,0.060
-5.470E-06,0.060
-5.460E-06,0.020
-5.450E-06,0.060
-5.440E-06,0.040
-5.430E-06,0.040
-5.420E-06,0.040
-5.410E-06,0.080
-5.400E-06,0.040
-5.390E-06,0.060
-5.380E-06,0.020
-5.370E-06,0.040
-5.360E-06,0.020
-5.350E-06,0.040
-5.340E-06,0.040
-5.330E-06,0.020
-5.320E-06,0.020
-5.310E-06,0.080
-5.300E-06,0.040
-5.290E-06,0.060
-5.280E-06,0.060
-5.270E-06,0.040
-5.260E-06,0.020
-5.250E-06,0.040
-5.240E-06,0.040
-5.230E-06,0.040
-5.220E-06,0.040
-5.210E-06,0.060
-5.200E-06,0.040
-5.190E-06,0.020
-5.180E-06,0.060
-5.170E-06,0.000
-5.160E-06,0.040
-5.150E-06,0.020
-5.140E-06,0.060
-5.130E-06,0.060
-5.120E-06,0.040
-5.110E-06,0.040
-5.100E-06,0.040
-5.090E-06,0.060
-5.080E-06,0.040
-5.070E-06,0.040
-5.060E-06,0.020
-5.050E-06,0.020
-5.040E-06,0.020
-5.030E-06,0.040
-5.020E-06,0.040
-5.010E-06,0.040
-5.000E-06,0.040
-4.990E-06,0.060
-4.980E-06,0.060
-4.970E-06,0.020
-4.960E-06,0.020
-4.950E-06,0.080
-4.940E-06,0.040
-4.930E-06,0.020
-4.920E-06,0.060
-4.910E-06,0.080
-4.900E-06,0.060
-4.890E-06,0.040
-4.880E-06,0.020
-4.870E-06,0.040
-4.860E-06,0.060
-4.850E-06,0.020
-4.840E-06,0.060
-4.830E-06,0.060
-4.820E-06,0.060
-4.810E-06,-0.020
-4.800E-06,-0.020
-4.790E-06,-0.420
-4.780E-06,-1.160
-4.770E-06,-2.220
-4.760E-06,-3.100
-4.750E-06,-3.300
-4.740E-06,-2.720
-4.730E-06,-2.060
-4.720E-06,-1.440
-4.710E-06,0.980
-4.700E-06,1.660
-4.690E-06,2.080
-4.680E-06,2.100
-4.670E-06,2.080
-4.660E-06,2.080
-4.650E-06,2.060
-4.640E-06,2.080
-4.630E-06,2.100
-4.620E-06,1.260
-4.610E-06,0.580
-4.600E-06,-0.360
-4.590E-06,-0.700
-4.580E-06,-0.860
-4.570E-06,-0.600
-4.560E-06,-0.340
-4.550E-06,-0.200
-4.540E-06,-0.020
-4.530E-06,-0.180
-4.520E-06,-0.560
-4.510E-06,-1.020
-4.500E-06,-1.460
-4.490E-06,-1.880
-4.480E-06,-2.100
-4.470E-06,-2.020
-4.460E-06,-1.940
-4.450E-06,-1.560
-4.440E-06,-0.940
-4.430E-06,-0.340
-4.420E-06,0.320
-4.410E-06,1.020
-4.400E-06,1.500
-4.390E-06,1.780
-4.380E-06,1.860
-4.370E-06,1.720
-4.360E-06,1.420
-4.350E-06,0.960
-4.340E-06,0.460
-4.330E-06,-0.040
-4.320E-06,-0.440
-4.310E-06,-0.740
-4.300E-06,-0.900
-4.290E-06,-0.980
-4.280E-06,-0.920
-4.270E-06,-0.780
-4.260E-06,-0.680
-4.250E-06,-0.580
-4.240E-06,-0.360
-4.230E-06,-0.200
-4.220E-06,-0.020
-4.210E-06,0.240
-4.200E-06,0.420
-4.190E-06,0.680
-4.180E-06,0.900
-4.170E-06,0.980
-4.160E-06,0.940
-4.150E-06,1.020
-4.140E-06,0.900
-4.130E-06,0.700
-4.120E-06,0.580
-4.110E-06,0.500
-4.100E-06,0.380
-4.090E-06,0.140
-4.080E-06,-0.060
-4.070E-06,-0.180
-4.060E-06,-0.340
-4.050E-06,-0.420
-4.040E-06,-0.520
-4.030E-06,-0.500
-4.020E-06,-0.600
-4.010E-06,-0.660
-4.000E-06,-0.620
-3.990E-06,-0.580
-3.980E-06,-0.500
-3.970E-06,-0.320
-3.960E-06,-0.140
-3.950E-06,0.060
-3.940E-06,0.280
-3.930E-06,0.440
-3.920E-06,0.680
-3.910E-06,0.760
-3.900E-06,0.840
-3.890E-06,0.840
-3.880E-06,0.740
-3.870E-06,0.640
-3.860E-06,0.460
-3.850E-06,0.140
-3.840E-06,-0.180
-3.830E-06,-0.340
-3.820E-06,-0.500
-3.810E-06,-0.580
-3.800E-06,-0.580
-3.790E-06,-0.460
-3.780E-06,-0.420
-3.770E-06,-0.380
-3.760E-06,-0.360
-3.750E-06,-0.280
-3.740E-06,-0.220
-3.730E-06,-0.140
-3.720E-06,-0.040
-3.710E-06,0.060
-3.700E-06,0.100
-3.690E-06,0.140
-3.680E-06,0.120
-3.670E-06,0.140
-3.660E-06,0.160
-3.650E-06,0.160
-3.640E-06,0.200
-3.630E-06,0.240
-3.620E-06,0.280
-3.610E-06,0.280
-3.600E-06,0.280
-3.590E-06,0.240
-3.580E-06,0.140
-3.570E-06,0.080
-3.560E-06,0.020
-3.550E-06,-0.020
-3.540E-06,-0.080
-3.530E-06,-0.020
-3.520E-06,-0.040
-3.510E-06,0.000
-3.500E-06,0.000
-3.490E-06,0.000
-3.480E-06,0.100
-3.470E-06,0.040
-3.460E-06,0.100
-3.450E-06,0.100
-3.440E-06,0.160
-3.430E-06,0.140
-3.420E-06,0.100
-3.410E-06,0.140
-3.400E-06,0.080
-3.390E-06,0.040
-3.380E-06,0.040
-3.370E-06,0.040
-3.360E-06,0.180
-3.350E-06,0.100
-3.340E-06,0.020
-3.330E-06,0.000
-3.320E-06,-0.040
-3.310E-06,-0.140
-3.300E-06,-0.100
-3.290E-06,-0.140
-3.280E-06,-0.100
-3.270E-06,-0.140
-3.260E-06,-0.120
-3.250E-06,-0.140
-3.240E-06,-0.080
-3.230E-06,-0.100
-3.220E-06,-0.060
-3.210E-06,-0.060
-3.200E-06,-0.040
-3.190E-06,-0.020
-3.180E-06,0.020
-3.170E-06,-0.020
-3.160E-06,-0.040
-3.150E-06,-0.060
-3.140E-06,-0.040
-3.130E-06,0.000
-3.120E-06,0.000
-3.110E-06,0.060
-3.100E-06,0.020
-3.090E-06,0.080
-3.080E-06,0.100
-3.070E-06,0.120
-3.060E-06,0.120
-3.050E-06,0.180
-3.040E-06,0.160
-3.030E-06,0.160
-3.020E-06,0.180
-3.010E-06,0.160
-3.000E-06,0.180
-2.990E-06,0.120
-2.980E-06,0.100
-2.970E-06,0.020
-2.960E-06,-0.020
-2.950E-06,-0.040
-2.940E-06,-0.080
-2.930E-06,-0.040
-2.920E-06,0.060
-2.910E-06,0.340
-2.900E-06,0.800
-2.890E-06,1.400
-2.880E-06,1.800
-2.870E-06,2.000
-2.860E-06,1.860
-2.850E-06,1.340
-2.840E-06,0.720
-2.830E-06,0.000
-2.820E-06,-0.700
-2.810E-06,-1.280
-2.800E-06,-1.640
-2.790E-06,-1.820
-2.780E-06,-1.860
-2.770E-06,-1.740
-2.760E-06,-1.520
-2.750E-06,-1.160
-2.740E-06,-0.900
-2.730E-06,-0.700
-2.720E-06,-0.640
-2.710E-06,-0.500
-2.700E-06,-0.380
-2.690E-06,-0.300
-2.680E-06,-0.220
-2.670E-06,-0.180
-2.660E-06,-0.160
-2.650E-06,-0.100
-2.640E-06,0.080
-2.630E-06,0.340
-2.620E-06,0.720
-2.610E-06,1.020
-2.600E-06,1.180
-2.590E-06,1.160
-2.580E-06,1.020
-2.570E-06,0.800
-2.560E-06,0.560
-2.550E-06,0.340
-2.540E-06,0.100
-2.530E-06,-0.200
-2.520E-06,-0.480
-2.510E-06,-0.680
-2.500E-06,-0.820
-2.490E-06,-0.820
-2.480E-06,-0.740
-2.470E-06,-0.560
-2.460E-06,-0.280
-2.450E-06,0.040
-2.440E-06,0.360
-2.430E-06,0.520
-2.420E-06,0.740
-2.410E-06,0.760
-2.400E-06,0.740
-2.390E-06,0.660
-2.380E-06,0.560
-2.370E-06,0.420
-2.360E-06,0.240
-2.350E-06,0.020
-2.340E-06,-0.120
-2.330E-06,-0.300
-2.320E-06,-0.400
-2.310E-06,-0.460
-2.300E-06,-0.520
-2.290E-06,-0.540
-2.280E-06,-0.480
-2.270E-06,-0.460
-2.260E-06,-0.480
-2.250E-06,-0.440
-2.240E-06,-0.420
-2.230E-06,-0.420
-2.220E-06,-0.440
-2.210E-06,-0.420
-2.200E-06,-0.400
-2.190E-06,-0.340
-2.180E-06,-0.220
-2.170E-06,-0.100
-2.160E-06,0.060
-2.150E-06,0.200
-2.140E-06,0.300
-2.130E-06,0.420
-2.120E-06,0.440
-2.110E-06,0.440
-2.100E-06,0.420
-2.090E-06,0.280
-2.080E-06,0.140
-2.070E-06,-0.040
-2.060E-06,-0.220
-2.050E-06,-0.380
-2.040E-06,-0.500
-2.030E-06,-0.580
-2.020E-06,-0.600
-2.010E-06,-0.540
-2.000E-06,-0.480
-1.990E-06,-0.340
-1.980E-06,-0.240
-1.970E-06,-0.120
-1.960E-06,-0.020
-1.950E-06,0.100
-1.940E-06,0.220
-1.930E-06,0.240
-1.920E-06,0.220
-1.910E-06,0.220
-1.900E-06,0.180
-1.890E-06,0.080
-1.880E-06,0.020
-1.870E-06,-0.080
-1.860E-06,-0.120
-1.850E-06,-0.160
-1.840E-06,-0.180
-1.830E-06,-0.160
-1.820E-06,-0.160
-1.810E-06,-0.160
-1.800E-06,-0.140
-1.790E-06,-0.140
-1.780E-06,-0.180
-1.770E-06,-0.200
-1.760E-06,-0.260
-1.750E-06,-0.260
-1.740E-06,-0.280
-1.730E-06,-0.300
-1.720E-06,-0.340
-1.710E-06,-0.320
-1.700E-06,-0.300
-1.690E-06,-0.260
-1.680E-06,-0.240
-1.670E-06,-0.180
-1.660E-06,-0.160
-1.650E-06,-0.140
-1.640E-06,-0.120
-1.630E-06,-0.140
-1.620E-06,-0.160
-1.610E-06,-0.180
-1.600E-06,-0.220
-1.590E-06,-0.280
-1.580E-06,-0.320
-1.570E-06,-0.300
-1.560E-06,-0.340
-1.550E-06,-0.340
-1.540E-06,-0.280
-1.530E-06,-0.260
-1.520E-06,-0.160
-1.510E-06,-0.140
-1.500E-06,-0.080
-1.490E-06,-0.020
-1.480E-06,-0.020
-1.470E-06,0.040
-1.460E-06,0.080
-1.450E-06,0.100
-1.440E-06,0.120
-1.430E-06,0.100
-1.420E-06,0.020
-1.410E-06,0.000
-1.400E-06,0.000
-1.390E-06,-0.040
-1.380E-06,-0.040
-1.370E-06,0.060
-1.360E-06,0.040
-1.350E-06,0.080
-1.340E-06,-0.040
-1.330E-06,0.000
-1.320E-06,-0.060
-1.310E-06,-0.100
-1.300E-06,-0.140
-1.290E-06,-0.140
-1.280E-06,-0.120
-1.270E-06,-0.080
-1.260E-06,-0.160
-1.250E-06,-0.200
-1.240E-06,-0.300
-1.230E-06,-0.340
-1.220E-06,-0.380
-1.210E-06,-0.340
-1.200E-06,-0.340
-1.190E-06,-0.360
-1.180E-06,-0.420
-1.170E-06,-0.360
-1.160E-06,-0.380
-1.150E-06,-0.400
-1.140E-06,-0.540
-1.130E-06,-0.500
-1.120E-06,-0.500
-1.110E-06,-0.500
-1.100E-06,-0.540
-1.090E-06,-0.520
-1.080E-06,-0.480
-1.070E-06,-0.460
-1.060E-06,-0.480
-1.050E-06,-0.480
-1.040E-06,-0.460
-1.030E-06,-0.480
-1.020E-06,-0.440
-1.010E-06,-0.480
-1.000E-06,-0.420
-9.900E-07,-0.500
-9.800E-07,-0.460
-9.700E-07,-0.500
-9.600E-07,-0.420
-9.500E-07,-0.500
-9.400E-07,-0.620
-9.300E-07,-0.640
-9.200E-07,-0.760
-9.100E-07,-0.780
-9.000E-07,-0.600
-8.900E-07,-0.660
-8.800E-07,-0.340
-8.700E-07,-0.280
-8.600E-07,0.020
-8.500E-07,0.220
-8.400E-07,0.240
-8.300E-07,-0.100
-8.200E-07,-0.200
-8.100E-07,-0.660
-8.000E-07,-0.720
-7.900E-07,-0.800
-7.800E-07,-0.860
-7.700E-07,-0.940
-7.600E-07,-0.920
-7.500E-07,-1.140
-7.400E-07,-1.000
-7.300E-07,-1.100
-7.200E-07,-0.880
-7.100E-07,-0.920
-7.000E-07,-0.940
-6.900E-07,-0.860
-6.800E-07,-0.820
-6.700E-07,-0.620
-6.600E-07,-0.580
-6.500E-07,-0.520
-6.400E-07,-0.500
-6.300E-07,-0.660
-6.200E-07,-0.660
-6.100E-07,-0.820
-6.000E-07,-0.660
-5.900E-07,-0.700
-5.800E-07,-0.780
-5.700E-07,-0.740
-5.600E-07,-0.700
-5.500E-07,-0.840
-5.400E-07,-0.860
-5.300E-07,-0.860
-5.200E-07,-0.860
-5.100E-07,-0.920
-5.000E-07,-0.900
-4.900E-07,-0.720
-4.800E-07,-0.760
-4.700E-07,-0.700
-4.600E-07,-0.520
-4.500E-07,-0.540
-4.400E-07,-0.400
-4.300E-07,-0.340
-4.200E-07,-0.240
-4.100E-07,-0.080
-4.000E-07,-0.020
-3.900E-07,0.080
-3.800E-07,0.020
-3.700E-07,-0.120
-3.600E-07,-0.260
-3.500E-07,-0.360
-3.400E-07,-0.460
-3.300E-07,-0.260
-3.200E-07,-0.340
-3.100E-07,-0.420
-3.000E-07,-0.660
-2.900E-07,-0.720
-2.800E-07,-1.200
-2.700E-07,-0.960
-2.600E-07,-1.020
-2.500E-07,-0.900
-2.400E-07,-0.280
-2.300E-07,-0.600
-2.200E-07,-0.700
-2.100E-07,0.860
-2.000E-07,2.080
-1.900E-07,2.060
-1.800E-07,2.080
-1.700E-07,-1.680
-1.600E-07,-3.220
-1.500E-07,-3.240
-1.400E-07,-3.340
-1.300E-07,-0.480
-1.200E-07,1.620
-1.100E-07,0.460
-1.000E-07,-0.260
-9.000E-08,-2.940
-8.000E-08,-3.360
-7.000E-08,-3.360
-6.000E-08,-3.340
-5.000E-08,-2.640
-4.000E-08,-0.820
-3.000E-08,-0.240
-2.000E-08,-0.180
-1.000E-08,-0.460
0.000E+00,-0.760
1.000E-08,-0.860
2.000E-08,-0.340
3.000E-08,0.080
4.000E-08,0.740
5.000E-08,1.240
6.000E-08,1.260
7.000E-08,1.040
8.000E-08,0.620
9.000E-08,0.160
1.000E-07,-0.020
1.100E-07,0.100
1.200E-07,0.300
1.300E-07,0.560
1.400E-07,0.600
1.500E-07,0.320
1.600E-07,-0.460
1.700E-07,-1.240
1.800E-07,-1.540
1.900E-07,-1.780
2.000E-07,-1.700
2.100E-07,-1.720
2.200E-07,-1.500
2.300E-07,-1.360
2.400E-07,-1.380
2.500E-07,-1.360
2.600E-07,-1.260
2.700E-07,-1.220
2.800E-07,-0.980
2.900E-07,-0.720
3.000E-07,-0.380
3.100E-07,-0.160
3.200E-07,-0.020
3.300E-07,0.160
3.400E-07,0.040
3.500E-07,-0.280
3.600E-07,-0.660
3.700E-07,-1.020
3.800E-07,-1.620
3.900E-07,-1.740
4.000E-07,-2.080
4.100E-07,-1.980
4.200E-07,-1.780
4.300E-07,-1.860
4.400E-07,-1.820
4.500E-07,-1.940
4.600E-07,-2.040
4.700E-07,-1.960
4.800E-07,-2.000
4.900E-07,-1.820
5.000E-07,-1.580
5.100E-07,-1.260
5.200E-07,-1.040
5.300E-07,-0.840
5.400E-07,-0.680
5.500E-07,-0.540
5.600E-07,-0.440
5.700E-07,-0.360
5.800E-07,-0.260
5.900E-07,-0.240
6.000E-07,-0.260
6.100E-07,-0.360
6.200E-07,-0.520
6.300E-07,-0.680
6.400E-07,-0.840
6.500E-07,-0.820
6.600E-07,-0.880
6.700E-07,-0.940
6.800E-07,-0.800
6.900E-07,-0.740
7.000E-07,-0.560
7.100E-07,-0.840
7.200E-07,-0.380
7.300E-07,-0.660
7.400E-07,-0.200
7.500E-07,-0.580
7.600E-07,-0.900
7.700E-07,-1.540
7.800E-07,-2.120
7.900E-07,-2.280
8.000E-07,-2.240
8.100E-07,-2.180
8.200E-07,-2.020
8.300E-07,-2.240
8.400E-07,-2.440
8.500E-07,-2.540
8.600E-07,-3.060
8.700E-07,-3.120
8.800E-07,-3.340
8.900E-07,-3.340
9.000E-07,-3.340
9.100E-07,-3.340
9.200E-07,-3.340
9.300E-07,-3.340
9.400E-07,-3.340
9.500E-07,-3.340
9.600E-07,-3.260
9.700E-07,-3.340
9.800E-07,-2.560
9.900E-07,-3.080
1.000E-06,-2.720
1.010E-06,-2.760
1.020E-06,-3.340
1.030E-06,-3.320
1.040E-06,-3.320
1.050E-06,-3.340
1.060E-06,-3.340
1.070E-06,-3.340
1.080E-06,-3.340
1.090E-06,-3.340
1.100E-06,-3.340
1.110E-06,-3.340
1.120E-06,-3.320
1.130E-06,-3.340
1.140E-06,-3.340
1.150E-06,-3.340
1.160E-06,-3.340
1.170E-06,-2.880
1.180E-06,-2.080
1.190E-06,-1.560
1.200E-06,-0.900
1.210E-06,-0.480
1.220E-06,-0.060
1.230E-06,0.320
1.240E-06,0.760
1.250E-06,1.180
1.260E-06,1.520
1.270E-06,1.780
1.280E-06,1.900
1.290E-06,1.900
1.300E-06,1.780
1.310E-06,1.520
1.320E-06,1.260
1.330E-06,0.960
1.340E-06,0.720
1.350E-06,0.660
1.360E-06,0.360
1.370E-06,-0.100
1.380E-06,-0.300
1.390E-06,-0.500
1.400E-06,-0.460
1.410E-06,-0.240
1.420E-06,0.140
1.430E-06,0.500
1.440E-06,0.720
1.450E-06,0.860
1.460E-06,0.860
1.470E-06,0.700
1.480E-06,0.520
1.490E-06,0.320
1.500E-06,0.000
1.510E-06,-0.400
1.520E-06,-0.820
1.530E-06,-1.260
1.540E-06,-1.620
1.550E-06,-1.960
1.560E-06,-2.180
1.570E-06,-2.240
1.580E-06,-2.220
1.590E-06,-2.100
1.600E-06,-2.020
1.610E-06,-1.840
1.620E-06,-1.700
1.630E-06,-1.540
1.640E-06,-1.380
1.650E-06,-1.180
1.660E-06,-1.000
1.670E-06,-0.760
1.680E-06,-0.500
1.690E-06,-0.240
1.700E-06,0.080
1.710E-06,0.420
1.720E-06,0.760
1.730E-06,1.020
1.740E-06,1.220
1.750E-06,1.360
1.760E-06,1.400
1.770E-06,1.320
1.780E-06,1.180
1.790E-06,0.980
1.800E-06,0.740
1.810E-06,0.420
1.820E-06,0.180
1.830E-06,-0.040
1.840E-06,-0.200
1.850E-06,-0.240
1.860E-06,-0.280
1.870E-06,-0.180
1.880E-06,-0.040
1.890E-06,0.160
1.900E-06,0.340
1.910E-06,0.480
1.920E-06,0.580
1.930E-06,0.620
1.940E-06,0.660
1.950E-06,0.680
1.960E-06,0.760
1.970E-06,0.700
1.980E-06,0.680
1.990E-06,0.600
2.000E-06,0.480
2.010E-06,0.400
2.020E-06,0.340
2.030E-06,0.300
2.040E-06,0.280
2.050E-06,0.280
2.060E-06,0.240
2.070E-06,0.180
2.080E-06,0.140
2.090E-06,0.080
2.100E-06,0.080
2.110E-06,0.040
2.120E-06,-0.020
2.130E-06,-0.020
2.140E-06,-0.060
2.150E-06,-0.040
2.160E-06,-0.040
2.170E-06,0.000
2.180E-06,0.040
2.190E-06,0.080
2.200E-06,0.080
2.210E-06,0.160
2.220E-06,0.200
2.230E-06,0.280
2.240E-06,0.320
2.250E-06,0.320
2.260E-06,-0.400
2.270E-06,-1.160
2.280E-06,-1.920
2.290E-06,-1.380
2.300E-06,-0.860
2.310E-06,-1.060
2.320E-06,-1.180
2.330E-06,-1.200
2.340E-06,-1.140
2.350E-06,-0.980
2.360E-06,-0.920
2.370E-06,-0.620
2.380E-06,-0.340
2.390E-06,-0.180
2.400E-06,0.100
2.410E-06,0.200
2.420E-06,0.340
2.430E-06,0.140
2.440E-06,0.180
2.450E-06,0.380
2.460E-06,0.340
2.470E-06,0.420
2.480E-06,0.560
2.490E-06,0.580
2.500E-06,0.500
2.510E-06,0.520
2.520E-06,0.540
2.530E-06,0.480
2.540E-06,0.360
2.550E-06,0.360
2.560E-06,0.300
2.570E-06,0.260
2.580E-06,0.200
2.590E-06,0.180
2.600E-06,0.080
2.610E-06,0.040
2.620E-06,0.000
2.630E-06,-0.020
2.640E-06,0.000
2.650E-06,0.040
2.660E-06,0.100
2.670E-06,0.120
2.680E-06,0.180
2.690E-06,0.300
2.700E-06,0.380
2.710E-06,0.420
2.720E-06,0.480
2.730E-06,0.480
2.740E-06,0.460
2.750E-06,0.420
2.760E-06,0.420
2.770E-06,0.360
2.780E-06,0.240
2.790E-06,0.200
2.800E-06,0.140
2.810E-06,0.080
2.820E-06,0.060
2.830E-06,0.020
2.840E-06,0.080
2.850E-06,0.140
2.860E-06,0.220
2.870E-06,0.280
2.880E-06,0.340
2.890E-06,0.340
2.900E-06,0.380
2.910E-06,0.360
2.920E-06,0.360
2.930E-06,0.320
2.940E-06,0.320
2.950E-06,0.280
2.960E-06,0.260
2.970E-06,0.180
2.980E-06,0.220
2.990E-06,0.200
3.000E-06,0.220
3.010E-06,0.180
3.020E-06,0.180
3.030E-06,0.140
3.040E-06,0.120
3.050E-06,0.140
3.060E-06,0.080
3.070E-06,0.100
3.080E-06,0.120
3.090E-06,0.100
3.100E-06,0.120
3.110E-06,0.140
3.120E-06,0.220
3.130E-06,0.240
3.140E-06,0.340
3.150E-06,0.400
3.160E-06,0.500
3.170E-06,0.560
3.180E-06,0.620
3.190E-06,0.660
3.200E-06,0.680
3.210E-06,0.660
3.220E-06,0.700
3.230E-06,0.720
3.240E-06,0.740
3.250E-06,0.700
3.260E-06,0.600
3.270E-06,0.500
3.280E-06,0.360
