mediciones/8-28/-7/WaveData6622.csv

#timebase=2000000(ps)
,#voltbase=200000(mv/100)
#size=4000
-8.350E-06,0.008
-8.340E-06,0.000
-8.330E-06,0.000
-8.320E-06,0.000
-8.310E-06,0.000
-8.300E-06,0.000
-8.290E-06,0.016
-8.280E-06,0.000
-8.270E-06,0.000
-8.260E-06,0.008
-8.250E-06,0.000
-8.240E-06,0.000
-8.230E-06,0.000
-8.220E-06,0.000
-8.210E-06,-0.008
-8.200E-06,0.000
-8.190E-06,0.000
-8.180E-06,0.008
-8.170E-06,0.000
-8.160E-06,0.008
-8.150E-06,0.008
-8.140E-06,0.000
-8.130E-06,0.000
-8.120E-06,0.008
-8.110E-06,0.008
-8.100E-06,0.000
-8.090E-06,0.008
-8.080E-06,0.000
-8.070E-06,0.000
-8.060E-06,0.000
-8.050E-06,0.000
-8.040E-06,0.000
-8.030E-06,0.008
-8.020E-06,0.008
-8.010E-06,0.000
-8.000E-06,0.000
-7.990E-06,0.008
-7.980E-06,0.008
-7.970E-06,0.008
-7.960E-06,0.000
-7.950E-06,0.000
-7.940E-06,0.008
-7.930E-06,0.008
-7.920E-06,-0.008
-7.910E-06,0.008
-7.900E-06,0.000
-7.890E-06,0.008
-7.880E-06,0.000
-7.870E-06,0.008
-7.860E-06,0.000
-7.850E-06,0.000
-7.840E-06,0.008
-7.830E-06,0.008
-7.820E-06,0.008
-7.810E-06,0.008
-7.800E-06,0.008
-7.790E-06,0.008
-7.780E-06,0.008
-7.770E-06,0.008
-7.760E-06,0.008
-7.750E-06,0.016
-7.740E-06,0.000
-7.730E-06,0.008
-7.720E-06,0.000
-7.710E-06,0.000
-7.700E-06,0.008
-7.690E-06,0.000
-7.680E-06,0.008
-7.670E-06,0.008
-7.660E-06,0.008
-7.650E-06,0.008
-7.640E-06,0.000
-7.630E-06,0.000
-7.620E-06,0.008
-7.610E-06,0.000
-7.600E-06,0.008
-7.590E-06,0.000
-7.580E-06,0.000
-7.570E-06,0.008
-7.560E-06,0.000
-7.550E-06,0.008
-7.540E-06,0.008
-7.530E-06,0.008
-7.520E-06,0.000
-7.510E-06,0.008
-7.500E-06,0.008
-7.490E-06,0.008
-7.480E-06,0.000
-7.470E-06,0.008
-7.460E-06,0.008
-7.450E-06,0.000
-7.440E-06,0.008
-7.430E-06,0.000
-7.420E-06,0.000
-7.410E-06,0.008
-7.400E-06,0.008
-7.390E-06,0.000
-7.380E-06,0.008
-7.370E-06,0.008
-7.360E-06,0.008
-7.350E-06,0.000
-7.340E-06,0.008
-7.330E-06,0.000
-7.320E-06,0.008
-7.310E-06,0.000
-7.300E-06,0.000
-7.290E-06,0.000
-7.280E-06,0.000
-7.270E-06,0.008
-7.260E-06,0.008
-7.250E-06,0.000
-7.240E-06,-0.008
-7.230E-06,0.000
-7.220E-06,0.000
-7.210E-06,0.000
-7.200E-06,0.008
-7.190E-06,0.000
-7.180E-06,0.000
-7.170E-06,0.008
-7.160E-06,0.008
-7.150E-06,0.008
-7.140E-06,0.000
-7.130E-06,0.008
-7.120E-06,0.008
-7.110E-06,0.000
-7.100E-06,0.000
-7.090E-06,0.000
-7.080E-06,0.000
-7.070E-06,0.000
-7.060E-06,-0.008
-7.050E-06,0.008
-7.040E-06,0.000
-7.030E-06,0.000
-7.020E-06,0.008
-7.010E-06,0.000
-7.000E-06,0.000
-6.990E-06,0.000
-6.980E-06,0.008
-6.970E-06,0.000
-6.960E-06,0.008
-6.950E-06,0.000
-6.940E-06,0.000
-6.930E-06,0.000
-6.920E-06,-0.008
-6.910E-06,0.000
-6.900E-06,0.000
-6.890E-06,0.000
-6.880E-06,0.000
-6.870E-06,0.000
-6.860E-06,0.008
-6.850E-06,0.008
-6.840E-06,0.000
-6.830E-06,0.008
-6.820E-06,0.008
-6.810E-06,0.000
-6.800E-06,0.000
-6.790E-06,0.008
-6.780E-06,0.008
-6.770E-06,0.008
-6.760E-06,0.000
-6.750E-06,0.000
-6.740E-06,0.008
-6.730E-06,0.000
-6.720E-06,0.000
-6.710E-06,0.008
-6.700E-06,0.000
-6.690E-06,0.000
-6.680E-06,0.000
-6.670E-06,0.008
-6.660E-06,0.000
-6.650E-06,0.000
-6.640E-06,0.008
-6.630E-06,0.000
-6.620E-06,0.000
-6.610E-06,0.000
-6.600E-06,0.008
-6.590E-06,0.016
-6.580E-06,0.000
-6.570E-06,0.008
-6.560E-06,0.008
-6.550E-06,0.008
-6.540E-06,0.008
-6.530E-06,0.008
-6.520E-06,0.000
-6.510E-06,0.008
-6.500E-06,0.008
-6.490E-06,0.008
-6.480E-06,0.000
-6.470E-06,0.000
-6.460E-06,0.008
-6.450E-06,0.000
-6.440E-06,0.008
-6.430E-06,0.000
-6.420E-06,0.008
-6.410E-06,0.000
-6.400E-06,0.008
-6.390E-06,0.008
-6.380E-06,0.008
-6.370E-06,0.000
-6.360E-06,0.008
-6.350E-06,0.008
-6.340E-06,0.000
-6.330E-06,0.000
-6.320E-06,-0.008
-6.310E-06,0.000
-6.300E-06,0.008
-6.290E-06,0.008
-6.280E-06,0.016
-6.270E-06,0.008
-6.260E-06,0.000
-6.250E-06,0.000
-6.240E-06,0.008
-6.230E-06,0.000
-6.220E-06,0.000
-6.210E-06,0.000
-6.200E-06,0.008
-6.190E-06,0.008
-6.180E-06,0.008
-6.170E-06,-0.008
-6.160E-06,0.000
-6.150E-06,0.008
-6.140E-06,0.008
-6.130E-06,0.008
-6.120E-06,0.000
-6.110E-06,0.000
-6.100E-06,-0.008
-6.090E-06,0.008
-6.080E-06,0.008
-6.070E-06,0.008
-6.060E-06,0.000
-6.050E-06,0.008
-6.040E-06,0.000
-6.030E-06,0.008
-6.020E-06,0.000
-6.010E-06,-0.008
-6.000E-06,0.008
-5.990E-06,0.000
-5.980E-06,0.000
-5.970E-06,0.000
-5.960E-06,0.024
-5.950E-06,0.048
-5.940E-06,0.088
-5.930E-06,0.128
-5.920E-06,0.120
-5.910E-06,0.064
-5.900E-06,-0.032
-5.890E-06,-0.104
-5.880E-06,-0.272
-5.870E-06,-0.144
-5.860E-06,-0.032
-5.850E-06,0.128
-5.840E-06,0.192
-5.830E-06,0.200
-5.820E-06,0.080
-5.810E-06,-0.080
-5.800E-06,-0.136
-5.790E-06,-0.088
-5.780E-06,0.024
-5.770E-06,0.112
-5.760E-06,0.112
-5.750E-06,0.072
-5.740E-06,-0.024
-5.730E-06,-0.104
-5.720E-06,-0.144
-5.710E-06,-0.088
-5.700E-06,-0.040
-5.690E-06,0.088
-5.680E-06,0.120
-5.670E-06,0.136
-5.660E-06,0.072
-5.650E-06,-0.016
-5.640E-06,-0.048
-5.630E-06,-0.056
-5.620E-06,-0.016
-5.610E-06,0.016
-5.600E-06,0.024
-5.590E-06,0.032
-5.580E-06,-0.016
-5.570E-06,-0.048
-5.560E-06,-0.064
-5.550E-06,-0.056
-5.540E-06,-0.024
-5.530E-06,0.016
-5.520E-06,0.064
-5.510E-06,0.072
-5.500E-06,0.056
-5.490E-06,0.032
-5.480E-06,-0.008
-5.470E-06,-0.024
-5.460E-06,-0.024
-5.450E-06,-0.008
-5.440E-06,0.032
-5.430E-06,0.048
-5.420E-06,0.040
-5.410E-06,0.024
-5.400E-06,-0.008
-5.390E-06,-0.016
-5.380E-06,-0.032
-5.370E-06,-0.008
-5.360E-06,0.032
-5.350E-06,0.064
-5.340E-06,0.064
-5.330E-06,0.040
-5.320E-06,-0.008
-5.310E-06,0.008
-5.300E-06,-0.040
-5.290E-06,-0.040
-5.280E-06,0.032
-5.270E-06,0.024
-5.260E-06,0.008
-5.250E-06,0.064
-5.240E-06,0.000
-5.230E-06,-0.048
-5.220E-06,0.000
-5.210E-06,-0.152
-5.200E-06,0.048
-5.190E-06,-0.016
-5.180E-06,0.056
-5.170E-06,0.056
-5.160E-06,0.040
-5.150E-06,-0.032
-5.140E-06,-0.024
-5.130E-06,-0.040
-5.120E-06,-0.040
-5.110E-06,0.008
-5.100E-06,0.016
-5.090E-06,0.040
-5.080E-06,0.008
-5.070E-06,-0.008
-5.060E-06,-0.040
-5.050E-06,-0.024
-5.040E-06,-0.008
-5.030E-06,0.024
-5.020E-06,0.024
-5.010E-06,0.032
-5.000E-06,0.032
-4.990E-06,0.016
-4.980E-06,-0.008
-4.970E-06,-0.016
-4.960E-06,-0.008
-4.950E-06,-0.008
-4.940E-06,0.008
-4.930E-06,0.008
-4.920E-06,0.000
-4.910E-06,0.008
-4.900E-06,-0.008
-4.890E-06,-0.008
-4.880E-06,-0.008
-4.870E-06,0.000
-4.860E-06,0.016
-4.850E-06,0.008
-4.840E-06,0.016
-4.830E-06,0.016
-4.820E-06,0.008
-4.810E-06,0.008
-4.800E-06,-0.008
-4.790E-06,-0.008
-4.780E-06,-0.016
-4.770E-06,0.000
-4.760E-06,0.016
-4.750E-06,0.016
-4.740E-06,0.024
-4.730E-06,0.008
-4.720E-06,0.008
-4.710E-06,0.000
-4.700E-06,-0.016
-4.690E-06,0.000
-4.680E-06,0.016
-4.670E-06,0.024
-4.660E-06,0.024
-4.650E-06,0.024
-4.640E-06,-0.008
-4.630E-06,-0.016
-4.620E-06,-0.016
-4.610E-06,0.008
-4.600E-06,0.008
-4.590E-06,0.024
-4.580E-06,0.032
-4.570E-06,0.024
-4.560E-06,0.008
-4.550E-06,-0.008
-4.540E-06,-0.008
-4.530E-06,-0.008
-4.520E-06,0.008
-4.510E-06,0.016
-4.500E-06,0.024
-4.490E-06,0.024
-4.480E-06,0.008
-4.470E-06,-0.008
-4.460E-06,-0.016
-4.450E-06,-0.016
-4.440E-06,-0.008
-4.430E-06,0.008
-4.420E-06,0.008
-4.410E-06,0.032
-4.400E-06,0.016
-4.390E-06,0.024
-4.380E-06,0.000
-4.370E-06,-0.008
-4.360E-06,-0.008
-4.350E-06,0.024
-4.340E-06,0.016
-4.330E-06,0.024
-4.320E-06,0.032
-4.310E-06,-0.008
-4.300E-06,-0.016
-4.290E-06,0.032
-4.280E-06,-0.008
-4.270E-06,0.024
-4.260E-06,-0.016
-4.250E-06,0.032
-4.240E-06,0.008
-4.230E-06,0.016
-4.220E-06,0.000
-4.210E-06,-0.008
-4.200E-06,0.000
-4.190E-06,0.008
-4.180E-06,0.040
-4.170E-06,0.080
-4.160E-06,0.056
-4.150E-06,0.000
-4.140E-06,-0.048
-4.130E-06,0.016
-4.120E-06,0.000
-4.110E-06,0.040
-4.100E-06,0.080
-4.090E-06,0.208
-4.080E-06,0.152
-4.070E-06,0.152
-4.060E-06,0.128
-4.050E-06,-0.048
-4.040E-06,-0.040
-4.030E-06,-0.048
-4.020E-06,0.016
-4.010E-06,0.080
-4.000E-06,0.136
-3.990E-06,0.224
-3.980E-06,0.128
-3.970E-06,0.128
-3.960E-06,-0.616
-3.950E-06,-0.440
-3.940E-06,-0.472
-3.930E-06,0.160
-3.920E-06,0.096
-3.910E-06,0.120
-3.900E-06,0.152
-3.890E-06,-0.240
-3.880E-06,-0.152
-3.870E-06,-0.136
-3.860E-06,0.072
-3.850E-06,-0.008
-3.840E-06,0.064
-3.830E-06,-0.024
-3.820E-06,0.056
-3.810E-06,-0.088
-3.800E-06,-0.016
-3.790E-06,0.000
-3.780E-06,0.064
-3.770E-06,0.152
-3.760E-06,0.048
-3.750E-06,0.032
-3.740E-06,-0.040
-3.730E-06,-0.008
-3.720E-06,-0.048
-3.710E-06,0.048
-3.700E-06,0.056
-3.690E-06,0.072
-3.680E-06,-0.040
-3.670E-06,-0.016
-3.660E-06,0.016
-3.650E-06,0.008
-3.640E-06,0.056
-3.630E-06,0.032
-3.620E-06,0.056
-3.610E-06,0.040
-3.600E-06,0.056
-3.590E-06,0.024
-3.580E-06,0.024
-3.570E-06,0.016
-3.560E-06,0.064
-3.550E-06,0.104
-3.540E-06,0.072
-3.530E-06,0.080
-3.520E-06,0.056
-3.510E-06,-0.152
-3.500E-06,-0.240
-3.490E-06,-0.344
-3.480E-06,-0.224
-3.470E-06,-0.128
-3.460E-06,0.184
-3.450E-06,0.272
-3.440E-06,0.288
-3.430E-06,0.176
-3.420E-06,-0.056
-3.410E-06,-0.208
-3.400E-06,-0.328
-3.390E-06,-0.192
-3.380E-06,0.000
-3.370E-06,0.200
-3.360E-06,0.248
-3.350E-06,0.184
-3.340E-06,0.032
-3.330E-06,-0.128
-3.320E-06,-0.184
-3.310E-06,-0.152
-3.300E-06,-0.040
-3.290E-06,0.088
-3.280E-06,0.184
-3.270E-06,0.184
-3.260E-06,0.088
-3.250E-06,-0.040
-3.240E-06,-0.152
-3.230E-06,-0.176
-3.220E-06,-0.128
-3.210E-06,0.000
-3.200E-06,0.072
-3.190E-06,0.160
-3.180E-06,0.096
-3.170E-06,0.024
-3.160E-06,-0.064
-3.150E-06,-0.080
-3.140E-06,-0.040
-3.130E-06,0.048
-3.120E-06,0.104
-3.110E-06,0.088
-3.100E-06,0.064
-3.090E-06,-0.008
-3.080E-06,-0.040
-3.070E-06,-0.048
-3.060E-06,-0.016
-3.050E-06,0.024
-3.040E-06,0.072
-3.030E-06,0.072
-3.020E-06,0.048
-3.010E-06,0.016
-3.000E-06,-0.016
-2.990E-06,-0.024
-2.980E-06,0.008
-2.970E-06,0.032
-2.960E-06,0.056
-2.950E-06,0.048
-2.940E-06,0.040
-2.930E-06,0.016
-2.920E-06,-0.016
-2.910E-06,-0.016
-2.900E-06,-0.016
-2.890E-06,0.000
-2.880E-06,0.016
-2.870E-06,0.016
-2.860E-06,0.024
-2.850E-06,0.008
-2.840E-06,0.024
-2.830E-06,0.000
-2.820E-06,0.000
-2.810E-06,0.016
-2.800E-06,-0.016
-2.790E-06,0.016
-2.780E-06,0.024
-2.770E-06,0.040
-2.760E-06,0.040
-2.750E-06,0.056
-2.740E-06,0.040
-2.730E-06,0.048
-2.720E-06,0.024
-2.710E-06,0.000
-2.700E-06,0.056
-2.690E-06,0.128
-2.680E-06,0.048
-2.670E-06,0.064
-2.660E-06,0.016
-2.650E-06,0.120
-2.640E-06,-0.080
-2.630E-06,-0.264
-2.620E-06,-0.184
-2.610E-06,-0.544
-2.600E-06,0.056
-2.590E-06,-0.024
-2.580E-06,0.560
-2.570E-06,-0.016
-2.560E-06,0.248
-2.550E-06,-0.264
-2.540E-06,-0.232
-2.530E-06,-0.256
-2.520E-06,0.000
-2.510E-06,0.320
-2.500E-06,0.352
-2.490E-06,0.064
-2.480E-06,-0.264
-2.470E-06,-0.344
-2.460E-06,-0.328
-2.450E-06,0.032
-2.440E-06,0.256
-2.430E-06,0.416
-2.420E-06,0.360
-2.410E-06,0.120
-2.400E-06,-0.200
-2.390E-06,-0.528
-2.380E-06,-0.240
-2.370E-06,-0.128
-2.360E-06,0.232
-2.350E-06,0.280
-2.340E-06,0.328
-2.330E-06,0.208
-2.320E-06,-0.016
-2.310E-06,-0.200
-2.300E-06,-0.288
-2.290E-06,-0.064
-2.280E-06,0.112
-2.270E-06,0.184
-2.260E-06,0.080
-2.250E-06,0.008
-2.240E-06,-0.136
-2.230E-06,-0.208
-2.220E-06,-0.128
-2.210E-06,0.048
-2.200E-06,0.184
-2.190E-06,0.256
-2.180E-06,0.080
-2.170E-06,-0.080
-2.160E-06,-0.152
-2.150E-06,-0.072
-2.140E-06,0.008
-2.130E-06,0.072
-2.120E-06,0.136
-2.110E-06,0.096
-2.100E-06,0.064
-2.090E-06,0.024
-2.080E-06,-0.024
-2.070E-06,-0.064
-2.060E-06,-0.112
-2.050E-06,-0.016
-2.040E-06,-0.032
-2.030E-06,-0.008
-2.020E-06,0.096
-2.010E-06,-0.008
-2.000E-06,0.048
-1.990E-06,-0.016
-1.980E-06,-0.048
-1.970E-06,-0.072
-1.960E-06,-0.008
-1.950E-06,0.008
-1.940E-06,0.056
-1.930E-06,0.064
-1.920E-06,0.080
-1.910E-06,0.056
-1.900E-06,0.040
-1.890E-06,0.048
-1.880E-06,0.048
-1.870E-06,0.072
-1.860E-06,0.064
-1.850E-06,0.024
-1.840E-06,-0.024
-1.830E-06,-0.016
-1.820E-06,0.016
-1.810E-06,0.056
-1.800E-06,0.096
-1.790E-06,0.112
-1.780E-06,0.096
-1.770E-06,0.064
-1.760E-06,-0.048
-1.750E-06,-0.168
-1.740E-06,-0.240
-1.730E-06,-0.208
-1.720E-06,-0.064
-1.710E-06,0.048
-1.700E-06,0.184
-1.690E-06,0.184
-1.680E-06,0.112
-1.670E-06,-0.040
-1.660E-06,-0.128
-1.650E-06,-0.208
-1.640E-06,-0.112
-1.630E-06,0.008
-1.620E-06,0.088
-1.610E-06,0.056
-1.600E-06,0.024
-1.590E-06,-0.008
-1.580E-06,-0.008
-1.570E-06,0.032
-1.560E-06,0.072
-1.550E-06,0.072
-1.540E-06,0.040
-1.530E-06,0.088
-1.520E-06,0.024
-1.510E-06,-0.008
-1.500E-06,-0.056
-1.490E-06,-0.040
-1.480E-06,0.080
-1.470E-06,0.184
-1.460E-06,-0.016
-1.450E-06,-0.032
-1.440E-06,-0.208
-1.430E-06,-0.176
-1.420E-06,-0.168
-1.410E-06,0.064
-1.400E-06,0.192
-1.390E-06,0.216
-1.380E-06,0.192
-1.370E-06,-0.016
-1.360E-06,-0.144
-1.350E-06,-0.256
-1.340E-06,-0.120
-1.330E-06,0.040
-1.320E-06,0.200
-1.310E-06,0.256
-1.300E-06,0.208
-1.290E-06,0.112
-1.280E-06,-0.056
-1.270E-06,-0.088
-1.260E-06,-0.144
-1.250E-06,-0.040
-1.240E-06,0.008
-1.230E-06,0.104
-1.220E-06,0.104
-1.210E-06,0.112
-1.200E-06,0.080
-1.190E-06,0.064
-1.180E-06,0.072
-1.170E-06,0.048
-1.160E-06,0.032
-1.150E-06,-0.016
-1.140E-06,-0.016
-1.130E-06,-0.072
-1.120E-06,-0.016
-1.110E-06,-0.008
-1.100E-06,0.032
-1.090E-06,0.056
-1.080E-06,0.056
-1.070E-06,0.008
-1.060E-06,-0.048
-1.050E-06,-0.064
-1.040E-06,-0.080
-1.030E-06,-0.016
-1.020E-06,-0.048
-1.010E-06,-0.024
-1.000E-06,-0.048
-9.900E-07,-0.008
-9.800E-07,0.008
-9.700E-07,0.040
-9.600E-07,0.072
-9.500E-07,0.088
-9.400E-07,0.096
-9.300E-07,0.064
-9.200E-07,0.064
-9.100E-07,0.056
-9.000E-07,0.120
-8.900E-07,0.144
-8.800E-07,0.168
-8.700E-07,0.120
-8.600E-07,0.064
-8.500E-07,-0.008
-8.400E-07,-0.064
-8.300E-07,-0.080
-8.200E-07,-0.080
-8.100E-07,-0.008
-8.000E-07,-0.008
-7.900E-07,-0.008
-7.800E-07,-0.064
-7.700E-07,-0.120
-7.600E-07,-0.080
-7.500E-07,-0.064
-7.400E-07,0.048
-7.300E-07,0.072
-7.200E-07,0.120
-7.100E-07,0.080
-7.000E-07,-0.008
-6.900E-07,-0.104
-6.800E-07,-0.136
-6.700E-07,-0.144
-6.600E-07,-0.032
-6.500E-07,0.064
-6.400E-07,0.160
-6.300E-07,0.160
-6.200E-07,0.112
-6.100E-07,0.024
-6.000E-07,-0.048
-5.900E-07,-0.008
-5.800E-07,0.032
-5.700E-07,0.152
-5.600E-07,0.200
-5.500E-07,0.288
-5.400E-07,0.256
-5.300E-07,0.168
-5.200E-07,0.064
-5.100E-07,-0.048
-5.000E-07,-0.072
-4.900E-07,-0.016
-4.800E-07,0.080
-4.700E-07,0.184
-4.600E-07,0.216
-4.500E-07,0.152
-4.400E-07,0.080
-4.300E-07,-0.040
-4.200E-07,-0.056
-4.100E-07,-0.024
-4.000E-07,0.064
-3.900E-07,0.160
-3.800E-07,0.200
-3.700E-07,0.224
-3.600E-07,0.152
-3.500E-07,0.128
-3.400E-07,0.064
-3.300E-07,0.088
-3.200E-07,0.136
-3.100E-07,0.192
-3.000E-07,0.216
-2.900E-07,0.216
-2.800E-07,0.176
-2.700E-07,0.120
-2.600E-07,0.072
-2.500E-07,0.040
-2.400E-07,0.072
-2.300E-07,0.080
-2.200E-07,0.152
-2.100E-07,0.192
-2.000E-07,0.208
-1.900E-07,0.176
-1.800E-07,0.160
-1.700E-07,0.120
-1.600E-07,0.112
-1.500E-07,0.096
-1.400E-07,0.128
-1.300E-07,0.176
-1.200E-07,0.176
-1.100E-07,0.080
-1.000E-07,-0.088
-9.000E-08,-0.536
-8.000E-08,-0.824
-7.000E-08,-0.824
-6.000E-08,-0.824
-5.000E-08,-0.728
-4.000E-08,0.208
-3.000E-08,1.040
-2.000E-08,1.280
-1.000E-08,0.992
0.000E+00,-0.088
1.000E-08,-0.816
2.000E-08,-0.816
3.000E-08,-0.816
4.000E-08,0.112
5.000E-08,0.952
6.000E-08,1.280
7.000E-08,1.288
8.000E-08,0.408
9.000E-08,-0.592
1.000E-07,-0.824
1.100E-07,-0.824
1.200E-07,-0.208
1.300E-07,0.592
1.400E-07,1.024
1.500E-07,0.928
1.600E-07,0.344
1.700E-07,-0.432
1.800E-07,-0.824
1.900E-07,-0.824
2.000E-07,-0.528
2.100E-07,0.112
2.200E-07,0.728
2.300E-07,0.904
2.400E-07,0.776
2.500E-07,0.176
2.600E-07,-0.232
2.700E-07,-0.504
2.800E-07,-0.352
2.900E-07,0.072
3.000E-07,0.488
3.100E-07,0.784
3.200E-07,0.720
3.300E-07,0.456
3.400E-07,-0.016
3.500E-07,-0.280
3.600E-07,-0.296
3.700E-07,-0.064
3.800E-07,0.272
3.900E-07,0.544
4.000E-07,0.600
4.100E-07,0.448
4.200E-07,0.176
4.300E-07,-0.080
4.400E-07,-0.176
4.500E-07,-0.096
4.600E-07,0.120
4.700E-07,0.328
4.800E-07,0.448
4.900E-07,0.368
5.000E-07,0.208
5.100E-07,0.000
5.200E-07,-0.104
5.300E-07,-0.088
5.400E-07,0.024
5.500E-07,0.176
5.600E-07,0.264
5.700E-07,0.288
5.800E-07,0.224
5.900E-07,0.208
6.000E-07,0.192
6.100E-07,0.224
6.200E-07,0.232
6.300E-07,0.200
6.400E-07,0.120
6.500E-07,0.064
6.600E-07,0.040
6.700E-07,0.112
6.800E-07,0.240
6.900E-07,0.320
7.000E-07,0.328
7.100E-07,0.216
7.200E-07,0.088
7.300E-07,-0.008
7.400E-07,0.032
7.500E-07,0.112
7.600E-07,0.232
7.700E-07,0.320
7.800E-07,0.328
7.900E-07,0.256
8.000E-07,0.120
8.100E-07,0.040
8.200E-07,0.016
8.300E-07,0.096
8.400E-07,0.208
8.500E-07,0.304
8.600E-07,0.336
8.700E-07,0.288
8.800E-07,0.200
8.900E-07,0.096
9.000E-07,0.048
9.100E-07,0.088
9.200E-07,0.192
9.300E-07,0.256
9.400E-07,0.296
9.500E-07,0.256
9.600E-07,0.192
9.700E-07,0.112
9.800E-07,0.072
9.900E-07,0.080
1.000E-06,0.144
1.010E-06,0.224
1.020E-06,0.248
1.030E-06,0.248
1.040E-06,0.208
1.050E-06,0.144
1.060E-06,0.112
1.070E-06,0.120
1.080E-06,0.136
1.090E-06,0.184
1.100E-06,0.216
1.110E-06,0.208
1.120E-06,0.200
1.130E-06,0.168
1.140E-06,0.128
1.150E-06,0.120
1.160E-06,0.136
1.170E-06,0.160
1.180E-06,0.192
1.190E-06,0.216
1.200E-06,0.200
1.210E-06,0.176
1.220E-06,0.144
1.230E-06,0.144
1.240E-06,0.144
1.250E-06,0.152
1.260E-06,0.160
1.270E-06,0.176
1.280E-06,0.168
1.290E-06,0.152
1.300E-06,0.160
1.310E-06,0.152
1.320E-06,0.144
1.330E-06,0.168
1.340E-06,0.160
1.350E-06,0.168
1.360E-06,0.160
1.370E-06,0.168
1.380E-06,0.152
1.390E-06,0.152
1.400E-06,0.152
1.410E-06,0.160
1.420E-06,0.160
1.430E-06,0.160
1.440E-06,0.152
1.450E-06,0.152
1.460E-06,0.152
1.470E-06,0.144
1.480E-06,0.144
1.490E-06,0.152
1.500E-06,0.152
1.510E-06,0.160
1.520E-06,0.152
1.530E-06,0.152
1.540E-06,0.136
1.550E-06,0.144
1.560E-06,0.144
1.570E-06,0.136
1.580E-06,0.128
1.590E-06,0.144
1.600E-06,0.160
1.610E-06,0.152
1.620E-06,0.152
1.630E-06,0.144
1.640E-06,0.144
1.650E-06,0.128
1.660E-06,0.136
1.670E-06,0.136
1.680E-06,0.160
1.690E-06,0.152
1.700E-06,0.136
1.710E-06,0.152
1.720E-06,0.128
1.730E-06,0.128
1.740E-06,0.136
1.750E-06,0.136
1.760E-06,0.136
1.770E-06,0.136
1.780E-06,0.144
1.790E-06,0.136
1.800E-06,0.128
1.810E-06,0.120
1.820E-06,0.112
1.830E-06,0.128
1.840E-06,0.136
1.850E-06,0.152
1.860E-06,0.160
1.870E-06,0.136
1.880E-06,0.128
1.890E-06,0.112
1.900E-06,0.120
1.910E-06,0.120
1.920E-06,0.128
1.930E-06,0.136
1.940E-06,0.152
1.950E-06,0.144
1.960E-06,0.120
1.970E-06,0.104
1.980E-06,0.104
1.990E-06,0.104
2.000E-06,0.120
2.010E-06,0.128
2.020E-06,0.128
2.030E-06,0.128
2.040E-06,0.128
2.050E-06,0.120
2.060E-06,0.112
2.070E-06,0.120
2.080E-06,0.120
2.090E-06,0.120
2.100E-06,0.120
2.110E-06,0.136
2.120E-06,0.128
2.130E-06,0.112
2.140E-06,0.128
2.150E-06,0.120
2.160E-06,0.112
2.170E-06,0.120
2.180E-06,0.120
2.190E-06,0.120
2.200E-06,0.128
2.210E-06,0.120
2.220E-06,0.112
2.230E-06,0.112
2.240E-06,0.120
2.250E-06,0.112
2.260E-06,0.104
2.270E-06,0.112
2.280E-06,0.120
2.290E-06,0.120
2.300E-06,0.112
2.310E-06,0.120
2.320E-06,0.104
2.330E-06,0.104
2.340E-06,0.096
2.350E-06,0.112
2.360E-06,0.112
2.370E-06,0.120
2.380E-06,0.112
2.390E-06,0.120
2.400E-06,0.120
2.410E-06,0.104
2.420E-06,0.104
2.430E-06,0.104
2.440E-06,0.120
2.450E-06,0.112
2.460E-06,0.112
2.470E-06,0.104
2.480E-06,0.104
2.490E-06,0.104
2.500E-06,0.096
2.510E-06,0.104
2.520E-06,0.104
2.530E-06,0.112
2.540E-06,0.112
2.550E-06,0.112
2.560E-06,0.112
2.570E-06,0.096
2.580E-06,0.096
2.590E-06,0.096
2.600E-06,0.088
2.610E-06,0.096
2.620E-06,0.096
2.630E-06,0.104
2.640E-06,0.096
2.650E-06,0.096
2.660E-06,0.096
2.670E-06,0.088
2.680E-06,0.088
2.690E-06,0.080
2.700E-06,0.080
2.710E-06,0.096
2.720E-06,0.088
2.730E-06,0.088
2.740E-06,0.096
2.750E-06,0.080
2.760E-06,0.080
2.770E-06,0.088
2.780E-06,0.088
2.790E-06,0.096
2.800E-06,0.088
2.810E-06,0.080
2.820E-06,0.088
2.830E-06,0.088
2.840E-06,0.088
2.850E-06,0.088
2.860E-06,0.088
2.870E-06,0.080
2.880E-06,0.080
2.890E-06,0.088
2.900E-06,0.088
2.910E-06,0.080
2.920E-06,0.080
2.930E-06,0.080
2.940E-06,0.080
2.950E-06,0.072
2.960E-06,0.080
2.970E-06,0.072
2.980E-06,0.080
2.990E-06,0.072
3.000E-06,0.080
3.010E-06,0.080
3.020E-06,0.080
3.030E-06,0.080
3.040E-06,0.080
3.050E-06,0.080
3.060E-06,0.080
3.070E-06,0.088
3.080E-06,0.080
3.090E-06,0.072
3.100E-06,0.072
3.110E-06,0.072
3.120E-06,0.080
3.130E-06,0.064
3.140E-06,0.072
3.150E-06,0.064
3.160E-06,0.056
3.170E-06,0.064
3.180E-06,0.064
3.190E-06,0.072
3.200E-06,0.080
3.210E-06,0.072
3.220E-06,0.064
3.230E-06,0.072
3.240E-06,0.072
3.250E-06,0.072
3.260E-06,0.072
3.270E-06,0.080
3.280E-06,0.080
3.290E-06,0.064
3.300E-06,0.072
3.310E-06,0.072
3.320E-06,0.064
3.330E-06,0.056
3.340E-06,0.064
3.350E-06,0.064
3.360E-06,0.064
3.370E-06,0.072
3.380E-06,0.072
3.390E-06,0.064
3.400E-06,0.064
3.410E-06,0.056
