mediciones/8-28/-7/WaveData6632.csv

#timebase=2000000(ps)
,#voltbase=200000(mv/100)
#size=4000
-8.350E-06,-0.008
-8.340E-06,0.000
-8.330E-06,0.000
-8.320E-06,0.008
-8.310E-06,0.024
-8.300E-06,0.056
-8.290E-06,0.096
-8.280E-06,0.128
-8.270E-06,0.128
-8.260E-06,0.064
-8.250E-06,-0.016
-8.240E-06,-0.144
-8.230E-06,-0.272
-8.220E-06,-0.160
-8.210E-06,0.008
-8.200E-06,0.144
-8.190E-06,0.208
-8.180E-06,0.192
-8.170E-06,0.080
-8.160E-06,-0.088
-8.150E-06,-0.192
-8.140E-06,-0.072
-8.130E-06,0.024
-8.120E-06,0.136
-8.110E-06,0.120
-8.100E-06,0.080
-8.090E-06,-0.040
-8.080E-06,-0.112
-8.070E-06,-0.184
-8.060E-06,-0.120
-8.050E-06,0.008
-8.040E-06,0.072
-8.030E-06,0.184
-8.020E-06,0.136
-8.010E-06,0.040
-8.000E-06,-0.032
-7.990E-06,-0.072
-7.980E-06,-0.032
-7.970E-06,-0.008
-7.960E-06,0.032
-7.950E-06,0.040
-7.940E-06,0.032
-7.930E-06,-0.008
-7.920E-06,-0.064
-7.910E-06,-0.072
-7.900E-06,-0.080
-7.890E-06,0.008
-7.880E-06,0.024
-7.870E-06,0.080
-7.860E-06,0.088
-7.850E-06,0.056
-7.840E-06,0.024
-7.830E-06,-0.024
-7.820E-06,-0.048
-7.810E-06,-0.040
-7.800E-06,-0.016
-7.790E-06,0.024
-7.780E-06,0.032
-7.770E-06,0.032
-7.760E-06,-0.016
-7.750E-06,-0.048
-7.740E-06,-0.016
-7.730E-06,0.000
-7.720E-06,0.048
-7.710E-06,0.056
-7.700E-06,0.072
-7.690E-06,0.048
-7.680E-06,0.024
-7.670E-06,-0.032
-7.660E-06,-0.008
-7.650E-06,-0.016
-7.640E-06,0.008
-7.630E-06,0.032
-7.620E-06,0.032
-7.610E-06,0.024
-7.600E-06,-0.016
-7.590E-06,-0.024
-7.580E-06,-0.024
-7.570E-06,-0.016
-7.560E-06,0.000
-7.550E-06,0.040
-7.540E-06,0.024
-7.530E-06,0.024
-7.520E-06,0.024
-7.510E-06,0.000
-7.500E-06,0.000
-7.490E-06,0.000
-7.480E-06,0.008
-7.470E-06,0.008
-7.460E-06,0.000
-7.450E-06,-0.016
-7.440E-06,-0.024
-7.430E-06,-0.008
-7.420E-06,-0.016
-7.410E-06,0.000
-7.400E-06,0.016
-7.390E-06,0.024
-7.380E-06,0.016
-7.370E-06,-0.008
-7.360E-06,-0.016
-7.350E-06,-0.008
-7.340E-06,0.024
-7.330E-06,0.032
-7.320E-06,0.024
-7.310E-06,0.008
-7.300E-06,-0.016
-7.290E-06,-0.008
-7.280E-06,-0.032
-7.270E-06,-0.008
-7.260E-06,0.008
-7.250E-06,0.032
-7.240E-06,0.040
-7.230E-06,0.024
-7.220E-06,-0.008
-7.210E-06,-0.016
-7.200E-06,-0.016
-7.190E-06,-0.008
-7.180E-06,0.016
-7.170E-06,0.032
-7.160E-06,0.040
-7.150E-06,0.024
-7.140E-06,0.008
-7.130E-06,0.008
-7.120E-06,-0.016
-7.110E-06,-0.008
-7.100E-06,0.000
-7.090E-06,0.016
-7.080E-06,0.016
-7.070E-06,0.024
-7.060E-06,0.016
-7.050E-06,0.032
-7.040E-06,0.024
-7.030E-06,0.016
-7.020E-06,0.024
-7.010E-06,0.024
-7.000E-06,0.032
-6.990E-06,0.000
-6.980E-06,-0.008
-6.970E-06,-0.016
-6.960E-06,-0.024
-6.950E-06,-0.008
-6.940E-06,0.016
-6.930E-06,0.064
-6.920E-06,0.032
-6.910E-06,0.040
-6.900E-06,-0.016
-6.890E-06,-0.016
-6.880E-06,-0.016
-6.870E-06,0.000
-6.860E-06,0.064
-6.850E-06,0.040
-6.840E-06,0.056
-6.830E-06,0.000
-6.820E-06,-0.008
-6.810E-06,-0.040
-6.800E-06,-0.048
-6.790E-06,-0.024
-6.780E-06,0.024
-6.770E-06,0.032
-6.760E-06,0.064
-6.750E-06,0.024
-6.740E-06,0.032
-6.730E-06,0.024
-6.720E-06,-0.008
-6.710E-06,0.008
-6.700E-06,0.016
-6.690E-06,0.024
-6.680E-06,0.048
-6.670E-06,0.008
-6.660E-06,-0.008
-6.650E-06,-0.072
-6.640E-06,-0.064
-6.630E-06,-0.064
-6.620E-06,0.000
-6.610E-06,0.048
-6.600E-06,0.064
-6.590E-06,0.064
-6.580E-06,0.000
-6.570E-06,-0.008
-6.560E-06,-0.056
-6.550E-06,-0.024
-6.540E-06,-0.016
-6.530E-06,0.032
-6.520E-06,0.056
-6.510E-06,0.048
-6.500E-06,0.016
-6.490E-06,-0.040
-6.480E-06,-0.056
-6.470E-06,-0.056
-6.460E-06,-0.008
-6.450E-06,0.072
-6.440E-06,0.128
-6.430E-06,0.144
-6.420E-06,0.096
-6.410E-06,0.008
-6.400E-06,-0.080
-6.390E-06,-0.112
-6.380E-06,-0.080
-6.370E-06,-0.008
-6.360E-06,0.080
-6.350E-06,0.144
-6.340E-06,0.128
-6.330E-06,0.096
-6.320E-06,0.000
-6.310E-06,-0.080
-6.300E-06,-0.120
-6.290E-06,-0.048
-6.280E-06,0.048
-6.270E-06,0.160
-6.260E-06,0.176
-6.250E-06,0.120
-6.240E-06,-0.008
-6.230E-06,-0.104
-6.220E-06,-0.096
-6.210E-06,-0.120
-6.200E-06,0.000
-6.190E-06,0.024
-6.180E-06,0.160
-6.170E-06,0.080
-6.160E-06,0.056
-6.150E-06,-0.016
-6.140E-06,-0.064
-6.130E-06,-0.016
-6.120E-06,0.024
-6.110E-06,0.080
-6.100E-06,0.120
-6.090E-06,0.088
-6.080E-06,0.120
-6.070E-06,0.048
-6.060E-06,0.016
-6.050E-06,-0.016
-6.040E-06,-0.016
-6.030E-06,-0.056
-6.020E-06,-0.144
-6.010E-06,-0.160
-6.000E-06,-0.112
-5.990E-06,0.112
-5.980E-06,0.280
-5.970E-06,0.264
-5.960E-06,0.192
-5.950E-06,-0.208
-5.940E-06,-0.656
-5.930E-06,-0.800
-5.920E-06,-0.520
-5.910E-06,0.128
-5.900E-06,0.424
-5.890E-06,0.736
-5.880E-06,0.528
-5.870E-06,0.112
-5.860E-06,-0.440
-5.850E-06,-0.768
-5.840E-06,-0.552
-5.830E-06,-0.104
-5.820E-06,0.408
-5.810E-06,0.592
-5.800E-06,0.560
-5.790E-06,0.176
-5.780E-06,-0.296
-5.770E-06,-0.576
-5.760E-06,-0.544
-5.750E-06,-0.104
-5.740E-06,0.280
-5.730E-06,0.512
-5.720E-06,0.416
-5.710E-06,0.168
-5.700E-06,-0.168
-5.690E-06,-0.368
-5.680E-06,-0.336
-5.670E-06,-0.152
-5.660E-06,0.144
-5.650E-06,0.312
-5.640E-06,0.336
-5.630E-06,0.184
-5.620E-06,-0.016
-5.610E-06,-0.200
-5.600E-06,-0.264
-5.590E-06,-0.152
-5.580E-06,0.024
-5.570E-06,0.192
-5.560E-06,0.224
-5.550E-06,0.184
-5.540E-06,0.048
-5.530E-06,-0.040
-5.520E-06,-0.088
-5.510E-06,-0.056
-5.500E-06,-0.016
-5.490E-06,0.080
-5.480E-06,0.120
-5.470E-06,0.136
-5.460E-06,0.128
-5.450E-06,0.088
-5.440E-06,0.056
-5.430E-06,0.008
-5.420E-06,-0.040
-5.410E-06,-0.056
-5.400E-06,-0.016
-5.390E-06,-0.024
-5.380E-06,-0.008
-5.370E-06,-0.048
-5.360E-06,-0.072
-5.350E-06,-0.072
-5.340E-06,-0.048
-5.330E-06,0.000
-5.320E-06,0.032
-5.310E-06,0.040
-5.300E-06,0.032
-5.290E-06,-0.008
-5.280E-06,-0.048
-5.270E-06,-0.072
-5.260E-06,-0.056
-5.250E-06,-0.024
-5.240E-06,0.024
-5.230E-06,0.064
-5.220E-06,0.064
-5.210E-06,0.064
-5.200E-06,0.024
-5.190E-06,-0.016
-5.180E-06,-0.032
-5.170E-06,-0.024
-5.160E-06,0.032
-5.150E-06,0.096
-5.140E-06,0.128
-5.130E-06,0.128
-5.120E-06,0.072
-5.110E-06,-0.008
-5.100E-06,-0.072
-5.090E-06,-0.072
-5.080E-06,0.008
-5.070E-06,0.096
-5.060E-06,0.136
-5.050E-06,0.160
-5.040E-06,0.160
-5.030E-06,0.016
-5.020E-06,-0.136
-5.010E-06,-0.248
-5.000E-06,-0.376
-4.990E-06,-0.232
-4.980E-06,-0.104
-4.970E-06,0.136
-4.960E-06,0.256
-4.950E-06,0.256
-4.940E-06,0.136
-4.930E-06,-0.176
-4.920E-06,-0.256
-4.910E-06,-0.280
-4.900E-06,-0.056
-4.890E-06,0.096
-4.880E-06,0.224
-4.870E-06,0.184
-4.860E-06,0.096
-4.850E-06,-0.048
-4.840E-06,-0.144
-4.830E-06,-0.120
-4.820E-06,-0.040
-4.810E-06,0.096
-4.800E-06,0.112
-4.790E-06,0.184
-4.780E-06,0.096
-4.770E-06,0.064
-4.760E-06,-0.056
-4.750E-06,-0.096
-4.740E-06,-0.104
-4.730E-06,-0.064
-4.720E-06,0.024
-4.710E-06,0.080
-4.700E-06,0.144
-4.690E-06,0.144
-4.680E-06,0.088
-4.670E-06,0.024
-4.660E-06,-0.040
-4.650E-06,-0.048
-4.640E-06,-0.088
-4.630E-06,-0.104
-4.620E-06,-0.080
-4.610E-06,0.072
-4.600E-06,0.320
-4.590E-06,0.200
-4.580E-06,-0.312
-4.570E-06,-0.264
-4.560E-06,-0.568
-4.550E-06,-0.352
-4.540E-06,0.232
-4.530E-06,0.752
-4.520E-06,0.648
-4.510E-06,0.080
-4.500E-06,-0.368
-4.490E-06,-0.816
-4.480E-06,-0.544
-4.470E-06,-0.160
-4.460E-06,0.680
-4.450E-06,0.600
-4.440E-06,0.440
-4.430E-06,0.000
-4.420E-06,-0.440
-4.410E-06,-0.496
-4.400E-06,-0.432
-4.390E-06,0.032
-4.380E-06,0.312
-4.370E-06,0.552
-4.360E-06,0.328
-4.350E-06,0.040
-4.340E-06,-0.280
-4.330E-06,-0.360
-4.320E-06,-0.256
-4.310E-06,-0.032
-4.300E-06,0.208
-4.290E-06,0.288
-4.280E-06,0.312
-4.270E-06,0.096
-4.260E-06,-0.072
-4.250E-06,-0.256
-4.240E-06,-0.224
-4.230E-06,-0.088
-4.220E-06,0.128
-4.210E-06,0.248
-4.200E-06,0.248
-4.190E-06,0.136
-4.180E-06,-0.048
-4.170E-06,-0.136
-4.160E-06,-0.200
-4.150E-06,-0.016
-4.140E-06,0.096
-4.130E-06,0.232
-4.120E-06,0.192
-4.110E-06,0.136
-4.100E-06,-0.080
-4.090E-06,-0.160
-4.080E-06,-0.176
-4.070E-06,-0.080
-4.060E-06,0.120
-4.050E-06,0.184
-4.040E-06,0.232
-4.030E-06,0.016
-4.020E-06,0.000
-4.010E-06,-0.344
-4.000E-06,-0.272
-3.990E-06,-0.320
-3.980E-06,-0.040
-3.970E-06,0.120
-3.960E-06,0.280
-3.950E-06,0.312
-3.940E-06,0.136
-3.930E-06,-0.032
-3.920E-06,-0.296
-3.910E-06,-0.304
-3.900E-06,-0.216
-3.890E-06,0.096
-3.880E-06,0.248
-3.870E-06,0.312
-3.860E-06,0.176
-3.850E-06,-0.016
-3.840E-06,-0.168
-3.830E-06,-0.256
-3.820E-06,-0.152
-3.810E-06,-0.008
-3.800E-06,0.192
-3.790E-06,0.240
-3.780E-06,0.232
-3.770E-06,0.096
-3.760E-06,-0.048
-3.750E-06,-0.152
-3.740E-06,-0.128
-3.730E-06,-0.016
-3.720E-06,0.000
-3.710E-06,0.056
-3.700E-06,0.080
-3.690E-06,0.024
-3.680E-06,-0.040
-3.670E-06,-0.088
-3.660E-06,-0.080
-3.650E-06,-0.056
-3.640E-06,0.048
-3.630E-06,0.112
-3.620E-06,0.112
-3.610E-06,0.016
-3.600E-06,-0.080
-3.590E-06,-0.112
-3.580E-06,-0.096
-3.570E-06,-0.008
-3.560E-06,0.056
-3.550E-06,0.096
-3.540E-06,0.096
-3.530E-06,0.056
-3.520E-06,-0.032
-3.510E-06,-0.080
-3.500E-06,-0.080
-3.490E-06,-0.040
-3.480E-06,0.024
-3.470E-06,0.064
-3.460E-06,0.072
-3.450E-06,0.056
-3.440E-06,0.024
-3.430E-06,-0.016
-3.420E-06,-0.032
-3.410E-06,-0.016
-3.400E-06,-0.008
-3.390E-06,0.024
-3.380E-06,0.040
-3.370E-06,0.064
-3.360E-06,0.032
-3.350E-06,0.000
-3.340E-06,-0.024
-3.330E-06,-0.008
-3.320E-06,-0.016
-3.310E-06,0.000
-3.300E-06,0.024
-3.290E-06,0.040
-3.280E-06,0.040
-3.270E-06,0.008
-3.260E-06,-0.008
-3.250E-06,-0.048
-3.240E-06,-0.016
-3.230E-06,-0.016
-3.220E-06,0.024
-3.210E-06,0.048
-3.200E-06,0.048
-3.190E-06,0.032
-3.180E-06,-0.008
-3.170E-06,-0.024
-3.160E-06,-0.024
-3.150E-06,-0.016
-3.140E-06,0.016
-3.130E-06,0.040
-3.120E-06,0.048
-3.110E-06,0.032
-3.100E-06,0.008
-3.090E-06,-0.008
-3.080E-06,-0.016
-3.070E-06,-0.008
-3.060E-06,0.016
-3.050E-06,0.048
-3.040E-06,0.040
-3.030E-06,0.040
-3.020E-06,0.032
-3.010E-06,0.008
-3.000E-06,0.008
-2.990E-06,-0.008
-2.980E-06,0.016
-2.970E-06,0.016
-2.960E-06,0.048
-2.950E-06,0.040
-2.940E-06,0.048
-2.930E-06,0.024
-2.920E-06,0.024
-2.910E-06,0.016
-2.900E-06,0.048
-2.890E-06,0.048
-2.880E-06,0.064
-2.870E-06,0.056
-2.860E-06,-0.024
-2.850E-06,0.008
-2.840E-06,-0.152
-2.830E-06,-0.200
-2.820E-06,-0.016
-2.810E-06,-0.120
-2.800E-06,0.144
-2.790E-06,-0.184
-2.780E-06,0.072
-2.770E-06,0.016
-2.760E-06,0.208
-2.750E-06,0.072
-2.740E-06,-0.016
-2.730E-06,-0.096
-2.720E-06,0.064
-2.710E-06,0.240
-2.700E-06,0.280
-2.690E-06,0.104
-2.680E-06,-0.264
-2.670E-06,-0.504
-2.660E-06,-0.512
-2.650E-06,-0.312
-2.640E-06,0.216
-2.630E-06,0.464
-2.620E-06,0.568
-2.610E-06,0.224
-2.600E-06,-0.176
-2.590E-06,-0.576
-2.580E-06,-0.528
-2.570E-06,-0.256
-2.560E-06,0.232
-2.550E-06,0.520
-2.540E-06,0.624
-2.530E-06,0.360
-2.520E-06,-0.144
-2.510E-06,-0.536
-2.500E-06,-0.704
-2.490E-06,-0.400
-2.480E-06,0.128
-2.470E-06,0.568
-2.460E-06,0.712
-2.450E-06,0.360
-2.440E-06,-0.024
-2.430E-06,-0.352
-2.420E-06,-0.472
-2.410E-06,-0.352
-2.400E-06,-0.056
-2.390E-06,0.240
-2.380E-06,0.488
-2.370E-06,0.408
-2.360E-06,0.064
-2.350E-06,-0.344
-2.340E-06,-0.472
-2.330E-06,-0.288
-2.320E-06,-0.040
-2.310E-06,0.304
-2.300E-06,0.288
-2.290E-06,0.192
-2.280E-06,-0.056
-2.270E-06,-0.224
-2.260E-06,-0.216
-2.250E-06,-0.144
-2.240E-06,0.120
-2.230E-06,0.184
-2.220E-06,0.192
-2.210E-06,0.056
-2.200E-06,-0.080
-2.190E-06,-0.176
-2.180E-06,-0.112
-2.170E-06,-0.008
-2.160E-06,0.112
-2.150E-06,0.208
-2.140E-06,0.120
-2.130E-06,0.056
-2.120E-06,-0.104
-2.110E-06,-0.104
-2.100E-06,-0.104
-2.090E-06,0.008
-2.080E-06,0.080
-2.070E-06,0.144
-2.060E-06,0.120
-2.050E-06,0.056
-2.040E-06,-0.008
-2.030E-06,-0.080
-2.020E-06,-0.032
-2.010E-06,0.016
-2.000E-06,0.112
-1.990E-06,0.112
-1.980E-06,0.120
-1.970E-06,-0.176
-1.960E-06,-0.248
-1.950E-06,-0.272
-1.940E-06,-0.144
-1.930E-06,0.048
-1.920E-06,0.224
-1.910E-06,0.320
-1.900E-06,0.152
-1.890E-06,-0.008
-1.880E-06,-0.232
-1.870E-06,-0.272
-1.860E-06,-0.192
-1.850E-06,0.040
-1.840E-06,0.232
-1.830E-06,0.296
-1.820E-06,0.216
-1.810E-06,-0.008
-1.800E-06,-0.136
-1.790E-06,-0.256
-1.780E-06,-0.152
-1.770E-06,0.000
-1.760E-06,0.168
-1.750E-06,0.240
-1.740E-06,0.232
-1.730E-06,0.080
-1.720E-06,-0.056
-1.710E-06,-0.128
-1.700E-06,-0.072
-1.690E-06,-0.080
-1.680E-06,-0.072
-1.670E-06,-0.072
-1.660E-06,-0.184
-1.650E-06,-0.016
-1.640E-06,0.040
-1.630E-06,0.176
-1.620E-06,0.168
-1.610E-06,0.136
-1.600E-06,-0.016
-1.590E-06,-0.176
-1.580E-06,-0.192
-1.570E-06,-0.152
-1.560E-06,0.000
-1.550E-06,0.144
-1.540E-06,0.224
-1.530E-06,0.208
-1.520E-06,0.024
-1.510E-06,-0.104
-1.500E-06,-0.176
-1.490E-06,-0.080
-1.480E-06,0.032
-1.470E-06,0.144
-1.460E-06,0.192
-1.450E-06,0.112
-1.440E-06,0.048
-1.430E-06,-0.072
-1.420E-06,-0.048
-1.410E-06,-0.024
-1.400E-06,-0.160
-1.390E-06,-0.096
-1.380E-06,-0.112
-1.370E-06,0.024
-1.360E-06,0.056
-1.350E-06,0.128
-1.340E-06,0.120
-1.330E-06,-0.048
-1.320E-06,-0.080
-1.310E-06,-0.104
-1.300E-06,-0.048
-1.290E-06,-0.032
-1.280E-06,0.072
-1.270E-06,0.088
-1.260E-06,0.120
-1.250E-06,0.048
-1.240E-06,-0.048
-1.230E-06,-0.048
-1.220E-06,-0.040
-1.210E-06,0.080
-1.200E-06,0.080
-1.190E-06,0.120
-1.180E-06,0.064
-1.170E-06,-0.016
-1.160E-06,-0.040
-1.150E-06,-0.168
-1.140E-06,-0.056
-1.130E-06,-0.072
-1.120E-06,0.064
-1.110E-06,0.096
-1.100E-06,0.136
-1.090E-06,0.048
-1.080E-06,-0.040
-1.070E-06,-0.104
-1.060E-06,-0.080
-1.050E-06,0.016
-1.040E-06,0.040
-1.030E-06,0.120
-1.020E-06,0.096
-1.010E-06,0.088
-1.000E-06,-0.008
-9.900E-07,-0.056
-9.800E-07,-0.072
-9.700E-07,0.000
-9.600E-07,0.064
-9.500E-07,0.112
-9.400E-07,0.120
-9.300E-07,0.064
-9.200E-07,0.016
-9.100E-07,-0.032
-9.000E-07,-0.016
-8.900E-07,-0.032
-8.800E-07,0.032
-8.700E-07,0.088
-8.600E-07,0.112
-8.500E-07,0.088
-8.400E-07,0.032
-8.300E-07,0.000
-8.200E-07,-0.008
-8.100E-07,0.000
-8.000E-07,0.048
-7.900E-07,0.080
-7.800E-07,0.120
-7.700E-07,0.120
-7.600E-07,0.072
-7.500E-07,0.032
-7.400E-07,0.008
-7.300E-07,0.048
-7.200E-07,-0.024
-7.100E-07,-0.472
-7.000E-07,-0.408
-6.900E-07,-0.320
-6.800E-07,0.120
-6.700E-07,-0.128
-6.600E-07,0.064
-6.500E-07,0.248
-6.400E-07,-0.064
-6.300E-07,0.232
-6.200E-07,-0.168
-6.100E-07,0.064
-6.000E-07,-0.320
-5.900E-07,-0.064
-5.800E-07,-0.080
-5.700E-07,0.112
-5.600E-07,0.016
-5.500E-07,0.136
-5.400E-07,0.088
-5.300E-07,0.088
-5.200E-07,-0.048
-5.100E-07,-0.152
-5.000E-07,-0.024
-4.900E-07,-0.048
-4.800E-07,0.120
-4.700E-07,0.032
-4.600E-07,0.160
-4.500E-07,0.080
-4.400E-07,0.056
-4.300E-07,-0.080
-4.200E-07,-0.104
-4.100E-07,0.008
-4.000E-07,0.096
-3.900E-07,0.192
-3.800E-07,0.120
-3.700E-07,0.104
-3.600E-07,0.008
-3.500E-07,0.032
-3.400E-07,-0.048
-3.300E-07,-0.048
-3.200E-07,0.000
-3.100E-07,0.120
-3.000E-07,0.192
-2.900E-07,0.200
-2.800E-07,0.136
-2.700E-07,0.048
-2.600E-07,-0.016
-2.500E-07,-0.048
-2.400E-07,0.008
-2.300E-07,0.096
-2.200E-07,0.200
-2.100E-07,0.248
-2.000E-07,0.240
-1.900E-07,0.184
-1.800E-07,0.056
-1.700E-07,-0.008
-1.600E-07,-0.016
-1.500E-07,0.048
-1.400E-07,0.112
-1.300E-07,0.208
-1.200E-07,0.200
-1.100E-07,0.176
-1.000E-07,0.056
-9.000E-08,-0.144
-8.000E-08,-0.424
-7.000E-08,-0.192
-6.000E-08,-0.760
-5.000E-08,-0.808
-4.000E-08,-0.824
-3.000E-08,-0.176
-2.000E-08,0.152
-1.000E-08,1.136
0.000E+00,0.800
1.000E-08,0.088
2.000E-08,0.056
3.000E-08,-0.680
4.000E-08,-0.824
5.000E-08,-0.712
6.000E-08,0.128
7.000E-08,0.712
8.000E-08,0.776
9.000E-08,0.720
1.000E-07,0.192
1.100E-07,-0.352
1.200E-07,-0.736
1.300E-07,-0.632
1.400E-07,-0.176
1.500E-07,0.384
1.600E-07,0.800
1.700E-07,0.784
1.800E-07,0.376
1.900E-07,-0.176
2.000E-07,-0.528
2.100E-07,-0.504
2.200E-07,-0.296
2.300E-07,0.176
2.400E-07,0.512
2.500E-07,0.688
2.600E-07,0.480
2.700E-07,0.120
2.800E-07,-0.144
2.900E-07,-0.264
3.000E-07,-0.104
3.100E-07,0.112
3.200E-07,0.352
3.300E-07,0.440
3.400E-07,0.416
3.500E-07,0.256
3.600E-07,-0.024
3.700E-07,-0.240
3.800E-07,-0.280
3.900E-07,-0.160
4.000E-07,0.016
4.100E-07,0.224
4.200E-07,0.288
4.300E-07,0.208
4.400E-07,0.056
4.500E-07,-0.136
4.600E-07,-0.168
4.700E-07,-0.032
4.800E-07,0.160
4.900E-07,0.352
5.000E-07,0.392
5.100E-07,0.184
5.200E-07,-0.152
5.300E-07,-0.376
5.400E-07,-0.560
5.500E-07,-0.616
5.600E-07,-0.528
5.700E-07,-0.368
5.800E-07,-0.152
5.900E-07,-0.112
6.000E-07,-0.144
6.100E-07,-0.032
6.200E-07,0.216
6.300E-07,0.320
6.400E-07,0.368
6.500E-07,0.256
6.600E-07,-0.080
6.700E-07,-0.232
6.800E-07,-0.472
6.900E-07,-0.232
7.000E-07,0.128
7.100E-07,0.528
7.200E-07,0.744
7.300E-07,0.552
7.400E-07,0.120
7.500E-07,-0.288
7.600E-07,-0.408
7.700E-07,-0.352
7.800E-07,-0.024
7.900E-07,0.328
8.000E-07,0.600
8.100E-07,0.552
8.200E-07,0.320
8.300E-07,-0.056
8.400E-07,-0.280
8.500E-07,-0.264
8.600E-07,-0.016
8.700E-07,0.304
8.800E-07,0.520
8.900E-07,0.560
9.000E-07,0.392
9.100E-07,0.192
9.200E-07,-0.032
9.300E-07,-0.136
9.400E-07,-0.072
9.500E-07,0.120
9.600E-07,0.336
9.700E-07,0.464
9.800E-07,0.456
9.900E-07,0.296
1.000E-06,0.120
1.010E-06,-0.040
1.020E-06,-0.056
1.030E-06,0.024
1.040E-06,0.200
1.050E-06,0.360
1.060E-06,0.432
1.070E-06,0.360
1.080E-06,0.208
1.090E-06,0.064
1.100E-06,-0.008
1.110E-06,0.016
1.120E-06,0.112
1.130E-06,0.224
1.140E-06,0.296
1.150E-06,0.280
1.160E-06,0.216
1.170E-06,0.112
1.180E-06,0.008
1.190E-06,0.000
1.200E-06,0.080
1.210E-06,0.200
1.220E-06,0.304
1.230E-06,0.328
1.240E-06,0.288
1.250E-06,0.176
1.260E-06,0.088
1.270E-06,0.056
1.280E-06,0.096
1.290E-06,0.176
1.300E-06,0.224
1.310E-06,0.264
1.320E-06,0.240
1.330E-06,0.192
1.340E-06,0.128
1.350E-06,0.096
1.360E-06,0.096
1.370E-06,0.136
1.380E-06,0.184
1.390E-06,0.232
1.400E-06,0.232
1.410E-06,0.216
1.420E-06,0.184
1.430E-06,0.144
1.440E-06,0.120
1.450E-06,0.096
1.460E-06,0.136
1.470E-06,0.192
1.480E-06,0.232
1.490E-06,0.240
1.500E-06,0.224
1.510E-06,0.184
1.520E-06,0.152
1.530E-06,0.112
1.540E-06,0.128
1.550E-06,0.152
1.560E-06,0.208
1.570E-06,0.216
1.580E-06,0.216
1.590E-06,0.200
1.600E-06,0.160
1.610E-06,0.136
1.620E-06,0.112
1.630E-06,0.136
1.640E-06,0.176
1.650E-06,0.192
1.660E-06,0.208
1.670E-06,0.208
1.680E-06,0.184
1.690E-06,0.152
1.700E-06,0.144
1.710E-06,0.136
1.720E-06,0.152
1.730E-06,0.176
1.740E-06,0.184
1.750E-06,0.192
1.760E-06,0.184
1.770E-06,0.160
1.780E-06,0.136
1.790E-06,0.144
1.800E-06,0.144
1.810E-06,0.152
1.820E-06,0.184
1.830E-06,0.192
1.840E-06,0.176
1.850E-06,0.152
1.860E-06,0.152
1.870E-06,0.136
1.880E-06,0.152
1.890E-06,0.160
1.900E-06,0.160
1.910E-06,0.168
1.920E-06,0.168
1.930E-06,0.160
1.940E-06,0.144
1.950E-06,0.160
1.960E-06,0.144
1.970E-06,0.152
1.980E-06,0.144
1.990E-06,0.160
2.000E-06,0.168
2.010E-06,0.160
2.020E-06,0.152
2.030E-06,0.152
2.040E-06,0.144
2.050E-06,0.136
2.060E-06,0.144
2.070E-06,0.152
2.080E-06,0.152
2.090E-06,0.152
2.100E-06,0.152
2.110E-06,0.144
2.120E-06,0.144
2.130E-06,0.128
2.140E-06,0.152
2.150E-06,0.144
2.160E-06,0.144
2.170E-06,0.152
2.180E-06,0.160
2.190E-06,0.144
2.200E-06,0.144
2.210E-06,0.128
2.220E-06,0.144
2.230E-06,0.144
2.240E-06,0.144
2.250E-06,0.144
2.260E-06,0.144
2.270E-06,0.128
2.280E-06,0.136
2.290E-06,0.128
2.300E-06,0.136
2.310E-06,0.160
2.320E-06,0.152
2.330E-06,0.136
2.340E-06,0.144
2.350E-06,0.128
2.360E-06,0.120
2.370E-06,0.136
2.380E-06,0.128
2.390E-06,0.136
2.400E-06,0.136
2.410E-06,0.128
2.420E-06,0.136
2.430E-06,0.128
2.440E-06,0.120
2.450E-06,0.120
2.460E-06,0.128
2.470E-06,0.120
2.480E-06,0.120
2.490E-06,0.128
2.500E-06,0.136
2.510E-06,0.136
2.520E-06,0.136
2.530E-06,0.128
2.540E-06,0.128
2.550E-06,0.128
2.560E-06,0.120
2.570E-06,0.128
2.580E-06,0.136
2.590E-06,0.136
2.600E-06,0.128
2.610E-06,0.128
2.620E-06,0.128
2.630E-06,0.128
2.640E-06,0.120
2.650E-06,0.112
2.660E-06,0.120
2.670E-06,0.136
2.680E-06,0.128
2.690E-06,0.128
2.700E-06,0.120
2.710E-06,0.104
2.720E-06,0.120
2.730E-06,0.128
2.740E-06,0.128
2.750E-06,0.120
2.760E-06,0.120
2.770E-06,0.128
2.780E-06,0.128
2.790E-06,0.120
2.800E-06,0.104
2.810E-06,0.112
2.820E-06,0.120
2.830E-06,0.120
2.840E-06,0.120
2.850E-06,0.128
2.860E-06,0.120
2.870E-06,0.112
2.880E-06,0.112
2.890E-06,0.104
2.900E-06,0.112
2.910E-06,0.112
2.920E-06,0.112
2.930E-06,0.120
2.940E-06,0.128
2.950E-06,0.120
2.960E-06,0.112
2.970E-06,0.112
2.980E-06,0.112
2.990E-06,0.112
3.000E-06,0.104
3.010E-06,0.112
3.020E-06,0.112
3.030E-06,0.104
3.040E-06,0.096
3.050E-06,0.096
3.060E-06,0.104
3.070E-06,0.120
3.080E-06,0.112
3.090E-06,0.120
3.100E-06,0.120
3.110E-06,0.112
3.120E-06,0.088
3.130E-06,0.096
3.140E-06,0.096
3.150E-06,0.104
3.160E-06,0.120
3.170E-06,0.112
3.180E-06,0.104
3.190E-06,0.088
3.200E-06,0.096
3.210E-06,0.088
3.220E-06,0.096
3.230E-06,0.088
3.240E-06,0.096
3.250E-06,0.104
3.260E-06,0.104
3.270E-06,0.096
3.280E-06,0.088
3.290E-06,0.088
3.300E-06,0.096
3.310E-06,0.088
3.320E-06,0.088
