mediciones/8-28/-7/WaveData6633.csv

#timebase=2000000(ps)
,#voltbase=500000(mv/100)
#size=4000
-8.350E-06,0.080
-8.340E-06,0.020
-8.330E-06,0.040
-8.320E-06,-0.080
-8.310E-06,-0.520
-8.300E-06,-1.240
-8.290E-06,-2.220
-8.280E-06,-3.080
-8.270E-06,-3.600
-8.260E-06,-3.600
-8.250E-06,-3.180
-8.240E-06,-1.800
-8.230E-06,-0.340
-8.220E-06,1.260
-8.210E-06,1.800
-8.200E-06,1.820
-8.190E-06,1.840
-8.180E-06,1.820
-8.170E-06,1.840
-8.160E-06,1.820
-8.150E-06,1.820
-8.140E-06,1.820
-8.130E-06,0.860
-8.120E-06,-0.140
-8.110E-06,-0.740
-8.100E-06,-1.080
-8.090E-06,-1.060
-8.080E-06,-0.960
-8.070E-06,-0.620
-8.060E-06,-0.620
-8.050E-06,-0.680
-8.040E-06,-0.920
-8.030E-06,-1.360
-8.020E-06,-1.680
-8.010E-06,-2.180
-8.000E-06,-2.380
-7.990E-06,-2.400
-7.980E-06,-2.180
-7.970E-06,-1.640
-7.960E-06,-0.980
-7.950E-06,-0.120
-7.940E-06,0.680
-7.930E-06,1.440
-7.920E-06,1.820
-7.910E-06,1.820
-7.900E-06,1.840
-7.890E-06,1.840
-7.880E-06,1.420
-7.870E-06,0.860
-7.860E-06,0.120
-7.850E-06,-0.500
-7.840E-06,-0.940
-7.830E-06,-1.220
-7.820E-06,-1.340
-7.810E-06,-1.540
-7.800E-06,-1.460
-7.790E-06,-1.280
-7.780E-06,-1.040
-7.770E-06,-0.780
-7.760E-06,-0.420
-7.750E-06,-0.100
-7.740E-06,0.240
-7.730E-06,0.400
-7.720E-06,0.660
-7.710E-06,0.920
-7.700E-06,0.980
-7.690E-06,1.240
-7.680E-06,1.260
-7.670E-06,1.340
-7.660E-06,1.340
-7.650E-06,1.220
-7.640E-06,1.060
-7.630E-06,0.900
-7.620E-06,0.620
-7.610E-06,0.360
-7.600E-06,0.140
-7.590E-06,-0.180
-7.580E-06,-0.440
-7.570E-06,-0.620
-7.560E-06,-0.780
-7.550E-06,-0.860
-7.540E-06,-0.960
-7.530E-06,-0.920
-7.520E-06,-0.800
-7.510E-06,-0.680
-7.500E-06,-0.520
-7.490E-06,-0.300
-7.480E-06,-0.020
-7.470E-06,0.300
-7.460E-06,0.580
-7.450E-06,0.820
-7.440E-06,1.020
-7.430E-06,1.060
-7.420E-06,0.960
-7.410E-06,0.840
-7.400E-06,0.600
-7.390E-06,0.400
-7.380E-06,0.120
-7.370E-06,-0.140
-7.360E-06,-0.420
-7.350E-06,-0.600
-7.340E-06,-0.820
-7.330E-06,-0.940
-7.320E-06,-0.900
-7.310E-06,-0.820
-7.300E-06,-0.720
-7.290E-06,-0.640
-7.280E-06,-0.520
-7.270E-06,-0.380
-7.260E-06,-0.360
-7.250E-06,-0.240
-7.240E-06,-0.120
-7.230E-06,-0.040
-7.220E-06,0.040
-7.210E-06,0.160
-7.200E-06,0.280
-7.190E-06,0.380
-7.180E-06,0.480
-7.170E-06,0.560
-7.160E-06,0.580
-7.150E-06,0.580
-7.140E-06,0.600
-7.130E-06,0.540
-7.120E-06,0.440
-7.110E-06,0.420
-7.100E-06,0.340
-7.090E-06,0.180
-7.080E-06,0.140
-7.070E-06,0.080
-7.060E-06,-0.020
-7.050E-06,-0.060
-7.040E-06,-0.140
-7.030E-06,-0.160
-7.020E-06,-0.200
-7.010E-06,-0.240
-7.000E-06,-0.240
-6.990E-06,-0.240
-6.980E-06,-0.100
-6.970E-06,-0.160
-6.960E-06,-0.140
-6.950E-06,-0.100
-6.940E-06,-0.180
-6.930E-06,-0.160
-6.920E-06,-0.140
-6.910E-06,-0.080
-6.900E-06,-0.040
-6.890E-06,0.000
-6.880E-06,0.000
-6.870E-06,0.000
-6.860E-06,-0.020
-6.850E-06,-0.100
-6.840E-06,-0.120
-6.830E-06,-0.180
-6.820E-06,-0.180
-6.810E-06,-0.180
-6.800E-06,-0.180
-6.790E-06,-0.160
-6.780E-06,-0.060
-6.770E-06,-0.180
-6.760E-06,-0.100
-6.750E-06,-0.180
-6.740E-06,-0.160
-6.730E-06,-0.100
-6.720E-06,-0.180
-6.710E-06,-0.180
-6.700E-06,-0.280
-6.690E-06,-0.180
-6.680E-06,-0.140
-6.670E-06,-0.140
-6.660E-06,-0.100
-6.650E-06,-0.020
-6.640E-06,0.080
-6.630E-06,-0.060
-6.620E-06,0.060
-6.610E-06,-0.040
-6.600E-06,-0.100
-6.590E-06,-0.140
-6.580E-06,-0.200
-6.570E-06,-0.220
-6.560E-06,-0.180
-6.550E-06,-0.260
-6.540E-06,-0.240
-6.530E-06,-0.280
-6.520E-06,-0.220
-6.510E-06,-0.100
-6.500E-06,0.240
-6.490E-06,0.820
-6.480E-06,1.400
-6.470E-06,1.760
-6.460E-06,1.740
-6.450E-06,1.300
-6.440E-06,0.600
-6.430E-06,-0.180
-6.420E-06,-1.020
-6.410E-06,-1.620
-6.400E-06,-1.940
-6.390E-06,-2.020
-6.380E-06,-1.640
-6.370E-06,-1.300
-6.360E-06,-1.080
-6.350E-06,-0.940
-6.340E-06,-0.900
-6.330E-06,-0.740
-6.320E-06,-0.600
-6.310E-06,-0.440
-6.300E-06,-0.280
-6.290E-06,-0.300
-6.280E-06,-0.340
-6.270E-06,-0.320
-6.260E-06,-0.260
-6.250E-06,-0.060
-6.240E-06,0.260
-6.230E-06,0.580
-6.220E-06,0.920
-6.210E-06,1.000
-6.200E-06,0.880
-6.190E-06,0.860
-6.180E-06,0.740
-6.170E-06,0.660
-6.160E-06,0.320
-6.150E-06,0.140
-6.140E-06,-0.180
-6.130E-06,-0.540
-6.120E-06,-0.840
-6.110E-06,-0.800
-6.100E-06,-1.020
-6.090E-06,-0.780
-6.080E-06,-0.860
-6.070E-06,-0.860
-6.060E-06,-0.380
-6.050E-06,-0.160
-6.040E-06,-0.200
-6.030E-06,0.460
-6.020E-06,0.780
-6.010E-06,0.760
-6.000E-06,0.940
-5.990E-06,0.240
-5.980E-06,0.240
-5.970E-06,-0.580
-5.960E-06,-0.520
-5.950E-06,-1.020
-5.940E-06,-0.440
-5.930E-06,0.740
-5.920E-06,0.340
-5.910E-06,-0.160
-5.900E-06,-1.620
-5.890E-06,-1.620
-5.880E-06,-2.000
-5.870E-06,-1.720
-5.860E-06,-1.300
-5.850E-06,-0.540
-5.840E-06,-0.360
-5.830E-06,-0.560
-5.820E-06,-0.920
-5.810E-06,-1.000
-5.800E-06,-0.580
-5.790E-06,-0.280
-5.780E-06,-0.040
-5.770E-06,0.520
-5.760E-06,0.760
-5.750E-06,0.840
-5.740E-06,0.700
-5.730E-06,0.780
-5.720E-06,0.900
-5.710E-06,0.860
-5.700E-06,0.680
-5.690E-06,0.580
-5.680E-06,0.420
-5.670E-06,0.260
-5.660E-06,-0.020
-5.650E-06,-0.260
-5.640E-06,-0.340
-5.630E-06,-0.260
-5.620E-06,-0.120
-5.610E-06,0.000
-5.600E-06,0.080
-5.590E-06,0.280
-5.580E-06,0.500
-5.570E-06,0.640
-5.560E-06,0.840
-5.550E-06,0.660
-5.540E-06,0.720
-5.530E-06,0.300
-5.520E-06,-0.100
-5.510E-06,-0.260
-5.500E-06,-0.260
-5.490E-06,-0.280
-5.480E-06,-0.280
-5.470E-06,-0.400
-5.460E-06,-0.520
-5.450E-06,-0.680
-5.440E-06,-0.860
-5.430E-06,-0.860
-5.420E-06,-0.800
-5.410E-06,-0.740
-5.400E-06,-0.540
-5.390E-06,-0.540
-5.380E-06,-0.500
-5.370E-06,-0.280
-5.360E-06,-0.260
-5.350E-06,-0.140
-5.340E-06,-0.260
-5.330E-06,-0.360
-5.320E-06,-0.440
-5.310E-06,-0.540
-5.300E-06,-0.620
-5.290E-06,-0.760
-5.280E-06,-0.680
-5.270E-06,-0.740
-5.260E-06,-0.600
-5.250E-06,-0.580
-5.240E-06,-0.600
-5.230E-06,-0.520
-5.220E-06,-0.540
-5.210E-06,-0.460
-5.200E-06,-0.500
-5.190E-06,-0.400
-5.180E-06,-0.260
-5.170E-06,-0.240
-5.160E-06,-0.160
-5.150E-06,-0.240
-5.140E-06,-0.240
-5.130E-06,-0.180
-5.120E-06,-0.060
-5.110E-06,-0.020
-5.100E-06,0.240
-5.090E-06,0.220
-5.080E-06,0.460
-5.070E-06,0.240
-5.060E-06,0.160
-5.050E-06,0.000
-5.040E-06,-0.100
-5.030E-06,-0.200
-5.020E-06,-0.100
-5.010E-06,0.240
-5.000E-06,0.680
-4.990E-06,1.160
-4.980E-06,0.040
-4.970E-06,0.400
-4.960E-06,-0.100
-4.950E-06,-0.360
-4.940E-06,-0.560
-4.930E-06,-0.480
-4.920E-06,-0.320
-4.910E-06,-0.340
-4.900E-06,-0.560
-4.890E-06,-0.400
-4.880E-06,-0.240
-4.870E-06,0.120
-4.860E-06,0.260
-4.850E-06,0.120
-4.840E-06,0.300
-4.830E-06,0.080
-4.820E-06,0.040
-4.810E-06,-0.280
-4.800E-06,-0.460
-4.790E-06,-0.460
-4.780E-06,-0.520
-4.770E-06,-0.540
-4.760E-06,-0.500
-4.750E-06,-0.200
-4.740E-06,-0.040
-4.730E-06,0.040
-4.720E-06,0.000
-4.710E-06,-0.080
-4.700E-06,-0.240
-4.690E-06,-0.380
-4.680E-06,-0.580
-4.670E-06,-0.560
-4.660E-06,-0.520
-4.650E-06,-0.540
-4.640E-06,-0.220
-4.630E-06,-0.080
-4.620E-06,0.260
-4.610E-06,0.140
-4.600E-06,0.320
-4.590E-06,-1.200
-4.580E-06,-0.340
-4.570E-06,1.580
-4.560E-06,0.180
-4.550E-06,0.100
-4.540E-06,0.440
-4.530E-06,-1.080
-4.520E-06,-0.980
-4.510E-06,-0.280
-4.500E-06,0.300
-4.490E-06,0.760
-4.480E-06,-0.040
-4.470E-06,-0.320
-4.460E-06,-0.680
-4.450E-06,-1.540
-4.440E-06,-0.740
-4.430E-06,-0.340
-4.420E-06,-0.480
-4.410E-06,0.260
-4.400E-06,-0.180
-4.390E-06,-0.440
-4.380E-06,-0.200
-4.370E-06,-0.040
-4.360E-06,0.020
-4.350E-06,0.240
-4.340E-06,0.160
-4.330E-06,0.440
-4.320E-06,0.440
-4.310E-06,0.560
-4.300E-06,0.440
-4.290E-06,0.380
-4.280E-06,0.400
-4.270E-06,0.540
-4.260E-06,0.540
-4.250E-06,0.660
-4.240E-06,0.640
-4.230E-06,0.540
-4.220E-06,0.340
-4.210E-06,0.240
-4.200E-06,0.280
-4.190E-06,0.260
-4.180E-06,0.420
-4.170E-06,0.420
-4.160E-06,0.960
-4.150E-06,0.460
-4.140E-06,0.080
-4.130E-06,-0.480
-4.120E-06,-0.400
-4.110E-06,-0.680
-4.100E-06,-0.380
-4.090E-06,-0.520
-4.080E-06,-0.400
-4.070E-06,-0.360
-4.060E-06,-0.760
-4.050E-06,-0.660
-4.040E-06,-0.780
-4.030E-06,-0.680
-4.020E-06,-0.780
-4.010E-06,-0.940
-4.000E-06,-0.280
-3.990E-06,-0.240
-3.980E-06,0.000
-3.970E-06,-0.360
-3.960E-06,-0.820
-3.950E-06,-1.260
-3.940E-06,-1.520
-3.930E-06,-1.500
-3.920E-06,-1.220
-3.910E-06,-1.120
-3.900E-06,-0.900
-3.890E-06,-0.740
-3.880E-06,-0.700
-3.870E-06,-0.520
-3.860E-06,-0.240
-3.850E-06,-0.060
-3.840E-06,0.260
-3.830E-06,0.440
-3.820E-06,0.580
-3.810E-06,0.660
-3.800E-06,0.760
-3.790E-06,0.840
-3.780E-06,1.020
-3.770E-06,1.040
-3.760E-06,1.320
-3.750E-06,1.440
-3.740E-06,1.460
-3.730E-06,1.280
-3.720E-06,0.940
-3.710E-06,0.880
-3.700E-06,0.520
-3.690E-06,0.340
-3.680E-06,0.040
-3.670E-06,0.240
-3.660E-06,-0.260
-3.650E-06,-0.520
-3.640E-06,-0.780
-3.630E-06,-1.060
-3.620E-06,-1.180
-3.610E-06,-1.180
-3.600E-06,-1.080
-3.590E-06,-0.780
-3.580E-06,-0.620
-3.570E-06,-0.520
-3.560E-06,-0.420
-3.550E-06,-0.320
-3.540E-06,-0.220
-3.530E-06,-0.140
-3.520E-06,-0.120
-3.510E-06,0.000
-3.500E-06,-0.020
-3.490E-06,0.000
-3.480E-06,0.160
-3.470E-06,0.180
-3.460E-06,0.220
-3.450E-06,0.160
-3.440E-06,0.060
-3.430E-06,-0.100
-3.420E-06,-0.180
-3.410E-06,-0.300
-3.400E-06,-0.320
-3.390E-06,-0.420
-3.380E-06,-0.300
-3.370E-06,-0.320
-3.360E-06,-0.360
-3.350E-06,-0.300
-3.340E-06,-0.160
-3.330E-06,-0.040
-3.320E-06,0.040
-3.310E-06,0.060
-3.300E-06,0.160
-3.290E-06,0.140
-3.280E-06,0.120
-3.270E-06,0.160
-3.260E-06,0.140
-3.250E-06,0.160
-3.240E-06,0.160
-3.230E-06,0.060
-3.220E-06,-0.040
-3.210E-06,-0.180
-3.200E-06,-0.360
-3.190E-06,-0.460
-3.180E-06,-0.520
-3.170E-06,-0.620
-3.160E-06,-0.620
-3.150E-06,-0.600
-3.140E-06,-0.580
-3.130E-06,-0.580
-3.120E-06,-0.560
-3.110E-06,-0.540
-3.100E-06,-0.560
-3.090E-06,-0.480
-3.080E-06,-0.420
-3.070E-06,-0.380
-3.060E-06,-0.360
-3.050E-06,-0.340
-3.040E-06,-0.260
-3.030E-06,-0.160
-3.020E-06,-0.120
-3.010E-06,-0.060
-3.000E-06,0.060
-2.990E-06,0.060
-2.980E-06,0.060
-2.970E-06,-0.040
-2.960E-06,-0.040
-2.950E-06,-0.160
-2.940E-06,-0.160
-2.930E-06,-0.280
-2.920E-06,-0.300
-2.910E-06,-0.520
-2.900E-06,-0.380
-2.890E-06,-0.620
-2.880E-06,-0.480
-2.870E-06,-0.620
-2.860E-06,-0.620
-2.850E-06,-0.080
-2.840E-06,-0.340
-2.830E-06,-0.080
-2.820E-06,-0.280
-2.810E-06,-0.140
-2.800E-06,-0.180
-2.790E-06,-0.580
-2.780E-06,-0.780
-2.770E-06,0.400
-2.760E-06,-0.560
-2.750E-06,0.300
-2.740E-06,0.360
-2.730E-06,0.080
-2.720E-06,0.760
-2.710E-06,-0.140
-2.700E-06,0.060
-2.690E-06,-0.200
-2.680E-06,-0.340
-2.670E-06,1.220
-2.660E-06,0.580
-2.650E-06,1.000
-2.640E-06,-0.020
-2.630E-06,-0.460
-2.620E-06,-1.340
-2.610E-06,-0.540
-2.600E-06,-0.800
-2.590E-06,-0.080
-2.580E-06,-0.380
-2.570E-06,-0.180
-2.560E-06,-0.880
-2.550E-06,-0.900
-2.540E-06,-0.660
-2.530E-06,-0.340
-2.520E-06,-0.720
-2.510E-06,1.080
-2.500E-06,0.420
-2.490E-06,1.020
-2.480E-06,0.480
-2.470E-06,0.600
-2.460E-06,-0.220
-2.450E-06,-0.420
-2.440E-06,-0.760
-2.430E-06,-0.200
-2.420E-06,-0.020
-2.410E-06,0.020
-2.400E-06,-0.360
-2.390E-06,-0.260
-2.380E-06,0.140
-2.370E-06,-0.160
-2.360E-06,0.260
-2.350E-06,0.140
-2.340E-06,0.260
-2.330E-06,-0.180
-2.320E-06,-0.480
-2.310E-06,-0.560
-2.300E-06,-0.660
-2.290E-06,0.300
-2.280E-06,0.400
-2.270E-06,0.500
-2.260E-06,0.600
-2.250E-06,0.000
-2.240E-06,-0.320
-2.230E-06,-0.600
-2.220E-06,-0.660
-2.210E-06,-0.400
-2.200E-06,-0.400
-2.190E-06,-0.340
-2.180E-06,-0.320
-2.170E-06,-0.540
-2.160E-06,-0.460
-2.150E-06,-0.420
-2.140E-06,-0.400
-2.130E-06,-0.200
-2.120E-06,-0.040
-2.110E-06,0.080
-2.100E-06,0.200
-2.090E-06,0.300
-2.080E-06,0.380
-2.070E-06,0.440
-2.060E-06,0.480
-2.050E-06,0.480
-2.040E-06,0.400
-2.030E-06,0.400
-2.020E-06,0.120
-2.010E-06,-0.100
-2.000E-06,-0.320
-1.990E-06,-0.400
-1.980E-06,-0.380
-1.970E-06,-0.360
-1.960E-06,0.480
-1.950E-06,0.300
-1.940E-06,0.560
-1.930E-06,0.260
-1.920E-06,-0.260
-1.910E-06,-0.560
-1.900E-06,-0.940
-1.890E-06,-0.840
-1.880E-06,-0.500
-1.870E-06,-0.560
-1.860E-06,-0.680
-1.850E-06,-0.540
-1.840E-06,-0.780
-1.830E-06,-0.800
-1.820E-06,-0.560
-1.810E-06,-0.460
-1.800E-06,-0.080
-1.790E-06,0.000
-1.780E-06,0.020
-1.770E-06,0.160
-1.760E-06,0.160
-1.750E-06,0.260
-1.740E-06,0.280
-1.730E-06,0.400
-1.720E-06,0.480
-1.710E-06,0.660
-1.700E-06,0.760
-1.690E-06,0.400
-1.680E-06,0.660
-1.670E-06,0.660
-1.660E-06,0.960
-1.650E-06,0.780
-1.640E-06,0.260
-1.630E-06,-0.180
-1.620E-06,-0.720
-1.610E-06,-1.040
-1.600E-06,-1.300
-1.590E-06,-0.920
-1.580E-06,-0.680
-1.570E-06,-0.520
-1.560E-06,-0.660
-1.550E-06,-0.700
-1.540E-06,-0.520
-1.530E-06,-0.420
-1.520E-06,-0.280
-1.510E-06,-0.040
-1.500E-06,0.100
-1.490E-06,0.300
-1.480E-06,0.260
-1.470E-06,0.360
-1.460E-06,0.520
-1.450E-06,0.800
-1.440E-06,0.640
-1.430E-06,0.580
-1.420E-06,0.580
-1.410E-06,0.180
-1.400E-06,-0.080
-1.390E-06,0.480
-1.380E-06,-0.160
-1.370E-06,-0.080
-1.360E-06,-0.540
-1.350E-06,-0.440
-1.340E-06,-0.920
-1.330E-06,-0.940
-1.320E-06,-0.900
-1.310E-06,-0.560
-1.300E-06,-0.660
-1.290E-06,-0.620
-1.280E-06,-0.480
-1.270E-06,-0.360
-1.260E-06,-0.120
-1.250E-06,0.000
-1.240E-06,0.080
-1.230E-06,0.240
-1.220E-06,0.360
-1.210E-06,0.460
-1.200E-06,0.480
-1.190E-06,0.980
-1.180E-06,0.540
-1.170E-06,0.760
-1.160E-06,0.380
-1.150E-06,0.480
-1.140E-06,0.280
-1.130E-06,0.200
-1.120E-06,-0.280
-1.110E-06,-0.380
-1.100E-06,-0.640
-1.090E-06,-0.740
-1.080E-06,-0.600
-1.070E-06,-0.600
-1.060E-06,-0.440
-1.050E-06,-0.400
-1.040E-06,-0.500
-1.030E-06,-0.340
-1.020E-06,-0.340
-1.010E-06,-0.260
-1.000E-06,-0.100
-9.900E-07,-0.220
-9.800E-07,-0.100
-9.700E-07,-0.080
-9.600E-07,-0.080
-9.500E-07,-0.060
-9.400E-07,-0.160
-9.300E-07,-0.200
-9.200E-07,-0.260
-9.100E-07,-0.300
-9.000E-07,-0.380
-8.900E-07,-0.400
-8.800E-07,-0.480
-8.700E-07,-0.560
-8.600E-07,-0.660
-8.500E-07,-0.760
-8.400E-07,-0.680
-8.300E-07,-0.600
-8.200E-07,-0.500
-8.100E-07,-0.480
-8.000E-07,-0.460
-7.900E-07,-0.420
-7.800E-07,-0.320
-7.700E-07,-0.280
-7.600E-07,-0.200
-7.500E-07,-0.020
-7.400E-07,0.080
-7.300E-07,0.180
-7.200E-07,-0.380
-7.100E-07,0.360
-7.000E-07,1.780
-6.900E-07,0.860
-6.800E-07,1.520
-6.700E-07,0.000
-6.600E-07,0.580
-6.500E-07,-0.620
-6.400E-07,-0.940
-6.300E-07,-0.460
-6.200E-07,-0.600
-6.100E-07,-0.740
-6.000E-07,-1.200
-5.900E-07,-0.820
-5.800E-07,-0.580
-5.700E-07,-0.740
-5.600E-07,-0.880
-5.500E-07,-0.840
-5.400E-07,-0.680
-5.300E-07,-0.600
-5.200E-07,-0.720
-5.100E-07,-0.520
-5.000E-07,0.220
-4.900E-07,0.120
-4.800E-07,0.220
-4.700E-07,0.240
-4.600E-07,0.440
-4.500E-07,0.920
-4.400E-07,0.920
-4.300E-07,1.060
-4.200E-07,1.080
-4.100E-07,0.960
-4.000E-07,1.140
-3.900E-07,0.620
-3.800E-07,0.380
-3.700E-07,0.060
-3.600E-07,-0.140
-3.500E-07,-0.340
-3.400E-07,-0.440
-3.300E-07,-0.540
-3.200E-07,-0.360
-3.100E-07,-0.440
-3.000E-07,-0.640
-2.900E-07,-0.800
-2.800E-07,-0.840
-2.700E-07,-0.680
-2.600E-07,-0.560
-2.500E-07,-0.520
-2.400E-07,-0.380
-2.300E-07,-0.420
-2.200E-07,-0.540
-2.100E-07,-0.760
-2.000E-07,-0.860
-1.900E-07,-0.880
-1.800E-07,-0.800
-1.700E-07,-0.600
-1.600E-07,-0.580
-1.500E-07,-0.400
-1.400E-07,-0.260
-1.300E-07,-0.480
-1.200E-07,-0.100
-1.100E-07,-0.380
-1.000E-07,-0.580
-9.000E-08,-0.560
-8.000E-08,0.760
-7.000E-08,1.100
-6.000E-08,0.320
-5.000E-08,1.380
-4.000E-08,1.820
-3.000E-08,1.100
-2.000E-08,1.740
-1.000E-08,-1.660
0.000E+00,-1.540
1.000E-08,-3.620
2.000E-08,-1.640
3.000E-08,-3.040
4.000E-08,-1.700
5.000E-08,-1.020
6.000E-08,-1.400
7.000E-08,-1.440
8.000E-08,-2.520
9.000E-08,-1.060
1.000E-07,-1.580
1.100E-07,-1.280
1.200E-07,-0.500
1.300E-07,-0.120
1.400E-07,0.100
1.500E-07,0.380
1.600E-07,-0.120
1.700E-07,0.040
1.800E-07,-0.400
1.900E-07,-0.120
2.000E-07,0.180
2.100E-07,0.260
2.200E-07,0.080
2.300E-07,-0.220
2.400E-07,-0.340
2.500E-07,-0.500
2.600E-07,-0.560
2.700E-07,-0.580
2.800E-07,-0.780
2.900E-07,-0.660
3.000E-07,-0.660
3.100E-07,-0.560
3.200E-07,-0.540
3.300E-07,-0.280
3.400E-07,-0.180
3.500E-07,-0.380
3.600E-07,-0.120
3.700E-07,0.200
3.800E-07,0.760
3.900E-07,1.160
4.000E-07,1.140
4.100E-07,0.920
4.200E-07,0.400
4.300E-07,0.080
4.400E-07,-0.020
4.500E-07,-0.140
4.600E-07,-0.440
4.700E-07,-0.980
4.800E-07,-1.700
4.900E-07,-2.100
5.000E-07,-2.260
5.100E-07,-2.320
5.200E-07,-1.560
5.300E-07,-1.120
5.400E-07,-0.720
5.500E-07,-0.280
5.600E-07,0.800
5.700E-07,1.280
5.800E-07,0.960
5.900E-07,1.420
6.000E-07,0.720
6.100E-07,0.340
6.200E-07,-1.220
6.300E-07,-3.080
6.400E-07,-3.600
6.500E-07,-3.600
6.600E-07,-3.600
6.700E-07,-3.600
6.800E-07,-3.600
6.900E-07,-3.480
7.000E-07,-2.840
7.100E-07,-2.840
7.200E-07,-2.420
7.300E-07,-2.220
7.400E-07,-1.600
7.500E-07,-0.580
7.600E-07,-0.120
7.700E-07,0.140
7.800E-07,0.200
7.900E-07,0.480
8.000E-07,0.340
8.100E-07,0.480
8.200E-07,0.640
8.300E-07,0.860
8.400E-07,0.920
8.500E-07,1.060
8.600E-07,0.960
8.700E-07,0.720
8.800E-07,0.380
8.900E-07,0.060
9.000E-07,-0.240
9.100E-07,-0.440
9.200E-07,-0.520
9.300E-07,-0.480
9.400E-07,-0.280
9.500E-07,-0.180
9.600E-07,-0.100
9.700E-07,-0.040
9.800E-07,0.000
9.900E-07,0.140
1.000E-06,0.420
1.010E-06,0.840
1.020E-06,1.260
1.030E-06,1.440
1.040E-06,1.520
1.050E-06,1.440
1.060E-06,1.180
1.070E-06,0.800
1.080E-06,0.400
1.090E-06,0.020
1.100E-06,-0.320
1.110E-06,-0.600
1.120E-06,-0.720
1.130E-06,-0.900
1.140E-06,-0.960
1.150E-06,-1.100
1.160E-06,-1.040
1.170E-06,-0.860
1.180E-06,-0.700
1.190E-06,-0.560
1.200E-06,-0.580
1.210E-06,-0.700
1.220E-06,-0.720
1.230E-06,-0.780
1.240E-06,-0.800
1.250E-06,-0.740
1.260E-06,-0.520
1.270E-06,-0.280
1.280E-06,-0.040
1.290E-06,0.200
1.300E-06,0.480
1.310E-06,0.660
1.320E-06,0.720
1.330E-06,0.760
1.340E-06,0.680
1.350E-06,0.500
1.360E-06,0.380
1.370E-06,0.160
1.380E-06,-0.020
1.390E-06,-0.280
1.400E-06,-0.480
1.410E-06,-0.660
1.420E-06,-0.720
1.430E-06,-0.680
1.440E-06,-0.500
1.450E-06,-0.220
1.460E-06,0.060
1.470E-06,0.280
1.480E-06,0.420
1.490E-06,0.500
1.500E-06,0.540
1.510E-06,0.540
1.520E-06,0.520
1.530E-06,0.520
1.540E-06,0.480
1.550E-06,0.460
1.560E-06,0.400
1.570E-06,0.400
1.580E-06,0.320
1.590E-06,0.260
1.600E-06,0.260
1.610E-06,0.240
1.620E-06,0.200
1.630E-06,0.180
1.640E-06,0.140
1.650E-06,0.020
1.660E-06,-0.040
1.670E-06,-0.140
1.680E-06,-0.260
1.690E-06,-0.280
1.700E-06,-0.280
1.710E-06,-0.300
1.720E-06,-0.260
1.730E-06,-0.160
1.740E-06,-0.060
1.750E-06,0.040
1.760E-06,0.120
1.770E-06,0.220
1.780E-06,0.280
1.790E-06,0.320
1.800E-06,0.320
1.810E-06,0.320
1.820E-06,0.300
1.830E-06,0.220
1.840E-06,0.160
1.850E-06,0.080
1.860E-06,0.040
1.870E-06,-0.020
1.880E-06,-0.060
1.890E-06,-0.080
1.900E-06,-0.040
1.910E-06,-0.020
1.920E-06,-0.040
1.930E-06,-0.020
1.940E-06,0.020
1.950E-06,0.020
1.960E-06,0.060
1.970E-06,0.080
1.980E-06,0.120
1.990E-06,0.100
2.000E-06,0.160
2.010E-06,0.180
2.020E-06,0.220
2.030E-06,0.260
2.040E-06,0.240
2.050E-06,0.300
2.060E-06,0.320
2.070E-06,0.320
2.080E-06,0.340
2.090E-06,0.320
2.100E-06,0.320
2.110E-06,0.320
2.120E-06,0.300
2.130E-06,0.300
2.140E-06,0.300
2.150E-06,0.260
2.160E-06,0.220
2.170E-06,0.160
2.180E-06,0.140
2.190E-06,0.160
2.200E-06,0.100
2.210E-06,0.140
2.220E-06,0.080
2.230E-06,0.040
2.240E-06,0.040
2.250E-06,0.080
2.260E-06,0.180
2.270E-06,0.220
2.280E-06,0.240
2.290E-06,0.240
2.300E-06,0.240
2.310E-06,0.280
2.320E-06,0.320
2.330E-06,0.360
2.340E-06,0.400
2.350E-06,0.420
2.360E-06,0.420
2.370E-06,0.480
2.380E-06,0.520
2.390E-06,0.540
2.400E-06,0.560
2.410E-06,0.520
2.420E-06,0.520
2.430E-06,0.500
2.440E-06,0.460
2.450E-06,0.420
2.460E-06,0.380
2.470E-06,0.380
2.480E-06,0.360
2.490E-06,0.340
2.500E-06,0.300
2.510E-06,0.300
2.520E-06,0.280
2.530E-06,0.300
2.540E-06,0.340
2.550E-06,0.400
2.560E-06,0.420
2.570E-06,0.500
2.580E-06,0.500
2.590E-06,0.500
2.600E-06,0.440
2.610E-06,0.460
2.620E-06,0.480
2.630E-06,0.500
2.640E-06,0.520
2.650E-06,0.480
2.660E-06,0.480
2.670E-06,0.420
2.680E-06,0.400
2.690E-06,0.380
2.700E-06,0.360
2.710E-06,0.340
2.720E-06,0.320
2.730E-06,0.320
2.740E-06,0.300
2.750E-06,0.260
2.760E-06,0.240
2.770E-06,0.220
2.780E-06,0.200
2.790E-06,0.200
2.800E-06,0.200
2.810E-06,0.240
2.820E-06,0.240
2.830E-06,0.320
2.840E-06,0.360
2.850E-06,0.400
2.860E-06,0.400
2.870E-06,0.460
2.880E-06,0.480
2.890E-06,0.500
2.900E-06,0.500
2.910E-06,0.480
2.920E-06,0.500
2.930E-06,0.500
2.940E-06,0.500
2.950E-06,0.480
2.960E-06,0.460
2.970E-06,0.440
2.980E-06,0.420
2.990E-06,0.420
3.000E-06,0.340
3.010E-06,0.320
3.020E-06,0.340
3.030E-06,0.320
3.040E-06,0.360
3.050E-06,0.340
3.060E-06,0.360
3.070E-06,0.340
3.080E-06,0.360
3.090E-06,0.360
3.100E-06,0.340
3.110E-06,0.380
3.120E-06,0.380
3.130E-06,0.420
3.140E-06,0.420
3.150E-06,0.440
3.160E-06,0.440
3.170E-06,0.460
3.180E-06,0.480
