mediciones/8-28/-7/WaveData6626.csv

#timebase=2000000(ps)
,#voltbase=200000(mv/100)
#size=4000
-8.350E-06,0.000
-8.340E-06,0.008
-8.330E-06,0.000
-8.320E-06,0.008
-8.310E-06,0.000
-8.300E-06,0.008
-8.290E-06,0.008
-8.280E-06,0.008
-8.270E-06,0.008
-8.260E-06,0.008
-8.250E-06,0.000
-8.240E-06,0.000
-8.230E-06,-0.008
-8.220E-06,-0.008
-8.210E-06,0.008
-8.200E-06,0.008
-8.190E-06,0.008
-8.180E-06,0.000
-8.170E-06,0.008
-8.160E-06,0.008
-8.150E-06,0.008
-8.140E-06,0.000
-8.130E-06,0.008
-8.120E-06,0.000
-8.110E-06,0.008
-8.100E-06,0.016
-8.090E-06,0.000
-8.080E-06,-0.008
-8.070E-06,0.008
-8.060E-06,0.008
-8.050E-06,0.008
-8.040E-06,0.008
-8.030E-06,0.008
-8.020E-06,0.008
-8.010E-06,0.008
-8.000E-06,0.000
-7.990E-06,0.008
-7.980E-06,0.008
-7.970E-06,0.008
-7.960E-06,0.000
-7.950E-06,0.008
-7.940E-06,0.000
-7.930E-06,0.008
-7.920E-06,0.000
-7.910E-06,0.000
-7.900E-06,0.000
-7.890E-06,0.008
-7.880E-06,0.000
-7.870E-06,0.008
-7.860E-06,0.008
-7.850E-06,0.008
-7.840E-06,0.008
-7.830E-06,0.000
-7.820E-06,0.008
-7.810E-06,0.008
-7.800E-06,0.008
-7.790E-06,0.008
-7.780E-06,0.008
-7.770E-06,0.008
-7.760E-06,0.000
-7.750E-06,0.016
-7.740E-06,0.008
-7.730E-06,0.008
-7.720E-06,0.000
-7.710E-06,0.000
-7.700E-06,0.008
-7.690E-06,0.000
-7.680E-06,0.016
-7.670E-06,0.000
-7.660E-06,0.000
-7.650E-06,0.008
-7.640E-06,0.000
-7.630E-06,0.008
-7.620E-06,0.008
-7.610E-06,0.008
-7.600E-06,0.008
-7.590E-06,0.008
-7.580E-06,0.008
-7.570E-06,0.008
-7.560E-06,0.000
-7.550E-06,0.008
-7.540E-06,0.000
-7.530E-06,0.000
-7.520E-06,0.008
-7.510E-06,0.008
-7.500E-06,0.000
-7.490E-06,0.000
-7.480E-06,0.000
-7.470E-06,0.000
-7.460E-06,0.000
-7.450E-06,0.000
-7.440E-06,0.000
-7.430E-06,0.000
-7.420E-06,-0.008
-7.410E-06,0.000
-7.400E-06,0.000
-7.390E-06,0.008
-7.380E-06,0.000
-7.370E-06,0.000
-7.360E-06,0.000
-7.350E-06,0.000
-7.340E-06,0.008
-7.330E-06,0.008
-7.320E-06,0.008
-7.310E-06,0.000
-7.300E-06,0.000
-7.290E-06,0.008
-7.280E-06,0.008
-7.270E-06,0.000
-7.260E-06,0.008
-7.250E-06,0.008
-7.240E-06,0.000
-7.230E-06,0.000
-7.220E-06,0.008
-7.210E-06,0.008
-7.200E-06,0.000
-7.190E-06,0.008
-7.180E-06,0.000
-7.170E-06,0.000
-7.160E-06,0.008
-7.150E-06,0.008
-7.140E-06,0.000
-7.130E-06,0.000
-7.120E-06,0.008
-7.110E-06,0.000
-7.100E-06,0.008
-7.090E-06,0.008
-7.080E-06,0.008
-7.070E-06,0.000
-7.060E-06,0.008
-7.050E-06,0.000
-7.040E-06,0.000
-7.030E-06,0.000
-7.020E-06,0.000
-7.010E-06,0.008
-7.000E-06,0.008
-6.990E-06,0.008
-6.980E-06,0.000
-6.970E-06,0.000
-6.960E-06,0.016
-6.950E-06,0.008
-6.940E-06,0.008
-6.930E-06,0.000
-6.920E-06,0.008
-6.910E-06,0.000
-6.900E-06,0.008
-6.890E-06,0.000
-6.880E-06,0.008
-6.870E-06,0.000
-6.860E-06,0.016
-6.850E-06,0.008
-6.840E-06,0.000
-6.830E-06,0.000
-6.820E-06,0.000
-6.810E-06,0.008
-6.800E-06,0.000
-6.790E-06,0.000
-6.780E-06,0.008
-6.770E-06,0.008
-6.760E-06,0.008
-6.750E-06,0.000
-6.740E-06,0.008
-6.730E-06,0.000
-6.720E-06,0.008
-6.710E-06,0.000
-6.700E-06,0.008
-6.690E-06,0.008
-6.680E-06,0.008
-6.670E-06,0.008
-6.660E-06,0.000
-6.650E-06,0.008
-6.640E-06,0.008
-6.630E-06,0.008
-6.620E-06,0.000
-6.610E-06,0.000
-6.600E-06,0.008
-6.590E-06,0.000
-6.580E-06,0.000
-6.570E-06,0.000
-6.560E-06,0.000
-6.550E-06,0.008
-6.540E-06,0.008
-6.530E-06,0.008
-6.520E-06,0.000
-6.510E-06,0.008
-6.500E-06,0.008
-6.490E-06,0.000
-6.480E-06,0.000
-6.470E-06,0.000
-6.460E-06,0.008
-6.450E-06,0.008
-6.440E-06,0.008
-6.430E-06,0.008
-6.420E-06,0.008
-6.410E-06,0.000
-6.400E-06,0.008
-6.390E-06,0.016
-6.380E-06,0.008
-6.370E-06,0.008
-6.360E-06,0.000
-6.350E-06,0.008
-6.340E-06,-0.008
-6.330E-06,0.008
-6.320E-06,0.008
-6.310E-06,0.008
-6.300E-06,0.008
-6.290E-06,0.000
-6.280E-06,0.008
-6.270E-06,0.000
-6.260E-06,0.000
-6.250E-06,0.008
-6.240E-06,0.000
-6.230E-06,0.000
-6.220E-06,0.008
-6.210E-06,0.000
-6.200E-06,0.008
-6.190E-06,0.008
-6.180E-06,0.000
-6.170E-06,0.000
-6.160E-06,0.008
-6.150E-06,0.000
-6.140E-06,0.008
-6.130E-06,0.008
-6.120E-06,0.008
-6.110E-06,0.000
-6.100E-06,0.008
-6.090E-06,0.008
-6.080E-06,0.000
-6.070E-06,0.008
-6.060E-06,0.000
-6.050E-06,0.008
-6.040E-06,0.008
-6.030E-06,0.008
-6.020E-06,0.000
-6.010E-06,0.000
-6.000E-06,0.008
-5.990E-06,0.008
-5.980E-06,0.000
-5.970E-06,0.008
-5.960E-06,0.008
-5.950E-06,0.000
-5.940E-06,0.000
-5.930E-06,0.008
-5.920E-06,0.008
-5.910E-06,0.008
-5.900E-06,0.008
-5.890E-06,0.008
-5.880E-06,0.008
-5.870E-06,0.008
-5.860E-06,0.008
-5.850E-06,0.000
-5.840E-06,0.000
-5.830E-06,0.008
-5.820E-06,0.000
-5.810E-06,0.008
-5.800E-06,0.000
-5.790E-06,0.008
-5.780E-06,0.008
-5.770E-06,0.000
-5.760E-06,0.008
-5.750E-06,0.008
-5.740E-06,0.000
-5.730E-06,0.000
-5.720E-06,0.008
-5.710E-06,0.000
-5.700E-06,0.000
-5.690E-06,0.008
-5.680E-06,0.000
-5.670E-06,0.008
-5.660E-06,0.000
-5.650E-06,0.008
-5.640E-06,0.008
-5.630E-06,0.000
-5.620E-06,0.000
-5.610E-06,0.000
-5.600E-06,0.000
-5.590E-06,0.000
-5.580E-06,0.008
-5.570E-06,0.000
-5.560E-06,0.000
-5.550E-06,0.000
-5.540E-06,0.008
-5.530E-06,0.008
-5.520E-06,0.008
-5.510E-06,0.000
-5.500E-06,0.000
-5.490E-06,0.000
-5.480E-06,0.008
-5.470E-06,0.000
-5.460E-06,0.000
-5.450E-06,0.008
-5.440E-06,0.008
-5.430E-06,0.000
-5.420E-06,0.000
-5.410E-06,0.016
-5.400E-06,0.016
-5.390E-06,0.000
-5.380E-06,0.008
-5.370E-06,0.008
-5.360E-06,0.008
-5.350E-06,0.016
-5.340E-06,0.008
-5.330E-06,0.000
-5.320E-06,0.008
-5.310E-06,0.008
-5.300E-06,0.000
-5.290E-06,0.008
-5.280E-06,0.008
-5.270E-06,0.008
-5.260E-06,0.000
-5.250E-06,0.008
-5.240E-06,0.000
-5.230E-06,0.008
-5.220E-06,0.000
-5.210E-06,0.008
-5.200E-06,0.000
-5.190E-06,0.008
-5.180E-06,0.008
-5.170E-06,0.008
-5.160E-06,0.008
-5.150E-06,0.000
-5.140E-06,-0.008
-5.130E-06,0.000
-5.120E-06,0.000
-5.110E-06,0.000
-5.100E-06,0.000
-5.090E-06,0.008
-5.080E-06,0.008
-5.070E-06,0.016
-5.060E-06,0.008
-5.050E-06,0.008
-5.040E-06,0.008
-5.030E-06,0.000
-5.020E-06,0.000
-5.010E-06,0.000
-5.000E-06,0.008
-4.990E-06,0.008
-4.980E-06,0.008
-4.970E-06,0.008
-4.960E-06,0.000
-4.950E-06,0.008
-4.940E-06,0.000
-4.930E-06,0.000
-4.920E-06,0.000
-4.910E-06,0.008
-4.900E-06,0.008
-4.890E-06,0.008
-4.880E-06,0.000
-4.870E-06,0.008
-4.860E-06,0.008
-4.850E-06,0.000
-4.840E-06,0.000
-4.830E-06,0.000
-4.820E-06,0.008
-4.810E-06,0.008
-4.800E-06,0.016
-4.790E-06,0.000
-4.780E-06,0.008
-4.770E-06,-0.008
-4.760E-06,0.008
-4.750E-06,0.008
-4.740E-06,0.016
-4.730E-06,0.008
-4.720E-06,0.000
-4.710E-06,0.008
-4.700E-06,0.000
-4.690E-06,0.008
-4.680E-06,0.000
-4.670E-06,0.008
-4.660E-06,0.000
-4.650E-06,0.008
-4.640E-06,0.000
-4.630E-06,0.008
-4.620E-06,0.008
-4.610E-06,0.008
-4.600E-06,0.008
-4.590E-06,0.000
-4.580E-06,0.000
-4.570E-06,0.008
-4.560E-06,0.008
-4.550E-06,0.000
-4.540E-06,0.000
-4.530E-06,0.008
-4.520E-06,0.008
-4.510E-06,0.016
-4.500E-06,0.008
-4.490E-06,0.008
-4.480E-06,0.008
-4.470E-06,0.008
-4.460E-06,0.000
-4.450E-06,0.008
-4.440E-06,0.000
-4.430E-06,0.000
-4.420E-06,0.000
-4.410E-06,0.008
-4.400E-06,0.000
-4.390E-06,0.008
-4.380E-06,0.000
-4.370E-06,0.000
-4.360E-06,0.000
-4.350E-06,0.008
-4.340E-06,0.000
-4.330E-06,0.008
-4.320E-06,0.000
-4.310E-06,0.008
-4.300E-06,0.000
-4.290E-06,0.016
-4.280E-06,0.008
-4.270E-06,0.000
-4.260E-06,0.008
-4.250E-06,0.016
-4.240E-06,0.000
-4.230E-06,0.008
-4.220E-06,0.008
-4.210E-06,0.000
-4.200E-06,0.008
-4.190E-06,0.000
-4.180E-06,0.000
-4.170E-06,0.008
-4.160E-06,0.000
-4.150E-06,0.008
-4.140E-06,0.008
-4.130E-06,0.008
-4.120E-06,0.000
-4.110E-06,0.000
-4.100E-06,0.008
-4.090E-06,0.000
-4.080E-06,0.008
-4.070E-06,0.008
-4.060E-06,0.000
-4.050E-06,0.000
-4.040E-06,0.016
-4.030E-06,0.000
-4.020E-06,0.008
-4.010E-06,0.008
-4.000E-06,0.008
-3.990E-06,0.008
-3.980E-06,0.016
-3.970E-06,0.008
-3.960E-06,0.000
-3.950E-06,0.008
-3.940E-06,0.000
-3.930E-06,0.008
-3.920E-06,0.008
-3.910E-06,0.008
-3.900E-06,0.008
-3.890E-06,0.000
-3.880E-06,0.000
-3.870E-06,0.008
-3.860E-06,0.000
-3.850E-06,0.008
-3.840E-06,0.000
-3.830E-06,0.008
-3.820E-06,0.000
-3.810E-06,0.008
-3.800E-06,0.008
-3.790E-06,0.008
-3.780E-06,0.008
-3.770E-06,0.000
-3.760E-06,0.000
-3.750E-06,0.000
-3.740E-06,0.000
-3.730E-06,0.000
-3.720E-06,0.016
-3.710E-06,0.000
-3.700E-06,0.000
-3.690E-06,0.008
-3.680E-06,0.008
-3.670E-06,0.008
-3.660E-06,0.008
-3.650E-06,0.008
-3.640E-06,0.000
-3.630E-06,0.000
-3.620E-06,0.000
-3.610E-06,0.000
-3.600E-06,0.000
-3.590E-06,0.008
-3.580E-06,0.008
-3.570E-06,0.024
-3.560E-06,0.072
-3.550E-06,0.120
-3.540E-06,0.152
-3.530E-06,0.168
-3.520E-06,0.056
-3.510E-06,-0.296
-3.500E-06,-0.592
-3.490E-06,-0.472
-3.480E-06,0.056
-3.470E-06,0.136
-3.460E-06,0.520
-3.450E-06,0.312
-3.440E-06,0.064
-3.430E-06,-0.288
-3.420E-06,-0.376
-3.410E-06,-0.112
-3.400E-06,0.112
-3.390E-06,0.224
-3.380E-06,0.176
-3.370E-06,0.088
-3.360E-06,-0.016
-3.350E-06,-0.144
-3.340E-06,-0.200
-3.330E-06,-0.152
-3.320E-06,-0.088
-3.310E-06,0.144
-3.300E-06,0.256
-3.290E-06,0.208
-3.280E-06,0.072
-3.270E-06,-0.056
-3.260E-06,-0.136
-3.250E-06,-0.128
-3.240E-06,-0.016
-3.230E-06,0.040
-3.220E-06,0.096
-3.210E-06,0.080
-3.200E-06,0.040
-3.190E-06,-0.072
-3.180E-06,-0.120
-3.170E-06,-0.112
-3.160E-06,-0.048
-3.150E-06,0.056
-3.140E-06,0.112
-3.130E-06,0.112
-3.120E-06,0.072
-3.110E-06,0.016
-3.100E-06,-0.048
-3.090E-06,-0.056
-3.080E-06,-0.048
-3.070E-06,-0.008
-3.060E-06,0.032
-3.050E-06,0.056
-3.040E-06,0.056
-3.030E-06,0.016
-3.020E-06,-0.024
-3.010E-06,-0.040
-3.000E-06,-0.032
-2.990E-06,0.000
-2.980E-06,0.032
-2.970E-06,0.056
-2.960E-06,0.072
-2.950E-06,0.064
-2.940E-06,0.032
-2.930E-06,-0.008
-2.920E-06,-0.016
-2.910E-06,-0.032
-2.900E-06,-0.024
-2.890E-06,0.000
-2.880E-06,0.024
-2.870E-06,0.032
-2.860E-06,0.008
-2.850E-06,0.008
-2.840E-06,0.000
-2.830E-06,-0.008
-2.820E-06,0.000
-2.810E-06,0.016
-2.800E-06,0.016
-2.790E-06,0.016
-2.780E-06,0.016
-2.770E-06,0.016
-2.760E-06,-0.016
-2.750E-06,0.000
-2.740E-06,-0.048
-2.730E-06,-0.016
-2.720E-06,-0.016
-2.710E-06,0.024
-2.700E-06,0.032
-2.690E-06,0.016
-2.680E-06,0.032
-2.670E-06,0.000
-2.660E-06,-0.016
-2.650E-06,-0.024
-2.640E-06,-0.008
-2.630E-06,0.016
-2.620E-06,0.032
-2.610E-06,0.048
-2.600E-06,0.032
-2.590E-06,0.024
-2.580E-06,0.008
-2.570E-06,-0.008
-2.560E-06,-0.048
-2.550E-06,-0.016
-2.540E-06,-0.008
-2.530E-06,0.024
-2.520E-06,0.056
-2.510E-06,0.024
-2.500E-06,0.024
-2.490E-06,-0.008
-2.480E-06,-0.016
-2.470E-06,-0.048
-2.460E-06,-0.024
-2.450E-06,0.016
-2.440E-06,0.040
-2.430E-06,0.064
-2.420E-06,0.048
-2.410E-06,0.032
-2.400E-06,-0.008
-2.390E-06,-0.024
-2.380E-06,-0.016
-2.370E-06,0.000
-2.360E-06,0.032
-2.350E-06,0.048
-2.340E-06,0.048
-2.330E-06,0.016
-2.320E-06,-0.008
-2.310E-06,-0.024
-2.300E-06,-0.032
-2.290E-06,-0.008
-2.280E-06,0.016
-2.270E-06,0.040
-2.260E-06,0.056
-2.250E-06,0.048
-2.240E-06,0.040
-2.230E-06,-0.008
-2.220E-06,-0.016
-2.210E-06,-0.048
-2.200E-06,-0.040
-2.190E-06,-0.024
-2.180E-06,0.008
-2.170E-06,0.048
-2.160E-06,0.048
-2.150E-06,0.056
-2.140E-06,0.032
-2.130E-06,-0.008
-2.120E-06,-0.016
-2.110E-06,-0.016
-2.100E-06,0.000
-2.090E-06,0.024
-2.080E-06,0.040
-2.070E-06,0.032
-2.060E-06,0.032
-2.050E-06,0.008
-2.040E-06,-0.008
-2.030E-06,-0.016
-2.020E-06,-0.016
-2.010E-06,-0.008
-2.000E-06,0.032
-1.990E-06,0.032
-1.980E-06,0.032
-1.970E-06,0.032
-1.960E-06,0.024
-1.950E-06,0.008
-1.940E-06,0.000
-1.930E-06,0.008
-1.920E-06,0.008
-1.910E-06,0.008
-1.900E-06,0.016
-1.890E-06,0.016
-1.880E-06,0.016
-1.870E-06,0.024
-1.860E-06,0.016
-1.850E-06,0.032
-1.840E-06,0.032
-1.830E-06,0.016
-1.820E-06,0.016
-1.810E-06,0.032
-1.800E-06,0.024
-1.790E-06,0.024
-1.780E-06,0.016
-1.770E-06,-0.016
-1.760E-06,0.016
-1.750E-06,0.016
-1.740E-06,0.056
-1.730E-06,0.056
-1.720E-06,0.008
-1.710E-06,-0.008
-1.700E-06,-0.032
-1.690E-06,-0.032
-1.680E-06,-0.024
-1.670E-06,-0.008
-1.660E-06,0.016
-1.650E-06,-0.008
-1.640E-06,0.016
-1.630E-06,-0.008
-1.620E-06,0.000
-1.610E-06,-0.008
-1.600E-06,-0.008
-1.590E-06,0.024
-1.580E-06,0.016
-1.570E-06,0.008
-1.560E-06,-0.008
-1.550E-06,-0.008
-1.540E-06,0.016
-1.530E-06,0.048
-1.520E-06,0.040
-1.510E-06,0.000
-1.500E-06,-0.048
-1.490E-06,-0.072
-1.480E-06,-0.048
-1.470E-06,-0.008
-1.460E-06,0.040
-1.450E-06,0.072
-1.440E-06,0.064
-1.430E-06,0.032
-1.420E-06,-0.016
-1.410E-06,-0.048
-1.400E-06,-0.016
-1.390E-06,0.032
-1.380E-06,0.080
-1.370E-06,0.088
-1.360E-06,0.064
-1.350E-06,0.032
-1.340E-06,-0.016
-1.330E-06,-0.040
-1.320E-06,-0.008
-1.310E-06,0.040
-1.300E-06,0.072
-1.290E-06,0.080
-1.280E-06,0.064
-1.270E-06,-0.008
-1.260E-06,-0.016
-1.250E-06,-0.024
-1.240E-06,0.040
-1.230E-06,0.072
-1.220E-06,0.088
-1.210E-06,0.080
-1.200E-06,0.040
-1.190E-06,-0.016
-1.180E-06,-0.032
-1.170E-06,-0.040
-1.160E-06,0.000
-1.150E-06,0.024
-1.140E-06,0.040
-1.130E-06,0.048
-1.120E-06,0.016
-1.110E-06,0.008
-1.100E-06,-0.008
-1.090E-06,0.008
-1.080E-06,0.000
-1.070E-06,0.024
-1.060E-06,0.032
-1.050E-06,0.048
-1.040E-06,0.048
-1.030E-06,0.064
-1.020E-06,0.056
-1.010E-06,0.040
-1.000E-06,0.064
-9.900E-07,0.024
-9.800E-07,-0.008
-9.700E-07,-0.040
-9.600E-07,-0.064
-9.500E-07,-0.080
-9.400E-07,-0.016
-9.300E-07,0.032
-9.200E-07,0.088
-9.100E-07,0.056
-9.000E-07,0.024
-8.900E-07,-0.048
-8.800E-07,-0.112
-8.700E-07,-0.088
-8.600E-07,-0.056
-8.500E-07,0.056
-8.400E-07,0.088
-8.300E-07,0.104
-8.200E-07,0.040
-8.100E-07,-0.040
-8.000E-07,-0.080
-7.900E-07,-0.096
-7.800E-07,-0.056
-7.700E-07,0.000
-7.600E-07,0.080
-7.500E-07,0.080
-7.400E-07,0.056
-7.300E-07,-0.016
-7.200E-07,-0.064
-7.100E-07,-0.080
-7.000E-07,-0.048
-6.900E-07,0.016
-6.800E-07,0.080
-6.700E-07,0.112
-6.600E-07,0.072
-6.500E-07,-0.008
-6.400E-07,-0.048
-6.300E-07,-0.064
-6.200E-07,-0.032
-6.100E-07,0.048
-6.000E-07,0.088
-5.900E-07,0.120
-5.800E-07,0.120
-5.700E-07,0.104
-5.600E-07,0.056
-5.500E-07,0.032
-5.400E-07,0.024
-5.300E-07,0.056
-5.200E-07,0.088
-5.100E-07,0.128
-5.000E-07,0.120
-4.900E-07,0.096
-4.800E-07,0.040
-4.700E-07,0.000
-4.600E-07,-0.016
-4.500E-07,-0.008
-4.400E-07,0.048
-4.300E-07,0.064
-4.200E-07,0.104
-4.100E-07,0.072
-4.000E-07,0.064
-3.900E-07,-0.008
-3.800E-07,-0.032
-3.700E-07,-0.048
-3.600E-07,-0.016
-3.500E-07,-0.008
-3.400E-07,0.056
-3.300E-07,0.056
-3.200E-07,0.032
-3.100E-07,0.040
-3.000E-07,0.000
-2.900E-07,0.056
-2.800E-07,0.056
-2.700E-07,0.128
-2.600E-07,0.144
-2.500E-07,0.112
-2.400E-07,0.088
-2.300E-07,0.064
-2.200E-07,0.096
-2.100E-07,0.136
-2.000E-07,0.160
-1.900E-07,0.192
-1.800E-07,0.176
-1.700E-07,0.120
-1.600E-07,0.144
-1.500E-07,0.056
-1.400E-07,0.112
-1.300E-07,0.048
-1.200E-07,0.168
-1.100E-07,0.192
-1.000E-07,0.120
-9.000E-08,-0.480
-8.000E-08,-0.824
-7.000E-08,-0.824
-6.000E-08,-0.824
-5.000E-08,-0.824
-4.000E-08,1.248
-3.000E-08,1.280
-2.000E-08,1.280
-1.000E-08,1.280
0.000E+00,-0.272
1.000E-08,-0.824
2.000E-08,-0.824
3.000E-08,-0.824
4.000E-08,-0.408
5.000E-08,1.280
6.000E-08,1.280
7.000E-08,1.280
8.000E-08,0.480
9.000E-08,-0.816
1.000E-07,-0.824
1.100E-07,-0.824
1.200E-07,-0.520
1.300E-07,0.776
1.400E-07,1.280
1.500E-07,1.280
1.600E-07,0.728
1.700E-07,-0.464
1.800E-07,-0.816
1.900E-07,-0.824
2.000E-07,-0.672
2.100E-07,0.256
2.200E-07,1.056
2.300E-07,1.280
2.400E-07,0.760
2.500E-07,0.056
2.600E-07,-0.640
2.700E-07,-0.792
2.800E-07,-0.536
2.900E-07,0.112
3.000E-07,0.648
3.100E-07,0.872
3.200E-07,0.720
3.300E-07,0.240
3.400E-07,-0.216
3.500E-07,-0.488
3.600E-07,-0.376
3.700E-07,-0.016
3.800E-07,0.408
3.900E-07,0.624
4.000E-07,0.632
4.100E-07,0.392
4.200E-07,0.096
4.300E-07,-0.184
4.400E-07,-0.208
4.500E-07,-0.080
4.600E-07,0.192
4.700E-07,0.416
4.800E-07,0.520
4.900E-07,0.440
5.000E-07,0.224
5.100E-07,-0.008
5.200E-07,-0.168
5.300E-07,-0.128
5.400E-07,-0.176
5.500E-07,-0.104
5.600E-07,-0.208
5.700E-07,0.168
5.800E-07,0.200
5.900E-07,-0.304
6.000E-07,-0.344
6.100E-07,-0.824
6.200E-07,-0.824
6.300E-07,-0.824
6.400E-07,-0.824
6.500E-07,-0.168
6.600E-07,0.904
6.700E-07,1.280
6.800E-07,1.272
6.900E-07,0.976
7.000E-07,-0.824
7.100E-07,-0.824
7.200E-07,-0.824
7.300E-07,-0.736
7.400E-07,0.240
7.500E-07,1.280
7.600E-07,1.288
7.700E-07,1.280
7.800E-07,0.224
7.900E-07,-0.824
8.000E-07,-0.824
8.100E-07,-0.824
8.200E-07,0.064
8.300E-07,0.960
8.400E-07,1.280
8.500E-07,1.248
8.600E-07,0.448
8.700E-07,-0.536
8.800E-07,-0.824
8.900E-07,-0.816
9.000E-07,-0.472
9.100E-07,0.496
9.200E-07,0.936
9.300E-07,1.120
9.400E-07,0.592
9.500E-07,0.040
9.600E-07,-0.528
9.700E-07,-0.592
9.800E-07,-0.304
9.900E-07,0.248
1.000E-06,0.680
1.010E-06,0.840
1.020E-06,0.656
1.030E-06,0.200
1.040E-06,-0.128
1.050E-06,-0.336
1.060E-06,-0.184
1.070E-06,0.096
1.080E-06,0.440
1.090E-06,0.584
1.100E-06,0.552
1.110E-06,0.336
1.120E-06,0.048
1.130E-06,-0.096
1.140E-06,-0.128
1.150E-06,0.056
1.160E-06,0.232
1.170E-06,0.408
1.180E-06,0.408
1.190E-06,0.304
1.200E-06,0.088
1.210E-06,-0.056
1.220E-06,-0.096
1.230E-06,-0.056
1.240E-06,0.152
1.250E-06,0.344
1.260E-06,0.456
1.270E-06,0.400
1.280E-06,0.264
1.290E-06,0.064
1.300E-06,-0.056
1.310E-06,-0.104
1.320E-06,-0.048
1.330E-06,-0.016
1.340E-06,-0.016
1.350E-06,0.160
1.360E-06,0.112
1.370E-06,0.072
1.380E-06,-0.168
1.390E-06,-0.472
1.400E-06,-0.744
1.410E-06,-0.808
1.420E-06,-0.416
1.430E-06,-0.352
1.440E-06,0.144
1.450E-06,0.440
1.460E-06,0.416
1.470E-06,0.192
1.480E-06,-0.256
1.490E-06,-0.440
1.500E-06,-0.488
1.510E-06,-0.112
1.520E-06,0.064
1.530E-06,0.208
1.540E-06,0.344
1.550E-06,0.320
1.560E-06,0.312
1.570E-06,0.112
1.580E-06,0.056
1.590E-06,-0.040
1.600E-06,0.056
1.610E-06,0.232
1.620E-06,0.392
1.630E-06,0.360
1.640E-06,0.320
1.650E-06,0.168
1.660E-06,0.064
1.670E-06,-0.008
1.680E-06,0.032
1.690E-06,0.160
1.700E-06,0.272
1.710E-06,0.376
1.720E-06,0.328
1.730E-06,0.288
1.740E-06,0.144
1.750E-06,0.112
1.760E-06,0.096
1.770E-06,0.144
1.780E-06,0.200
1.790E-06,0.272
1.800E-06,0.304
1.810E-06,0.264
1.820E-06,0.224
1.830E-06,0.136
1.840E-06,0.096
1.850E-06,0.088
1.860E-06,0.128
1.870E-06,0.184
1.880E-06,0.232
1.890E-06,0.248
1.900E-06,0.224
1.910E-06,0.184
1.920E-06,0.136
1.930E-06,0.120
1.940E-06,0.120
1.950E-06,0.160
1.960E-06,0.192
1.970E-06,0.208
1.980E-06,0.200
1.990E-06,0.176
2.000E-06,0.144
2.010E-06,0.120
2.020E-06,0.136
2.030E-06,0.160
2.040E-06,0.184
2.050E-06,0.200
2.060E-06,0.208
2.070E-06,0.200
2.080E-06,0.200
2.090E-06,0.176
2.100E-06,0.168
2.110E-06,0.168
2.120E-06,0.168
2.130E-06,0.184
2.140E-06,0.184
2.150E-06,0.176
2.160E-06,0.160
2.170E-06,0.152
2.180E-06,0.168
2.190E-06,0.168
2.200E-06,0.160
2.210E-06,0.184
2.220E-06,0.176
2.230E-06,0.176
2.240E-06,0.176
2.250E-06,0.160
2.260E-06,0.160
2.270E-06,0.144
2.280E-06,0.152
2.290E-06,0.152
2.300E-06,0.160
2.310E-06,0.160
2.320E-06,0.176
2.330E-06,0.160
2.340E-06,0.168
2.350E-06,0.160
2.360E-06,0.160
2.370E-06,0.168
2.380E-06,0.176
2.390E-06,0.176
2.400E-06,0.168
2.410E-06,0.160
2.420E-06,0.160
2.430E-06,0.144
2.440E-06,0.144
2.450E-06,0.152
2.460E-06,0.144
2.470E-06,0.152
2.480E-06,0.144
2.490E-06,0.144
2.500E-06,0.152
2.510E-06,0.152
2.520E-06,0.152
2.530E-06,0.152
2.540E-06,0.152
2.550E-06,0.152
2.560E-06,0.144
2.570E-06,0.152
2.580E-06,0.152
2.590E-06,0.144
2.600E-06,0.144
2.610E-06,0.144
2.620E-06,0.144
2.630E-06,0.152
2.640E-06,0.152
2.650E-06,0.136
2.660E-06,0.136
2.670E-06,0.128
2.680E-06,0.144
2.690E-06,0.152
2.700E-06,0.144
2.710E-06,0.152
2.720E-06,0.144
2.730E-06,0.152
2.740E-06,0.136
2.750E-06,0.136
2.760E-06,0.136
2.770E-06,0.120
2.780E-06,0.136
2.790E-06,0.136
2.800E-06,0.128
2.810E-06,0.136
2.820E-06,0.152
2.830E-06,0.136
2.840E-06,0.136
2.850E-06,0.136
2.860E-06,0.128
2.870E-06,0.120
2.880E-06,0.128
2.890E-06,0.128
2.900E-06,0.128
2.910E-06,0.136
2.920E-06,0.128
2.930E-06,0.120
2.940E-06,0.128
2.950E-06,0.128
2.960E-06,0.136
2.970E-06,0.128
2.980E-06,0.128
2.990E-06,0.136
3.000E-06,0.128
3.010E-06,0.128
3.020E-06,0.120
3.030E-06,0.120
3.040E-06,0.128
3.050E-06,0.112
3.060E-06,0.120
3.070E-06,0.112
3.080E-06,0.128
3.090E-06,0.128
3.100E-06,0.136
3.110E-06,0.128
3.120E-06,0.128
3.130E-06,0.136
3.140E-06,0.128
3.150E-06,0.112
3.160E-06,0.120
3.170E-06,0.112
3.180E-06,0.128
3.190E-06,0.120
3.200E-06,0.112
3.210E-06,0.120
3.220E-06,0.128
3.230E-06,0.120
3.240E-06,0.120
3.250E-06,0.120
3.260E-06,0.112
3.270E-06,0.120
3.280E-06,0.128
3.290E-06,0.120
3.300E-06,0.112
3.310E-06,0.120
3.320E-06,0.112
3.330E-06,0.120
3.340E-06,0.112
3.350E-06,0.120
3.360E-06,0.120
3.370E-06,0.128
3.380E-06,0.112
3.390E-06,0.112
3.400E-06,0.112
3.410E-06,0.112
3.420E-06,0.112
3.430E-06,0.120
3.440E-06,0.112
3.450E-06,0.112
