mediciones/curva carac 8-28 limpias/-4/WaveData65626.csv

#timebase=2000000(ps)
,#voltbase=500000(mv/100)
#size=4000
-8.350E-06,0.040
-8.340E-06,0.060
-8.330E-06,0.040
-8.320E-06,0.000
-8.310E-06,0.020
-8.300E-06,0.020
-8.290E-06,0.020
-8.280E-06,0.040
-8.270E-06,0.020
-8.260E-06,0.020
-8.250E-06,0.040
-8.240E-06,0.040
-8.230E-06,0.060
-8.220E-06,0.040
-8.210E-06,0.060
-8.200E-06,0.060
-8.190E-06,0.040
-8.180E-06,0.040
-8.170E-06,0.060
-8.160E-06,0.040
-8.150E-06,0.040
-8.140E-06,0.080
-8.130E-06,0.040
-8.120E-06,0.020
-8.110E-06,0.060
-8.100E-06,0.020
-8.090E-06,0.080
-8.080E-06,0.040
-8.070E-06,0.020
-8.060E-06,0.020
-8.050E-06,0.040
-8.040E-06,0.040
-8.030E-06,0.080
-8.020E-06,0.040
-8.010E-06,0.040
-8.000E-06,0.040
-7.990E-06,0.020
-7.980E-06,0.060
-7.970E-06,0.020
-7.960E-06,0.060
-7.950E-06,0.040
-7.940E-06,0.020
-7.930E-06,0.040
-7.920E-06,0.060
-7.910E-06,0.040
-7.900E-06,0.060
-7.890E-06,0.060
-7.880E-06,0.000
-7.870E-06,0.040
-7.860E-06,0.060
-7.850E-06,0.060
-7.840E-06,0.040
-7.830E-06,0.020
-7.820E-06,0.040
-7.810E-06,0.060
-7.800E-06,0.060
-7.790E-06,0.020
-7.780E-06,0.060
-7.770E-06,0.020
-7.760E-06,0.020
-7.750E-06,0.040
-7.740E-06,0.080
-7.730E-06,0.040
-7.720E-06,0.020
-7.710E-06,0.020
-7.700E-06,0.000
-7.690E-06,0.040
-7.680E-06,0.060
-7.670E-06,0.040
-7.660E-06,0.060
-7.650E-06,0.040
-7.640E-06,0.040
-7.630E-06,0.040
-7.620E-06,0.020
-7.610E-06,0.040
-7.600E-06,0.040
-7.590E-06,0.020
-7.580E-06,0.020
-7.570E-06,0.060
-7.560E-06,0.020
-7.550E-06,0.040
-7.540E-06,0.060
-7.530E-06,0.020
-7.520E-06,0.020
-7.510E-06,0.080
-7.500E-06,0.020
-7.490E-06,0.040
-7.480E-06,0.060
-7.470E-06,0.060
-7.460E-06,0.040
-7.450E-06,0.040
-7.440E-06,0.080
-7.430E-06,0.060
-7.420E-06,0.020
-7.410E-06,0.060
-7.400E-06,0.080
-7.390E-06,0.040
-7.380E-06,0.060
-7.370E-06,0.060
-7.360E-06,0.040
-7.350E-06,0.020
-7.340E-06,0.020
-7.330E-06,0.040
-7.320E-06,0.040
-7.310E-06,0.060
-7.300E-06,0.040
-7.290E-06,0.020
-7.280E-06,0.040
-7.270E-06,0.020
-7.260E-06,0.040
-7.250E-06,0.020
-7.240E-06,0.060
-7.230E-06,0.060
-7.220E-06,0.040
-7.210E-06,0.040
-7.200E-06,0.020
-7.190E-06,0.040
-7.180E-06,0.020
-7.170E-06,0.060
-7.160E-06,0.020
-7.150E-06,0.040
-7.140E-06,0.020
-7.130E-06,0.080
-7.120E-06,0.040
-7.110E-06,0.020
-7.100E-06,0.040
-7.090E-06,0.060
-7.080E-06,0.040
-7.070E-06,0.060
-7.060E-06,0.060
-7.050E-06,0.080
-7.040E-06,0.020
-7.030E-06,0.060
-7.020E-06,0.020
-7.010E-06,0.040
-7.000E-06,0.020
-6.990E-06,0.020
-6.980E-06,0.040
-6.970E-06,0.040
-6.960E-06,0.040
-6.950E-06,0.060
-6.940E-06,0.020
-6.930E-06,0.080
-6.920E-06,0.080
-6.910E-06,0.060
-6.900E-06,0.040
-6.890E-06,0.060
-6.880E-06,0.060
-6.870E-06,0.060
-6.860E-06,0.040
-6.850E-06,0.060
-6.840E-06,0.060
-6.830E-06,0.060
-6.820E-06,0.020
-6.810E-06,0.020
-6.800E-06,0.040
-6.790E-06,0.060
-6.780E-06,0.060
-6.770E-06,0.040
-6.760E-06,0.020
-6.750E-06,0.040
-6.740E-06,0.040
-6.730E-06,0.020
-6.720E-06,0.060
-6.710E-06,0.080
-6.700E-06,0.020
-6.690E-06,0.000
-6.680E-06,0.040
-6.670E-06,0.020
-6.660E-06,0.040
-6.650E-06,0.020
-6.640E-06,0.040
-6.630E-06,-0.020
-6.620E-06,0.040
-6.610E-06,0.020
-6.600E-06,0.040
-6.590E-06,0.040
-6.580E-06,0.020
-6.570E-06,0.040
-6.560E-06,0.020
-6.550E-06,0.000
-6.540E-06,0.040
-6.530E-06,0.040
-6.520E-06,0.020
-6.510E-06,0.060
-6.500E-06,0.040
-6.490E-06,0.020
-6.480E-06,0.080
-6.470E-06,0.060
-6.460E-06,0.060
-6.450E-06,0.000
-6.440E-06,0.020
-6.430E-06,0.020
-6.420E-06,0.040
-6.410E-06,0.060
-6.400E-06,0.040
-6.390E-06,0.040
-6.380E-06,0.040
-6.370E-06,0.040
-6.360E-06,0.040
-6.350E-06,0.000
-6.340E-06,0.060
-6.330E-06,0.040
-6.320E-06,0.060
-6.310E-06,0.080
-6.300E-06,0.020
-6.290E-06,0.040
-6.280E-06,0.040
-6.270E-06,0.040
-6.260E-06,0.060
-6.250E-06,0.040
-6.240E-06,0.040
-6.230E-06,0.040
-6.220E-06,0.060
-6.210E-06,0.020
-6.200E-06,0.040
-6.190E-06,0.040
-6.180E-06,0.060
-6.170E-06,0.040
-6.160E-06,0.080
-6.150E-06,0.020
-6.140E-06,0.040
-6.130E-06,0.080
-6.120E-06,0.040
-6.110E-06,0.020
-6.100E-06,0.040
-6.090E-06,0.040
-6.080E-06,0.040
-6.070E-06,0.020
-6.060E-06,0.040
-6.050E-06,0.060
-6.040E-06,0.020
-6.030E-06,0.040
-6.020E-06,0.040
-6.010E-06,0.080
-6.000E-06,0.060
-5.990E-06,0.040
-5.980E-06,0.060
-5.970E-06,0.040
-5.960E-06,0.040
-5.950E-06,0.040
-5.940E-06,0.040
-5.930E-06,0.040
-5.920E-06,0.060
-5.910E-06,0.040
-5.900E-06,0.040
-5.890E-06,0.020
-5.880E-06,0.040
-5.870E-06,0.020
-5.860E-06,0.020
-5.850E-06,0.060
-5.840E-06,0.000
-5.830E-06,0.040
-5.820E-06,0.020
-5.810E-06,0.020
-5.800E-06,0.060
-5.790E-06,0.080
-5.780E-06,0.060
-5.770E-06,0.040
-5.760E-06,0.060
-5.750E-06,0.060
-5.740E-06,0.060
-5.730E-06,0.080
-5.720E-06,0.060
-5.710E-06,0.060
-5.700E-06,0.060
-5.690E-06,0.080
-5.680E-06,0.040
-5.670E-06,0.040
-5.660E-06,0.060
-5.650E-06,0.060
-5.640E-06,0.020
-5.630E-06,0.020
-5.620E-06,0.060
-5.610E-06,0.040
-5.600E-06,0.040
-5.590E-06,0.040
-5.580E-06,0.040
-5.570E-06,0.060
-5.560E-06,0.000
-5.550E-06,0.200
-5.540E-06,0.100
-5.530E-06,0.200
-5.520E-06,0.260
-5.510E-06,0.200
-5.500E-06,0.100
-5.490E-06,0.100
-5.480E-06,0.040
-5.470E-06,0.020
-5.460E-06,-0.040
-5.450E-06,0.040
-5.440E-06,0.020
-5.430E-06,-0.020
-5.420E-06,-0.020
-5.410E-06,-0.100
-5.400E-06,-0.120
-5.390E-06,-0.060
-5.380E-06,-0.020
-5.370E-06,0.000
-5.360E-06,0.000
-5.350E-06,0.060
-5.340E-06,0.020
-5.330E-06,0.040
-5.320E-06,0.020
-5.310E-06,0.040
-5.300E-06,0.040
-5.290E-06,0.080
-5.280E-06,0.120
-5.270E-06,0.140
-5.260E-06,0.140
-5.250E-06,0.140
-5.240E-06,0.140
-5.230E-06,0.080
-5.220E-06,0.120
-5.210E-06,0.060
-5.200E-06,0.060
-5.190E-06,0.040
-5.180E-06,0.020
-5.170E-06,0.040
-5.160E-06,-0.020
-5.150E-06,-0.020
-5.140E-06,-0.020
-5.130E-06,-0.040
-5.120E-06,0.000
-5.110E-06,0.020
-5.100E-06,0.020
-5.090E-06,0.020
-5.080E-06,0.080
-5.070E-06,0.080
-5.060E-06,0.060
-5.050E-06,0.040
-5.040E-06,0.060
-5.030E-06,0.060
-5.020E-06,0.060
-5.010E-06,0.080
-5.000E-06,0.040
-4.990E-06,0.000
-4.980E-06,0.020
-4.970E-06,0.020
-4.960E-06,0.020
-4.950E-06,-0.020
-4.940E-06,0.000
-4.930E-06,0.060
-4.920E-06,0.000
-4.910E-06,0.020
-4.900E-06,0.040
-4.890E-06,-0.020
-4.880E-06,0.040
-4.870E-06,0.000
-4.860E-06,0.000
-4.850E-06,0.040
-4.840E-06,0.000
-4.830E-06,0.040
-4.820E-06,0.040
-4.810E-06,0.060
-4.800E-06,0.020
-4.790E-06,0.040
-4.780E-06,0.040
-4.770E-06,0.080
-4.760E-06,0.040
-4.750E-06,0.080
-4.740E-06,0.060
-4.730E-06,0.060
-4.720E-06,0.040
-4.710E-06,0.040
-4.700E-06,0.000
-4.690E-06,0.020
-4.680E-06,0.000
-4.670E-06,-0.020
-4.660E-06,0.000
-4.650E-06,0.000
-4.640E-06,0.000
-4.630E-06,0.000
-4.620E-06,0.000
-4.610E-06,0.000
-4.600E-06,0.020
-4.590E-06,0.020
-4.580E-06,0.020
-4.570E-06,0.000
-4.560E-06,0.000
-4.550E-06,0.000
-4.540E-06,0.000
-4.530E-06,0.020
-4.520E-06,0.000
-4.510E-06,0.000
-4.500E-06,0.060
-4.490E-06,0.060
-4.480E-06,0.040
-4.470E-06,-0.020
-4.460E-06,0.000
-4.450E-06,0.020
-4.440E-06,0.040
-4.430E-06,0.020
-4.420E-06,0.000
-4.410E-06,0.060
-4.400E-06,0.000
-4.390E-06,0.000
-4.380E-06,0.040
-4.370E-06,-0.020
-4.360E-06,0.020
-4.350E-06,-0.020
-4.340E-06,0.000
-4.330E-06,0.000
-4.320E-06,0.000
-4.310E-06,0.000
-4.300E-06,0.000
-4.290E-06,0.000
-4.280E-06,0.000
-4.270E-06,0.000
-4.260E-06,0.000
-4.250E-06,-0.020
-4.240E-06,0.000
-4.230E-06,0.020
-4.220E-06,0.020
-4.210E-06,0.020
-4.200E-06,0.020
-4.190E-06,-0.020
-4.180E-06,0.000
-4.170E-06,0.000
-4.160E-06,0.000
-4.150E-06,0.000
-4.140E-06,0.020
-4.130E-06,0.020
-4.120E-06,0.000
-4.110E-06,0.000
-4.100E-06,0.020
-4.090E-06,0.000
-4.080E-06,-0.020
-4.070E-06,-0.020
-4.060E-06,-0.020
-4.050E-06,0.000
-4.040E-06,-0.020
-4.030E-06,-0.020
-4.020E-06,0.000
-4.010E-06,-0.020
-4.000E-06,-0.020
-3.990E-06,0.000
-3.980E-06,-0.020
-3.970E-06,0.000
-3.960E-06,0.000
-3.950E-06,0.000
-3.940E-06,0.020
-3.930E-06,-0.020
-3.920E-06,0.000
-3.910E-06,0.000
-3.900E-06,-0.020
-3.890E-06,-0.020
-3.880E-06,0.000
-3.870E-06,-0.020
-3.860E-06,-0.020
-3.850E-06,-0.020
-3.840E-06,-0.040
-3.830E-06,0.000
-3.820E-06,-0.020
-3.810E-06,-0.020
-3.800E-06,0.000
-3.790E-06,-0.020
-3.780E-06,-0.060
-3.770E-06,-0.080
-3.760E-06,-0.040
-3.750E-06,-0.040
-3.740E-06,-0.040
-3.730E-06,-0.040
-3.720E-06,-0.020
-3.710E-06,0.000
-3.700E-06,-0.020
-3.690E-06,0.000
-3.680E-06,0.000
-3.670E-06,0.060
-3.660E-06,0.020
-3.650E-06,-0.020
-3.640E-06,0.020
-3.630E-06,-0.020
-3.620E-06,0.000
-3.610E-06,0.000
-3.600E-06,0.000
-3.590E-06,-0.020
-3.580E-06,-0.020
-3.570E-06,-0.060
-3.560E-06,-0.020
-3.550E-06,-0.100
-3.540E-06,-0.080
-3.530E-06,-0.080
-3.520E-06,-0.040
-3.510E-06,-0.060
-3.500E-06,-0.120
-3.490E-06,-0.120
-3.480E-06,-0.180
-3.470E-06,-0.180
-3.460E-06,-0.160
-3.450E-06,-0.160
-3.440E-06,-0.120
-3.430E-06,-0.140
-3.420E-06,-0.120
-3.410E-06,-0.120
-3.400E-06,-0.120
-3.390E-06,-0.180
-3.380E-06,-0.200
-3.370E-06,-0.200
-3.360E-06,-0.200
-3.350E-06,-0.160
-3.340E-06,-0.140
-3.330E-06,-0.160
-3.320E-06,-0.140
-3.310E-06,-0.120
-3.300E-06,-0.140
-3.290E-06,-0.160
-3.280E-06,-0.180
-3.270E-06,-0.160
-3.260E-06,-0.160
-3.250E-06,-0.140
-3.240E-06,-0.140
-3.230E-06,-0.120
-3.220E-06,-0.180
-3.210E-06,-0.140
-3.200E-06,-0.100
-3.190E-06,-0.100
-3.180E-06,-0.100
-3.170E-06,-0.080
-3.160E-06,-0.100
-3.150E-06,-0.080
-3.140E-06,-0.080
-3.130E-06,-0.060
-3.120E-06,-0.060
-3.110E-06,-0.040
-3.100E-06,0.000
-3.090E-06,-0.040
-3.080E-06,0.000
-3.070E-06,-0.020
-3.060E-06,0.000
-3.050E-06,-0.020
-3.040E-06,-0.100
-3.030E-06,-0.120
-3.020E-06,-0.120
-3.010E-06,-0.120
-3.000E-06,-0.120
-2.990E-06,-0.100
-2.980E-06,-0.120
-2.970E-06,-0.120
-2.960E-06,-0.140
-2.950E-06,-0.160
-2.940E-06,-0.180
-2.930E-06,-0.160
-2.920E-06,-0.140
-2.910E-06,-0.140
-2.900E-06,-0.140
-2.890E-06,-0.160
-2.880E-06,-0.160
-2.870E-06,-0.160
-2.860E-06,-0.120
-2.850E-06,-0.120
-2.840E-06,-0.120
-2.830E-06,-0.120
-2.820E-06,-0.060
-2.810E-06,-0.040
-2.800E-06,-0.020
-2.790E-06,0.000
-2.780E-06,-0.020
-2.770E-06,-0.100
-2.760E-06,-0.120
-2.750E-06,-0.100
-2.740E-06,-0.120
-2.730E-06,-0.140
-2.720E-06,-0.180
-2.710E-06,-0.160
-2.700E-06,-0.200
-2.690E-06,-0.200
-2.680E-06,-0.200
-2.670E-06,-0.200
-2.660E-06,-0.240
-2.650E-06,-0.180
-2.640E-06,-0.180
-2.630E-06,-0.120
-2.620E-06,-0.080
-2.610E-06,-0.060
-2.600E-06,-0.060
-2.590E-06,0.060
-2.580E-06,0.040
-2.570E-06,0.080
-2.560E-06,0.000
-2.550E-06,-0.020
-2.540E-06,-0.140
-2.530E-06,-0.180
-2.520E-06,-0.240
-2.510E-06,-0.260
-2.500E-06,-0.220
-2.490E-06,-0.220
-2.480E-06,-0.220
-2.470E-06,-0.240
-2.460E-06,-0.360
-2.450E-06,-0.420
-2.440E-06,-0.520
-2.430E-06,-0.460
-2.420E-06,-0.460
-2.410E-06,-0.420
-2.400E-06,-0.360
-2.390E-06,-0.320
-2.380E-06,-0.300
-2.370E-06,-0.300
-2.360E-06,-0.360
-2.350E-06,-0.340
-2.340E-06,-0.320
-2.330E-06,-0.300
-2.320E-06,-0.240
-2.310E-06,-0.260
-2.300E-06,-0.260
-2.290E-06,-0.240
-2.280E-06,-0.280
-2.270E-06,-0.280
-2.260E-06,-0.320
-2.250E-06,-0.300
-2.240E-06,-0.260
-2.230E-06,-0.280
-2.220E-06,-0.440
-2.210E-06,-0.400
-2.200E-06,-0.440
-2.190E-06,-0.460
-2.180E-06,-0.440
-2.170E-06,-0.320
-2.160E-06,-0.340
-2.150E-06,-0.200
-2.140E-06,-0.140
-2.130E-06,-0.200
-2.120E-06,-0.020
-2.110E-06,-0.080
-2.100E-06,0.000
-2.090E-06,0.020
-2.080E-06,-0.080
-2.070E-06,-0.140
-2.060E-06,-0.220
-2.050E-06,-0.360
-2.040E-06,-0.300
-2.030E-06,-0.260
-2.020E-06,-0.300
-2.010E-06,-0.360
-2.000E-06,-0.540
-1.990E-06,-0.720
-1.980E-06,-0.700
-1.970E-06,-0.760
-1.960E-06,-0.620
-1.950E-06,-0.380
-1.940E-06,-0.260
-1.930E-06,-0.120
-1.920E-06,-0.140
-1.910E-06,-0.120
-1.900E-06,-0.160
-1.890E-06,-0.100
-1.880E-06,0.000
-1.870E-06,0.080
-1.860E-06,0.120
-1.850E-06,0.300
-1.840E-06,0.140
-1.830E-06,-0.120
-1.820E-06,-0.200
-1.810E-06,-0.260
-1.800E-06,-0.320
-1.790E-06,-0.360
-1.780E-06,-0.460
-1.770E-06,-0.480
-1.760E-06,-0.620
-1.750E-06,-0.680
-1.740E-06,-0.740
-1.730E-06,-0.720
-1.720E-06,-0.760
-1.710E-06,-0.780
-1.700E-06,-0.780
-1.690E-06,-0.820
-1.680E-06,-0.960
-1.670E-06,-0.760
-1.660E-06,-0.580
-1.650E-06,-0.460
-1.640E-06,-0.200
-1.630E-06,-0.180
-1.620E-06,-0.100
-1.610E-06,-0.140
-1.600E-06,-0.200
-1.590E-06,-0.160
-1.580E-06,-0.220
-1.570E-06,-0.260
-1.560E-06,-0.300
-1.550E-06,-0.460
-1.540E-06,-0.520
-1.530E-06,-0.500
-1.520E-06,-0.520
-1.510E-06,-0.500
-1.500E-06,-0.480
-1.490E-06,-0.460
-1.480E-06,-0.440
-1.470E-06,-0.500
-1.460E-06,-0.460
-1.450E-06,-0.460
-1.440E-06,-0.480
-1.430E-06,-0.360
-1.420E-06,-0.360
-1.410E-06,-0.280
-1.400E-06,-0.200
-1.390E-06,-0.120
-1.380E-06,-0.080
-1.370E-06,-0.080
-1.360E-06,-0.020
-1.350E-06,-0.020
-1.340E-06,-0.020
-1.330E-06,0.020
-1.320E-06,0.080
-1.310E-06,0.040
-1.300E-06,0.180
-1.290E-06,0.060
-1.280E-06,-0.040
-1.270E-06,-0.040
-1.260E-06,-0.120
-1.250E-06,-0.300
-1.240E-06,-0.460
-1.230E-06,-0.760
-1.220E-06,-0.840
-1.210E-06,-1.080
-1.200E-06,-1.280
-1.190E-06,-1.300
-1.180E-06,-1.440
-1.170E-06,-1.440
-1.160E-06,-1.600
-1.150E-06,-1.540
-1.140E-06,-1.260
-1.130E-06,-1.280
-1.120E-06,-1.220
-1.110E-06,-1.120
-1.100E-06,-1.060
-1.090E-06,-0.920
-1.080E-06,-0.980
-1.070E-06,-0.920
-1.060E-06,-0.960
-1.050E-06,-1.040
-1.040E-06,-1.080
-1.030E-06,-1.060
-1.020E-06,-1.080
-1.010E-06,-1.100
-1.000E-06,-1.080
-9.900E-07,-1.020
-9.800E-07,-0.860
-9.700E-07,-0.800
-9.600E-07,-0.680
-9.500E-07,-0.720
-9.400E-07,-0.720
-9.300E-07,-0.520
-9.200E-07,-0.540
-9.100E-07,-0.540
-9.000E-07,-0.460
-8.900E-07,-0.400
-8.800E-07,-0.280
-8.700E-07,-0.360
-8.600E-07,-0.200
-8.500E-07,-0.180
-8.400E-07,-0.060
-8.300E-07,-0.260
-8.200E-07,-0.140
-8.100E-07,-0.400
-8.000E-07,-0.500
-7.900E-07,-0.840
-7.800E-07,-0.840
-7.700E-07,-2.020
-7.600E-07,-2.340
-7.500E-07,-3.020
-7.400E-07,-3.020
-7.300E-07,-3.260
-7.200E-07,-3.140
-7.100E-07,-3.000
-7.000E-07,-2.760
-6.900E-07,-2.560
-6.800E-07,-2.540
-6.700E-07,-2.540
-6.600E-07,-2.440
-6.500E-07,-2.380
-6.400E-07,-2.180
-6.300E-07,-2.160
-6.200E-07,-1.960
-6.100E-07,-1.860
-6.000E-07,-1.600
-5.900E-07,-1.480
-5.800E-07,-1.320
-5.700E-07,-1.260
-5.600E-07,-1.080
-5.500E-07,-0.980
-5.400E-07,-0.860
-5.300E-07,-0.760
-5.200E-07,-0.660
-5.100E-07,-0.520
-5.000E-07,-0.480
-4.900E-07,-0.600
-4.800E-07,-0.840
-4.700E-07,-1.020
-4.600E-07,-1.180
-4.500E-07,-1.180
-4.400E-07,-1.180
-4.300E-07,-1.120
-4.200E-07,-1.060
-4.100E-07,-1.060
-4.000E-07,-1.060
-3.900E-07,-1.100
-3.800E-07,-1.100
-3.700E-07,-1.080
-3.600E-07,-1.020
-3.500E-07,-1.160
-3.400E-07,-1.260
-3.300E-07,-1.320
-3.200E-07,-1.440
-3.100E-07,-1.560
-3.000E-07,-1.760
-2.900E-07,-2.200
-2.800E-07,-2.560
-2.700E-07,-3.100
-2.600E-07,-3.340
-2.500E-07,-3.340
-2.400E-07,-3.340
-2.300E-07,-3.340
-2.200E-07,-3.340
-2.100E-07,-3.340
-2.000E-07,-3.360
-1.900E-07,-3.340
-1.800E-07,-3.340
-1.700E-07,-3.340
-1.600E-07,-3.340
-1.500E-07,-3.340
-1.400E-07,-3.340
-1.300E-07,-3.340
-1.200E-07,-3.340
-1.100E-07,-3.340
-1.000E-07,-3.340
-9.000E-08,-3.340
-8.000E-08,-3.340
-7.000E-08,-3.340
-6.000E-08,-3.340
-5.000E-08,-3.340
-4.000E-08,-3.340
-3.000E-08,-3.340
-2.000E-08,-3.340
-1.000E-08,-3.340
0.000E+00,-3.340
1.000E-08,-3.300
2.000E-08,-3.040
3.000E-08,-2.940
4.000E-08,-2.900
5.000E-08,-2.720
6.000E-08,-2.360
7.000E-08,-2.080
8.000E-08,-1.680
9.000E-08,-1.400
1.000E-07,-1.260
1.100E-07,-1.160
1.200E-07,-1.200
1.300E-07,-1.220
1.400E-07,-1.300
1.500E-07,-1.280
1.600E-07,-1.380
1.700E-07,-1.440
1.800E-07,-1.520
1.900E-07,-1.540
2.000E-07,-1.480
2.100E-07,-1.400
2.200E-07,-1.360
2.300E-07,-1.240
2.400E-07,-1.100
2.500E-07,-1.020
2.600E-07,-0.860
2.700E-07,-0.700
2.800E-07,-0.500
2.900E-07,-0.380
3.000E-07,-0.300
3.100E-07,-0.180
3.200E-07,-0.140
3.300E-07,-0.100
3.400E-07,-0.160
3.500E-07,-0.200
3.600E-07,-0.240
3.700E-07,-0.260
3.800E-07,-0.260
3.900E-07,-0.340
4.000E-07,-0.500
4.100E-07,-0.520
4.200E-07,-0.660
4.300E-07,-0.680
4.400E-07,-0.680
4.500E-07,-0.700
4.600E-07,-0.660
4.700E-07,-0.600
4.800E-07,-0.520
4.900E-07,-0.500
5.000E-07,-0.460
5.100E-07,-0.380
5.200E-07,-0.340
5.300E-07,-0.300
5.400E-07,-0.420
5.500E-07,-0.480
5.600E-07,-0.500
5.700E-07,-0.480
5.800E-07,-0.400
5.900E-07,-0.360
6.000E-07,-0.340
6.100E-07,-0.360
6.200E-07,-0.300
6.300E-07,-0.260
6.400E-07,-0.240
6.500E-07,-0.200
6.600E-07,-0.200
6.700E-07,-0.160
6.800E-07,-0.060
6.900E-07,-0.060
7.000E-07,0.040
7.100E-07,0.100
7.200E-07,0.160
7.300E-07,0.200
7.400E-07,0.240
7.500E-07,0.180
7.600E-07,0.220
7.700E-07,0.240
7.800E-07,0.340
7.900E-07,0.320
8.000E-07,0.320
8.100E-07,0.220
8.200E-07,0.200
8.300E-07,0.240
8.400E-07,0.240
8.500E-07,0.280
8.600E-07,0.300
8.700E-07,0.300
8.800E-07,0.340
8.900E-07,0.300
9.000E-07,0.200
9.100E-07,0.260
9.200E-07,0.180
9.300E-07,0.360
9.400E-07,0.340
9.500E-07,0.320
9.600E-07,0.240
9.700E-07,0.340
9.800E-07,0.300
9.900E-07,0.340
1.000E-06,0.300
1.010E-06,0.320
1.020E-06,0.340
1.030E-06,0.260
1.040E-06,0.260
1.050E-06,0.280
1.060E-06,0.300
1.070E-06,0.320
1.080E-06,0.340
1.090E-06,0.320
1.100E-06,0.340
1.110E-06,0.260
1.120E-06,0.260
1.130E-06,0.200
1.140E-06,0.200
1.150E-06,0.180
1.160E-06,0.240
1.170E-06,0.220
1.180E-06,0.200
1.190E-06,0.160
1.200E-06,0.240
1.210E-06,0.240
1.220E-06,0.280
1.230E-06,0.260
1.240E-06,0.340
1.250E-06,0.420
1.260E-06,0.400
1.270E-06,0.440
1.280E-06,0.420
1.290E-06,0.420
1.300E-06,0.420
1.310E-06,0.420
1.320E-06,0.400
1.330E-06,0.420
1.340E-06,0.440
1.350E-06,0.460
1.360E-06,0.460
1.370E-06,0.480
1.380E-06,0.440
1.390E-06,0.480
1.400E-06,0.480
1.410E-06,0.520
1.420E-06,0.520
1.430E-06,0.560
1.440E-06,0.540
1.450E-06,0.560
1.460E-06,0.580
1.470E-06,0.480
1.480E-06,0.540
1.490E-06,0.560
1.500E-06,0.640
1.510E-06,0.520
1.520E-06,0.600
1.530E-06,0.500
1.540E-06,0.560
1.550E-06,0.460
1.560E-06,0.600
1.570E-06,0.600
1.580E-06,0.660
1.590E-06,0.700
1.600E-06,0.740
1.610E-06,0.760
1.620E-06,0.740
1.630E-06,0.680
1.640E-06,0.580
1.650E-06,0.500
1.660E-06,0.420
1.670E-06,0.340
1.680E-06,0.320
1.690E-06,0.300
1.700E-06,0.260
1.710E-06,0.160
1.720E-06,0.200
1.730E-06,0.120
1.740E-06,0.140
1.750E-06,0.180
1.760E-06,0.140
1.770E-06,0.240
1.780E-06,0.240
1.790E-06,0.300
1.800E-06,0.260
1.810E-06,0.320
1.820E-06,0.320
1.830E-06,0.320
1.840E-06,0.280
1.850E-06,0.220
1.860E-06,0.180
1.870E-06,0.180
1.880E-06,0.100
1.890E-06,0.040
1.900E-06,-0.020
1.910E-06,-0.020
1.920E-06,-0.080
1.930E-06,-0.100
1.940E-06,-0.120
1.950E-06,-0.120
1.960E-06,-0.080
1.970E-06,-0.060
1.980E-06,-0.020
1.990E-06,-0.020
2.000E-06,0.060
2.010E-06,0.180
2.020E-06,0.240
2.030E-06,0.400
2.040E-06,0.460
2.050E-06,0.640
2.060E-06,0.740
2.070E-06,0.860
2.080E-06,1.020
2.090E-06,1.100
2.100E-06,1.160
2.110E-06,1.260
2.120E-06,1.280
2.130E-06,1.300
2.140E-06,1.260
2.150E-06,1.220
2.160E-06,1.180
2.170E-06,1.140
2.180E-06,1.080
2.190E-06,0.980
2.200E-06,0.940
2.210E-06,0.880
2.220E-06,0.800
2.230E-06,0.740
2.240E-06,0.660
2.250E-06,0.600
2.260E-06,0.500
2.270E-06,0.400
2.280E-06,0.280
2.290E-06,0.220
2.300E-06,0.100
2.310E-06,0.060
2.320E-06,-0.020
2.330E-06,-0.080
2.340E-06,-0.100
2.350E-06,-0.180
2.360E-06,-0.180
2.370E-06,-0.160
2.380E-06,-0.160
2.390E-06,-0.140
2.400E-06,-0.200
2.410E-06,-0.380
2.420E-06,-0.340
2.430E-06,-0.440
2.440E-06,-0.280
2.450E-06,-0.320
2.460E-06,-0.200
2.470E-06,-0.140
2.480E-06,0.040
2.490E-06,0.240
2.500E-06,0.380
2.510E-06,0.580
2.520E-06,0.680
2.530E-06,0.880
2.540E-06,0.960
2.550E-06,1.040
2.560E-06,1.080
2.570E-06,1.060
2.580E-06,1.020
2.590E-06,0.960
2.600E-06,0.920
2.610E-06,0.900
2.620E-06,0.820
2.630E-06,0.780
2.640E-06,0.640
2.650E-06,0.580
2.660E-06,0.520
2.670E-06,0.440
2.680E-06,0.380
2.690E-06,0.400
2.700E-06,0.480
2.710E-06,0.500
2.720E-06,0.420
2.730E-06,0.480
2.740E-06,0.400
2.750E-06,0.420
2.760E-06,0.340
2.770E-06,0.300
2.780E-06,0.240
2.790E-06,0.180
2.800E-06,0.140
2.810E-06,0.060
2.820E-06,0.080
2.830E-06,0.100
2.840E-06,0.160
2.850E-06,0.220
2.860E-06,0.300
2.870E-06,0.340
2.880E-06,0.460
2.890E-06,0.500
2.900E-06,0.500
2.910E-06,0.500
2.920E-06,0.500
2.930E-06,0.500
2.940E-06,0.540
2.950E-06,0.560
2.960E-06,0.640
2.970E-06,0.740
2.980E-06,0.800
2.990E-06,0.880
3.000E-06,0.940
3.010E-06,1.020
3.020E-06,1.040
3.030E-06,1.100
3.040E-06,1.100
3.050E-06,1.020
3.060E-06,0.980
3.070E-06,0.860
3.080E-06,0.800
3.090E-06,0.720
3.100E-06,0.660
3.110E-06,0.580
3.120E-06,0.580
3.130E-06,0.520
3.140E-06,0.420
3.150E-06,0.400
3.160E-06,0.340
3.170E-06,0.300
3.180E-06,0.280
3.190E-06,0.260
3.200E-06,0.200
3.210E-06,0.220
3.220E-06,0.200
3.230E-06,0.200
3.240E-06,0.240
3.250E-06,0.280
3.260E-06,0.360
3.270E-06,0.440
