mediciones/8-28/-4/WaveData65634.csv

#timebase=2000000(ps)
,#voltbase=500000(mv/100)
#size=4000
-8.350E-06,0.040
-8.340E-06,0.020
-8.330E-06,0.040
-8.320E-06,0.020
-8.310E-06,0.060
-8.300E-06,0.020
-8.290E-06,0.020
-8.280E-06,0.020
-8.270E-06,0.000
-8.260E-06,0.040
-8.250E-06,0.020
-8.240E-06,0.040
-8.230E-06,0.020
-8.220E-06,0.040
-8.210E-06,0.020
-8.200E-06,0.040
-8.190E-06,0.040
-8.180E-06,0.080
-8.170E-06,0.040
-8.160E-06,0.020
-8.150E-06,0.060
-8.140E-06,0.060
-8.130E-06,0.060
-8.120E-06,0.040
-8.110E-06,0.040
-8.100E-06,0.080
-8.090E-06,0.040
-8.080E-06,0.080
-8.070E-06,0.040
-8.060E-06,0.020
-8.050E-06,0.040
-8.040E-06,0.020
-8.030E-06,0.040
-8.020E-06,0.060
-8.010E-06,0.060
-8.000E-06,0.020
-7.990E-06,0.040
-7.980E-06,0.060
-7.970E-06,0.020
-7.960E-06,0.040
-7.950E-06,0.060
-7.940E-06,0.060
-7.930E-06,0.040
-7.920E-06,0.060
-7.910E-06,0.020
-7.900E-06,0.060
-7.890E-06,0.040
-7.880E-06,0.060
-7.870E-06,0.080
-7.860E-06,0.020
-7.850E-06,0.000
-7.840E-06,0.040
-7.830E-06,0.020
-7.820E-06,0.040
-7.810E-06,0.040
-7.800E-06,0.080
-7.790E-06,0.040
-7.780E-06,0.040
-7.770E-06,0.060
-7.760E-06,0.060
-7.750E-06,0.040
-7.740E-06,0.040
-7.730E-06,0.080
-7.720E-06,0.060
-7.710E-06,0.040
-7.700E-06,0.060
-7.690E-06,0.020
-7.680E-06,0.040
-7.670E-06,0.080
-7.660E-06,0.020
-7.650E-06,0.060
-7.640E-06,0.080
-7.630E-06,0.080
-7.620E-06,0.060
-7.610E-06,0.020
-7.600E-06,0.020
-7.590E-06,0.060
-7.580E-06,0.040
-7.570E-06,0.040
-7.560E-06,0.060
-7.550E-06,0.040
-7.540E-06,0.020
-7.530E-06,0.020
-7.520E-06,0.060
-7.510E-06,0.040
-7.500E-06,0.020
-7.490E-06,0.060
-7.480E-06,0.040
-7.470E-06,0.040
-7.460E-06,0.040
-7.450E-06,0.080
-7.440E-06,0.060
-7.430E-06,0.020
-7.420E-06,0.060
-7.410E-06,0.000
-7.400E-06,0.060
-7.390E-06,0.060
-7.380E-06,0.060
-7.370E-06,0.020
-7.360E-06,0.060
-7.350E-06,0.020
-7.340E-06,0.060
-7.330E-06,0.040
-7.320E-06,0.040
-7.310E-06,0.060
-7.300E-06,0.060
-7.290E-06,0.060
-7.280E-06,0.080
-7.270E-06,0.040
-7.260E-06,0.040
-7.250E-06,0.040
-7.240E-06,0.080
-7.230E-06,0.040
-7.220E-06,0.020
-7.210E-06,0.000
-7.200E-06,0.060
-7.190E-06,0.060
-7.180E-06,0.040
-7.170E-06,0.040
-7.160E-06,0.020
-7.150E-06,0.060
-7.140E-06,0.040
-7.130E-06,0.060
-7.120E-06,0.040
-7.110E-06,0.060
-7.100E-06,0.040
-7.090E-06,0.020
-7.080E-06,0.080
-7.070E-06,0.060
-7.060E-06,0.040
-7.050E-06,0.060
-7.040E-06,0.060
-7.030E-06,0.040
-7.020E-06,0.060
-7.010E-06,0.040
-7.000E-06,0.060
-6.990E-06,0.080
-6.980E-06,0.060
-6.970E-06,0.040
-6.960E-06,0.040
-6.950E-06,0.040
-6.940E-06,0.040
-6.930E-06,0.080
-6.920E-06,0.040
-6.910E-06,0.020
-6.900E-06,0.020
-6.890E-06,0.060
-6.880E-06,0.020
-6.870E-06,0.040
-6.860E-06,-0.020
-6.850E-06,0.020
-6.840E-06,0.020
-6.830E-06,0.020
-6.820E-06,0.040
-6.810E-06,0.040
-6.800E-06,0.080
-6.790E-06,0.040
-6.780E-06,0.080
-6.770E-06,0.060
-6.760E-06,0.080
-6.750E-06,0.080
-6.740E-06,0.040
-6.730E-06,0.040
-6.720E-06,0.060
-6.710E-06,0.060
-6.700E-06,0.060
-6.690E-06,0.040
-6.680E-06,0.040
-6.670E-06,0.020
-6.660E-06,0.080
-6.650E-06,0.040
-6.640E-06,0.000
-6.630E-06,0.040
-6.620E-06,0.060
-6.610E-06,0.020
-6.600E-06,0.060
-6.590E-06,0.040
-6.580E-06,0.060
-6.570E-06,0.020
-6.560E-06,0.000
-6.550E-06,0.040
-6.540E-06,0.040
-6.530E-06,0.020
-6.520E-06,0.040
-6.510E-06,0.020
-6.500E-06,0.040
-6.490E-06,0.060
-6.480E-06,0.040
-6.470E-06,0.020
-6.460E-06,0.020
-6.450E-06,0.040
-6.440E-06,0.000
-6.430E-06,0.040
-6.420E-06,0.060
-6.410E-06,0.060
-6.400E-06,0.000
-6.390E-06,0.020
-6.380E-06,0.040
-6.370E-06,0.040
-6.360E-06,0.040
-6.350E-06,0.060
-6.340E-06,0.060
-6.330E-06,0.080
-6.320E-06,0.060
-6.310E-06,0.020
-6.300E-06,0.060
-6.290E-06,0.040
-6.280E-06,0.060
-6.270E-06,0.060
-6.260E-06,0.040
-6.250E-06,0.040
-6.240E-06,0.060
-6.230E-06,0.060
-6.220E-06,0.020
-6.210E-06,0.020
-6.200E-06,0.040
-6.190E-06,0.020
-6.180E-06,0.020
-6.170E-06,0.040
-6.160E-06,0.060
-6.150E-06,0.040
-6.140E-06,0.040
-6.130E-06,0.040
-6.120E-06,0.040
-6.110E-06,0.040
-6.100E-06,0.060
-6.090E-06,0.060
-6.080E-06,0.060
-6.070E-06,0.040
-6.060E-06,0.020
-6.050E-06,0.060
-6.040E-06,0.020
-6.030E-06,0.040
-6.020E-06,0.060
-6.010E-06,0.060
-6.000E-06,0.020
-5.990E-06,0.060
-5.980E-06,0.060
-5.970E-06,0.060
-5.960E-06,0.060
-5.950E-06,0.040
-5.940E-06,0.040
-5.930E-06,0.060
-5.920E-06,0.040
-5.910E-06,0.020
-5.900E-06,0.020
-5.890E-06,0.040
-5.880E-06,0.060
-5.870E-06,0.080
-5.860E-06,0.060
-5.850E-06,0.000
-5.840E-06,0.060
-5.830E-06,0.080
-5.820E-06,0.040
-5.810E-06,0.000
-5.800E-06,0.020
-5.790E-06,0.060
-5.780E-06,0.020
-5.770E-06,0.020
-5.760E-06,0.020
-5.750E-06,0.000
-5.740E-06,0.060
-5.730E-06,0.060
-5.720E-06,0.080
-5.710E-06,0.020
-5.700E-06,0.040
-5.690E-06,0.080
-5.680E-06,0.020
-5.670E-06,0.040
-5.660E-06,0.040
-5.650E-06,0.080
-5.640E-06,0.020
-5.630E-06,0.060
-5.620E-06,0.020
-5.610E-06,0.040
-5.600E-06,0.040
-5.590E-06,0.060
-5.580E-06,0.040
-5.570E-06,0.060
-5.560E-06,0.040
-5.550E-06,0.020
-5.540E-06,0.040
-5.530E-06,0.020
-5.520E-06,0.000
-5.510E-06,0.060
-5.500E-06,0.040
-5.490E-06,0.040
-5.480E-06,0.020
-5.470E-06,0.040
-5.460E-06,0.060
-5.450E-06,0.040
-5.440E-06,0.060
-5.430E-06,0.060
-5.420E-06,0.020
-5.410E-06,0.000
-5.400E-06,0.040
-5.390E-06,0.080
-5.380E-06,0.060
-5.370E-06,0.020
-5.360E-06,0.040
-5.350E-06,0.060
-5.340E-06,0.060
-5.330E-06,0.060
-5.320E-06,0.060
-5.310E-06,0.060
-5.300E-06,0.040
-5.290E-06,0.040
-5.280E-06,0.040
-5.270E-06,0.060
-5.260E-06,0.040
-5.250E-06,0.080
-5.240E-06,0.000
-5.230E-06,0.020
-5.220E-06,0.060
-5.210E-06,0.040
-5.200E-06,0.020
-5.190E-06,0.040
-5.180E-06,0.060
-5.170E-06,0.020
-5.160E-06,0.040
-5.150E-06,0.040
-5.140E-06,0.060
-5.130E-06,0.040
-5.120E-06,0.020
-5.110E-06,0.040
-5.100E-06,0.020
-5.090E-06,0.020
-5.080E-06,0.040
-5.070E-06,0.040
-5.060E-06,0.060
-5.050E-06,0.060
-5.040E-06,0.060
-5.030E-06,0.060
-5.020E-06,0.040
-5.010E-06,0.040
-5.000E-06,0.020
-4.990E-06,0.080
-4.980E-06,0.060
-4.970E-06,0.060
-4.960E-06,0.080
-4.950E-06,0.040
-4.940E-06,0.040
-4.930E-06,0.060
-4.920E-06,0.040
-4.910E-06,0.040
-4.900E-06,0.000
-4.890E-06,0.040
-4.880E-06,0.040
-4.870E-06,0.060
-4.860E-06,0.020
-4.850E-06,0.020
-4.840E-06,0.020
-4.830E-06,0.020
-4.820E-06,0.040
-4.810E-06,0.020
-4.800E-06,0.060
-4.790E-06,0.080
-4.780E-06,0.040
-4.770E-06,0.080
-4.760E-06,0.040
-4.750E-06,0.080
-4.740E-06,0.020
-4.730E-06,0.000
-4.720E-06,0.060
-4.710E-06,0.080
-4.700E-06,0.040
-4.690E-06,0.080
-4.680E-06,0.020
-4.670E-06,0.040
-4.660E-06,0.060
-4.650E-06,0.060
-4.640E-06,0.060
-4.630E-06,0.040
-4.620E-06,0.020
-4.610E-06,0.000
-4.600E-06,0.000
-4.590E-06,0.020
-4.580E-06,0.020
-4.570E-06,0.040
-4.560E-06,0.080
-4.550E-06,0.060
-4.540E-06,0.020
-4.530E-06,0.020
-4.520E-06,0.020
-4.510E-06,0.020
-4.500E-06,0.040
-4.490E-06,0.060
-4.480E-06,0.020
-4.470E-06,0.040
-4.460E-06,0.040
-4.450E-06,0.060
-4.440E-06,0.020
-4.430E-06,0.040
-4.420E-06,0.060
-4.410E-06,0.060
-4.400E-06,0.040
-4.390E-06,0.040
-4.380E-06,0.040
-4.370E-06,0.020
-4.360E-06,0.040
-4.350E-06,0.020
-4.340E-06,0.040
-4.330E-06,0.080
-4.320E-06,0.060
-4.310E-06,0.080
-4.300E-06,0.060
-4.290E-06,0.080
-4.280E-06,0.040
-4.270E-06,0.020
-4.260E-06,0.060
-4.250E-06,0.040
-4.240E-06,0.040
-4.230E-06,0.060
-4.220E-06,0.060
-4.210E-06,0.040
-4.200E-06,0.060
-4.190E-06,0.060
-4.180E-06,0.020
-4.170E-06,0.080
-4.160E-06,0.040
-4.150E-06,0.040
-4.140E-06,0.040
-4.130E-06,0.020
-4.120E-06,0.080
-4.110E-06,0.020
-4.100E-06,0.060
-4.090E-06,0.020
-4.080E-06,0.000
-4.070E-06,0.040
-4.060E-06,0.040
-4.050E-06,0.040
-4.040E-06,0.060
-4.030E-06,0.060
-4.020E-06,0.040
-4.010E-06,0.040
-4.000E-06,0.080
-3.990E-06,0.020
-3.980E-06,0.060
-3.970E-06,0.040
-3.960E-06,0.040
-3.950E-06,0.080
-3.940E-06,0.040
-3.930E-06,0.020
-3.920E-06,0.040
-3.910E-06,0.020
-3.900E-06,0.000
-3.890E-06,0.040
-3.880E-06,0.040
-3.870E-06,0.040
-3.860E-06,0.060
-3.850E-06,0.040
-3.840E-06,0.040
-3.830E-06,0.060
-3.820E-06,0.020
-3.810E-06,0.060
-3.800E-06,0.060
-3.790E-06,0.060
-3.780E-06,0.020
-3.770E-06,0.040
-3.760E-06,0.060
-3.750E-06,0.000
-3.740E-06,0.040
-3.730E-06,0.060
-3.720E-06,0.020
-3.710E-06,0.020
-3.700E-06,0.040
-3.690E-06,0.060
-3.680E-06,0.060
-3.670E-06,0.060
-3.660E-06,0.020
-3.650E-06,0.060
-3.640E-06,0.060
-3.630E-06,0.020
-3.620E-06,0.020
-3.610E-06,0.040
-3.600E-06,0.040
-3.590E-06,0.060
-3.580E-06,0.080
-3.570E-06,0.000
-3.560E-06,0.020
-3.550E-06,0.040
-3.540E-06,0.060
-3.530E-06,0.080
-3.520E-06,0.000
-3.510E-06,0.020
-3.500E-06,0.060
-3.490E-06,0.060
-3.480E-06,0.020
-3.470E-06,0.040
-3.460E-06,0.060
-3.450E-06,0.040
-3.440E-06,0.060
-3.430E-06,0.040
-3.420E-06,0.000
-3.410E-06,0.060
-3.400E-06,0.060
-3.390E-06,0.040
-3.380E-06,0.060
-3.370E-06,0.060
-3.360E-06,0.080
-3.350E-06,0.060
-3.340E-06,0.000
-3.330E-06,0.020
-3.320E-06,0.020
-3.310E-06,0.040
-3.300E-06,0.040
-3.290E-06,0.040
-3.280E-06,0.020
-3.270E-06,0.080
-3.260E-06,0.040
-3.250E-06,0.060
-3.240E-06,0.020
-3.230E-06,0.000
-3.220E-06,0.060
-3.210E-06,0.040
-3.200E-06,0.080
-3.190E-06,0.040
-3.180E-06,0.000
-3.170E-06,0.060
-3.160E-06,0.000
-3.150E-06,0.060
-3.140E-06,0.060
-3.130E-06,0.060
-3.120E-06,0.080
-3.110E-06,0.040
-3.100E-06,0.040
-3.090E-06,0.020
-3.080E-06,0.060
-3.070E-06,0.000
-3.060E-06,0.040
-3.050E-06,0.020
-3.040E-06,0.020
-3.030E-06,0.080
-3.020E-06,0.060
-3.010E-06,0.020
-3.000E-06,0.040
-2.990E-06,0.080
-2.980E-06,0.020
-2.970E-06,0.060
-2.960E-06,0.060
-2.950E-06,0.040
-2.940E-06,0.020
-2.930E-06,0.040
-2.920E-06,0.020
-2.910E-06,0.040
-2.900E-06,0.040
-2.890E-06,0.020
-2.880E-06,-0.080
-2.870E-06,-0.540
-2.860E-06,-1.420
-2.850E-06,-2.360
-2.840E-06,-3.320
-2.830E-06,-2.260
-2.820E-06,-2.540
-2.810E-06,-1.840
-2.800E-06,-0.160
-2.790E-06,0.880
-2.780E-06,1.720
-2.770E-06,2.100
-2.760E-06,2.100
-2.750E-06,2.080
-2.740E-06,2.080
-2.730E-06,2.060
-2.720E-06,2.080
-2.710E-06,1.580
-2.700E-06,0.880
-2.690E-06,-0.020
-2.680E-06,-0.440
-2.670E-06,-0.740
-2.660E-06,-0.500
-2.650E-06,-0.440
-2.640E-06,-0.360
-2.630E-06,-0.200
-2.620E-06,-0.320
-2.610E-06,-0.500
-2.600E-06,-0.840
-2.590E-06,-1.280
-2.580E-06,-1.600
-2.570E-06,-1.780
-2.560E-06,-1.820
-2.550E-06,-1.840
-2.540E-06,-1.540
-2.530E-06,-1.120
-2.520E-06,-0.560
-2.510E-06,0.000
-2.500E-06,0.680
-2.490E-06,1.180
-2.480E-06,1.480
-2.470E-06,1.680
-2.460E-06,1.620
-2.450E-06,1.320
-2.440E-06,1.020
-2.430E-06,0.620
-2.420E-06,0.180
-2.410E-06,-0.260
-2.400E-06,-0.580
-2.390E-06,-0.800
-2.380E-06,-0.920
-2.370E-06,-0.880
-2.360E-06,-0.860
-2.350E-06,-0.740
-2.340E-06,-0.580
-2.330E-06,-0.440
-2.320E-06,-0.260
-2.310E-06,-0.080
-2.300E-06,0.180
-2.290E-06,0.340
-2.280E-06,0.580
-2.270E-06,0.740
-2.260E-06,0.880
-2.250E-06,0.960
-2.240E-06,0.960
-2.230E-06,0.940
-2.220E-06,0.860
-2.210E-06,0.740
-2.200E-06,0.560
-2.190E-06,0.400
-2.180E-06,0.180
-2.170E-06,-0.020
-2.160E-06,-0.160
-2.150E-06,-0.260
-2.140E-06,-0.380
-2.130E-06,-0.460
-2.120E-06,-0.540
-2.110E-06,-0.620
-2.100E-06,-0.640
-2.090E-06,-0.640
-2.080E-06,-0.660
-2.070E-06,-0.540
-2.060E-06,-0.420
-2.050E-06,-0.240
-2.040E-06,-0.080
-2.030E-06,0.180
-2.020E-06,0.340
-2.010E-06,0.520
-2.000E-06,0.720
-1.990E-06,0.760
-1.980E-06,0.780
-1.970E-06,0.720
-1.960E-06,0.580
-1.950E-06,0.400
-1.940E-06,0.180
-1.930E-06,-0.080
-1.920E-06,-0.300
-1.910E-06,-0.460
-1.900E-06,-0.520
-1.890E-06,-0.600
-1.880E-06,-0.580
-1.870E-06,-0.580
-1.860E-06,-0.500
-1.850E-06,-0.420
-1.840E-06,-0.340
-1.830E-06,-0.260
-1.820E-06,-0.200
-1.810E-06,-0.120
-1.800E-06,-0.100
-1.790E-06,-0.080
-1.780E-06,-0.020
-1.770E-06,-0.040
-1.760E-06,-0.020
-1.750E-06,-0.040
-1.740E-06,0.000
-1.730E-06,0.000
-1.720E-06,0.060
-1.710E-06,0.080
-1.700E-06,0.080
-1.690E-06,0.080
-1.680E-06,-0.020
-1.670E-06,0.000
-1.660E-06,-0.100
-1.650E-06,-0.140
-1.640E-06,-0.160
-1.630E-06,-0.260
-1.620E-06,-0.220
-1.610E-06,-0.260
-1.600E-06,-0.280
-1.590E-06,-0.220
-1.580E-06,-0.280
-1.570E-06,-0.280
-1.560E-06,-0.320
-1.550E-06,-0.220
-1.540E-06,-0.240
-1.530E-06,-0.220
-1.520E-06,-0.180
-1.510E-06,-0.160
-1.500E-06,-0.180
-1.490E-06,-0.180
-1.480E-06,-0.160
-1.470E-06,-0.140
-1.460E-06,-0.120
-1.450E-06,-0.180
-1.440E-06,-0.140
-1.430E-06,-0.160
-1.420E-06,-0.280
-1.410E-06,-0.260
-1.400E-06,-0.340
-1.390E-06,-0.240
-1.380E-06,-0.220
-1.370E-06,-0.240
-1.360E-06,-0.200
-1.350E-06,-0.180
-1.340E-06,-0.260
-1.330E-06,-0.320
-1.320E-06,-0.440
-1.310E-06,-0.720
-1.300E-06,-0.680
-1.290E-06,-1.180
-1.280E-06,-0.960
-1.270E-06,-1.120
-1.260E-06,-0.920
-1.250E-06,-1.040
-1.240E-06,-0.940
-1.230E-06,-0.900
-1.220E-06,-0.820
-1.210E-06,-0.580
-1.200E-06,-0.540
-1.190E-06,-0.380
-1.180E-06,-0.300
-1.170E-06,-0.280
-1.160E-06,-0.220
-1.150E-06,-0.220
-1.140E-06,-0.240
-1.130E-06,-0.120
-1.120E-06,-0.200
-1.110E-06,-0.120
-1.100E-06,-0.300
-1.090E-06,-0.360
-1.080E-06,-0.560
-1.070E-06,-0.440
-1.060E-06,-0.680
-1.050E-06,-0.620
-1.040E-06,-0.600
-1.030E-06,-0.600
-1.020E-06,-0.480
-1.010E-06,-0.620
-1.000E-06,-0.420
-9.900E-07,-0.460
-9.800E-07,-0.360
-9.700E-07,-0.160
-9.600E-07,-0.020
-9.500E-07,-0.020
-9.400E-07,-0.200
-9.300E-07,-0.300
-9.200E-07,-0.560
-9.100E-07,-0.660
-9.000E-07,-0.860
-8.900E-07,-1.040
-8.800E-07,-0.720
-8.700E-07,-0.880
-8.600E-07,-0.480
-8.500E-07,-0.560
-8.400E-07,-0.340
-8.300E-07,-0.520
-8.200E-07,-0.600
-8.100E-07,-0.840
-8.000E-07,-0.880
-7.900E-07,-0.960
-7.800E-07,-1.040
-7.700E-07,-1.140
-7.600E-07,-1.100
-7.500E-07,-1.120
-7.400E-07,-1.020
-7.300E-07,-1.020
-7.200E-07,-0.920
-7.100E-07,-1.140
-7.000E-07,-1.060
-6.900E-07,-1.060
-6.800E-07,-1.080
-6.700E-07,-0.960
-6.600E-07,-1.140
-6.500E-07,-1.080
-6.400E-07,-1.280
-6.300E-07,-1.520
-6.200E-07,-1.740
-6.100E-07,-1.540
-6.000E-07,-1.800
-5.900E-07,-1.460
-5.800E-07,-1.680
-5.700E-07,-1.180
-5.600E-07,-1.360
-5.500E-07,-0.760
-5.400E-07,-0.600
-5.300E-07,-0.100
-5.200E-07,0.080
-5.100E-07,0.100
-5.000E-07,-0.340
-4.900E-07,-0.760
-4.800E-07,-1.340
-4.700E-07,-1.500
-4.600E-07,-2.340
-4.500E-07,-2.400
-4.400E-07,-3.060
-4.300E-07,-3.040
-4.200E-07,-3.180
-4.100E-07,-3.180
-4.000E-07,-2.900
-3.900E-07,-2.620
-3.800E-07,-2.300
-3.700E-07,-2.040
-3.600E-07,-1.860
-3.500E-07,-1.760
-3.400E-07,-1.540
-3.300E-07,-1.440
-3.200E-07,-1.080
-3.100E-07,-0.900
-3.000E-07,-0.220
-2.900E-07,0.240
-2.800E-07,0.640
-2.700E-07,0.340
-2.600E-07,-0.840
-2.500E-07,-0.640
-2.400E-07,-1.540
-2.300E-07,-0.940
-2.200E-07,-1.020
-2.100E-07,-1.400
-2.000E-07,-1.960
-1.900E-07,-3.060
-1.800E-07,-3.340
-1.700E-07,-3.340
-1.600E-07,-3.340
-1.500E-07,-3.340
-1.400E-07,-3.340
-1.300E-07,-3.360
-1.200E-07,-3.340
-1.100E-07,-3.340
-1.000E-07,-3.340
-9.000E-08,-3.360
-8.000E-08,-3.340
-7.000E-08,-3.340
-6.000E-08,-2.540
-5.000E-08,-1.520
-4.000E-08,-0.600
-3.000E-08,0.080
-2.000E-08,0.640
-1.000E-08,0.840
0.000E+00,0.980
1.000E-08,1.020
2.000E-08,0.860
3.000E-08,0.740
4.000E-08,0.720
5.000E-08,0.740
6.000E-08,0.760
7.000E-08,0.680
8.000E-08,0.500
9.000E-08,0.260
1.000E-07,-0.040
1.100E-07,-0.280
1.200E-07,-0.540
1.300E-07,-0.700
1.400E-07,-0.820
1.500E-07,-0.840
1.600E-07,-0.700
1.700E-07,-0.560
1.800E-07,-0.220
1.900E-07,-0.160
2.000E-07,0.420
2.100E-07,0.540
2.200E-07,1.120
2.300E-07,1.300
2.400E-07,1.500
2.500E-07,1.560
2.600E-07,1.400
2.700E-07,1.060
2.800E-07,0.620
2.900E-07,0.060
3.000E-07,-0.440
3.100E-07,-0.900
3.200E-07,-1.360
3.300E-07,-1.540
3.400E-07,-1.860
3.500E-07,-1.920
3.600E-07,-2.040
3.700E-07,-1.860
3.800E-07,-1.780
3.900E-07,-1.660
4.000E-07,-1.580
4.100E-07,-1.460
4.200E-07,-1.300
4.300E-07,-1.200
4.400E-07,-1.060
4.500E-07,-1.120
4.600E-07,-1.040
4.700E-07,-1.180
4.800E-07,-1.000
4.900E-07,-1.100
5.000E-07,-0.920
5.100E-07,-1.180
5.200E-07,-0.940
5.300E-07,-1.080
5.400E-07,-1.080
5.500E-07,-1.240
5.600E-07,-1.520
5.700E-07,-1.960
5.800E-07,-2.360
5.900E-07,-2.900
6.000E-07,-3.160
6.100E-07,-3.320
6.200E-07,-3.340
6.300E-07,-3.340
6.400E-07,-3.340
6.500E-07,-3.320
6.600E-07,-3.320
6.700E-07,-3.340
6.800E-07,-3.340
6.900E-07,-3.100
7.000E-07,-2.740
7.100E-07,-2.600
7.200E-07,-2.320
7.300E-07,-2.160
7.400E-07,-2.200
7.500E-07,-2.240
7.600E-07,-2.260
7.700E-07,-2.220
7.800E-07,-2.160
7.900E-07,-2.140
8.000E-07,-2.080
8.100E-07,-2.060
8.200E-07,-2.080
8.300E-07,-2.120
8.400E-07,-2.080
8.500E-07,-2.000
8.600E-07,-1.780
8.700E-07,-1.600
8.800E-07,-1.400
8.900E-07,-1.260
9.000E-07,-1.100
9.100E-07,-0.900
9.200E-07,-0.720
9.300E-07,-0.580
9.400E-07,-0.400
9.500E-07,-0.200
9.600E-07,-0.020
9.700E-07,0.140
9.800E-07,0.360
9.900E-07,0.580
1.000E-06,0.800
1.010E-06,1.000
1.020E-06,1.140
1.030E-06,1.240
1.040E-06,1.220
1.050E-06,1.180
1.060E-06,1.060
1.070E-06,0.900
1.080E-06,0.740
1.090E-06,0.560
1.100E-06,0.440
1.110E-06,0.340
1.120E-06,0.280
1.130E-06,0.220
1.140E-06,0.220
1.150E-06,0.080
1.160E-06,0.100
1.170E-06,0.000
1.180E-06,0.040
1.190E-06,-0.040
1.200E-06,0.140
1.210E-06,0.040
1.220E-06,0.180
1.230E-06,0.000
1.240E-06,0.080
1.250E-06,-0.080
1.260E-06,-0.020
1.270E-06,0.060
1.280E-06,0.180
1.290E-06,0.220
1.300E-06,0.380
1.310E-06,0.340
1.320E-06,0.440
1.330E-06,0.280
1.340E-06,0.260
1.350E-06,0.060
1.360E-06,0.120
1.370E-06,0.020
1.380E-06,0.000
1.390E-06,0.000
1.400E-06,-0.020
1.410E-06,-0.080
1.420E-06,-0.120
1.430E-06,-0.100
1.440E-06,-0.040
1.450E-06,0.000
1.460E-06,-0.020
1.470E-06,0.000
1.480E-06,0.100
1.490E-06,0.140
1.500E-06,0.200
1.510E-06,0.340
1.520E-06,0.340
1.530E-06,0.500
1.540E-06,0.640
1.550E-06,0.740
1.560E-06,0.780
1.570E-06,0.680
1.580E-06,0.840
1.590E-06,0.640
1.600E-06,0.780
1.610E-06,0.540
1.620E-06,0.560
1.630E-06,0.540
1.640E-06,0.420
1.650E-06,0.440
1.660E-06,0.400
1.670E-06,0.440
1.680E-06,0.480
1.690E-06,0.320
1.700E-06,0.420
1.710E-06,0.320
1.720E-06,0.340
1.730E-06,0.240
1.740E-06,0.320
1.750E-06,0.260
1.760E-06,0.320
1.770E-06,0.320
1.780E-06,0.300
1.790E-06,0.380
1.800E-06,0.360
1.810E-06,0.380
1.820E-06,0.420
1.830E-06,0.380
1.840E-06,0.420
1.850E-06,0.460
1.860E-06,0.360
1.870E-06,0.380
1.880E-06,0.300
1.890E-06,0.360
1.900E-06,0.260
1.910E-06,0.260
1.920E-06,0.080
1.930E-06,0.160
1.940E-06,0.100
1.950E-06,0.080
1.960E-06,0.120
1.970E-06,0.100
1.980E-06,0.120
1.990E-06,0.140
2.000E-06,0.160
2.010E-06,0.200
2.020E-06,0.240
2.030E-06,0.220
2.040E-06,0.280
2.050E-06,0.300
2.060E-06,0.300
2.070E-06,0.300
2.080E-06,0.300
2.090E-06,0.320
2.100E-06,0.340
2.110E-06,0.420
2.120E-06,0.440
2.130E-06,0.440
2.140E-06,0.360
2.150E-06,0.420
2.160E-06,0.380
2.170E-06,0.340
2.180E-06,0.260
2.190E-06,0.360
2.200E-06,0.320
2.210E-06,0.420
2.220E-06,0.400
2.230E-06,0.480
2.240E-06,0.500
2.250E-06,0.500
2.260E-06,0.520
2.270E-06,0.580
2.280E-06,0.640
2.290E-06,0.720
2.300E-06,0.780
2.310E-06,0.880
2.320E-06,0.940
2.330E-06,0.900
2.340E-06,1.060
2.350E-06,1.040
2.360E-06,1.100
2.370E-06,1.140
2.380E-06,1.180
2.390E-06,1.260
2.400E-06,1.240
2.410E-06,1.160
2.420E-06,1.060
2.430E-06,0.900
2.440E-06,0.780
2.450E-06,0.660
2.460E-06,0.540
2.470E-06,0.420
2.480E-06,0.400
2.490E-06,0.340
2.500E-06,0.340
2.510E-06,0.320
2.520E-06,0.100
2.530E-06,0.140
2.540E-06,-0.020
2.550E-06,0.000
2.560E-06,-0.160
2.570E-06,-0.080
2.580E-06,-0.100
2.590E-06,-0.040
2.600E-06,0.040
2.610E-06,0.080
2.620E-06,0.180
2.630E-06,0.260
2.640E-06,0.300
2.650E-06,0.300
2.660E-06,0.280
2.670E-06,0.260
2.680E-06,0.200
2.690E-06,0.160
2.700E-06,0.060
2.710E-06,0.020
2.720E-06,0.000
2.730E-06,-0.020
2.740E-06,-0.080
2.750E-06,-0.100
2.760E-06,-0.100
2.770E-06,-0.080
2.780E-06,-0.080
2.790E-06,-0.100
2.800E-06,-0.080
2.810E-06,-0.080
2.820E-06,-0.040
2.830E-06,-0.020
2.840E-06,0.040
2.850E-06,0.100
2.860E-06,0.120
2.870E-06,0.200
2.880E-06,0.240
2.890E-06,0.300
2.900E-06,0.340
2.910E-06,0.400
2.920E-06,0.480
2.930E-06,0.560
2.940E-06,0.620
2.950E-06,0.740
2.960E-06,0.820
2.970E-06,0.840
2.980E-06,0.860
2.990E-06,0.760
3.000E-06,0.660
3.010E-06,0.580
3.020E-06,0.580
3.030E-06,0.460
3.040E-06,0.380
3.050E-06,0.340
3.060E-06,0.260
3.070E-06,0.160
3.080E-06,0.120
3.090E-06,0.140
3.100E-06,0.100
3.110E-06,0.220
3.120E-06,0.260
3.130E-06,0.440
3.140E-06,0.560
3.150E-06,0.680
3.160E-06,0.780
3.170E-06,0.900
3.180E-06,0.960
3.190E-06,1.000
3.200E-06,1.000
3.210E-06,1.080
3.220E-06,1.100
3.230E-06,1.100
3.240E-06,1.080
3.250E-06,1.040
3.260E-06,1.060
3.270E-06,1.000
3.280E-06,0.980
3.290E-06,0.960
3.300E-06,0.940
3.310E-06,0.860
3.320E-06,0.800
3.330E-06,0.760
3.340E-06,0.700
3.350E-06,0.640
3.360E-06,0.540
3.370E-06,0.500
