mediciones/8-28/-51/WaveData65974.csv

#timebase=2000000(ps)
,#voltbase=500000(mv/100)
#size=4000
-8.350E-06,0.040
-8.340E-06,0.020
-8.330E-06,0.060
-8.320E-06,0.040
-8.310E-06,0.040
-8.300E-06,0.060
-8.290E-06,0.080
-8.280E-06,0.040
-8.270E-06,0.000
-8.260E-06,0.040
-8.250E-06,0.020
-8.240E-06,0.020
-8.230E-06,0.060
-8.220E-06,0.000
-8.210E-06,0.020
-8.200E-06,0.060
-8.190E-06,0.060
-8.180E-06,0.060
-8.170E-06,0.060
-8.160E-06,0.060
-8.150E-06,0.020
-8.140E-06,0.040
-8.130E-06,0.040
-8.120E-06,0.080
-8.110E-06,0.060
-8.100E-06,0.040
-8.090E-06,0.060
-8.080E-06,0.020
-8.070E-06,0.060
-8.060E-06,0.040
-8.050E-06,0.020
-8.040E-06,0.060
-8.030E-06,0.020
-8.020E-06,0.060
-8.010E-06,0.020
-8.000E-06,0.020
-7.990E-06,0.040
-7.980E-06,0.060
-7.970E-06,0.020
-7.960E-06,0.040
-7.950E-06,0.040
-7.940E-06,0.020
-7.930E-06,0.040
-7.920E-06,0.040
-7.910E-06,0.020
-7.900E-06,0.040
-7.890E-06,0.080
-7.880E-06,0.060
-7.870E-06,0.040
-7.860E-06,0.080
-7.850E-06,0.040
-7.840E-06,0.060
-7.830E-06,0.020
-7.820E-06,0.060
-7.810E-06,0.040
-7.800E-06,0.020
-7.790E-06,0.080
-7.780E-06,0.060
-7.770E-06,0.020
-7.760E-06,0.040
-7.750E-06,0.040
-7.740E-06,0.080
-7.730E-06,0.060
-7.720E-06,0.040
-7.710E-06,0.040
-7.700E-06,0.020
-7.690E-06,0.060
-7.680E-06,0.060
-7.670E-06,0.040
-7.660E-06,0.040
-7.650E-06,0.060
-7.640E-06,0.020
-7.630E-06,0.060
-7.620E-06,0.020
-7.610E-06,0.060
-7.600E-06,0.040
-7.590E-06,0.020
-7.580E-06,0.060
-7.570E-06,0.000
-7.560E-06,0.020
-7.550E-06,0.060
-7.540E-06,0.080
-7.530E-06,0.020
-7.520E-06,0.060
-7.510E-06,0.040
-7.500E-06,0.060
-7.490E-06,0.000
-7.480E-06,0.000
-7.470E-06,0.040
-7.460E-06,0.020
-7.450E-06,0.040
-7.440E-06,0.020
-7.430E-06,0.020
-7.420E-06,0.060
-7.410E-06,0.020
-7.400E-06,0.040
-7.390E-06,0.060
-7.380E-06,0.040
-7.370E-06,0.020
-7.360E-06,0.020
-7.350E-06,0.040
-7.340E-06,0.060
-7.330E-06,0.060
-7.320E-06,0.020
-7.310E-06,0.020
-7.300E-06,0.060
-7.290E-06,0.040
-7.280E-06,0.020
-7.270E-06,0.040
-7.260E-06,0.060
-7.250E-06,0.040
-7.240E-06,0.060
-7.230E-06,0.060
-7.220E-06,0.040
-7.210E-06,0.020
-7.200E-06,0.040
-7.190E-06,0.040
-7.180E-06,0.040
-7.170E-06,0.020
-7.160E-06,0.040
-7.150E-06,0.060
-7.140E-06,0.060
-7.130E-06,0.040
-7.120E-06,0.020
-7.110E-06,0.040
-7.100E-06,0.020
-7.090E-06,0.060
-7.080E-06,0.060
-7.070E-06,0.060
-7.060E-06,0.060
-7.050E-06,0.060
-7.040E-06,0.040
-7.030E-06,0.080
-7.020E-06,0.080
-7.010E-06,0.060
-7.000E-06,0.040
-6.990E-06,0.040
-6.980E-06,0.080
-6.970E-06,0.040
-6.960E-06,0.060
-6.950E-06,0.080
-6.940E-06,0.080
-6.930E-06,0.060
-6.920E-06,0.040
-6.910E-06,0.020
-6.900E-06,0.060
-6.890E-06,0.080
-6.880E-06,0.080
-6.870E-06,0.040
-6.860E-06,0.040
-6.850E-06,0.020
-6.840E-06,0.020
-6.830E-06,0.060
-6.820E-06,0.000
-6.810E-06,0.000
-6.800E-06,0.060
-6.790E-06,0.020
-6.780E-06,0.060
-6.770E-06,0.040
-6.760E-06,0.020
-6.750E-06,0.040
-6.740E-06,0.040
-6.730E-06,0.040
-6.720E-06,0.040
-6.710E-06,0.080
-6.700E-06,0.060
-6.690E-06,0.020
-6.680E-06,0.040
-6.670E-06,0.020
-6.660E-06,0.060
-6.650E-06,0.040
-6.640E-06,0.020
-6.630E-06,0.040
-6.620E-06,0.040
-6.610E-06,0.060
-6.600E-06,0.020
-6.590E-06,0.040
-6.580E-06,0.040
-6.570E-06,0.040
-6.560E-06,0.060
-6.550E-06,0.040
-6.540E-06,0.080
-6.530E-06,0.020
-6.520E-06,0.020
-6.510E-06,0.060
-6.500E-06,0.020
-6.490E-06,0.080
-6.480E-06,0.020
-6.470E-06,0.040
-6.460E-06,0.040
-6.450E-06,0.080
-6.440E-06,0.040
-6.430E-06,0.060
-6.420E-06,0.060
-6.410E-06,0.040
-6.400E-06,0.080
-6.390E-06,0.060
-6.380E-06,0.020
-6.370E-06,0.040
-6.360E-06,0.040
-6.350E-06,0.060
-6.340E-06,0.080
-6.330E-06,0.060
-6.320E-06,0.040
-6.310E-06,0.040
-6.300E-06,0.060
-6.290E-06,0.060
-6.280E-06,0.040
-6.270E-06,0.040
-6.260E-06,0.080
-6.250E-06,0.020
-6.240E-06,0.040
-6.230E-06,0.060
-6.220E-06,0.040
-6.210E-06,0.060
-6.200E-06,0.060
-6.190E-06,0.040
-6.180E-06,0.060
-6.170E-06,0.040
-6.160E-06,0.020
-6.150E-06,0.060
-6.140E-06,0.080
-6.130E-06,0.000
-6.120E-06,0.040
-6.110E-06,0.040
-6.100E-06,0.040
-6.090E-06,0.040
-6.080E-06,0.040
-6.070E-06,0.020
-6.060E-06,0.060
-6.050E-06,0.060
-6.040E-06,0.040
-6.030E-06,0.080
-6.020E-06,0.080
-6.010E-06,0.060
-6.000E-06,0.060
-5.990E-06,0.000
-5.980E-06,0.040
-5.970E-06,0.060
-5.960E-06,0.040
-5.950E-06,0.060
-5.940E-06,0.060
-5.930E-06,0.040
-5.920E-06,0.040
-5.910E-06,0.060
-5.900E-06,0.040
-5.890E-06,0.020
-5.880E-06,0.020
-5.870E-06,0.060
-5.860E-06,0.060
-5.850E-06,0.080
-5.840E-06,0.040
-5.830E-06,0.020
-5.820E-06,0.040
-5.810E-06,0.020
-5.800E-06,0.040
-5.790E-06,0.020
-5.780E-06,0.060
-5.770E-06,0.040
-5.760E-06,0.040
-5.750E-06,0.020
-5.740E-06,0.020
-5.730E-06,0.040
-5.720E-06,0.020
-5.710E-06,0.040
-5.700E-06,0.020
-5.690E-06,0.060
-5.680E-06,0.060
-5.670E-06,0.040
-5.660E-06,0.020
-5.650E-06,0.080
-5.640E-06,0.040
-5.630E-06,0.040
-5.620E-06,0.080
-5.610E-06,0.040
-5.600E-06,0.040
-5.590E-06,0.040
-5.580E-06,0.060
-5.570E-06,0.060
-5.560E-06,0.060
-5.550E-06,0.060
-5.540E-06,0.020
-5.530E-06,0.040
-5.520E-06,0.040
-5.510E-06,0.060
-5.500E-06,0.020
-5.490E-06,0.040
-5.480E-06,0.040
-5.470E-06,0.020
-5.460E-06,0.000
-5.450E-06,0.020
-5.440E-06,0.040
-5.430E-06,0.020
-5.420E-06,0.040
-5.410E-06,0.020
-5.400E-06,0.060
-5.390E-06,0.040
-5.380E-06,0.000
-5.370E-06,0.060
-5.360E-06,0.020
-5.350E-06,0.020
-5.340E-06,0.060
-5.330E-06,0.040
-5.320E-06,0.040
-5.310E-06,0.040
-5.300E-06,0.060
-5.290E-06,0.100
-5.280E-06,0.040
-5.270E-06,0.000
-5.260E-06,0.040
-5.250E-06,0.040
-5.240E-06,0.020
-5.230E-06,0.060
-5.220E-06,0.040
-5.210E-06,0.080
-5.200E-06,0.040
-5.190E-06,0.060
-5.180E-06,0.020
-5.170E-06,0.040
-5.160E-06,0.040
-5.150E-06,0.040
-5.140E-06,0.080
-5.130E-06,0.040
-5.120E-06,0.020
-5.110E-06,0.040
-5.100E-06,0.040
-5.090E-06,0.020
-5.080E-06,0.060
-5.070E-06,0.060
-5.060E-06,0.080
-5.050E-06,0.040
-5.040E-06,0.040
-5.030E-06,0.040
-5.020E-06,0.020
-5.010E-06,0.040
-5.000E-06,0.040
-4.990E-06,0.060
-4.980E-06,0.060
-4.970E-06,0.080
-4.960E-06,0.040
-4.950E-06,0.060
-4.940E-06,0.060
-4.930E-06,0.040
-4.920E-06,0.040
-4.910E-06,0.060
-4.900E-06,0.040
-4.890E-06,0.020
-4.880E-06,0.020
-4.870E-06,0.080
-4.860E-06,0.040
-4.850E-06,0.020
-4.840E-06,0.040
-4.830E-06,0.060
-4.820E-06,0.020
-4.810E-06,0.040
-4.800E-06,0.080
-4.790E-06,0.060
-4.780E-06,0.060
-4.770E-06,0.040
-4.760E-06,0.040
-4.750E-06,0.080
-4.740E-06,0.020
-4.730E-06,0.020
-4.720E-06,0.020
-4.710E-06,0.060
-4.700E-06,0.040
-4.690E-06,0.060
-4.680E-06,0.040
-4.670E-06,0.000
-4.660E-06,0.040
-4.650E-06,0.080
-4.640E-06,0.080
-4.630E-06,0.040
-4.620E-06,0.040
-4.610E-06,0.080
-4.600E-06,0.060
-4.590E-06,0.020
-4.580E-06,0.000
-4.570E-06,0.020
-4.560E-06,0.020
-4.550E-06,0.040
-4.540E-06,0.040
-4.530E-06,0.060
-4.520E-06,0.040
-4.510E-06,0.060
-4.500E-06,0.060
-4.490E-06,0.020
-4.480E-06,0.040
-4.470E-06,0.060
-4.460E-06,0.060
-4.450E-06,0.060
-4.440E-06,0.020
-4.430E-06,0.040
-4.420E-06,0.020
-4.410E-06,0.040
-4.400E-06,0.020
-4.390E-06,0.060
-4.380E-06,0.040
-4.370E-06,0.020
-4.360E-06,0.020
-4.350E-06,0.040
-4.340E-06,0.080
-4.330E-06,0.040
-4.320E-06,0.000
-4.310E-06,0.060
-4.300E-06,0.060
-4.290E-06,0.040
-4.280E-06,0.060
-4.270E-06,0.040
-4.260E-06,0.040
-4.250E-06,0.040
-4.240E-06,0.020
-4.230E-06,0.060
-4.220E-06,0.040
-4.210E-06,0.040
-4.200E-06,0.040
-4.190E-06,0.060
-4.180E-06,0.020
-4.170E-06,0.020
-4.160E-06,0.060
-4.150E-06,0.020
-4.140E-06,0.020
-4.130E-06,0.020
-4.120E-06,0.060
-4.110E-06,0.040
-4.100E-06,0.040
-4.090E-06,0.020
-4.080E-06,0.020
-4.070E-06,0.040
-4.060E-06,0.040
-4.050E-06,0.040
-4.040E-06,0.020
-4.030E-06,0.040
-4.020E-06,0.080
-4.010E-06,0.060
-4.000E-06,0.040
-3.990E-06,0.040
-3.980E-06,0.060
-3.970E-06,0.040
-3.960E-06,0.060
-3.950E-06,0.080
-3.940E-06,0.040
-3.930E-06,0.020
-3.920E-06,0.060
-3.910E-06,0.020
-3.900E-06,0.040
-3.890E-06,0.080
-3.880E-06,0.060
-3.870E-06,0.080
-3.860E-06,0.020
-3.850E-06,0.040
-3.840E-06,0.060
-3.830E-06,0.040
-3.820E-06,0.060
-3.810E-06,0.060
-3.800E-06,0.040
-3.790E-06,0.020
-3.780E-06,0.060
-3.770E-06,0.060
-3.760E-06,0.020
-3.750E-06,0.060
-3.740E-06,0.040
-3.730E-06,0.060
-3.720E-06,0.000
-3.710E-06,0.020
-3.700E-06,0.040
-3.690E-06,0.060
-3.680E-06,0.080
-3.670E-06,0.060
-3.660E-06,0.080
-3.650E-06,0.080
-3.640E-06,0.020
-3.630E-06,0.040
-3.620E-06,-0.100
-3.610E-06,-0.500
-3.600E-06,-1.340
-3.590E-06,-2.320
-3.580E-06,-3.300
-3.570E-06,-2.400
-3.560E-06,-2.700
-3.550E-06,-1.940
-3.540E-06,-0.480
-3.530E-06,0.860
-3.520E-06,1.500
-3.510E-06,2.100
-3.500E-06,2.080
-3.490E-06,2.100
-3.480E-06,2.080
-3.470E-06,2.060
-3.460E-06,2.080
-3.450E-06,1.880
-3.440E-06,1.080
-3.430E-06,0.260
-3.420E-06,-0.360
-3.410E-06,-0.720
-3.400E-06,-0.640
-3.390E-06,-0.460
-3.380E-06,-0.320
-3.370E-06,-0.200
-3.360E-06,-0.220
-3.350E-06,-0.440
-3.340E-06,-0.820
-3.330E-06,-1.120
-3.320E-06,-1.520
-3.310E-06,-1.780
-3.300E-06,-1.860
-3.290E-06,-1.880
-3.280E-06,-1.680
-3.270E-06,-1.240
-3.260E-06,-0.700
-3.250E-06,-0.080
-3.240E-06,0.600
-3.230E-06,1.200
-3.220E-06,1.560
-3.210E-06,1.740
-3.200E-06,1.760
-3.190E-06,1.540
-3.180E-06,1.180
-3.170E-06,0.780
-3.160E-06,0.320
-3.150E-06,-0.160
-3.140E-06,-0.520
-3.130E-06,-0.760
-3.120E-06,-0.920
-3.110E-06,-0.960
-3.100E-06,-0.900
-3.090E-06,-0.800
-3.080E-06,-0.640
-3.070E-06,-0.520
-3.060E-06,-0.320
-3.050E-06,-0.160
-3.040E-06,0.040
-3.030E-06,0.260
-3.020E-06,0.440
-3.010E-06,0.680
-3.000E-06,0.800
-2.990E-06,0.940
-2.980E-06,0.980
-2.970E-06,0.960
-2.960E-06,0.860
-2.950E-06,0.760
-2.940E-06,0.600
-2.930E-06,0.420
-2.920E-06,0.240
-2.910E-06,0.120
-2.900E-06,-0.060
-2.890E-06,-0.200
-2.880E-06,-0.300
-2.870E-06,-0.380
-2.860E-06,-0.440
-2.850E-06,-0.500
-2.840E-06,-0.600
-2.830E-06,-0.640
-2.820E-06,-0.620
-2.810E-06,-0.560
-2.800E-06,-0.420
-2.790E-06,-0.280
-2.780E-06,-0.040
-2.770E-06,0.220
-2.760E-06,0.420
-2.750E-06,0.600
-2.740E-06,0.760
-2.730E-06,0.840
-2.720E-06,0.840
-2.710E-06,0.780
-2.700E-06,0.680
-2.690E-06,0.500
-2.680E-06,0.300
-2.670E-06,0.080
-2.660E-06,-0.160
-2.650E-06,-0.360
-2.640E-06,-0.520
-2.630E-06,-0.580
-2.620E-06,-0.580
-2.610E-06,-0.520
-2.600E-06,-0.420
-2.590E-06,-0.340
-2.580E-06,-0.260
-2.570E-06,-0.140
-2.560E-06,-0.040
-2.550E-06,-0.020
-2.540E-06,0.040
-2.530E-06,0.060
-2.520E-06,0.080
-2.510E-06,0.120
-2.500E-06,0.120
-2.490E-06,0.120
-2.480E-06,0.160
-2.470E-06,0.160
-2.460E-06,0.160
-2.450E-06,0.180
-2.440E-06,0.200
-2.430E-06,0.160
-2.420E-06,0.200
-2.410E-06,0.100
-2.400E-06,0.080
-2.390E-06,-0.120
-2.380E-06,-0.160
-2.370E-06,-0.260
-2.360E-06,-0.260
-2.350E-06,-0.240
-2.340E-06,-0.180
-2.330E-06,-0.100
-2.320E-06,0.040
-2.310E-06,0.080
-2.300E-06,-0.020
-2.290E-06,0.020
-2.280E-06,-0.020
-2.270E-06,0.000
-2.260E-06,-0.020
-2.250E-06,0.080
-2.240E-06,0.100
-2.230E-06,0.120
-2.220E-06,0.020
-2.210E-06,0.020
-2.200E-06,0.000
-2.190E-06,0.000
-2.180E-06,0.000
-2.170E-06,-0.020
-2.160E-06,0.040
-2.150E-06,0.060
-2.140E-06,0.020
-2.130E-06,-0.020
-2.120E-06,0.000
-2.110E-06,-0.060
-2.100E-06,-0.060
-2.090E-06,-0.080
-2.080E-06,-0.100
-2.070E-06,-0.160
-2.060E-06,-0.100
-2.050E-06,-0.120
-2.040E-06,-0.080
-2.030E-06,-0.080
-2.020E-06,-0.100
-2.010E-06,-0.120
-2.000E-06,-0.200
-1.990E-06,-0.160
-1.980E-06,-0.240
-1.970E-06,-0.240
-1.960E-06,-0.260
-1.950E-06,-0.200
-1.940E-06,-0.240
-1.930E-06,-0.120
-1.920E-06,-0.120
-1.910E-06,-0.040
-1.900E-06,0.000
-1.890E-06,0.080
-1.880E-06,0.080
-1.870E-06,0.080
-1.860E-06,0.120
-1.850E-06,0.100
-1.840E-06,0.120
-1.830E-06,0.100
-1.820E-06,0.080
-1.810E-06,0.020
-1.800E-06,0.000
-1.790E-06,0.020
-1.780E-06,-0.100
-1.770E-06,-0.180
-1.760E-06,-0.180
-1.750E-06,-0.180
-1.740E-06,-0.240
-1.730E-06,-0.180
-1.720E-06,-0.200
-1.710E-06,-0.200
-1.700E-06,-0.160
-1.690E-06,-0.140
-1.680E-06,-0.120
-1.670E-06,-0.080
-1.660E-06,-0.040
-1.650E-06,-0.060
-1.640E-06,0.000
-1.630E-06,0.080
-1.620E-06,0.080
-1.610E-06,0.120
-1.600E-06,0.260
-1.590E-06,0.200
-1.580E-06,0.160
-1.570E-06,-0.020
-1.560E-06,-0.060
-1.550E-06,-0.200
-1.540E-06,-0.280
-1.530E-06,-0.300
-1.520E-06,-0.280
-1.510E-06,-0.300
-1.500E-06,-0.340
-1.490E-06,-0.260
-1.480E-06,-0.320
-1.470E-06,-0.260
-1.460E-06,-0.200
-1.450E-06,-0.180
-1.440E-06,-0.180
-1.430E-06,-0.200
-1.420E-06,-0.180
-1.410E-06,-0.120
-1.400E-06,-0.220
-1.390E-06,-0.240
-1.380E-06,-0.160
-1.370E-06,-0.200
-1.360E-06,-0.040
-1.350E-06,-0.180
-1.340E-06,-0.100
-1.330E-06,-0.180
-1.320E-06,-0.160
-1.310E-06,-0.160
-1.300E-06,0.140
-1.290E-06,0.520
-1.280E-06,1.080
-1.270E-06,1.520
-1.260E-06,1.800
-1.250E-06,1.660
-1.240E-06,1.180
-1.230E-06,0.480
-1.220E-06,-0.340
-1.210E-06,-1.020
-1.200E-06,-1.640
-1.190E-06,-1.980
-1.180E-06,-2.080
-1.170E-06,-2.100
-1.160E-06,-1.780
-1.150E-06,-1.420
-1.140E-06,-0.920
-1.130E-06,-0.720
-1.120E-06,-0.760
-1.110E-06,-0.740
-1.100E-06,-0.680
-1.090E-06,-0.580
-1.080E-06,-0.380
-1.070E-06,-0.420
-1.060E-06,-0.360
-1.050E-06,-0.340
-1.040E-06,-0.280
-1.030E-06,-0.200
-1.020E-06,-0.020
-1.010E-06,0.240
-1.000E-06,0.520
-9.900E-07,0.800
-9.800E-07,0.860
-9.700E-07,0.760
-9.600E-07,0.580
-9.500E-07,0.300
-9.400E-07,0.000
-9.300E-07,-0.260
-9.200E-07,-0.420
-9.100E-07,-0.620
-9.000E-07,-0.840
-8.900E-07,-1.000
-8.800E-07,-1.060
-8.700E-07,-1.060
-8.600E-07,-0.920
-8.500E-07,-0.760
-8.400E-07,-0.380
-8.300E-07,-0.200
-8.200E-07,0.000
-8.100E-07,0.020
-8.000E-07,-0.020
-7.900E-07,-0.180
-7.800E-07,-0.400
-7.700E-07,-0.680
-7.600E-07,-0.820
-7.500E-07,-1.020
-7.400E-07,-1.200
-7.300E-07,-1.180
-7.200E-07,-1.320
-7.100E-07,-1.280
-7.000E-07,-1.160
-6.900E-07,-1.100
-6.800E-07,-0.940
-6.700E-07,-0.720
-6.600E-07,-0.620
-6.500E-07,-0.560
-6.400E-07,-0.620
-6.300E-07,-0.240
-6.200E-07,-0.500
-6.100E-07,-0.600
-6.000E-07,-0.780
-5.900E-07,-0.760
-5.800E-07,-1.020
-5.700E-07,-1.160
-5.600E-07,-1.140
-5.500E-07,-1.040
-5.400E-07,-0.940
-5.300E-07,-0.760
-5.200E-07,-0.520
-5.100E-07,-0.480
-5.000E-07,-0.400
-4.900E-07,-0.480
-4.800E-07,-0.600
-4.700E-07,-0.760
-4.600E-07,-1.100
-4.500E-07,-1.400
-4.400E-07,-1.700
-4.300E-07,-2.040
-4.200E-07,-2.340
-4.100E-07,-2.520
-4.000E-07,-2.580
-3.900E-07,-2.480
-3.800E-07,-2.380
-3.700E-07,-1.960
-3.600E-07,-1.840
-3.500E-07,-1.720
-3.400E-07,-1.680
-3.300E-07,-1.620
-3.200E-07,-1.700
-3.100E-07,-1.580
-3.000E-07,-1.660
-2.900E-07,-1.520
-2.800E-07,-1.620
-2.700E-07,-1.520
-2.600E-07,-1.500
-2.500E-07,-1.400
-2.400E-07,-1.400
-2.300E-07,-1.200
-2.200E-07,-1.200
-2.100E-07,-0.840
-2.000E-07,-0.760
-1.900E-07,-0.820
-1.800E-07,-0.020
-1.700E-07,-0.720
-1.600E-07,-0.380
-1.500E-07,0.500
-1.400E-07,1.780
-1.300E-07,0.380
-1.200E-07,1.000
-1.100E-07,1.820
-1.000E-07,-0.040
-9.000E-08,0.400
-8.000E-08,-3.340
-7.000E-08,-3.340
-6.000E-08,-3.340
-5.000E-08,-3.340
-4.000E-08,-2.240
-3.000E-08,-3.340
-2.000E-08,-1.560
-1.000E-08,-3.340
0.000E+00,-3.340
1.000E-08,-3.320
2.000E-08,-3.320
3.000E-08,-3.340
4.000E-08,-3.100
5.000E-08,-2.520
6.000E-08,-1.880
7.000E-08,-0.660
8.000E-08,-0.800
9.000E-08,-0.180
1.000E-07,0.060
1.100E-07,0.420
1.200E-07,1.140
1.300E-07,1.220
1.400E-07,1.760
1.500E-07,1.860
1.600E-07,1.940
1.700E-07,1.360
1.800E-07,1.020
1.900E-07,0.440
2.000E-07,0.120
2.100E-07,-0.340
2.200E-07,-0.660
2.300E-07,-0.940
2.400E-07,-1.240
2.500E-07,-1.600
2.600E-07,-1.780
2.700E-07,-1.800
2.800E-07,-1.700
2.900E-07,-1.420
3.000E-07,-1.040
3.100E-07,-0.560
3.200E-07,-0.220
3.300E-07,0.080
3.400E-07,0.300
3.500E-07,0.380
3.600E-07,0.340
3.700E-07,0.200
3.800E-07,0.140
3.900E-07,0.000
4.000E-07,0.020
4.100E-07,-0.260
4.200E-07,-0.340
4.300E-07,-0.480
4.400E-07,-0.820
4.500E-07,-1.100
4.600E-07,-1.360
4.700E-07,-1.440
4.800E-07,-1.520
4.900E-07,-1.500
5.000E-07,-1.480
5.100E-07,-1.340
5.200E-07,-1.180
5.300E-07,-1.080
5.400E-07,-0.880
5.500E-07,-0.940
5.600E-07,-0.760
5.700E-07,-0.740
5.800E-07,-0.420
5.900E-07,-0.240
6.000E-07,0.160
6.100E-07,0.340
6.200E-07,0.360
6.300E-07,0.300
6.400E-07,0.020
6.500E-07,-0.160
6.600E-07,-0.560
6.700E-07,-0.900
6.800E-07,-1.360
6.900E-07,-1.740
7.000E-07,-2.140
7.100E-07,-2.460
7.200E-07,-2.660
7.300E-07,-2.800
7.400E-07,-3.020
7.500E-07,-3.180
7.600E-07,-3.320
7.700E-07,-3.340
7.800E-07,-3.360
7.900E-07,-3.340
8.000E-07,-3.340
8.100E-07,-3.340
8.200E-07,-3.340
8.300E-07,-3.340
8.400E-07,-3.340
8.500E-07,-3.340
8.600E-07,-3.340
8.700E-07,-3.340
8.800E-07,-3.320
8.900E-07,-3.320
9.000E-07,-3.240
9.100E-07,-3.140
9.200E-07,-3.000
9.300E-07,-2.960
9.400E-07,-2.880
9.500E-07,-2.880
9.600E-07,-2.840
9.700E-07,-2.880
9.800E-07,-2.840
9.900E-07,-2.780
1.000E-06,-2.760
1.010E-06,-2.640
1.020E-06,-2.580
1.030E-06,-2.480
1.040E-06,-2.340
1.050E-06,-2.280
1.060E-06,-2.100
1.070E-06,-2.060
1.080E-06,-1.900
1.090E-06,-1.800
1.100E-06,-1.760
1.110E-06,-1.740
1.120E-06,-1.700
1.130E-06,-1.720
1.140E-06,-1.720
1.150E-06,-1.700
1.160E-06,-1.620
1.170E-06,-1.480
1.180E-06,-1.300
1.190E-06,-1.140
1.200E-06,-1.080
1.210E-06,-0.920
1.220E-06,-0.660
1.230E-06,-0.620
1.240E-06,-0.460
1.250E-06,-0.380
1.260E-06,-0.320
1.270E-06,-0.400
1.280E-06,-0.440
1.290E-06,-0.480
1.300E-06,-0.520
1.310E-06,-0.600
1.320E-06,-0.660
1.330E-06,-0.700
1.340E-06,-0.680
1.350E-06,-0.740
1.360E-06,-0.680
1.370E-06,-0.700
1.380E-06,-0.680
1.390E-06,-0.580
1.400E-06,-0.540
1.410E-06,-0.480
1.420E-06,-0.480
1.430E-06,-0.360
1.440E-06,-0.360
1.450E-06,-0.480
1.460E-06,-0.580
1.470E-06,-0.540
1.480E-06,-0.520
1.490E-06,-0.640
1.500E-06,-0.580
1.510E-06,-0.620
1.520E-06,-0.540
1.530E-06,-0.480
1.540E-06,-0.520
1.550E-06,-0.520
1.560E-06,-0.580
1.570E-06,-0.620
1.580E-06,-0.660
1.590E-06,-0.580
1.600E-06,-0.580
1.610E-06,-0.520
1.620E-06,-0.520
1.630E-06,-0.520
1.640E-06,-0.520
1.650E-06,-0.440
1.660E-06,-0.300
1.670E-06,-0.160
1.680E-06,-0.040
1.690E-06,0.000
1.700E-06,0.080
1.710E-06,0.240
1.720E-06,0.420
1.730E-06,0.440
1.740E-06,0.420
1.750E-06,0.480
1.760E-06,0.500
1.770E-06,0.420
1.780E-06,0.320
1.790E-06,0.240
1.800E-06,0.160
1.810E-06,0.160
1.820E-06,0.100
1.830E-06,0.000
1.840E-06,-0.080
1.850E-06,-0.020
1.860E-06,-0.040
1.870E-06,0.000
1.880E-06,-0.020
1.890E-06,-0.040
1.900E-06,-0.060
1.910E-06,-0.120
1.920E-06,-0.120
1.930E-06,-0.100
1.940E-06,-0.160
1.950E-06,-0.220
1.960E-06,-0.320
1.970E-06,-0.420
1.980E-06,-0.440
1.990E-06,-0.400
2.000E-06,-0.340
2.010E-06,-0.420
2.020E-06,-0.420
2.030E-06,-0.340
2.040E-06,-0.300
2.050E-06,-0.300
2.060E-06,-0.280
2.070E-06,-0.260
2.080E-06,-0.220
2.090E-06,-0.240
2.100E-06,-0.180
2.110E-06,-0.180
2.120E-06,-0.180
2.130E-06,-0.180
2.140E-06,-0.160
2.150E-06,-0.080
2.160E-06,-0.100
2.170E-06,-0.180
2.180E-06,-0.160
2.190E-06,-0.120
2.200E-06,-0.120
2.210E-06,-0.160
2.220E-06,-0.180
2.230E-06,-0.080
2.240E-06,0.040
2.250E-06,0.080
2.260E-06,0.040
2.270E-06,0.080
2.280E-06,0.120
2.290E-06,0.100
2.300E-06,0.120
2.310E-06,0.020
2.320E-06,0.100
2.330E-06,0.040
2.340E-06,0.160
2.350E-06,0.260
2.360E-06,0.340
2.370E-06,0.240
2.380E-06,0.220
2.390E-06,0.320
2.400E-06,0.300
2.410E-06,0.260
2.420E-06,0.140
2.430E-06,0.080
2.440E-06,0.000
2.450E-06,-0.160
2.460E-06,-0.240
2.470E-06,-0.300
2.480E-06,-0.280
2.490E-06,-0.300
2.500E-06,-0.280
2.510E-06,-0.140
2.520E-06,0.000
2.530E-06,0.100
2.540E-06,0.220
2.550E-06,0.260
2.560E-06,0.320
2.570E-06,0.360
2.580E-06,0.340
2.590E-06,0.260
2.600E-06,0.140
2.610E-06,0.200
2.620E-06,0.260
2.630E-06,0.200
2.640E-06,0.160
2.650E-06,0.220
2.660E-06,0.160
2.670E-06,0.180
2.680E-06,0.080
2.690E-06,0.080
2.700E-06,-0.020
2.710E-06,-0.180
2.720E-06,-0.300
2.730E-06,-0.360
2.740E-06,-0.360
2.750E-06,-0.480
2.760E-06,-0.540
2.770E-06,-0.560
2.780E-06,-0.560
2.790E-06,-0.480
2.800E-06,-0.440
2.810E-06,-0.340
2.820E-06,-0.300
2.830E-06,-0.280
2.840E-06,-0.160
2.850E-06,-0.020
2.860E-06,0.120
2.870E-06,0.120
2.880E-06,0.080
2.890E-06,0.080
2.900E-06,-0.020
2.910E-06,-0.040
2.920E-06,-0.040
2.930E-06,-0.060
2.940E-06,-0.040
2.950E-06,-0.120
2.960E-06,-0.160
2.970E-06,-0.220
2.980E-06,-0.280
2.990E-06,-0.340
3.000E-06,-0.480
3.010E-06,-0.580
3.020E-06,-0.640
3.030E-06,-0.680
3.040E-06,-0.680
3.050E-06,-0.620
3.060E-06,-0.560
3.070E-06,-0.480
3.080E-06,-0.400
3.090E-06,-0.340
3.100E-06,-0.340
3.110E-06,-0.380
3.120E-06,-0.460
3.130E-06,-0.620
3.140E-06,-0.740
3.150E-06,-0.820
3.160E-06,-0.960
3.170E-06,-1.040
3.180E-06,-1.140
3.190E-06,-1.200
3.200E-06,-1.160
3.210E-06,-1.120
3.220E-06,-1.080
3.230E-06,-1.160
3.240E-06,-1.260
3.250E-06,-1.160
3.260E-06,-1.020
3.270E-06,-0.800
