mediciones/curva carac 8-28 limpias/-10/WaveData65674.csv

#timebase=2000000(ps)
,#voltbase=500000(mv/100)
#size=4000
-8.350E-06,0.040
-8.340E-06,0.000
-8.330E-06,0.040
-8.320E-06,0.020
-8.310E-06,0.000
-8.300E-06,0.040
-8.290E-06,0.000
-8.280E-06,0.040
-8.270E-06,0.060
-8.260E-06,0.020
-8.250E-06,0.060
-8.240E-06,0.040
-8.230E-06,0.020
-8.220E-06,0.040
-8.210E-06,0.040
-8.200E-06,0.020
-8.190E-06,0.020
-8.180E-06,0.040
-8.170E-06,0.020
-8.160E-06,0.040
-8.150E-06,0.040
-8.140E-06,0.020
-8.130E-06,0.040
-8.120E-06,0.020
-8.110E-06,0.040
-8.100E-06,0.020
-8.090E-06,0.040
-8.080E-06,0.040
-8.070E-06,0.040
-8.060E-06,0.000
-8.050E-06,0.040
-8.040E-06,0.020
-8.030E-06,0.020
-8.020E-06,0.020
-8.010E-06,0.060
-8.000E-06,0.060
-7.990E-06,0.040
-7.980E-06,0.080
-7.970E-06,0.080
-7.960E-06,0.060
-7.950E-06,0.080
-7.940E-06,0.040
-7.930E-06,0.020
-7.920E-06,0.020
-7.910E-06,0.060
-7.900E-06,0.040
-7.890E-06,0.060
-7.880E-06,0.040
-7.870E-06,0.000
-7.860E-06,0.040
-7.850E-06,0.060
-7.840E-06,0.020
-7.830E-06,0.020
-7.820E-06,0.040
-7.810E-06,0.000
-7.800E-06,0.040
-7.790E-06,0.080
-7.780E-06,0.020
-7.770E-06,0.020
-7.760E-06,0.020
-7.750E-06,0.060
-7.740E-06,0.040
-7.730E-06,0.040
-7.720E-06,0.080
-7.710E-06,0.020
-7.700E-06,0.020
-7.690E-06,0.040
-7.680E-06,0.020
-7.670E-06,0.020
-7.660E-06,0.060
-7.650E-06,0.040
-7.640E-06,0.060
-7.630E-06,0.060
-7.620E-06,0.000
-7.610E-06,0.020
-7.600E-06,0.020
-7.590E-06,0.020
-7.580E-06,0.040
-7.570E-06,0.060
-7.560E-06,0.040
-7.550E-06,0.020
-7.540E-06,0.040
-7.530E-06,0.020
-7.520E-06,0.060
-7.510E-06,0.000
-7.500E-06,0.020
-7.490E-06,0.040
-7.480E-06,0.000
-7.470E-06,0.020
-7.460E-06,0.080
-7.450E-06,0.040
-7.440E-06,0.020
-7.430E-06,0.020
-7.420E-06,0.020
-7.410E-06,0.020
-7.400E-06,0.060
-7.390E-06,0.020
-7.380E-06,0.040
-7.370E-06,0.040
-7.360E-06,0.060
-7.350E-06,0.040
-7.340E-06,0.040
-7.330E-06,0.020
-7.320E-06,0.060
-7.310E-06,0.040
-7.300E-06,0.060
-7.290E-06,0.060
-7.280E-06,0.060
-7.270E-06,0.080
-7.260E-06,0.060
-7.250E-06,0.020
-7.240E-06,0.020
-7.230E-06,0.040
-7.220E-06,0.040
-7.210E-06,0.080
-7.200E-06,0.020
-7.190E-06,0.060
-7.180E-06,0.060
-7.170E-06,0.060
-7.160E-06,0.020
-7.150E-06,0.060
-7.140E-06,0.060
-7.130E-06,0.040
-7.120E-06,0.000
-7.110E-06,0.020
-7.100E-06,0.020
-7.090E-06,0.060
-7.080E-06,0.060
-7.070E-06,0.020
-7.060E-06,0.040
-7.050E-06,0.020
-7.040E-06,0.040
-7.030E-06,0.040
-7.020E-06,0.060
-7.010E-06,0.040
-7.000E-06,0.020
-6.990E-06,0.020
-6.980E-06,0.040
-6.970E-06,0.040
-6.960E-06,0.040
-6.950E-06,0.040
-6.940E-06,0.040
-6.930E-06,0.020
-6.920E-06,0.040
-6.910E-06,0.040
-6.900E-06,0.020
-6.890E-06,0.040
-6.880E-06,0.060
-6.870E-06,0.000
-6.860E-06,0.040
-6.850E-06,0.060
-6.840E-06,0.040
-6.830E-06,0.080
-6.820E-06,0.020
-6.810E-06,0.040
-6.800E-06,0.060
-6.790E-06,0.040
-6.780E-06,0.040
-6.770E-06,0.000
-6.760E-06,0.040
-6.750E-06,0.020
-6.740E-06,0.020
-6.730E-06,0.040
-6.720E-06,0.020
-6.710E-06,0.040
-6.700E-06,0.020
-6.690E-06,0.040
-6.680E-06,0.060
-6.670E-06,0.060
-6.660E-06,0.060
-6.650E-06,0.060
-6.640E-06,0.020
-6.630E-06,0.060
-6.620E-06,0.080
-6.610E-06,0.020
-6.600E-06,0.040
-6.590E-06,0.020
-6.580E-06,0.060
-6.570E-06,0.040
-6.560E-06,0.040
-6.550E-06,0.060
-6.540E-06,0.040
-6.530E-06,0.020
-6.520E-06,0.040
-6.510E-06,0.080
-6.500E-06,0.040
-6.490E-06,0.020
-6.480E-06,0.040
-6.470E-06,0.040
-6.460E-06,0.060
-6.450E-06,0.040
-6.440E-06,0.040
-6.430E-06,0.040
-6.420E-06,0.060
-6.410E-06,0.020
-6.400E-06,0.020
-6.390E-06,0.060
-6.380E-06,0.040
-6.370E-06,0.060
-6.360E-06,0.060
-6.350E-06,0.040
-6.340E-06,0.040
-6.330E-06,0.060
-6.320E-06,0.040
-6.310E-06,0.060
-6.300E-06,0.080
-6.290E-06,0.060
-6.280E-06,0.020
-6.270E-06,0.060
-6.260E-06,0.020
-6.250E-06,0.000
-6.240E-06,0.040
-6.230E-06,0.040
-6.220E-06,0.060
-6.210E-06,0.060
-6.200E-06,0.040
-6.190E-06,0.060
-6.180E-06,0.080
-6.170E-06,0.060
-6.160E-06,0.060
-6.150E-06,0.000
-6.140E-06,0.020
-6.130E-06,0.040
-6.120E-06,0.040
-6.110E-06,0.040
-6.100E-06,0.080
-6.090E-06,0.040
-6.080E-06,0.040
-6.070E-06,-0.020
-6.060E-06,0.040
-6.050E-06,0.020
-6.040E-06,0.020
-6.030E-06,0.020
-6.020E-06,0.020
-6.010E-06,0.040
-6.000E-06,0.020
-5.990E-06,0.060
-5.980E-06,0.020
-5.970E-06,0.040
-5.960E-06,0.020
-5.950E-06,0.040
-5.940E-06,0.040
-5.930E-06,0.040
-5.920E-06,0.060
-5.910E-06,0.040
-5.900E-06,0.020
-5.890E-06,0.020
-5.880E-06,0.040
-5.870E-06,0.060
-5.860E-06,0.040
-5.850E-06,0.020
-5.840E-06,0.040
-5.830E-06,0.060
-5.820E-06,0.040
-5.810E-06,0.060
-5.800E-06,0.020
-5.790E-06,-0.020
-5.780E-06,0.040
-5.770E-06,0.020
-5.760E-06,0.020
-5.750E-06,0.020
-5.740E-06,0.020
-5.730E-06,0.040
-5.720E-06,0.040
-5.710E-06,0.040
-5.700E-06,0.020
-5.690E-06,0.060
-5.680E-06,0.040
-5.670E-06,0.040
-5.660E-06,0.060
-5.650E-06,0.040
-5.640E-06,0.000
-5.630E-06,0.060
-5.620E-06,0.060
-5.610E-06,0.060
-5.600E-06,0.040
-5.590E-06,0.020
-5.580E-06,0.080
-5.570E-06,0.020
-5.560E-06,0.000
-5.550E-06,0.040
-5.540E-06,0.020
-5.530E-06,0.060
-5.520E-06,0.020
-5.510E-06,0.040
-5.500E-06,0.060
-5.490E-06,0.060
-5.480E-06,0.060
-5.470E-06,0.080
-5.460E-06,0.020
-5.450E-06,0.040
-5.440E-06,0.040
-5.430E-06,0.020
-5.420E-06,0.020
-5.410E-06,0.060
-5.400E-06,0.020
-5.390E-06,0.020
-5.380E-06,0.040
-5.370E-06,0.080
-5.360E-06,0.020
-5.350E-06,0.020
-5.340E-06,0.060
-5.330E-06,0.020
-5.320E-06,0.040
-5.310E-06,0.080
-5.300E-06,0.060
-5.290E-06,0.020
-5.280E-06,0.040
-5.270E-06,0.060
-5.260E-06,0.040
-5.250E-06,0.020
-5.240E-06,0.040
-5.230E-06,0.020
-5.220E-06,0.060
-5.210E-06,0.020
-5.200E-06,0.020
-5.190E-06,0.040
-5.180E-06,0.020
-5.170E-06,0.040
-5.160E-06,0.040
-5.150E-06,0.060
-5.140E-06,0.040
-5.130E-06,0.040
-5.120E-06,0.020
-5.110E-06,0.020
-5.100E-06,0.020
-5.090E-06,0.020
-5.080E-06,0.020
-5.070E-06,0.020
-5.060E-06,0.020
-5.050E-06,0.000
-5.040E-06,0.040
-5.030E-06,0.060
-5.020E-06,0.060
-5.010E-06,0.000
-5.000E-06,0.020
-4.990E-06,0.040
-4.980E-06,0.040
-4.970E-06,0.020
-4.960E-06,0.060
-4.950E-06,0.060
-4.940E-06,0.040
-4.930E-06,0.020
-4.920E-06,0.080
-4.910E-06,0.040
-4.900E-06,0.020
-4.890E-06,0.040
-4.880E-06,0.060
-4.870E-06,0.020
-4.860E-06,0.040
-4.850E-06,0.040
-4.840E-06,0.040
-4.830E-06,0.080
-4.820E-06,0.020
-4.810E-06,0.020
-4.800E-06,0.040
-4.790E-06,0.000
-4.780E-06,0.060
-4.770E-06,0.060
-4.760E-06,0.060
-4.750E-06,0.020
-4.740E-06,0.020
-4.730E-06,0.020
-4.720E-06,0.040
-4.710E-06,0.060
-4.700E-06,0.040
-4.690E-06,0.040
-4.680E-06,0.080
-4.670E-06,0.060
-4.660E-06,0.040
-4.650E-06,0.040
-4.640E-06,0.000
-4.630E-06,0.020
-4.620E-06,0.060
-4.610E-06,0.020
-4.600E-06,0.020
-4.590E-06,0.020
-4.580E-06,0.040
-4.570E-06,0.020
-4.560E-06,0.040
-4.550E-06,0.060
-4.540E-06,0.040
-4.530E-06,0.020
-4.520E-06,0.040
-4.510E-06,0.020
-4.500E-06,0.040
-4.490E-06,0.040
-4.480E-06,0.020
-4.470E-06,0.040
-4.460E-06,0.020
-4.450E-06,0.040
-4.440E-06,0.060
-4.430E-06,0.040
-4.420E-06,0.020
-4.410E-06,0.040
-4.400E-06,0.040
-4.390E-06,0.040
-4.380E-06,0.020
-4.370E-06,0.060
-4.360E-06,0.080
-4.350E-06,0.040
-4.340E-06,0.020
-4.330E-06,0.060
-4.320E-06,0.060
-4.310E-06,0.020
-4.300E-06,0.060
-4.290E-06,0.020
-4.280E-06,0.040
-4.270E-06,0.060
-4.260E-06,0.060
-4.250E-06,0.060
-4.240E-06,0.000
-4.230E-06,0.060
-4.220E-06,0.020
-4.210E-06,0.020
-4.200E-06,0.060
-4.190E-06,0.020
-4.180E-06,0.040
-4.170E-06,0.040
-4.160E-06,0.060
-4.150E-06,0.060
-4.140E-06,0.020
-4.130E-06,0.040
-4.120E-06,0.020
-4.110E-06,0.060
-4.100E-06,0.020
-4.090E-06,0.060
-4.080E-06,0.020
-4.070E-06,0.040
-4.060E-06,0.060
-4.050E-06,0.040
-4.040E-06,0.040
-4.030E-06,0.060
-4.020E-06,0.040
-4.010E-06,0.040
-4.000E-06,0.040
-3.990E-06,0.060
-3.980E-06,0.040
-3.970E-06,0.020
-3.960E-06,0.000
-3.950E-06,0.040
-3.940E-06,0.020
-3.930E-06,0.020
-3.920E-06,0.040
-3.910E-06,0.040
-3.900E-06,0.060
-3.890E-06,0.040
-3.880E-06,0.060
-3.870E-06,0.020
-3.860E-06,0.000
-3.850E-06,0.040
-3.840E-06,0.060
-3.830E-06,0.060
-3.820E-06,0.040
-3.810E-06,0.020
-3.800E-06,0.000
-3.790E-06,0.020
-3.780E-06,0.060
-3.770E-06,0.060
-3.760E-06,0.060
-3.750E-06,0.080
-3.740E-06,0.040
-3.730E-06,0.060
-3.720E-06,0.020
-3.710E-06,0.040
-3.700E-06,0.040
-3.690E-06,0.040
-3.680E-06,0.020
-3.670E-06,0.060
-3.660E-06,0.000
-3.650E-06,0.020
-3.640E-06,0.020
-3.630E-06,0.060
-3.620E-06,0.040
-3.610E-06,0.040
-3.600E-06,0.040
-3.590E-06,0.020
-3.580E-06,0.060
-3.570E-06,0.060
-3.560E-06,0.060
-3.550E-06,0.040
-3.540E-06,0.060
-3.530E-06,0.040
-3.520E-06,0.060
-3.510E-06,0.080
-3.500E-06,0.040
-3.490E-06,0.040
-3.480E-06,0.080
-3.470E-06,0.060
-3.460E-06,0.000
-3.450E-06,0.020
-3.440E-06,0.020
-3.430E-06,0.060
-3.420E-06,0.060
-3.410E-06,0.080
-3.400E-06,0.040
-3.390E-06,0.040
-3.380E-06,0.060
-3.370E-06,0.040
-3.360E-06,0.060
-3.350E-06,0.020
-3.340E-06,0.000
-3.330E-06,0.040
-3.320E-06,0.020
-3.310E-06,0.020
-3.300E-06,0.000
-3.290E-06,0.040
-3.280E-06,0.040
-3.270E-06,-0.040
-3.260E-06,-0.400
-3.250E-06,-1.200
-3.240E-06,-2.200
-3.230E-06,-2.980
-3.220E-06,-3.240
-3.210E-06,-2.800
-3.200E-06,-1.740
-3.190E-06,-0.340
-3.180E-06,0.780
-3.170E-06,2.100
-3.160E-06,2.080
-3.150E-06,2.080
-3.140E-06,2.060
-3.130E-06,2.080
-3.120E-06,2.080
-3.110E-06,2.100
-3.100E-06,1.620
-3.090E-06,0.840
-3.080E-06,0.020
-3.070E-06,-0.260
-3.060E-06,-1.020
-3.050E-06,-0.740
-3.040E-06,-0.640
-3.030E-06,-0.380
-3.020E-06,-0.040
-3.010E-06,-0.180
-3.000E-06,-0.300
-2.990E-06,-0.660
-2.980E-06,-1.080
-2.970E-06,-1.480
-2.960E-06,-1.800
-2.950E-06,-1.900
-2.940E-06,-1.860
-2.930E-06,-1.580
-2.920E-06,-1.160
-2.910E-06,-0.620
-2.900E-06,0.000
-2.890E-06,0.600
-2.880E-06,1.120
-2.870E-06,1.500
-2.860E-06,1.680
-2.850E-06,1.620
-2.840E-06,1.440
-2.830E-06,1.060
-2.820E-06,0.600
-2.810E-06,0.160
-2.800E-06,-0.260
-2.790E-06,-0.580
-2.780E-06,-0.740
-2.770E-06,-0.840
-2.760E-06,-0.840
-2.750E-06,-0.760
-2.740E-06,-0.600
-2.730E-06,-0.460
-2.720E-06,-0.340
-2.710E-06,-0.220
-2.700E-06,-0.020
-2.690E-06,0.200
-2.680E-06,0.360
-2.670E-06,0.560
-2.660E-06,0.700
-2.650E-06,0.840
-2.640E-06,0.860
-2.630E-06,0.860
-2.620E-06,0.840
-2.610E-06,0.800
-2.600E-06,0.660
-2.590E-06,0.520
-2.580E-06,0.400
-2.570E-06,0.240
-2.560E-06,0.020
-2.550E-06,-0.120
-2.540E-06,-0.300
-2.530E-06,-0.420
-2.520E-06,-0.480
-2.510E-06,-0.660
-2.500E-06,-0.660
-2.490E-06,-0.760
-2.480E-06,-0.700
-2.470E-06,-0.660
-2.460E-06,-0.700
-2.450E-06,-0.680
-2.440E-06,-0.540
-2.430E-06,-0.260
-2.420E-06,-0.160
-2.410E-06,0.300
-2.400E-06,0.480
-2.390E-06,0.760
-2.380E-06,0.740
-2.370E-06,0.740
-2.360E-06,0.700
-2.350E-06,0.600
-2.340E-06,0.520
-2.330E-06,0.340
-2.320E-06,0.080
-2.310E-06,-0.020
-2.300E-06,-0.160
-2.290E-06,-0.300
-2.280E-06,-0.360
-2.270E-06,-0.380
-2.260E-06,-0.340
-2.250E-06,-0.360
-2.240E-06,-0.160
-2.230E-06,-0.060
-2.220E-06,0.020
-2.210E-06,0.100
-2.200E-06,0.160
-2.190E-06,0.200
-2.180E-06,0.220
-2.170E-06,0.200
-2.160E-06,0.240
-2.150E-06,0.200
-2.140E-06,0.160
-2.130E-06,0.200
-2.120E-06,0.220
-2.110E-06,0.240
-2.100E-06,0.220
-2.090E-06,0.200
-2.080E-06,0.200
-2.070E-06,0.140
-2.060E-06,0.120
-2.050E-06,0.040
-2.040E-06,-0.040
-2.030E-06,-0.100
-2.020E-06,-0.120
-2.010E-06,-0.120
-2.000E-06,-0.140
-1.990E-06,-0.140
-1.980E-06,-0.120
-1.970E-06,-0.060
-1.960E-06,-0.040
-1.950E-06,0.000
-1.940E-06,0.040
-1.930E-06,0.060
-1.920E-06,0.060
-1.910E-06,0.080
-1.900E-06,0.100
-1.890E-06,-0.080
-1.880E-06,0.060
-1.870E-06,-0.240
-1.860E-06,0.220
-1.850E-06,-0.260
-1.840E-06,0.280
-1.830E-06,-0.180
-1.820E-06,0.280
-1.810E-06,-0.060
-1.800E-06,0.040
-1.790E-06,-0.080
-1.780E-06,-0.080
-1.770E-06,-0.120
-1.760E-06,-0.140
-1.750E-06,-0.160
-1.740E-06,-0.180
-1.730E-06,-0.120
-1.720E-06,-0.120
-1.710E-06,-0.180
-1.700E-06,-0.140
-1.690E-06,-0.100
-1.680E-06,-0.080
-1.670E-06,-0.060
-1.660E-06,-0.040
-1.650E-06,-0.040
-1.640E-06,-0.020
-1.630E-06,-0.020
-1.620E-06,-0.060
-1.610E-06,-0.040
-1.600E-06,0.000
-1.590E-06,0.020
-1.580E-06,0.080
-1.570E-06,0.100
-1.560E-06,0.160
-1.550E-06,0.160
-1.540E-06,0.180
-1.530E-06,0.220
-1.520E-06,0.180
-1.510E-06,0.180
-1.500E-06,0.200
-1.490E-06,0.160
-1.480E-06,0.080
-1.470E-06,0.080
-1.460E-06,0.040
-1.450E-06,-0.020
-1.440E-06,-0.160
-1.430E-06,-0.060
-1.420E-06,-0.320
-1.410E-06,-0.060
-1.400E-06,-0.360
-1.390E-06,-0.100
-1.380E-06,-0.400
-1.370E-06,-0.060
-1.360E-06,-0.320
-1.350E-06,-0.200
-1.340E-06,-0.220
-1.330E-06,-0.160
-1.320E-06,-0.140
-1.310E-06,-0.140
-1.300E-06,-0.120
-1.290E-06,-0.120
-1.280E-06,-0.100
-1.270E-06,-0.060
-1.260E-06,-0.060
-1.250E-06,-0.040
-1.240E-06,-0.040
-1.230E-06,0.000
-1.220E-06,-0.020
-1.210E-06,-0.020
-1.200E-06,-0.120
-1.190E-06,-0.100
-1.180E-06,-0.100
-1.170E-06,-0.120
-1.160E-06,-0.120
-1.150E-06,-0.160
-1.140E-06,-0.160
-1.130E-06,-0.140
-1.120E-06,-0.160
-1.110E-06,-0.100
-1.100E-06,-0.080
-1.090E-06,-0.080
-1.080E-06,-0.060
-1.070E-06,-0.080
-1.060E-06,-0.040
-1.050E-06,-0.040
-1.040E-06,-0.020
-1.030E-06,-0.120
-1.020E-06,0.000
-1.010E-06,-0.160
-1.000E-06,0.160
-9.900E-07,-0.340
-9.800E-07,0.120
-9.700E-07,-0.360
-9.600E-07,0.300
-9.500E-07,-0.300
-9.400E-07,0.060
-9.300E-07,-0.180
-9.200E-07,-0.120
-9.100E-07,0.100
-9.000E-07,0.360
-8.900E-07,0.960
-8.800E-07,1.440
-8.700E-07,1.720
-8.600E-07,1.680
-8.500E-07,1.260
-8.400E-07,0.640
-8.300E-07,-0.120
-8.200E-07,-0.880
-8.100E-07,-1.420
-8.000E-07,-1.640
-7.900E-07,-1.940
-7.800E-07,-1.700
-7.700E-07,-1.760
-7.600E-07,-1.200
-7.500E-07,-1.260
-7.400E-07,-0.700
-7.300E-07,-1.080
-7.200E-07,-0.700
-7.100E-07,-0.700
-7.000E-07,-0.620
-6.900E-07,-0.440
-6.800E-07,-0.580
-6.700E-07,-0.580
-6.600E-07,-0.640
-6.500E-07,-0.600
-6.400E-07,-0.560
-6.300E-07,-0.180
-6.200E-07,0.060
-6.100E-07,0.660
-6.000E-07,0.500
-5.900E-07,0.820
-5.800E-07,0.540
-5.700E-07,0.680
-5.600E-07,0.380
-5.500E-07,0.440
-5.400E-07,0.180
-5.300E-07,0.060
-5.200E-07,-0.100
-5.100E-07,-0.360
-5.000E-07,-0.440
-4.900E-07,-0.540
-4.800E-07,-0.440
-4.700E-07,-0.340
-4.600E-07,-0.200
-4.500E-07,0.160
-4.400E-07,0.340
-4.300E-07,0.400
-4.200E-07,0.500
-4.100E-07,0.580
-4.000E-07,0.260
-3.900E-07,0.320
-3.800E-07,0.040
-3.700E-07,-0.080
-3.600E-07,-0.220
-3.500E-07,-0.380
-3.400E-07,-0.320
-3.300E-07,-0.580
-3.200E-07,-0.480
-3.100E-07,-0.480
-3.000E-07,-0.480
-2.900E-07,-0.340
-2.800E-07,-0.380
-2.700E-07,-0.020
-2.600E-07,1.360
-2.500E-07,0.480
-2.400E-07,0.160
-2.300E-07,-0.120
-2.200E-07,-2.080
-2.100E-07,-1.800
-2.000E-07,-2.140
-1.900E-07,-0.920
-1.800E-07,-0.160
-1.700E-07,-0.160
-1.600E-07,0.300
-1.500E-07,-0.200
-1.400E-07,0.000
-1.300E-07,0.000
-1.200E-07,-0.200
-1.100E-07,-0.020
-1.000E-07,0.440
-9.000E-08,0.640
-8.000E-08,0.360
-7.000E-08,-0.180
-6.000E-08,0.800
-5.000E-08,1.480
-4.000E-08,1.200
-3.000E-08,1.060
-2.000E-08,0.420
-1.000E-08,0.080
0.000E+00,-1.300
1.000E-08,-1.840
2.000E-08,-1.940
3.000E-08,-1.360
4.000E-08,0.020
5.000E-08,0.060
6.000E-08,0.040
7.000E-08,-0.140
8.000E-08,-0.640
9.000E-08,-1.120
1.000E-07,-1.080
1.100E-07,-0.940
1.200E-07,-0.340
1.300E-07,0.240
1.400E-07,0.380
1.500E-07,1.000
1.600E-07,0.220
1.700E-07,0.200
1.800E-07,0.100
1.900E-07,0.380
2.000E-07,0.260
2.100E-07,0.400
2.200E-07,0.280
2.300E-07,0.320
2.400E-07,-0.300
2.500E-07,0.240
2.600E-07,-0.060
2.700E-07,-0.160
2.800E-07,-0.240
2.900E-07,-0.240
3.000E-07,-0.580
3.100E-07,-0.600
3.200E-07,-0.880
3.300E-07,-0.800
3.400E-07,-0.680
3.500E-07,-0.160
3.600E-07,-0.300
3.700E-07,-0.160
3.800E-07,-0.300
3.900E-07,-0.300
4.000E-07,-0.320
4.100E-07,-0.120
4.200E-07,0.160
4.300E-07,-0.100
4.400E-07,0.080
4.500E-07,0.080
4.600E-07,0.100
4.700E-07,-0.020
4.800E-07,-0.140
4.900E-07,-0.120
5.000E-07,-0.080
5.100E-07,-0.260
5.200E-07,-0.080
5.300E-07,-0.460
5.400E-07,-0.240
5.500E-07,-0.420
5.600E-07,-0.100
5.700E-07,-0.460
5.800E-07,-0.420
5.900E-07,-0.320
6.000E-07,-0.500
6.100E-07,-0.360
6.200E-07,-0.200
6.300E-07,-0.180
6.400E-07,0.060
6.500E-07,0.000
6.600E-07,0.140
6.700E-07,0.260
6.800E-07,0.200
6.900E-07,0.320
7.000E-07,0.240
7.100E-07,0.240
7.200E-07,0.280
7.300E-07,0.260
7.400E-07,0.080
7.500E-07,0.020
7.600E-07,-0.120
7.700E-07,-0.320
7.800E-07,-0.260
7.900E-07,-0.200
8.000E-07,-0.120
8.100E-07,-0.100
8.200E-07,-0.160
8.300E-07,-0.480
8.400E-07,-0.420
8.500E-07,-0.700
8.600E-07,-0.520
8.700E-07,-0.500
8.800E-07,-0.480
8.900E-07,-0.500
9.000E-07,-0.660
9.100E-07,-0.680
9.200E-07,-0.700
9.300E-07,-0.720
9.400E-07,-0.600
9.500E-07,-0.520
9.600E-07,-0.520
9.700E-07,-0.440
9.800E-07,-0.500
9.900E-07,-0.500
1.000E-06,-0.420
1.010E-06,-0.400
1.020E-06,-0.240
1.030E-06,-0.200
1.040E-06,-0.160
1.050E-06,-0.100
1.060E-06,-0.080
1.070E-06,-0.160
1.080E-06,-0.140
1.090E-06,-0.240
1.100E-06,-0.120
1.110E-06,-0.200
1.120E-06,-0.020
1.130E-06,-0.200
1.140E-06,0.000
1.150E-06,-0.220
1.160E-06,-0.080
1.170E-06,-0.160
1.180E-06,-0.180
1.190E-06,-0.240
1.200E-06,-0.360
1.210E-06,-0.320
1.220E-06,-0.400
1.230E-06,-0.340
1.240E-06,-0.360
1.250E-06,-0.360
1.260E-06,-0.360
1.270E-06,-0.340
1.280E-06,-0.360
1.290E-06,-0.160
1.300E-06,-0.280
1.310E-06,-0.060
1.320E-06,-0.100
1.330E-06,-0.340
1.340E-06,-0.320
1.350E-06,-0.360
1.360E-06,-0.440
1.370E-06,-0.320
1.380E-06,-0.360
1.390E-06,-0.380
1.400E-06,-0.420
1.410E-06,-0.480
1.420E-06,-0.660
1.430E-06,-0.560
1.440E-06,-0.860
1.450E-06,-0.480
1.460E-06,-0.640
1.470E-06,-0.320
1.480E-06,-1.180
1.490E-06,1.800
1.500E-06,2.080
1.510E-06,0.720
1.520E-06,0.500
1.530E-06,-2.460
1.540E-06,-2.000
1.550E-06,-2.580
1.560E-06,-2.040
1.570E-06,-0.840
1.580E-06,0.000
1.590E-06,0.860
1.600E-06,-0.240
1.610E-06,-0.360
1.620E-06,-1.180
1.630E-06,-0.700
1.640E-06,-1.080
1.650E-06,0.380
1.660E-06,0.420
1.670E-06,0.340
1.680E-06,-0.240
1.690E-06,-0.960
1.700E-06,-1.160
1.710E-06,-1.960
1.720E-06,-1.320
1.730E-06,-1.540
1.740E-06,-1.080
1.750E-06,-0.880
1.760E-06,-1.120
1.770E-06,-0.680
1.780E-06,-0.660
1.790E-06,-0.260
1.800E-06,0.580
1.810E-06,0.520
1.820E-06,1.540
1.830E-06,0.640
1.840E-06,0.220
1.850E-06,-0.240
1.860E-06,-0.880
1.870E-06,-1.320
1.880E-06,-1.060
1.890E-06,-1.060
1.900E-06,-0.460
1.910E-06,-0.340
1.920E-06,-0.340
1.930E-06,-0.020
1.940E-06,-0.420
1.950E-06,-0.260
1.960E-06,-0.080
1.970E-06,-0.080
1.980E-06,-0.120
1.990E-06,0.180
2.000E-06,-0.020
2.010E-06,-0.280
2.020E-06,-0.220
2.030E-06,0.000
2.040E-06,0.380
2.050E-06,0.500
2.060E-06,0.480
2.070E-06,0.420
2.080E-06,0.280
2.090E-06,0.640
2.100E-06,0.280
2.110E-06,1.240
2.120E-06,1.420
2.130E-06,0.680
2.140E-06,-0.280
2.150E-06,-0.520
2.160E-06,-1.020
2.170E-06,-0.760
2.180E-06,-0.420
2.190E-06,0.280
2.200E-06,0.240
2.210E-06,-0.280
2.220E-06,-0.760
2.230E-06,-0.980
2.240E-06,-0.900
2.250E-06,-0.540
2.260E-06,-0.500
2.270E-06,-0.180
2.280E-06,-0.080
2.290E-06,-0.340
2.300E-06,-0.460
2.310E-06,-0.420
2.320E-06,-0.140
2.330E-06,-0.180
2.340E-06,-0.140
2.350E-06,-0.280
2.360E-06,-0.540
2.370E-06,-0.920
2.380E-06,-0.920
2.390E-06,-1.020
2.400E-06,-1.020
2.410E-06,-0.720
2.420E-06,-0.600
2.430E-06,-0.500
2.440E-06,-0.400
2.450E-06,-0.440
2.460E-06,-0.360
2.470E-06,-0.460
2.480E-06,-0.440
2.490E-06,-0.300
2.500E-06,-0.220
2.510E-06,0.040
2.520E-06,0.240
2.530E-06,0.440
2.540E-06,0.720
2.550E-06,0.900
2.560E-06,0.780
2.570E-06,0.800
2.580E-06,0.700
2.590E-06,0.380
2.600E-06,0.560
2.610E-06,0.000
2.620E-06,-0.480
2.630E-06,-0.520
2.640E-06,-0.820
2.650E-06,-0.840
2.660E-06,-0.860
2.670E-06,-0.860
2.680E-06,-0.860
2.690E-06,-1.020
2.700E-06,-1.160
2.710E-06,-1.040
2.720E-06,-1.000
2.730E-06,-0.820
2.740E-06,-0.640
2.750E-06,-0.620
2.760E-06,-0.540
2.770E-06,-0.520
2.780E-06,-0.660
2.790E-06,-0.760
2.800E-06,-0.820
2.810E-06,-0.860
2.820E-06,-0.940
2.830E-06,-0.980
2.840E-06,-0.980
2.850E-06,-0.900
2.860E-06,-0.900
2.870E-06,-0.620
2.880E-06,-0.700
2.890E-06,-0.420
2.900E-06,-0.260
2.910E-06,-0.260
2.920E-06,-0.200
2.930E-06,-0.020
2.940E-06,-0.500
2.950E-06,-0.520
2.960E-06,-1.100
2.970E-06,-1.840
2.980E-06,-1.620
2.990E-06,-1.920
3.000E-06,-1.620
3.010E-06,-1.460
3.020E-06,-1.340
3.030E-06,-1.060
3.040E-06,-1.280
3.050E-06,-1.500
3.060E-06,-1.660
3.070E-06,-1.380
3.080E-06,-1.600
3.090E-06,-1.200
3.100E-06,-0.960
3.110E-06,-1.280
3.120E-06,-1.080
3.130E-06,-0.860
3.140E-06,-0.640
3.150E-06,-0.720
3.160E-06,-0.700
3.170E-06,-0.440
3.180E-06,-0.380
3.190E-06,-0.380
3.200E-06,-0.280
3.210E-06,-0.180
3.220E-06,-0.120
3.230E-06,-0.200
3.240E-06,-0.240
3.250E-06,-0.340
3.260E-06,-0.100
3.270E-06,0.160
3.280E-06,0.880
3.290E-06,0.520
3.300E-06,0.200
