mediciones/curva carac 8-28 limpias/-10/WaveData65672.csv

#timebase=2000000(ps)
,#voltbase=500000(mv/100)
#size=4000
-8.350E-06,0.040
-8.340E-06,0.040
-8.330E-06,0.060
-8.320E-06,0.040
-8.310E-06,0.020
-8.300E-06,0.060
-8.290E-06,0.060
-8.280E-06,0.020
-8.270E-06,0.020
-8.260E-06,0.040
-8.250E-06,0.020
-8.240E-06,0.020
-8.230E-06,0.060
-8.220E-06,0.020
-8.210E-06,0.040
-8.200E-06,0.060
-8.190E-06,0.040
-8.180E-06,0.060
-8.170E-06,0.060
-8.160E-06,0.040
-8.150E-06,0.040
-8.140E-06,0.020
-8.130E-06,0.020
-8.120E-06,0.060
-8.110E-06,0.020
-8.100E-06,0.040
-8.090E-06,0.040
-8.080E-06,0.040
-8.070E-06,0.000
-8.060E-06,0.060
-8.050E-06,0.040
-8.040E-06,0.020
-8.030E-06,0.040
-8.020E-06,0.020
-8.010E-06,0.040
-8.000E-06,0.020
-7.990E-06,0.060
-7.980E-06,0.040
-7.970E-06,0.040
-7.960E-06,0.060
-7.950E-06,0.060
-7.940E-06,0.040
-7.930E-06,0.040
-7.920E-06,0.040
-7.910E-06,0.020
-7.900E-06,0.020
-7.890E-06,0.040
-7.880E-06,0.060
-7.870E-06,0.060
-7.860E-06,0.020
-7.850E-06,0.040
-7.840E-06,0.040
-7.830E-06,0.040
-7.820E-06,0.040
-7.810E-06,0.060
-7.800E-06,0.040
-7.790E-06,0.040
-7.780E-06,0.040
-7.770E-06,0.040
-7.760E-06,0.080
-7.750E-06,0.020
-7.740E-06,0.080
-7.730E-06,0.040
-7.720E-06,0.040
-7.710E-06,0.040
-7.700E-06,0.060
-7.690E-06,0.020
-7.680E-06,0.060
-7.670E-06,0.020
-7.660E-06,0.040
-7.650E-06,0.060
-7.640E-06,0.060
-7.630E-06,0.060
-7.620E-06,0.020
-7.610E-06,0.020
-7.600E-06,0.020
-7.590E-06,0.060
-7.580E-06,0.060
-7.570E-06,0.000
-7.560E-06,0.040
-7.550E-06,0.020
-7.540E-06,0.020
-7.530E-06,0.040
-7.520E-06,0.060
-7.510E-06,0.080
-7.500E-06,0.020
-7.490E-06,0.020
-7.480E-06,0.020
-7.470E-06,0.020
-7.460E-06,0.040
-7.450E-06,0.040
-7.440E-06,0.040
-7.430E-06,0.060
-7.420E-06,0.040
-7.410E-06,0.040
-7.400E-06,0.020
-7.390E-06,0.040
-7.380E-06,0.020
-7.370E-06,0.020
-7.360E-06,0.060
-7.350E-06,0.000
-7.340E-06,0.020
-7.330E-06,0.060
-7.320E-06,0.020
-7.310E-06,0.040
-7.300E-06,0.060
-7.290E-06,0.040
-7.280E-06,0.020
-7.270E-06,0.040
-7.260E-06,0.020
-7.250E-06,0.060
-7.240E-06,0.040
-7.230E-06,0.040
-7.220E-06,0.040
-7.210E-06,0.060
-7.200E-06,0.040
-7.190E-06,0.060
-7.180E-06,0.020
-7.170E-06,0.040
-7.160E-06,0.060
-7.150E-06,0.040
-7.140E-06,0.020
-7.130E-06,0.060
-7.120E-06,0.060
-7.110E-06,0.080
-7.100E-06,0.080
-7.090E-06,0.040
-7.080E-06,0.020
-7.070E-06,0.020
-7.060E-06,0.040
-7.050E-06,0.040
-7.040E-06,0.060
-7.030E-06,0.060
-7.020E-06,0.020
-7.010E-06,0.040
-7.000E-06,0.040
-6.990E-06,0.040
-6.980E-06,0.020
-6.970E-06,0.040
-6.960E-06,0.040
-6.950E-06,0.000
-6.940E-06,0.040
-6.930E-06,0.020
-6.920E-06,0.040
-6.910E-06,0.040
-6.900E-06,0.060
-6.890E-06,0.040
-6.880E-06,0.020
-6.870E-06,0.060
-6.860E-06,0.020
-6.850E-06,0.060
-6.840E-06,0.040
-6.830E-06,0.040
-6.820E-06,0.060
-6.810E-06,0.040
-6.800E-06,0.040
-6.790E-06,0.080
-6.780E-06,0.040
-6.770E-06,0.020
-6.760E-06,0.060
-6.750E-06,0.020
-6.740E-06,0.020
-6.730E-06,0.060
-6.720E-06,0.080
-6.710E-06,0.020
-6.700E-06,0.020
-6.690E-06,0.020
-6.680E-06,0.060
-6.670E-06,0.020
-6.660E-06,0.060
-6.650E-06,0.040
-6.640E-06,0.020
-6.630E-06,0.040
-6.620E-06,0.060
-6.610E-06,0.060
-6.600E-06,0.040
-6.590E-06,0.020
-6.580E-06,0.040
-6.570E-06,0.040
-6.560E-06,0.080
-6.550E-06,0.060
-6.540E-06,0.080
-6.530E-06,0.000
-6.520E-06,0.040
-6.510E-06,0.060
-6.500E-06,0.060
-6.490E-06,0.040
-6.480E-06,0.060
-6.470E-06,0.000
-6.460E-06,0.040
-6.450E-06,0.040
-6.440E-06,0.020
-6.430E-06,0.060
-6.420E-06,0.020
-6.410E-06,0.040
-6.400E-06,0.040
-6.390E-06,0.060
-6.380E-06,0.040
-6.370E-06,0.060
-6.360E-06,0.040
-6.350E-06,0.060
-6.340E-06,0.040
-6.330E-06,0.040
-6.320E-06,0.040
-6.310E-06,0.040
-6.300E-06,0.020
-6.290E-06,0.060
-6.280E-06,0.060
-6.270E-06,0.080
-6.260E-06,0.060
-6.250E-06,0.040
-6.240E-06,0.080
-6.230E-06,0.020
-6.220E-06,0.040
-6.210E-06,0.060
-6.200E-06,0.020
-6.190E-06,0.060
-6.180E-06,0.060
-6.170E-06,0.080
-6.160E-06,0.060
-6.150E-06,0.060
-6.140E-06,0.020
-6.130E-06,0.040
-6.120E-06,0.060
-6.110E-06,0.060
-6.100E-06,0.060
-6.090E-06,0.020
-6.080E-06,0.020
-6.070E-06,0.060
-6.060E-06,0.060
-6.050E-06,0.020
-6.040E-06,0.040
-6.030E-06,0.000
-6.020E-06,0.060
-6.010E-06,0.060
-6.000E-06,0.020
-5.990E-06,0.020
-5.980E-06,0.040
-5.970E-06,0.020
-5.960E-06,0.020
-5.950E-06,0.060
-5.940E-06,0.060
-5.930E-06,0.020
-5.920E-06,0.020
-5.910E-06,0.040
-5.900E-06,0.040
-5.890E-06,0.060
-5.880E-06,0.000
-5.870E-06,0.040
-5.860E-06,0.020
-5.850E-06,0.040
-5.840E-06,0.020
-5.830E-06,0.040
-5.820E-06,0.020
-5.810E-06,0.040
-5.800E-06,0.020
-5.790E-06,0.020
-5.780E-06,0.040
-5.770E-06,0.040
-5.760E-06,0.040
-5.750E-06,0.040
-5.740E-06,0.080
-5.730E-06,0.020
-5.720E-06,0.060
-5.710E-06,0.060
-5.700E-06,0.080
-5.690E-06,0.060
-5.680E-06,0.080
-5.670E-06,0.020
-5.660E-06,0.020
-5.650E-06,0.060
-5.640E-06,0.020
-5.630E-06,0.060
-5.620E-06,0.060
-5.610E-06,0.040
-5.600E-06,0.020
-5.590E-06,0.040
-5.580E-06,0.040
-5.570E-06,0.020
-5.560E-06,0.000
-5.550E-06,0.040
-5.540E-06,0.000
-5.530E-06,0.040
-5.520E-06,0.020
-5.510E-06,0.040
-5.500E-06,0.020
-5.490E-06,0.060
-5.480E-06,0.020
-5.470E-06,0.020
-5.460E-06,0.060
-5.450E-06,0.040
-5.440E-06,0.020
-5.430E-06,0.020
-5.420E-06,0.060
-5.410E-06,0.040
-5.400E-06,0.020
-5.390E-06,0.040
-5.380E-06,0.080
-5.370E-06,0.020
-5.360E-06,0.020
-5.350E-06,0.040
-5.340E-06,0.040
-5.330E-06,0.040
-5.320E-06,0.040
-5.310E-06,0.020
-5.300E-06,0.060
-5.290E-06,0.020
-5.280E-06,0.040
-5.270E-06,0.060
-5.260E-06,0.040
-5.250E-06,0.060
-5.240E-06,0.040
-5.230E-06,0.040
-5.220E-06,0.040
-5.210E-06,0.060
-5.200E-06,0.080
-5.190E-06,0.040
-5.180E-06,0.060
-5.170E-06,0.020
-5.160E-06,0.020
-5.150E-06,0.040
-5.140E-06,0.020
-5.130E-06,0.040
-5.120E-06,0.020
-5.110E-06,0.040
-5.100E-06,0.040
-5.090E-06,0.040
-5.080E-06,0.080
-5.070E-06,0.040
-5.060E-06,0.020
-5.050E-06,0.020
-5.040E-06,0.040
-5.030E-06,0.020
-5.020E-06,0.020
-5.010E-06,0.040
-5.000E-06,0.040
-4.990E-06,0.060
-4.980E-06,0.040
-4.970E-06,0.020
-4.960E-06,0.040
-4.950E-06,0.040
-4.940E-06,0.020
-4.930E-06,0.040
-4.920E-06,0.040
-4.910E-06,0.040
-4.900E-06,0.060
-4.890E-06,0.020
-4.880E-06,0.020
-4.870E-06,0.040
-4.860E-06,0.040
-4.850E-06,0.040
-4.840E-06,0.040
-4.830E-06,0.060
-4.820E-06,0.040
-4.810E-06,0.020
-4.800E-06,0.060
-4.790E-06,0.040
-4.780E-06,0.060
-4.770E-06,0.060
-4.760E-06,0.060
-4.750E-06,0.040
-4.740E-06,0.020
-4.730E-06,0.040
-4.720E-06,0.040
-4.710E-06,0.060
-4.700E-06,0.020
-4.690E-06,0.060
-4.680E-06,0.000
-4.670E-06,0.040
-4.660E-06,0.080
-4.650E-06,0.080
-4.640E-06,0.060
-4.630E-06,0.020
-4.620E-06,0.020
-4.610E-06,0.060
-4.600E-06,0.040
-4.590E-06,0.040
-4.580E-06,0.040
-4.570E-06,0.060
-4.560E-06,0.060
-4.550E-06,0.060
-4.540E-06,0.020
-4.530E-06,0.020
-4.520E-06,0.040
-4.510E-06,0.040
-4.500E-06,0.060
-4.490E-06,0.060
-4.480E-06,0.040
-4.470E-06,0.020
-4.460E-06,0.040
-4.450E-06,0.060
-4.440E-06,0.040
-4.430E-06,0.080
-4.420E-06,0.040
-4.410E-06,0.020
-4.400E-06,0.040
-4.390E-06,0.060
-4.380E-06,0.060
-4.370E-06,0.060
-4.360E-06,0.020
-4.350E-06,0.040
-4.340E-06,0.020
-4.330E-06,0.040
-4.320E-06,0.060
-4.310E-06,0.020
-4.300E-06,0.000
-4.290E-06,0.040
-4.280E-06,0.060
-4.270E-06,0.040
-4.260E-06,0.020
-4.250E-06,0.040
-4.240E-06,0.060
-4.230E-06,0.000
-4.220E-06,0.020
-4.210E-06,0.040
-4.200E-06,0.020
-4.190E-06,0.020
-4.180E-06,0.000
-4.170E-06,0.020
-4.160E-06,0.040
-4.150E-06,0.020
-4.140E-06,0.020
-4.130E-06,0.060
-4.120E-06,0.040
-4.110E-06,0.060
-4.100E-06,0.040
-4.090E-06,0.000
-4.080E-06,0.040
-4.070E-06,0.060
-4.060E-06,0.040
-4.050E-06,0.040
-4.040E-06,0.040
-4.030E-06,0.040
-4.020E-06,0.080
-4.010E-06,0.040
-4.000E-06,0.000
-3.990E-06,0.060
-3.980E-06,0.040
-3.970E-06,0.040
-3.960E-06,0.040
-3.950E-06,0.060
-3.940E-06,0.040
-3.930E-06,0.020
-3.920E-06,0.060
-3.910E-06,0.020
-3.900E-06,0.040
-3.890E-06,0.040
-3.880E-06,0.060
-3.870E-06,0.040
-3.860E-06,0.040
-3.850E-06,0.060
-3.840E-06,0.040
-3.830E-06,0.020
-3.820E-06,0.040
-3.810E-06,0.060
-3.800E-06,0.040
-3.790E-06,0.060
-3.780E-06,0.060
-3.770E-06,0.000
-3.760E-06,0.080
-3.750E-06,0.080
-3.740E-06,0.020
-3.730E-06,0.020
-3.720E-06,0.020
-3.710E-06,0.060
-3.700E-06,0.020
-3.690E-06,0.040
-3.680E-06,0.060
-3.670E-06,0.060
-3.660E-06,0.060
-3.650E-06,0.020
-3.640E-06,0.000
-3.630E-06,0.040
-3.620E-06,0.060
-3.610E-06,0.060
-3.600E-06,0.060
-3.590E-06,0.080
-3.580E-06,0.040
-3.570E-06,0.040
-3.560E-06,0.060
-3.550E-06,0.060
-3.540E-06,0.080
-3.530E-06,0.020
-3.520E-06,0.040
-3.510E-06,0.060
-3.500E-06,0.040
-3.490E-06,0.040
-3.480E-06,0.040
-3.470E-06,0.080
-3.460E-06,0.040
-3.450E-06,0.040
-3.440E-06,0.040
-3.430E-06,0.020
-3.420E-06,0.020
-3.410E-06,0.060
-3.400E-06,0.040
-3.390E-06,0.020
-3.380E-06,0.040
-3.370E-06,0.020
-3.360E-06,0.040
-3.350E-06,0.040
-3.340E-06,0.040
-3.330E-06,0.040
-3.320E-06,0.060
-3.310E-06,0.040
-3.300E-06,0.040
-3.290E-06,0.040
-3.280E-06,0.040
-3.270E-06,0.040
-3.260E-06,0.040
-3.250E-06,0.040
-3.240E-06,0.060
-3.230E-06,0.040
-3.220E-06,0.040
-3.210E-06,0.060
-3.200E-06,0.020
-3.190E-06,0.080
-3.180E-06,0.080
-3.170E-06,0.020
-3.160E-06,0.040
-3.150E-06,0.060
-3.140E-06,0.040
-3.130E-06,0.060
-3.120E-06,0.040
-3.110E-06,0.020
-3.100E-06,0.020
-3.090E-06,0.000
-3.080E-06,0.040
-3.070E-06,0.060
-3.060E-06,0.000
-3.050E-06,0.040
-3.040E-06,0.040
-3.030E-06,0.040
-3.020E-06,0.060
-3.010E-06,0.040
-3.000E-06,0.020
-2.990E-06,0.020
-2.980E-06,0.020
-2.970E-06,0.040
-2.960E-06,0.040
-2.950E-06,0.020
-2.940E-06,0.060
-2.930E-06,0.060
-2.920E-06,0.060
-2.910E-06,0.060
-2.900E-06,0.040
-2.890E-06,0.040
-2.880E-06,0.040
-2.870E-06,0.020
-2.860E-06,0.040
-2.850E-06,0.020
-2.840E-06,0.040
-2.830E-06,0.020
-2.820E-06,0.040
-2.810E-06,0.040
-2.800E-06,0.020
-2.790E-06,0.040
-2.780E-06,0.080
-2.770E-06,0.060
-2.760E-06,0.060
-2.750E-06,0.020
-2.740E-06,0.060
-2.730E-06,0.040
-2.720E-06,0.060
-2.710E-06,0.060
-2.700E-06,0.060
-2.690E-06,0.040
-2.680E-06,0.080
-2.670E-06,0.040
-2.660E-06,0.020
-2.650E-06,0.040
-2.640E-06,0.000
-2.630E-06,0.020
-2.620E-06,0.020
-2.610E-06,0.040
-2.600E-06,0.040
-2.590E-06,0.000
-2.580E-06,0.040
-2.570E-06,0.080
-2.560E-06,0.040
-2.550E-06,0.000
-2.540E-06,0.040
-2.530E-06,0.000
-2.520E-06,0.040
-2.510E-06,-0.040
-2.500E-06,-0.240
-2.490E-06,-0.940
-2.480E-06,-1.860
-2.470E-06,-2.740
-2.460E-06,-3.220
-2.450E-06,-2.980
-2.440E-06,-2.080
-2.430E-06,-0.860
-2.420E-06,0.420
-2.410E-06,1.600
-2.400E-06,2.080
-2.390E-06,2.100
-2.380E-06,2.100
-2.370E-06,2.080
-2.360E-06,2.100
-2.350E-06,2.080
-2.340E-06,2.100
-2.330E-06,1.340
-2.320E-06,0.440
-2.310E-06,-0.120
-2.300E-06,-0.600
-2.290E-06,-0.860
-2.280E-06,-0.680
-2.270E-06,-0.500
-2.260E-06,-0.320
-2.250E-06,-0.240
-2.240E-06,-0.340
-2.230E-06,-0.640
-2.220E-06,-1.040
-2.210E-06,-1.360
-2.200E-06,-1.720
-2.190E-06,-1.860
-2.180E-06,-1.860
-2.170E-06,-1.640
-2.160E-06,-1.280
-2.150E-06,-0.820
-2.140E-06,-0.180
-2.130E-06,0.420
-2.120E-06,0.980
-2.110E-06,1.340
-2.100E-06,1.600
-2.090E-06,1.640
-2.080E-06,1.480
-2.070E-06,1.180
-2.060E-06,0.760
-2.050E-06,0.360
-2.040E-06,-0.140
-2.030E-06,-0.480
-2.020E-06,-0.740
-2.010E-06,-0.860
-2.000E-06,-0.920
-1.990E-06,-0.840
-1.980E-06,-0.760
-1.970E-06,-0.580
-1.960E-06,-0.420
-1.950E-06,-0.260
-1.940E-06,-0.100
-1.930E-06,0.100
-1.920E-06,0.340
-1.910E-06,0.420
-1.900E-06,0.640
-1.890E-06,0.780
-1.880E-06,0.840
-1.870E-06,0.920
-1.860E-06,0.880
-1.850E-06,0.960
-1.840E-06,0.860
-1.830E-06,0.660
-1.820E-06,0.460
-1.810E-06,0.340
-1.800E-06,0.100
-1.790E-06,-0.060
-1.780E-06,-0.160
-1.770E-06,-0.080
-1.760E-06,-0.340
-1.750E-06,-0.460
-1.740E-06,-0.580
-1.730E-06,-0.700
-1.720E-06,-0.760
-1.710E-06,-0.700
-1.700E-06,-0.620
-1.690E-06,-0.400
-1.680E-06,-0.280
-1.670E-06,-0.080
-1.660E-06,0.060
-1.650E-06,0.240
-1.640E-06,0.380
-1.630E-06,0.520
-1.620E-06,0.700
-1.610E-06,0.800
-1.600E-06,0.760
-1.590E-06,0.640
-1.580E-06,0.560
-1.570E-06,0.340
-1.560E-06,0.100
-1.550E-06,-0.120
-1.540E-06,-0.320
-1.530E-06,-0.480
-1.520E-06,-0.600
-1.510E-06,-0.560
-1.500E-06,-0.540
-1.490E-06,-0.440
-1.480E-06,-0.280
-1.470E-06,-0.180
-1.460E-06,-0.100
-1.450E-06,-0.040
-1.440E-06,-0.060
-1.430E-06,-0.060
-1.420E-06,0.120
-1.410E-06,0.460
-1.400E-06,0.580
-1.390E-06,0.360
-1.380E-06,0.520
-1.370E-06,0.240
-1.360E-06,0.080
-1.350E-06,-0.160
-1.340E-06,-0.140
-1.330E-06,-0.020
-1.320E-06,-0.060
-1.310E-06,0.080
-1.300E-06,-0.180
-1.290E-06,-0.220
-1.280E-06,-0.300
-1.270E-06,-0.220
-1.260E-06,-0.240
-1.250E-06,-0.080
-1.240E-06,-0.280
-1.230E-06,0.100
-1.220E-06,-0.580
-1.210E-06,0.000
-1.200E-06,-0.840
-1.190E-06,-0.220
-1.180E-06,-0.440
-1.170E-06,-0.500
-1.160E-06,0.320
-1.150E-06,-0.240
-1.140E-06,0.340
-1.130E-06,0.020
-1.120E-06,-0.040
-1.110E-06,-0.100
-1.100E-06,-0.320
-1.090E-06,-0.140
-1.080E-06,-0.080
-1.070E-06,-0.180
-1.060E-06,-0.020
-1.050E-06,-0.160
-1.040E-06,-0.120
-1.030E-06,-0.140
-1.020E-06,-0.240
-1.010E-06,-0.180
-1.000E-06,-0.060
-9.900E-07,-0.040
-9.800E-07,0.000
-9.700E-07,0.060
-9.600E-07,0.080
-9.500E-07,0.280
-9.400E-07,0.180
-9.300E-07,0.140
-9.200E-07,0.180
-9.100E-07,0.040
-9.000E-07,0.080
-8.900E-07,0.040
-8.800E-07,0.160
-8.700E-07,0.080
-8.600E-07,0.040
-8.500E-07,-0.220
-8.400E-07,-0.200
-8.300E-07,-0.240
-8.200E-07,0.200
-8.100E-07,-0.300
-8.000E-07,0.240
-7.900E-07,-0.140
-7.800E-07,0.220
-7.700E-07,0.080
-7.600E-07,0.240
-7.500E-07,0.240
-7.400E-07,0.120
-7.300E-07,-0.220
-7.200E-07,-0.280
-7.100E-07,-0.380
-7.000E-07,-0.280
-6.900E-07,-0.280
-6.800E-07,-0.100
-6.700E-07,-0.100
-6.600E-07,-0.180
-6.500E-07,-0.160
-6.400E-07,-0.380
-6.300E-07,-0.520
-6.200E-07,-0.420
-6.100E-07,-0.440
-6.000E-07,-0.340
-5.900E-07,-0.200
-5.800E-07,-0.320
-5.700E-07,-0.080
-5.600E-07,-0.180
-5.500E-07,-0.040
-5.400E-07,-0.060
-5.300E-07,-0.220
-5.200E-07,-0.300
-5.100E-07,0.040
-5.000E-07,-0.220
-4.900E-07,0.160
-4.800E-07,-0.140
-4.700E-07,0.080
-4.600E-07,-0.100
-4.500E-07,-0.080
-4.400E-07,-0.120
-4.300E-07,-0.140
-4.200E-07,-0.020
-4.100E-07,0.080
-4.000E-07,0.220
-3.900E-07,0.280
-3.800E-07,0.320
-3.700E-07,0.240
-3.600E-07,0.060
-3.500E-07,0.020
-3.400E-07,-0.100
-3.300E-07,-0.100
-3.200E-07,-0.100
-3.100E-07,-0.100
-3.000E-07,-0.120
-2.900E-07,-0.180
-2.800E-07,-0.120
-2.700E-07,-0.200
-2.600E-07,-0.180
-2.500E-07,-0.200
-2.400E-07,-0.300
-2.300E-07,0.060
-2.200E-07,-0.420
-2.100E-07,-0.200
-2.000E-07,-0.120
-1.900E-07,-0.180
-1.800E-07,0.300
-1.700E-07,-0.720
-1.600E-07,0.320
-1.500E-07,-0.140
-1.400E-07,0.440
-1.300E-07,0.680
-1.200E-07,0.200
-1.100E-07,0.680
-1.000E-07,0.080
-9.000E-08,-0.180
-8.000E-08,-0.040
-7.000E-08,-0.120
-6.000E-08,-0.200
-5.000E-08,-0.820
-4.000E-08,-0.860
-3.000E-08,-0.280
-2.000E-08,-0.840
-1.000E-08,-1.220
0.000E+00,-1.440
1.000E-08,-1.400
2.000E-08,-1.280
3.000E-08,-0.640
4.000E-08,-0.600
5.000E-08,0.160
6.000E-08,-0.220
7.000E-08,0.080
8.000E-08,0.260
9.000E-08,0.100
1.000E-07,0.260
1.100E-07,0.500
1.200E-07,0.200
1.300E-07,0.200
1.400E-07,-0.200
1.500E-07,-0.200
1.600E-07,-0.700
1.700E-07,-0.660
1.800E-07,-1.080
1.900E-07,-1.240
2.000E-07,-1.080
2.100E-07,-1.200
2.200E-07,-0.880
2.300E-07,-1.040
2.400E-07,-0.820
2.500E-07,-0.840
2.600E-07,-0.680
2.700E-07,-0.580
2.800E-07,-0.520
2.900E-07,-0.360
3.000E-07,0.000
3.100E-07,0.180
3.200E-07,0.220
3.300E-07,0.300
3.400E-07,0.180
3.500E-07,0.820
3.600E-07,0.340
3.700E-07,1.020
3.800E-07,0.520
3.900E-07,0.660
4.000E-07,0.040
4.100E-07,-0.220
4.200E-07,-0.480
4.300E-07,-0.900
4.400E-07,-0.920
4.500E-07,-1.260
4.600E-07,-1.360
4.700E-07,-1.420
4.800E-07,-1.320
4.900E-07,-1.220
5.000E-07,-1.100
5.100E-07,-0.920
5.200E-07,-0.700
5.300E-07,-0.440
5.400E-07,-0.200
5.500E-07,0.060
5.600E-07,0.260
5.700E-07,0.380
5.800E-07,0.540
5.900E-07,0.520
6.000E-07,0.500
6.100E-07,0.460
6.200E-07,0.340
6.300E-07,0.240
6.400E-07,0.140
6.500E-07,-0.040
6.600E-07,-0.260
6.700E-07,-0.160
6.800E-07,-0.720
6.900E-07,-2.340
7.000E-07,0.440
7.100E-07,-3.320
7.200E-07,-3.340
7.300E-07,-3.340
7.400E-07,-2.380
7.500E-07,1.080
7.600E-07,-0.500
7.700E-07,2.080
7.800E-07,0.440
7.900E-07,1.860
8.000E-07,2.100
8.100E-07,2.080
8.200E-07,2.100
8.300E-07,2.100
8.400E-07,2.080
8.500E-07,1.900
8.600E-07,0.760
8.700E-07,-0.820
8.800E-07,0.240
8.900E-07,-0.460
9.000E-07,0.320
9.100E-07,0.240
9.200E-07,-0.960
9.300E-07,-2.580
9.400E-07,-3.340
9.500E-07,-3.340
9.600E-07,-3.340
9.700E-07,-3.360
9.800E-07,-3.360
9.900E-07,-3.340
1.000E-06,-3.340
1.010E-06,-2.620
1.020E-06,-1.780
1.030E-06,-0.940
1.040E-06,0.020
1.050E-06,1.020
1.060E-06,2.080
1.070E-06,2.080
1.080E-06,2.100
1.090E-06,2.100
1.100E-06,2.080
1.110E-06,2.080
1.120E-06,2.080
1.130E-06,1.540
1.140E-06,0.960
1.150E-06,0.260
1.160E-06,-0.320
1.170E-06,-0.840
1.180E-06,-1.300
1.190E-06,-1.700
1.200E-06,-1.860
1.210E-06,-2.140
1.220E-06,-1.920
1.230E-06,-1.680
1.240E-06,-1.240
1.250E-06,-0.820
1.260E-06,-0.580
1.270E-06,-0.240
1.280E-06,-0.100
1.290E-06,0.020
1.300E-06,0.040
1.310E-06,0.060
1.320E-06,0.220
1.330E-06,0.400
1.340E-06,0.660
1.350E-06,0.940
1.360E-06,1.140
1.370E-06,0.920
1.380E-06,0.640
1.390E-06,0.080
1.400E-06,-0.560
1.410E-06,-0.580
1.420E-06,-1.160
1.430E-06,-1.880
1.440E-06,-2.440
1.450E-06,-2.880
1.460E-06,-3.100
1.470E-06,-3.300
1.480E-06,-3.360
1.490E-06,-3.180
1.500E-06,-2.700
1.510E-06,-2.040
1.520E-06,-1.580
1.530E-06,-0.940
1.540E-06,-0.500
1.550E-06,0.060
1.560E-06,0.280
1.570E-06,0.480
1.580E-06,0.920
1.590E-06,0.360
1.600E-06,0.640
1.610E-06,0.260
1.620E-06,0.240
1.630E-06,0.260
1.640E-06,0.120
1.650E-06,-0.020
1.660E-06,0.000
1.670E-06,-0.260
1.680E-06,-0.500
1.690E-06,-0.780
1.700E-06,-0.680
1.710E-06,-1.020
1.720E-06,-1.420
1.730E-06,-1.460
1.740E-06,-1.780
1.750E-06,-1.960
1.760E-06,-2.180
1.770E-06,-2.260
1.780E-06,-2.300
1.790E-06,-2.000
1.800E-06,-1.660
1.810E-06,-1.600
1.820E-06,-1.220
1.830E-06,-1.180
1.840E-06,-1.120
1.850E-06,-1.360
1.860E-06,-1.340
1.870E-06,-1.340
1.880E-06,-0.980
1.890E-06,-1.120
1.900E-06,-1.200
1.910E-06,-1.240
1.920E-06,-1.460
1.930E-06,-1.720
1.940E-06,-1.900
1.950E-06,-1.960
1.960E-06,-2.040
1.970E-06,-2.220
1.980E-06,-2.320
1.990E-06,-2.540
2.000E-06,-2.780
2.010E-06,-3.020
2.020E-06,-3.120
2.030E-06,-3.120
2.040E-06,-3.280
2.050E-06,-3.320
2.060E-06,-3.300
2.070E-06,-3.340
2.080E-06,-3.340
2.090E-06,-3.340
2.100E-06,-3.340
2.110E-06,-3.340
2.120E-06,-3.340
2.130E-06,-3.340
2.140E-06,-3.340
2.150E-06,-3.340
2.160E-06,-3.340
2.170E-06,-3.340
2.180E-06,-3.340
2.190E-06,-3.340
2.200E-06,-3.340
2.210E-06,-3.360
2.220E-06,-3.300
2.230E-06,-2.740
2.240E-06,-1.820
2.250E-06,-3.060
2.260E-06,-3.320
2.270E-06,-3.040
2.280E-06,-3.340
2.290E-06,-1.300
2.300E-06,-3.020
2.310E-06,-3.340
2.320E-06,-3.340
2.330E-06,-3.340
2.340E-06,-3.340
2.350E-06,-3.340
2.360E-06,-3.360
2.370E-06,-3.340
2.380E-06,-3.340
2.390E-06,-3.340
2.400E-06,-3.340
2.410E-06,-3.340
2.420E-06,-3.340
2.430E-06,-3.340
2.440E-06,-3.340
2.450E-06,-3.340
2.460E-06,-3.340
2.470E-06,-3.340
2.480E-06,-3.340
2.490E-06,-2.520
2.500E-06,-1.840
2.510E-06,-1.740
2.520E-06,-1.100
2.530E-06,-0.820
2.540E-06,-0.160
2.550E-06,0.160
2.560E-06,0.480
2.570E-06,0.600
2.580E-06,0.640
2.590E-06,0.560
2.600E-06,0.420
2.610E-06,0.360
2.620E-06,0.400
2.630E-06,0.260
2.640E-06,0.180
2.650E-06,0.240
2.660E-06,0.220
2.670E-06,0.220
2.680E-06,0.460
2.690E-06,0.640
2.700E-06,0.500
2.710E-06,0.480
2.720E-06,0.520
2.730E-06,0.680
2.740E-06,0.580
2.750E-06,0.500
2.760E-06,0.340
2.770E-06,0.100
2.780E-06,-0.180
2.790E-06,-0.500
2.800E-06,-0.700
2.810E-06,-0.860
2.820E-06,-1.320
2.830E-06,-1.360
2.840E-06,-0.900
2.850E-06,-1.720
2.860E-06,-1.860
2.870E-06,-2.280
2.880E-06,-3.340
2.890E-06,-3.340
2.900E-06,-3.340
2.910E-06,-3.340
2.920E-06,-3.340
2.930E-06,-3.340
2.940E-06,-3.340
2.950E-06,-3.360
2.960E-06,-3.340
2.970E-06,-3.340
2.980E-06,-3.340
2.990E-06,-3.340
3.000E-06,-3.340
3.010E-06,-3.340
3.020E-06,-3.340
3.030E-06,-3.340
3.040E-06,-3.300
3.050E-06,-2.160
3.060E-06,-1.320
3.070E-06,-0.880
3.080E-06,-0.780
3.090E-06,-0.200
3.100E-06,0.080
3.110E-06,0.540
3.120E-06,1.100
3.130E-06,1.340
3.140E-06,1.700
3.150E-06,1.800
3.160E-06,1.960
3.170E-06,2.080
3.180E-06,2.080
3.190E-06,2.100
3.200E-06,2.100
3.210E-06,2.080
3.220E-06,2.080
3.230E-06,1.920
3.240E-06,1.700
3.250E-06,1.480
3.260E-06,1.180
3.270E-06,1.080
3.280E-06,1.000
3.290E-06,0.940
3.300E-06,0.940
3.310E-06,1.040
3.320E-06,1.000
3.330E-06,0.980
3.340E-06,0.840
3.350E-06,0.660
