mediciones/8-28/58/WaveData65571.csv

#timebase=2000000(ps)
,#voltbase=500000(mv/100)
#size=4000
-8.350E-06,0.100
-8.340E-06,0.060
-8.330E-06,0.060
-8.320E-06,0.060
-8.310E-06,0.040
-8.300E-06,0.060
-8.290E-06,0.020
-8.280E-06,0.100
-8.270E-06,0.060
-8.260E-06,0.100
-8.250E-06,0.080
-8.240E-06,0.060
-8.230E-06,0.120
-8.220E-06,0.040
-8.210E-06,0.060
-8.200E-06,0.060
-8.190E-06,0.040
-8.180E-06,0.060
-8.170E-06,0.060
-8.160E-06,0.060
-8.150E-06,0.080
-8.140E-06,0.080
-8.130E-06,0.060
-8.120E-06,0.060
-8.110E-06,0.060
-8.100E-06,0.060
-8.090E-06,0.080
-8.080E-06,0.060
-8.070E-06,0.080
-8.060E-06,0.080
-8.050E-06,0.060
-8.040E-06,0.040
-8.030E-06,0.040
-8.020E-06,0.080
-8.010E-06,0.060
-8.000E-06,0.060
-7.990E-06,0.040
-7.980E-06,0.060
-7.970E-06,0.060
-7.960E-06,0.060
-7.950E-06,0.060
-7.940E-06,0.040
-7.930E-06,0.040
-7.920E-06,0.040
-7.910E-06,0.060
-7.900E-06,0.040
-7.890E-06,0.040
-7.880E-06,0.080
-7.870E-06,0.040
-7.860E-06,0.040
-7.850E-06,0.080
-7.840E-06,0.100
-7.830E-06,0.020
-7.820E-06,0.040
-7.810E-06,0.040
-7.800E-06,0.060
-7.790E-06,0.060
-7.780E-06,0.060
-7.770E-06,0.080
-7.760E-06,0.060
-7.750E-06,0.080
-7.740E-06,0.060
-7.730E-06,0.040
-7.720E-06,0.080
-7.710E-06,0.040
-7.700E-06,0.080
-7.690E-06,0.020
-7.680E-06,0.020
-7.670E-06,0.080
-7.660E-06,0.060
-7.650E-06,0.060
-7.640E-06,0.060
-7.630E-06,0.080
-7.620E-06,0.080
-7.610E-06,0.060
-7.600E-06,0.060
-7.590E-06,0.020
-7.580E-06,0.080
-7.570E-06,0.060
-7.560E-06,0.080
-7.550E-06,0.060
-7.540E-06,0.060
-7.530E-06,0.020
-7.520E-06,0.060
-7.510E-06,0.080
-7.500E-06,0.040
-7.490E-06,0.080
-7.480E-06,0.080
-7.470E-06,0.080
-7.460E-06,0.040
-7.450E-06,0.080
-7.440E-06,0.040
-7.430E-06,0.060
-7.420E-06,0.040
-7.410E-06,0.060
-7.400E-06,0.060
-7.390E-06,0.040
-7.380E-06,0.040
-7.370E-06,0.060
-7.360E-06,0.080
-7.350E-06,0.060
-7.340E-06,0.060
-7.330E-06,0.060
-7.320E-06,0.080
-7.310E-06,0.080
-7.300E-06,0.040
-7.290E-06,0.060
-7.280E-06,0.080
-7.270E-06,0.060
-7.260E-06,0.080
-7.250E-06,0.060
-7.240E-06,0.060
-7.230E-06,0.060
-7.220E-06,0.040
-7.210E-06,0.080
-7.200E-06,0.020
-7.190E-06,0.040
-7.180E-06,0.040
-7.170E-06,0.080
-7.160E-06,0.100
-7.150E-06,0.040
-7.140E-06,0.060
-7.130E-06,0.040
-7.120E-06,0.060
-7.110E-06,0.040
-7.100E-06,0.080
-7.090E-06,0.040
-7.080E-06,0.060
-7.070E-06,0.040
-7.060E-06,0.060
-7.050E-06,0.060
-7.040E-06,0.060
-7.030E-06,0.060
-7.020E-06,0.040
-7.010E-06,0.080
-7.000E-06,0.080
-6.990E-06,0.060
-6.980E-06,0.040
-6.970E-06,0.080
-6.960E-06,0.060
-6.950E-06,0.040
-6.940E-06,0.060
-6.930E-06,0.080
-6.920E-06,0.060
-6.910E-06,0.060
-6.900E-06,0.080
-6.890E-06,0.040
-6.880E-06,0.080
-6.870E-06,0.060
-6.860E-06,0.080
-6.850E-06,0.040
-6.840E-06,0.060
-6.830E-06,0.060
-6.820E-06,0.080
-6.810E-06,0.060
-6.800E-06,0.060
-6.790E-06,0.060
-6.780E-06,0.080
-6.770E-06,0.080
-6.760E-06,0.080
-6.750E-06,0.080
-6.740E-06,0.100
-6.730E-06,0.060
-6.720E-06,0.040
-6.710E-06,0.080
-6.700E-06,0.040
-6.690E-06,0.040
-6.680E-06,0.060
-6.670E-06,0.060
-6.660E-06,0.040
-6.650E-06,0.080
-6.640E-06,0.080
-6.630E-06,0.040
-6.620E-06,0.080
-6.610E-06,0.060
-6.600E-06,0.060
-6.590E-06,0.060
-6.580E-06,0.060
-6.570E-06,0.080
-6.560E-06,0.040
-6.550E-06,0.060
-6.540E-06,0.060
-6.530E-06,0.040
-6.520E-06,0.060
-6.510E-06,0.060
-6.500E-06,0.080
-6.490E-06,0.060
-6.480E-06,0.040
-6.470E-06,0.080
-6.460E-06,0.060
-6.450E-06,0.060
-6.440E-06,0.040
-6.430E-06,0.080
-6.420E-06,0.040
-6.410E-06,0.040
-6.400E-06,0.040
-6.390E-06,0.080
-6.380E-06,0.080
-6.370E-06,0.060
-6.360E-06,0.060
-6.350E-06,0.040
-6.340E-06,0.020
-6.330E-06,0.040
-6.320E-06,0.040
-6.310E-06,0.080
-6.300E-06,0.060
-6.290E-06,0.040
-6.280E-06,0.080
-6.270E-06,0.040
-6.260E-06,0.040
-6.250E-06,0.060
-6.240E-06,0.060
-6.230E-06,0.040
-6.220E-06,0.060
-6.210E-06,0.080
-6.200E-06,0.060
-6.190E-06,0.040
-6.180E-06,0.080
-6.170E-06,0.040
-6.160E-06,0.080
-6.150E-06,0.060
-6.140E-06,0.040
-6.130E-06,0.060
-6.120E-06,0.040
-6.110E-06,0.080
-6.100E-06,0.060
-6.090E-06,0.040
-6.080E-06,0.060
-6.070E-06,0.080
-6.060E-06,0.040
-6.050E-06,0.040
-6.040E-06,0.080
-6.030E-06,0.060
-6.020E-06,0.060
-6.010E-06,0.040
-6.000E-06,0.060
-5.990E-06,0.060
-5.980E-06,0.060
-5.970E-06,0.060
-5.960E-06,0.060
-5.950E-06,0.060
-5.940E-06,0.060
-5.930E-06,0.040
-5.920E-06,0.080
-5.910E-06,0.060
-5.900E-06,0.060
-5.890E-06,0.040
-5.880E-06,0.060
-5.870E-06,0.080
-5.860E-06,0.040
-5.850E-06,0.060
-5.840E-06,0.080
-5.830E-06,0.020
-5.820E-06,0.040
-5.810E-06,0.040
-5.800E-06,0.040
-5.790E-06,0.080
-5.780E-06,0.040
-5.770E-06,0.080
-5.760E-06,0.040
-5.750E-06,0.080
-5.740E-06,0.040
-5.730E-06,0.080
-5.720E-06,0.040
-5.710E-06,0.040
-5.700E-06,0.020
-5.690E-06,0.040
-5.680E-06,0.060
-5.670E-06,0.100
-5.660E-06,0.060
-5.650E-06,0.040
-5.640E-06,0.040
-5.630E-06,0.060
-5.620E-06,0.040
-5.610E-06,0.060
-5.600E-06,0.080
-5.590E-06,0.060
-5.580E-06,0.060
-5.570E-06,0.060
-5.560E-06,0.060
-5.550E-06,0.040
-5.540E-06,0.060
-5.530E-06,0.060
-5.520E-06,0.080
-5.510E-06,0.040
-5.500E-06,0.060
-5.490E-06,0.080
-5.480E-06,0.040
-5.470E-06,0.080
-5.460E-06,0.060
-5.450E-06,0.060
-5.440E-06,0.080
-5.430E-06,0.080
-5.420E-06,0.040
-5.410E-06,0.060
-5.400E-06,0.060
-5.390E-06,0.040
-5.380E-06,0.060
-5.370E-06,0.060
-5.360E-06,0.040
-5.350E-06,0.100
-5.340E-06,0.060
-5.330E-06,0.080
-5.320E-06,0.020
-5.310E-06,0.040
-5.300E-06,0.060
-5.290E-06,0.060
-5.280E-06,0.060
-5.270E-06,0.080
-5.260E-06,0.040
-5.250E-06,0.080
-5.240E-06,0.040
-5.230E-06,0.080
-5.220E-06,0.060
-5.210E-06,0.080
-5.200E-06,0.060
-5.190E-06,0.060
-5.180E-06,0.060
-5.170E-06,0.060
-5.160E-06,0.040
-5.150E-06,0.060
-5.140E-06,0.060
-5.130E-06,0.040
-5.120E-06,0.040
-5.110E-06,0.060
-5.100E-06,0.040
-5.090E-06,0.060
-5.080E-06,0.100
-5.070E-06,0.040
-5.060E-06,0.040
-5.050E-06,0.060
-5.040E-06,0.020
-5.030E-06,0.060
-5.020E-06,0.080
-5.010E-06,0.060
-5.000E-06,0.060
-4.990E-06,0.080
-4.980E-06,0.060
-4.970E-06,0.040
-4.960E-06,0.060
-4.950E-06,0.080
-4.940E-06,0.040
-4.930E-06,0.060
-4.920E-06,0.040
-4.910E-06,0.060
-4.900E-06,0.060
-4.890E-06,0.060
-4.880E-06,0.040
-4.870E-06,0.080
-4.860E-06,0.080
-4.850E-06,0.040
-4.840E-06,0.060
-4.830E-06,0.080
-4.820E-06,0.040
-4.810E-06,0.020
-4.800E-06,0.040
-4.790E-06,0.040
-4.780E-06,0.060
-4.770E-06,0.100
-4.760E-06,0.040
-4.750E-06,0.060
-4.740E-06,0.060
-4.730E-06,0.060
-4.720E-06,0.060
-4.710E-06,0.040
-4.700E-06,0.080
-4.690E-06,0.080
-4.680E-06,0.040
-4.670E-06,0.060
-4.660E-06,0.060
-4.650E-06,0.040
-4.640E-06,0.060
-4.630E-06,0.060
-4.620E-06,0.060
-4.610E-06,0.080
-4.600E-06,0.040
-4.590E-06,0.080
-4.580E-06,0.080
-4.570E-06,0.040
-4.560E-06,0.020
-4.550E-06,0.060
-4.540E-06,0.080
-4.530E-06,0.080
-4.520E-06,0.020
-4.510E-06,0.020
-4.500E-06,0.040
-4.490E-06,0.080
-4.480E-06,0.060
-4.470E-06,0.040
-4.460E-06,0.080
-4.450E-06,0.060
-4.440E-06,0.060
-4.430E-06,0.080
-4.420E-06,0.080
-4.410E-06,0.060
-4.400E-06,0.040
-4.390E-06,0.080
-4.380E-06,0.060
-4.370E-06,0.080
-4.360E-06,0.020
-4.350E-06,0.040
-4.340E-06,0.040
-4.330E-06,0.060
-4.320E-06,0.080
-4.310E-06,0.060
-4.300E-06,0.080
-4.290E-06,0.080
-4.280E-06,0.040
-4.270E-06,0.040
-4.260E-06,0.080
-4.250E-06,0.080
-4.240E-06,0.060
-4.230E-06,0.060
-4.220E-06,0.040
-4.210E-06,0.040
-4.200E-06,0.080
-4.190E-06,0.040
-4.180E-06,0.080
-4.170E-06,0.060
-4.160E-06,0.060
-4.150E-06,0.100
-4.140E-06,0.080
-4.130E-06,0.080
-4.120E-06,0.060
-4.110E-06,0.060
-4.100E-06,0.080
-4.090E-06,0.060
-4.080E-06,0.060
-4.070E-06,0.080
-4.060E-06,0.080
-4.050E-06,0.060
-4.040E-06,0.040
-4.030E-06,0.040
-4.020E-06,0.080
-4.010E-06,0.040
-4.000E-06,0.080
-3.990E-06,0.020
-3.980E-06,0.040
-3.970E-06,0.060
-3.960E-06,0.080
-3.950E-06,0.080
-3.940E-06,0.100
-3.930E-06,0.060
-3.920E-06,0.040
-3.910E-06,0.060
-3.900E-06,0.080
-3.890E-06,0.040
-3.880E-06,0.040
-3.870E-06,0.060
-3.860E-06,0.040
-3.850E-06,0.040
-3.840E-06,0.100
-3.830E-06,0.080
-3.820E-06,0.080
-3.810E-06,0.060
-3.800E-06,0.020
-3.790E-06,0.060
-3.780E-06,0.060
-3.770E-06,0.060
-3.760E-06,0.060
-3.750E-06,0.020
-3.740E-06,0.040
-3.730E-06,0.080
-3.720E-06,0.080
-3.710E-06,0.060
-3.700E-06,0.020
-3.690E-06,0.080
-3.680E-06,0.040
-3.670E-06,0.080
-3.660E-06,0.060
-3.650E-06,0.060
-3.640E-06,0.080
-3.630E-06,0.060
-3.620E-06,0.080
-3.610E-06,0.040
-3.600E-06,0.080
-3.590E-06,0.040
-3.580E-06,0.020
-3.570E-06,0.080
-3.560E-06,0.080
-3.550E-06,0.060
-3.540E-06,0.080
-3.530E-06,0.060
-3.520E-06,0.080
-3.510E-06,0.040
-3.500E-06,0.040
-3.490E-06,0.080
-3.480E-06,0.040
-3.470E-06,0.080
-3.460E-06,0.060
-3.450E-06,0.080
-3.440E-06,0.040
-3.430E-06,0.060
-3.420E-06,0.080
-3.410E-06,0.040
-3.400E-06,0.080
-3.390E-06,0.020
-3.380E-06,0.080
-3.370E-06,0.060
-3.360E-06,0.060
-3.350E-06,0.060
-3.340E-06,0.040
-3.330E-06,0.060
-3.320E-06,0.060
-3.310E-06,0.060
-3.300E-06,0.080
-3.290E-06,0.080
-3.280E-06,0.040
-3.270E-06,0.060
-3.260E-06,0.080
-3.250E-06,0.080
-3.240E-06,0.100
-3.230E-06,0.060
-3.220E-06,0.080
-3.210E-06,0.040
-3.200E-06,0.060
-3.190E-06,0.080
-3.180E-06,0.040
-3.170E-06,0.060
-3.160E-06,0.060
-3.150E-06,0.040
-3.140E-06,0.080
-3.130E-06,0.080
-3.120E-06,0.060
-3.110E-06,0.080
-3.100E-06,0.040
-3.090E-06,0.060
-3.080E-06,0.040
-3.070E-06,0.040
-3.060E-06,0.080
-3.050E-06,0.060
-3.040E-06,0.080
-3.030E-06,0.040
-3.020E-06,0.040
-3.010E-06,0.100
-3.000E-06,0.060
-2.990E-06,0.060
-2.980E-06,0.060
-2.970E-06,0.060
-2.960E-06,0.040
-2.950E-06,0.100
-2.940E-06,0.040
-2.930E-06,0.080
-2.920E-06,0.060
-2.910E-06,0.080
-2.900E-06,0.040
-2.890E-06,0.080
-2.880E-06,0.080
-2.870E-06,0.060
-2.860E-06,0.040
-2.850E-06,0.040
-2.840E-06,0.060
-2.830E-06,0.080
-2.820E-06,0.080
-2.810E-06,0.060
-2.800E-06,0.060
-2.790E-06,0.060
-2.780E-06,0.040
-2.770E-06,0.060
-2.760E-06,0.060
-2.750E-06,0.060
-2.740E-06,0.080
-2.730E-06,0.080
-2.720E-06,0.040
-2.710E-06,0.060
-2.700E-06,0.060
-2.690E-06,0.040
-2.680E-06,0.060
-2.670E-06,0.080
-2.660E-06,0.040
-2.650E-06,0.080
-2.640E-06,0.080
-2.630E-06,0.040
-2.620E-06,0.080
-2.610E-06,0.060
-2.600E-06,0.040
-2.590E-06,0.080
-2.580E-06,0.080
-2.570E-06,0.120
-2.560E-06,0.080
-2.550E-06,0.020
-2.540E-06,0.060
-2.530E-06,0.080
-2.520E-06,0.060
-2.510E-06,0.080
-2.500E-06,0.060
-2.490E-06,0.060
-2.480E-06,0.060
-2.470E-06,0.040
-2.460E-06,0.060
-2.450E-06,0.060
-2.440E-06,0.060
-2.430E-06,0.040
-2.420E-06,0.060
-2.410E-06,0.060
-2.400E-06,0.060
-2.390E-06,0.060
-2.380E-06,0.020
-2.370E-06,0.080
-2.360E-06,0.060
-2.350E-06,0.060
-2.340E-06,-0.020
-2.330E-06,-0.400
-2.320E-06,-1.220
-2.310E-06,-2.140
-2.300E-06,-2.120
-2.290E-06,-2.120
-2.280E-06,-2.120
-2.270E-06,-2.120
-2.260E-06,-1.080
-2.250E-06,0.360
-2.240E-06,1.700
-2.230E-06,2.800
-2.220E-06,3.320
-2.210E-06,3.320
-2.200E-06,3.300
-2.190E-06,3.320
-2.180E-06,3.320
-2.170E-06,2.620
-2.160E-06,1.640
-2.150E-06,0.700
-2.140E-06,-0.100
-2.130E-06,-0.640
-2.120E-06,-0.780
-2.110E-06,-0.680
-2.100E-06,-0.520
-2.090E-06,-0.400
-2.080E-06,-0.340
-2.070E-06,-0.500
-2.060E-06,-0.840
-2.050E-06,-1.280
-2.040E-06,-1.680
-2.030E-06,-2.020
-2.020E-06,-2.120
-2.010E-06,-2.140
-2.000E-06,-1.980
-1.990E-06,-1.580
-1.980E-06,-1.040
-1.970E-06,-0.320
-1.960E-06,0.360
-1.950E-06,1.100
-1.940E-06,1.580
-1.930E-06,1.900
-1.920E-06,2.020
-1.910E-06,1.820
-1.900E-06,1.520
-1.890E-06,1.020
-1.880E-06,0.500
-1.870E-06,-0.020
-1.860E-06,-0.480
-1.850E-06,-0.820
-1.840E-06,-1.000
-1.830E-06,-1.060
-1.820E-06,-1.000
-1.810E-06,-0.920
-1.800E-06,-0.760
-1.790E-06,-0.560
-1.780E-06,-0.360
-1.770E-06,-0.140
-1.760E-06,0.100
-1.750E-06,0.340
-1.740E-06,0.600
-1.730E-06,0.780
-1.720E-06,0.960
-1.710E-06,1.060
-1.700E-06,1.140
-1.690E-06,1.100
-1.680E-06,1.060
-1.670E-06,0.900
-1.660E-06,0.800
-1.650E-06,0.640
-1.640E-06,0.440
-1.630E-06,0.240
-1.620E-06,0.060
-1.610E-06,-0.100
-1.600E-06,-0.260
-1.590E-06,-0.380
-1.580E-06,-0.480
-1.570E-06,-0.540
-1.560E-06,-0.640
-1.550E-06,-0.720
-1.540E-06,-0.720
-1.530E-06,-0.660
-1.520E-06,-0.580
-1.510E-06,-0.420
-1.500E-06,-0.180
-1.490E-06,0.120
-1.480E-06,0.380
-1.470E-06,0.600
-1.460E-06,0.840
-1.450E-06,0.940
-1.440E-06,0.960
-1.430E-06,0.980
-1.420E-06,0.800
-1.410E-06,0.680
-1.400E-06,0.440
-1.390E-06,0.220
-1.380E-06,-0.080
-1.370E-06,-0.320
-1.360E-06,-0.480
-1.350E-06,-0.580
-1.340E-06,-0.640
-1.330E-06,-0.600
-1.320E-06,-0.480
-1.310E-06,-0.400
-1.300E-06,-0.240
-1.290E-06,-0.140
-1.280E-06,-0.060
-1.270E-06,0.040
-1.260E-06,0.040
-1.250E-06,0.080
-1.240E-06,0.140
-1.230E-06,0.020
-1.220E-06,0.140
-1.210E-06,0.100
-1.200E-06,0.120
-1.190E-06,0.260
-1.180E-06,0.300
-1.170E-06,0.380
-1.160E-06,0.180
-1.150E-06,0.220
-1.140E-06,0.820
-1.130E-06,0.160
-1.120E-06,0.380
-1.110E-06,0.120
-1.100E-06,0.220
-1.090E-06,-0.340
-1.080E-06,-0.380
-1.070E-06,-0.180
-1.060E-06,0.100
-1.050E-06,-0.160
-1.040E-06,0.020
-1.030E-06,-0.100
-1.020E-06,0.000
-1.010E-06,-0.120
-1.000E-06,-0.020
-9.900E-07,-0.120
-9.800E-07,-0.080
-9.700E-07,-0.200
-9.600E-07,-0.120
-9.500E-07,0.240
-9.400E-07,0.120
-9.300E-07,0.220
-9.200E-07,0.140
-9.100E-07,0.320
-9.000E-07,-0.060
-8.900E-07,0.040
-8.800E-07,0.100
-8.700E-07,0.160
-8.600E-07,0.040
-8.500E-07,-0.020
-8.400E-07,-0.060
-8.300E-07,-0.160
-8.200E-07,-0.200
-8.100E-07,-0.260
-8.000E-07,-0.320
-7.900E-07,-0.280
-7.800E-07,-0.180
-7.700E-07,-0.020
-7.600E-07,0.040
-7.500E-07,0.120
-7.400E-07,0.100
-7.300E-07,0.120
-7.200E-07,0.140
-7.100E-07,0.040
-7.000E-07,-0.300
-6.900E-07,-0.580
-6.800E-07,0.680
-6.700E-07,-0.200
-6.600E-07,0.160
-6.500E-07,0.040
-6.400E-07,0.460
-6.300E-07,-0.040
-6.200E-07,0.200
-6.100E-07,0.040
-6.000E-07,0.420
-5.900E-07,0.180
-5.800E-07,0.200
-5.700E-07,0.200
-5.600E-07,-0.020
-5.500E-07,0.120
-5.400E-07,0.100
-5.300E-07,-0.060
-5.200E-07,0.060
-5.100E-07,-0.140
-5.000E-07,-0.280
-4.900E-07,-0.160
-4.800E-07,-0.400
-4.700E-07,-0.020
-4.600E-07,0.280
-4.500E-07,1.320
-4.400E-07,2.280
-4.300E-07,2.020
-4.200E-07,2.000
-4.100E-07,1.040
-4.000E-07,0.060
-3.900E-07,-0.980
-3.800E-07,-1.980
-3.700E-07,-2.100
-3.600E-07,-2.100
-3.500E-07,-2.120
-3.400E-07,-2.060
-3.300E-07,-1.280
-3.200E-07,-0.500
-3.100E-07,0.320
-3.000E-07,0.940
-2.900E-07,1.340
-2.800E-07,1.500
-2.700E-07,1.160
-2.600E-07,0.620
-2.500E-07,-0.040
-2.400E-07,-0.220
-2.300E-07,-0.360
-2.200E-07,-0.220
-2.100E-07,-0.120
-2.000E-07,-0.220
-1.900E-07,-0.280
-1.800E-07,-0.520
-1.700E-07,-0.620
-1.600E-07,-0.660
-1.500E-07,-0.340
-1.400E-07,-0.120
-1.300E-07,0.280
-1.200E-07,-0.120
-1.100E-07,-0.620
-1.000E-07,-1.560
-9.000E-08,-2.020
-8.000E-08,-2.140
-7.000E-08,-1.640
-6.000E-08,-0.540
-5.000E-08,0.220
-4.000E-08,1.120
-3.000E-08,0.980
-2.000E-08,1.060
-1.000E-08,0.700
0.000E+00,0.540
1.000E-08,0.680
2.000E-08,0.880
3.000E-08,0.920
4.000E-08,0.920
5.000E-08,0.120
6.000E-08,-0.420
7.000E-08,-1.140
8.000E-08,-1.440
9.000E-08,-1.580
1.000E-07,-1.340
1.100E-07,-0.960
1.200E-07,-0.480
1.300E-07,-0.240
1.400E-07,-0.180
1.500E-07,-0.400
1.600E-07,-0.500
1.700E-07,-0.620
1.800E-07,-0.400
1.900E-07,-0.020
2.000E-07,0.360
2.100E-07,0.620
2.200E-07,0.600
2.300E-07,0.460
2.400E-07,0.220
2.500E-07,-0.060
2.600E-07,-0.060
2.700E-07,-0.060
2.800E-07,0.080
2.900E-07,0.180
3.000E-07,0.180
3.100E-07,0.140
3.200E-07,0.020
3.300E-07,-0.120
3.400E-07,-0.360
3.500E-07,-0.540
3.600E-07,-0.660
3.700E-07,-0.700
3.800E-07,-0.720
3.900E-07,-0.740
4.000E-07,-0.660
4.100E-07,-0.580
4.200E-07,-0.460
4.300E-07,-0.380
4.400E-07,-0.200
4.500E-07,-0.080
4.600E-07,0.120
4.700E-07,0.220
4.800E-07,0.360
4.900E-07,0.420
5.000E-07,0.260
5.100E-07,0.120
5.200E-07,-0.160
5.300E-07,-0.280
5.400E-07,-0.320
5.500E-07,-0.420
5.600E-07,-0.420
5.700E-07,-0.120
5.800E-07,0.420
5.900E-07,-0.060
6.000E-07,-0.700
6.100E-07,2.480
6.200E-07,2.740
6.300E-07,2.960
6.400E-07,2.180
6.500E-07,1.500
6.600E-07,-1.060
6.700E-07,-2.100
6.800E-07,-2.120
6.900E-07,-2.120
7.000E-07,-1.980
7.100E-07,-0.780
7.200E-07,-1.500
7.300E-07,-1.220
7.400E-07,-1.460
7.500E-07,-1.660
7.600E-07,-2.140
7.700E-07,-1.460
7.800E-07,-0.680
7.900E-07,0.420
8.000E-07,0.160
8.100E-07,0.320
8.200E-07,-0.060
8.300E-07,0.040
8.400E-07,-0.300
8.500E-07,-0.140
8.600E-07,0.140
8.700E-07,0.580
8.800E-07,0.820
8.900E-07,0.660
9.000E-07,0.640
9.100E-07,0.340
9.200E-07,0.160
9.300E-07,-0.240
9.400E-07,-0.400
9.500E-07,-0.460
9.600E-07,-0.640
9.700E-07,-0.880
9.800E-07,-1.100
9.900E-07,-1.220
1.000E-06,-1.440
1.010E-06,-1.460
1.020E-06,-1.180
1.030E-06,-0.780
1.040E-06,-0.300
1.050E-06,0.120
1.060E-06,0.520
1.070E-06,0.700
1.080E-06,0.660
1.090E-06,0.520
1.100E-06,0.280
1.110E-06,0.020
1.120E-06,-0.060
1.130E-06,-0.200
1.140E-06,0.020
1.150E-06,0.020
1.160E-06,-0.040
1.170E-06,-0.120
1.180E-06,-0.520
1.190E-06,-0.140
1.200E-06,-0.260
1.210E-06,-0.400
1.220E-06,-1.080
1.230E-06,-1.300
1.240E-06,-2.120
1.250E-06,-2.120
1.260E-06,-2.140
1.270E-06,-2.140
1.280E-06,-2.140
1.290E-06,-2.140
1.300E-06,-2.120
1.310E-06,-2.120
1.320E-06,-2.120
1.330E-06,-1.620
1.340E-06,-0.440
1.350E-06,0.660
1.360E-06,1.140
1.370E-06,1.620
1.380E-06,1.820
1.390E-06,1.660
1.400E-06,1.060
1.410E-06,0.440
1.420E-06,-0.540
1.430E-06,-1.240
1.440E-06,-1.600
1.450E-06,-2.120
1.460E-06,-2.120
1.470E-06,-2.140
1.480E-06,-2.140
1.490E-06,-2.120
1.500E-06,-2.120
1.510E-06,-2.120
1.520E-06,-2.120
1.530E-06,-2.120
1.540E-06,-1.700
1.550E-06,-1.300
1.560E-06,-0.820
1.570E-06,-0.420
1.580E-06,0.000
1.590E-06,0.360
1.600E-06,0.740
1.610E-06,0.960
1.620E-06,1.220
1.630E-06,1.440
1.640E-06,1.620
1.650E-06,1.740
1.660E-06,1.680
1.670E-06,1.580
1.680E-06,1.280
1.690E-06,0.900
1.700E-06,0.400
1.710E-06,-0.240
1.720E-06,-1.120
1.730E-06,-1.920
1.740E-06,-2.120
1.750E-06,-2.120
1.760E-06,-2.120
1.770E-06,-2.020
1.780E-06,-1.840
1.790E-06,-1.780
1.800E-06,-1.680
1.810E-06,-1.560
1.820E-06,-1.200
1.830E-06,-0.600
1.840E-06,-0.180
1.850E-06,0.120
1.860E-06,0.260
1.870E-06,0.140
1.880E-06,-0.260
1.890E-06,-1.180
1.900E-06,-2.000
1.910E-06,-2.120
1.920E-06,-1.780
1.930E-06,-0.740
1.940E-06,0.380
1.950E-06,-0.140
1.960E-06,-2.140
1.970E-06,-2.140
1.980E-06,-2.140
1.990E-06,-2.120
2.000E-06,-2.120
2.010E-06,-2.120
2.020E-06,-2.120
2.030E-06,-2.100
2.040E-06,-2.120
2.050E-06,-2.120
2.060E-06,-2.120
2.070E-06,-2.120
2.080E-06,-2.140
2.090E-06,-2.140
2.100E-06,-2.140
2.110E-06,-2.120
2.120E-06,-2.120
2.130E-06,-2.100
2.140E-06,-2.100
2.150E-06,-2.120
2.160E-06,-2.100
2.170E-06,-1.720
2.180E-06,-2.060
2.190E-06,-2.100
2.200E-06,-2.100
2.210E-06,-2.120
2.220E-06,-2.120
2.230E-06,-2.140
2.240E-06,-2.120
2.250E-06,-2.120
2.260E-06,-2.120
2.270E-06,-2.120
2.280E-06,-2.120
2.290E-06,-2.120
2.300E-06,-2.120
2.310E-06,-2.120
2.320E-06,-2.120
2.330E-06,-2.120
2.340E-06,-2.120
2.350E-06,-2.120
2.360E-06,-2.120
2.370E-06,-2.120
2.380E-06,-1.920
2.390E-06,-0.820
2.400E-06,-0.180
2.410E-06,0.360
2.420E-06,0.200
2.430E-06,-0.340
2.440E-06,-1.040
2.450E-06,-1.400
2.460E-06,-1.540
2.470E-06,-1.000
2.480E-06,-1.100
2.490E-06,-1.160
2.500E-06,-1.540
2.510E-06,-2.060
2.520E-06,-2.120
2.530E-06,-2.120
2.540E-06,-2.120
2.550E-06,-2.120
2.560E-06,-2.040
2.570E-06,-1.660
2.580E-06,-1.160
2.590E-06,-0.660
2.600E-06,-0.340
2.610E-06,-0.100
2.620E-06,0.100
2.630E-06,0.280
2.640E-06,0.420
2.650E-06,0.500
2.660E-06,0.560
2.670E-06,0.540
2.680E-06,0.560
2.690E-06,0.540
2.700E-06,0.540
2.710E-06,0.580
2.720E-06,0.560
2.730E-06,0.480
2.740E-06,0.340
2.750E-06,0.200
2.760E-06,0.060
2.770E-06,-0.120
2.780E-06,-0.220
2.790E-06,-0.380
2.800E-06,-0.460
2.810E-06,-0.500
2.820E-06,-0.400
2.830E-06,-0.300
2.840E-06,-0.140
2.850E-06,0.100
2.860E-06,0.320
2.870E-06,0.520
2.880E-06,0.720
2.890E-06,0.880
2.900E-06,1.000
2.910E-06,1.100
2.920E-06,1.120
2.930E-06,1.120
2.940E-06,1.060
2.950E-06,1.000
2.960E-06,0.900
2.970E-06,0.780
2.980E-06,0.680
2.990E-06,0.760
3.000E-06,1.320
3.010E-06,1.400
3.020E-06,1.580
3.030E-06,1.540
3.040E-06,0.920
3.050E-06,0.220
3.060E-06,-0.780
3.070E-06,-0.940
3.080E-06,-1.100
3.090E-06,-1.300
3.100E-06,-1.260
3.110E-06,-0.960
3.120E-06,-0.700
3.130E-06,-0.140
3.140E-06,0.140
3.150E-06,0.680
3.160E-06,1.120
3.170E-06,1.340
3.180E-06,1.460
3.190E-06,1.500
3.200E-06,1.420
3.210E-06,1.340
3.220E-06,1.240
3.230E-06,1.020
3.240E-06,0.880
3.250E-06,0.720
3.260E-06,0.560
3.270E-06,0.460
3.280E-06,0.380
3.290E-06,0.300
3.300E-06,0.200
3.310E-06,0.160
3.320E-06,0.080
3.330E-06,0.120
3.340E-06,0.100
3.350E-06,0.160
3.360E-06,0.220
3.370E-06,0.260
