mediciones/curva carac 8-28 limpias/0.001/WaveData663.csv

#timebase=2000000(ps)
,#voltbase=500000(mv/100)
#size=4000
-8.350E-06,0.060
-8.340E-06,0.040
-8.330E-06,0.060
-8.320E-06,0.040
-8.310E-06,0.040
-8.300E-06,0.040
-8.290E-06,0.060
-8.280E-06,0.060
-8.270E-06,0.060
-8.260E-06,0.060
-8.250E-06,0.040
-8.240E-06,0.040
-8.230E-06,0.040
-8.220E-06,0.020
-8.210E-06,0.060
-8.200E-06,0.060
-8.190E-06,0.040
-8.180E-06,0.060
-8.170E-06,0.060
-8.160E-06,0.020
-8.150E-06,0.020
-8.140E-06,0.060
-8.130E-06,0.040
-8.120E-06,0.060
-8.110E-06,0.060
-8.100E-06,0.040
-8.090E-06,0.040
-8.080E-06,0.020
-8.070E-06,0.020
-8.060E-06,0.040
-8.050E-06,0.060
-8.040E-06,0.040
-8.030E-06,0.020
-8.020E-06,0.040
-8.010E-06,0.040
-8.000E-06,0.040
-7.990E-06,0.040
-7.980E-06,0.040
-7.970E-06,0.060
-7.960E-06,0.040
-7.950E-06,0.040
-7.940E-06,0.040
-7.930E-06,0.040
-7.920E-06,0.040
-7.910E-06,0.080
-7.900E-06,0.040
-7.890E-06,0.060
-7.880E-06,0.060
-7.870E-06,0.060
-7.860E-06,0.060
-7.850E-06,0.060
-7.840E-06,0.080
-7.830E-06,0.040
-7.820E-06,0.040
-7.810E-06,0.060
-7.800E-06,0.060
-7.790E-06,0.060
-7.780E-06,0.040
-7.770E-06,0.060
-7.760E-06,0.040
-7.750E-06,0.040
-7.740E-06,0.020
-7.730E-06,0.040
-7.720E-06,0.040
-7.710E-06,0.080
-7.700E-06,0.060
-7.690E-06,0.040
-7.680E-06,0.040
-7.670E-06,0.020
-7.660E-06,0.040
-7.650E-06,0.040
-7.640E-06,0.040
-7.630E-06,0.040
-7.620E-06,0.020
-7.610E-06,0.020
-7.600E-06,0.040
-7.590E-06,0.060
-7.580E-06,0.040
-7.570E-06,0.060
-7.560E-06,0.040
-7.550E-06,0.060
-7.540E-06,0.020
-7.530E-06,0.060
-7.520E-06,0.060
-7.510E-06,0.060
-7.500E-06,0.060
-7.490E-06,0.060
-7.480E-06,0.080
-7.470E-06,0.040
-7.460E-06,0.060
-7.450E-06,0.060
-7.440E-06,0.040
-7.430E-06,0.060
-7.420E-06,0.040
-7.410E-06,0.080
-7.400E-06,0.060
-7.390E-06,0.080
-7.380E-06,0.020
-7.370E-06,0.040
-7.360E-06,0.020
-7.350E-06,0.080
-7.340E-06,0.060
-7.330E-06,0.040
-7.320E-06,0.060
-7.310E-06,0.040
-7.300E-06,0.060
-7.290E-06,0.060
-7.280E-06,0.060
-7.270E-06,0.040
-7.260E-06,0.060
-7.250E-06,0.080
-7.240E-06,0.080
-7.230E-06,0.080
-7.220E-06,0.060
-7.210E-06,0.060
-7.200E-06,0.060
-7.190E-06,0.060
-7.180E-06,0.040
-7.170E-06,0.060
-7.160E-06,0.060
-7.150E-06,0.040
-7.140E-06,0.060
-7.130E-06,0.080
-7.120E-06,0.040
-7.110E-06,0.060
-7.100E-06,0.060
-7.090E-06,0.080
-7.080E-06,0.080
-7.070E-06,0.060
-7.060E-06,0.040
-7.050E-06,0.040
-7.040E-06,0.040
-7.030E-06,0.040
-7.020E-06,0.060
-7.010E-06,0.060
-7.000E-06,0.060
-6.990E-06,0.060
-6.980E-06,0.040
-6.970E-06,0.060
-6.960E-06,0.040
-6.950E-06,0.060
-6.940E-06,0.040
-6.930E-06,0.060
-6.920E-06,0.040
-6.910E-06,0.040
-6.900E-06,0.060
-6.890E-06,0.060
-6.880E-06,0.060
-6.870E-06,0.040
-6.860E-06,0.060
-6.850E-06,0.040
-6.840E-06,0.040
-6.830E-06,0.020
-6.820E-06,0.040
-6.810E-06,0.020
-6.800E-06,0.020
-6.790E-06,0.060
-6.780E-06,0.060
-6.770E-06,0.080
-6.760E-06,0.080
-6.750E-06,0.060
-6.740E-06,0.060
-6.730E-06,0.080
-6.720E-06,0.060
-6.710E-06,0.060
-6.700E-06,0.040
-6.690E-06,0.040
-6.680E-06,0.040
-6.670E-06,0.040
-6.660E-06,0.040
-6.650E-06,0.060
-6.640E-06,0.060
-6.630E-06,0.060
-6.620E-06,0.040
-6.610E-06,0.040
-6.600E-06,0.040
-6.590E-06,0.060
-6.580E-06,0.040
-6.570E-06,0.060
-6.560E-06,0.020
-6.550E-06,0.040
-6.540E-06,0.040
-6.530E-06,0.060
-6.520E-06,0.040
-6.510E-06,0.060
-6.500E-06,0.060
-6.490E-06,0.060
-6.480E-06,0.060
-6.470E-06,0.060
-6.460E-06,0.040
-6.450E-06,0.060
-6.440E-06,0.040
-6.430E-06,0.060
-6.420E-06,0.060
-6.410E-06,0.040
-6.400E-06,0.040
-6.390E-06,0.020
-6.380E-06,0.040
-6.370E-06,0.020
-6.360E-06,0.040
-6.350E-06,0.080
-6.340E-06,0.040
-6.330E-06,0.080
-6.320E-06,0.080
-6.310E-06,0.080
-6.300E-06,0.040
-6.290E-06,0.060
-6.280E-06,0.060
-6.270E-06,0.060
-6.260E-06,0.060
-6.250E-06,0.040
-6.240E-06,0.060
-6.230E-06,0.060
-6.220E-06,0.060
-6.210E-06,0.040
-6.200E-06,0.060
-6.190E-06,0.060
-6.180E-06,0.080
-6.170E-06,0.060
-6.160E-06,0.080
-6.150E-06,0.060
-6.140E-06,0.080
-6.130E-06,0.040
-6.120E-06,0.040
-6.110E-06,0.060
-6.100E-06,0.060
-6.090E-06,0.040
-6.080E-06,0.060
-6.070E-06,0.060
-6.060E-06,0.040
-6.050E-06,0.060
-6.040E-06,0.040
-6.030E-06,0.040
-6.020E-06,0.040
-6.010E-06,0.040
-6.000E-06,0.040
-5.990E-06,0.080
-5.980E-06,0.040
-5.970E-06,0.060
-5.960E-06,0.040
-5.950E-06,0.040
-5.940E-06,0.080
-5.930E-06,0.080
-5.920E-06,0.060
-5.910E-06,0.040
-5.900E-06,0.040
-5.890E-06,0.040
-5.880E-06,0.060
-5.870E-06,0.040
-5.860E-06,0.060
-5.850E-06,0.020
-5.840E-06,0.060
-5.830E-06,0.060
-5.820E-06,0.040
-5.810E-06,0.020
-5.800E-06,0.040
-5.790E-06,0.060
-5.780E-06,0.060
-5.770E-06,0.040
-5.760E-06,0.040
-5.750E-06,0.060
-5.740E-06,0.060
-5.730E-06,0.040
-5.720E-06,0.060
-5.710E-06,0.080
-5.700E-06,0.060
-5.690E-06,0.040
-5.680E-06,0.060
-5.670E-06,0.020
-5.660E-06,0.040
-5.650E-06,0.060
-5.640E-06,0.060
-5.630E-06,0.040
-5.620E-06,0.040
-5.610E-06,0.060
-5.600E-06,0.040
-5.590E-06,0.080
-5.580E-06,0.040
-5.570E-06,0.060
-5.560E-06,0.040
-5.550E-06,0.060
-5.540E-06,0.040
-5.530E-06,0.060
-5.520E-06,0.060
-5.510E-06,0.040
-5.500E-06,0.040
-5.490E-06,0.040
-5.480E-06,0.040
-5.470E-06,0.040
-5.460E-06,0.060
-5.450E-06,0.060
-5.440E-06,0.040
-5.430E-06,0.040
-5.420E-06,0.040
-5.410E-06,0.080
-5.400E-06,0.040
-5.390E-06,0.060
-5.380E-06,0.060
-5.370E-06,0.060
-5.360E-06,0.040
-5.350E-06,0.060
-5.340E-06,0.040
-5.330E-06,0.020
-5.320E-06,0.020
-5.310E-06,0.040
-5.300E-06,0.040
-5.290E-06,0.060
-5.280E-06,0.040
-5.270E-06,0.040
-5.260E-06,0.060
-5.250E-06,0.040
-5.240E-06,0.020
-5.230E-06,0.060
-5.220E-06,0.060
-5.210E-06,0.080
-5.200E-06,0.060
-5.190E-06,0.080
-5.180E-06,0.060
-5.170E-06,0.040
-5.160E-06,0.040
-5.150E-06,0.040
-5.140E-06,0.040
-5.130E-06,0.060
-5.120E-06,0.040
-5.110E-06,0.040
-5.100E-06,0.040
-5.090E-06,0.060
-5.080E-06,0.040
-5.070E-06,0.040
-5.060E-06,0.060
-5.050E-06,0.060
-5.040E-06,0.080
-5.030E-06,0.060
-5.020E-06,0.080
-5.010E-06,0.040
-5.000E-06,0.060
-4.990E-06,0.060
-4.980E-06,0.060
-4.970E-06,0.040
-4.960E-06,0.020
-4.950E-06,0.040
-4.940E-06,0.060
-4.930E-06,0.060
-4.920E-06,0.040
-4.910E-06,0.060
-4.900E-06,0.060
-4.890E-06,0.040
-4.880E-06,0.040
-4.870E-06,0.060
-4.860E-06,0.060
-4.850E-06,0.060
-4.840E-06,0.040
-4.830E-06,0.040
-4.820E-06,0.040
-4.810E-06,0.060
-4.800E-06,0.060
-4.790E-06,0.060
-4.780E-06,0.040
-4.770E-06,0.040
-4.760E-06,0.040
-4.750E-06,0.040
-4.740E-06,0.080
-4.730E-06,0.060
-4.720E-06,0.040
-4.710E-06,0.040
-4.700E-06,0.060
-4.690E-06,0.040
-4.680E-06,0.060
-4.670E-06,0.060
-4.660E-06,0.040
-4.650E-06,0.040
-4.640E-06,0.040
-4.630E-06,0.060
-4.620E-06,0.040
-4.610E-06,0.040
-4.600E-06,0.040
-4.590E-06,0.080
-4.580E-06,0.040
-4.570E-06,0.020
-4.560E-06,0.060
-4.550E-06,0.060
-4.540E-06,0.040
-4.530E-06,0.020
-4.520E-06,0.040
-4.510E-06,0.060
-4.500E-06,0.040
-4.490E-06,0.040
-4.480E-06,0.040
-4.470E-06,0.060
-4.460E-06,0.060
-4.450E-06,0.040
-4.440E-06,0.040
-4.430E-06,0.060
-4.420E-06,0.040
-4.410E-06,0.040
-4.400E-06,0.060
-4.390E-06,0.060
-4.380E-06,0.040
-4.370E-06,0.020
-4.360E-06,0.020
-4.350E-06,0.060
-4.340E-06,0.060
-4.330E-06,0.080
-4.320E-06,0.040
-4.310E-06,0.060
-4.300E-06,0.060
-4.290E-06,0.060
-4.280E-06,0.040
-4.270E-06,0.020
-4.260E-06,0.060
-4.250E-06,0.040
-4.240E-06,0.040
-4.230E-06,0.060
-4.220E-06,0.060
-4.210E-06,0.040
-4.200E-06,0.040
-4.190E-06,0.060
-4.180E-06,0.060
-4.170E-06,0.040
-4.160E-06,0.040
-4.150E-06,0.040
-4.140E-06,0.040
-4.130E-06,0.040
-4.120E-06,0.080
-4.110E-06,0.060
-4.100E-06,0.040
-4.090E-06,0.060
-4.080E-06,0.060
-4.070E-06,0.040
-4.060E-06,0.040
-4.050E-06,0.060
-4.040E-06,0.040
-4.030E-06,0.040
-4.020E-06,0.080
-4.010E-06,0.040
-4.000E-06,0.040
-3.990E-06,0.060
-3.980E-06,0.060
-3.970E-06,0.020
-3.960E-06,0.040
-3.950E-06,0.040
-3.940E-06,0.040
-3.930E-06,0.060
-3.920E-06,0.040
-3.910E-06,0.060
-3.900E-06,0.060
-3.890E-06,0.040
-3.880E-06,0.060
-3.870E-06,0.040
-3.860E-06,0.040
-3.850E-06,0.020
-3.840E-06,0.040
-3.830E-06,0.040
-3.820E-06,0.020
-3.810E-06,0.040
-3.800E-06,0.060
-3.790E-06,0.060
-3.780E-06,0.060
-3.770E-06,0.060
-3.760E-06,0.060
-3.750E-06,0.060
-3.740E-06,0.060
-3.730E-06,0.060
-3.720E-06,0.060
-3.710E-06,0.040
-3.700E-06,0.040
-3.690E-06,0.060
-3.680E-06,0.040
-3.670E-06,0.060
-3.660E-06,0.040
-3.650E-06,0.060
-3.640E-06,0.040
-3.630E-06,0.060
-3.620E-06,0.040
-3.610E-06,0.060
-3.600E-06,0.060
-3.590E-06,0.040
-3.580E-06,0.060
-3.570E-06,0.060
-3.560E-06,0.040
-3.550E-06,0.060
-3.540E-06,0.080
-3.530E-06,0.060
-3.520E-06,0.060
-3.510E-06,0.040
-3.500E-06,0.060
-3.490E-06,0.060
-3.480E-06,0.040
-3.470E-06,0.040
-3.460E-06,0.060
-3.450E-06,0.040
-3.440E-06,0.060
-3.430E-06,0.040
-3.420E-06,0.060
-3.410E-06,0.080
-3.400E-06,0.080
-3.390E-06,0.060
-3.380E-06,0.060
-3.370E-06,0.040
-3.360E-06,0.060
-3.350E-06,0.020
-3.340E-06,0.060
-3.330E-06,0.060
-3.320E-06,0.040
-3.310E-06,0.060
-3.300E-06,0.060
-3.290E-06,0.060
-3.280E-06,0.060
-3.270E-06,0.060
-3.260E-06,0.080
-3.250E-06,0.060
-3.240E-06,0.060
-3.230E-06,0.060
-3.220E-06,0.060
-3.210E-06,0.020
-3.200E-06,0.040
-3.190E-06,0.060
-3.180E-06,0.060
-3.170E-06,0.060
-3.160E-06,0.080
-3.150E-06,0.080
-3.140E-06,0.060
-3.130E-06,0.040
-3.120E-06,0.020
-3.110E-06,0.040
-3.100E-06,0.040
-3.090E-06,0.060
-3.080E-06,0.040
-3.070E-06,0.040
-3.060E-06,0.060
-3.050E-06,0.060
-3.040E-06,0.060
-3.030E-06,0.040
-3.020E-06,0.060
-3.010E-06,0.060
-3.000E-06,0.060
-2.990E-06,0.020
-2.980E-06,0.020
-2.970E-06,0.000
-2.960E-06,0.040
-2.950E-06,0.040
-2.940E-06,0.080
-2.930E-06,0.060
-2.920E-06,0.060
-2.910E-06,0.060
-2.900E-06,0.040
-2.890E-06,0.040
-2.880E-06,0.040
-2.870E-06,0.060
-2.860E-06,0.060
-2.850E-06,0.080
-2.840E-06,0.060
-2.830E-06,0.060
-2.820E-06,0.040
-2.810E-06,0.040
-2.800E-06,0.040
-2.790E-06,0.040
-2.780E-06,0.040
-2.770E-06,0.020
-2.760E-06,0.060
-2.750E-06,0.060
-2.740E-06,0.040
-2.730E-06,0.040
-2.720E-06,0.040
-2.710E-06,0.060
-2.700E-06,0.060
-2.690E-06,0.040
-2.680E-06,0.040
-2.670E-06,0.060
-2.660E-06,0.040
-2.650E-06,0.060
-2.640E-06,0.060
-2.630E-06,0.060
-2.620E-06,0.060
-2.610E-06,0.040
-2.600E-06,0.040
-2.590E-06,0.040
-2.580E-06,0.040
-2.570E-06,0.060
-2.560E-06,0.060
-2.550E-06,0.060
-2.540E-06,0.060
-2.530E-06,0.060
-2.520E-06,0.060
-2.510E-06,0.060
-2.500E-06,0.040
-2.490E-06,0.040
-2.480E-06,0.040
-2.470E-06,0.060
-2.460E-06,0.060
-2.450E-06,0.040
-2.440E-06,0.040
-2.430E-06,0.040
-2.420E-06,0.040
-2.410E-06,0.060
-2.400E-06,0.080
-2.390E-06,0.060
-2.380E-06,0.060
-2.370E-06,0.060
-2.360E-06,0.040
-2.350E-06,0.040
-2.340E-06,0.040
-2.330E-06,0.060
-2.320E-06,0.040
-2.310E-06,0.060
-2.300E-06,0.020
-2.290E-06,0.040
-2.280E-06,0.040
-2.270E-06,0.060
-2.260E-06,0.060
-2.250E-06,0.040
-2.240E-06,0.040
-2.230E-06,0.040
-2.220E-06,0.060
-2.210E-06,0.080
-2.200E-06,0.040
-2.190E-06,0.060
-2.180E-06,0.020
-2.170E-06,0.020
-2.160E-06,0.040
-2.150E-06,0.040
-2.140E-06,0.040
-2.130E-06,0.080
-2.120E-06,0.060
-2.110E-06,0.060
-2.100E-06,0.040
-2.090E-06,0.040
-2.080E-06,0.040
-2.070E-06,0.040
-2.060E-06,0.060
-2.050E-06,0.040
-2.040E-06,0.060
-2.030E-06,0.060
-2.020E-06,0.040
-2.010E-06,0.040
-2.000E-06,0.040
-1.990E-06,0.040
-1.980E-06,0.020
-1.970E-06,0.040
-1.960E-06,0.060
-1.950E-06,0.040
-1.940E-06,0.040
-1.930E-06,0.040
-1.920E-06,0.020
-1.910E-06,0.080
-1.900E-06,0.040
-1.890E-06,0.020
-1.880E-06,0.080
-1.870E-06,0.000
-1.860E-06,-0.140
-1.850E-06,-0.660
-1.840E-06,-1.480
-1.830E-06,-2.080
-1.820E-06,-1.980
-1.810E-06,-1.540
-1.800E-06,-0.960
-1.790E-06,-0.440
-1.780E-06,0.080
-1.770E-06,0.940
-1.760E-06,1.820
-1.750E-06,1.840
-1.740E-06,1.820
-1.730E-06,1.820
-1.720E-06,1.800
-1.710E-06,1.820
-1.700E-06,1.820
-1.690E-06,0.240
-1.680E-06,-1.040
-1.670E-06,-1.540
-1.660E-06,-1.980
-1.650E-06,-2.300
-1.640E-06,-2.360
-1.630E-06,-2.120
-1.620E-06,-1.480
-1.610E-06,-0.900
-1.600E-06,-0.600
-1.590E-06,-0.300
-1.580E-06,0.000
-1.570E-06,0.100
-1.560E-06,0.100
-1.550E-06,0.040
-1.540E-06,-0.180
-1.530E-06,-0.420
-1.520E-06,-0.420
-1.510E-06,-0.180
-1.500E-06,0.060
-1.490E-06,0.400
-1.480E-06,0.760
-1.470E-06,1.000
-1.460E-06,1.120
-1.450E-06,1.040
-1.440E-06,0.740
-1.430E-06,0.420
-1.420E-06,0.240
-1.410E-06,0.000
-1.400E-06,-0.360
-1.390E-06,-0.540
-1.380E-06,-0.580
-1.370E-06,-0.520
-1.360E-06,-0.440
-1.350E-06,-0.220
-1.340E-06,-0.080
-1.330E-06,0.160
-1.320E-06,0.280
-1.310E-06,0.440
-1.300E-06,0.500
-1.290E-06,0.480
-1.280E-06,0.500
-1.270E-06,0.260
-1.260E-06,0.080
-1.250E-06,0.120
-1.240E-06,0.160
-1.230E-06,0.060
-1.220E-06,-0.080
-1.210E-06,0.060
-1.200E-06,0.240
-1.190E-06,-0.340
-1.180E-06,-0.480
-1.170E-06,-0.380
-1.160E-06,-0.420
-1.150E-06,-0.460
-1.140E-06,-0.460
-1.130E-06,-0.460
-1.120E-06,-0.460
-1.110E-06,-0.360
-1.100E-06,-0.260
-1.090E-06,-0.140
-1.080E-06,-0.020
-1.070E-06,0.260
-1.060E-06,0.340
-1.050E-06,0.260
-1.040E-06,0.420
-1.030E-06,0.640
-1.020E-06,0.640
-1.010E-06,0.660
-1.000E-06,0.640
-9.900E-07,1.160
-9.800E-07,1.300
-9.700E-07,0.000
-9.600E-07,-0.400
-9.500E-07,0.500
-9.400E-07,0.420
-9.300E-07,-0.160
-9.200E-07,-0.540
-9.100E-07,-0.500
-9.000E-07,-0.760
-8.900E-07,-0.940
-8.800E-07,-0.680
-8.700E-07,-0.840
-8.600E-07,-0.720
-8.500E-07,-0.260
-8.400E-07,-0.320
-8.300E-07,-0.260
-8.200E-07,-0.200
-8.100E-07,0.180
-8.000E-07,0.320
-7.900E-07,-0.060
-7.800E-07,0.100
-7.700E-07,0.580
-7.600E-07,0.640
-7.500E-07,0.340
-7.400E-07,0.240
-7.300E-07,0.300
-7.200E-07,0.380
-7.100E-07,0.280
-7.000E-07,0.240
-6.900E-07,0.360
-6.800E-07,0.260
-6.700E-07,0.100
-6.600E-07,-0.140
-6.500E-07,-0.100
-6.400E-07,-0.100
-6.300E-07,-0.180
-6.200E-07,-0.260
-6.100E-07,-0.180
-6.000E-07,-0.120
-5.900E-07,-0.100
-5.800E-07,-0.160
-5.700E-07,-0.160
-5.600E-07,-0.120
-5.500E-07,-0.040
-5.400E-07,0.040
-5.300E-07,0.080
-5.200E-07,0.180
-5.100E-07,0.300
-5.000E-07,0.060
-4.900E-07,-0.220
-4.800E-07,-0.200
-4.700E-07,0.060
-4.600E-07,0.040
-4.500E-07,-0.040
-4.400E-07,-0.040
-4.300E-07,-0.100
-4.200E-07,-0.080
-4.100E-07,-0.140
-4.000E-07,-0.060
-3.900E-07,-0.040
-3.800E-07,-0.160
-3.700E-07,-0.280
-3.600E-07,-0.220
-3.500E-07,-0.120
-3.400E-07,0.020
-3.300E-07,0.000
-3.200E-07,-0.040
-3.100E-07,-0.020
-3.000E-07,0.080
-2.900E-07,0.180
-2.800E-07,0.140
-2.700E-07,0.160
-2.600E-07,0.220
-2.500E-07,0.080
-2.400E-07,-0.020
-2.300E-07,-0.040
-2.200E-07,0.080
-2.100E-07,0.060
-2.000E-07,-0.020
-1.900E-07,-0.280
-1.800E-07,-0.380
-1.700E-07,-0.200
-1.600E-07,-0.300
-1.500E-07,-0.540
-1.400E-07,-0.600
-1.300E-07,-0.920
-1.200E-07,0.400
-1.100E-07,0.120
-1.000E-07,-0.240
-9.000E-08,0.300
-8.000E-08,1.280
-7.000E-08,1.820
-6.000E-08,1.340
-5.000E-08,0.820
-4.000E-08,-0.040
-3.000E-08,-0.740
-2.000E-08,-1.000
-1.000E-08,-1.100
0.000E+00,-1.180
1.000E-08,-1.320
2.000E-08,-1.180
3.000E-08,-1.500
4.000E-08,-2.140
5.000E-08,-1.780
6.000E-08,-0.520
7.000E-08,0.820
8.000E-08,0.620
9.000E-08,0.220
1.000E-07,0.160
1.100E-07,0.000
1.200E-07,0.540
1.300E-07,0.900
1.400E-07,1.240
1.500E-07,1.320
1.600E-07,0.640
1.700E-07,0.640
1.800E-07,-0.240
1.900E-07,-1.060
2.000E-07,-0.480
2.100E-07,0.480
2.200E-07,0.300
2.300E-07,-0.180
2.400E-07,-1.060
2.500E-07,-1.640
2.600E-07,-1.540
2.700E-07,-1.220
2.800E-07,-1.260
2.900E-07,-1.040
3.000E-07,-0.900
3.100E-07,-0.760
3.200E-07,-0.680
3.300E-07,-0.120
3.400E-07,0.120
3.500E-07,0.420
3.600E-07,0.780
3.700E-07,0.580
3.800E-07,0.860
3.900E-07,0.760
4.000E-07,0.180
4.100E-07,0.180
4.200E-07,0.000
4.300E-07,-0.300
4.400E-07,-0.440
4.500E-07,-0.420
4.600E-07,-0.620
4.700E-07,-0.580
4.800E-07,-0.520
4.900E-07,-0.520
5.000E-07,-0.520
5.100E-07,-0.440
5.200E-07,0.060
5.300E-07,0.580
5.400E-07,0.240
5.500E-07,0.180
5.600E-07,0.260
5.700E-07,0.400
5.800E-07,0.720
5.900E-07,0.660
6.000E-07,0.300
6.100E-07,-0.040
6.200E-07,-0.080
6.300E-07,0.000
6.400E-07,0.240
6.500E-07,0.400
6.600E-07,-0.160
6.700E-07,-0.600
6.800E-07,-0.600
6.900E-07,-0.480
7.000E-07,-0.220
7.100E-07,-0.160
7.200E-07,-0.320
7.300E-07,-0.500
7.400E-07,-0.500
7.500E-07,-0.100
7.600E-07,0.040
7.700E-07,-0.180
7.800E-07,-0.200
7.900E-07,0.160
8.000E-07,0.560
8.100E-07,0.480
8.200E-07,0.240
8.300E-07,0.320
8.400E-07,0.420
8.500E-07,0.540
8.600E-07,0.520
8.700E-07,0.260
8.800E-07,-0.040
8.900E-07,-0.260
9.000E-07,-0.100
9.100E-07,-0.880
9.200E-07,-0.620
9.300E-07,-0.600
9.400E-07,-0.840
9.500E-07,-1.240
9.600E-07,-1.260
9.700E-07,-1.240
9.800E-07,-1.300
9.900E-07,-1.280
1.000E-06,-1.120
1.010E-06,-0.900
1.020E-06,-0.420
1.030E-06,0.020
1.040E-06,0.320
1.050E-06,0.580
1.060E-06,0.240
1.070E-06,0.260
1.080E-06,0.160
1.090E-06,0.220
1.100E-06,0.540
1.110E-06,0.580
1.120E-06,0.400
1.130E-06,0.180
1.140E-06,-0.040
1.150E-06,0.080
1.160E-06,0.120
1.170E-06,-0.020
1.180E-06,-0.380
1.190E-06,-0.480
1.200E-06,-0.840
1.210E-06,-1.200
1.220E-06,-1.360
1.230E-06,-1.040
1.240E-06,-0.600
1.250E-06,-0.440
1.260E-06,-0.320
1.270E-06,-0.200
1.280E-06,-0.300
1.290E-06,-0.080
1.300E-06,0.180
1.310E-06,0.480
1.320E-06,0.500
1.330E-06,0.260
1.340E-06,0.080
1.350E-06,0.180
1.360E-06,0.180
1.370E-06,-0.200
1.380E-06,-0.720
1.390E-06,0.160
1.400E-06,1.760
1.410E-06,0.520
1.420E-06,-1.020
1.430E-06,-3.100
1.440E-06,-1.700
1.450E-06,-0.080
1.460E-06,0.520
1.470E-06,0.500
1.480E-06,-0.440
1.490E-06,-1.160
1.500E-06,-2.500
1.510E-06,-3.240
1.520E-06,-2.240
1.530E-06,-3.580
1.540E-06,-3.580
1.550E-06,-3.600
1.560E-06,-1.960
1.570E-06,-2.220
1.580E-06,-1.960
1.590E-06,-2.380
1.600E-06,-0.720
1.610E-06,1.560
1.620E-06,1.820
1.630E-06,1.840
1.640E-06,1.620
1.650E-06,0.400
1.660E-06,0.880
1.670E-06,0.660
1.680E-06,0.120
1.690E-06,-1.240
1.700E-06,-1.940
1.710E-06,-2.420
1.720E-06,-3.300
1.730E-06,-3.600
1.740E-06,-3.600
1.750E-06,-3.600
1.760E-06,-3.600
1.770E-06,-3.600
1.780E-06,-3.600
1.790E-06,-3.620
1.800E-06,-3.600
1.810E-06,-3.600
1.820E-06,-3.600
1.830E-06,-3.600
1.840E-06,-3.620
1.850E-06,-3.600
1.860E-06,-3.600
1.870E-06,-3.600
1.880E-06,-3.600
1.890E-06,-3.600
1.900E-06,-3.600
1.910E-06,-3.600
1.920E-06,-3.340
1.930E-06,-3.160
1.940E-06,-2.900
1.950E-06,-2.640
1.960E-06,-2.600
1.970E-06,-2.540
1.980E-06,-2.520
1.990E-06,-2.320
2.000E-06,-2.060
2.010E-06,-1.800
2.020E-06,-1.460
2.030E-06,-0.980
2.040E-06,-0.440
2.050E-06,0.160
2.060E-06,0.420
2.070E-06,0.460
2.080E-06,0.580
2.090E-06,0.660
2.100E-06,0.420
2.110E-06,0.180
2.120E-06,0.100
2.130E-06,-0.020
2.140E-06,-0.120
2.150E-06,-0.340
2.160E-06,-0.380
2.170E-06,-0.420
2.180E-06,-0.480
2.190E-06,-0.440
2.200E-06,-0.400
2.210E-06,-0.360
2.220E-06,-0.440
2.230E-06,-0.600
2.240E-06,-0.700
2.250E-06,-0.820
2.260E-06,-0.860
2.270E-06,-0.920
2.280E-06,-0.960
2.290E-06,-0.900
2.300E-06,-0.760
2.310E-06,-0.620
2.320E-06,-0.420
2.330E-06,-0.220
2.340E-06,0.040
2.350E-06,0.260
2.360E-06,0.400
2.370E-06,0.480
2.380E-06,0.500
2.390E-06,0.480
2.400E-06,0.420
2.410E-06,0.360
2.420E-06,0.280
2.430E-06,0.160
2.440E-06,0.100
2.450E-06,-0.020
2.460E-06,-0.100
2.470E-06,-0.120
2.480E-06,-0.120
2.490E-06,-0.160
2.500E-06,-0.140
2.510E-06,-0.140
2.520E-06,-0.080
2.530E-06,-0.120
2.540E-06,-0.180
2.550E-06,-0.140
2.560E-06,-0.140
2.570E-06,-0.120
2.580E-06,-0.080
2.590E-06,-0.160
2.600E-06,-0.180
2.610E-06,-0.200
2.620E-06,-0.160
2.630E-06,-0.120
2.640E-06,-0.080
2.650E-06,-0.040
2.660E-06,0.000
2.670E-06,0.000
2.680E-06,0.060
2.690E-06,0.060
2.700E-06,0.040
2.710E-06,0.060
2.720E-06,0.060
2.730E-06,0.080
2.740E-06,0.140
2.750E-06,0.160
2.760E-06,0.200
2.770E-06,0.220
2.780E-06,0.240
2.790E-06,0.220
2.800E-06,0.220
2.810E-06,0.260
2.820E-06,0.240
2.830E-06,0.180
2.840E-06,0.100
2.850E-06,0.080
2.860E-06,0.080
2.870E-06,0.040
2.880E-06,-0.040
2.890E-06,-0.120
2.900E-06,-0.180
2.910E-06,-0.180
2.920E-06,-0.160
2.930E-06,-0.160
2.940E-06,-0.180
2.950E-06,-0.160
2.960E-06,-0.160
2.970E-06,-0.100
2.980E-06,-0.060
2.990E-06,-0.060
3.000E-06,-0.060
3.010E-06,-0.040
3.020E-06,0.000
3.030E-06,0.000
3.040E-06,0.060
3.050E-06,0.060
3.060E-06,0.000
3.070E-06,0.060
3.080E-06,0.020
3.090E-06,0.160
3.100E-06,0.340
3.110E-06,0.560
3.120E-06,0.600
3.130E-06,0.480
3.140E-06,0.320
3.150E-06,0.160
3.160E-06,0.120
3.170E-06,0.080
3.180E-06,0.040
3.190E-06,0.060
3.200E-06,0.060
3.210E-06,0.100
3.220E-06,0.100
3.230E-06,0.080
3.240E-06,-0.020
3.250E-06,-0.060
3.260E-06,-0.080
3.270E-06,-0.120
3.280E-06,-0.100
3.290E-06,-0.080
3.300E-06,-0.060
3.310E-06,-0.040
3.320E-06,-0.020
3.330E-06,0.000
3.340E-06,0.000
3.350E-06,0.000
3.360E-06,-0.020
3.370E-06,0.000
3.380E-06,-0.020
3.390E-06,0.000
