mediciones/curva carac 8-28 limpias/0.001/WaveData6615.csv

#timebase=2000000(ps)
,#voltbase=500000(mv/100)
#size=4000
-8.350E-06,-0.320
-8.340E-06,-0.300
-8.330E-06,-0.180
-8.320E-06,-0.080
-8.310E-06,0.000
-8.300E-06,-0.080
-8.290E-06,-0.060
-8.280E-06,0.040
-8.270E-06,0.060
-8.260E-06,0.180
-8.250E-06,0.120
-8.240E-06,0.160
-8.230E-06,0.200
-8.220E-06,0.180
-8.210E-06,0.120
-8.200E-06,0.080
-8.190E-06,0.120
-8.180E-06,0.160
-8.170E-06,0.060
-8.160E-06,0.060
-8.150E-06,0.060
-8.140E-06,-0.040
-8.130E-06,-0.060
-8.120E-06,-0.100
-8.110E-06,-0.080
-8.100E-06,-0.160
-8.090E-06,-0.240
-8.080E-06,-0.240
-8.070E-06,-0.180
-8.060E-06,-0.140
-8.050E-06,-0.040
-8.040E-06,0.060
-8.030E-06,0.240
-8.020E-06,0.180
-8.010E-06,-0.040
-8.000E-06,0.140
-7.990E-06,0.240
-7.980E-06,0.180
-7.970E-06,0.160
-7.960E-06,0.160
-7.950E-06,0.120
-7.940E-06,0.100
-7.930E-06,-0.200
-7.920E-06,-0.200
-7.910E-06,-0.020
-7.900E-06,0.000
-7.890E-06,-0.020
-7.880E-06,-0.020
-7.870E-06,-0.120
-7.860E-06,-0.280
-7.850E-06,-0.200
-7.840E-06,0.080
-7.830E-06,0.120
-7.820E-06,-0.120
-7.810E-06,-0.200
-7.800E-06,0.020
-7.790E-06,0.240
-7.780E-06,0.300
-7.770E-06,0.260
-7.760E-06,0.500
-7.750E-06,1.000
-7.740E-06,1.180
-7.730E-06,1.040
-7.720E-06,0.720
-7.710E-06,0.300
-7.700E-06,0.040
-7.690E-06,-0.240
-7.680E-06,-0.460
-7.670E-06,-0.860
-7.660E-06,-1.280
-7.650E-06,-1.400
-7.640E-06,-1.340
-7.630E-06,-1.060
-7.620E-06,-0.760
-7.610E-06,-0.180
-7.600E-06,0.080
-7.590E-06,0.080
-7.580E-06,0.400
-7.570E-06,0.660
-7.560E-06,0.380
-7.550E-06,0.420
-7.540E-06,0.500
-7.530E-06,0.700
-7.520E-06,0.520
-7.510E-06,0.040
-7.500E-06,-0.260
-7.490E-06,-0.240
-7.480E-06,-0.060
-7.470E-06,-0.020
-7.460E-06,0.100
-7.450E-06,0.260
-7.440E-06,0.100
-7.430E-06,-0.260
-7.420E-06,-0.300
-7.410E-06,-0.240
-7.400E-06,0.000
-7.390E-06,0.140
-7.380E-06,-0.260
-7.370E-06,-0.440
-7.360E-06,-0.320
-7.350E-06,-0.200
-7.340E-06,-0.340
-7.330E-06,-0.080
-7.320E-06,0.360
-7.310E-06,0.460
-7.300E-06,0.260
-7.290E-06,0.260
-7.280E-06,0.360
-7.270E-06,0.220
-7.260E-06,0.400
-7.250E-06,0.760
-7.240E-06,-0.420
-7.230E-06,-1.020
-7.220E-06,-0.180
-7.210E-06,0.160
-7.200E-06,-0.360
-7.190E-06,-0.760
-7.180E-06,-0.500
-7.170E-06,-0.280
-7.160E-06,-0.260
-7.150E-06,-0.180
-7.140E-06,-0.060
-7.130E-06,0.140
-7.120E-06,0.240
-7.110E-06,0.080
-7.100E-06,0.080
-7.090E-06,0.400
-7.080E-06,0.480
-7.070E-06,0.120
-7.060E-06,0.040
-7.050E-06,0.240
-7.040E-06,0.280
-7.030E-06,0.160
-7.020E-06,0.080
-7.010E-06,0.080
-7.000E-06,0.100
-6.990E-06,0.100
-6.980E-06,0.060
-6.970E-06,0.020
-6.960E-06,0.000
-6.950E-06,0.060
-6.940E-06,-0.100
-6.930E-06,-0.220
-6.920E-06,-0.240
-6.910E-06,-0.300
-6.900E-06,-0.340
-6.890E-06,-0.280
-6.880E-06,-0.180
-6.870E-06,-0.120
-6.860E-06,-0.120
-6.850E-06,-0.040
-6.840E-06,0.060
-6.830E-06,0.180
-6.820E-06,0.300
-6.810E-06,0.320
-6.800E-06,0.280
-6.790E-06,0.300
-6.780E-06,0.220
-6.770E-06,0.060
-6.760E-06,0.080
-6.750E-06,0.060
-6.740E-06,-0.020
-6.730E-06,-0.200
-6.720E-06,-0.220
-6.710E-06,0.000
-6.700E-06,-0.120
-6.690E-06,-0.260
-6.680E-06,-0.280
-6.670E-06,-0.180
-6.660E-06,-0.020
-6.650E-06,-0.120
-6.640E-06,-0.100
-6.630E-06,-0.120
-6.620E-06,-0.140
-6.610E-06,-0.080
-6.600E-06,0.020
-6.590E-06,0.100
-6.580E-06,0.080
-6.570E-06,-0.040
-6.560E-06,-0.080
-6.550E-06,-0.040
-6.540E-06,0.060
-6.530E-06,0.000
-6.520E-06,-0.120
-6.510E-06,-0.100
-6.500E-06,-0.100
-6.490E-06,-0.080
-6.480E-06,-0.160
-6.470E-06,-0.240
-6.460E-06,-0.220
-6.450E-06,-0.180
-6.440E-06,-0.260
-6.430E-06,-0.180
-6.420E-06,0.060
-6.410E-06,0.020
-6.400E-06,-0.180
-6.390E-06,-0.260
-6.380E-06,-0.280
-6.370E-06,-0.140
-6.360E-06,0.020
-6.350E-06,-0.160
-6.340E-06,0.420
-6.330E-06,0.720
-6.320E-06,-0.180
-6.310E-06,-0.620
-6.300E-06,-0.240
-6.290E-06,-0.040
-6.280E-06,0.180
-6.270E-06,0.060
-6.260E-06,-0.160
-6.250E-06,-0.420
-6.240E-06,-0.620
-6.230E-06,-0.520
-6.220E-06,-0.180
-6.210E-06,0.220
-6.200E-06,0.400
-6.190E-06,-0.020
-6.180E-06,-0.180
-6.170E-06,0.200
-6.160E-06,0.280
-6.150E-06,0.020
-6.140E-06,-0.020
-6.130E-06,0.260
-6.120E-06,0.340
-6.110E-06,0.200
-6.100E-06,0.000
-6.090E-06,-0.040
-6.080E-06,-0.020
-6.070E-06,0.040
-6.060E-06,0.000
-6.050E-06,0.020
-6.040E-06,0.100
-6.030E-06,0.120
-6.020E-06,0.000
-6.010E-06,0.000
-6.000E-06,0.080
-5.990E-06,0.060
-5.980E-06,0.040
-5.970E-06,0.060
-5.960E-06,0.060
-5.950E-06,0.040
-5.940E-06,0.020
-5.930E-06,-0.020
-5.920E-06,-0.040
-5.910E-06,0.020
-5.900E-06,0.020
-5.890E-06,0.000
-5.880E-06,0.000
-5.870E-06,-0.020
-5.860E-06,-0.040
-5.850E-06,-0.080
-5.840E-06,-0.040
-5.830E-06,-0.060
-5.820E-06,-0.140
-5.810E-06,-0.220
-5.800E-06,-0.240
-5.790E-06,-0.160
-5.780E-06,-0.160
-5.770E-06,-0.160
-5.760E-06,-0.100
-5.750E-06,-0.100
-5.740E-06,-0.080
-5.730E-06,-0.080
-5.720E-06,0.100
-5.710E-06,-0.040
-5.700E-06,0.260
-5.690E-06,0.260
-5.680E-06,0.040
-5.670E-06,-0.040
-5.660E-06,-0.080
-5.650E-06,0.040
-5.640E-06,0.000
-5.630E-06,-0.080
-5.620E-06,-0.300
-5.610E-06,-0.260
-5.600E-06,-0.080
-5.590E-06,-0.180
-5.580E-06,-0.220
-5.570E-06,-0.160
-5.560E-06,-0.120
-5.550E-06,-0.300
-5.540E-06,0.180
-5.530E-06,0.500
-5.520E-06,0.020
-5.510E-06,-0.180
-5.500E-06,-0.200
-5.490E-06,-0.140
-5.480E-06,0.060
-5.470E-06,-0.160
-5.460E-06,-0.160
-5.450E-06,-0.320
-5.440E-06,-0.340
-5.430E-06,-0.280
-5.420E-06,-0.280
-5.410E-06,-0.060
-5.400E-06,0.080
-5.390E-06,-0.040
-5.380E-06,-0.040
-5.370E-06,0.220
-5.360E-06,0.240
-5.350E-06,0.080
-5.340E-06,0.140
-5.330E-06,0.280
-5.320E-06,0.280
-5.310E-06,0.160
-5.300E-06,0.200
-5.290E-06,0.320
-5.280E-06,0.240
-5.270E-06,0.080
-5.260E-06,-0.060
-5.250E-06,-0.200
-5.240E-06,-0.200
-5.230E-06,-0.260
-5.220E-06,-0.400
-5.210E-06,-0.100
-5.200E-06,0.020
-5.190E-06,-0.360
-5.180E-06,-0.420
-5.170E-06,-0.200
-5.160E-06,0.000
-5.150E-06,-0.060
-5.140E-06,-0.240
-5.130E-06,-0.160
-5.120E-06,-0.100
-5.110E-06,-0.080
-5.100E-06,-0.080
-5.090E-06,-0.100
-5.080E-06,-0.100
-5.070E-06,-0.100
-5.060E-06,-0.100
-5.050E-06,-0.100
-5.040E-06,0.000
-5.030E-06,-0.060
-5.020E-06,-0.100
-5.010E-06,-0.140
-5.000E-06,-0.140
-4.990E-06,-0.080
-4.980E-06,-0.080
-4.970E-06,-0.100
-4.960E-06,-0.100
-4.950E-06,-0.040
-4.940E-06,-0.080
-4.930E-06,0.060
-4.920E-06,0.060
-4.910E-06,0.200
-4.900E-06,0.360
-4.890E-06,0.260
-4.880E-06,0.060
-4.870E-06,-0.020
-4.860E-06,-0.120
-4.850E-06,-0.180
-4.840E-06,-0.240
-4.830E-06,-0.140
-4.820E-06,-0.340
-4.810E-06,-0.640
-4.800E-06,-0.480
-4.790E-06,-0.160
-4.780E-06,0.000
-4.770E-06,-0.220
-4.760E-06,-0.440
-4.750E-06,-0.260
-4.740E-06,-0.080
-4.730E-06,0.060
-4.720E-06,-0.100
-4.710E-06,-0.240
-4.700E-06,-0.400
-4.690E-06,-0.500
-4.680E-06,-0.020
-4.670E-06,0.500
-4.660E-06,0.360
-4.650E-06,-0.100
-4.640E-06,-0.180
-4.630E-06,-0.320
-4.620E-06,-0.060
-4.610E-06,0.240
-4.600E-06,0.040
-4.590E-06,-0.140
-4.580E-06,-0.260
-4.570E-06,-0.440
-4.560E-06,0.340
-4.550E-06,1.000
-4.540E-06,0.580
-4.530E-06,-0.440
-4.520E-06,-0.740
-4.510E-06,-0.240
-4.500E-06,-0.040
-4.490E-06,-0.160
-4.480E-06,-0.020
-4.470E-06,-0.220
-4.460E-06,-0.540
-4.450E-06,-0.600
-4.440E-06,-0.500
-4.430E-06,-0.160
-4.420E-06,0.080
-4.410E-06,0.020
-4.400E-06,-0.120
-4.390E-06,0.020
-4.380E-06,0.200
-4.370E-06,0.000
-4.360E-06,-0.120
-4.350E-06,0.160
-4.340E-06,0.240
-4.330E-06,0.240
-4.320E-06,0.180
-4.310E-06,0.160
-4.300E-06,0.180
-4.290E-06,0.140
-4.280E-06,0.100
-4.270E-06,0.080
-4.260E-06,0.080
-4.250E-06,0.120
-4.240E-06,0.060
-4.230E-06,-0.120
-4.220E-06,-0.140
-4.210E-06,-0.180
-4.200E-06,-0.280
-4.190E-06,-0.300
-4.180E-06,-0.340
-4.170E-06,-0.240
-4.160E-06,-0.260
-4.150E-06,-0.260
-4.140E-06,-0.360
-4.130E-06,-0.360
-4.120E-06,-0.260
-4.110E-06,-0.200
-4.100E-06,-0.160
-4.090E-06,-0.140
-4.080E-06,-0.200
-4.070E-06,-0.240
-4.060E-06,-0.260
-4.050E-06,-0.240
-4.040E-06,-0.240
-4.030E-06,-0.200
-4.020E-06,-0.240
-4.010E-06,-0.280
-4.000E-06,-0.320
-3.990E-06,-0.360
-3.980E-06,-0.260
-3.970E-06,-0.160
-3.960E-06,-0.100
-3.950E-06,-0.040
-3.940E-06,-0.080
-3.930E-06,0.340
-3.920E-06,0.340
-3.910E-06,0.160
-3.900E-06,0.100
-3.890E-06,-0.040
-3.880E-06,-0.020
-3.870E-06,0.320
-3.860E-06,0.400
-3.850E-06,-0.060
-3.840E-06,-0.860
-3.830E-06,-1.000
-3.820E-06,-0.560
-3.810E-06,-0.060
-3.800E-06,0.040
-3.790E-06,-0.340
-3.780E-06,-0.680
-3.770E-06,-0.600
-3.760E-06,-0.380
-3.750E-06,-0.180
-3.740E-06,-0.140
-3.730E-06,-0.180
-3.720E-06,-0.280
-3.710E-06,-0.240
-3.700E-06,-0.320
-3.690E-06,-0.420
-3.680E-06,0.220
-3.670E-06,0.600
-3.660E-06,0.420
-3.650E-06,-0.040
-3.640E-06,-0.300
-3.630E-06,-0.580
-3.620E-06,-0.440
-3.610E-06,-0.260
-3.600E-06,-0.260
-3.590E-06,-0.480
-3.580E-06,-0.700
-3.570E-06,-0.680
-3.560E-06,-0.580
-3.550E-06,-0.280
-3.540E-06,0.000
-3.530E-06,0.060
-3.520E-06,0.160
-3.510E-06,0.200
-3.500E-06,0.080
-3.490E-06,-0.020
-3.480E-06,-0.060
-3.470E-06,0.000
-3.460E-06,0.000
-3.450E-06,-0.340
-3.440E-06,-0.520
-3.430E-06,-0.480
-3.420E-06,-0.380
-3.410E-06,-0.400
-3.400E-06,-0.580
-3.390E-06,-0.640
-3.380E-06,-0.600
-3.370E-06,-0.520
-3.360E-06,-0.460
-3.350E-06,-0.520
-3.340E-06,-0.500
-3.330E-06,-0.520
-3.320E-06,-0.560
-3.310E-06,-0.540
-3.300E-06,-0.520
-3.290E-06,-0.500
-3.280E-06,-0.560
-3.270E-06,-0.460
-3.260E-06,-0.260
-3.250E-06,-0.360
-3.240E-06,-0.540
-3.230E-06,-0.480
-3.220E-06,-0.260
-3.210E-06,-0.100
-3.200E-06,-0.280
-3.190E-06,-0.320
-3.180E-06,-0.420
-3.170E-06,-0.560
-3.160E-06,-0.720
-3.150E-06,-0.740
-3.140E-06,-0.760
-3.130E-06,-0.860
-3.120E-06,-0.980
-3.110E-06,-0.980
-3.100E-06,-0.880
-3.090E-06,-0.740
-3.080E-06,-0.620
-3.070E-06,-0.520
-3.060E-06,-0.460
-3.050E-06,0.120
-3.040E-06,0.720
-3.030E-06,0.520
-3.020E-06,-0.100
-3.010E-06,-0.660
-3.000E-06,-0.760
-2.990E-06,-0.680
-2.980E-06,-0.380
-2.970E-06,-0.420
-2.960E-06,-0.680
-2.950E-06,-1.020
-2.940E-06,-1.320
-2.930E-06,-0.760
-2.920E-06,-0.040
-2.910E-06,-0.180
-2.900E-06,-0.720
-2.890E-06,-0.640
-2.880E-06,0.220
-2.870E-06,0.440
-2.860E-06,-0.200
-2.850E-06,-1.120
-2.840E-06,-1.280
-2.830E-06,0.520
-2.820E-06,1.820
-2.810E-06,0.920
-2.800E-06,-0.380
-2.790E-06,-1.540
-2.780E-06,-0.980
-2.770E-06,-0.760
-2.760E-06,-0.160
-2.750E-06,0.400
-2.740E-06,-0.260
-2.730E-06,-1.200
-2.720E-06,-1.440
-2.710E-06,-0.780
-2.700E-06,0.080
-2.690E-06,0.300
-2.680E-06,0.340
-2.670E-06,-0.140
-2.660E-06,-0.480
-2.650E-06,-0.340
-2.640E-06,-0.180
-2.630E-06,-0.080
-2.620E-06,0.060
-2.610E-06,0.000
-2.600E-06,-0.300
-2.590E-06,-0.380
-2.580E-06,0.580
-2.570E-06,1.000
-2.560E-06,0.560
-2.550E-06,-0.140
-2.540E-06,-0.540
-2.530E-06,-0.400
-2.520E-06,-0.380
-2.510E-06,-0.320
-2.500E-06,-0.300
-2.490E-06,-0.520
-2.480E-06,-1.060
-2.470E-06,-1.040
-2.460E-06,-0.720
-2.450E-06,-0.260
-2.440E-06,0.200
-2.430E-06,0.100
-2.420E-06,0.040
-2.410E-06,0.120
-2.400E-06,0.140
-2.390E-06,0.200
-2.380E-06,0.140
-2.370E-06,0.100
-2.360E-06,0.120
-2.350E-06,0.160
-2.340E-06,0.160
-2.330E-06,0.160
-2.320E-06,0.120
-2.310E-06,0.100
-2.300E-06,0.080
-2.290E-06,0.020
-2.280E-06,-0.140
-2.270E-06,-0.220
-2.260E-06,-0.340
-2.250E-06,-0.200
-2.240E-06,-0.440
-2.230E-06,-0.820
-2.220E-06,-0.700
-2.210E-06,-0.380
-2.200E-06,-0.240
-2.190E-06,-0.220
-2.180E-06,-0.460
-2.170E-06,-0.320
-2.160E-06,0.160
-2.150E-06,0.760
-2.140E-06,0.600
-2.130E-06,0.240
-2.120E-06,0.200
-2.110E-06,0.180
-2.100E-06,0.160
-2.090E-06,0.080
-2.080E-06,-0.040
-2.070E-06,-0.140
-2.060E-06,-0.400
-2.050E-06,-0.620
-2.040E-06,-0.740
-2.030E-06,-0.740
-2.020E-06,-0.600
-2.010E-06,-0.400
-2.000E-06,-0.180
-1.990E-06,-0.080
-1.980E-06,-0.180
-1.970E-06,-0.180
-1.960E-06,0.060
-1.950E-06,0.240
-1.940E-06,0.300
-1.930E-06,0.160
-1.920E-06,0.180
-1.910E-06,0.080
-1.900E-06,0.040
-1.890E-06,-0.040
-1.880E-06,-0.160
-1.870E-06,-0.160
-1.860E-06,-0.500
-1.850E-06,-0.300
-1.840E-06,0.040
-1.830E-06,-0.040
-1.820E-06,0.280
-1.810E-06,0.200
-1.800E-06,-0.260
-1.790E-06,0.180
-1.780E-06,0.160
-1.770E-06,-0.220
-1.760E-06,-0.360
-1.750E-06,-0.700
-1.740E-06,-0.340
-1.730E-06,-0.260
-1.720E-06,-0.200
-1.710E-06,-0.340
-1.700E-06,-1.240
-1.690E-06,-0.720
-1.680E-06,-0.360
-1.670E-06,-0.260
-1.660E-06,-0.120
-1.650E-06,0.060
-1.640E-06,-0.100
-1.630E-06,-0.420
-1.620E-06,-0.220
-1.610E-06,0.060
-1.600E-06,0.160
-1.590E-06,0.300
-1.580E-06,0.320
-1.570E-06,0.180
-1.560E-06,-0.280
-1.550E-06,-0.440
-1.540E-06,-0.320
-1.530E-06,-0.260
-1.520E-06,-0.280
-1.510E-06,-0.540
-1.500E-06,-0.620
-1.490E-06,-0.680
-1.480E-06,0.040
-1.470E-06,0.500
-1.460E-06,0.620
-1.450E-06,0.140
-1.440E-06,-0.220
-1.430E-06,-0.180
-1.420E-06,0.340
-1.410E-06,0.300
-1.400E-06,0.060
-1.390E-06,-0.300
-1.380E-06,-0.420
-1.370E-06,-0.300
-1.360E-06,-0.280
-1.350E-06,-0.180
-1.340E-06,-0.200
-1.330E-06,-0.240
-1.320E-06,-0.220
-1.310E-06,-0.140
-1.300E-06,-0.300
-1.290E-06,-0.460
-1.280E-06,-0.440
-1.270E-06,-0.440
-1.260E-06,-0.340
-1.250E-06,-0.240
-1.240E-06,-0.140
-1.230E-06,0.040
-1.220E-06,0.280
-1.210E-06,0.240
-1.200E-06,0.260
-1.190E-06,0.400
-1.180E-06,0.220
-1.170E-06,0.120
-1.160E-06,0.080
-1.150E-06,0.140
-1.140E-06,-0.020
-1.130E-06,-0.620
-1.120E-06,-1.000
-1.110E-06,-1.000
-1.100E-06,-0.760
-1.090E-06,-0.120
-1.080E-06,-0.200
-1.070E-06,-0.520
-1.060E-06,-0.480
-1.050E-06,-0.360
-1.040E-06,0.060
-1.030E-06,0.260
-1.020E-06,0.300
-1.010E-06,0.260
-1.000E-06,-0.020
-9.900E-07,-0.420
-9.800E-07,-0.060
-9.700E-07,0.260
-9.600E-07,0.020
-9.500E-07,-0.340
-9.400E-07,-0.600
-9.300E-07,-0.560
-9.200E-07,-0.400
-9.100E-07,-0.280
-9.000E-07,-0.100
-8.900E-07,-0.140
-8.800E-07,-0.220
-8.700E-07,-0.240
-8.600E-07,-0.100
-8.500E-07,0.100
-8.400E-07,0.200
-8.300E-07,0.420
-8.200E-07,0.440
-8.100E-07,0.400
-8.000E-07,0.360
-7.900E-07,0.300
-7.800E-07,0.120
-7.700E-07,-0.240
-7.600E-07,0.260
-7.500E-07,0.860
-7.400E-07,0.740
-7.300E-07,0.360
-7.200E-07,-0.140
-7.100E-07,-0.320
-7.000E-07,-0.680
-6.900E-07,-0.640
-6.800E-07,-0.620
-6.700E-07,-1.000
-6.600E-07,-1.640
-6.500E-07,-1.840
-6.400E-07,-1.640
-6.300E-07,-1.540
-6.200E-07,-0.860
-6.100E-07,-0.460
-6.000E-07,-0.420
-5.900E-07,-0.100
-5.800E-07,0.200
-5.700E-07,0.580
-5.600E-07,0.600
-5.500E-07,0.440
-5.400E-07,0.360
-5.300E-07,0.260
-5.200E-07,0.200
-5.100E-07,0.040
-5.000E-07,-0.260
-4.900E-07,-0.480
-4.800E-07,-0.600
-4.700E-07,-0.740
-4.600E-07,-0.440
-4.500E-07,0.020
-4.400E-07,0.160
-4.300E-07,-0.100
-4.200E-07,-0.460
-4.100E-07,-0.300
-4.000E-07,-0.080
-3.900E-07,-0.180
-3.800E-07,-0.180
-3.700E-07,-0.260
-3.600E-07,-0.260
-3.500E-07,-0.420
-3.400E-07,-0.620
-3.300E-07,-0.820
-3.200E-07,-0.560
-3.100E-07,-0.460
-3.000E-07,-0.480
-2.900E-07,-0.560
-2.800E-07,-0.420
-2.700E-07,-0.580
-2.600E-07,-0.640
-2.500E-07,-0.580
-2.400E-07,-0.640
-2.300E-07,0.300
-2.200E-07,1.060
-2.100E-07,1.080
-2.000E-07,-0.860
-1.900E-07,-1.840
-1.800E-07,-2.000
-1.700E-07,-1.600
-1.600E-07,-1.180
-1.500E-07,-1.540
-1.400E-07,-1.940
-1.300E-07,-2.040
-1.200E-07,-1.940
-1.100E-07,-0.560
-1.000E-07,0.940
-9.000E-08,1.840
-8.000E-08,1.240
-7.000E-08,-1.180
-6.000E-08,-2.740
-5.000E-08,-2.580
-4.000E-08,-2.120
-3.000E-08,-0.440
-2.000E-08,1.820
-1.000E-08,-1.120
0.000E+00,-3.620
1.000E-08,-3.600
2.000E-08,-3.600
3.000E-08,-0.960
4.000E-08,1.660
5.000E-08,0.400
6.000E-08,-2.360
7.000E-08,-3.600
8.000E-08,-1.940
9.000E-08,0.080
1.000E-07,-0.540
1.100E-07,-0.720
1.200E-07,-0.680
1.300E-07,-0.760
1.400E-07,-0.520
1.500E-07,-1.120
1.600E-07,-1.640
1.700E-07,-1.700
1.800E-07,-1.020
1.900E-07,-0.260
2.000E-07,-0.040
2.100E-07,-0.300
2.200E-07,-0.260
2.300E-07,-0.240
2.400E-07,-0.220
2.500E-07,-0.380
2.600E-07,-0.260
2.700E-07,0.060
2.800E-07,0.160
2.900E-07,-0.020
3.000E-07,-0.100
3.100E-07,-0.120
3.200E-07,0.120
3.300E-07,0.000
3.400E-07,-0.180
3.500E-07,-0.260
3.600E-07,-0.120
3.700E-07,-0.080
3.800E-07,-0.140
3.900E-07,-0.080
4.000E-07,-0.140
4.100E-07,-0.320
4.200E-07,-0.780
4.300E-07,-0.960
4.400E-07,-0.660
4.500E-07,-0.540
4.600E-07,-0.400
4.700E-07,-0.520
4.800E-07,-0.540
4.900E-07,-0.500
5.000E-07,-0.400
5.100E-07,-0.300
5.200E-07,-0.100
5.300E-07,0.060
5.400E-07,-0.120
5.500E-07,-0.200
5.600E-07,-0.280
5.700E-07,-0.180
5.800E-07,-0.120
5.900E-07,-0.500
6.000E-07,-0.020
6.100E-07,1.360
6.200E-07,1.840
6.300E-07,0.360
6.400E-07,-2.620
6.500E-07,-3.220
6.600E-07,-1.240
6.700E-07,1.800
6.800E-07,1.820
6.900E-07,-0.240
7.000E-07,-3.600
7.100E-07,-2.660
7.200E-07,1.800
7.300E-07,1.820
7.400E-07,1.820
7.500E-07,-1.360
7.600E-07,-3.620
7.700E-07,-3.600
7.800E-07,-3.340
7.900E-07,-1.280
8.000E-07,-0.140
8.100E-07,-0.820
8.200E-07,-3.620
8.300E-07,-3.620
8.400E-07,-1.860
8.500E-07,1.540
8.600E-07,1.840
8.700E-07,1.840
8.800E-07,1.820
8.900E-07,1.680
9.000E-07,1.580
9.100E-07,1.100
9.200E-07,0.720
9.300E-07,0.840
9.400E-07,0.660
9.500E-07,0.280
9.600E-07,0.100
9.700E-07,-0.060
9.800E-07,-0.240
9.900E-07,-0.640
1.000E-06,-0.800
1.010E-06,-0.860
1.020E-06,-0.140
1.030E-06,0.120
1.040E-06,0.320
1.050E-06,-0.580
1.060E-06,-0.500
1.070E-06,-0.360
1.080E-06,-0.080
1.090E-06,-0.040
1.100E-06,-0.220
1.110E-06,-0.060
1.120E-06,-0.040
1.130E-06,-0.220
1.140E-06,-0.040
1.150E-06,0.140
1.160E-06,0.260
1.170E-06,0.080
1.180E-06,-0.040
1.190E-06,0.440
1.200E-06,0.940
1.210E-06,1.380
1.220E-06,1.760
1.230E-06,0.980
1.240E-06,0.380
1.250E-06,0.680
1.260E-06,0.160
1.270E-06,-1.040
1.280E-06,-2.500
1.290E-06,-2.840
1.300E-06,-2.280
1.310E-06,-1.920
1.320E-06,-1.880
1.330E-06,-1.580
1.340E-06,-0.940
1.350E-06,-0.160
1.360E-06,0.380
1.370E-06,0.960
1.380E-06,1.260
1.390E-06,1.420
1.400E-06,1.400
1.410E-06,1.200
1.420E-06,0.740
1.430E-06,0.160
1.440E-06,-0.160
1.450E-06,0.060
1.460E-06,0.080
1.470E-06,0.000
1.480E-06,-0.060
1.490E-06,-0.120
1.500E-06,-0.380
1.510E-06,0.080
1.520E-06,0.320
1.530E-06,-0.100
1.540E-06,-0.340
1.550E-06,-0.200
1.560E-06,-0.460
1.570E-06,-0.180
1.580E-06,-0.860
1.590E-06,-1.360
1.600E-06,-1.360
1.610E-06,-0.960
1.620E-06,-0.380
1.630E-06,-0.200
1.640E-06,0.000
1.650E-06,0.380
1.660E-06,0.620
1.670E-06,0.520
1.680E-06,0.520
1.690E-06,0.340
1.700E-06,0.680
1.710E-06,0.480
1.720E-06,-0.100
1.730E-06,-0.620
1.740E-06,-0.460
1.750E-06,-0.380
1.760E-06,-0.180
1.770E-06,-0.620
1.780E-06,-0.580
1.790E-06,0.000
1.800E-06,0.740
1.810E-06,0.920
1.820E-06,0.520
1.830E-06,0.060
1.840E-06,-0.780
1.850E-06,-0.960
1.860E-06,-0.320
1.870E-06,0.540
1.880E-06,0.200
1.890E-06,-0.500
1.900E-06,-0.740
1.910E-06,0.080
1.920E-06,1.000
1.930E-06,1.220
1.940E-06,0.300
1.950E-06,0.100
1.960E-06,-0.500
1.970E-06,-0.880
1.980E-06,-1.260
1.990E-06,-1.720
2.000E-06,-1.980
2.010E-06,-2.500
2.020E-06,-2.620
2.030E-06,-2.240
2.040E-06,-1.800
2.050E-06,-1.460
2.060E-06,-1.100
2.070E-06,-0.920
2.080E-06,-0.140
2.090E-06,1.080
2.100E-06,1.840
2.110E-06,1.780
2.120E-06,1.420
2.130E-06,1.460
2.140E-06,1.820
2.150E-06,1.820
2.160E-06,1.840
2.170E-06,1.040
2.180E-06,0.380
2.190E-06,0.000
2.200E-06,-0.260
2.210E-06,-0.380
2.220E-06,-0.420
2.230E-06,-0.700
2.240E-06,-0.920
2.250E-06,-1.060
2.260E-06,-0.760
2.270E-06,-0.660
2.280E-06,-0.540
2.290E-06,-0.520
2.300E-06,-0.420
2.310E-06,-0.280
2.320E-06,-0.180
2.330E-06,-0.040
2.340E-06,0.000
2.350E-06,-0.040
2.360E-06,-0.040
2.370E-06,-0.040
2.380E-06,0.000
2.390E-06,0.020
2.400E-06,0.020
2.410E-06,-0.060
2.420E-06,-0.180
2.430E-06,-0.280
2.440E-06,-0.360
2.450E-06,-0.280
2.460E-06,-0.360
2.470E-06,-0.420
2.480E-06,-0.420
2.490E-06,-0.360
2.500E-06,-0.280
2.510E-06,-0.040
2.520E-06,0.120
2.530E-06,0.160
2.540E-06,0.220
2.550E-06,0.340
2.560E-06,0.480
2.570E-06,0.540
2.580E-06,0.460
2.590E-06,0.400
2.600E-06,0.260
2.610E-06,0.220
2.620E-06,0.060
2.630E-06,-0.020
2.640E-06,-0.140
2.650E-06,-0.260
2.660E-06,-0.340
2.670E-06,-0.360
2.680E-06,-0.380
2.690E-06,-0.400
2.700E-06,-0.440
2.710E-06,-0.440
2.720E-06,-0.400
2.730E-06,-0.400
2.740E-06,-0.380
2.750E-06,-0.360
2.760E-06,-0.340
2.770E-06,-0.280
2.780E-06,-0.200
2.790E-06,-0.160
2.800E-06,-0.080
2.810E-06,0.020
2.820E-06,0.080
2.830E-06,0.160
2.840E-06,0.240
2.850E-06,0.340
2.860E-06,0.340
2.870E-06,0.380
2.880E-06,0.360
2.890E-06,0.280
2.900E-06,0.220
2.910E-06,0.140
2.920E-06,0.060
2.930E-06,-0.020
2.940E-06,-0.120
2.950E-06,-0.200
2.960E-06,-0.240
2.970E-06,-0.260
2.980E-06,-0.160
2.990E-06,-0.100
3.000E-06,-0.140
3.010E-06,-0.240
3.020E-06,-0.240
3.030E-06,-0.100
3.040E-06,0.000
3.050E-06,0.000
3.060E-06,-0.040
3.070E-06,-0.080
3.080E-06,-0.140
3.090E-06,-0.080
3.100E-06,-0.040
3.110E-06,0.020
3.120E-06,0.040
3.130E-06,0.000
