mediciones/8-28/-22/WaveData65757.csv

#timebase=2000000(ps)
,#voltbase=500000(mv/100)
#size=4000
-8.350E-06,0.040
-8.340E-06,0.060
-8.330E-06,0.020
-8.320E-06,0.060
-8.310E-06,0.040
-8.300E-06,0.020
-8.290E-06,0.060
-8.280E-06,0.000
-8.270E-06,0.040
-8.260E-06,0.080
-8.250E-06,0.060
-8.240E-06,0.060
-8.230E-06,0.080
-8.220E-06,0.000
-8.210E-06,0.060
-8.200E-06,0.040
-8.190E-06,0.060
-8.180E-06,0.040
-8.170E-06,0.060
-8.160E-06,0.060
-8.150E-06,0.040
-8.140E-06,0.060
-8.130E-06,0.080
-8.120E-06,0.040
-8.110E-06,0.020
-8.100E-06,0.040
-8.090E-06,0.040
-8.080E-06,0.060
-8.070E-06,0.020
-8.060E-06,0.020
-8.050E-06,0.040
-8.040E-06,0.060
-8.030E-06,0.040
-8.020E-06,0.060
-8.010E-06,0.060
-8.000E-06,0.040
-7.990E-06,0.020
-7.980E-06,0.060
-7.970E-06,0.020
-7.960E-06,0.040
-7.950E-06,0.060
-7.940E-06,0.000
-7.930E-06,0.040
-7.920E-06,0.080
-7.910E-06,0.020
-7.900E-06,0.020
-7.890E-06,0.060
-7.880E-06,0.040
-7.870E-06,0.000
-7.860E-06,0.080
-7.850E-06,0.040
-7.840E-06,0.040
-7.830E-06,0.040
-7.820E-06,0.060
-7.810E-06,0.040
-7.800E-06,0.060
-7.790E-06,0.020
-7.780E-06,0.060
-7.770E-06,0.080
-7.760E-06,0.060
-7.750E-06,0.040
-7.740E-06,0.040
-7.730E-06,0.080
-7.720E-06,0.040
-7.710E-06,0.060
-7.700E-06,0.040
-7.690E-06,0.060
-7.680E-06,0.060
-7.670E-06,0.020
-7.660E-06,0.020
-7.650E-06,0.080
-7.640E-06,0.060
-7.630E-06,0.020
-7.620E-06,0.040
-7.610E-06,0.040
-7.600E-06,0.080
-7.590E-06,0.060
-7.580E-06,0.080
-7.570E-06,0.000
-7.560E-06,0.040
-7.550E-06,0.040
-7.540E-06,0.060
-7.530E-06,0.000
-7.520E-06,0.040
-7.510E-06,0.040
-7.500E-06,0.060
-7.490E-06,0.040
-7.480E-06,0.040
-7.470E-06,0.020
-7.460E-06,0.060
-7.450E-06,0.060
-7.440E-06,0.020
-7.430E-06,0.060
-7.420E-06,0.040
-7.410E-06,0.020
-7.400E-06,0.020
-7.390E-06,0.040
-7.380E-06,0.020
-7.370E-06,0.060
-7.360E-06,0.060
-7.350E-06,0.040
-7.340E-06,0.040
-7.330E-06,0.080
-7.320E-06,0.060
-7.310E-06,0.000
-7.300E-06,0.060
-7.290E-06,0.040
-7.280E-06,0.040
-7.270E-06,0.040
-7.260E-06,0.040
-7.250E-06,0.060
-7.240E-06,0.060
-7.230E-06,0.040
-7.220E-06,0.080
-7.210E-06,0.060
-7.200E-06,0.060
-7.190E-06,0.080
-7.180E-06,0.020
-7.170E-06,0.020
-7.160E-06,0.080
-7.150E-06,0.060
-7.140E-06,0.040
-7.130E-06,0.080
-7.120E-06,0.040
-7.110E-06,0.040
-7.100E-06,0.020
-7.090E-06,0.040
-7.080E-06,0.000
-7.070E-06,0.040
-7.060E-06,0.020
-7.050E-06,0.040
-7.040E-06,0.080
-7.030E-06,0.020
-7.020E-06,0.060
-7.010E-06,0.040
-7.000E-06,0.080
-6.990E-06,0.040
-6.980E-06,0.040
-6.970E-06,0.060
-6.960E-06,0.040
-6.950E-06,0.040
-6.940E-06,0.060
-6.930E-06,0.000
-6.920E-06,0.000
-6.910E-06,0.040
-6.900E-06,0.040
-6.890E-06,0.040
-6.880E-06,0.060
-6.870E-06,0.040
-6.860E-06,0.040
-6.850E-06,0.040
-6.840E-06,0.000
-6.830E-06,0.040
-6.820E-06,-0.020
-6.810E-06,0.060
-6.800E-06,0.020
-6.790E-06,0.060
-6.780E-06,0.040
-6.770E-06,0.020
-6.760E-06,0.060
-6.750E-06,0.000
-6.740E-06,0.020
-6.730E-06,0.060
-6.720E-06,0.040
-6.710E-06,0.040
-6.700E-06,0.080
-6.690E-06,0.060
-6.680E-06,0.060
-6.670E-06,0.060
-6.660E-06,0.040
-6.650E-06,0.040
-6.640E-06,0.080
-6.630E-06,0.040
-6.620E-06,0.080
-6.610E-06,0.020
-6.600E-06,0.040
-6.590E-06,0.080
-6.580E-06,0.040
-6.570E-06,0.040
-6.560E-06,0.080
-6.550E-06,0.040
-6.540E-06,0.020
-6.530E-06,0.040
-6.520E-06,-0.020
-6.510E-06,0.020
-6.500E-06,0.040
-6.490E-06,0.020
-6.480E-06,0.060
-6.470E-06,0.040
-6.460E-06,0.040
-6.450E-06,0.040
-6.440E-06,0.060
-6.430E-06,0.060
-6.420E-06,0.060
-6.410E-06,0.020
-6.400E-06,0.020
-6.390E-06,0.020
-6.380E-06,0.040
-6.370E-06,0.040
-6.360E-06,0.060
-6.350E-06,0.040
-6.340E-06,0.040
-6.330E-06,0.080
-6.320E-06,0.040
-6.310E-06,0.020
-6.300E-06,0.040
-6.290E-06,0.040
-6.280E-06,0.040
-6.270E-06,0.060
-6.260E-06,0.060
-6.250E-06,0.080
-6.240E-06,0.040
-6.230E-06,0.040
-6.220E-06,0.020
-6.210E-06,0.040
-6.200E-06,0.040
-6.190E-06,0.060
-6.180E-06,0.000
-6.170E-06,0.060
-6.160E-06,0.060
-6.150E-06,0.040
-6.140E-06,0.020
-6.130E-06,0.060
-6.120E-06,0.040
-6.110E-06,0.040
-6.100E-06,0.060
-6.090E-06,0.040
-6.080E-06,0.040
-6.070E-06,0.060
-6.060E-06,0.040
-6.050E-06,0.020
-6.040E-06,0.040
-6.030E-06,0.060
-6.020E-06,0.080
-6.010E-06,0.060
-6.000E-06,0.020
-5.990E-06,0.040
-5.980E-06,0.020
-5.970E-06,0.040
-5.960E-06,0.020
-5.950E-06,0.060
-5.940E-06,0.020
-5.930E-06,0.060
-5.920E-06,0.040
-5.910E-06,0.000
-5.900E-06,0.020
-5.890E-06,0.040
-5.880E-06,0.040
-5.870E-06,0.040
-5.860E-06,0.020
-5.850E-06,0.080
-5.840E-06,0.060
-5.830E-06,0.060
-5.820E-06,0.060
-5.810E-06,0.020
-5.800E-06,0.040
-5.790E-06,0.020
-5.780E-06,0.060
-5.770E-06,0.040
-5.760E-06,0.060
-5.750E-06,0.060
-5.740E-06,0.020
-5.730E-06,0.020
-5.720E-06,0.040
-5.710E-06,0.060
-5.700E-06,0.080
-5.690E-06,0.080
-5.680E-06,0.020
-5.670E-06,0.040
-5.660E-06,0.040
-5.650E-06,0.060
-5.640E-06,0.040
-5.630E-06,0.020
-5.620E-06,0.000
-5.610E-06,0.040
-5.600E-06,0.040
-5.590E-06,0.060
-5.580E-06,0.000
-5.570E-06,0.060
-5.560E-06,0.000
-5.550E-06,0.020
-5.540E-06,0.040
-5.530E-06,0.020
-5.520E-06,0.040
-5.510E-06,0.040
-5.500E-06,0.060
-5.490E-06,0.060
-5.480E-06,0.020
-5.470E-06,0.060
-5.460E-06,0.080
-5.450E-06,0.060
-5.440E-06,0.020
-5.430E-06,0.040
-5.420E-06,0.040
-5.410E-06,0.060
-5.400E-06,0.040
-5.390E-06,0.060
-5.380E-06,0.020
-5.370E-06,0.060
-5.360E-06,0.060
-5.350E-06,0.040
-5.340E-06,0.020
-5.330E-06,0.060
-5.320E-06,0.020
-5.310E-06,0.060
-5.300E-06,0.040
-5.290E-06,0.040
-5.280E-06,0.040
-5.270E-06,0.060
-5.260E-06,0.040
-5.250E-06,0.080
-5.240E-06,0.040
-5.230E-06,0.080
-5.220E-06,0.040
-5.210E-06,0.080
-5.200E-06,0.040
-5.190E-06,0.020
-5.180E-06,0.040
-5.170E-06,0.060
-5.160E-06,0.060
-5.150E-06,0.020
-5.140E-06,0.040
-5.130E-06,0.080
-5.120E-06,0.000
-5.110E-06,0.020
-5.100E-06,0.040
-5.090E-06,0.040
-5.080E-06,0.020
-5.070E-06,0.040
-5.060E-06,0.040
-5.050E-06,0.080
-5.040E-06,0.060
-5.030E-06,0.020
-5.020E-06,0.020
-5.010E-06,0.080
-5.000E-06,0.040
-4.990E-06,0.060
-4.980E-06,0.040
-4.970E-06,0.020
-4.960E-06,0.060
-4.950E-06,0.080
-4.940E-06,0.060
-4.930E-06,0.020
-4.920E-06,0.040
-4.910E-06,0.060
-4.900E-06,0.080
-4.890E-06,0.020
-4.880E-06,0.020
-4.870E-06,0.040
-4.860E-06,0.060
-4.850E-06,0.060
-4.840E-06,0.060
-4.830E-06,0.080
-4.820E-06,0.040
-4.810E-06,0.040
-4.800E-06,0.020
-4.790E-06,0.040
-4.780E-06,0.040
-4.770E-06,0.040
-4.760E-06,0.040
-4.750E-06,0.040
-4.740E-06,0.040
-4.730E-06,0.040
-4.720E-06,0.040
-4.710E-06,0.060
-4.700E-06,0.080
-4.690E-06,0.040
-4.680E-06,0.040
-4.670E-06,0.020
-4.660E-06,0.060
-4.650E-06,0.020
-4.640E-06,0.040
-4.630E-06,0.020
-4.620E-06,0.020
-4.610E-06,0.040
-4.600E-06,0.040
-4.590E-06,0.060
-4.580E-06,0.060
-4.570E-06,0.060
-4.560E-06,0.060
-4.550E-06,0.040
-4.540E-06,0.040
-4.530E-06,0.060
-4.520E-06,0.020
-4.510E-06,0.060
-4.500E-06,0.040
-4.490E-06,0.040
-4.480E-06,0.060
-4.470E-06,0.060
-4.460E-06,0.040
-4.450E-06,0.020
-4.440E-06,0.040
-4.430E-06,0.040
-4.420E-06,0.080
-4.410E-06,0.020
-4.400E-06,0.040
-4.390E-06,0.060
-4.380E-06,0.040
-4.370E-06,0.020
-4.360E-06,0.040
-4.350E-06,0.060
-4.340E-06,0.020
-4.330E-06,0.040
-4.320E-06,0.020
-4.310E-06,0.060
-4.300E-06,0.040
-4.290E-06,0.080
-4.280E-06,0.040
-4.270E-06,0.000
-4.260E-06,0.060
-4.250E-06,0.060
-4.240E-06,0.040
-4.230E-06,0.060
-4.220E-06,0.040
-4.210E-06,0.060
-4.200E-06,0.060
-4.190E-06,0.060
-4.180E-06,0.040
-4.170E-06,0.080
-4.160E-06,0.040
-4.150E-06,0.040
-4.140E-06,0.060
-4.130E-06,0.060
-4.120E-06,0.060
-4.110E-06,0.060
-4.100E-06,0.020
-4.090E-06,0.060
-4.080E-06,0.060
-4.070E-06,0.020
-4.060E-06,0.060
-4.050E-06,0.040
-4.040E-06,0.040
-4.030E-06,0.040
-4.020E-06,0.080
-4.010E-06,0.040
-4.000E-06,0.040
-3.990E-06,0.060
-3.980E-06,0.040
-3.970E-06,0.020
-3.960E-06,0.020
-3.950E-06,0.040
-3.940E-06,0.040
-3.930E-06,0.040
-3.920E-06,0.040
-3.910E-06,0.080
-3.900E-06,0.040
-3.890E-06,0.020
-3.880E-06,0.040
-3.870E-06,0.040
-3.860E-06,0.020
-3.850E-06,0.020
-3.840E-06,0.020
-3.830E-06,0.040
-3.820E-06,0.040
-3.810E-06,0.040
-3.800E-06,0.040
-3.790E-06,0.040
-3.780E-06,0.040
-3.770E-06,0.080
-3.760E-06,0.040
-3.750E-06,0.060
-3.740E-06,0.040
-3.730E-06,0.080
-3.720E-06,0.060
-3.710E-06,0.080
-3.700E-06,0.080
-3.690E-06,0.040
-3.680E-06,0.080
-3.670E-06,0.020
-3.660E-06,0.040
-3.650E-06,0.040
-3.640E-06,0.000
-3.630E-06,0.040
-3.620E-06,0.080
-3.610E-06,0.000
-3.600E-06,0.040
-3.590E-06,0.060
-3.580E-06,0.020
-3.570E-06,0.040
-3.560E-06,0.040
-3.550E-06,0.060
-3.540E-06,0.040
-3.530E-06,0.060
-3.520E-06,0.040
-3.510E-06,0.040
-3.500E-06,0.020
-3.490E-06,0.040
-3.480E-06,0.020
-3.470E-06,0.060
-3.460E-06,0.020
-3.450E-06,0.060
-3.440E-06,0.040
-3.430E-06,0.040
-3.420E-06,0.020
-3.410E-06,0.020
-3.400E-06,0.020
-3.390E-06,0.000
-3.380E-06,0.040
-3.370E-06,0.080
-3.360E-06,0.020
-3.350E-06,0.020
-3.340E-06,0.040
-3.330E-06,0.080
-3.320E-06,0.040
-3.310E-06,0.020
-3.300E-06,0.040
-3.290E-06,0.020
-3.280E-06,0.040
-3.270E-06,0.040
-3.260E-06,0.060
-3.250E-06,0.060
-3.240E-06,0.060
-3.230E-06,0.060
-3.220E-06,0.040
-3.210E-06,0.040
-3.200E-06,0.040
-3.190E-06,0.020
-3.180E-06,0.040
-3.170E-06,0.040
-3.160E-06,0.060
-3.150E-06,0.040
-3.140E-06,0.060
-3.130E-06,0.060
-3.120E-06,0.040
-3.110E-06,0.060
-3.100E-06,0.000
-3.090E-06,0.040
-3.080E-06,0.060
-3.070E-06,0.060
-3.060E-06,0.040
-3.050E-06,0.020
-3.040E-06,0.040
-3.030E-06,0.060
-3.020E-06,0.020
-3.010E-06,0.040
-3.000E-06,0.040
-2.990E-06,0.060
-2.980E-06,0.040
-2.970E-06,0.040
-2.960E-06,0.040
-2.950E-06,0.060
-2.940E-06,0.060
-2.930E-06,0.040
-2.920E-06,0.040
-2.910E-06,0.060
-2.900E-06,0.020
-2.890E-06,0.060
-2.880E-06,0.040
-2.870E-06,0.040
-2.860E-06,0.060
-2.850E-06,0.040
-2.840E-06,0.000
-2.830E-06,0.040
-2.820E-06,0.000
-2.810E-06,0.060
-2.800E-06,0.040
-2.790E-06,0.060
-2.780E-06,0.040
-2.770E-06,0.060
-2.760E-06,0.060
-2.750E-06,0.020
-2.740E-06,0.040
-2.730E-06,0.040
-2.720E-06,0.060
-2.710E-06,0.040
-2.700E-06,0.040
-2.690E-06,0.080
-2.680E-06,0.040
-2.670E-06,0.040
-2.660E-06,0.060
-2.650E-06,0.080
-2.640E-06,0.020
-2.630E-06,0.040
-2.620E-06,0.060
-2.610E-06,0.060
-2.600E-06,0.060
-2.590E-06,0.060
-2.580E-06,0.020
-2.570E-06,0.040
-2.560E-06,0.060
-2.550E-06,0.060
-2.540E-06,0.060
-2.530E-06,0.080
-2.520E-06,0.020
-2.510E-06,0.040
-2.500E-06,0.020
-2.490E-06,0.000
-2.480E-06,-0.260
-2.470E-06,-0.920
-2.460E-06,-1.960
-2.450E-06,-2.920
-2.440E-06,-3.340
-2.430E-06,-2.640
-2.420E-06,-2.780
-2.410E-06,-1.740
-2.400E-06,0.220
-2.390E-06,1.300
-2.380E-06,2.080
-2.370E-06,2.080
-2.360E-06,2.100
-2.350E-06,2.080
-2.340E-06,2.080
-2.330E-06,2.080
-2.320E-06,2.060
-2.310E-06,1.700
-2.300E-06,0.820
-2.290E-06,0.020
-2.280E-06,-0.520
-2.270E-06,-0.800
-2.260E-06,-0.600
-2.250E-06,-0.480
-2.240E-06,-0.380
-2.230E-06,-0.220
-2.220E-06,-0.340
-2.210E-06,-0.620
-2.200E-06,-1.000
-2.190E-06,-1.460
-2.180E-06,-1.860
-2.170E-06,-2.100
-2.160E-06,-2.120
-2.150E-06,-1.960
-2.140E-06,-1.680
-2.130E-06,-1.100
-2.120E-06,-0.500
-2.110E-06,0.180
-2.100E-06,0.800
-2.090E-06,1.360
-2.080E-06,1.620
-2.070E-06,1.760
-2.060E-06,1.700
-2.050E-06,1.400
-2.040E-06,1.000
-2.030E-06,0.480
-2.020E-06,0.020
-2.010E-06,-0.440
-2.000E-06,-0.700
-1.990E-06,-0.980
-1.980E-06,-1.060
-1.970E-06,-1.040
-1.960E-06,-0.960
-1.950E-06,-0.820
-1.940E-06,-0.720
-1.930E-06,-0.500
-1.920E-06,-0.320
-1.910E-06,-0.140
-1.900E-06,0.120
-1.890E-06,0.300
-1.880E-06,0.520
-1.870E-06,0.660
-1.860E-06,0.760
-1.850E-06,0.780
-1.840E-06,0.940
-1.830E-06,0.680
-1.820E-06,0.720
-1.810E-06,0.520
-1.800E-06,0.780
-1.790E-06,0.160
-1.780E-06,0.380
-1.770E-06,0.000
-1.760E-06,-0.140
-1.750E-06,-0.260
-1.740E-06,-0.460
-1.730E-06,-0.520
-1.720E-06,-0.580
-1.710E-06,-0.680
-1.700E-06,-0.700
-1.690E-06,-0.800
-1.680E-06,-0.740
-1.670E-06,-0.600
-1.660E-06,-0.540
-1.650E-06,-0.260
-1.640E-06,-0.080
-1.630E-06,0.200
-1.620E-06,0.480
-1.610E-06,0.640
-1.600E-06,0.840
-1.590E-06,0.920
-1.580E-06,0.900
-1.570E-06,0.840
-1.560E-06,0.620
-1.550E-06,0.420
-1.540E-06,0.220
-1.530E-06,-0.080
-1.520E-06,-0.300
-1.510E-06,-0.500
-1.500E-06,-0.580
-1.490E-06,-0.680
-1.480E-06,-0.660
-1.470E-06,-0.680
-1.460E-06,-0.520
-1.450E-06,-0.400
-1.440E-06,-0.460
-1.430E-06,-0.240
-1.420E-06,-0.220
-1.410E-06,-0.200
-1.400E-06,-0.080
-1.390E-06,-0.120
-1.380E-06,-0.120
-1.370E-06,-0.160
-1.360E-06,-0.160
-1.350E-06,-0.160
-1.340E-06,-0.200
-1.330E-06,-0.180
-1.320E-06,-0.160
-1.310E-06,-0.180
-1.300E-06,-0.240
-1.290E-06,-0.300
-1.280E-06,-0.400
-1.270E-06,-0.480
-1.260E-06,-0.660
-1.250E-06,-0.580
-1.240E-06,-0.900
-1.230E-06,-0.860
-1.220E-06,-0.900
-1.210E-06,-0.680
-1.200E-06,-1.180
-1.190E-06,-0.880
-1.180E-06,-1.040
-1.170E-06,-1.180
-1.160E-06,-1.080
-1.150E-06,-1.340
-1.140E-06,-1.300
-1.130E-06,-1.360
-1.120E-06,-1.480
-1.110E-06,-1.620
-1.100E-06,-1.540
-1.090E-06,-1.460
-1.080E-06,-1.660
-1.070E-06,-1.620
-1.060E-06,-1.800
-1.050E-06,-1.880
-1.040E-06,-2.000
-1.030E-06,-1.800
-1.020E-06,-2.260
-1.010E-06,-2.060
-1.000E-06,-2.280
-9.900E-07,-1.860
-9.800E-07,-2.500
-9.700E-07,-2.180
-9.600E-07,-2.600
-9.500E-07,-2.580
-9.400E-07,-2.840
-9.300E-07,-2.940
-9.200E-07,-2.620
-9.100E-07,-2.960
-9.000E-07,-2.700
-8.900E-07,-2.820
-8.800E-07,-3.100
-8.700E-07,-2.980
-8.600E-07,-3.120
-8.500E-07,-3.120
-8.400E-07,-3.120
-8.300E-07,-3.160
-8.200E-07,-3.140
-8.100E-07,-3.140
-8.000E-07,-2.760
-7.900E-07,-3.040
-7.800E-07,-2.920
-7.700E-07,-2.940
-7.600E-07,-2.960
-7.500E-07,-2.900
-7.400E-07,-2.840
-7.300E-07,-2.820
-7.200E-07,-2.880
-7.100E-07,-2.840
-7.000E-07,-2.880
-6.900E-07,-2.860
-6.800E-07,-3.000
-6.700E-07,-2.980
-6.600E-07,-3.180
-6.500E-07,-3.320
-6.400E-07,-3.100
-6.300E-07,-3.240
-6.200E-07,-2.780
-6.100E-07,-2.980
-6.000E-07,-2.800
-5.900E-07,-2.740
-5.800E-07,-2.340
-5.700E-07,-1.960
-5.600E-07,-2.180
-5.500E-07,-2.300
-5.400E-07,-2.620
-5.300E-07,-3.020
-5.200E-07,-3.260
-5.100E-07,-3.340
-5.000E-07,-3.320
-4.900E-07,-3.320
-4.800E-07,-3.340
-4.700E-07,-3.340
-4.600E-07,-3.340
-4.500E-07,-3.140
-4.400E-07,-2.880
-4.300E-07,-2.620
-4.200E-07,-2.380
-4.100E-07,-2.200
-4.000E-07,-2.020
-3.900E-07,-1.860
-3.800E-07,-1.700
-3.700E-07,-1.520
-3.600E-07,-1.380
-3.500E-07,-1.200
-3.400E-07,-0.980
-3.300E-07,-0.800
-3.200E-07,-0.620
-3.100E-07,-0.440
-3.000E-07,-0.320
-2.900E-07,-0.240
-2.800E-07,-0.220
-2.700E-07,-0.260
-2.600E-07,-0.340
-2.500E-07,-0.520
-2.400E-07,-0.760
-2.300E-07,-1.120
-2.200E-07,-1.520
-2.100E-07,-1.940
-2.000E-07,-2.260
-1.900E-07,-2.460
-1.800E-07,-2.520
-1.700E-07,-2.540
-1.600E-07,-2.640
-1.500E-07,-2.820
-1.400E-07,-3.180
-1.300E-07,-3.340
-1.200E-07,-3.340
-1.100E-07,-3.340
-1.000E-07,-3.360
-9.000E-08,-3.360
-8.000E-08,-3.360
-7.000E-08,-3.360
-6.000E-08,-3.360
-5.000E-08,-3.360
-4.000E-08,-3.360
-3.000E-08,-3.360
-2.000E-08,-3.340
-1.000E-08,-3.340
0.000E+00,-3.340
1.000E-08,-3.340
2.000E-08,-3.320
3.000E-08,-3.340
4.000E-08,-3.340
5.000E-08,-3.340
6.000E-08,-3.320
7.000E-08,-3.320
8.000E-08,-3.320
9.000E-08,-3.340
1.000E-07,-3.340
1.100E-07,-3.340
1.200E-07,-3.320
1.300E-07,-3.320
1.400E-07,-3.340
1.500E-07,-3.340
1.600E-07,-3.220
1.700E-07,-2.800
1.800E-07,-2.440
1.900E-07,-2.160
2.000E-07,-1.880
2.100E-07,-1.620
2.200E-07,-1.380
2.300E-07,-1.160
2.400E-07,-0.920
2.500E-07,-0.680
2.600E-07,-0.420
2.700E-07,-0.120
2.800E-07,0.260
2.900E-07,0.640
3.000E-07,1.020
3.100E-07,1.360
3.200E-07,1.640
3.300E-07,1.800
3.400E-07,1.860
3.500E-07,1.900
3.600E-07,1.920
3.700E-07,1.920
3.800E-07,1.860
3.900E-07,1.780
4.000E-07,1.720
4.100E-07,1.500
4.200E-07,1.380
4.300E-07,1.160
4.400E-07,1.000
4.500E-07,0.800
4.600E-07,0.620
4.700E-07,0.420
4.800E-07,0.280
4.900E-07,0.160
5.000E-07,0.000
5.100E-07,-0.080
5.200E-07,-0.180
5.300E-07,-0.240
5.400E-07,-0.340
5.500E-07,-0.460
5.600E-07,-0.520
5.700E-07,-0.580
5.800E-07,-0.600
5.900E-07,-0.600
6.000E-07,-0.500
6.100E-07,-0.480
6.200E-07,-0.400
6.300E-07,-0.300
6.400E-07,-0.160
6.500E-07,-0.080
6.600E-07,-0.040
6.700E-07,-0.020
6.800E-07,0.080
6.900E-07,0.140
7.000E-07,0.200
7.100E-07,0.260
7.200E-07,0.320
7.300E-07,0.400
7.400E-07,0.460
7.500E-07,0.520
7.600E-07,0.660
7.700E-07,0.660
7.800E-07,0.740
7.900E-07,0.780
8.000E-07,0.760
8.100E-07,0.680
8.200E-07,0.600
8.300E-07,0.500
8.400E-07,0.380
8.500E-07,0.260
8.600E-07,0.160
8.700E-07,0.080
8.800E-07,0.000
8.900E-07,-0.020
9.000E-07,-0.040
9.100E-07,-0.060
9.200E-07,-0.060
9.300E-07,0.020
9.400E-07,0.060
9.500E-07,0.120
9.600E-07,0.160
9.700E-07,0.140
9.800E-07,0.220
9.900E-07,0.080
1.000E-06,0.060
1.010E-06,0.260
1.020E-06,-0.060
1.030E-06,0.140
1.040E-06,-0.080
1.050E-06,0.060
1.060E-06,-0.020
1.070E-06,-0.020
1.080E-06,0.100
1.090E-06,0.120
1.100E-06,0.220
1.110E-06,0.300
1.120E-06,0.360
1.130E-06,0.420
1.140E-06,0.500
1.150E-06,0.500
1.160E-06,0.520
1.170E-06,0.520
1.180E-06,0.520
1.190E-06,0.500
1.200E-06,0.520
1.210E-06,0.480
1.220E-06,0.520
1.230E-06,0.500
1.240E-06,0.500
1.250E-06,0.540
1.260E-06,0.500
1.270E-06,0.500
1.280E-06,0.500
1.290E-06,0.500
1.300E-06,0.500
1.310E-06,0.480
1.320E-06,0.480
1.330E-06,0.440
1.340E-06,0.380
1.350E-06,0.320
1.360E-06,0.220
1.370E-06,0.160
1.380E-06,0.080
1.390E-06,0.060
1.400E-06,0.100
1.410E-06,0.140
1.420E-06,0.200
1.430E-06,0.220
1.440E-06,0.260
1.450E-06,0.280
1.460E-06,0.380
1.470E-06,0.400
1.480E-06,0.460
1.490E-06,0.500
1.500E-06,0.500
1.510E-06,0.540
1.520E-06,0.520
1.530E-06,0.520
1.540E-06,0.500
1.550E-06,0.520
1.560E-06,0.540
1.570E-06,0.520
1.580E-06,0.560
1.590E-06,0.560
1.600E-06,0.600
1.610E-06,0.640
1.620E-06,0.660
1.630E-06,0.660
1.640E-06,0.700
1.650E-06,0.680
1.660E-06,0.720
1.670E-06,0.680
1.680E-06,0.700
1.690E-06,0.720
1.700E-06,0.900
1.710E-06,0.740
1.720E-06,0.800
1.730E-06,0.740
1.740E-06,1.080
1.750E-06,0.600
1.760E-06,0.780
1.770E-06,0.160
1.780E-06,0.500
1.790E-06,0.180
1.800E-06,0.100
1.810E-06,0.080
1.820E-06,0.000
1.830E-06,-0.020
1.840E-06,-0.160
1.850E-06,-0.180
1.860E-06,-0.160
1.870E-06,-0.200
1.880E-06,-0.200
1.890E-06,-0.160
1.900E-06,-0.120
1.910E-06,-0.060
1.920E-06,0.040
1.930E-06,0.040
1.940E-06,0.100
1.950E-06,0.120
1.960E-06,0.160
1.970E-06,0.200
1.980E-06,0.180
1.990E-06,0.220
2.000E-06,0.240
2.010E-06,0.260
2.020E-06,0.340
2.030E-06,0.320
2.040E-06,0.380
2.050E-06,0.420
2.060E-06,0.480
2.070E-06,0.520
2.080E-06,0.540
2.090E-06,0.520
2.100E-06,0.500
2.110E-06,0.420
2.120E-06,0.320
2.130E-06,0.280
2.140E-06,0.220
2.150E-06,0.140
2.160E-06,0.040
2.170E-06,-0.040
2.180E-06,-0.060
2.190E-06,-0.080
2.200E-06,-0.060
2.210E-06,0.060
2.220E-06,0.120
2.230E-06,0.180
2.240E-06,0.220
2.250E-06,0.240
2.260E-06,0.160
2.270E-06,0.120
2.280E-06,0.020
2.290E-06,-0.040
2.300E-06,-0.160
2.310E-06,-0.220
2.320E-06,-0.280
2.330E-06,-0.300
2.340E-06,-0.280
2.350E-06,-0.320
2.360E-06,-0.280
2.370E-06,-0.340
2.380E-06,-0.140
2.390E-06,-0.440
2.400E-06,-0.600
2.410E-06,-0.800
2.420E-06,-0.500
2.430E-06,-0.440
2.440E-06,-0.320
2.450E-06,-0.380
2.460E-06,-0.120
2.470E-06,-0.140
2.480E-06,0.000
2.490E-06,0.080
2.500E-06,0.080
2.510E-06,0.180
2.520E-06,0.180
2.530E-06,0.180
2.540E-06,0.160
2.550E-06,0.160
2.560E-06,0.120
2.570E-06,0.140
2.580E-06,0.140
2.590E-06,0.160
2.600E-06,0.180
2.610E-06,0.160
2.620E-06,0.160
2.630E-06,0.120
2.640E-06,0.100
2.650E-06,0.040
2.660E-06,-0.040
2.670E-06,-0.080
2.680E-06,-0.140
2.690E-06,-0.100
2.700E-06,0.000
2.710E-06,0.080
2.720E-06,0.200
2.730E-06,0.400
2.740E-06,0.540
2.750E-06,0.740
2.760E-06,0.960
2.770E-06,1.160
2.780E-06,1.400
2.790E-06,1.580
2.800E-06,1.800
2.810E-06,2.040
2.820E-06,2.080
2.830E-06,2.100
2.840E-06,2.100
2.850E-06,2.080
2.860E-06,2.100
2.870E-06,2.080
2.880E-06,2.080
2.890E-06,2.100
2.900E-06,2.100
2.910E-06,2.080
2.920E-06,2.080
2.930E-06,2.080
2.940E-06,2.080
2.950E-06,0.800
2.960E-06,-1.100
2.970E-06,-1.780
2.980E-06,-2.260
2.990E-06,-2.540
3.000E-06,-2.640
3.010E-06,-2.780
3.020E-06,-2.960
3.030E-06,-3.100
3.040E-06,-3.320
3.050E-06,-3.320
3.060E-06,-3.320
3.070E-06,-3.320
3.080E-06,-3.340
3.090E-06,-3.320
3.100E-06,-2.900
3.110E-06,-2.440
3.120E-06,-2.780
3.130E-06,-1.680
3.140E-06,-2.860
3.150E-06,-2.120
3.160E-06,-2.280
3.170E-06,-2.440
3.180E-06,-1.960
3.190E-06,-1.920
3.200E-06,-1.720
3.210E-06,-1.480
3.220E-06,-1.460
3.230E-06,-1.540
3.240E-06,-1.560
3.250E-06,-1.600
3.260E-06,-1.680
3.270E-06,-1.620
3.280E-06,-1.600
3.290E-06,-1.480
3.300E-06,-1.380
3.310E-06,-1.240
3.320E-06,-1.060
3.330E-06,-0.940
3.340E-06,-0.800
3.350E-06,-0.740
3.360E-06,-0.680
3.370E-06,-0.640
