mediciones/8-28/-22/WaveData65759.csv

#timebase=2000000(ps)
,#voltbase=500000(mv/100)
#size=4000
-8.350E-06,0.060
-8.340E-06,0.060
-8.330E-06,0.060
-8.320E-06,0.060
-8.310E-06,0.040
-8.300E-06,0.020
-8.290E-06,0.040
-8.280E-06,0.060
-8.270E-06,0.060
-8.260E-06,0.020
-8.250E-06,0.040
-8.240E-06,0.060
-8.230E-06,0.020
-8.220E-06,0.000
-8.210E-06,0.040
-8.200E-06,0.060
-8.190E-06,0.060
-8.180E-06,0.040
-8.170E-06,0.060
-8.160E-06,0.060
-8.150E-06,0.040
-8.140E-06,0.020
-8.130E-06,0.040
-8.120E-06,0.060
-8.110E-06,0.040
-8.100E-06,0.060
-8.090E-06,0.060
-8.080E-06,0.020
-8.070E-06,0.020
-8.060E-06,0.060
-8.050E-06,0.060
-8.040E-06,0.060
-8.030E-06,0.080
-8.020E-06,0.040
-8.010E-06,0.060
-8.000E-06,0.020
-7.990E-06,0.040
-7.980E-06,0.020
-7.970E-06,0.040
-7.960E-06,0.060
-7.950E-06,0.040
-7.940E-06,0.060
-7.930E-06,0.040
-7.920E-06,0.060
-7.910E-06,0.060
-7.900E-06,0.040
-7.890E-06,0.040
-7.880E-06,0.020
-7.870E-06,0.040
-7.860E-06,0.020
-7.850E-06,0.000
-7.840E-06,0.040
-7.830E-06,0.060
-7.820E-06,0.060
-7.810E-06,0.080
-7.800E-06,0.020
-7.790E-06,0.020
-7.780E-06,0.040
-7.770E-06,0.060
-7.760E-06,0.040
-7.750E-06,0.020
-7.740E-06,0.060
-7.730E-06,0.020
-7.720E-06,0.000
-7.710E-06,0.040
-7.700E-06,0.020
-7.690E-06,0.020
-7.680E-06,0.040
-7.670E-06,0.040
-7.660E-06,0.040
-7.650E-06,0.060
-7.640E-06,0.060
-7.630E-06,0.060
-7.620E-06,0.020
-7.610E-06,0.040
-7.600E-06,0.060
-7.590E-06,0.040
-7.580E-06,0.060
-7.570E-06,0.060
-7.560E-06,-0.020
-7.550E-06,0.060
-7.540E-06,0.020
-7.530E-06,0.060
-7.520E-06,0.020
-7.510E-06,0.040
-7.500E-06,0.060
-7.490E-06,0.020
-7.480E-06,0.020
-7.470E-06,0.020
-7.460E-06,0.040
-7.450E-06,0.020
-7.440E-06,0.000
-7.430E-06,0.000
-7.420E-06,0.060
-7.410E-06,0.060
-7.400E-06,0.020
-7.390E-06,0.020
-7.380E-06,0.040
-7.370E-06,0.060
-7.360E-06,0.040
-7.350E-06,0.060
-7.340E-06,0.040
-7.330E-06,0.020
-7.320E-06,0.060
-7.310E-06,0.060
-7.300E-06,0.040
-7.290E-06,0.040
-7.280E-06,0.060
-7.270E-06,0.040
-7.260E-06,0.020
-7.250E-06,0.040
-7.240E-06,0.040
-7.230E-06,0.020
-7.220E-06,0.000
-7.210E-06,0.060
-7.200E-06,0.060
-7.190E-06,0.080
-7.180E-06,0.060
-7.170E-06,0.020
-7.160E-06,0.040
-7.150E-06,0.080
-7.140E-06,0.040
-7.130E-06,0.020
-7.120E-06,0.080
-7.110E-06,0.020
-7.100E-06,0.040
-7.090E-06,0.060
-7.080E-06,0.040
-7.070E-06,0.000
-7.060E-06,0.040
-7.050E-06,0.060
-7.040E-06,0.060
-7.030E-06,0.060
-7.020E-06,0.040
-7.010E-06,0.040
-7.000E-06,0.080
-6.990E-06,0.060
-6.980E-06,0.040
-6.970E-06,0.020
-6.960E-06,0.060
-6.950E-06,0.080
-6.940E-06,0.040
-6.930E-06,0.040
-6.920E-06,0.040
-6.910E-06,0.040
-6.900E-06,0.060
-6.890E-06,0.040
-6.880E-06,0.020
-6.870E-06,0.040
-6.860E-06,0.060
-6.850E-06,0.040
-6.840E-06,0.020
-6.830E-06,0.040
-6.820E-06,0.020
-6.810E-06,0.080
-6.800E-06,0.040
-6.790E-06,0.020
-6.780E-06,0.020
-6.770E-06,0.020
-6.760E-06,0.040
-6.750E-06,0.040
-6.740E-06,0.040
-6.730E-06,0.060
-6.720E-06,0.020
-6.710E-06,0.040
-6.700E-06,0.040
-6.690E-06,0.020
-6.680E-06,0.080
-6.670E-06,0.040
-6.660E-06,0.060
-6.650E-06,0.040
-6.640E-06,0.020
-6.630E-06,0.060
-6.620E-06,0.020
-6.610E-06,0.000
-6.600E-06,0.000
-6.590E-06,0.040
-6.580E-06,0.040
-6.570E-06,0.040
-6.560E-06,0.020
-6.550E-06,0.020
-6.540E-06,0.060
-6.530E-06,0.040
-6.520E-06,0.080
-6.510E-06,0.040
-6.500E-06,0.020
-6.490E-06,0.060
-6.480E-06,0.020
-6.470E-06,0.040
-6.460E-06,0.060
-6.450E-06,0.040
-6.440E-06,0.020
-6.430E-06,0.040
-6.420E-06,0.020
-6.410E-06,0.020
-6.400E-06,0.040
-6.390E-06,0.060
-6.380E-06,0.040
-6.370E-06,0.040
-6.360E-06,0.060
-6.350E-06,0.040
-6.340E-06,0.040
-6.330E-06,0.080
-6.320E-06,0.020
-6.310E-06,0.040
-6.300E-06,0.020
-6.290E-06,0.020
-6.280E-06,0.040
-6.270E-06,0.060
-6.260E-06,0.060
-6.250E-06,0.040
-6.240E-06,0.040
-6.230E-06,0.040
-6.220E-06,0.080
-6.210E-06,0.040
-6.200E-06,0.080
-6.190E-06,0.040
-6.180E-06,0.080
-6.170E-06,0.020
-6.160E-06,0.040
-6.150E-06,0.000
-6.140E-06,0.020
-6.130E-06,0.020
-6.120E-06,0.040
-6.110E-06,0.040
-6.100E-06,0.020
-6.090E-06,0.080
-6.080E-06,0.000
-6.070E-06,0.040
-6.060E-06,0.060
-6.050E-06,0.020
-6.040E-06,0.080
-6.030E-06,0.020
-6.020E-06,0.060
-6.010E-06,0.020
-6.000E-06,0.060
-5.990E-06,0.040
-5.980E-06,0.020
-5.970E-06,0.040
-5.960E-06,0.060
-5.950E-06,0.040
-5.940E-06,0.020
-5.930E-06,0.020
-5.920E-06,0.040
-5.910E-06,0.040
-5.900E-06,0.040
-5.890E-06,0.040
-5.880E-06,0.060
-5.870E-06,0.060
-5.860E-06,0.040
-5.850E-06,0.020
-5.840E-06,0.060
-5.830E-06,0.040
-5.820E-06,0.020
-5.810E-06,0.020
-5.800E-06,0.040
-5.790E-06,0.060
-5.780E-06,0.040
-5.770E-06,0.060
-5.760E-06,0.060
-5.750E-06,0.000
-5.740E-06,0.020
-5.730E-06,0.060
-5.720E-06,0.020
-5.710E-06,0.040
-5.700E-06,0.040
-5.690E-06,0.000
-5.680E-06,0.020
-5.670E-06,0.060
-5.660E-06,0.040
-5.650E-06,0.040
-5.640E-06,0.020
-5.630E-06,0.040
-5.620E-06,0.040
-5.610E-06,0.020
-5.600E-06,0.040
-5.590E-06,0.040
-5.580E-06,0.040
-5.570E-06,0.020
-5.560E-06,0.020
-5.550E-06,0.020
-5.540E-06,-0.060
-5.530E-06,-0.460
-5.520E-06,-1.240
-5.510E-06,-2.360
-5.500E-06,-3.300
-5.490E-06,-3.340
-5.480E-06,-3.320
-5.470E-06,-2.900
-5.460E-06,-1.820
-5.450E-06,0.640
-5.440E-06,1.740
-5.430E-06,2.080
-5.420E-06,2.080
-5.410E-06,2.080
-5.400E-06,2.100
-5.390E-06,2.080
-5.380E-06,2.080
-5.370E-06,2.060
-5.360E-06,1.700
-5.350E-06,0.880
-5.340E-06,-0.060
-5.330E-06,-0.620
-5.320E-06,-0.920
-5.310E-06,-0.720
-5.300E-06,-0.640
-5.290E-06,-0.500
-5.280E-06,-0.340
-5.270E-06,-0.340
-5.260E-06,-0.760
-5.250E-06,-1.240
-5.240E-06,-1.620
-5.230E-06,-2.040
-5.220E-06,-2.320
-5.210E-06,-2.300
-5.200E-06,-2.100
-5.190E-06,-1.720
-5.180E-06,-1.140
-5.170E-06,-0.360
-5.160E-06,0.340
-5.150E-06,1.060
-5.140E-06,1.680
-5.130E-06,2.000
-5.120E-06,2.080
-5.110E-06,1.940
-5.100E-06,1.620
-5.090E-06,1.140
-5.080E-06,0.580
-5.070E-06,0.020
-5.060E-06,-0.460
-5.050E-06,-0.840
-5.040E-06,-1.060
-5.030E-06,-1.180
-5.020E-06,-1.160
-5.010E-06,-1.060
-5.000E-06,-0.920
-4.990E-06,-0.760
-4.980E-06,-0.520
-4.970E-06,-0.280
-4.960E-06,-0.100
-4.950E-06,0.200
-4.940E-06,0.460
-4.930E-06,0.700
-4.920E-06,0.960
-4.910E-06,1.100
-4.900E-06,1.220
-4.890E-06,1.220
-4.880E-06,1.160
-4.870E-06,1.060
-4.860E-06,0.880
-4.850E-06,0.680
-4.840E-06,0.480
-4.830E-06,0.240
-4.820E-06,0.000
-4.810E-06,-0.180
-4.800E-06,-0.380
-4.790E-06,-0.500
-4.780E-06,-0.620
-4.770E-06,-0.680
-4.760E-06,-0.760
-4.750E-06,-0.800
-4.740E-06,-0.780
-4.730E-06,-0.740
-4.720E-06,-0.660
-4.710E-06,-0.420
-4.700E-06,-0.220
-4.690E-06,0.060
-4.680E-06,0.360
-4.670E-06,0.660
-4.660E-06,0.860
-4.650E-06,0.980
-4.640E-06,1.100
-4.630E-06,1.080
-4.620E-06,0.940
-4.610E-06,0.780
-4.600E-06,0.560
-4.590E-06,0.280
-4.580E-06,0.000
-4.570E-06,-0.220
-4.560E-06,-0.440
-4.550E-06,-0.560
-4.540E-06,-0.680
-4.530E-06,-0.660
-4.520E-06,-0.600
-4.510E-06,-0.560
-4.500E-06,-0.400
-4.490E-06,-0.300
-4.480E-06,-0.180
-4.470E-06,-0.080
-4.460E-06,0.000
-4.450E-06,0.060
-4.440E-06,0.060
-4.430E-06,0.120
-4.420E-06,0.160
-4.410E-06,0.160
-4.400E-06,0.160
-4.390E-06,0.220
-4.380E-06,0.240
-4.370E-06,0.260
-4.360E-06,0.260
-4.350E-06,0.260
-4.340E-06,0.240
-4.330E-06,0.220
-4.320E-06,0.160
-4.310E-06,0.080
-4.300E-06,0.060
-4.290E-06,-0.020
-4.280E-06,-0.080
-4.270E-06,-0.100
-4.260E-06,-0.080
-4.250E-06,-0.040
-4.240E-06,0.000
-4.230E-06,0.040
-4.220E-06,0.080
-4.210E-06,0.100
-4.200E-06,0.120
-4.190E-06,0.140
-4.180E-06,0.160
-4.170E-06,0.140
-4.160E-06,0.080
-4.150E-06,0.080
-4.140E-06,0.100
-4.130E-06,0.060
-4.120E-06,0.020
-4.110E-06,0.000
-4.100E-06,0.000
-4.090E-06,-0.020
-4.080E-06,0.040
-4.070E-06,-0.020
-4.060E-06,0.000
-4.050E-06,-0.020
-4.040E-06,-0.100
-4.030E-06,-0.060
-4.020E-06,-0.140
-4.010E-06,-0.120
-4.000E-06,-0.100
-3.990E-06,-0.100
-3.980E-06,-0.100
-3.970E-06,-0.040
-3.960E-06,-0.040
-3.950E-06,-0.020
-3.940E-06,-0.020
-3.930E-06,-0.020
-3.920E-06,0.000
-3.910E-06,0.000
-3.900E-06,-0.040
-3.890E-06,-0.040
-3.880E-06,-0.040
-3.870E-06,-0.040
-3.860E-06,-0.020
-3.850E-06,0.000
-3.840E-06,0.020
-3.830E-06,0.080
-3.820E-06,0.100
-3.810E-06,0.160
-3.800E-06,0.200
-3.790E-06,0.220
-3.780E-06,0.220
-3.770E-06,0.220
-3.760E-06,0.200
-3.750E-06,0.160
-3.740E-06,0.120
-3.730E-06,0.080
-3.720E-06,0.020
-3.710E-06,-0.040
-3.700E-06,-0.060
-3.690E-06,-0.080
-3.680E-06,-0.100
-3.670E-06,-0.020
-3.660E-06,0.280
-3.650E-06,0.760
-3.640E-06,1.340
-3.630E-06,1.720
-3.620E-06,1.860
-3.610E-06,1.660
-3.600E-06,1.140
-3.590E-06,0.520
-3.580E-06,-0.120
-3.570E-06,-0.680
-3.560E-06,-1.180
-3.550E-06,-1.580
-3.540E-06,-1.760
-3.530E-06,-1.800
-3.520E-06,-1.680
-3.510E-06,-1.380
-3.500E-06,-0.980
-3.490E-06,-0.660
-3.480E-06,-0.460
-3.470E-06,-0.360
-3.460E-06,-0.320
-3.450E-06,-0.240
-3.440E-06,-0.160
-3.430E-06,-0.080
-3.420E-06,-0.020
-3.410E-06,0.060
-3.400E-06,0.160
-3.390E-06,0.300
-3.380E-06,0.480
-3.370E-06,0.720
-3.360E-06,0.920
-3.350E-06,1.060
-3.340E-06,1.060
-3.330E-06,0.940
-3.320E-06,0.740
-3.310E-06,0.480
-3.300E-06,0.240
-3.290E-06,0.020
-3.280E-06,-0.280
-3.270E-06,-0.440
-3.260E-06,-0.600
-3.250E-06,-0.720
-3.240E-06,-0.760
-3.230E-06,-0.640
-3.220E-06,-0.460
-3.210E-06,-0.180
-3.200E-06,0.140
-3.190E-06,0.420
-3.180E-06,0.680
-3.170E-06,0.760
-3.160E-06,0.800
-3.150E-06,0.760
-3.140E-06,0.660
-3.130E-06,0.520
-3.120E-06,0.380
-3.110E-06,0.200
-3.100E-06,0.040
-3.090E-06,-0.160
-3.080E-06,-0.300
-3.070E-06,-0.420
-3.060E-06,-0.480
-3.050E-06,-0.500
-3.040E-06,-0.460
-3.030E-06,-0.420
-3.020E-06,-0.360
-3.010E-06,-0.340
-3.000E-06,-0.300
-2.990E-06,-0.320
-2.980E-06,-0.300
-2.970E-06,-0.280
-2.960E-06,-0.280
-2.950E-06,-0.240
-2.940E-06,-0.180
-2.930E-06,-0.140
-2.920E-06,-0.020
-2.910E-06,0.140
-2.900E-06,0.260
-2.890E-06,0.380
-2.880E-06,0.460
-2.870E-06,0.500
-2.860E-06,0.520
-2.850E-06,0.440
-2.840E-06,0.320
-2.830E-06,0.180
-2.820E-06,-0.020
-2.810E-06,-0.200
-2.800E-06,-0.340
-2.790E-06,-0.520
-2.780E-06,-0.560
-2.770E-06,-0.580
-2.760E-06,-0.520
-2.750E-06,-0.440
-2.740E-06,-0.340
-2.730E-06,-0.240
-2.720E-06,-0.120
-2.710E-06,-0.020
-2.700E-06,0.080
-2.690E-06,0.180
-2.680E-06,0.180
-2.670E-06,0.200
-2.660E-06,0.180
-2.650E-06,0.080
-2.640E-06,0.060
-2.630E-06,0.000
-2.620E-06,-0.020
-2.610E-06,-0.080
-2.600E-06,-0.100
-2.590E-06,-0.100
-2.580E-06,-0.100
-2.570E-06,-0.040
-2.560E-06,-0.040
-2.550E-06,0.000
-2.540E-06,-0.040
-2.530E-06,-0.060
-2.520E-06,-0.060
-2.510E-06,-0.060
-2.500E-06,-0.060
-2.490E-06,-0.080
-2.480E-06,-0.120
-2.470E-06,-0.100
-2.460E-06,-0.100
-2.450E-06,-0.080
-2.440E-06,-0.120
-2.430E-06,-0.100
-2.420E-06,-0.040
-2.410E-06,0.000
-2.400E-06,-0.040
-2.390E-06,-0.080
-2.380E-06,-0.120
-2.370E-06,0.080
-2.360E-06,-0.020
-2.350E-06,-0.040
-2.340E-06,-0.100
-2.330E-06,0.000
-2.320E-06,-0.160
-2.310E-06,-0.020
-2.300E-06,-0.180
-2.290E-06,-0.080
-2.280E-06,-0.200
-2.270E-06,-0.140
-2.260E-06,-0.140
-2.250E-06,-0.140
-2.240E-06,-0.060
-2.230E-06,-0.060
-2.220E-06,-0.040
-2.210E-06,-0.060
-2.200E-06,-0.020
-2.190E-06,-0.060
-2.180E-06,-0.100
-2.170E-06,-0.060
-2.160E-06,-0.060
-2.150E-06,-0.100
-2.140E-06,-0.320
-2.130E-06,-0.300
-2.120E-06,-0.500
-2.110E-06,0.380
-2.100E-06,-0.500
-2.090E-06,0.560
-2.080E-06,-0.400
-2.070E-06,0.380
-2.060E-06,-0.060
-2.050E-06,0.180
-2.040E-06,0.040
-2.030E-06,0.060
-2.020E-06,0.080
-2.010E-06,-0.040
-2.000E-06,-0.140
-1.990E-06,-0.120
-1.980E-06,-0.260
-1.970E-06,-0.180
-1.960E-06,-0.200
-1.950E-06,-0.220
-1.940E-06,-0.180
-1.930E-06,-0.180
-1.920E-06,-0.200
-1.910E-06,-0.120
-1.900E-06,-0.240
-1.890E-06,-0.180
-1.880E-06,-0.180
-1.870E-06,-0.140
-1.860E-06,-0.060
-1.850E-06,-0.040
-1.840E-06,0.000
-1.830E-06,0.040
-1.820E-06,-0.020
-1.810E-06,0.020
-1.800E-06,0.000
-1.790E-06,0.020
-1.780E-06,0.080
-1.770E-06,0.060
-1.760E-06,0.100
-1.750E-06,0.060
-1.740E-06,-0.020
-1.730E-06,-0.060
-1.720E-06,-0.140
-1.710E-06,-0.120
-1.700E-06,-0.080
-1.690E-06,-0.120
-1.680E-06,-0.160
-1.670E-06,-0.160
-1.660E-06,-0.220
-1.650E-06,-0.240
-1.640E-06,-0.220
-1.630E-06,-0.300
-1.620E-06,-0.140
-1.610E-06,-0.300
-1.600E-06,-0.160
-1.590E-06,-0.380
-1.580E-06,-0.180
-1.570E-06,-0.380
-1.560E-06,-0.240
-1.550E-06,-0.340
-1.540E-06,-0.340
-1.530E-06,-0.380
-1.520E-06,-0.420
-1.510E-06,-0.440
-1.500E-06,-0.500
-1.490E-06,-0.620
-1.480E-06,-0.620
-1.470E-06,-0.820
-1.460E-06,-0.520
-1.450E-06,-0.800
-1.440E-06,-0.360
-1.430E-06,-0.660
-1.420E-06,-0.100
-1.410E-06,-0.600
-1.400E-06,-0.300
-1.390E-06,-0.500
-1.380E-06,-0.460
-1.370E-06,-0.340
-1.360E-06,-0.460
-1.350E-06,-0.360
-1.340E-06,-0.440
-1.330E-06,-0.500
-1.320E-06,-0.560
-1.310E-06,-0.700
-1.300E-06,-0.440
-1.290E-06,-0.380
-1.280E-06,-0.200
-1.270E-06,-0.020
-1.260E-06,0.120
-1.250E-06,0.680
-1.240E-06,0.280
-1.230E-06,0.720
-1.220E-06,0.020
-1.210E-06,0.080
-1.200E-06,-0.260
-1.190E-06,-0.520
-1.180E-06,-0.680
-1.170E-06,-0.800
-1.160E-06,-0.880
-1.150E-06,-0.880
-1.140E-06,-0.840
-1.130E-06,-0.840
-1.120E-06,-0.880
-1.110E-06,-0.700
-1.100E-06,-0.700
-1.090E-06,-0.500
-1.080E-06,-0.480
-1.070E-06,-0.380
-1.060E-06,-0.420
-1.050E-06,-0.440
-1.040E-06,-0.360
-1.030E-06,-0.300
-1.020E-06,-0.280
-1.010E-06,-0.280
-1.000E-06,-0.260
-9.900E-07,-0.040
-9.800E-07,0.020
-9.700E-07,-0.080
-9.600E-07,-0.100
-9.500E-07,-0.180
-9.400E-07,-0.100
-9.300E-07,-0.200
-9.200E-07,-0.280
-9.100E-07,-0.520
-9.000E-07,-0.020
-8.900E-07,-0.620
-8.800E-07,-0.340
-8.700E-07,-0.760
-8.600E-07,-0.680
-8.500E-07,-0.840
-8.400E-07,-0.500
-8.300E-07,-0.440
-8.200E-07,-0.040
-8.100E-07,0.080
-8.000E-07,0.100
-7.900E-07,0.280
-7.800E-07,0.060
-7.700E-07,0.180
-7.600E-07,0.080
-7.500E-07,0.100
-7.400E-07,0.000
-7.300E-07,-0.180
-7.200E-07,-0.580
-7.100E-07,-0.500
-7.000E-07,-1.040
-6.900E-07,-0.660
-6.800E-07,-1.400
-6.700E-07,-0.860
-6.600E-07,-1.700
-6.500E-07,-1.080
-6.400E-07,-1.420
-6.300E-07,-1.220
-6.200E-07,-1.340
-6.100E-07,-1.300
-6.000E-07,-1.120
-5.900E-07,-1.220
-5.800E-07,-1.180
-5.700E-07,-1.020
-5.600E-07,-1.100
-5.500E-07,-0.920
-5.400E-07,-0.840
-5.300E-07,-0.600
-5.200E-07,-0.540
-5.100E-07,-0.520
-5.000E-07,-0.420
-4.900E-07,-0.380
-4.800E-07,-0.520
-4.700E-07,-0.500
-4.600E-07,-0.500
-4.500E-07,-0.660
-4.400E-07,-0.500
-4.300E-07,-0.980
-4.200E-07,-0.860
-4.100E-07,-1.540
-4.000E-07,-0.680
-3.900E-07,-1.420
-3.800E-07,-0.680
-3.700E-07,-1.420
-3.600E-07,-0.900
-3.500E-07,-1.040
-3.400E-07,-0.960
-3.300E-07,-0.860
-3.200E-07,-1.040
-3.100E-07,-0.840
-3.000E-07,-0.920
-2.900E-07,-0.940
-2.800E-07,-0.920
-2.700E-07,-1.240
-2.600E-07,-1.420
-2.500E-07,-1.500
-2.400E-07,-1.980
-2.300E-07,-0.560
-2.200E-07,-1.180
-2.100E-07,0.200
-2.000E-07,-0.440
-1.900E-07,-0.800
-1.800E-07,-1.400
-1.700E-07,-1.880
-1.600E-07,-3.340
-1.500E-07,-3.040
-1.400E-07,-2.340
-1.300E-07,0.880
-1.200E-07,2.100
-1.100E-07,2.080
-1.000E-07,0.980
-9.000E-08,0.980
-8.000E-08,-2.680
-7.000E-08,-3.340
-6.000E-08,-3.340
-5.000E-08,-3.340
-4.000E-08,-3.020
-3.000E-08,-2.700
-2.000E-08,-2.360
-1.000E-08,-2.320
0.000E+00,-2.160
1.000E-08,-2.500
2.000E-08,-1.780
3.000E-08,-1.200
4.000E-08,-0.140
5.000E-08,0.660
6.000E-08,1.000
7.000E-08,1.200
8.000E-08,1.320
9.000E-08,1.120
1.000E-07,0.920
1.100E-07,0.860
1.200E-07,0.960
1.300E-07,1.100
1.400E-07,1.240
1.500E-07,1.020
1.600E-07,0.980
1.700E-07,0.800
1.800E-07,0.340
1.900E-07,0.080
2.000E-07,-0.280
2.100E-07,-0.520
2.200E-07,-0.780
2.300E-07,-1.040
2.400E-07,-1.200
2.500E-07,-1.440
2.600E-07,-1.600
2.700E-07,-1.800
2.800E-07,-1.880
2.900E-07,-1.820
3.000E-07,-1.700
3.100E-07,-1.380
3.200E-07,-0.960
3.300E-07,-0.620
3.400E-07,-0.440
3.500E-07,-0.440
3.600E-07,-0.560
3.700E-07,-0.740
3.800E-07,-0.920
3.900E-07,-1.040
4.000E-07,-1.140
4.100E-07,-1.200
4.200E-07,-1.360
4.300E-07,-1.460
4.400E-07,-1.560
4.500E-07,-1.660
4.600E-07,-1.680
4.700E-07,-1.600
4.800E-07,-1.600
4.900E-07,-1.380
5.000E-07,-1.280
5.100E-07,-0.920
5.200E-07,-1.020
5.300E-07,-1.200
5.400E-07,-1.340
5.500E-07,-1.660
5.600E-07,-1.660
5.700E-07,-1.560
5.800E-07,-1.400
5.900E-07,-1.240
6.000E-07,-1.700
6.100E-07,-1.580
6.200E-07,-1.660
6.300E-07,-1.740
6.400E-07,-1.820
6.500E-07,-1.260
6.600E-07,-1.200
6.700E-07,-0.120
6.800E-07,-0.520
6.900E-07,0.980
7.000E-07,-0.920
7.100E-07,-3.220
7.200E-07,-1.840
7.300E-07,-1.520
7.400E-07,-2.000
7.500E-07,0.520
7.600E-07,-3.140
7.700E-07,-1.180
7.800E-07,-3.340
7.900E-07,-3.340
8.000E-07,-3.340
8.100E-07,-3.340
8.200E-07,-3.340
8.300E-07,-3.340
8.400E-07,-3.340
8.500E-07,-3.360
8.600E-07,-3.340
8.700E-07,-3.040
8.800E-07,-2.720
8.900E-07,-1.600
9.000E-07,-0.600
9.100E-07,0.700
9.200E-07,1.520
9.300E-07,1.880
9.400E-07,2.060
9.500E-07,2.020
9.600E-07,1.880
9.700E-07,1.540
9.800E-07,1.560
9.900E-07,1.340
1.000E-06,1.220
1.010E-06,0.880
1.020E-06,0.640
1.030E-06,-0.180
1.040E-06,-0.760
1.050E-06,-1.580
1.060E-06,-1.820
1.070E-06,-2.200
1.080E-06,-2.080
1.090E-06,-2.040
1.100E-06,-1.620
1.110E-06,-1.360
1.120E-06,-0.860
1.130E-06,-0.600
1.140E-06,-0.160
1.150E-06,0.120
1.160E-06,0.440
1.170E-06,0.600
1.180E-06,0.920
1.190E-06,1.000
1.200E-06,0.960
1.210E-06,0.820
1.220E-06,0.320
1.230E-06,-0.100
1.240E-06,-0.860
1.250E-06,-1.000
1.260E-06,-1.800
1.270E-06,-1.900
1.280E-06,-2.540
1.290E-06,-2.400
1.300E-06,-2.580
1.310E-06,-2.500
1.320E-06,-2.280
1.330E-06,-2.180
1.340E-06,-1.780
1.350E-06,-1.540
1.360E-06,-1.260
1.370E-06,-0.940
1.380E-06,-0.860
1.390E-06,-0.520
1.400E-06,-0.040
1.410E-06,0.240
1.420E-06,0.180
1.430E-06,-0.140
1.440E-06,-0.280
1.450E-06,-0.420
1.460E-06,-0.620
1.470E-06,-0.780
1.480E-06,-0.920
1.490E-06,-1.080
1.500E-06,-1.200
1.510E-06,-1.500
1.520E-06,-1.760
1.530E-06,-2.000
1.540E-06,-2.200
1.550E-06,-2.280
1.560E-06,-2.300
1.570E-06,-2.040
1.580E-06,-2.040
1.590E-06,-1.460
1.600E-06,-1.340
1.610E-06,-0.500
1.620E-06,-0.360
1.630E-06,0.160
1.640E-06,0.240
1.650E-06,0.520
1.660E-06,0.680
1.670E-06,0.700
1.680E-06,0.820
1.690E-06,0.700
1.700E-06,0.740
1.710E-06,0.660
1.720E-06,0.420
1.730E-06,0.440
1.740E-06,0.240
1.750E-06,0.160
1.760E-06,0.080
1.770E-06,-0.040
1.780E-06,-0.060
1.790E-06,-0.140
1.800E-06,-0.200
1.810E-06,-0.180
1.820E-06,-0.240
1.830E-06,-0.340
1.840E-06,-0.420
1.850E-06,-0.360
1.860E-06,-0.500
1.870E-06,-0.500
1.880E-06,-0.700
1.890E-06,-0.520
1.900E-06,-0.580
1.910E-06,-0.580
1.920E-06,-0.440
1.930E-06,-0.380
1.940E-06,-0.200
1.950E-06,-0.260
1.960E-06,-0.180
1.970E-06,-0.180
1.980E-06,-0.260
1.990E-06,-0.260
2.000E-06,-0.600
2.010E-06,-0.660
2.020E-06,-0.320
2.030E-06,-0.560
2.040E-06,-0.380
2.050E-06,-0.640
2.060E-06,-0.360
2.070E-06,-0.360
2.080E-06,-0.340
2.090E-06,-0.180
2.100E-06,-0.060
2.110E-06,0.140
2.120E-06,-0.080
2.130E-06,0.040
2.140E-06,0.020
2.150E-06,0.040
2.160E-06,0.080
2.170E-06,0.000
2.180E-06,0.040
2.190E-06,0.060
2.200E-06,0.000
2.210E-06,0.040
2.220E-06,0.080
2.230E-06,0.220
2.240E-06,0.080
2.250E-06,0.240
2.260E-06,-0.180
2.270E-06,0.240
2.280E-06,-0.080
2.290E-06,-0.180
2.300E-06,-0.360
2.310E-06,-0.420
2.320E-06,-0.860
2.330E-06,-1.220
2.340E-06,-0.860
2.350E-06,-1.120
2.360E-06,-1.200
2.370E-06,-1.200
2.380E-06,-1.360
2.390E-06,-1.260
2.400E-06,-0.960
2.410E-06,-1.220
2.420E-06,-0.520
2.430E-06,-0.520
2.440E-06,-0.500
2.450E-06,-0.740
2.460E-06,-0.360
2.470E-06,-0.140
2.480E-06,0.160
2.490E-06,0.300
2.500E-06,0.420
2.510E-06,0.460
2.520E-06,0.420
2.530E-06,0.460
2.540E-06,0.440
2.550E-06,0.460
2.560E-06,0.500
2.570E-06,0.500
2.580E-06,0.600
2.590E-06,0.560
2.600E-06,0.620
2.610E-06,0.540
2.620E-06,0.500
2.630E-06,0.400
2.640E-06,0.320
2.650E-06,0.220
2.660E-06,0.120
2.670E-06,0.080
2.680E-06,0.060
2.690E-06,0.100
2.700E-06,0.180
2.710E-06,0.280
2.720E-06,0.400
2.730E-06,0.480
2.740E-06,0.560
2.750E-06,0.640
2.760E-06,0.660
2.770E-06,0.680
2.780E-06,0.620
2.790E-06,0.560
2.800E-06,0.440
2.810E-06,0.380
2.820E-06,0.260
2.830E-06,0.160
2.840E-06,0.120
2.850E-06,0.080
2.860E-06,0.040
2.870E-06,0.060
2.880E-06,-0.020
2.890E-06,0.080
2.900E-06,0.120
2.910E-06,0.100
2.920E-06,0.080
2.930E-06,-0.080
2.940E-06,0.060
2.950E-06,-0.020
2.960E-06,-0.020
2.970E-06,0.020
2.980E-06,-0.060
2.990E-06,0.080
3.000E-06,0.000
3.010E-06,0.120
3.020E-06,0.020
3.030E-06,0.140
3.040E-06,0.180
3.050E-06,0.240
3.060E-06,0.260
3.070E-06,0.280
3.080E-06,0.360
3.090E-06,0.420
3.100E-06,0.500
3.110E-06,0.540
3.120E-06,0.620
3.130E-06,0.620
3.140E-06,0.600
3.150E-06,0.660
3.160E-06,0.640
3.170E-06,0.640
3.180E-06,0.540
3.190E-06,0.420
3.200E-06,0.500
3.210E-06,0.300
3.220E-06,0.340
3.230E-06,0.420
