mediciones/curva carac 8-28 limpias/-37/WaveData65869.csv

#timebase=2000000(ps)
,#voltbase=500000(mv/100)
#size=4000
-8.350E-06,0.060
-8.340E-06,0.060
-8.330E-06,0.040
-8.320E-06,0.040
-8.310E-06,0.080
-8.300E-06,0.060
-8.290E-06,0.040
-8.280E-06,0.020
-8.270E-06,0.040
-8.260E-06,0.060
-8.250E-06,0.040
-8.240E-06,0.060
-8.230E-06,0.060
-8.220E-06,0.040
-8.210E-06,0.040
-8.200E-06,0.040
-8.190E-06,0.020
-8.180E-06,0.060
-8.170E-06,0.040
-8.160E-06,0.080
-8.150E-06,0.040
-8.140E-06,0.060
-8.130E-06,0.020
-8.120E-06,0.020
-8.110E-06,0.020
-8.100E-06,0.060
-8.090E-06,0.040
-8.080E-06,0.020
-8.070E-06,0.020
-8.060E-06,0.060
-8.050E-06,0.060
-8.040E-06,0.080
-8.030E-06,0.020
-8.020E-06,0.040
-8.010E-06,0.080
-8.000E-06,0.060
-7.990E-06,0.060
-7.980E-06,0.080
-7.970E-06,0.060
-7.960E-06,0.080
-7.950E-06,0.060
-7.940E-06,0.020
-7.930E-06,0.020
-7.920E-06,0.020
-7.910E-06,0.080
-7.900E-06,0.040
-7.890E-06,0.040
-7.880E-06,0.020
-7.870E-06,0.020
-7.860E-06,0.080
-7.850E-06,0.040
-7.840E-06,0.040
-7.830E-06,0.060
-7.820E-06,0.060
-7.810E-06,0.040
-7.800E-06,0.040
-7.790E-06,0.020
-7.780E-06,0.020
-7.770E-06,0.060
-7.760E-06,0.020
-7.750E-06,0.060
-7.740E-06,0.080
-7.730E-06,0.000
-7.720E-06,0.040
-7.710E-06,0.020
-7.700E-06,0.040
-7.690E-06,0.040
-7.680E-06,0.020
-7.670E-06,0.040
-7.660E-06,0.080
-7.650E-06,0.040
-7.640E-06,0.040
-7.630E-06,0.040
-7.620E-06,0.040
-7.610E-06,0.080
-7.600E-06,0.040
-7.590E-06,0.080
-7.580E-06,0.080
-7.570E-06,0.060
-7.560E-06,0.080
-7.550E-06,0.080
-7.540E-06,0.040
-7.530E-06,0.020
-7.520E-06,0.060
-7.510E-06,0.060
-7.500E-06,0.040
-7.490E-06,0.020
-7.480E-06,0.020
-7.470E-06,0.020
-7.460E-06,0.040
-7.450E-06,0.020
-7.440E-06,0.020
-7.430E-06,0.060
-7.420E-06,0.020
-7.410E-06,0.040
-7.400E-06,0.040
-7.390E-06,0.080
-7.380E-06,0.060
-7.370E-06,0.060
-7.360E-06,0.040
-7.350E-06,0.040
-7.340E-06,0.060
-7.330E-06,0.040
-7.320E-06,0.080
-7.310E-06,0.020
-7.300E-06,0.040
-7.290E-06,0.060
-7.280E-06,0.060
-7.270E-06,0.060
-7.260E-06,0.020
-7.250E-06,0.020
-7.240E-06,0.060
-7.230E-06,0.000
-7.220E-06,0.000
-7.210E-06,0.020
-7.200E-06,0.020
-7.190E-06,0.060
-7.180E-06,0.060
-7.170E-06,0.040
-7.160E-06,0.060
-7.150E-06,0.020
-7.140E-06,0.060
-7.130E-06,0.080
-7.120E-06,0.040
-7.110E-06,0.060
-7.100E-06,0.080
-7.090E-06,0.060
-7.080E-06,0.040
-7.070E-06,0.040
-7.060E-06,0.020
-7.050E-06,0.040
-7.040E-06,0.060
-7.030E-06,0.060
-7.020E-06,0.020
-7.010E-06,0.060
-7.000E-06,0.040
-6.990E-06,0.040
-6.980E-06,0.040
-6.970E-06,0.060
-6.960E-06,0.060
-6.950E-06,0.020
-6.940E-06,0.060
-6.930E-06,0.060
-6.920E-06,0.040
-6.910E-06,0.080
-6.900E-06,0.020
-6.890E-06,0.060
-6.880E-06,0.060
-6.870E-06,0.040
-6.860E-06,0.060
-6.850E-06,0.060
-6.840E-06,0.040
-6.830E-06,0.020
-6.820E-06,0.060
-6.810E-06,0.020
-6.800E-06,0.060
-6.790E-06,0.040
-6.780E-06,0.020
-6.770E-06,0.020
-6.760E-06,0.040
-6.750E-06,0.020
-6.740E-06,0.060
-6.730E-06,0.000
-6.720E-06,0.040
-6.710E-06,0.060
-6.700E-06,0.020
-6.690E-06,0.060
-6.680E-06,0.040
-6.670E-06,0.040
-6.660E-06,0.060
-6.650E-06,0.020
-6.640E-06,0.040
-6.630E-06,0.020
-6.620E-06,0.040
-6.610E-06,0.020
-6.600E-06,0.020
-6.590E-06,0.020
-6.580E-06,0.020
-6.570E-06,0.080
-6.560E-06,0.020
-6.550E-06,0.020
-6.540E-06,0.040
-6.530E-06,0.060
-6.520E-06,0.060
-6.510E-06,0.040
-6.500E-06,0.020
-6.490E-06,0.040
-6.480E-06,0.060
-6.470E-06,0.040
-6.460E-06,0.060
-6.450E-06,0.040
-6.440E-06,0.060
-6.430E-06,0.060
-6.420E-06,0.060
-6.410E-06,0.020
-6.400E-06,0.060
-6.390E-06,0.060
-6.380E-06,0.040
-6.370E-06,0.020
-6.360E-06,0.060
-6.350E-06,0.060
-6.340E-06,0.080
-6.330E-06,0.020
-6.320E-06,0.040
-6.310E-06,0.040
-6.300E-06,0.040
-6.290E-06,0.080
-6.280E-06,0.080
-6.270E-06,0.060
-6.260E-06,0.060
-6.250E-06,0.000
-6.240E-06,0.000
-6.230E-06,0.040
-6.220E-06,0.060
-6.210E-06,0.060
-6.200E-06,0.060
-6.190E-06,0.040
-6.180E-06,0.020
-6.170E-06,0.040
-6.160E-06,0.040
-6.150E-06,0.040
-6.140E-06,0.060
-6.130E-06,0.060
-6.120E-06,0.020
-6.110E-06,0.040
-6.100E-06,0.040
-6.090E-06,0.060
-6.080E-06,0.060
-6.070E-06,0.060
-6.060E-06,0.060
-6.050E-06,0.060
-6.040E-06,0.020
-6.030E-06,0.040
-6.020E-06,0.060
-6.010E-06,0.020
-6.000E-06,0.040
-5.990E-06,0.040
-5.980E-06,0.020
-5.970E-06,0.040
-5.960E-06,0.040
-5.950E-06,0.020
-5.940E-06,0.040
-5.930E-06,0.020
-5.920E-06,0.040
-5.910E-06,0.020
-5.900E-06,0.060
-5.890E-06,0.040
-5.880E-06,0.060
-5.870E-06,0.040
-5.860E-06,0.020
-5.850E-06,0.040
-5.840E-06,0.040
-5.830E-06,0.080
-5.820E-06,0.040
-5.810E-06,0.020
-5.800E-06,0.040
-5.790E-06,0.040
-5.780E-06,0.080
-5.770E-06,0.060
-5.760E-06,0.040
-5.750E-06,0.040
-5.740E-06,0.040
-5.730E-06,0.060
-5.720E-06,0.040
-5.710E-06,0.080
-5.700E-06,0.060
-5.690E-06,0.060
-5.680E-06,0.040
-5.670E-06,0.020
-5.660E-06,0.060
-5.650E-06,0.000
-5.640E-06,0.040
-5.630E-06,0.080
-5.620E-06,0.080
-5.610E-06,0.060
-5.600E-06,0.040
-5.590E-06,0.040
-5.580E-06,0.060
-5.570E-06,0.020
-5.560E-06,0.040
-5.550E-06,0.060
-5.540E-06,0.060
-5.530E-06,0.080
-5.520E-06,0.040
-5.510E-06,0.060
-5.500E-06,0.060
-5.490E-06,0.040
-5.480E-06,0.080
-5.470E-06,0.080
-5.460E-06,0.080
-5.450E-06,0.080
-5.440E-06,0.020
-5.430E-06,0.040
-5.420E-06,0.040
-5.410E-06,0.040
-5.400E-06,0.020
-5.390E-06,0.040
-5.380E-06,0.040
-5.370E-06,0.020
-5.360E-06,0.040
-5.350E-06,0.080
-5.340E-06,0.020
-5.330E-06,0.020
-5.320E-06,0.040
-5.310E-06,0.000
-5.300E-06,0.020
-5.290E-06,0.040
-5.280E-06,0.040
-5.270E-06,0.020
-5.260E-06,0.040
-5.250E-06,0.020
-5.240E-06,0.040
-5.230E-06,0.060
-5.220E-06,0.060
-5.210E-06,0.040
-5.200E-06,0.040
-5.190E-06,0.060
-5.180E-06,0.060
-5.170E-06,0.040
-5.160E-06,0.080
-5.150E-06,0.000
-5.140E-06,0.020
-5.130E-06,0.060
-5.120E-06,0.080
-5.110E-06,0.080
-5.100E-06,0.040
-5.090E-06,0.040
-5.080E-06,0.060
-5.070E-06,0.040
-5.060E-06,0.040
-5.050E-06,-0.020
-5.040E-06,-0.340
-5.030E-06,-1.060
-5.020E-06,-2.180
-5.010E-06,-3.120
-5.000E-06,-3.340
-4.990E-06,-3.140
-4.980E-06,-2.100
-4.970E-06,-0.900
-4.960E-06,0.500
-4.950E-06,2.080
-4.940E-06,2.100
-4.930E-06,2.080
-4.920E-06,2.080
-4.910E-06,2.080
-4.900E-06,2.060
-4.890E-06,2.080
-4.880E-06,2.040
-4.870E-06,1.320
-4.860E-06,0.340
-4.850E-06,-0.260
-4.840E-06,-0.720
-4.830E-06,-0.980
-4.820E-06,-0.640
-4.810E-06,-0.360
-4.800E-06,-0.180
-4.790E-06,-0.040
-4.780E-06,-0.100
-4.770E-06,-0.540
-4.760E-06,-1.020
-4.750E-06,-1.460
-4.740E-06,-1.900
-4.730E-06,-2.140
-4.720E-06,-2.100
-4.710E-06,-1.840
-4.700E-06,-1.540
-4.690E-06,-0.940
-4.680E-06,-0.220
-4.670E-06,0.380
-4.660E-06,1.000
-4.650E-06,1.560
-4.640E-06,1.820
-4.630E-06,1.880
-4.620E-06,1.680
-4.610E-06,1.420
-4.600E-06,0.900
-4.590E-06,0.420
-4.580E-06,-0.080
-4.570E-06,-0.500
-4.560E-06,-0.760
-4.550E-06,-0.940
-4.540E-06,-0.960
-4.530E-06,-0.920
-4.520E-06,-0.800
-4.510E-06,-0.660
-4.500E-06,-0.500
-4.490E-06,-0.340
-4.480E-06,-0.200
-4.470E-06,0.000
-4.460E-06,0.240
-4.450E-06,0.440
-4.440E-06,0.640
-4.430E-06,0.780
-4.420E-06,0.920
-4.410E-06,0.940
-4.400E-06,0.940
-4.390E-06,0.860
-4.380E-06,0.760
-4.370E-06,0.640
-4.360E-06,0.480
-4.350E-06,0.340
-4.340E-06,0.180
-4.330E-06,0.000
-4.320E-06,-0.140
-4.310E-06,-0.260
-4.300E-06,-0.360
-4.290E-06,-0.440
-4.280E-06,-0.520
-4.270E-06,-0.560
-4.260E-06,-0.580
-4.250E-06,-0.620
-4.240E-06,-0.600
-4.230E-06,-0.520
-4.220E-06,-0.380
-4.210E-06,-0.180
-4.200E-06,0.100
-4.190E-06,0.400
-4.180E-06,0.600
-4.170E-06,0.780
-4.160E-06,0.880
-4.150E-06,0.900
-4.140E-06,0.840
-4.130E-06,0.760
-4.120E-06,0.540
-4.110E-06,0.340
-4.100E-06,0.080
-4.090E-06,-0.160
-4.080E-06,-0.340
-4.070E-06,-0.520
-4.060E-06,-0.600
-4.050E-06,-0.620
-4.040E-06,-0.580
-4.030E-06,-0.520
-4.020E-06,-0.440
-4.010E-06,-0.260
-4.000E-06,-0.160
-3.990E-06,-0.040
-3.980E-06,0.020
-3.970E-06,0.060
-3.960E-06,0.100
-3.950E-06,0.040
-3.940E-06,0.080
-3.930E-06,0.100
-3.920E-06,0.120
-3.910E-06,0.080
-3.900E-06,0.080
-3.890E-06,0.040
-3.880E-06,0.060
-3.870E-06,0.040
-3.860E-06,0.060
-3.850E-06,0.080
-3.840E-06,0.080
-3.830E-06,0.020
-3.820E-06,-0.020
-3.810E-06,-0.060
-3.800E-06,-0.100
-3.790E-06,-0.120
-3.780E-06,-0.160
-3.770E-06,-0.100
-3.760E-06,-0.100
-3.750E-06,-0.020
-3.740E-06,0.080
-3.730E-06,0.080
-3.720E-06,0.100
-3.710E-06,0.180
-3.700E-06,0.200
-3.690E-06,0.160
-3.680E-06,0.180
-3.670E-06,0.160
-3.660E-06,0.120
-3.650E-06,0.120
-3.640E-06,0.180
-3.630E-06,0.080
-3.620E-06,0.080
-3.610E-06,0.080
-3.600E-06,0.080
-3.590E-06,-0.080
-3.580E-06,0.080
-3.570E-06,0.000
-3.560E-06,0.100
-3.550E-06,-0.100
-3.540E-06,0.040
-3.530E-06,-0.080
-3.520E-06,-0.040
-3.510E-06,-0.080
-3.500E-06,-0.020
-3.490E-06,-0.080
-3.480E-06,-0.080
-3.470E-06,-0.020
-3.460E-06,-0.060
-3.450E-06,-0.060
-3.440E-06,-0.040
-3.430E-06,-0.120
-3.420E-06,-0.120
-3.410E-06,-0.180
-3.400E-06,-0.140
-3.390E-06,-0.180
-3.380E-06,-0.120
-3.370E-06,-0.080
-3.360E-06,-0.060
-3.350E-06,-0.020
-3.340E-06,-0.020
-3.330E-06,0.100
-3.320E-06,0.100
-3.310E-06,0.160
-3.300E-06,0.220
-3.290E-06,0.240
-3.280E-06,0.220
-3.270E-06,0.220
-3.260E-06,0.180
-3.250E-06,0.120
-3.240E-06,0.080
-3.230E-06,-0.020
-3.220E-06,-0.040
-3.210E-06,-0.040
-3.200E-06,-0.020
-3.190E-06,0.020
-3.180E-06,0.240
-3.170E-06,0.660
-3.160E-06,1.180
-3.150E-06,1.660
-3.140E-06,1.920
-3.130E-06,1.840
-3.120E-06,1.460
-3.110E-06,0.860
-3.100E-06,0.160
-3.090E-06,-0.540
-3.080E-06,-1.140
-3.070E-06,-1.520
-3.060E-06,-1.780
-3.050E-06,-1.800
-3.040E-06,-1.740
-3.030E-06,-1.440
-3.020E-06,-1.140
-3.010E-06,-0.820
-3.000E-06,-0.620
-2.990E-06,-0.440
-2.980E-06,-0.340
-2.970E-06,-0.240
-2.960E-06,-0.180
-2.950E-06,-0.060
-2.940E-06,-0.040
-2.930E-06,0.000
-2.920E-06,0.060
-2.910E-06,0.180
-2.900E-06,0.360
-2.890E-06,0.620
-2.880E-06,0.900
-2.870E-06,1.080
-2.860E-06,1.180
-2.850E-06,1.080
-2.840E-06,0.920
-2.830E-06,0.640
-2.820E-06,0.420
-2.810E-06,0.140
-2.800E-06,-0.160
-2.790E-06,-0.360
-2.780E-06,-0.580
-2.770E-06,-0.740
-2.760E-06,-0.760
-2.750E-06,-0.700
-2.740E-06,-0.520
-2.730E-06,-0.300
-2.720E-06,0.000
-2.710E-06,0.280
-2.700E-06,0.560
-2.690E-06,0.720
-2.680E-06,0.780
-2.670E-06,0.760
-2.660E-06,0.680
-2.650E-06,0.540
-2.640E-06,0.380
-2.630E-06,0.220
-2.620E-06,0.000
-2.610E-06,-0.160
-2.600E-06,-0.280
-2.590E-06,-0.400
-2.580E-06,-0.440
-2.570E-06,-0.480
-2.560E-06,-0.460
-2.550E-06,-0.440
-2.540E-06,-0.340
-2.530E-06,-0.300
-2.520E-06,-0.260
-2.510E-06,-0.280
-2.500E-06,-0.300
-2.490E-06,-0.300
-2.480E-06,-0.300
-2.470E-06,-0.280
-2.460E-06,-0.280
-2.450E-06,-0.200
-2.440E-06,-0.060
-2.430E-06,0.080
-2.420E-06,0.200
-2.410E-06,0.340
-2.400E-06,0.440
-2.390E-06,0.520
-2.380E-06,0.520
-2.370E-06,0.460
-2.360E-06,0.340
-2.350E-06,0.220
-2.340E-06,0.040
-2.330E-06,-0.160
-2.320E-06,-0.300
-2.310E-06,-0.440
-2.300E-06,-0.520
-2.290E-06,-0.520
-2.280E-06,-0.500
-2.270E-06,-0.440
-2.260E-06,-0.340
-2.250E-06,-0.200
-2.240E-06,-0.080
-2.230E-06,-0.040
-2.220E-06,0.100
-2.210E-06,0.060
-2.200E-06,0.360
-2.190E-06,0.120
-2.180E-06,0.400
-2.170E-06,0.080
-2.160E-06,0.260
-2.150E-06,0.060
-2.140E-06,0.060
-2.130E-06,0.020
-2.120E-06,0.040
-2.110E-06,0.000
-2.100E-06,0.060
-2.090E-06,0.060
-2.080E-06,0.080
-2.070E-06,0.080
-2.060E-06,0.080
-2.050E-06,0.100
-2.040E-06,0.060
-2.030E-06,0.020
-2.020E-06,-0.040
-2.010E-06,-0.080
-2.000E-06,-0.120
-1.990E-06,-0.140
-1.980E-06,-0.180
-1.970E-06,-0.120
-1.960E-06,-0.200
-1.950E-06,-0.180
-1.940E-06,-0.120
-1.930E-06,-0.040
-1.920E-06,-0.160
-1.910E-06,-0.020
-1.900E-06,-0.100
-1.890E-06,-0.080
-1.880E-06,-0.140
-1.870E-06,-0.180
-1.860E-06,-0.200
-1.850E-06,-0.260
-1.840E-06,-0.260
-1.830E-06,-0.300
-1.820E-06,-0.360
-1.810E-06,-0.380
-1.800E-06,-0.360
-1.790E-06,-0.380
-1.780E-06,-0.100
-1.770E-06,-0.320
-1.760E-06,0.040
-1.750E-06,-0.220
-1.740E-06,-0.040
-1.730E-06,-0.040
-1.720E-06,-0.020
-1.710E-06,-0.020
-1.700E-06,-0.020
-1.690E-06,-0.040
-1.680E-06,-0.020
-1.670E-06,-0.020
-1.660E-06,-0.020
-1.650E-06,-0.020
-1.640E-06,-0.040
-1.630E-06,-0.020
-1.620E-06,-0.100
-1.610E-06,-0.080
-1.600E-06,-0.140
-1.590E-06,-0.020
-1.580E-06,-0.100
-1.570E-06,0.060
-1.560E-06,-0.080
-1.550E-06,0.020
-1.540E-06,-0.160
-1.530E-06,-0.120
-1.520E-06,-0.220
-1.510E-06,-0.100
-1.500E-06,-0.260
-1.490E-06,-0.160
-1.480E-06,-0.280
-1.470E-06,-0.240
-1.460E-06,-0.240
-1.450E-06,-0.240
-1.440E-06,-0.260
-1.430E-06,-0.260
-1.420E-06,-0.220
-1.410E-06,-0.200
-1.400E-06,-0.220
-1.390E-06,-0.180
-1.380E-06,-0.160
-1.370E-06,-0.180
-1.360E-06,-0.220
-1.350E-06,-0.180
-1.340E-06,-0.240
-1.330E-06,0.100
-1.320E-06,-0.200
-1.310E-06,0.180
-1.300E-06,-0.180
-1.290E-06,0.060
-1.280E-06,-0.080
-1.270E-06,-0.020
-1.260E-06,-0.040
-1.250E-06,-0.040
-1.240E-06,-0.040
-1.230E-06,-0.100
-1.220E-06,-0.080
-1.210E-06,-0.040
-1.200E-06,-0.100
-1.190E-06,-0.100
-1.180E-06,-0.160
-1.170E-06,-0.160
-1.160E-06,-0.180
-1.150E-06,-0.180
-1.140E-06,-0.160
-1.130E-06,-0.100
-1.120E-06,-0.100
-1.110E-06,-0.080
-1.100E-06,-0.160
-1.090E-06,-0.020
-1.080E-06,-0.220
-1.070E-06,-0.040
-1.060E-06,-0.160
-1.050E-06,0.100
-1.040E-06,-0.180
-1.030E-06,0.000
-1.020E-06,-0.120
-1.010E-06,-0.140
-1.000E-06,-0.180
-9.900E-07,-0.220
-9.800E-07,-0.260
-9.700E-07,-0.260
-9.600E-07,-0.320
-9.500E-07,-0.360
-9.400E-07,-0.340
-9.300E-07,-0.360
-9.200E-07,-0.300
-9.100E-07,-0.280
-9.000E-07,-0.260
-8.900E-07,-0.280
-8.800E-07,-0.220
-8.700E-07,-0.300
-8.600E-07,-0.160
-8.500E-07,-0.280
-8.400E-07,-0.180
-8.300E-07,-0.280
-8.200E-07,-0.100
-8.100E-07,-0.240
-8.000E-07,-0.060
-7.900E-07,-0.120
-7.800E-07,-0.120
-7.700E-07,-0.140
-7.600E-07,-0.160
-7.500E-07,-0.160
-7.400E-07,-0.180
-7.300E-07,-0.220
-7.200E-07,-0.240
-7.100E-07,-0.280
-7.000E-07,-0.280
-6.900E-07,-0.240
-6.800E-07,-0.300
-6.700E-07,-0.280
-6.600E-07,-0.340
-6.500E-07,-0.160
-6.400E-07,-0.340
-6.300E-07,-0.200
-6.200E-07,-0.400
-6.100E-07,-0.240
-6.000E-07,-0.360
-5.900E-07,-0.280
-5.800E-07,-0.340
-5.700E-07,-0.420
-5.600E-07,-0.420
-5.500E-07,-0.440
-5.400E-07,-0.340
-5.300E-07,-0.400
-5.200E-07,-0.320
-5.100E-07,-0.360
-5.000E-07,-0.400
-4.900E-07,-0.300
-4.800E-07,-0.260
-4.700E-07,-0.340
-4.600E-07,-0.360
-4.500E-07,-0.360
-4.400E-07,-0.480
-4.300E-07,-0.480
-4.200E-07,-0.560
-4.100E-07,-0.560
-4.000E-07,-0.640
-3.900E-07,-0.660
-3.800E-07,-0.680
-3.700E-07,-0.600
-3.600E-07,-0.740
-3.500E-07,-0.680
-3.400E-07,-0.680
-3.300E-07,-0.540
-3.200E-07,-0.660
-3.100E-07,-0.620
-3.000E-07,-0.740
-2.900E-07,-0.660
-2.800E-07,-0.720
-2.700E-07,-0.460
-2.600E-07,-0.660
-2.500E-07,-0.780
-2.400E-07,-0.440
-2.300E-07,-0.740
-2.200E-07,-0.500
-2.100E-07,0.520
-2.000E-07,2.080
-1.900E-07,-0.480
-1.800E-07,0.580
-1.700E-07,-2.680
-1.600E-07,-3.300
-1.500E-07,-3.340
-1.400E-07,-3.340
-1.300E-07,-3.260
-1.200E-07,-2.860
-1.100E-07,-1.960
-1.000E-07,-2.620
-9.000E-08,-2.740
-8.000E-08,-3.320
-7.000E-08,-3.320
-6.000E-08,-3.340
-5.000E-08,-3.240
-4.000E-08,-3.040
-3.000E-08,-3.000
-2.000E-08,-3.340
-1.000E-08,-3.340
0.000E+00,-3.360
1.000E-08,-3.340
2.000E-08,-3.340
3.000E-08,-3.340
4.000E-08,-3.340
5.000E-08,-3.340
6.000E-08,-3.340
7.000E-08,-3.340
8.000E-08,-3.340
9.000E-08,-3.340
1.000E-07,-3.320
1.100E-07,-3.340
1.200E-07,-3.340
1.300E-07,-3.340
1.400E-07,-3.340
1.500E-07,-3.340
1.600E-07,-3.340
1.700E-07,-3.340
1.800E-07,-3.340
1.900E-07,-3.340
2.000E-07,-3.340
2.100E-07,-3.340
2.200E-07,-3.340
2.300E-07,-3.340
2.400E-07,-3.340
2.500E-07,-3.340
2.600E-07,-3.340
2.700E-07,-3.320
2.800E-07,-3.320
2.900E-07,-3.320
3.000E-07,-3.320
3.100E-07,-3.320
3.200E-07,-3.340
3.300E-07,-3.340
3.400E-07,-3.340
3.500E-07,-3.340
3.600E-07,-3.340
3.700E-07,-3.340
3.800E-07,-3.340
3.900E-07,-3.360
4.000E-07,-3.360
4.100E-07,-3.340
4.200E-07,-3.340
4.300E-07,-3.340
4.400E-07,-3.340
4.500E-07,-3.340
4.600E-07,-3.340
4.700E-07,-3.340
4.800E-07,-3.360
4.900E-07,-3.360
5.000E-07,-3.360
5.100E-07,-3.360
5.200E-07,-3.340
5.300E-07,-3.220
5.400E-07,-3.280
5.500E-07,-3.260
5.600E-07,-3.240
5.700E-07,-3.280
5.800E-07,-3.340
5.900E-07,-3.340
6.000E-07,-3.360
6.100E-07,-3.360
6.200E-07,-3.340
6.300E-07,-3.340
6.400E-07,-3.340
6.500E-07,-3.340
6.600E-07,-3.340
6.700E-07,-3.360
6.800E-07,-3.340
6.900E-07,-3.340
7.000E-07,-3.340
7.100E-07,-3.340
7.200E-07,-3.340
7.300E-07,-3.340
7.400E-07,-3.340
7.500E-07,-3.320
7.600E-07,-3.340
7.700E-07,-3.340
7.800E-07,-3.340
7.900E-07,-3.340
8.000E-07,-3.340
8.100E-07,-3.340
8.200E-07,-3.340
8.300E-07,-3.340
8.400E-07,-3.360
8.500E-07,-3.360
8.600E-07,-3.360
8.700E-07,-3.340
8.800E-07,-3.340
8.900E-07,-3.340
9.000E-07,-3.340
9.100E-07,-3.340
9.200E-07,-3.340
9.300E-07,-3.320
9.400E-07,-3.320
9.500E-07,-3.340
9.600E-07,-3.340
9.700E-07,-3.340
9.800E-07,-3.340
9.900E-07,-3.360
1.000E-06,-3.360
1.010E-06,-3.340
1.020E-06,-2.880
1.030E-06,-2.860
1.040E-06,-2.160
1.050E-06,-1.780
1.060E-06,-1.220
1.070E-06,-1.060
1.080E-06,-0.660
1.090E-06,-0.480
1.100E-06,-0.640
1.110E-06,-0.680
1.120E-06,-1.240
1.130E-06,-2.200
1.140E-06,-2.560
1.150E-06,-3.180
1.160E-06,-2.640
1.170E-06,-3.060
1.180E-06,-2.800
1.190E-06,-2.880
1.200E-06,-2.880
1.210E-06,-3.260
1.220E-06,-3.340
1.230E-06,-3.340
1.240E-06,-3.340
1.250E-06,-3.340
1.260E-06,-3.340
1.270E-06,-3.340
1.280E-06,-3.360
1.290E-06,-3.360
1.300E-06,-3.180
1.310E-06,-2.340
1.320E-06,-1.520
1.330E-06,-0.700
1.340E-06,0.040
1.350E-06,0.620
1.360E-06,1.200
1.370E-06,1.700
1.380E-06,1.920
1.390E-06,2.080
1.400E-06,2.080
1.410E-06,2.080
1.420E-06,1.940
1.430E-06,1.620
1.440E-06,1.300
1.450E-06,0.960
1.460E-06,0.660
1.470E-06,0.380
1.480E-06,0.160
1.490E-06,-0.020
1.500E-06,-0.100
1.510E-06,-0.120
1.520E-06,-0.120
1.530E-06,0.060
1.540E-06,0.260
1.550E-06,0.480
1.560E-06,0.760
1.570E-06,0.620
1.580E-06,0.920
1.590E-06,0.780
1.600E-06,1.000
1.610E-06,0.840
1.620E-06,0.840
1.630E-06,0.800
1.640E-06,0.680
1.650E-06,0.620
1.660E-06,0.480
1.670E-06,0.340
1.680E-06,0.160
1.690E-06,-0.100
1.700E-06,-0.360
1.710E-06,-0.700
1.720E-06,-0.920
1.730E-06,-1.260
1.740E-06,-1.320
1.750E-06,-1.400
1.760E-06,-1.500
1.770E-06,-1.440
1.780E-06,-1.260
1.790E-06,-1.000
1.800E-06,-0.680
1.810E-06,-0.400
1.820E-06,-0.100
1.830E-06,0.020
1.840E-06,0.480
1.850E-06,0.500
1.860E-06,0.760
1.870E-06,0.880
1.880E-06,0.860
1.890E-06,0.860
1.900E-06,0.760
1.910E-06,0.640
1.920E-06,0.680
1.930E-06,0.640
1.940E-06,0.620
1.950E-06,0.500
1.960E-06,0.520
1.970E-06,0.520
1.980E-06,0.440
1.990E-06,0.480
2.000E-06,0.320
2.010E-06,0.360
2.020E-06,0.400
2.030E-06,0.360
2.040E-06,0.540
2.050E-06,0.140
2.060E-06,0.420
2.070E-06,0.200
2.080E-06,0.560
2.090E-06,0.380
2.100E-06,0.640
2.110E-06,0.600
2.120E-06,0.820
2.130E-06,0.860
2.140E-06,0.780
2.150E-06,0.820
2.160E-06,0.820
2.170E-06,0.760
2.180E-06,0.680
2.190E-06,0.660
2.200E-06,0.580
2.210E-06,0.460
2.220E-06,0.400
2.230E-06,0.180
2.240E-06,0.240
2.250E-06,0.040
2.260E-06,0.180
2.270E-06,0.180
2.280E-06,0.160
2.290E-06,0.200
2.300E-06,0.240
2.310E-06,0.280
2.320E-06,-0.040
2.330E-06,0.180
2.340E-06,-0.080
2.350E-06,0.140
2.360E-06,0.120
2.370E-06,0.120
2.380E-06,0.260
2.390E-06,0.220
2.400E-06,0.340
2.410E-06,0.520
2.420E-06,0.560
2.430E-06,0.660
2.440E-06,0.520
2.450E-06,0.620
2.460E-06,0.600
2.470E-06,0.680
2.480E-06,0.720
2.490E-06,0.660
2.500E-06,0.660
2.510E-06,0.760
2.520E-06,0.920
2.530E-06,0.960
2.540E-06,0.960
2.550E-06,0.860
2.560E-06,0.780
2.570E-06,0.420
2.580E-06,0.140
2.590E-06,0.140
2.600E-06,0.040
2.610E-06,0.160
2.620E-06,0.200
2.630E-06,0.460
2.640E-06,0.400
2.650E-06,0.600
2.660E-06,0.680
2.670E-06,0.780
2.680E-06,0.700
2.690E-06,0.920
2.700E-06,0.920
2.710E-06,1.000
2.720E-06,0.940
2.730E-06,0.920
2.740E-06,0.760
2.750E-06,0.640
2.760E-06,0.520
2.770E-06,0.520
2.780E-06,0.440
2.790E-06,0.420
2.800E-06,0.400
2.810E-06,0.360
2.820E-06,0.320
2.830E-06,0.260
2.840E-06,0.300
2.850E-06,0.280
2.860E-06,0.260
2.870E-06,0.340
2.880E-06,0.360
2.890E-06,0.400
2.900E-06,0.440
2.910E-06,0.500
2.920E-06,0.520
2.930E-06,0.540
2.940E-06,0.620
2.950E-06,0.680
2.960E-06,0.720
2.970E-06,0.740
2.980E-06,0.840
2.990E-06,0.860
3.000E-06,0.840
3.010E-06,0.840
3.020E-06,0.820
3.030E-06,0.780
3.040E-06,0.720
3.050E-06,0.660
3.060E-06,0.600
3.070E-06,0.540
3.080E-06,0.520
3.090E-06,0.500
3.100E-06,0.540
3.110E-06,0.580
3.120E-06,0.580
3.130E-06,0.660
3.140E-06,0.720
3.150E-06,0.760
3.160E-06,0.820
3.170E-06,0.800
3.180E-06,0.760
3.190E-06,0.700
3.200E-06,0.660
3.210E-06,0.580
3.220E-06,0.500
3.230E-06,0.420
3.240E-06,0.340
3.250E-06,0.260
3.260E-06,0.180
3.270E-06,0.100
