mediciones/curva carac 8-28 limpias/-37/WaveData65873.csv

#timebase=2000000(ps)
,#voltbase=500000(mv/100)
#size=4000
-8.350E-06,0.040
-8.340E-06,0.060
-8.330E-06,0.020
-8.320E-06,0.080
-8.310E-06,0.060
-8.300E-06,0.040
-8.290E-06,0.040
-8.280E-06,0.060
-8.270E-06,0.000
-8.260E-06,0.000
-8.250E-06,0.040
-8.240E-06,0.020
-8.230E-06,0.040
-8.220E-06,0.060
-8.210E-06,0.040
-8.200E-06,0.020
-8.190E-06,0.040
-8.180E-06,0.060
-8.170E-06,0.060
-8.160E-06,0.040
-8.150E-06,0.040
-8.140E-06,0.060
-8.130E-06,0.040
-8.120E-06,0.080
-8.110E-06,0.040
-8.100E-06,0.000
-8.090E-06,0.060
-8.080E-06,0.080
-8.070E-06,0.080
-8.060E-06,0.080
-8.050E-06,0.020
-8.040E-06,0.040
-8.030E-06,0.060
-8.020E-06,0.060
-8.010E-06,0.040
-8.000E-06,0.040
-7.990E-06,0.040
-7.980E-06,0.060
-7.970E-06,0.040
-7.960E-06,0.060
-7.950E-06,0.100
-7.940E-06,0.020
-7.930E-06,0.060
-7.920E-06,0.060
-7.910E-06,0.060
-7.900E-06,0.020
-7.890E-06,0.020
-7.880E-06,0.040
-7.870E-06,0.040
-7.860E-06,0.040
-7.850E-06,0.040
-7.840E-06,0.060
-7.830E-06,0.040
-7.820E-06,0.020
-7.810E-06,0.020
-7.800E-06,0.060
-7.790E-06,0.040
-7.780E-06,0.040
-7.770E-06,0.060
-7.760E-06,0.020
-7.750E-06,0.060
-7.740E-06,0.020
-7.730E-06,0.040
-7.720E-06,0.040
-7.710E-06,0.040
-7.700E-06,0.020
-7.690E-06,0.020
-7.680E-06,0.020
-7.670E-06,0.020
-7.660E-06,0.020
-7.650E-06,0.040
-7.640E-06,0.040
-7.630E-06,0.060
-7.620E-06,0.020
-7.610E-06,0.020
-7.600E-06,0.060
-7.590E-06,0.020
-7.580E-06,0.020
-7.570E-06,0.020
-7.560E-06,0.060
-7.550E-06,0.060
-7.540E-06,0.020
-7.530E-06,0.060
-7.520E-06,0.080
-7.510E-06,0.040
-7.500E-06,0.040
-7.490E-06,0.020
-7.480E-06,0.060
-7.470E-06,0.040
-7.460E-06,0.020
-7.450E-06,0.040
-7.440E-06,0.020
-7.430E-06,0.040
-7.420E-06,0.040
-7.410E-06,0.000
-7.400E-06,0.040
-7.390E-06,0.040
-7.380E-06,0.060
-7.370E-06,0.060
-7.360E-06,0.020
-7.350E-06,0.020
-7.340E-06,0.040
-7.330E-06,0.040
-7.320E-06,0.040
-7.310E-06,0.040
-7.300E-06,0.060
-7.290E-06,0.000
-7.280E-06,0.060
-7.270E-06,0.040
-7.260E-06,0.060
-7.250E-06,0.040
-7.240E-06,0.020
-7.230E-06,0.040
-7.220E-06,0.080
-7.210E-06,0.060
-7.200E-06,0.040
-7.190E-06,0.040
-7.180E-06,0.060
-7.170E-06,0.040
-7.160E-06,0.040
-7.150E-06,0.080
-7.140E-06,0.040
-7.130E-06,0.000
-7.120E-06,0.060
-7.110E-06,0.020
-7.100E-06,0.060
-7.090E-06,0.040
-7.080E-06,0.060
-7.070E-06,0.060
-7.060E-06,0.020
-7.050E-06,0.020
-7.040E-06,0.040
-7.030E-06,0.040
-7.020E-06,0.060
-7.010E-06,0.040
-7.000E-06,0.040
-6.990E-06,0.040
-6.980E-06,0.060
-6.970E-06,0.040
-6.960E-06,0.040
-6.950E-06,0.060
-6.940E-06,0.060
-6.930E-06,0.080
-6.920E-06,0.060
-6.910E-06,0.040
-6.900E-06,0.040
-6.890E-06,0.020
-6.880E-06,0.060
-6.870E-06,0.060
-6.860E-06,0.040
-6.850E-06,0.020
-6.840E-06,0.060
-6.830E-06,0.060
-6.820E-06,0.080
-6.810E-06,0.040
-6.800E-06,0.060
-6.790E-06,0.040
-6.780E-06,0.060
-6.770E-06,0.040
-6.760E-06,0.020
-6.750E-06,0.060
-6.740E-06,0.060
-6.730E-06,0.040
-6.720E-06,0.080
-6.710E-06,0.020
-6.700E-06,0.020
-6.690E-06,0.040
-6.680E-06,0.040
-6.670E-06,0.080
-6.660E-06,0.040
-6.650E-06,0.020
-6.640E-06,0.020
-6.630E-06,0.020
-6.620E-06,0.040
-6.610E-06,0.020
-6.600E-06,0.040
-6.590E-06,0.040
-6.580E-06,0.020
-6.570E-06,0.040
-6.560E-06,0.040
-6.550E-06,0.040
-6.540E-06,0.040
-6.530E-06,0.040
-6.520E-06,0.060
-6.510E-06,0.040
-6.500E-06,0.060
-6.490E-06,0.060
-6.480E-06,0.060
-6.470E-06,0.080
-6.460E-06,0.080
-6.450E-06,0.020
-6.440E-06,0.060
-6.430E-06,0.060
-6.420E-06,0.040
-6.410E-06,0.060
-6.400E-06,0.020
-6.390E-06,0.020
-6.380E-06,0.000
-6.370E-06,0.040
-6.360E-06,0.020
-6.350E-06,0.060
-6.340E-06,0.060
-6.330E-06,0.040
-6.320E-06,0.020
-6.310E-06,0.020
-6.300E-06,0.060
-6.290E-06,0.020
-6.280E-06,0.020
-6.270E-06,0.060
-6.260E-06,0.020
-6.250E-06,0.040
-6.240E-06,0.080
-6.230E-06,0.040
-6.220E-06,0.060
-6.210E-06,0.060
-6.200E-06,0.020
-6.190E-06,0.040
-6.180E-06,0.080
-6.170E-06,0.080
-6.160E-06,0.020
-6.150E-06,0.020
-6.140E-06,0.060
-6.130E-06,0.040
-6.120E-06,0.060
-6.110E-06,0.040
-6.100E-06,0.020
-6.090E-06,0.040
-6.080E-06,0.020
-6.070E-06,0.060
-6.060E-06,0.080
-6.050E-06,0.060
-6.040E-06,0.040
-6.030E-06,0.040
-6.020E-06,0.060
-6.010E-06,0.040
-6.000E-06,0.060
-5.990E-06,0.020
-5.980E-06,0.040
-5.970E-06,0.040
-5.960E-06,0.060
-5.950E-06,0.040
-5.940E-06,0.020
-5.930E-06,0.040
-5.920E-06,0.020
-5.910E-06,0.040
-5.900E-06,0.020
-5.890E-06,0.060
-5.880E-06,0.040
-5.870E-06,0.060
-5.860E-06,0.060
-5.850E-06,0.020
-5.840E-06,0.060
-5.830E-06,0.060
-5.820E-06,0.020
-5.810E-06,0.060
-5.800E-06,0.020
-5.790E-06,0.060
-5.780E-06,0.060
-5.770E-06,0.080
-5.760E-06,0.060
-5.750E-06,0.080
-5.740E-06,0.020
-5.730E-06,0.000
-5.720E-06,0.040
-5.710E-06,0.060
-5.700E-06,0.020
-5.690E-06,0.040
-5.680E-06,0.040
-5.670E-06,0.020
-5.660E-06,0.060
-5.650E-06,0.060
-5.640E-06,0.040
-5.630E-06,0.000
-5.620E-06,0.060
-5.610E-06,0.060
-5.600E-06,0.040
-5.590E-06,0.060
-5.580E-06,0.040
-5.570E-06,0.000
-5.560E-06,0.020
-5.550E-06,0.060
-5.540E-06,0.060
-5.530E-06,0.020
-5.520E-06,0.020
-5.510E-06,-0.020
-5.500E-06,-0.320
-5.490E-06,-1.080
-5.480E-06,-2.160
-5.470E-06,-3.080
-5.460E-06,-3.340
-5.450E-06,-3.140
-5.440E-06,-1.540
-5.430E-06,-0.720
-5.420E-06,-0.460
-5.410E-06,2.080
-5.400E-06,2.100
-5.390E-06,2.080
-5.380E-06,2.080
-5.370E-06,2.080
-5.360E-06,2.080
-5.350E-06,2.060
-5.340E-06,2.080
-5.330E-06,1.360
-5.320E-06,0.120
-5.310E-06,-0.020
-5.300E-06,-0.720
-5.290E-06,-0.900
-5.280E-06,-0.740
-5.270E-06,-0.360
-5.260E-06,-0.260
-5.250E-06,-0.360
-5.240E-06,-0.420
-5.230E-06,-0.680
-5.220E-06,-1.100
-5.210E-06,-1.440
-5.200E-06,-1.740
-5.190E-06,-2.000
-5.180E-06,-2.000
-5.170E-06,-1.780
-5.160E-06,-1.500
-5.150E-06,-0.960
-5.140E-06,-0.200
-5.130E-06,0.480
-5.120E-06,1.060
-5.110E-06,1.600
-5.100E-06,1.840
-5.090E-06,1.760
-5.080E-06,1.620
-5.070E-06,1.360
-5.060E-06,0.860
-5.050E-06,0.420
-5.040E-06,-0.020
-5.030E-06,-0.440
-5.020E-06,-0.760
-5.010E-06,-0.920
-5.000E-06,-1.000
-4.990E-06,-1.000
-4.980E-06,-0.900
-4.970E-06,-0.720
-4.960E-06,-0.560
-4.950E-06,-0.400
-4.940E-06,-0.200
-4.930E-06,0.020
-4.920E-06,0.200
-4.910E-06,0.460
-4.900E-06,0.660
-4.890E-06,0.860
-4.880E-06,1.000
-4.870E-06,1.100
-4.860E-06,1.080
-4.850E-06,1.060
-4.840E-06,0.900
-4.830E-06,0.720
-4.820E-06,0.540
-4.810E-06,0.300
-4.800E-06,0.100
-4.790E-06,-0.100
-4.780E-06,-0.280
-4.770E-06,-0.380
-4.760E-06,-0.460
-4.750E-06,-0.560
-4.740E-06,-0.620
-4.730E-06,-0.660
-4.720E-06,-0.700
-4.710E-06,-0.680
-4.700E-06,-0.660
-4.690E-06,-0.500
-4.680E-06,-0.320
-4.670E-06,-0.080
-4.660E-06,0.160
-4.650E-06,0.420
-4.640E-06,0.640
-4.630E-06,0.820
-4.620E-06,0.940
-4.610E-06,0.980
-4.600E-06,0.960
-4.590E-06,0.840
-4.580E-06,0.660
-4.570E-06,0.480
-4.560E-06,0.220
-4.550E-06,-0.060
-4.540E-06,-0.280
-4.530E-06,-0.460
-4.520E-06,-0.580
-4.510E-06,-0.620
-4.500E-06,-0.640
-4.490E-06,-0.520
-4.480E-06,-0.420
-4.470E-06,-0.340
-4.460E-06,-0.260
-4.450E-06,-0.160
-4.440E-06,-0.060
-4.430E-06,0.020
-4.420E-06,0.020
-4.410E-06,0.080
-4.400E-06,0.140
-4.390E-06,0.120
-4.380E-06,0.140
-4.370E-06,0.180
-4.360E-06,0.220
-4.350E-06,0.200
-4.340E-06,0.240
-4.330E-06,0.240
-4.320E-06,0.220
-4.310E-06,0.240
-4.300E-06,0.160
-4.290E-06,0.100
-4.280E-06,0.080
-4.270E-06,0.020
-4.260E-06,-0.040
-4.250E-06,-0.080
-4.240E-06,-0.060
-4.230E-06,-0.040
-4.220E-06,-0.040
-4.210E-06,0.020
-4.200E-06,0.080
-4.190E-06,0.100
-4.180E-06,0.140
-4.170E-06,0.160
-4.160E-06,0.140
-4.150E-06,0.120
-4.140E-06,0.140
-4.130E-06,0.080
-4.120E-06,0.060
-4.110E-06,0.060
-4.100E-06,0.040
-4.090E-06,0.020
-4.080E-06,0.000
-4.070E-06,0.060
-4.060E-06,-0.020
-4.050E-06,0.020
-4.040E-06,0.000
-4.030E-06,0.000
-4.020E-06,-0.040
-4.010E-06,-0.080
-4.000E-06,-0.080
-3.990E-06,-0.080
-3.980E-06,-0.080
-3.970E-06,-0.100
-3.960E-06,-0.100
-3.950E-06,-0.040
-3.940E-06,-0.060
-3.930E-06,-0.020
-3.920E-06,0.000
-3.910E-06,-0.020
-3.900E-06,-0.020
-3.890E-06,0.000
-3.880E-06,-0.020
-3.870E-06,-0.040
-3.860E-06,-0.040
-3.850E-06,-0.020
-3.840E-06,-0.040
-3.830E-06,0.000
-3.820E-06,0.040
-3.810E-06,0.060
-3.800E-06,0.140
-3.790E-06,0.140
-3.780E-06,0.160
-3.770E-06,0.200
-3.760E-06,0.180
-3.750E-06,0.260
-3.740E-06,0.240
-3.730E-06,0.200
-3.720E-06,0.180
-3.710E-06,0.120
-3.700E-06,0.060
-3.690E-06,0.020
-3.680E-06,-0.020
-3.670E-06,-0.080
-3.660E-06,-0.100
-3.650E-06,-0.060
-3.640E-06,0.020
-3.630E-06,0.300
-3.620E-06,0.740
-3.610E-06,1.280
-3.600E-06,1.720
-3.590E-06,1.940
-3.580E-06,1.760
-3.570E-06,1.320
-3.560E-06,0.660
-3.550E-06,-0.100
-3.540E-06,-0.700
-3.530E-06,-1.300
-3.520E-06,-1.620
-3.510E-06,-1.780
-3.500E-06,-1.820
-3.490E-06,-1.660
-3.480E-06,-1.380
-3.470E-06,-0.980
-3.460E-06,-0.640
-3.450E-06,-0.440
-3.440E-06,-0.380
-3.430E-06,-0.320
-3.420E-06,-0.240
-3.410E-06,-0.220
-3.400E-06,-0.040
-3.390E-06,-0.040
-3.380E-06,0.100
-3.370E-06,0.180
-3.360E-06,0.320
-3.350E-06,0.500
-3.340E-06,0.720
-3.330E-06,0.920
-3.320E-06,1.080
-3.310E-06,1.080
-3.300E-06,0.980
-3.290E-06,0.780
-3.280E-06,0.560
-3.270E-06,0.280
-3.260E-06,0.000
-3.250E-06,-0.240
-3.240E-06,-0.500
-3.230E-06,-0.700
-3.220E-06,-0.780
-3.210E-06,-0.800
-3.200E-06,-0.680
-3.190E-06,-0.500
-3.180E-06,-0.220
-3.170E-06,0.080
-3.160E-06,0.360
-3.150E-06,0.620
-3.140E-06,0.760
-3.130E-06,0.840
-3.120E-06,0.820
-3.110E-06,0.740
-3.100E-06,0.580
-3.090E-06,0.420
-3.080E-06,0.220
-3.070E-06,-0.020
-3.060E-06,-0.180
-3.050E-06,-0.320
-3.040E-06,-0.440
-3.030E-06,-0.500
-3.020E-06,-0.540
-3.010E-06,-0.520
-3.000E-06,-0.460
-2.990E-06,-0.420
-2.980E-06,-0.340
-2.970E-06,-0.280
-2.960E-06,-0.260
-2.950E-06,-0.240
-2.940E-06,-0.260
-2.930E-06,-0.240
-2.920E-06,-0.280
-2.910E-06,-0.180
-2.900E-06,-0.100
-2.890E-06,0.020
-2.880E-06,0.160
-2.870E-06,0.260
-2.860E-06,0.400
-2.850E-06,0.460
-2.840E-06,0.540
-2.830E-06,0.500
-2.820E-06,0.420
-2.810E-06,0.320
-2.800E-06,0.100
-2.790E-06,-0.140
-2.780E-06,-0.300
-2.770E-06,-0.480
-2.760E-06,-0.620
-2.750E-06,-0.640
-2.740E-06,-0.640
-2.730E-06,-0.600
-2.720E-06,-0.540
-2.710E-06,-0.420
-2.700E-06,-0.260
-2.690E-06,-0.160
-2.680E-06,-0.020
-2.670E-06,0.120
-2.660E-06,0.220
-2.650E-06,0.240
-2.640E-06,0.240
-2.630E-06,0.240
-2.620E-06,0.200
-2.610E-06,0.200
-2.600E-06,0.120
-2.590E-06,0.080
-2.580E-06,0.060
-2.570E-06,0.080
-2.560E-06,0.080
-2.550E-06,0.060
-2.540E-06,0.100
-2.530E-06,0.180
-2.520E-06,0.220
-2.510E-06,0.220
-2.500E-06,0.220
-2.490E-06,0.200
-2.480E-06,0.160
-2.470E-06,0.120
-2.460E-06,0.080
-2.450E-06,0.040
-2.440E-06,0.000
-2.430E-06,0.020
-2.420E-06,0.000
-2.410E-06,0.020
-2.400E-06,0.040
-2.390E-06,0.080
-2.380E-06,0.080
-2.370E-06,0.080
-2.360E-06,0.080
-2.350E-06,0.080
-2.340E-06,0.020
-2.330E-06,0.000
-2.320E-06,-0.120
-2.310E-06,-0.180
-2.300E-06,-0.200
-2.290E-06,-0.220
-2.280E-06,-0.220
-2.270E-06,-0.260
-2.260E-06,-0.280
-2.250E-06,-0.320
-2.240E-06,-0.300
-2.230E-06,-0.260
-2.220E-06,-0.200
-2.210E-06,-0.140
-2.200E-06,-0.060
-2.190E-06,-0.020
-2.180E-06,0.000
-2.170E-06,0.020
-2.160E-06,0.000
-2.150E-06,0.020
-2.140E-06,0.000
-2.130E-06,0.020
-2.120E-06,0.000
-2.110E-06,0.000
-2.100E-06,0.000
-2.090E-06,-0.020
-2.080E-06,-0.020
-2.070E-06,0.060
-2.060E-06,0.060
-2.050E-06,0.120
-2.040E-06,0.160
-2.030E-06,0.120
-2.020E-06,0.140
-2.010E-06,0.100
-2.000E-06,0.120
-1.990E-06,0.060
-1.980E-06,0.020
-1.970E-06,0.000
-1.960E-06,-0.040
-1.950E-06,-0.060
-1.940E-06,-0.100
-1.930E-06,-0.120
-1.920E-06,-0.120
-1.910E-06,-0.120
-1.900E-06,-0.100
-1.890E-06,-0.140
-1.880E-06,-0.140
-1.870E-06,-0.120
-1.860E-06,-0.020
-1.850E-06,-0.080
-1.840E-06,0.000
-1.830E-06,0.080
-1.820E-06,-0.140
-1.810E-06,0.000
-1.800E-06,0.000
-1.790E-06,-0.120
-1.780E-06,-0.020
-1.770E-06,-0.020
-1.760E-06,-0.060
-1.750E-06,0.060
-1.740E-06,0.080
-1.730E-06,0.260
-1.720E-06,0.160
-1.710E-06,0.260
-1.700E-06,0.080
-1.690E-06,0.040
-1.680E-06,-0.020
-1.670E-06,-0.040
-1.660E-06,-0.040
-1.650E-06,-0.060
-1.640E-06,-0.140
-1.630E-06,-0.260
-1.620E-06,-0.200
-1.610E-06,-0.300
-1.600E-06,-0.260
-1.590E-06,-0.200
-1.580E-06,-0.140
-1.570E-06,-0.080
-1.560E-06,-0.060
-1.550E-06,0.000
-1.540E-06,0.040
-1.530E-06,0.060
-1.520E-06,0.100
-1.510E-06,0.160
-1.500E-06,0.160
-1.490E-06,0.140
-1.480E-06,0.240
-1.470E-06,0.200
-1.460E-06,0.260
-1.450E-06,0.260
-1.440E-06,0.280
-1.430E-06,0.200
-1.420E-06,0.160
-1.410E-06,0.100
-1.400E-06,0.080
-1.390E-06,0.060
-1.380E-06,0.080
-1.370E-06,0.000
-1.360E-06,-0.060
-1.350E-06,-0.100
-1.340E-06,-0.200
-1.330E-06,-0.280
-1.320E-06,-0.300
-1.310E-06,-0.300
-1.300E-06,-0.240
-1.290E-06,-0.220
-1.280E-06,-0.160
-1.270E-06,-0.140
-1.260E-06,-0.120
-1.250E-06,-0.080
-1.240E-06,-0.100
-1.230E-06,-0.060
-1.220E-06,-0.020
-1.210E-06,-0.020
-1.200E-06,-0.040
-1.190E-06,-0.040
-1.180E-06,-0.080
-1.170E-06,-0.140
-1.160E-06,-0.140
-1.150E-06,-0.180
-1.140E-06,-0.180
-1.130E-06,-0.220
-1.120E-06,-0.260
-1.110E-06,-0.280
-1.100E-06,-0.280
-1.090E-06,-0.280
-1.080E-06,-0.260
-1.070E-06,-0.220
-1.060E-06,-0.200
-1.050E-06,-0.200
-1.040E-06,-0.200
-1.030E-06,-0.240
-1.020E-06,-0.260
-1.010E-06,-0.240
-1.000E-06,-0.240
-9.900E-07,-0.260
-9.800E-07,-0.260
-9.700E-07,-0.260
-9.600E-07,-0.240
-9.500E-07,-0.260
-9.400E-07,-0.280
-9.300E-07,-0.240
-9.200E-07,-0.260
-9.100E-07,-0.260
-9.000E-07,-0.300
-8.900E-07,-0.280
-8.800E-07,-0.280
-8.700E-07,-0.300
-8.600E-07,-0.380
-8.500E-07,-0.380
-8.400E-07,-0.420
-8.300E-07,-0.360
-8.200E-07,-0.420
-8.100E-07,-0.420
-8.000E-07,-0.420
-7.900E-07,-0.400
-7.800E-07,-0.340
-7.700E-07,-0.320
-7.600E-07,-0.260
-7.500E-07,-0.260
-7.400E-07,-0.220
-7.300E-07,-0.200
-7.200E-07,-0.140
-7.100E-07,-0.120
-7.000E-07,-0.140
-6.900E-07,-0.160
-6.800E-07,-0.180
-6.700E-07,-0.140
-6.600E-07,-0.080
-6.500E-07,-0.080
-6.400E-07,-0.120
-6.300E-07,-0.080
-6.200E-07,-0.140
-6.100E-07,-0.120
-6.000E-07,-0.100
-5.900E-07,-0.080
-5.800E-07,-0.080
-5.700E-07,-0.080
-5.600E-07,-0.040
-5.500E-07,-0.100
-5.400E-07,-0.060
-5.300E-07,-0.060
-5.200E-07,-0.040
-5.100E-07,-0.040
-5.000E-07,0.000
-4.900E-07,0.000
-4.800E-07,-0.020
-4.700E-07,0.080
-4.600E-07,-0.040
-4.500E-07,-0.040
-4.400E-07,-0.180
-4.300E-07,-0.180
-4.200E-07,-0.180
-4.100E-07,-0.220
-4.000E-07,-0.160
-3.900E-07,-0.180
-3.800E-07,-0.100
-3.700E-07,-0.180
-3.600E-07,-0.120
-3.500E-07,-0.040
-3.400E-07,-0.100
-3.300E-07,-0.100
-3.200E-07,-0.280
-3.100E-07,-0.420
-3.000E-07,-0.560
-2.900E-07,-0.560
-2.800E-07,-0.580
-2.700E-07,0.220
-2.600E-07,-0.840
-2.500E-07,-0.520
-2.400E-07,-1.020
-2.300E-07,0.680
-2.200E-07,-0.540
-2.100E-07,2.080
-2.000E-07,1.320
-1.900E-07,0.520
-1.800E-07,0.160
-1.700E-07,-2.020
-1.600E-07,-2.160
-1.500E-07,-2.260
-1.400E-07,-2.620
-1.300E-07,-0.820
-1.200E-07,-1.180
-1.100E-07,-0.440
-1.000E-07,-0.660
-9.000E-08,-0.700
-8.000E-08,-0.400
-7.000E-08,-0.540
-6.000E-08,-0.400
-5.000E-08,0.180
-4.000E-08,0.180
-3.000E-08,0.520
-2.000E-08,0.060
-1.000E-08,-0.100
0.000E+00,-0.080
1.000E-08,-0.420
2.000E-08,-0.060
3.000E-08,-0.280
4.000E-08,-0.240
5.000E-08,-0.220
6.000E-08,-0.360
7.000E-08,-0.220
8.000E-08,-0.300
9.000E-08,-0.360
1.000E-07,-0.380
1.100E-07,-0.460
1.200E-07,-0.440
1.300E-07,-0.380
1.400E-07,-0.340
1.500E-07,-0.260
1.600E-07,-0.380
1.700E-07,-0.680
1.800E-07,-0.720
1.900E-07,-0.720
2.000E-07,-0.320
2.100E-07,-0.360
2.200E-07,1.820
2.300E-07,1.500
2.400E-07,2.100
2.500E-07,0.660
2.600E-07,0.500
2.700E-07,-2.780
2.800E-07,-2.500
2.900E-07,-3.340
3.000E-07,-1.640
3.100E-07,-2.060
3.200E-07,-0.840
3.300E-07,-1.920
3.400E-07,-1.500
3.500E-07,-2.400
3.600E-07,-2.020
3.700E-07,-1.720
3.800E-07,-1.040
3.900E-07,-0.220
4.000E-07,0.080
4.100E-07,0.080
4.200E-07,0.000
4.300E-07,-0.340
4.400E-07,-0.320
4.500E-07,-0.340
4.600E-07,-0.340
4.700E-07,-0.120
4.800E-07,-0.120
4.900E-07,0.020
5.000E-07,-0.100
5.100E-07,-0.180
5.200E-07,-0.360
5.300E-07,-0.480
5.400E-07,-0.460
5.500E-07,-0.580
5.600E-07,-0.740
5.700E-07,-0.860
5.800E-07,-1.000
5.900E-07,-1.120
6.000E-07,-1.180
6.100E-07,-1.220
6.200E-07,-1.320
6.300E-07,-1.060
6.400E-07,-1.060
6.500E-07,-0.660
6.600E-07,-0.760
6.700E-07,-0.600
6.800E-07,-0.740
6.900E-07,-0.700
7.000E-07,-0.860
7.100E-07,-0.740
7.200E-07,-0.760
7.300E-07,-0.840
7.400E-07,-0.820
7.500E-07,-1.040
7.600E-07,-1.080
7.700E-07,-1.220
7.800E-07,-1.440
7.900E-07,-1.280
8.000E-07,-0.400
8.100E-07,0.580
8.200E-07,1.300
8.300E-07,1.360
8.400E-07,1.040
8.500E-07,1.100
8.600E-07,0.000
8.700E-07,-0.060
8.800E-07,-1.360
8.900E-07,-1.620
9.000E-07,-2.320
9.100E-07,-2.900
9.200E-07,-3.160
9.300E-07,-3.340
9.400E-07,-3.340
9.500E-07,-3.360
9.600E-07,-3.260
9.700E-07,-3.000
9.800E-07,-2.480
9.900E-07,-2.240
1.000E-06,-1.700
1.010E-06,-1.280
1.020E-06,-0.700
1.030E-06,-0.080
1.040E-06,0.440
1.050E-06,0.660
1.060E-06,0.660
1.070E-06,0.080
1.080E-06,-0.160
1.090E-06,-0.160
1.100E-06,0.060
1.110E-06,0.500
1.120E-06,0.080
1.130E-06,-0.160
1.140E-06,-0.200
1.150E-06,-0.800
1.160E-06,-1.300
1.170E-06,-2.260
1.180E-06,-2.380
1.190E-06,-2.040
1.200E-06,-1.140
1.210E-06,-0.440
1.220E-06,-0.380
1.230E-06,-0.100
1.240E-06,-0.400
1.250E-06,-0.920
1.260E-06,-1.620
1.270E-06,-2.340
1.280E-06,-2.940
1.290E-06,-2.840
1.300E-06,-3.000
1.310E-06,-2.440
1.320E-06,-2.320
1.330E-06,-2.040
1.340E-06,-2.060
1.350E-06,-2.460
1.360E-06,-2.540
1.370E-06,-2.500
1.380E-06,-2.320
1.390E-06,-1.900
1.400E-06,-1.620
1.410E-06,-1.180
1.420E-06,-1.100
1.430E-06,-0.940
1.440E-06,-0.880
1.450E-06,-0.640
1.460E-06,-0.260
1.470E-06,0.220
1.480E-06,0.700
1.490E-06,1.040
1.500E-06,1.040
1.510E-06,1.340
1.520E-06,0.860
1.530E-06,0.400
1.540E-06,0.320
1.550E-06,-0.200
1.560E-06,-0.120
1.570E-06,0.600
1.580E-06,0.840
1.590E-06,1.600
1.600E-06,1.440
1.610E-06,-1.000
1.620E-06,-0.920
1.630E-06,-2.980
1.640E-06,-3.340
1.650E-06,-3.340
1.660E-06,-3.340
1.670E-06,-3.320
1.680E-06,-3.320
1.690E-06,-3.340
1.700E-06,-2.620
1.710E-06,-2.960
1.720E-06,-3.200
1.730E-06,-1.940
1.740E-06,-2.740
1.750E-06,-1.740
1.760E-06,-1.480
1.770E-06,-1.200
1.780E-06,-0.700
1.790E-06,-0.960
1.800E-06,-1.140
1.810E-06,-1.140
1.820E-06,-0.960
1.830E-06,-0.460
1.840E-06,-0.020
1.850E-06,0.680
1.860E-06,1.180
1.870E-06,1.560
1.880E-06,1.540
1.890E-06,1.520
1.900E-06,0.640
1.910E-06,0.200
1.920E-06,-0.680
1.930E-06,-1.320
1.940E-06,-2.220
1.950E-06,-2.720
1.960E-06,-2.760
1.970E-06,-2.380
1.980E-06,-2.060
1.990E-06,-1.640
2.000E-06,-1.340
2.010E-06,-1.220
2.020E-06,-1.260
2.030E-06,-1.380
2.040E-06,-1.540
2.050E-06,-1.760
2.060E-06,-2.020
2.070E-06,-2.400
2.080E-06,-2.580
2.090E-06,-2.820
2.100E-06,-2.900
2.110E-06,-2.960
2.120E-06,-3.140
2.130E-06,-3.240
2.140E-06,-3.360
2.150E-06,-3.360
2.160E-06,-3.340
2.170E-06,-3.340
2.180E-06,-3.320
2.190E-06,-3.120
2.200E-06,-2.880
2.210E-06,-2.560
2.220E-06,-2.180
2.230E-06,-1.960
2.240E-06,-1.720
2.250E-06,-1.520
2.260E-06,-1.220
2.270E-06,-1.000
2.280E-06,-0.660
2.290E-06,-0.380
2.300E-06,-0.060
2.310E-06,0.240
2.320E-06,0.340
2.330E-06,0.400
2.340E-06,0.380
2.350E-06,0.300
2.360E-06,0.140
2.370E-06,-0.080
2.380E-06,-0.280
2.390E-06,-0.520
2.400E-06,-0.500
2.410E-06,-0.700
2.420E-06,-0.680
2.430E-06,-0.800
2.440E-06,-0.780
2.450E-06,-0.840
2.460E-06,-0.840
2.470E-06,-1.020
2.480E-06,-1.080
2.490E-06,-1.040
2.500E-06,-0.940
2.510E-06,-0.920
2.520E-06,-0.820
2.530E-06,-0.920
2.540E-06,-0.820
2.550E-06,-0.980
2.560E-06,-0.840
2.570E-06,-0.880
2.580E-06,-0.880
2.590E-06,-0.900
2.600E-06,-1.020
2.610E-06,-0.960
2.620E-06,-1.020
2.630E-06,-0.940
2.640E-06,-0.980
2.650E-06,-0.920
2.660E-06,-1.040
2.670E-06,-1.240
2.680E-06,-1.360
2.690E-06,-1.340
2.700E-06,-1.360
2.710E-06,-1.240
2.720E-06,-1.020
2.730E-06,-0.940
2.740E-06,-0.800
2.750E-06,-0.760
2.760E-06,-0.600
2.770E-06,-0.540
2.780E-06,-0.520
2.790E-06,-0.380
2.800E-06,-0.280
2.810E-06,-0.160
2.820E-06,-0.060
2.830E-06,-0.020
2.840E-06,0.060
2.850E-06,0.040
2.860E-06,0.000
2.870E-06,-0.060
2.880E-06,0.040
2.890E-06,0.000
2.900E-06,0.020
2.910E-06,0.000
2.920E-06,0.120
2.930E-06,0.140
2.940E-06,0.220
2.950E-06,0.200
2.960E-06,0.200
2.970E-06,0.240
2.980E-06,0.160
2.990E-06,0.200
3.000E-06,0.220
3.010E-06,0.260
3.020E-06,0.280
3.030E-06,0.320
3.040E-06,0.300
3.050E-06,0.340
3.060E-06,0.340
3.070E-06,0.360
3.080E-06,0.360
3.090E-06,0.400
3.100E-06,0.400
3.110E-06,0.380
3.120E-06,0.380
3.130E-06,0.280
3.140E-06,0.260
3.150E-06,0.220
3.160E-06,0.160
3.170E-06,0.160
3.180E-06,0.060
3.190E-06,0.080
3.200E-06,0.000
3.210E-06,0.000
3.220E-06,-0.140
3.230E-06,-0.020
