mediciones/curva carac 8-28 limpias/-28/WaveData65795.csv

#timebase=2000000(ps)
,#voltbase=500000(mv/100)
#size=4000
-8.350E-06,0.060
-8.340E-06,0.060
-8.330E-06,0.020
-8.320E-06,0.040
-8.310E-06,0.040
-8.300E-06,0.060
-8.290E-06,-0.020
-8.280E-06,0.020
-8.270E-06,0.060
-8.260E-06,0.020
-8.250E-06,0.040
-8.240E-06,0.060
-8.230E-06,0.040
-8.220E-06,0.040
-8.210E-06,0.040
-8.200E-06,0.060
-8.190E-06,0.040
-8.180E-06,0.020
-8.170E-06,0.060
-8.160E-06,0.060
-8.150E-06,0.020
-8.140E-06,0.020
-8.130E-06,0.040
-8.120E-06,0.040
-8.110E-06,0.060
-8.100E-06,0.060
-8.090E-06,0.040
-8.080E-06,0.040
-8.070E-06,0.020
-8.060E-06,0.040
-8.050E-06,0.040
-8.040E-06,0.060
-8.030E-06,0.020
-8.020E-06,0.040
-8.010E-06,0.060
-8.000E-06,0.040
-7.990E-06,0.020
-7.980E-06,0.060
-7.970E-06,0.020
-7.960E-06,0.020
-7.950E-06,0.040
-7.940E-06,0.020
-7.930E-06,0.020
-7.920E-06,0.020
-7.910E-06,0.000
-7.900E-06,0.040
-7.890E-06,0.000
-7.880E-06,0.040
-7.870E-06,0.080
-7.860E-06,0.020
-7.850E-06,0.040
-7.840E-06,0.040
-7.830E-06,0.060
-7.820E-06,0.020
-7.810E-06,0.000
-7.800E-06,0.060
-7.790E-06,0.040
-7.780E-06,0.040
-7.770E-06,0.020
-7.760E-06,0.040
-7.750E-06,0.020
-7.740E-06,0.060
-7.730E-06,0.040
-7.720E-06,0.060
-7.710E-06,0.080
-7.700E-06,0.040
-7.690E-06,0.000
-7.680E-06,0.020
-7.670E-06,0.040
-7.660E-06,0.020
-7.650E-06,0.020
-7.640E-06,0.040
-7.630E-06,0.060
-7.620E-06,0.060
-7.610E-06,0.020
-7.600E-06,0.020
-7.590E-06,0.040
-7.580E-06,0.040
-7.570E-06,0.040
-7.560E-06,0.020
-7.550E-06,0.040
-7.540E-06,0.020
-7.530E-06,0.020
-7.520E-06,0.040
-7.510E-06,0.040
-7.500E-06,0.040
-7.490E-06,0.060
-7.480E-06,0.020
-7.470E-06,0.040
-7.460E-06,0.060
-7.450E-06,0.060
-7.440E-06,0.020
-7.430E-06,0.020
-7.420E-06,0.060
-7.410E-06,0.040
-7.400E-06,0.060
-7.390E-06,0.020
-7.380E-06,0.020
-7.370E-06,0.040
-7.360E-06,0.020
-7.350E-06,0.020
-7.340E-06,0.080
-7.330E-06,0.040
-7.320E-06,0.040
-7.310E-06,0.020
-7.300E-06,0.040
-7.290E-06,0.040
-7.280E-06,0.060
-7.270E-06,0.040
-7.260E-06,0.020
-7.250E-06,0.020
-7.240E-06,0.040
-7.230E-06,0.060
-7.220E-06,0.020
-7.210E-06,0.040
-7.200E-06,0.060
-7.190E-06,0.040
-7.180E-06,0.020
-7.170E-06,0.040
-7.160E-06,0.060
-7.150E-06,0.040
-7.140E-06,0.060
-7.130E-06,0.020
-7.120E-06,0.020
-7.110E-06,0.020
-7.100E-06,0.040
-7.090E-06,0.000
-7.080E-06,0.040
-7.070E-06,0.080
-7.060E-06,0.000
-7.050E-06,0.040
-7.040E-06,0.040
-7.030E-06,0.080
-7.020E-06,0.020
-7.010E-06,0.020
-7.000E-06,0.020
-6.990E-06,0.040
-6.980E-06,0.040
-6.970E-06,0.040
-6.960E-06,0.060
-6.950E-06,0.060
-6.940E-06,0.020
-6.930E-06,0.060
-6.920E-06,0.040
-6.910E-06,0.020
-6.900E-06,0.060
-6.890E-06,0.040
-6.880E-06,0.080
-6.870E-06,0.020
-6.860E-06,0.040
-6.850E-06,0.060
-6.840E-06,0.060
-6.830E-06,0.000
-6.820E-06,0.040
-6.810E-06,0.020
-6.800E-06,0.020
-6.790E-06,0.020
-6.780E-06,0.020
-6.770E-06,0.040
-6.760E-06,0.040
-6.750E-06,0.020
-6.740E-06,0.080
-6.730E-06,0.040
-6.720E-06,0.060
-6.710E-06,0.080
-6.700E-06,0.020
-6.690E-06,0.020
-6.680E-06,0.060
-6.670E-06,0.040
-6.660E-06,0.020
-6.650E-06,0.040
-6.640E-06,0.040
-6.630E-06,0.020
-6.620E-06,0.040
-6.610E-06,0.040
-6.600E-06,0.080
-6.590E-06,0.040
-6.580E-06,0.040
-6.570E-06,0.080
-6.560E-06,0.040
-6.550E-06,0.060
-6.540E-06,0.080
-6.530E-06,0.000
-6.520E-06,0.000
-6.510E-06,0.060
-6.500E-06,0.060
-6.490E-06,0.040
-6.480E-06,0.040
-6.470E-06,0.020
-6.460E-06,0.020
-6.450E-06,0.040
-6.440E-06,0.040
-6.430E-06,0.040
-6.420E-06,0.060
-6.410E-06,0.080
-6.400E-06,0.060
-6.390E-06,0.060
-6.380E-06,0.020
-6.370E-06,0.040
-6.360E-06,0.080
-6.350E-06,0.060
-6.340E-06,0.020
-6.330E-06,0.040
-6.320E-06,0.040
-6.310E-06,0.040
-6.300E-06,0.060
-6.290E-06,0.040
-6.280E-06,0.020
-6.270E-06,0.040
-6.260E-06,0.040
-6.250E-06,0.060
-6.240E-06,0.040
-6.230E-06,0.020
-6.220E-06,0.000
-6.210E-06,0.020
-6.200E-06,0.020
-6.190E-06,0.060
-6.180E-06,0.040
-6.170E-06,0.060
-6.160E-06,0.020
-6.150E-06,0.020
-6.140E-06,0.020
-6.130E-06,0.060
-6.120E-06,0.060
-6.110E-06,0.040
-6.100E-06,0.060
-6.090E-06,0.060
-6.080E-06,0.040
-6.070E-06,0.020
-6.060E-06,0.040
-6.050E-06,0.040
-6.040E-06,0.020
-6.030E-06,0.040
-6.020E-06,0.040
-6.010E-06,0.060
-6.000E-06,0.060
-5.990E-06,0.060
-5.980E-06,0.060
-5.970E-06,0.040
-5.960E-06,0.040
-5.950E-06,0.060
-5.940E-06,0.020
-5.930E-06,0.020
-5.920E-06,0.020
-5.910E-06,0.040
-5.900E-06,0.020
-5.890E-06,0.040
-5.880E-06,0.040
-5.870E-06,0.020
-5.860E-06,0.020
-5.850E-06,0.020
-5.840E-06,0.060
-5.830E-06,0.080
-5.820E-06,0.060
-5.810E-06,0.040
-5.800E-06,0.020
-5.790E-06,0.040
-5.780E-06,0.040
-5.770E-06,0.020
-5.760E-06,0.040
-5.750E-06,0.040
-5.740E-06,0.040
-5.730E-06,0.020
-5.720E-06,0.040
-5.710E-06,0.020
-5.700E-06,0.060
-5.690E-06,0.060
-5.680E-06,0.040
-5.670E-06,0.000
-5.660E-06,0.040
-5.650E-06,0.080
-5.640E-06,0.020
-5.630E-06,0.020
-5.620E-06,0.020
-5.610E-06,0.060
-5.600E-06,0.040
-5.590E-06,0.040
-5.580E-06,0.040
-5.570E-06,0.040
-5.560E-06,0.040
-5.550E-06,0.020
-5.540E-06,0.040
-5.530E-06,0.060
-5.520E-06,0.020
-5.510E-06,0.040
-5.500E-06,0.040
-5.490E-06,0.060
-5.480E-06,0.060
-5.470E-06,0.060
-5.460E-06,0.020
-5.450E-06,0.020
-5.440E-06,0.020
-5.430E-06,0.060
-5.420E-06,0.040
-5.410E-06,0.040
-5.400E-06,0.060
-5.390E-06,0.040
-5.380E-06,0.060
-5.370E-06,0.040
-5.360E-06,0.060
-5.350E-06,0.040
-5.340E-06,0.080
-5.330E-06,0.040
-5.320E-06,0.000
-5.310E-06,0.020
-5.300E-06,0.060
-5.290E-06,0.060
-5.280E-06,0.080
-5.270E-06,0.020
-5.260E-06,0.040
-5.250E-06,0.060
-5.240E-06,0.040
-5.230E-06,0.080
-5.220E-06,0.040
-5.210E-06,0.020
-5.200E-06,0.000
-5.190E-06,0.020
-5.180E-06,0.040
-5.170E-06,0.020
-5.160E-06,0.040
-5.150E-06,0.060
-5.140E-06,0.060
-5.130E-06,0.020
-5.120E-06,0.020
-5.110E-06,0.040
-5.100E-06,0.020
-5.090E-06,0.020
-5.080E-06,0.040
-5.070E-06,0.040
-5.060E-06,0.020
-5.050E-06,0.020
-5.040E-06,0.040
-5.030E-06,0.020
-5.020E-06,0.040
-5.010E-06,0.040
-5.000E-06,0.060
-4.990E-06,0.020
-4.980E-06,0.040
-4.970E-06,0.080
-4.960E-06,0.020
-4.950E-06,0.020
-4.940E-06,0.040
-4.930E-06,0.040
-4.920E-06,0.040
-4.910E-06,0.040
-4.900E-06,0.020
-4.890E-06,0.040
-4.880E-06,0.020
-4.870E-06,0.040
-4.860E-06,0.040
-4.850E-06,0.060
-4.840E-06,0.020
-4.830E-06,0.040
-4.820E-06,0.060
-4.810E-06,0.060
-4.800E-06,0.060
-4.790E-06,0.080
-4.780E-06,0.060
-4.770E-06,0.040
-4.760E-06,0.040
-4.750E-06,0.040
-4.740E-06,0.040
-4.730E-06,0.020
-4.720E-06,0.020
-4.710E-06,-0.020
-4.700E-06,0.020
-4.690E-06,0.060
-4.680E-06,0.080
-4.670E-06,0.060
-4.660E-06,0.020
-4.650E-06,-0.120
-4.640E-06,-0.560
-4.630E-06,-1.440
-4.620E-06,-2.540
-4.610E-06,-3.340
-4.600E-06,-3.360
-4.590E-06,-3.260
-4.580E-06,-2.420
-4.570E-06,-0.360
-4.560E-06,0.660
-4.550E-06,1.840
-4.540E-06,2.080
-4.530E-06,2.080
-4.520E-06,2.080
-4.510E-06,2.100
-4.500E-06,2.080
-4.490E-06,2.080
-4.480E-06,2.000
-4.470E-06,1.460
-4.460E-06,0.240
-4.450E-06,-0.420
-4.440E-06,-0.760
-4.430E-06,-0.860
-4.420E-06,-0.660
-4.410E-06,-0.480
-4.400E-06,-0.120
-4.390E-06,-0.080
-4.380E-06,-0.360
-4.370E-06,-0.660
-4.360E-06,-1.140
-4.350E-06,-1.700
-4.340E-06,-2.060
-4.330E-06,-2.240
-4.320E-06,-2.240
-4.310E-06,-1.980
-4.300E-06,-1.520
-4.290E-06,-0.860
-4.280E-06,-0.220
-4.270E-06,0.480
-4.260E-06,1.180
-4.250E-06,1.600
-4.240E-06,1.860
-4.230E-06,1.920
-4.220E-06,1.700
-4.210E-06,1.320
-4.200E-06,0.840
-4.190E-06,0.340
-4.180E-06,-0.200
-4.170E-06,-0.620
-4.160E-06,-0.860
-4.150E-06,-0.920
-4.140E-06,-1.020
-4.130E-06,-1.020
-4.120E-06,-0.860
-4.110E-06,-0.700
-4.100E-06,-0.600
-4.090E-06,-0.360
-4.080E-06,-0.220
-4.070E-06,-0.040
-4.060E-06,0.260
-4.050E-06,0.380
-4.040E-06,0.680
-4.030E-06,0.840
-4.020E-06,0.960
-4.010E-06,1.080
-4.000E-06,1.000
-3.990E-06,1.000
-3.980E-06,0.880
-3.970E-06,0.720
-3.960E-06,0.560
-3.950E-06,0.380
-3.940E-06,0.160
-3.930E-06,-0.020
-3.920E-06,-0.140
-3.910E-06,-0.280
-3.900E-06,-0.420
-3.890E-06,-0.480
-3.880E-06,-0.540
-3.870E-06,-0.680
-3.860E-06,-0.740
-3.850E-06,-0.580
-3.840E-06,-0.600
-3.830E-06,-0.660
-3.820E-06,-0.280
-3.810E-06,-0.100
-3.800E-06,0.000
-3.790E-06,0.460
-3.780E-06,0.680
-3.770E-06,0.780
-3.760E-06,0.920
-3.750E-06,1.020
-3.740E-06,0.980
-3.730E-06,0.760
-3.720E-06,0.680
-3.710E-06,0.420
-3.700E-06,0.140
-3.690E-06,-0.120
-3.680E-06,-0.300
-3.670E-06,-0.460
-3.660E-06,-0.620
-3.650E-06,-0.600
-3.640E-06,-0.560
-3.630E-06,-0.540
-3.620E-06,-0.440
-3.610E-06,-0.300
-3.600E-06,-0.180
-3.590E-06,-0.120
-3.580E-06,-0.020
-3.570E-06,-0.020
-3.560E-06,0.040
-3.550E-06,0.060
-3.540E-06,0.100
-3.530E-06,0.020
-3.520E-06,0.180
-3.510E-06,0.180
-3.500E-06,0.200
-3.490E-06,0.260
-3.480E-06,0.280
-3.470E-06,0.300
-3.460E-06,0.260
-3.450E-06,0.260
-3.440E-06,0.240
-3.430E-06,0.160
-3.420E-06,0.100
-3.410E-06,0.080
-3.400E-06,0.000
-3.390E-06,-0.080
-3.380E-06,-0.060
-3.370E-06,-0.060
-3.360E-06,-0.080
-3.350E-06,-0.020
-3.340E-06,-0.020
-3.330E-06,0.060
-3.320E-06,0.080
-3.310E-06,0.120
-3.300E-06,0.100
-3.290E-06,0.080
-3.280E-06,0.080
-3.270E-06,0.080
-3.260E-06,0.080
-3.250E-06,0.080
-3.240E-06,0.080
-3.230E-06,0.060
-3.220E-06,0.000
-3.210E-06,0.040
-3.200E-06,0.080
-3.190E-06,0.100
-3.180E-06,0.140
-3.170E-06,0.040
-3.160E-06,0.000
-3.150E-06,-0.100
-3.140E-06,-0.160
-3.130E-06,-0.300
-3.120E-06,-0.160
-3.110E-06,-0.160
-3.100E-06,-0.140
-3.090E-06,-0.100
-3.080E-06,-0.120
-3.070E-06,-0.060
-3.060E-06,-0.100
-3.050E-06,-0.100
-3.040E-06,-0.060
-3.030E-06,-0.060
-3.020E-06,-0.040
-3.010E-06,-0.060
-3.000E-06,-0.020
-2.990E-06,-0.080
-2.980E-06,-0.040
-2.970E-06,-0.040
-2.960E-06,0.020
-2.950E-06,0.080
-2.940E-06,0.080
-2.930E-06,0.160
-2.920E-06,0.180
-2.910E-06,0.220
-2.900E-06,0.260
-2.890E-06,0.260
-2.880E-06,0.280
-2.870E-06,0.240
-2.860E-06,0.200
-2.850E-06,0.180
-2.840E-06,0.160
-2.830E-06,0.080
-2.820E-06,-0.080
-2.810E-06,-0.160
-2.800E-06,-0.200
-2.790E-06,-0.320
-2.780E-06,-0.240
-2.770E-06,0.080
-2.760E-06,0.560
-2.750E-06,1.120
-2.740E-06,1.640
-2.730E-06,1.880
-2.720E-06,1.700
-2.710E-06,1.300
-2.700E-06,0.660
-2.690E-06,-0.080
-2.680E-06,-0.700
-2.670E-06,-1.220
-2.660E-06,-1.560
-2.650E-06,-1.740
-2.640E-06,-1.800
-2.630E-06,-1.680
-2.620E-06,-1.400
-2.610E-06,-1.080
-2.600E-06,-0.740
-2.590E-06,-0.600
-2.580E-06,-0.500
-2.570E-06,-0.460
-2.560E-06,-0.360
-2.550E-06,-0.340
-2.540E-06,-0.240
-2.530E-06,-0.040
-2.520E-06,-0.240
-2.510E-06,0.140
-2.500E-06,0.220
-2.490E-06,0.220
-2.480E-06,0.800
-2.470E-06,0.840
-2.460E-06,1.060
-2.450E-06,1.100
-2.440E-06,0.800
-2.430E-06,0.700
-2.420E-06,0.320
-2.410E-06,0.080
-2.400E-06,-0.180
-2.390E-06,-0.520
-2.380E-06,-0.680
-2.370E-06,-0.840
-2.360E-06,-0.920
-2.350E-06,-0.880
-2.340E-06,-0.780
-2.330E-06,-0.540
-2.320E-06,-0.360
-2.310E-06,-0.180
-2.300E-06,0.040
-2.290E-06,0.200
-2.280E-06,0.800
-2.270E-06,0.460
-2.260E-06,0.980
-2.250E-06,0.420
-2.240E-06,0.540
-2.230E-06,0.360
-2.220E-06,0.200
-2.210E-06,0.040
-2.200E-06,-0.180
-2.190E-06,-0.260
-2.180E-06,-0.380
-2.170E-06,-0.520
-2.160E-06,-0.540
-2.150E-06,-0.640
-2.140E-06,-0.580
-2.130E-06,-0.580
-2.120E-06,-0.560
-2.110E-06,-0.580
-2.100E-06,-0.400
-2.090E-06,-0.620
-2.080E-06,-0.340
-2.070E-06,-0.620
-2.060E-06,-0.260
-2.050E-06,-0.500
-2.040E-06,-0.100
-2.030E-06,-0.260
-2.020E-06,0.060
-2.010E-06,0.060
-2.000E-06,0.200
-1.990E-06,0.280
-1.980E-06,0.260
-1.970E-06,0.240
-1.960E-06,0.140
-1.950E-06,-0.020
-1.940E-06,-0.100
-1.930E-06,-0.260
-1.920E-06,-0.460
-1.910E-06,-0.440
-1.900E-06,-0.760
-1.890E-06,-0.520
-1.880E-06,-0.760
-1.870E-06,-0.460
-1.860E-06,-0.680
-1.850E-06,-0.120
-1.840E-06,-0.420
-1.830E-06,-0.100
-1.820E-06,-0.140
-1.810E-06,-0.080
-1.800E-06,0.000
-1.790E-06,-0.080
-1.780E-06,-0.120
-1.770E-06,-0.180
-1.760E-06,-0.220
-1.750E-06,-0.300
-1.740E-06,-0.300
-1.730E-06,-0.420
-1.720E-06,-0.380
-1.710E-06,-0.600
-1.700E-06,-0.540
-1.690E-06,-0.640
-1.680E-06,-0.360
-1.670E-06,-0.460
-1.660E-06,-0.020
-1.650E-06,0.100
-1.640E-06,0.280
-1.630E-06,0.260
-1.620E-06,0.120
-1.610E-06,-0.060
-1.600E-06,-0.320
-1.590E-06,-0.520
-1.580E-06,-0.820
-1.570E-06,-0.900
-1.560E-06,-1.160
-1.550E-06,-0.700
-1.540E-06,-1.240
-1.530E-06,-0.820
-1.520E-06,-1.200
-1.510E-06,-0.980
-1.500E-06,-0.960
-1.490E-06,-0.720
-1.480E-06,-0.760
-1.470E-06,-0.620
-1.460E-06,-0.620
-1.450E-06,-0.580
-1.440E-06,-0.600
-1.430E-06,-0.440
-1.420E-06,-0.560
-1.410E-06,-0.280
-1.400E-06,-0.300
-1.390E-06,-0.260
-1.380E-06,-0.180
-1.370E-06,-0.140
-1.360E-06,-0.060
-1.350E-06,-0.200
-1.340E-06,-0.120
-1.330E-06,0.020
-1.320E-06,-0.400
-1.310E-06,-0.060
-1.300E-06,-0.260
-1.290E-06,-0.240
-1.280E-06,-0.440
-1.270E-06,-0.660
-1.260E-06,-0.600
-1.250E-06,-0.680
-1.240E-06,-0.640
-1.230E-06,-0.580
-1.220E-06,-0.300
-1.210E-06,-0.380
-1.200E-06,0.060
-1.190E-06,-0.400
-1.180E-06,0.100
-1.170E-06,-0.340
-1.160E-06,0.180
-1.150E-06,-0.240
-1.140E-06,-0.140
-1.130E-06,-0.220
-1.120E-06,-0.440
-1.110E-06,-0.420
-1.100E-06,-0.820
-1.090E-06,-0.980
-1.080E-06,-1.100
-1.070E-06,-1.180
-1.060E-06,-1.080
-1.050E-06,-1.160
-1.040E-06,-1.140
-1.030E-06,-1.100
-1.020E-06,-0.980
-1.010E-06,-0.960
-1.000E-06,-0.820
-9.900E-07,-0.720
-9.800E-07,-0.900
-9.700E-07,-0.600
-9.600E-07,-0.820
-9.500E-07,-0.860
-9.400E-07,-0.800
-9.300E-07,-0.920
-9.200E-07,-0.980
-9.100E-07,-1.020
-9.000E-07,-1.140
-8.900E-07,-1.080
-8.800E-07,-0.840
-8.700E-07,-1.040
-8.600E-07,-0.620
-8.500E-07,-0.960
-8.400E-07,-0.940
-8.300E-07,-0.880
-8.200E-07,-1.100
-8.100E-07,-1.020
-8.000E-07,-0.920
-7.900E-07,-1.000
-7.800E-07,-1.040
-7.700E-07,-1.000
-7.600E-07,-1.060
-7.500E-07,-1.020
-7.400E-07,-1.080
-7.300E-07,-0.620
-7.200E-07,-0.860
-7.100E-07,-0.620
-7.000E-07,-0.680
-6.900E-07,-0.300
-6.800E-07,-0.600
-6.700E-07,-0.520
-6.600E-07,-0.540
-6.500E-07,-0.620
-6.400E-07,-0.640
-6.300E-07,-0.760
-6.200E-07,-0.840
-6.100E-07,-0.860
-6.000E-07,-1.000
-5.900E-07,-1.100
-5.800E-07,-1.080
-5.700E-07,-1.100
-5.600E-07,-0.880
-5.500E-07,-1.380
-5.400E-07,-1.060
-5.300E-07,-1.380
-5.200E-07,-0.920
-5.100E-07,-1.360
-5.000E-07,-1.060
-4.900E-07,-1.160
-4.800E-07,-1.240
-4.700E-07,-1.180
-4.600E-07,-1.220
-4.500E-07,-1.160
-4.400E-07,-1.100
-4.300E-07,-1.320
-4.200E-07,-1.180
-4.100E-07,-1.240
-4.000E-07,-1.080
-3.900E-07,-1.020
-3.800E-07,-1.080
-3.700E-07,-1.020
-3.600E-07,-1.060
-3.500E-07,-1.040
-3.400E-07,-1.040
-3.300E-07,-1.340
-3.200E-07,-1.400
-3.100E-07,-1.160
-3.000E-07,-1.140
-2.900E-07,-0.740
-2.800E-07,-1.260
-2.700E-07,-0.940
-2.600E-07,-0.940
-2.500E-07,-1.000
-2.400E-07,-1.120
-2.300E-07,-2.380
-2.200E-07,-2.660
-2.100E-07,-3.340
-2.000E-07,-3.320
-1.900E-07,-3.320
-1.800E-07,-3.320
-1.700E-07,-3.320
-1.600E-07,-3.340
-1.500E-07,-3.340
-1.400E-07,-3.340
-1.300E-07,-3.340
-1.200E-07,-3.340
-1.100E-07,-3.360
-1.000E-07,-3.360
-9.000E-08,-3.360
-8.000E-08,-3.360
-7.000E-08,-3.360
-6.000E-08,-3.340
-5.000E-08,-3.340
-4.000E-08,-3.340
-3.000E-08,-3.340
-2.000E-08,-3.340
-1.000E-08,-3.340
0.000E+00,-3.340
1.000E-08,-3.360
2.000E-08,-3.360
3.000E-08,-3.340
4.000E-08,-3.340
5.000E-08,-3.340
6.000E-08,-3.340
7.000E-08,-3.340
8.000E-08,-3.340
9.000E-08,-3.340
1.000E-07,-3.340
1.100E-07,-3.340
1.200E-07,-3.340
1.300E-07,-3.340
1.400E-07,-3.320
1.500E-07,-3.340
1.600E-07,-3.340
1.700E-07,-3.360
1.800E-07,-3.340
1.900E-07,-3.340
2.000E-07,-3.320
2.100E-07,-3.120
2.200E-07,-2.780
2.300E-07,-2.460
2.400E-07,-2.220
2.500E-07,-2.120
2.600E-07,-2.040
2.700E-07,-2.020
2.800E-07,-2.040
2.900E-07,-2.100
3.000E-07,-2.180
3.100E-07,-2.140
3.200E-07,-2.080
3.300E-07,-1.940
3.400E-07,-1.700
3.500E-07,-1.480
3.600E-07,-1.180
3.700E-07,-0.840
3.800E-07,-0.520
3.900E-07,-0.620
4.000E-07,-0.240
4.100E-07,-0.260
4.200E-07,-0.100
4.300E-07,-0.020
4.400E-07,-0.140
4.500E-07,-0.120
4.600E-07,-0.260
4.700E-07,-0.340
4.800E-07,-0.460
4.900E-07,-0.620
5.000E-07,-0.860
5.100E-07,-1.020
5.200E-07,-1.260
5.300E-07,-1.260
5.400E-07,-1.440
5.500E-07,-1.520
5.600E-07,-1.660
5.700E-07,-1.780
5.800E-07,-1.800
5.900E-07,-1.900
6.000E-07,-1.920
6.100E-07,-1.860
6.200E-07,-1.800
6.300E-07,-1.660
6.400E-07,-1.560
6.500E-07,-1.460
6.600E-07,-1.340
6.700E-07,-1.100
6.800E-07,-1.040
6.900E-07,-1.000
7.000E-07,-0.860
7.100E-07,-0.940
7.200E-07,-0.760
7.300E-07,-0.800
7.400E-07,-0.920
7.500E-07,-0.700
7.600E-07,-0.900
7.700E-07,-0.840
7.800E-07,-0.780
7.900E-07,-0.720
8.000E-07,-0.620
8.100E-07,-0.660
8.200E-07,-0.460
8.300E-07,-0.440
8.400E-07,-0.560
8.500E-07,-0.420
8.600E-07,-0.520
8.700E-07,-0.500
8.800E-07,-0.480
8.900E-07,-0.500
9.000E-07,-0.640
9.100E-07,-0.580
9.200E-07,-0.320
9.300E-07,-0.320
9.400E-07,-0.200
9.500E-07,-0.320
9.600E-07,0.040
9.700E-07,-0.120
9.800E-07,-0.060
9.900E-07,0.100
1.000E-06,-0.020
1.010E-06,0.140
1.020E-06,-0.060
1.030E-06,0.060
1.040E-06,0.120
1.050E-06,-0.080
1.060E-06,0.120
1.070E-06,0.000
1.080E-06,-0.020
1.090E-06,0.040
1.100E-06,0.000
1.110E-06,0.100
1.120E-06,0.260
1.130E-06,0.160
1.140E-06,0.100
1.150E-06,-0.160
1.160E-06,0.080
1.170E-06,-0.180
1.180E-06,0.000
1.190E-06,-0.060
1.200E-06,-0.040
1.210E-06,-0.040
1.220E-06,-0.160
1.230E-06,0.000
1.240E-06,-0.100
1.250E-06,-0.060
1.260E-06,0.080
1.270E-06,0.040
1.280E-06,0.100
1.290E-06,0.100
1.300E-06,0.100
1.310E-06,0.260
1.320E-06,0.180
1.330E-06,0.320
1.340E-06,0.280
1.350E-06,0.300
1.360E-06,0.240
1.370E-06,0.440
1.380E-06,0.200
1.390E-06,0.240
1.400E-06,0.460
1.410E-06,0.200
1.420E-06,0.360
1.430E-06,0.280
1.440E-06,0.320
1.450E-06,0.400
1.460E-06,0.280
1.470E-06,0.440
1.480E-06,0.380
1.490E-06,0.340
1.500E-06,0.500
1.510E-06,0.380
1.520E-06,0.520
1.530E-06,0.460
1.540E-06,0.520
1.550E-06,0.560
1.560E-06,0.660
1.570E-06,0.660
1.580E-06,0.720
1.590E-06,0.740
1.600E-06,0.260
1.610E-06,0.500
1.620E-06,0.120
1.630E-06,0.260
1.640E-06,0.480
1.650E-06,0.080
1.660E-06,0.320
1.670E-06,0.140
1.680E-06,0.200
1.690E-06,0.260
1.700E-06,0.100
1.710E-06,0.280
1.720E-06,0.160
1.730E-06,0.160
1.740E-06,0.300
1.750E-06,0.180
1.760E-06,0.360
1.770E-06,0.240
1.780E-06,0.360
1.790E-06,0.460
1.800E-06,0.380
1.810E-06,0.400
1.820E-06,0.260
1.830E-06,0.520
1.840E-06,0.180
1.850E-06,0.460
1.860E-06,0.100
1.870E-06,0.320
1.880E-06,0.320
1.890E-06,0.180
1.900E-06,0.460
1.910E-06,0.180
1.920E-06,0.380
1.930E-06,0.320
1.940E-06,0.420
1.950E-06,0.480
1.960E-06,0.420
1.970E-06,0.500
1.980E-06,0.440
1.990E-06,0.500
2.000E-06,0.460
2.010E-06,0.480
2.020E-06,0.480
2.030E-06,0.420
2.040E-06,0.480
2.050E-06,0.440
2.060E-06,0.600
2.070E-06,0.580
2.080E-06,0.560
2.090E-06,0.420
2.100E-06,0.560
2.110E-06,0.280
2.120E-06,0.400
2.130E-06,0.060
2.140E-06,0.240
2.150E-06,0.220
2.160E-06,0.100
2.170E-06,0.300
2.180E-06,0.160
2.190E-06,0.300
2.200E-06,0.280
2.210E-06,0.420
2.220E-06,0.400
2.230E-06,0.420
2.240E-06,0.480
2.250E-06,0.460
2.260E-06,0.480
2.270E-06,0.440
2.280E-06,0.460
2.290E-06,0.460
2.300E-06,0.460
2.310E-06,0.480
2.320E-06,0.400
2.330E-06,0.420
2.340E-06,0.440
2.350E-06,0.420
2.360E-06,0.400
2.370E-06,0.360
2.380E-06,0.380
2.390E-06,0.360
2.400E-06,0.360
2.410E-06,0.360
2.420E-06,0.360
2.430E-06,0.360
2.440E-06,0.320
2.450E-06,0.360
2.460E-06,0.340
2.470E-06,0.320
2.480E-06,0.320
2.490E-06,0.300
2.500E-06,0.340
2.510E-06,0.340
2.520E-06,0.320
2.530E-06,0.340
2.540E-06,0.340
2.550E-06,0.340
2.560E-06,0.340
2.570E-06,0.380
2.580E-06,0.460
2.590E-06,0.340
2.600E-06,0.320
2.610E-06,0.320
2.620E-06,0.500
2.630E-06,0.320
2.640E-06,0.300
2.650E-06,0.460
2.660E-06,0.260
2.670E-06,0.420
2.680E-06,0.320
2.690E-06,0.520
2.700E-06,0.480
2.710E-06,0.540
2.720E-06,0.600
2.730E-06,0.740
2.740E-06,0.740
2.750E-06,0.880
2.760E-06,1.000
2.770E-06,1.080
2.780E-06,1.180
2.790E-06,1.220
2.800E-06,1.320
2.810E-06,1.380
2.820E-06,1.520
2.830E-06,1.640
2.840E-06,1.680
2.850E-06,1.700
2.860E-06,1.820
2.870E-06,1.800
2.880E-06,1.900
2.890E-06,1.840
2.900E-06,2.020
2.910E-06,1.980
2.920E-06,2.080
2.930E-06,2.100
2.940E-06,2.080
2.950E-06,2.080
2.960E-06,2.080
2.970E-06,2.100
2.980E-06,2.080
2.990E-06,2.060
3.000E-06,2.080
3.010E-06,2.100
3.020E-06,2.080
3.030E-06,2.100
3.040E-06,2.080
3.050E-06,2.060
3.060E-06,1.980
3.070E-06,1.900
3.080E-06,1.820
3.090E-06,1.760
3.100E-06,1.620
3.110E-06,1.520
3.120E-06,1.420
3.130E-06,1.200
3.140E-06,1.120
3.150E-06,1.040
3.160E-06,0.980
3.170E-06,0.940
3.180E-06,0.900
3.190E-06,0.900
3.200E-06,0.840
3.210E-06,0.820
3.220E-06,0.840
3.230E-06,0.840
3.240E-06,0.820
3.250E-06,0.840
3.260E-06,0.820
3.270E-06,0.840
3.280E-06,0.780
3.290E-06,0.800
3.300E-06,0.780
