mediciones/8-28/48/WaveData65491.csv

#timebase=2000000(ps)
,#voltbase=500000(mv/100)
#size=4000
-8.350E-06,0.080
-8.340E-06,0.060
-8.330E-06,0.060
-8.320E-06,0.020
-8.310E-06,0.060
-8.300E-06,0.020
-8.290E-06,0.060
-8.280E-06,0.060
-8.270E-06,0.080
-8.260E-06,0.080
-8.250E-06,0.060
-8.240E-06,0.060
-8.230E-06,0.040
-8.220E-06,0.040
-8.210E-06,0.100
-8.200E-06,0.080
-8.190E-06,0.080
-8.180E-06,0.040
-8.170E-06,0.040
-8.160E-06,0.060
-8.150E-06,0.080
-8.140E-06,0.040
-8.130E-06,0.040
-8.120E-06,0.040
-8.110E-06,0.040
-8.100E-06,0.080
-8.090E-06,0.060
-8.080E-06,0.080
-8.070E-06,0.040
-8.060E-06,0.040
-8.050E-06,0.080
-8.040E-06,0.040
-8.030E-06,0.080
-8.020E-06,0.060
-8.010E-06,0.080
-8.000E-06,0.060
-7.990E-06,0.040
-7.980E-06,0.060
-7.970E-06,0.060
-7.960E-06,0.060
-7.950E-06,0.080
-7.940E-06,0.040
-7.930E-06,0.080
-7.920E-06,0.060
-7.910E-06,0.080
-7.900E-06,0.080
-7.890E-06,0.060
-7.880E-06,0.060
-7.870E-06,0.040
-7.860E-06,0.040
-7.850E-06,0.060
-7.840E-06,0.060
-7.830E-06,0.080
-7.820E-06,0.040
-7.810E-06,0.040
-7.800E-06,0.100
-7.790E-06,0.040
-7.780E-06,0.080
-7.770E-06,0.060
-7.760E-06,0.040
-7.750E-06,0.020
-7.740E-06,0.080
-7.730E-06,0.060
-7.720E-06,0.040
-7.710E-06,0.060
-7.700E-06,0.060
-7.690E-06,0.080
-7.680E-06,0.060
-7.670E-06,0.060
-7.660E-06,0.060
-7.650E-06,0.060
-7.640E-06,0.080
-7.630E-06,0.040
-7.620E-06,0.060
-7.610E-06,0.080
-7.600E-06,0.060
-7.590E-06,0.040
-7.580E-06,0.060
-7.570E-06,0.040
-7.560E-06,0.080
-7.550E-06,0.080
-7.540E-06,0.060
-7.530E-06,0.040
-7.520E-06,0.040
-7.510E-06,0.060
-7.500E-06,0.060
-7.490E-06,0.040
-7.480E-06,0.040
-7.470E-06,0.080
-7.460E-06,0.080
-7.450E-06,0.060
-7.440E-06,0.040
-7.430E-06,0.040
-7.420E-06,0.080
-7.410E-06,0.060
-7.400E-06,0.060
-7.390E-06,0.080
-7.380E-06,0.060
-7.370E-06,0.080
-7.360E-06,0.080
-7.350E-06,0.040
-7.340E-06,0.040
-7.330E-06,0.080
-7.320E-06,0.060
-7.310E-06,0.040
-7.300E-06,0.040
-7.290E-06,0.060
-7.280E-06,0.080
-7.270E-06,0.040
-7.260E-06,0.060
-7.250E-06,0.080
-7.240E-06,0.060
-7.230E-06,0.060
-7.220E-06,0.080
-7.210E-06,0.040
-7.200E-06,0.040
-7.190E-06,0.080
-7.180E-06,0.060
-7.170E-06,0.080
-7.160E-06,0.040
-7.150E-06,0.020
-7.140E-06,0.080
-7.130E-06,0.020
-7.120E-06,0.040
-7.110E-06,0.080
-7.100E-06,0.060
-7.090E-06,0.060
-7.080E-06,0.040
-7.070E-06,0.040
-7.060E-06,0.040
-7.050E-06,0.060
-7.040E-06,0.060
-7.030E-06,0.040
-7.020E-06,0.040
-7.010E-06,0.080
-7.000E-06,0.020
-6.990E-06,0.060
-6.980E-06,0.040
-6.970E-06,0.040
-6.960E-06,0.040
-6.950E-06,0.060
-6.940E-06,0.080
-6.930E-06,0.060
-6.920E-06,0.060
-6.910E-06,0.060
-6.900E-06,0.040
-6.890E-06,0.040
-6.880E-06,0.040
-6.870E-06,0.060
-6.860E-06,0.060
-6.850E-06,0.060
-6.840E-06,0.040
-6.830E-06,0.080
-6.820E-06,0.020
-6.810E-06,0.080
-6.800E-06,0.080
-6.790E-06,0.080
-6.780E-06,0.080
-6.770E-06,0.060
-6.760E-06,0.060
-6.750E-06,0.060
-6.740E-06,0.020
-6.730E-06,0.080
-6.720E-06,0.060
-6.710E-06,0.060
-6.700E-06,0.080
-6.690E-06,0.060
-6.680E-06,0.040
-6.670E-06,0.040
-6.660E-06,0.040
-6.650E-06,0.060
-6.640E-06,0.040
-6.630E-06,0.080
-6.620E-06,0.020
-6.610E-06,0.020
-6.600E-06,0.080
-6.590E-06,0.080
-6.580E-06,0.040
-6.570E-06,0.060
-6.560E-06,0.040
-6.550E-06,0.060
-6.540E-06,0.060
-6.530E-06,0.080
-6.520E-06,0.060
-6.510E-06,0.060
-6.500E-06,0.040
-6.490E-06,0.040
-6.480E-06,0.060
-6.470E-06,0.060
-6.460E-06,0.040
-6.450E-06,0.060
-6.440E-06,0.040
-6.430E-06,0.040
-6.420E-06,0.060
-6.410E-06,0.040
-6.400E-06,0.040
-6.390E-06,0.060
-6.380E-06,0.100
-6.370E-06,0.040
-6.360E-06,0.040
-6.350E-06,0.060
-6.340E-06,0.060
-6.330E-06,0.060
-6.320E-06,0.080
-6.310E-06,0.020
-6.300E-06,0.060
-6.290E-06,0.080
-6.280E-06,0.080
-6.270E-06,0.060
-6.260E-06,0.060
-6.250E-06,0.060
-6.240E-06,0.060
-6.230E-06,0.040
-6.220E-06,0.060
-6.210E-06,0.060
-6.200E-06,0.060
-6.190E-06,0.040
-6.180E-06,0.080
-6.170E-06,0.020
-6.160E-06,0.020
-6.150E-06,0.060
-6.140E-06,0.060
-6.130E-06,0.060
-6.120E-06,0.080
-6.110E-06,0.080
-6.100E-06,0.040
-6.090E-06,0.060
-6.080E-06,0.040
-6.070E-06,0.080
-6.060E-06,0.040
-6.050E-06,0.060
-6.040E-06,0.080
-6.030E-06,0.060
-6.020E-06,0.020
-6.010E-06,0.060
-6.000E-06,0.040
-5.990E-06,0.080
-5.980E-06,0.040
-5.970E-06,0.040
-5.960E-06,0.080
-5.950E-06,0.060
-5.940E-06,0.080
-5.930E-06,0.040
-5.920E-06,0.060
-5.910E-06,0.060
-5.900E-06,0.020
-5.890E-06,0.040
-5.880E-06,0.080
-5.870E-06,0.060
-5.860E-06,0.040
-5.850E-06,0.080
-5.840E-06,0.060
-5.830E-06,0.060
-5.820E-06,0.060
-5.810E-06,0.040
-5.800E-06,0.040
-5.790E-06,0.060
-5.780E-06,0.080
-5.770E-06,0.040
-5.760E-06,0.060
-5.750E-06,0.060
-5.740E-06,0.060
-5.730E-06,0.080
-5.720E-06,0.060
-5.710E-06,0.020
-5.700E-06,0.080
-5.690E-06,0.060
-5.680E-06,0.040
-5.670E-06,0.060
-5.660E-06,0.060
-5.650E-06,0.040
-5.640E-06,0.080
-5.630E-06,0.060
-5.620E-06,0.040
-5.610E-06,0.060
-5.600E-06,0.060
-5.590E-06,0.060
-5.580E-06,0.060
-5.570E-06,0.080
-5.560E-06,0.060
-5.550E-06,0.020
-5.540E-06,0.060
-5.530E-06,0.040
-5.520E-06,0.060
-5.510E-06,0.060
-5.500E-06,0.040
-5.490E-06,0.040
-5.480E-06,0.100
-5.470E-06,0.060
-5.460E-06,0.060
-5.450E-06,0.040
-5.440E-06,0.060
-5.430E-06,0.020
-5.420E-06,0.040
-5.410E-06,0.080
-5.400E-06,0.020
-5.390E-06,0.060
-5.380E-06,0.060
-5.370E-06,0.060
-5.360E-06,0.040
-5.350E-06,0.020
-5.340E-06,0.080
-5.330E-06,0.040
-5.320E-06,0.040
-5.310E-06,0.080
-5.300E-06,0.040
-5.290E-06,0.060
-5.280E-06,0.080
-5.270E-06,0.080
-5.260E-06,0.060
-5.250E-06,0.080
-5.240E-06,0.060
-5.230E-06,0.080
-5.220E-06,0.040
-5.210E-06,0.060
-5.200E-06,0.060
-5.190E-06,0.080
-5.180E-06,0.060
-5.170E-06,0.080
-5.160E-06,0.040
-5.150E-06,0.020
-5.140E-06,0.060
-5.130E-06,0.040
-5.120E-06,0.080
-5.110E-06,0.040
-5.100E-06,0.060
-5.090E-06,0.080
-5.080E-06,0.060
-5.070E-06,0.040
-5.060E-06,0.060
-5.050E-06,0.060
-5.040E-06,0.040
-5.030E-06,0.040
-5.020E-06,0.060
-5.010E-06,0.060
-5.000E-06,0.080
-4.990E-06,0.060
-4.980E-06,0.080
-4.970E-06,0.100
-4.960E-06,0.060
-4.950E-06,0.080
-4.940E-06,0.080
-4.930E-06,0.040
-4.920E-06,0.040
-4.910E-06,0.060
-4.900E-06,0.080
-4.890E-06,0.040
-4.880E-06,0.060
-4.870E-06,0.060
-4.860E-06,0.060
-4.850E-06,0.040
-4.840E-06,0.080
-4.830E-06,0.040
-4.820E-06,0.020
-4.810E-06,0.060
-4.800E-06,0.060
-4.790E-06,0.060
-4.780E-06,0.060
-4.770E-06,0.060
-4.760E-06,0.060
-4.750E-06,0.040
-4.740E-06,0.060
-4.730E-06,0.040
-4.720E-06,0.080
-4.710E-06,0.040
-4.700E-06,0.040
-4.690E-06,0.060
-4.680E-06,0.060
-4.670E-06,0.040
-4.660E-06,0.040
-4.650E-06,0.020
-4.640E-06,0.040
-4.630E-06,0.040
-4.620E-06,0.040
-4.610E-06,0.040
-4.600E-06,0.080
-4.590E-06,0.040
-4.580E-06,0.080
-4.570E-06,0.060
-4.560E-06,0.060
-4.550E-06,0.060
-4.540E-06,0.080
-4.530E-06,0.060
-4.520E-06,0.060
-4.510E-06,0.080
-4.500E-06,0.080
-4.490E-06,0.060
-4.480E-06,0.060
-4.470E-06,0.080
-4.460E-06,0.020
-4.450E-06,0.040
-4.440E-06,0.060
-4.430E-06,0.040
-4.420E-06,0.040
-4.410E-06,0.060
-4.400E-06,0.060
-4.390E-06,0.060
-4.380E-06,0.060
-4.370E-06,0.080
-4.360E-06,0.040
-4.350E-06,0.060
-4.340E-06,0.080
-4.330E-06,0.040
-4.320E-06,0.080
-4.310E-06,0.080
-4.300E-06,0.060
-4.290E-06,0.020
-4.280E-06,0.060
-4.270E-06,0.060
-4.260E-06,0.060
-4.250E-06,0.080
-4.240E-06,0.080
-4.230E-06,0.060
-4.220E-06,0.080
-4.210E-06,0.060
-4.200E-06,0.060
-4.190E-06,0.060
-4.180E-06,0.040
-4.170E-06,0.060
-4.160E-06,0.060
-4.150E-06,0.100
-4.140E-06,0.060
-4.130E-06,0.080
-4.120E-06,0.060
-4.110E-06,0.040
-4.100E-06,0.060
-4.090E-06,0.060
-4.080E-06,0.060
-4.070E-06,0.040
-4.060E-06,0.020
-4.050E-06,0.060
-4.040E-06,0.040
-4.030E-06,0.060
-4.020E-06,0.080
-4.010E-06,0.080
-4.000E-06,0.020
-3.990E-06,0.080
-3.980E-06,0.080
-3.970E-06,0.060
-3.960E-06,0.080
-3.950E-06,0.040
-3.940E-06,0.060
-3.930E-06,0.040
-3.920E-06,0.080
-3.910E-06,0.040
-3.900E-06,0.080
-3.890E-06,0.080
-3.880E-06,0.060
-3.870E-06,0.060
-3.860E-06,0.060
-3.850E-06,0.060
-3.840E-06,0.080
-3.830E-06,0.100
-3.820E-06,0.020
-3.810E-06,0.060
-3.800E-06,0.080
-3.790E-06,0.100
-3.780E-06,0.040
-3.770E-06,0.060
-3.760E-06,0.020
-3.750E-06,0.060
-3.740E-06,0.080
-3.730E-06,0.080
-3.720E-06,0.060
-3.710E-06,0.040
-3.700E-06,0.080
-3.690E-06,0.040
-3.680E-06,0.060
-3.670E-06,0.120
-3.660E-06,0.080
-3.650E-06,0.040
-3.640E-06,0.040
-3.630E-06,0.060
-3.620E-06,0.060
-3.610E-06,0.060
-3.600E-06,0.040
-3.590E-06,0.040
-3.580E-06,0.040
-3.570E-06,0.080
-3.560E-06,0.040
-3.550E-06,0.060
-3.540E-06,0.060
-3.530E-06,0.040
-3.520E-06,0.040
-3.510E-06,0.080
-3.500E-06,0.020
-3.490E-06,0.060
-3.480E-06,0.080
-3.470E-06,0.060
-3.460E-06,0.040
-3.450E-06,0.080
-3.440E-06,0.040
-3.430E-06,0.040
-3.420E-06,0.080
-3.410E-06,0.060
-3.400E-06,0.060
-3.390E-06,0.080
-3.380E-06,0.060
-3.370E-06,0.060
-3.360E-06,0.060
-3.350E-06,0.040
-3.340E-06,0.060
-3.330E-06,0.040
-3.320E-06,0.040
-3.310E-06,0.060
-3.300E-06,0.080
-3.290E-06,0.040
-3.280E-06,0.100
-3.270E-06,0.040
-3.260E-06,0.060
-3.250E-06,0.060
-3.240E-06,0.060
-3.230E-06,0.060
-3.220E-06,0.040
-3.210E-06,0.040
-3.200E-06,0.080
-3.190E-06,0.060
-3.180E-06,0.060
-3.170E-06,0.060
-3.160E-06,0.040
-3.150E-06,0.060
-3.140E-06,0.060
-3.130E-06,0.060
-3.120E-06,0.060
-3.110E-06,0.060
-3.100E-06,0.040
-3.090E-06,0.080
-3.080E-06,0.040
-3.070E-06,0.060
-3.060E-06,0.040
-3.050E-06,0.080
-3.040E-06,0.040
-3.030E-06,0.060
-3.020E-06,0.080
-3.010E-06,0.060
-3.000E-06,0.060
-2.990E-06,0.100
-2.980E-06,0.040
-2.970E-06,0.080
-2.960E-06,0.060
-2.950E-06,0.080
-2.940E-06,0.080
-2.930E-06,0.080
-2.920E-06,0.040
-2.910E-06,0.080
-2.900E-06,0.100
-2.890E-06,0.060
-2.880E-06,0.040
-2.870E-06,0.060
-2.860E-06,0.040
-2.850E-06,0.060
-2.840E-06,0.040
-2.830E-06,0.040
-2.820E-06,0.020
-2.810E-06,0.060
-2.800E-06,0.080
-2.790E-06,0.080
-2.780E-06,0.060
-2.770E-06,0.020
-2.760E-06,0.060
-2.750E-06,0.080
-2.740E-06,0.040
-2.730E-06,0.040
-2.720E-06,0.060
-2.710E-06,0.020
-2.700E-06,0.040
-2.690E-06,0.040
-2.680E-06,0.060
-2.670E-06,0.060
-2.660E-06,0.060
-2.650E-06,0.040
-2.640E-06,0.060
-2.630E-06,0.060
-2.620E-06,0.060
-2.610E-06,0.060
-2.600E-06,0.080
-2.590E-06,0.040
-2.580E-06,0.060
-2.570E-06,0.080
-2.560E-06,0.040
-2.550E-06,0.040
-2.540E-06,0.080
-2.530E-06,0.060
-2.520E-06,0.020
-2.510E-06,0.080
-2.500E-06,0.040
-2.490E-06,0.060
-2.480E-06,0.040
-2.470E-06,0.060
-2.460E-06,0.060
-2.450E-06,0.060
-2.440E-06,0.040
-2.430E-06,0.020
-2.420E-06,0.080
-2.410E-06,0.040
-2.400E-06,0.060
-2.390E-06,0.080
-2.380E-06,0.020
-2.370E-06,0.040
-2.360E-06,0.080
-2.350E-06,0.080
-2.340E-06,0.040
-2.330E-06,0.040
-2.320E-06,0.060
-2.310E-06,0.060
-2.300E-06,0.040
-2.290E-06,0.060
-2.280E-06,0.080
-2.270E-06,0.080
-2.260E-06,0.080
-2.250E-06,0.040
-2.240E-06,0.040
-2.230E-06,0.060
-2.220E-06,0.060
-2.210E-06,0.040
-2.200E-06,0.060
-2.190E-06,0.060
-2.180E-06,0.060
-2.170E-06,0.060
-2.160E-06,0.060
-2.150E-06,0.080
-2.140E-06,0.060
-2.130E-06,0.060
-2.120E-06,0.080
-2.110E-06,0.060
-2.100E-06,0.060
-2.090E-06,0.060
-2.080E-06,0.080
-2.070E-06,0.080
-2.060E-06,0.040
-2.050E-06,0.040
-2.040E-06,0.080
-2.030E-06,0.060
-2.020E-06,0.060
-2.010E-06,0.040
-2.000E-06,0.060
-1.990E-06,0.040
-1.980E-06,0.080
-1.970E-06,0.060
-1.960E-06,0.060
-1.950E-06,0.080
-1.940E-06,0.060
-1.930E-06,0.080
-1.920E-06,0.060
-1.910E-06,0.060
-1.900E-06,0.080
-1.890E-06,0.060
-1.880E-06,0.060
-1.870E-06,0.060
-1.860E-06,0.060
-1.850E-06,0.040
-1.840E-06,0.040
-1.830E-06,0.060
-1.820E-06,0.080
-1.810E-06,0.060
-1.800E-06,0.040
-1.790E-06,0.060
-1.780E-06,0.080
-1.770E-06,0.040
-1.760E-06,0.120
-1.750E-06,0.080
-1.740E-06,0.060
-1.730E-06,0.060
-1.720E-06,0.040
-1.710E-06,0.040
-1.700E-06,0.060
-1.690E-06,0.040
-1.680E-06,0.060
-1.670E-06,0.080
-1.660E-06,0.060
-1.650E-06,0.060
-1.640E-06,0.080
-1.630E-06,0.040
-1.620E-06,0.040
-1.610E-06,0.080
-1.600E-06,0.020
-1.590E-06,0.060
-1.580E-06,0.080
-1.570E-06,0.020
-1.560E-06,-0.140
-1.550E-06,-0.640
-1.540E-06,-1.580
-1.530E-06,-2.100
-1.520E-06,-2.100
-1.510E-06,-2.120
-1.500E-06,-2.120
-1.490E-06,-2.040
-1.480E-06,-0.640
-1.470E-06,0.860
-1.460E-06,2.200
-1.450E-06,3.320
-1.440E-06,3.300
-1.430E-06,3.320
-1.420E-06,3.300
-1.410E-06,3.300
-1.400E-06,3.200
-1.390E-06,2.280
-1.380E-06,1.300
-1.370E-06,0.380
-1.360E-06,-0.360
-1.350E-06,-0.740
-1.340E-06,-0.820
-1.330E-06,-0.700
-1.320E-06,-0.440
-1.310E-06,-0.260
-1.300E-06,-0.260
-1.290E-06,-0.500
-1.280E-06,-0.880
-1.270E-06,-1.280
-1.260E-06,-1.880
-1.250E-06,-2.080
-1.240E-06,-2.120
-1.230E-06,-2.100
-1.220E-06,-1.940
-1.210E-06,-1.440
-1.200E-06,-0.820
-1.190E-06,-0.120
-1.180E-06,0.600
-1.170E-06,1.320
-1.160E-06,1.740
-1.150E-06,2.000
-1.140E-06,1.980
-1.130E-06,1.720
-1.120E-06,1.240
-1.110E-06,0.740
-1.100E-06,0.360
-1.090E-06,-0.260
-1.080E-06,-0.660
-1.070E-06,-0.940
-1.060E-06,-1.100
-1.050E-06,-1.180
-1.040E-06,-1.040
-1.030E-06,-0.860
-1.020E-06,-0.640
-1.010E-06,-0.500
-1.000E-06,-0.300
-9.900E-07,-0.040
-9.800E-07,0.200
-9.700E-07,0.460
-9.600E-07,0.680
-9.500E-07,0.780
-9.400E-07,0.940
-9.300E-07,1.020
-9.200E-07,1.000
-9.100E-07,1.000
-9.000E-07,1.000
-8.900E-07,0.880
-8.800E-07,0.720
-8.700E-07,0.540
-8.600E-07,0.360
-8.500E-07,0.180
-8.400E-07,-0.060
-8.300E-07,-0.180
-8.200E-07,-0.300
-8.100E-07,-0.400
-8.000E-07,-0.460
-7.900E-07,-0.640
-7.800E-07,-0.780
-7.700E-07,-0.820
-7.600E-07,-0.720
-7.500E-07,-0.720
-7.400E-07,-0.600
-7.300E-07,0.140
-7.200E-07,-0.140
-7.100E-07,-0.060
-7.000E-07,0.340
-6.900E-07,0.300
-6.800E-07,0.500
-6.700E-07,0.720
-6.600E-07,0.960
-6.500E-07,1.000
-6.400E-07,0.720
-6.300E-07,0.600
-6.200E-07,0.200
-6.100E-07,-0.080
-6.000E-07,-0.300
-5.900E-07,-0.500
-5.800E-07,-0.520
-5.700E-07,-0.360
-5.600E-07,-0.440
-5.500E-07,-0.480
-5.400E-07,-0.440
-5.300E-07,-0.400
-5.200E-07,-0.380
-5.100E-07,-0.240
-5.000E-07,-0.100
-4.900E-07,0.220
-4.800E-07,0.120
-4.700E-07,0.280
-4.600E-07,0.100
-4.500E-07,0.180
-4.400E-07,0.120
-4.300E-07,0.280
-4.200E-07,-0.600
-4.100E-07,0.500
-4.000E-07,0.120
-3.900E-07,0.100
-3.800E-07,0.520
-3.700E-07,0.380
-3.600E-07,0.240
-3.500E-07,0.300
-3.400E-07,-0.120
-3.300E-07,0.060
-3.200E-07,-0.520
-3.100E-07,-0.300
-3.000E-07,-0.500
-2.900E-07,-0.740
-2.800E-07,0.020
-2.700E-07,-0.500
-2.600E-07,-0.260
-2.500E-07,-0.280
-2.400E-07,-0.220
-2.300E-07,-0.220
-2.200E-07,-0.160
-2.100E-07,-0.120
-2.000E-07,-0.020
-1.900E-07,-0.380
-1.800E-07,0.000
-1.700E-07,-0.260
-1.600E-07,-0.060
-1.500E-07,0.200
-1.400E-07,-0.260
-1.300E-07,0.280
-1.200E-07,0.060
-1.100E-07,-0.240
-1.000E-07,0.480
-9.000E-08,0.240
-8.000E-08,-0.140
-7.000E-08,-0.160
-6.000E-08,-0.380
-5.000E-08,-0.300
-4.000E-08,-0.500
-3.000E-08,-0.340
-2.000E-08,-0.380
-1.000E-08,-0.940
0.000E+00,-0.820
1.000E-08,-0.500
2.000E-08,-0.760
3.000E-08,1.140
4.000E-08,-1.680
5.000E-08,0.420
6.000E-08,-0.120
7.000E-08,-0.060
8.000E-08,-0.020
9.000E-08,-1.060
1.000E-07,0.520
1.100E-07,-2.120
1.200E-07,0.240
1.300E-07,0.980
1.400E-07,-0.680
1.500E-07,-0.060
1.600E-07,-0.460
1.700E-07,-0.320
1.800E-07,-0.980
1.900E-07,0.220
2.000E-07,-0.480
2.100E-07,-0.180
2.200E-07,-1.260
2.300E-07,-1.100
2.400E-07,-1.360
2.500E-07,-2.120
2.600E-07,-1.740
2.700E-07,-1.400
2.800E-07,-0.740
2.900E-07,-0.720
3.000E-07,0.500
3.100E-07,1.220
3.200E-07,2.020
3.300E-07,2.280
3.400E-07,2.340
3.500E-07,1.760
3.600E-07,1.240
3.700E-07,0.060
3.800E-07,-0.740
3.900E-07,-1.560
4.000E-07,-1.920
4.100E-07,-1.680
4.200E-07,-1.640
4.300E-07,-1.860
4.400E-07,-2.120
4.500E-07,-2.140
4.600E-07,-2.120
4.700E-07,-2.000
4.800E-07,-1.060
4.900E-07,-0.960
5.000E-07,-0.500
5.100E-07,-0.800
5.200E-07,-0.960
5.300E-07,-1.100
5.400E-07,-0.920
5.500E-07,-0.400
5.600E-07,0.260
5.700E-07,0.740
5.800E-07,0.960
5.900E-07,0.900
6.000E-07,0.780
6.100E-07,0.640
6.200E-07,0.660
6.300E-07,0.480
6.400E-07,0.420
6.500E-07,0.260
6.600E-07,-0.200
6.700E-07,-0.760
6.800E-07,-1.360
6.900E-07,-1.760
7.000E-07,-2.120
7.100E-07,-2.120
7.200E-07,-1.960
7.300E-07,-1.500
7.400E-07,-1.040
7.500E-07,-0.480
7.600E-07,-0.060
7.700E-07,0.300
7.800E-07,0.720
7.900E-07,1.200
8.000E-07,1.520
8.100E-07,1.760
8.200E-07,1.720
8.300E-07,1.780
8.400E-07,1.240
8.500E-07,0.560
8.600E-07,0.360
8.700E-07,-0.100
8.800E-07,-0.440
8.900E-07,-1.040
9.000E-07,-1.500
9.100E-07,-2.120
9.200E-07,-2.120
9.300E-07,-2.120
9.400E-07,-2.120
9.500E-07,-2.120
9.600E-07,-2.120
9.700E-07,-2.120
9.800E-07,-2.120
9.900E-07,-2.100
1.000E-06,-1.860
1.010E-06,-1.360
1.020E-06,-1.060
1.030E-06,-0.640
1.040E-06,-0.420
1.050E-06,-0.720
1.060E-06,-0.640
1.070E-06,-0.880
1.080E-06,-0.860
1.090E-06,-0.960
1.100E-06,-0.560
1.110E-06,-0.400
1.120E-06,-0.100
1.130E-06,-0.180
1.140E-06,-0.340
1.150E-06,-0.720
1.160E-06,-0.860
1.170E-06,-1.200
1.180E-06,-1.740
1.190E-06,-1.540
1.200E-06,-2.040
1.210E-06,-1.240
1.220E-06,-1.560
1.230E-06,-0.960
1.240E-06,-1.760
1.250E-06,-0.780
1.260E-06,-1.900
1.270E-06,-2.120
1.280E-06,-2.120
1.290E-06,-2.120
1.300E-06,-2.120
1.310E-06,-2.120
1.320E-06,-2.120
1.330E-06,-2.040
1.340E-06,-1.400
1.350E-06,-1.320
1.360E-06,-1.400
1.370E-06,-1.240
1.380E-06,-1.300
1.390E-06,-0.940
1.400E-06,-0.440
1.410E-06,0.200
1.420E-06,0.620
1.430E-06,0.760
1.440E-06,1.000
1.450E-06,1.320
1.460E-06,1.920
1.470E-06,2.200
1.480E-06,2.060
1.490E-06,1.140
1.500E-06,-0.880
1.510E-06,-2.120
1.520E-06,-2.100
1.530E-06,-2.120
1.540E-06,-2.120
1.550E-06,-2.120
1.560E-06,-2.120
1.570E-06,-2.120
1.580E-06,-2.120
1.590E-06,-2.120
1.600E-06,-2.120
1.610E-06,-2.120
1.620E-06,-2.120
1.630E-06,-1.900
1.640E-06,-1.420
1.650E-06,-0.860
1.660E-06,-0.740
1.670E-06,-0.680
1.680E-06,-1.220
1.690E-06,-1.620
1.700E-06,-1.820
1.710E-06,-1.840
1.720E-06,-1.980
1.730E-06,-2.120
1.740E-06,-2.100
1.750E-06,-2.120
1.760E-06,-2.120
1.770E-06,-2.120
1.780E-06,-2.120
1.790E-06,-2.100
1.800E-06,-2.120
1.810E-06,-2.120
1.820E-06,-2.120
1.830E-06,-2.120
1.840E-06,-2.120
1.850E-06,-2.120
1.860E-06,-2.120
1.870E-06,-2.100
1.880E-06,-2.120
1.890E-06,-2.120
1.900E-06,-2.120
1.910E-06,-1.380
1.920E-06,-0.760
1.930E-06,-0.140
1.940E-06,0.520
1.950E-06,1.180
1.960E-06,1.400
1.970E-06,1.220
1.980E-06,0.800
1.990E-06,0.200
2.000E-06,-0.560
2.010E-06,-1.180
2.020E-06,-1.680
2.030E-06,-1.860
2.040E-06,-2.020
2.050E-06,-2.140
2.060E-06,-2.120
2.070E-06,-2.120
2.080E-06,-1.840
2.090E-06,-1.380
2.100E-06,-0.900
2.110E-06,-0.440
2.120E-06,0.000
2.130E-06,0.460
2.140E-06,0.860
2.150E-06,1.140
2.160E-06,1.540
2.170E-06,1.820
2.180E-06,2.080
2.190E-06,2.220
2.200E-06,2.240
2.210E-06,2.220
2.220E-06,2.000
2.230E-06,1.720
2.240E-06,1.300
2.250E-06,0.760
2.260E-06,0.200
2.270E-06,-0.440
2.280E-06,-1.000
2.290E-06,-1.480
2.300E-06,-1.800
2.310E-06,-2.020
2.320E-06,-2.040
2.330E-06,-1.900
2.340E-06,-1.660
2.350E-06,-1.260
2.360E-06,-0.900
2.370E-06,-0.540
2.380E-06,-0.220
2.390E-06,0.100
2.400E-06,0.340
2.410E-06,0.540
2.420E-06,0.600
2.430E-06,0.620
2.440E-06,0.640
2.450E-06,0.540
2.460E-06,0.340
2.470E-06,0.100
2.480E-06,-0.100
2.490E-06,-0.200
2.500E-06,-0.260
2.510E-06,-0.360
2.520E-06,-0.480
2.530E-06,-0.560
2.540E-06,-0.700
2.550E-06,-0.820
2.560E-06,-0.940
2.570E-06,-1.000
2.580E-06,-1.000
2.590E-06,-0.980
2.600E-06,-0.860
2.610E-06,-0.620
2.620E-06,-0.360
2.630E-06,-0.060
2.640E-06,0.260
2.650E-06,0.540
2.660E-06,0.860
2.670E-06,1.080
2.680E-06,1.240
2.690E-06,1.380
2.700E-06,1.440
2.710E-06,1.400
2.720E-06,1.320
2.730E-06,1.240
2.740E-06,1.080
2.750E-06,0.880
2.760E-06,0.760
2.770E-06,0.600
2.780E-06,0.420
2.790E-06,0.300
2.800E-06,0.200
2.810E-06,0.140
2.820E-06,0.120
2.830E-06,0.080
2.840E-06,0.080
2.850E-06,0.100
2.860E-06,0.100
2.870E-06,0.040
2.880E-06,0.020
2.890E-06,0.020
2.900E-06,0.020
2.910E-06,-0.020
2.920E-06,-0.020
2.930E-06,0.000
2.940E-06,0.040
2.950E-06,0.100
2.960E-06,0.120
2.970E-06,0.200
2.980E-06,0.240
2.990E-06,0.280
3.000E-06,0.300
3.010E-06,0.300
3.020E-06,0.260
3.030E-06,0.220
3.040E-06,0.180
3.050E-06,0.120
3.060E-06,0.040
3.070E-06,0.000
3.080E-06,-0.040
3.090E-06,-0.040
3.100E-06,-0.060
3.110E-06,0.000
3.120E-06,0.040
3.130E-06,0.080
3.140E-06,0.160
3.150E-06,0.220
3.160E-06,0.300
3.170E-06,0.380
3.180E-06,0.440
3.190E-06,0.520
3.200E-06,0.540
3.210E-06,0.620
3.220E-06,0.900
3.230E-06,1.540
3.240E-06,1.820
3.250E-06,2.300
3.260E-06,2.120
3.270E-06,1.900
3.280E-06,1.060
3.290E-06,-0.260
3.300E-06,-0.360
3.310E-06,-0.760
3.320E-06,-1.080
3.330E-06,-1.460
3.340E-06,-1.320
3.350E-06,-1.080
3.360E-06,-0.980
3.370E-06,-0.700
3.380E-06,-0.320
3.390E-06,0.420
