mediciones/11-20/filtrar/18.5/WaveData83122.csv

#timebase=4000000(ps)
,#voltbase=500000(mv/100)
#size=4000
-4.760E-05,0.040
-4.758E-05,0.060
-4.756E-05,0.020
-4.754E-05,0.060
-4.752E-05,0.060
-4.750E-05,0.040
-4.748E-05,0.060
-4.746E-05,0.060
-4.744E-05,0.040
-4.742E-05,0.020
-4.740E-05,0.060
-4.738E-05,0.040
-4.736E-05,0.060
-4.734E-05,0.040
-4.732E-05,0.060
-4.730E-05,0.040
-4.728E-05,0.060
-4.726E-05,0.040
-4.724E-05,0.060
-4.722E-05,0.040
-4.720E-05,0.060
-4.718E-05,0.040
-4.716E-05,0.020
-4.714E-05,0.040
-4.712E-05,0.040
-4.710E-05,0.040
-4.708E-05,0.040
-4.706E-05,0.020
-4.704E-05,0.040
-4.702E-05,0.040
-4.700E-05,0.040
-4.698E-05,0.080
-4.696E-05,0.060
-4.694E-05,0.060
-4.692E-05,0.040
-4.690E-05,0.060
-4.688E-05,0.040
-4.686E-05,0.020
-4.684E-05,0.040
-4.682E-05,0.020
-4.680E-05,0.060
-4.678E-05,0.040
-4.676E-05,0.040
-4.674E-05,0.060
-4.672E-05,0.040
-4.670E-05,0.040
-4.668E-05,0.040
-4.666E-05,0.060
-4.664E-05,0.040
-4.662E-05,0.040
-4.660E-05,0.040
-4.658E-05,0.060
-4.656E-05,0.040
-4.654E-05,0.020
-4.652E-05,0.040
-4.650E-05,0.060
-4.648E-05,0.060
-4.646E-05,0.040
-4.644E-05,0.040
-4.642E-05,0.040
-4.640E-05,0.060
-4.638E-05,0.060
-4.636E-05,0.040
-4.634E-05,0.040
-4.632E-05,0.060
-4.630E-05,0.020
-4.628E-05,0.060
-4.626E-05,0.060
-4.624E-05,0.040
-4.622E-05,0.040
-4.620E-05,0.040
-4.618E-05,0.040
-4.616E-05,0.040
-4.614E-05,0.040
-4.612E-05,0.040
-4.610E-05,0.020
-4.608E-05,0.020
-4.606E-05,0.040
-4.604E-05,0.040
-4.602E-05,0.060
-4.600E-05,0.060
-4.598E-05,0.040
-4.596E-05,0.060
-4.594E-05,0.060
-4.592E-05,0.040
-4.590E-05,0.060
-4.588E-05,0.040
-4.586E-05,0.060
-4.584E-05,0.080
-4.582E-05,0.060
-4.580E-05,0.060
-4.578E-05,0.040
-4.576E-05,0.060
-4.574E-05,0.060
-4.572E-05,0.060
-4.570E-05,0.040
-4.568E-05,0.040
-4.566E-05,0.040
-4.564E-05,0.060
-4.562E-05,0.040
-4.560E-05,0.040
-4.558E-05,0.060
-4.556E-05,0.040
-4.554E-05,0.060
-4.552E-05,0.060
-4.550E-05,0.060
-4.548E-05,0.060
-4.546E-05,0.040
-4.544E-05,0.060
-4.542E-05,0.060
-4.540E-05,0.020
-4.538E-05,0.060
-4.536E-05,0.060
-4.534E-05,0.040
-4.532E-05,0.040
-4.530E-05,0.040
-4.528E-05,0.060
-4.526E-05,0.040
-4.524E-05,0.040
-4.522E-05,0.060
-4.520E-05,0.060
-4.518E-05,0.060
-4.516E-05,0.040
-4.514E-05,0.040
-4.512E-05,0.040
-4.510E-05,0.080
-4.508E-05,0.040
-4.506E-05,0.060
-4.504E-05,0.020
-4.502E-05,0.040
-4.500E-05,0.040
-4.498E-05,0.040
-4.496E-05,0.060
-4.494E-05,0.060
-4.492E-05,0.060
-4.490E-05,0.080
-4.488E-05,0.040
-4.486E-05,0.040
-4.484E-05,0.060
-4.482E-05,0.040
-4.480E-05,0.040
-4.478E-05,0.020
-4.476E-05,0.060
-4.474E-05,0.040
-4.472E-05,0.040
-4.470E-05,0.060
-4.468E-05,0.040
-4.466E-05,0.040
-4.464E-05,0.040
-4.462E-05,0.040
-4.460E-05,0.020
-4.458E-05,0.040
-4.456E-05,0.060
-4.454E-05,0.060
-4.452E-05,0.060
-4.450E-05,0.080
-4.448E-05,0.080
-4.446E-05,0.020
-4.444E-05,0.060
-4.442E-05,0.020
-4.440E-05,0.040
-4.438E-05,0.040
-4.436E-05,0.040
-4.434E-05,0.040
-4.432E-05,0.060
-4.430E-05,0.040
-4.428E-05,0.080
-4.426E-05,0.060
-4.424E-05,0.040
-4.422E-05,0.040
-4.420E-05,0.080
-4.418E-05,0.060
-4.416E-05,0.060
-4.414E-05,0.080
-4.412E-05,0.040
-4.410E-05,0.040
-4.408E-05,0.060
-4.406E-05,0.060
-4.404E-05,0.040
-4.402E-05,0.040
-4.400E-05,0.040
-4.398E-05,0.040
-4.396E-05,0.060
-4.394E-05,0.020
-4.392E-05,0.040
-4.390E-05,0.040
-4.388E-05,0.040
-4.386E-05,0.040
-4.384E-05,0.040
-4.382E-05,0.060
-4.380E-05,0.020
-4.378E-05,0.060
-4.376E-05,0.060
-4.374E-05,0.040
-4.372E-05,0.060
-4.370E-05,0.020
-4.368E-05,0.060
-4.366E-05,0.040
-4.364E-05,0.040
-4.362E-05,0.040
-4.360E-05,0.060
-4.358E-05,0.060
-4.356E-05,0.040
-4.354E-05,0.040
-4.352E-05,0.060
-4.350E-05,0.040
-4.348E-05,0.040
-4.346E-05,0.060
-4.344E-05,0.080
-4.342E-05,0.060
-4.340E-05,0.040
-4.338E-05,0.040
-4.336E-05,0.020
-4.334E-05,0.020
-4.332E-05,0.060
-4.330E-05,0.080
-4.328E-05,0.040
-4.326E-05,0.040
-4.324E-05,0.040
-4.322E-05,0.040
-4.320E-05,0.040
-4.318E-05,0.040
-4.316E-05,0.040
-4.314E-05,0.040
-4.312E-05,0.040
-4.310E-05,0.040
-4.308E-05,0.040
-4.306E-05,0.060
-4.304E-05,0.060
-4.302E-05,0.040
-4.300E-05,0.060
-4.298E-05,0.040
-4.296E-05,0.040
-4.294E-05,0.060
-4.292E-05,0.040
-4.290E-05,0.040
-4.288E-05,0.060
-4.286E-05,0.060
-4.284E-05,0.020
-4.282E-05,0.040
-4.280E-05,0.040
-4.278E-05,0.060
-4.276E-05,0.060
-4.274E-05,0.080
-4.272E-05,0.040
-4.270E-05,0.040
-4.268E-05,0.020
-4.266E-05,0.040
-4.264E-05,0.040
-4.262E-05,0.040
-4.260E-05,0.040
-4.258E-05,0.060
-4.256E-05,0.080
-4.254E-05,0.040
-4.252E-05,0.040
-4.250E-05,0.040
-4.248E-05,0.040
-4.246E-05,0.060
-4.244E-05,0.020
-4.242E-05,0.060
-4.240E-05,0.040
-4.238E-05,0.020
-4.236E-05,0.060
-4.234E-05,0.040
-4.232E-05,0.040
-4.230E-05,0.040
-4.228E-05,0.060
-4.226E-05,0.040
-4.224E-05,0.020
-4.222E-05,0.060
-4.220E-05,0.060
-4.218E-05,0.040
-4.216E-05,0.060
-4.214E-05,0.040
-4.212E-05,0.060
-4.210E-05,0.060
-4.208E-05,0.060
-4.206E-05,0.060
-4.204E-05,0.040
-4.202E-05,0.040
-4.200E-05,0.060
-4.198E-05,0.020
-4.196E-05,0.060
-4.194E-05,0.040
-4.192E-05,0.040
-4.190E-05,0.040
-4.188E-05,0.060
-4.186E-05,0.040
-4.184E-05,0.040
-4.182E-05,0.020
-4.180E-05,0.040
-4.178E-05,0.060
-4.176E-05,0.080
-4.174E-05,0.060
-4.172E-05,0.060
-4.170E-05,0.040
-4.168E-05,0.060
-4.166E-05,0.040
-4.164E-05,0.080
-4.162E-05,0.040
-4.160E-05,0.040
-4.158E-05,0.040
-4.156E-05,0.040
-4.154E-05,0.060
-4.152E-05,0.040
-4.150E-05,0.060
-4.148E-05,0.040
-4.146E-05,0.060
-4.144E-05,0.040
-4.142E-05,0.080
-4.140E-05,0.040
-4.138E-05,0.040
-4.136E-05,0.020
-4.134E-05,0.040
-4.132E-05,0.040
-4.130E-05,0.080
-4.128E-05,0.040
-4.126E-05,0.060
-4.124E-05,0.060
-4.122E-05,0.040
-4.120E-05,0.020
-4.118E-05,0.060
-4.116E-05,0.080
-4.114E-05,0.060
-4.112E-05,0.060
-4.110E-05,0.040
-4.108E-05,0.040
-4.106E-05,0.040
-4.104E-05,0.040
-4.102E-05,0.060
-4.100E-05,0.060
-4.098E-05,0.060
-4.096E-05,0.060
-4.094E-05,0.040
-4.092E-05,0.040
-4.090E-05,0.060
-4.088E-05,0.040
-4.086E-05,0.020
-4.084E-05,0.040
-4.082E-05,0.040
-4.080E-05,0.040
-4.078E-05,0.040
-4.076E-05,0.060
-4.074E-05,0.040
-4.072E-05,0.040
-4.070E-05,0.060
-4.068E-05,0.040
-4.066E-05,0.040
-4.064E-05,0.080
-4.062E-05,0.040
-4.060E-05,0.040
-4.058E-05,0.020
-4.056E-05,0.060
-4.054E-05,0.060
-4.052E-05,0.040
-4.050E-05,0.080
-4.048E-05,0.060
-4.046E-05,0.020
-4.044E-05,0.060
-4.042E-05,0.020
-4.040E-05,0.040
-4.038E-05,0.060
-4.036E-05,0.040
-4.034E-05,0.020
-4.032E-05,0.040
-4.030E-05,0.040
-4.028E-05,0.040
-4.026E-05,0.040
-4.024E-05,0.020
-4.022E-05,0.040
-4.020E-05,0.040
-4.018E-05,0.040
-4.016E-05,0.060
-4.014E-05,0.060
-4.012E-05,0.060
-4.010E-05,0.040
-4.008E-05,0.060
-4.006E-05,0.060
-4.004E-05,0.040
-4.002E-05,0.020
-4.000E-05,0.040
-3.998E-05,0.020
-3.996E-05,0.060
-3.994E-05,0.080
-3.992E-05,0.040
-3.990E-05,0.040
-3.988E-05,0.020
-3.986E-05,0.020
-3.984E-05,0.040
-3.982E-05,0.020
-3.980E-05,0.040
-3.978E-05,0.060
-3.976E-05,0.060
-3.974E-05,0.020
-3.972E-05,0.060
-3.970E-05,0.040
-3.968E-05,0.040
-3.966E-05,0.060
-3.964E-05,0.040
-3.962E-05,0.060
-3.960E-05,0.060
-3.958E-05,0.060
-3.956E-05,0.040
-3.954E-05,0.040
-3.952E-05,0.060
-3.950E-05,0.040
-3.948E-05,0.040
-3.946E-05,0.060
-3.944E-05,0.060
-3.942E-05,0.040
-3.940E-05,0.060
-3.938E-05,0.060
-3.936E-05,0.060
-3.934E-05,0.060
-3.932E-05,0.040
-3.930E-05,0.020
-3.928E-05,0.060
-3.926E-05,0.040
-3.924E-05,0.060
-3.922E-05,0.020
-3.920E-05,0.040
-3.918E-05,0.080
-3.916E-05,0.040
-3.914E-05,0.040
-3.912E-05,0.040
-3.910E-05,0.040
-3.908E-05,0.060
-3.906E-05,0.040
-3.904E-05,0.020
-3.902E-05,0.020
-3.900E-05,0.060
-3.898E-05,0.040
-3.896E-05,0.060
-3.894E-05,0.040
-3.892E-05,0.060
-3.890E-05,0.060
-3.888E-05,0.060
-3.886E-05,0.060
-3.884E-05,0.040
-3.882E-05,0.040
-3.880E-05,0.040
-3.878E-05,0.060
-3.876E-05,0.020
-3.874E-05,0.060
-3.872E-05,0.060
-3.870E-05,0.020
-3.868E-05,0.060
-3.866E-05,0.060
-3.864E-05,0.040
-3.862E-05,0.040
-3.860E-05,0.040
-3.858E-05,0.040
-3.856E-05,0.040
-3.854E-05,0.060
-3.852E-05,0.000
-3.850E-05,0.040
-3.848E-05,0.060
-3.846E-05,0.060
-3.844E-05,0.060
-3.842E-05,0.060
-3.840E-05,0.040
-3.838E-05,0.060
-3.836E-05,0.040
-3.834E-05,0.060
-3.832E-05,0.060
-3.830E-05,0.060
-3.828E-05,0.040
-3.826E-05,0.040
-3.824E-05,0.060
-3.822E-05,0.060
-3.820E-05,0.060
-3.818E-05,0.040
-3.816E-05,0.040
-3.814E-05,0.060
-3.812E-05,0.040
-3.810E-05,0.020
-3.808E-05,0.040
-3.806E-05,0.040
-3.804E-05,0.040
-3.802E-05,0.040
-3.800E-05,0.040
-3.798E-05,0.040
-3.796E-05,0.060
-3.794E-05,0.040
-3.792E-05,0.060
-3.790E-05,0.040
-3.788E-05,0.040
-3.786E-05,0.040
-3.784E-05,0.060
-3.782E-05,0.060
-3.780E-05,0.040
-3.778E-05,0.040
-3.776E-05,0.020
-3.774E-05,0.020
-3.772E-05,0.040
-3.770E-05,0.020
-3.768E-05,0.040
-3.766E-05,0.040
-3.764E-05,0.060
-3.762E-05,0.040
-3.760E-05,0.060
-3.758E-05,0.080
-3.756E-05,0.060
-3.754E-05,0.040
-3.752E-05,0.040
-3.750E-05,0.060
-3.748E-05,0.040
-3.746E-05,0.040
-3.744E-05,0.040
-3.742E-05,0.040
-3.740E-05,0.060
-3.738E-05,0.040
-3.736E-05,0.080
-3.734E-05,0.080
-3.732E-05,0.060
-3.730E-05,0.040
-3.728E-05,0.060
-3.726E-05,0.060
-3.724E-05,0.040
-3.722E-05,0.060
-3.720E-05,0.060
-3.718E-05,0.040
-3.716E-05,0.060
-3.714E-05,0.060
-3.712E-05,0.040
-3.710E-05,0.040
-3.708E-05,0.080
-3.706E-05,0.060
-3.704E-05,0.040
-3.702E-05,0.040
-3.700E-05,0.020
-3.698E-05,0.060
-3.696E-05,0.040
-3.694E-05,0.060
-3.692E-05,0.040
-3.690E-05,0.040
-3.688E-05,0.040
-3.686E-05,0.040
-3.684E-05,0.040
-3.682E-05,0.040
-3.680E-05,0.060
-3.678E-05,0.060
-3.676E-05,0.040
-3.674E-05,0.040
-3.672E-05,0.080
-3.670E-05,0.060
-3.668E-05,0.060
-3.666E-05,0.040
-3.664E-05,0.060
-3.662E-05,0.060
-3.660E-05,0.060
-3.658E-05,0.040
-3.656E-05,0.060
-3.654E-05,0.060
-3.652E-05,0.040
-3.650E-05,0.040
-3.648E-05,0.040
-3.646E-05,0.040
-3.644E-05,0.040
-3.642E-05,0.060
-3.640E-05,0.040
-3.638E-05,0.040
-3.636E-05,0.080
-3.634E-05,0.020
-3.632E-05,0.040
-3.630E-05,0.040
-3.628E-05,0.040
-3.626E-05,0.040
-3.624E-05,0.040
-3.622E-05,0.060
-3.620E-05,0.060
-3.618E-05,0.040
-3.616E-05,0.060
-3.614E-05,0.040
-3.612E-05,0.040
-3.610E-05,0.080
-3.608E-05,0.060
-3.606E-05,0.020
-3.604E-05,0.040
-3.602E-05,0.020
-3.600E-05,0.060
-3.598E-05,0.040
-3.596E-05,0.080
-3.594E-05,0.040
-3.592E-05,0.040
-3.590E-05,0.060
-3.588E-05,0.020
-3.586E-05,0.060
-3.584E-05,0.040
-3.582E-05,0.040
-3.580E-05,0.060
-3.578E-05,0.060
-3.576E-05,0.020
-3.574E-05,0.060
-3.572E-05,0.060
-3.570E-05,0.040
-3.568E-05,0.080
-3.566E-05,0.040
-3.564E-05,0.060
-3.562E-05,0.040
-3.560E-05,0.040
-3.558E-05,0.040
-3.556E-05,0.040
-3.554E-05,0.040
-3.552E-05,0.040
-3.550E-05,0.040
-3.548E-05,0.040
-3.546E-05,0.060
-3.544E-05,0.040
-3.542E-05,0.060
-3.540E-05,0.040
-3.538E-05,0.060
-3.536E-05,0.060
-3.534E-05,0.020
-3.532E-05,0.040
-3.530E-05,0.060
-3.528E-05,0.060
-3.526E-05,0.060
-3.524E-05,0.040
-3.522E-05,0.060
-3.520E-05,0.060
-3.518E-05,0.020
-3.516E-05,0.060
-3.514E-05,0.040
-3.512E-05,0.020
-3.510E-05,0.040
-3.508E-05,0.060
-3.506E-05,0.040
-3.504E-05,0.060
-3.502E-05,0.040
-3.500E-05,0.040
-3.498E-05,0.040
-3.496E-05,0.020
-3.494E-05,0.040
-3.492E-05,0.040
-3.490E-05,0.060
-3.488E-05,0.060
-3.486E-05,0.020
-3.484E-05,0.040
-3.482E-05,0.080
-3.480E-05,0.060
-3.478E-05,0.060
-3.476E-05,0.040
-3.474E-05,0.040
-3.472E-05,0.080
-3.470E-05,0.060
-3.468E-05,0.060
-3.466E-05,0.060
-3.464E-05,0.060
-3.462E-05,0.040
-3.460E-05,0.060
-3.458E-05,0.060
-3.456E-05,0.040
-3.454E-05,0.040
-3.452E-05,0.060
-3.450E-05,0.060
-3.448E-05,0.060
-3.446E-05,0.060
-3.444E-05,0.040
-3.442E-05,0.060
-3.440E-05,0.040
-3.438E-05,0.060
-3.436E-05,0.040
-3.434E-05,0.060
-3.432E-05,0.060
-3.430E-05,0.040
-3.428E-05,0.060
-3.426E-05,0.060
-3.424E-05,0.020
-3.422E-05,0.040
-3.420E-05,0.080
-3.418E-05,0.040
-3.416E-05,0.020
-3.414E-05,0.040
-3.412E-05,0.020
-3.410E-05,0.040
-3.408E-05,0.040
-3.406E-05,0.040
-3.404E-05,0.040
-3.402E-05,0.060
-3.400E-05,0.040
-3.398E-05,0.060
-3.396E-05,0.040
-3.394E-05,0.080
-3.392E-05,0.080
-3.390E-05,0.080
-3.388E-05,0.060
-3.386E-05,0.040
-3.384E-05,0.060
-3.382E-05,0.060
-3.380E-05,0.060
-3.378E-05,0.060
-3.376E-05,0.060
-3.374E-05,0.060
-3.372E-05,0.040
-3.370E-05,0.040
-3.368E-05,0.040
-3.366E-05,0.060
-3.364E-05,0.060
-3.362E-05,0.080
-3.360E-05,0.040
-3.358E-05,0.060
-3.356E-05,0.040
-3.354E-05,0.040
-3.352E-05,0.040
-3.350E-05,0.060
-3.348E-05,0.040
-3.346E-05,0.040
-3.344E-05,0.060
-3.342E-05,0.040
-3.340E-05,0.060
-3.338E-05,0.040
-3.336E-05,0.020
-3.334E-05,0.040
-3.332E-05,0.040
-3.330E-05,0.060
-3.328E-05,0.040
-3.326E-05,0.060
-3.324E-05,0.060
-3.322E-05,0.060
-3.320E-05,0.060
-3.318E-05,0.060
-3.316E-05,0.060
-3.314E-05,0.060
-3.312E-05,0.040
-3.310E-05,0.060
-3.308E-05,0.060
-3.306E-05,0.040
-3.304E-05,0.040
-3.302E-05,0.040
-3.300E-05,0.040
-3.298E-05,0.020
-3.296E-05,0.040
-3.294E-05,0.060
-3.292E-05,0.040
-3.290E-05,0.040
-3.288E-05,0.040
-3.286E-05,0.060
-3.284E-05,0.040
-3.282E-05,0.040
-3.280E-05,0.060
-3.278E-05,0.040
-3.276E-05,0.020
-3.274E-05,0.040
-3.272E-05,0.040
-3.270E-05,0.060
-3.268E-05,0.040
-3.266E-05,0.040
-3.264E-05,0.040
-3.262E-05,0.040
-3.260E-05,0.060
-3.258E-05,0.040
-3.256E-05,0.080
-3.254E-05,0.060
-3.252E-05,0.060
-3.250E-05,0.040
-3.248E-05,0.060
-3.246E-05,0.060
-3.244E-05,0.060
-3.242E-05,0.040
-3.240E-05,0.060
-3.238E-05,0.040
-3.236E-05,0.040
-3.234E-05,0.060
-3.232E-05,0.060
-3.230E-05,0.040
-3.228E-05,0.040
-3.226E-05,0.040
-3.224E-05,0.040
-3.222E-05,0.040
-3.220E-05,0.040
-3.218E-05,0.060
-3.216E-05,0.040
-3.214E-05,0.060
-3.212E-05,0.020
-3.210E-05,0.040
-3.208E-05,0.060
-3.206E-05,0.080
-3.204E-05,0.080
-3.202E-05,0.040
-3.200E-05,0.060
-3.198E-05,0.060
-3.196E-05,0.060
-3.194E-05,0.060
-3.192E-05,0.040
-3.190E-05,0.040
-3.188E-05,0.040
-3.186E-05,0.060
-3.184E-05,0.060
-3.182E-05,0.040
-3.180E-05,0.040
-3.178E-05,0.040
-3.176E-05,0.040
-3.174E-05,0.040
-3.172E-05,0.060
-3.170E-05,0.040
-3.168E-05,0.060
-3.166E-05,0.040
-3.164E-05,0.060
-3.162E-05,0.040
-3.160E-05,0.020
-3.158E-05,0.080
-3.156E-05,0.060
-3.154E-05,0.040
-3.152E-05,0.040
-3.150E-05,0.060
-3.148E-05,0.060
-3.146E-05,0.040
-3.144E-05,0.060
-3.142E-05,0.060
-3.140E-05,0.060
-3.138E-05,0.040
-3.136E-05,0.060
-3.134E-05,0.040
-3.132E-05,0.040
-3.130E-05,0.040
-3.128E-05,0.020
-3.126E-05,0.040
-3.124E-05,0.060
-3.122E-05,0.040
-3.120E-05,0.060
-3.118E-05,0.040
-3.116E-05,0.060
-3.114E-05,0.040
-3.112E-05,0.060
-3.110E-05,0.040
-3.108E-05,0.060
-3.106E-05,0.040
-3.104E-05,0.020
-3.102E-05,0.040
-3.100E-05,0.060
-3.098E-05,0.040
-3.096E-05,0.060
-3.094E-05,0.040
-3.092E-05,0.080
-3.090E-05,0.040
-3.088E-05,0.040
-3.086E-05,0.040
-3.084E-05,0.040
-3.082E-05,0.040
-3.080E-05,0.060
-3.078E-05,0.040
-3.076E-05,0.040
-3.074E-05,0.060
-3.072E-05,0.040
-3.070E-05,0.040
-3.068E-05,0.080
-3.066E-05,0.060
-3.064E-05,0.060
-3.062E-05,0.060
-3.060E-05,0.040
-3.058E-05,0.060
-3.056E-05,0.060
-3.054E-05,0.040
-3.052E-05,0.040
-3.050E-05,0.060
-3.048E-05,0.040
-3.046E-05,0.060
-3.044E-05,0.020
-3.042E-05,0.040
-3.040E-05,0.040
-3.038E-05,0.040
-3.036E-05,0.060
-3.034E-05,0.040
-3.032E-05,0.040
-3.030E-05,0.060
-3.028E-05,0.040
-3.026E-05,0.020
-3.024E-05,0.040
-3.022E-05,0.040
-3.020E-05,0.080
-3.018E-05,0.020
-3.016E-05,0.040
-3.014E-05,0.060
-3.012E-05,0.060
-3.010E-05,0.060
-3.008E-05,0.040
-3.006E-05,0.060
-3.004E-05,0.040
-3.002E-05,0.040
-3.000E-05,0.060
-2.998E-05,0.040
-2.996E-05,0.040
-2.994E-05,0.080
-2.992E-05,0.060
-2.990E-05,0.080
-2.988E-05,0.060
-2.986E-05,0.040
-2.984E-05,0.040
-2.982E-05,0.060
-2.980E-05,0.040
-2.978E-05,0.040
-2.976E-05,0.040
-2.974E-05,0.060
-2.972E-05,0.060
-2.970E-05,0.040
-2.968E-05,0.040
-2.966E-05,0.060
-2.964E-05,0.060
-2.962E-05,0.040
-2.960E-05,0.040
-2.958E-05,0.040
-2.956E-05,0.080
-2.954E-05,0.060
-2.952E-05,0.060
-2.950E-05,0.020
-2.948E-05,0.060
-2.946E-05,0.060
-2.944E-05,0.060
-2.942E-05,0.040
-2.940E-05,0.060
-2.938E-05,0.060
-2.936E-05,0.040
-2.934E-05,0.060
-2.932E-05,0.060
-2.930E-05,0.060
-2.928E-05,0.020
-2.926E-05,0.060
-2.924E-05,0.060
-2.922E-05,0.060
-2.920E-05,0.040
-2.918E-05,0.040
-2.916E-05,0.020
-2.914E-05,0.040
-2.912E-05,0.060
-2.910E-05,0.020
-2.908E-05,0.040
-2.906E-05,0.020
-2.904E-05,0.040
-2.902E-05,0.040
-2.900E-05,0.040
-2.898E-05,0.040
-2.896E-05,0.060
-2.894E-05,0.040
-2.892E-05,0.040
-2.890E-05,0.060
-2.888E-05,0.040
-2.886E-05,0.060
-2.884E-05,0.040
-2.882E-05,0.060
-2.880E-05,0.060
-2.878E-05,0.060
-2.876E-05,0.040
-2.874E-05,0.040
-2.872E-05,0.040
-2.870E-05,0.040
-2.868E-05,0.040
-2.866E-05,0.040
-2.864E-05,0.080
-2.862E-05,0.060
-2.860E-05,0.040
-2.858E-05,0.060
-2.856E-05,0.040
-2.854E-05,0.040
-2.852E-05,0.060
-2.850E-05,0.060
-2.848E-05,0.040
-2.846E-05,0.060
-2.844E-05,0.040
-2.842E-05,0.040
-2.840E-05,0.040
-2.838E-05,0.060
-2.836E-05,0.040
-2.834E-05,0.060
-2.832E-05,0.040
-2.830E-05,0.040
-2.828E-05,0.060
-2.826E-05,0.040
-2.824E-05,0.040
-2.822E-05,0.040
-2.820E-05,0.060
-2.818E-05,0.060
-2.816E-05,0.060
-2.814E-05,0.060
-2.812E-05,0.040
-2.810E-05,0.060
-2.808E-05,0.040
-2.806E-05,0.060
-2.804E-05,0.060
-2.802E-05,0.060
-2.800E-05,0.060
-2.798E-05,0.060
-2.796E-05,0.040
-2.794E-05,0.060
-2.792E-05,0.040
-2.790E-05,0.060
-2.788E-05,0.020
-2.786E-05,0.060
-2.784E-05,0.060
-2.782E-05,0.040
-2.780E-05,0.040
-2.778E-05,0.060
-2.776E-05,0.040
-2.774E-05,0.080
-2.772E-05,0.040
-2.770E-05,0.060
-2.768E-05,0.060
-2.766E-05,0.080
-2.764E-05,0.040
-2.762E-05,0.040
-2.760E-05,0.020
-2.758E-05,0.060
-2.756E-05,0.040
-2.754E-05,0.040
-2.752E-05,0.060
-2.750E-05,0.040
-2.748E-05,0.040
-2.746E-05,0.040
-2.744E-05,0.060
-2.742E-05,0.040
-2.740E-05,0.060
-2.738E-05,0.040
-2.736E-05,0.060
-2.734E-05,0.040
-2.732E-05,0.040
-2.730E-05,0.040
-2.728E-05,0.060
-2.726E-05,0.060
-2.724E-05,0.040
-2.722E-05,0.080
-2.720E-05,0.040
-2.718E-05,0.040
-2.716E-05,0.040
-2.714E-05,0.040
-2.712E-05,0.060
-2.710E-05,0.040
-2.708E-05,0.060
-2.706E-05,0.060
-2.704E-05,0.060
-2.702E-05,0.060
-2.700E-05,0.080
-2.698E-05,0.040
-2.696E-05,0.040
-2.694E-05,0.040
-2.692E-05,0.020
-2.690E-05,0.040
-2.688E-05,0.040
-2.686E-05,0.020
-2.684E-05,0.060
-2.682E-05,0.040
-2.680E-05,0.040
-2.678E-05,0.040
-2.676E-05,0.060
-2.674E-05,0.060
-2.672E-05,0.040
-2.670E-05,0.040
-2.668E-05,0.060
-2.666E-05,0.040
-2.664E-05,0.060
-2.662E-05,0.040
-2.660E-05,-0.200
-2.658E-05,-0.600
-2.656E-05,-0.380
-2.654E-05,0.040
-2.652E-05,0.300
-2.650E-05,0.320
-2.648E-05,-0.020
-2.646E-05,-0.220
-2.644E-05,0.120
-2.642E-05,0.760
-2.640E-05,1.000
-2.638E-05,0.740
-2.636E-05,0.160
-2.634E-05,-0.320
-2.632E-05,-0.500
-2.630E-05,-0.380
-2.628E-05,-0.080
-2.626E-05,0.140
-2.624E-05,0.260
-2.622E-05,0.240
-2.620E-05,-0.040
-2.618E-05,-0.420
-2.616E-05,-0.560
-2.614E-05,-0.360
-2.612E-05,0.020
-2.610E-05,0.540
-2.608E-05,0.760
-2.606E-05,0.480
-2.604E-05,-0.060
-2.602E-05,-0.440
-2.600E-05,-0.500
-2.598E-05,-0.380
-2.596E-05,0.120
-2.594E-05,0.620
-2.592E-05,0.680
-2.590E-05,0.460
-2.588E-05,0.120
-2.586E-05,-0.320
-2.584E-05,-0.540
-2.582E-05,-0.220
-2.580E-05,0.160
-2.578E-05,0.400
-2.576E-05,0.480
-2.574E-05,0.340
-2.572E-05,0.000
-2.570E-05,-0.280
-2.568E-05,-0.240
-2.566E-05,-0.120
-2.564E-05,0.040
-2.562E-05,0.160
-2.560E-05,0.140
-2.558E-05,-0.020
-2.556E-05,-0.200
-2.554E-05,-0.220
-2.552E-05,-0.180
-2.550E-05,-0.020
-2.548E-05,0.160
-2.546E-05,0.220
-2.544E-05,0.140
-2.542E-05,0.060
-2.540E-05,0.040
-2.538E-05,0.040
-2.536E-05,0.060
-2.534E-05,0.200
-2.532E-05,0.140
-2.530E-05,0.020
-2.528E-05,-0.040
-2.526E-05,-0.120
-2.524E-05,-0.100
-2.522E-05,-0.020
-2.520E-05,0.080
-2.518E-05,0.120
-2.516E-05,0.060
-2.514E-05,-0.100
-2.512E-05,-0.140
-2.510E-05,-0.200
-2.508E-05,-0.140
-2.506E-05,0.040
-2.504E-05,0.140
-2.502E-05,0.140
-2.500E-05,0.080
-2.498E-05,0.000
-2.496E-05,-0.180
-2.494E-05,-0.220
-2.492E-05,-0.100
-2.490E-05,0.020
-2.488E-05,0.040
-2.486E-05,-0.020
-2.484E-05,-0.020
-2.482E-05,-0.080
-2.480E-05,-0.180
-2.478E-05,-0.140
-2.476E-05,-0.060
-2.474E-05,-0.080
-2.472E-05,0.000
-2.470E-05,0.040
-2.468E-05,0.040
-2.466E-05,-0.140
-2.464E-05,-0.120
-2.462E-05,-0.100
-2.460E-05,-0.180
-2.458E-05,-0.100
-2.456E-05,0.080
-2.454E-05,-0.020
-2.452E-05,-0.120
-2.450E-05,0.000
-2.448E-05,-0.060
-2.446E-05,-0.200
-2.444E-05,-0.020
-2.442E-05,0.060
-2.440E-05,-0.100
-2.438E-05,-0.100
-2.436E-05,0.020
-2.434E-05,-0.100
-2.432E-05,-0.140
-2.430E-05,-0.020
-2.428E-05,0.000
-2.426E-05,-0.180
-2.424E-05,-0.060
