mediciones/8-28/-6/WaveData65652.csv

#timebase=2000000(ps)
,#voltbase=500000(mv/100)
#size=4000
-8.350E-06,0.040
-8.340E-06,0.040
-8.330E-06,0.060
-8.320E-06,0.060
-8.310E-06,0.040
-8.300E-06,0.020
-8.290E-06,0.020
-8.280E-06,0.040
-8.270E-06,0.020
-8.260E-06,0.020
-8.250E-06,0.040
-8.240E-06,0.020
-8.230E-06,0.040
-8.220E-06,0.020
-8.210E-06,0.040
-8.200E-06,0.060
-8.190E-06,0.040
-8.180E-06,0.020
-8.170E-06,0.020
-8.160E-06,0.040
-8.150E-06,0.060
-8.140E-06,0.020
-8.130E-06,0.000
-8.120E-06,0.040
-8.110E-06,0.060
-8.100E-06,0.060
-8.090E-06,0.000
-8.080E-06,0.040
-8.070E-06,0.060
-8.060E-06,0.060
-8.050E-06,0.040
-8.040E-06,0.000
-8.030E-06,0.040
-8.020E-06,0.060
-8.010E-06,0.060
-8.000E-06,0.040
-7.990E-06,0.020
-7.980E-06,0.040
-7.970E-06,0.060
-7.960E-06,0.040
-7.950E-06,0.040
-7.940E-06,0.020
-7.930E-06,0.040
-7.920E-06,0.040
-7.910E-06,0.000
-7.900E-06,0.060
-7.890E-06,0.080
-7.880E-06,0.020
-7.870E-06,0.080
-7.860E-06,0.040
-7.850E-06,0.080
-7.840E-06,-0.020
-7.830E-06,0.040
-7.820E-06,0.060
-7.810E-06,0.000
-7.800E-06,0.060
-7.790E-06,0.020
-7.780E-06,0.020
-7.770E-06,0.020
-7.760E-06,0.060
-7.750E-06,0.000
-7.740E-06,0.020
-7.730E-06,0.040
-7.720E-06,0.060
-7.710E-06,0.020
-7.700E-06,0.020
-7.690E-06,0.040
-7.680E-06,0.040
-7.670E-06,0.020
-7.660E-06,0.040
-7.650E-06,0.040
-7.640E-06,0.080
-7.630E-06,0.040
-7.620E-06,0.040
-7.610E-06,0.040
-7.600E-06,0.060
-7.590E-06,0.020
-7.580E-06,0.040
-7.570E-06,0.040
-7.560E-06,0.080
-7.550E-06,0.020
-7.540E-06,0.060
-7.530E-06,0.040
-7.520E-06,0.060
-7.510E-06,0.040
-7.500E-06,0.020
-7.490E-06,0.060
-7.480E-06,0.040
-7.470E-06,0.000
-7.460E-06,0.020
-7.450E-06,0.060
-7.440E-06,0.040
-7.430E-06,0.020
-7.420E-06,0.040
-7.410E-06,0.020
-7.400E-06,0.040
-7.390E-06,0.040
-7.380E-06,0.020
-7.370E-06,0.020
-7.360E-06,0.020
-7.350E-06,0.040
-7.340E-06,0.040
-7.330E-06,0.040
-7.320E-06,0.020
-7.310E-06,0.040
-7.300E-06,0.020
-7.290E-06,0.040
-7.280E-06,0.040
-7.270E-06,0.040
-7.260E-06,0.000
-7.250E-06,0.020
-7.240E-06,0.040
-7.230E-06,0.060
-7.220E-06,0.040
-7.210E-06,0.000
-7.200E-06,0.040
-7.190E-06,0.020
-7.180E-06,0.040
-7.170E-06,0.020
-7.160E-06,0.040
-7.150E-06,0.000
-7.140E-06,0.060
-7.130E-06,0.060
-7.120E-06,0.000
-7.110E-06,0.040
-7.100E-06,0.060
-7.090E-06,0.060
-7.080E-06,0.000
-7.070E-06,0.040
-7.060E-06,0.020
-7.050E-06,0.060
-7.040E-06,0.020
-7.030E-06,0.020
-7.020E-06,0.020
-7.010E-06,0.000
-7.000E-06,0.040
-6.990E-06,0.000
-6.980E-06,0.040
-6.970E-06,0.020
-6.960E-06,0.040
-6.950E-06,0.060
-6.940E-06,0.040
-6.930E-06,0.040
-6.920E-06,0.040
-6.910E-06,0.020
-6.900E-06,0.040
-6.890E-06,0.000
-6.880E-06,0.040
-6.870E-06,0.020
-6.860E-06,0.060
-6.850E-06,0.040
-6.840E-06,0.000
-6.830E-06,0.040
-6.820E-06,0.060
-6.810E-06,0.060
-6.800E-06,0.040
-6.790E-06,0.040
-6.780E-06,0.040
-6.770E-06,0.080
-6.760E-06,0.040
-6.750E-06,0.040
-6.740E-06,0.000
-6.730E-06,0.060
-6.720E-06,0.020
-6.710E-06,0.060
-6.700E-06,0.060
-6.690E-06,0.020
-6.680E-06,0.020
-6.670E-06,0.020
-6.660E-06,0.040
-6.650E-06,0.020
-6.640E-06,0.040
-6.630E-06,0.020
-6.620E-06,0.020
-6.610E-06,0.040
-6.600E-06,0.060
-6.590E-06,0.060
-6.580E-06,0.040
-6.570E-06,0.040
-6.560E-06,0.020
-6.550E-06,0.040
-6.540E-06,0.080
-6.530E-06,0.020
-6.520E-06,0.020
-6.510E-06,0.060
-6.500E-06,0.040
-6.490E-06,0.020
-6.480E-06,0.040
-6.470E-06,0.020
-6.460E-06,0.020
-6.450E-06,0.020
-6.440E-06,-0.020
-6.430E-06,0.040
-6.420E-06,0.040
-6.410E-06,0.060
-6.400E-06,0.060
-6.390E-06,0.040
-6.380E-06,0.060
-6.370E-06,0.040
-6.360E-06,0.020
-6.350E-06,0.020
-6.340E-06,0.040
-6.330E-06,0.040
-6.320E-06,0.020
-6.310E-06,0.020
-6.300E-06,0.000
-6.290E-06,0.040
-6.280E-06,0.060
-6.270E-06,0.000
-6.260E-06,0.040
-6.250E-06,0.060
-6.240E-06,0.040
-6.230E-06,0.080
-6.220E-06,0.040
-6.210E-06,0.020
-6.200E-06,0.040
-6.190E-06,0.020
-6.180E-06,0.040
-6.170E-06,0.040
-6.160E-06,0.040
-6.150E-06,0.020
-6.140E-06,0.040
-6.130E-06,0.040
-6.120E-06,0.060
-6.110E-06,0.020
-6.100E-06,0.020
-6.090E-06,0.040
-6.080E-06,0.020
-6.070E-06,0.040
-6.060E-06,0.060
-6.050E-06,0.060
-6.040E-06,0.020
-6.030E-06,0.020
-6.020E-06,0.060
-6.010E-06,0.040
-6.000E-06,0.020
-5.990E-06,0.060
-5.980E-06,0.060
-5.970E-06,0.000
-5.960E-06,0.020
-5.950E-06,0.000
-5.940E-06,0.040
-5.930E-06,0.040
-5.920E-06,0.060
-5.910E-06,0.040
-5.900E-06,0.020
-5.890E-06,0.040
-5.880E-06,0.060
-5.870E-06,0.040
-5.860E-06,0.020
-5.850E-06,0.040
-5.840E-06,0.060
-5.830E-06,0.020
-5.820E-06,0.020
-5.810E-06,0.040
-5.800E-06,0.080
-5.790E-06,0.040
-5.780E-06,0.000
-5.770E-06,0.060
-5.760E-06,0.060
-5.750E-06,0.020
-5.740E-06,0.040
-5.730E-06,0.040
-5.720E-06,0.020
-5.710E-06,0.040
-5.700E-06,0.040
-5.690E-06,0.040
-5.680E-06,0.060
-5.670E-06,0.040
-5.660E-06,0.020
-5.650E-06,0.040
-5.640E-06,0.040
-5.630E-06,0.060
-5.620E-06,0.020
-5.610E-06,0.040
-5.600E-06,0.040
-5.590E-06,0.060
-5.580E-06,0.040
-5.570E-06,0.080
-5.560E-06,0.020
-5.550E-06,0.020
-5.540E-06,0.020
-5.530E-06,0.040
-5.520E-06,0.020
-5.510E-06,0.020
-5.500E-06,0.060
-5.490E-06,0.040
-5.480E-06,0.060
-5.470E-06,0.040
-5.460E-06,0.020
-5.450E-06,0.060
-5.440E-06,0.020
-5.430E-06,0.040
-5.420E-06,0.020
-5.410E-06,0.040
-5.400E-06,0.020
-5.390E-06,0.060
-5.380E-06,0.040
-5.370E-06,0.040
-5.360E-06,0.040
-5.350E-06,0.020
-5.340E-06,0.040
-5.330E-06,0.020
-5.320E-06,0.060
-5.310E-06,0.040
-5.300E-06,0.000
-5.290E-06,0.040
-5.280E-06,0.060
-5.270E-06,0.020
-5.260E-06,0.060
-5.250E-06,0.060
-5.240E-06,0.040
-5.230E-06,0.080
-5.220E-06,0.060
-5.210E-06,0.020
-5.200E-06,0.060
-5.190E-06,0.080
-5.180E-06,0.060
-5.170E-06,0.040
-5.160E-06,0.060
-5.150E-06,0.020
-5.140E-06,0.020
-5.130E-06,0.040
-5.120E-06,0.020
-5.110E-06,0.040
-5.100E-06,0.020
-5.090E-06,0.040
-5.080E-06,0.040
-5.070E-06,0.060
-5.060E-06,0.020
-5.050E-06,0.040
-5.040E-06,0.040
-5.030E-06,0.060
-5.020E-06,0.040
-5.010E-06,0.020
-5.000E-06,0.020
-4.990E-06,0.040
-4.980E-06,0.020
-4.970E-06,0.040
-4.960E-06,0.060
-4.950E-06,0.020
-4.940E-06,0.040
-4.930E-06,0.040
-4.920E-06,0.040
-4.910E-06,0.040
-4.900E-06,0.000
-4.890E-06,0.060
-4.880E-06,0.020
-4.870E-06,0.040
-4.860E-06,0.020
-4.850E-06,0.060
-4.840E-06,0.040
-4.830E-06,0.040
-4.820E-06,0.040
-4.810E-06,0.020
-4.800E-06,0.020
-4.790E-06,0.020
-4.780E-06,0.020
-4.770E-06,0.020
-4.760E-06,0.020
-4.750E-06,0.040
-4.740E-06,0.020
-4.730E-06,0.040
-4.720E-06,-0.020
-4.710E-06,0.020
-4.700E-06,0.040
-4.690E-06,0.000
-4.680E-06,0.040
-4.670E-06,0.060
-4.660E-06,0.020
-4.650E-06,0.040
-4.640E-06,0.020
-4.630E-06,0.040
-4.620E-06,0.020
-4.610E-06,0.040
-4.600E-06,0.060
-4.590E-06,0.060
-4.580E-06,0.040
-4.570E-06,0.060
-4.560E-06,0.060
-4.550E-06,0.020
-4.540E-06,0.020
-4.530E-06,0.080
-4.520E-06,0.020
-4.510E-06,0.040
-4.500E-06,0.040
-4.490E-06,0.060
-4.480E-06,0.040
-4.470E-06,0.020
-4.460E-06,0.040
-4.450E-06,0.020
-4.440E-06,0.080
-4.430E-06,0.060
-4.420E-06,0.040
-4.410E-06,-0.020
-4.400E-06,0.020
-4.390E-06,0.020
-4.380E-06,0.040
-4.370E-06,0.020
-4.360E-06,0.040
-4.350E-06,0.020
-4.340E-06,0.040
-4.330E-06,0.000
-4.320E-06,0.020
-4.310E-06,0.020
-4.300E-06,0.020
-4.290E-06,0.020
-4.280E-06,0.020
-4.270E-06,0.040
-4.260E-06,0.040
-4.250E-06,0.040
-4.240E-06,0.040
-4.230E-06,0.060
-4.220E-06,0.060
-4.210E-06,0.060
-4.200E-06,0.000
-4.190E-06,0.040
-4.180E-06,0.040
-4.170E-06,0.060
-4.160E-06,0.040
-4.150E-06,0.040
-4.140E-06,0.040
-4.130E-06,0.080
-4.120E-06,0.020
-4.110E-06,0.080
-4.100E-06,0.040
-4.090E-06,0.040
-4.080E-06,0.040
-4.070E-06,0.020
-4.060E-06,0.040
-4.050E-06,0.020
-4.040E-06,0.040
-4.030E-06,0.040
-4.020E-06,0.060
-4.010E-06,0.000
-4.000E-06,0.040
-3.990E-06,0.040
-3.980E-06,0.040
-3.970E-06,0.040
-3.960E-06,0.060
-3.950E-06,0.040
-3.940E-06,0.060
-3.930E-06,0.060
-3.920E-06,0.020
-3.910E-06,0.020
-3.900E-06,0.020
-3.890E-06,0.020
-3.880E-06,0.040
-3.870E-06,0.020
-3.860E-06,0.040
-3.850E-06,0.040
-3.840E-06,0.060
-3.830E-06,0.020
-3.820E-06,0.000
-3.810E-06,0.040
-3.800E-06,0.060
-3.790E-06,0.060
-3.780E-06,0.000
-3.770E-06,0.000
-3.760E-06,0.040
-3.750E-06,0.020
-3.740E-06,0.060
-3.730E-06,0.040
-3.720E-06,0.040
-3.710E-06,0.040
-3.700E-06,0.040
-3.690E-06,0.040
-3.680E-06,0.040
-3.670E-06,0.060
-3.660E-06,0.040
-3.650E-06,0.080
-3.640E-06,0.020
-3.630E-06,0.040
-3.620E-06,0.040
-3.610E-06,0.060
-3.600E-06,0.040
-3.590E-06,0.040
-3.580E-06,0.040
-3.570E-06,0.040
-3.560E-06,0.060
-3.550E-06,0.020
-3.540E-06,0.000
-3.530E-06,0.060
-3.520E-06,0.000
-3.510E-06,0.040
-3.500E-06,0.020
-3.490E-06,-0.160
-3.480E-06,-0.700
-3.470E-06,-1.680
-3.460E-06,-2.740
-3.450E-06,-3.360
-3.440E-06,-3.360
-3.430E-06,-2.940
-3.420E-06,-2.160
-3.410E-06,-0.880
-3.400E-06,0.840
-3.390E-06,1.900
-3.380E-06,2.080
-3.370E-06,2.060
-3.360E-06,2.080
-3.350E-06,2.080
-3.340E-06,2.080
-3.330E-06,2.080
-3.320E-06,2.080
-3.310E-06,1.200
-3.300E-06,0.420
-3.290E-06,-0.420
-3.280E-06,-0.820
-3.270E-06,-0.860
-3.260E-06,-0.660
-3.250E-06,-0.480
-3.240E-06,-0.400
-3.230E-06,-0.380
-3.220E-06,-0.660
-3.210E-06,-1.000
-3.200E-06,-1.460
-3.190E-06,-1.920
-3.180E-06,-2.220
-3.170E-06,-2.400
-3.160E-06,-2.280
-3.150E-06,-2.040
-3.140E-06,-1.540
-3.130E-06,-0.860
-3.120E-06,-0.100
-3.110E-06,0.700
-3.100E-06,1.380
-3.090E-06,1.820
-3.080E-06,2.040
-3.070E-06,2.060
-3.060E-06,1.820
-3.050E-06,1.360
-3.040E-06,0.880
-3.030E-06,0.320
-3.020E-06,-0.220
-3.010E-06,-0.640
-3.000E-06,-0.960
-2.990E-06,-1.140
-2.980E-06,-1.200
-2.970E-06,-1.040
-2.960E-06,-0.960
-2.950E-06,-0.760
-2.940E-06,-0.520
-2.930E-06,-0.320
-2.920E-06,-0.100
-2.910E-06,0.200
-2.900E-06,0.440
-2.890E-06,0.660
-2.880E-06,0.840
-2.870E-06,1.020
-2.860E-06,1.100
-2.850E-06,1.140
-2.840E-06,1.120
-2.830E-06,1.020
-2.820E-06,0.900
-2.810E-06,0.700
-2.800E-06,0.520
-2.790E-06,0.320
-2.780E-06,0.120
-2.770E-06,-0.060
-2.760E-06,-0.200
-2.750E-06,-0.340
-2.740E-06,-0.400
-2.730E-06,-0.520
-2.720E-06,-0.640
-2.710E-06,-0.640
-2.700E-06,-0.720
-2.690E-06,-0.780
-2.680E-06,-0.680
-2.670E-06,-0.600
-2.660E-06,-0.420
-2.650E-06,-0.180
-2.640E-06,0.100
-2.630E-06,0.360
-2.620E-06,0.600
-2.610E-06,0.780
-2.600E-06,0.900
-2.590E-06,1.000
-2.580E-06,0.900
-2.570E-06,0.800
-2.560E-06,0.580
-2.550E-06,0.280
-2.540E-06,-0.040
-2.530E-06,-0.240
-2.520E-06,-0.500
-2.510E-06,-0.580
-2.500E-06,-0.780
-2.490E-06,-0.580
-2.480E-06,-0.520
-2.470E-06,-0.620
-2.460E-06,-0.200
-2.450E-06,-0.400
-2.440E-06,0.040
-2.430E-06,-0.080
-2.420E-06,-0.140
-2.410E-06,0.040
-2.400E-06,0.100
-2.390E-06,0.440
-2.380E-06,-0.080
-2.370E-06,0.180
-2.360E-06,-0.060
-2.350E-06,-0.180
-2.340E-06,-0.180
-2.330E-06,-0.040
-2.320E-06,0.080
-2.310E-06,0.440
-2.300E-06,0.300
-2.290E-06,0.400
-2.280E-06,0.280
-2.270E-06,0.160
-2.260E-06,0.100
-2.250E-06,-0.260
-2.240E-06,-0.380
-2.230E-06,-0.260
-2.220E-06,-0.100
-2.210E-06,-0.420
-2.200E-06,-0.120
-2.190E-06,-0.420
-2.180E-06,-0.260
-2.170E-06,-0.200
-2.160E-06,-0.360
-2.150E-06,0.040
-2.140E-06,0.100
-2.130E-06,0.240
-2.120E-06,0.000
-2.110E-06,0.060
-2.100E-06,-0.040
-2.090E-06,-0.020
-2.080E-06,-0.120
-2.070E-06,-0.120
-2.060E-06,-0.020
-2.050E-06,-0.160
-2.040E-06,-0.160
-2.030E-06,-0.200
-2.020E-06,-0.280
-2.010E-06,-0.120
-2.000E-06,-0.160
-1.990E-06,0.040
-1.980E-06,0.080
-1.970E-06,0.100
-1.960E-06,0.040
-1.950E-06,-0.100
-1.940E-06,-0.040
-1.930E-06,-0.280
-1.920E-06,-0.020
-1.910E-06,-0.200
-1.900E-06,0.180
-1.890E-06,-0.060
-1.880E-06,0.120
-1.870E-06,-0.120
-1.860E-06,-0.100
-1.850E-06,-0.220
-1.840E-06,-0.160
-1.830E-06,-0.180
-1.820E-06,-0.120
-1.810E-06,-0.180
-1.800E-06,-0.260
-1.790E-06,-0.240
-1.780E-06,-0.220
-1.770E-06,-0.200
-1.760E-06,0.060
-1.750E-06,-0.080
-1.740E-06,0.260
-1.730E-06,-0.140
-1.720E-06,0.120
-1.710E-06,0.100
-1.700E-06,-0.140
-1.690E-06,-0.060
-1.680E-06,-0.140
-1.670E-06,-0.140
-1.660E-06,-0.160
-1.650E-06,-0.180
-1.640E-06,-0.160
-1.630E-06,-0.180
-1.620E-06,-0.100
-1.610E-06,0.160
-1.600E-06,0.620
-1.590E-06,1.180
-1.580E-06,1.680
-1.570E-06,1.960
-1.560E-06,2.000
-1.550E-06,1.440
-1.540E-06,0.580
-1.530E-06,-0.460
-1.520E-06,-1.420
-1.510E-06,-2.200
-1.500E-06,-2.500
-1.490E-06,-2.460
-1.480E-06,-2.300
-1.470E-06,-2.800
-1.460E-06,-3.080
-1.450E-06,-3.340
-1.440E-06,-3.120
-1.430E-06,-3.100
-1.420E-06,-2.280
-1.410E-06,-2.260
-1.400E-06,-1.380
-1.390E-06,-1.680
-1.380E-06,-1.240
-1.370E-06,-1.520
-1.360E-06,-1.080
-1.350E-06,-0.660
-1.340E-06,0.080
-1.330E-06,0.420
-1.320E-06,0.960
-1.310E-06,0.760
-1.300E-06,0.920
-1.290E-06,0.680
-1.280E-06,0.880
-1.270E-06,0.320
-1.260E-06,0.320
-1.250E-06,-0.260
-1.240E-06,-0.280
-1.230E-06,-0.680
-1.220E-06,-0.760
-1.210E-06,-1.140
-1.200E-06,-1.360
-1.190E-06,-1.500
-1.180E-06,-1.660
-1.170E-06,-1.480
-1.160E-06,-0.920
-1.150E-06,-0.860
-1.140E-06,-0.540
-1.130E-06,-0.440
-1.120E-06,-0.460
-1.110E-06,-0.380
-1.100E-06,-0.200
-1.090E-06,-0.220
-1.080E-06,-0.180
-1.070E-06,-0.340
-1.060E-06,-0.600
-1.050E-06,-0.500
-1.040E-06,-0.980
-1.030E-06,-1.280
-1.020E-06,-1.520
-1.010E-06,-1.940
-1.000E-06,-2.380
-9.900E-07,-2.780
-9.800E-07,-3.160
-9.700E-07,-3.220
-9.600E-07,-3.200
-9.500E-07,-3.200
-9.400E-07,-2.880
-9.300E-07,-3.020
-9.200E-07,-3.000
-9.100E-07,-2.960
-9.000E-07,-2.780
-8.900E-07,-2.940
-8.800E-07,-2.620
-8.700E-07,-2.520
-8.600E-07,-2.320
-8.500E-07,-1.920
-8.400E-07,-1.800
-8.300E-07,-1.460
-8.200E-07,-1.160
-8.100E-07,-1.200
-8.000E-07,-0.940
-7.900E-07,-1.240
-7.800E-07,-1.160
-7.700E-07,-1.400
-7.600E-07,-1.600
-7.500E-07,-1.940
-7.400E-07,-2.180
-7.300E-07,-2.160
-7.200E-07,-2.140
-7.100E-07,-2.160
-7.000E-07,-2.120
-6.900E-07,-1.860
-6.800E-07,-1.580
-6.700E-07,-1.380
-6.600E-07,-1.020
-6.500E-07,-0.780
-6.400E-07,-0.480
-6.300E-07,-0.260
-6.200E-07,-0.120
-6.100E-07,0.000
-6.000E-07,0.060
-5.900E-07,0.040
-5.800E-07,0.160
-5.700E-07,0.200
-5.600E-07,0.180
-5.500E-07,0.160
-5.400E-07,0.080
-5.300E-07,-0.060
-5.200E-07,-0.160
-5.100E-07,-0.180
-5.000E-07,-0.220
-4.900E-07,-0.240
-4.800E-07,-0.280
-4.700E-07,-0.300
-4.600E-07,-0.320
-4.500E-07,-0.340
-4.400E-07,-0.420
-4.300E-07,-0.400
-4.200E-07,-0.420
-4.100E-07,-0.420
-4.000E-07,-0.360
-3.900E-07,-0.300
-3.800E-07,-0.200
-3.700E-07,-0.140
-3.600E-07,-0.080
-3.500E-07,-0.040
-3.400E-07,-0.020
-3.300E-07,0.100
-3.200E-07,0.200
-3.100E-07,0.180
-3.000E-07,0.140
-2.900E-07,0.020
-2.800E-07,-0.120
-2.700E-07,-0.360
-2.600E-07,-0.400
-2.500E-07,-0.520
-2.400E-07,-0.620
-2.300E-07,-0.680
-2.200E-07,-0.700
-2.100E-07,-0.780
-2.000E-07,-0.640
-1.900E-07,-0.820
-1.800E-07,-0.920
-1.700E-07,-1.200
-1.600E-07,-1.220
-1.500E-07,-1.180
-1.400E-07,-1.040
-1.300E-07,-0.920
-1.200E-07,-0.840
-1.100E-07,-0.780
-1.000E-07,-0.760
-9.000E-08,-0.680
-8.000E-08,-0.620
-7.000E-08,-0.500
-6.000E-08,-0.460
-5.000E-08,-0.460
-4.000E-08,-0.500
-3.000E-08,-0.560
-2.000E-08,-0.700
-1.000E-08,-0.760
0.000E+00,-0.860
1.000E-08,-0.940
2.000E-08,-1.060
3.000E-08,-1.160
4.000E-08,-1.340
5.000E-08,-1.420
6.000E-08,-1.700
7.000E-08,-1.720
8.000E-08,-1.920
9.000E-08,-1.840
1.000E-07,-1.940
1.100E-07,-1.860
1.200E-07,-1.920
1.300E-07,-2.000
1.400E-07,-2.020
1.500E-07,-2.160
1.600E-07,-2.180
1.700E-07,-2.180
1.800E-07,-2.200
1.900E-07,-2.160
2.000E-07,-2.120
2.100E-07,-2.020
2.200E-07,-1.900
2.300E-07,-1.840
2.400E-07,-1.720
2.500E-07,-1.700
2.600E-07,-1.580
2.700E-07,-1.520
2.800E-07,-1.640
2.900E-07,-1.680
3.000E-07,-1.940
3.100E-07,-1.880
3.200E-07,-2.000
3.300E-07,-1.900
3.400E-07,-1.780
3.500E-07,-1.680
3.600E-07,-1.500
3.700E-07,-1.400
3.800E-07,-1.080
3.900E-07,-0.940
4.000E-07,-0.580
4.100E-07,-0.460
4.200E-07,-0.280
4.300E-07,-0.180
4.400E-07,0.160
4.500E-07,0.120
4.600E-07,0.320
4.700E-07,0.360
4.800E-07,0.500
4.900E-07,0.620
5.000E-07,0.640
5.100E-07,0.760
5.200E-07,0.740
5.300E-07,0.780
5.400E-07,0.720
5.500E-07,0.640
5.600E-07,0.640
5.700E-07,0.520
5.800E-07,0.520
5.900E-07,0.500
6.000E-07,0.440
6.100E-07,0.440
6.200E-07,0.040
6.300E-07,0.180
6.400E-07,-0.020
6.500E-07,0.180
6.600E-07,0.180
6.700E-07,0.080
6.800E-07,0.160
6.900E-07,0.120
7.000E-07,0.100
7.100E-07,0.120
7.200E-07,0.080
7.300E-07,0.200
7.400E-07,0.180
7.500E-07,0.220
7.600E-07,0.100
7.700E-07,-0.180
7.800E-07,-0.160
7.900E-07,-0.300
8.000E-07,-0.120
8.100E-07,-0.440
8.200E-07,-0.580
8.300E-07,-0.460
8.400E-07,-0.620
8.500E-07,-0.180
8.600E-07,-0.420
8.700E-07,-0.020
8.800E-07,-0.180
8.900E-07,-0.020
9.000E-07,-0.100
9.100E-07,0.060
9.200E-07,0.080
9.300E-07,0.160
9.400E-07,0.160
9.500E-07,0.220
9.600E-07,0.220
9.700E-07,0.240
9.800E-07,0.260
9.900E-07,0.260
1.000E-06,0.320
1.010E-06,0.320
1.020E-06,0.320
1.030E-06,0.320
1.040E-06,0.300
1.050E-06,0.300
1.060E-06,0.280
1.070E-06,0.240
1.080E-06,0.200
1.090E-06,0.180
1.100E-06,0.160
1.110E-06,0.180
1.120E-06,0.180
1.130E-06,0.140
1.140E-06,0.160
1.150E-06,0.180
1.160E-06,0.220
1.170E-06,0.220
1.180E-06,0.260
1.190E-06,0.300
1.200E-06,0.340
1.210E-06,0.340
1.220E-06,0.340
1.230E-06,0.320
1.240E-06,0.300
1.250E-06,0.300
1.260E-06,0.280
1.270E-06,0.260
1.280E-06,0.240
1.290E-06,0.240
1.300E-06,0.260
1.310E-06,0.220
1.320E-06,0.240
1.330E-06,0.220
1.340E-06,0.260
1.350E-06,0.260
1.360E-06,0.220
1.370E-06,0.240
1.380E-06,0.220
1.390E-06,0.220
1.400E-06,0.220
1.410E-06,0.240
1.420E-06,0.260
1.430E-06,0.260
1.440E-06,0.260
1.450E-06,0.280
1.460E-06,0.300
1.470E-06,0.280
1.480E-06,0.340
1.490E-06,0.360
1.500E-06,0.380
1.510E-06,0.400
1.520E-06,0.440
1.530E-06,0.460
1.540E-06,0.500
1.550E-06,0.440
1.560E-06,0.440
1.570E-06,0.400
1.580E-06,0.360
1.590E-06,0.340
1.600E-06,0.280
1.610E-06,0.260
1.620E-06,0.260
1.630E-06,0.240
1.640E-06,0.200
1.650E-06,0.180
1.660E-06,0.180
1.670E-06,0.180
1.680E-06,0.160
1.690E-06,0.200
1.700E-06,0.220
1.710E-06,0.200
1.720E-06,0.240
1.730E-06,0.220
1.740E-06,0.220
1.750E-06,0.260
1.760E-06,0.220
1.770E-06,0.220
1.780E-06,0.200
1.790E-06,0.160
1.800E-06,0.160
1.810E-06,0.160
1.820E-06,0.180
1.830E-06,0.180
1.840E-06,0.160
1.850E-06,0.180
1.860E-06,0.220
1.870E-06,0.200
1.880E-06,0.220
1.890E-06,0.220
1.900E-06,0.220
1.910E-06,0.240
1.920E-06,0.220
1.930E-06,0.220
1.940E-06,0.220
1.950E-06,0.240
1.960E-06,0.220
1.970E-06,0.160
1.980E-06,0.180
1.990E-06,0.200
2.000E-06,0.140
2.010E-06,0.160
2.020E-06,0.160
2.030E-06,0.200
2.040E-06,0.240
2.050E-06,0.240
2.060E-06,0.280
2.070E-06,0.340
2.080E-06,0.340
2.090E-06,0.360
2.100E-06,0.360
2.110E-06,0.320
2.120E-06,0.360
2.130E-06,0.380
2.140E-06,0.420
2.150E-06,0.480
2.160E-06,0.480
2.170E-06,0.540
2.180E-06,0.580
2.190E-06,0.640
2.200E-06,0.660
2.210E-06,0.680
2.220E-06,0.720
2.230E-06,0.740
2.240E-06,0.720
2.250E-06,0.700
2.260E-06,0.660
2.270E-06,0.640
2.280E-06,0.580
2.290E-06,0.540
2.300E-06,0.540
2.310E-06,0.500
2.320E-06,0.520
2.330E-06,0.500
2.340E-06,0.520
2.350E-06,0.520
2.360E-06,0.540
2.370E-06,0.600
2.380E-06,0.660
2.390E-06,0.660
2.400E-06,0.660
2.410E-06,0.640
2.420E-06,0.640
2.430E-06,0.580
2.440E-06,0.560
2.450E-06,0.500
2.460E-06,0.460
2.470E-06,0.420
2.480E-06,0.420
2.490E-06,0.380
2.500E-06,0.320
2.510E-06,0.300
2.520E-06,0.260
2.530E-06,0.200
2.540E-06,0.120
2.550E-06,0.020
2.560E-06,-0.040
2.570E-06,-0.100
2.580E-06,-0.140
2.590E-06,-0.160
2.600E-06,-0.200
2.610E-06,-0.180
2.620E-06,-0.180
2.630E-06,-0.180
2.640E-06,-0.160
2.650E-06,-0.160
2.660E-06,-0.120
2.670E-06,-0.100
2.680E-06,-0.060
2.690E-06,0.000
2.700E-06,0.080
2.710E-06,0.080
2.720E-06,0.140
2.730E-06,0.180
2.740E-06,0.260
2.750E-06,0.320
2.760E-06,0.380
2.770E-06,0.400
2.780E-06,0.480
2.790E-06,0.520
2.800E-06,0.580
2.810E-06,0.580
2.820E-06,0.660
2.830E-06,0.680
2.840E-06,0.660
2.850E-06,0.740
2.860E-06,0.760
2.870E-06,0.840
2.880E-06,0.820
2.890E-06,0.860
2.900E-06,0.920
2.910E-06,0.940
2.920E-06,0.940
2.930E-06,0.980
2.940E-06,0.980
2.950E-06,0.980
2.960E-06,0.980
2.970E-06,0.940
2.980E-06,0.920
2.990E-06,0.940
3.000E-06,0.900
3.010E-06,0.880
3.020E-06,0.900
3.030E-06,0.880
3.040E-06,0.960
3.050E-06,1.000
3.060E-06,1.000
3.070E-06,1.020
3.080E-06,1.000
3.090E-06,0.940
3.100E-06,0.840
3.110E-06,0.700
3.120E-06,0.640
3.130E-06,0.520
3.140E-06,0.440
3.150E-06,0.340
3.160E-06,0.300
3.170E-06,0.260
3.180E-06,0.240
3.190E-06,0.260
3.200E-06,0.240
3.210E-06,0.240
3.220E-06,0.300
3.230E-06,0.300
3.240E-06,0.320
3.250E-06,0.340
3.260E-06,0.340
3.270E-06,0.320
3.280E-06,0.300
3.290E-06,0.280
3.300E-06,0.280
3.310E-06,0.260
3.320E-06,0.260
3.330E-06,0.260
3.340E-06,0.240
3.350E-06,0.320
3.360E-06,0.400
3.370E-06,0.480
