mediciones/8-28/-6/WaveData65646.csv

#timebase=2000000(ps)
,#voltbase=500000(mv/100)
#size=4000
-8.350E-06,0.080
-8.340E-06,-0.020
-8.330E-06,0.060
-8.320E-06,0.020
-8.310E-06,0.020
-8.300E-06,0.060
-8.290E-06,0.020
-8.280E-06,0.020
-8.270E-06,0.020
-8.260E-06,0.060
-8.250E-06,0.020
-8.240E-06,0.060
-8.230E-06,0.040
-8.220E-06,0.020
-8.210E-06,0.060
-8.200E-06,0.040
-8.190E-06,0.000
-8.180E-06,0.040
-8.170E-06,0.000
-8.160E-06,0.080
-8.150E-06,0.060
-8.140E-06,0.020
-8.130E-06,0.000
-8.120E-06,0.040
-8.110E-06,0.060
-8.100E-06,0.020
-8.090E-06,0.040
-8.080E-06,0.020
-8.070E-06,0.040
-8.060E-06,0.080
-8.050E-06,0.020
-8.040E-06,0.040
-8.030E-06,0.080
-8.020E-06,0.000
-8.010E-06,0.020
-8.000E-06,0.020
-7.990E-06,0.060
-7.980E-06,0.020
-7.970E-06,0.040
-7.960E-06,0.060
-7.950E-06,0.040
-7.940E-06,0.040
-7.930E-06,0.060
-7.920E-06,0.040
-7.910E-06,0.040
-7.900E-06,0.040
-7.890E-06,0.020
-7.880E-06,0.040
-7.870E-06,0.020
-7.860E-06,0.080
-7.850E-06,0.060
-7.840E-06,0.020
-7.830E-06,0.020
-7.820E-06,0.040
-7.810E-06,0.020
-7.800E-06,0.060
-7.790E-06,0.020
-7.780E-06,0.020
-7.770E-06,0.040
-7.760E-06,0.060
-7.750E-06,0.020
-7.740E-06,0.020
-7.730E-06,0.020
-7.720E-06,0.040
-7.710E-06,0.080
-7.700E-06,0.020
-7.690E-06,0.020
-7.680E-06,0.040
-7.670E-06,0.020
-7.660E-06,0.020
-7.650E-06,0.040
-7.640E-06,0.040
-7.630E-06,0.040
-7.620E-06,0.060
-7.610E-06,0.040
-7.600E-06,0.020
-7.590E-06,0.060
-7.580E-06,0.060
-7.570E-06,0.020
-7.560E-06,0.020
-7.550E-06,0.040
-7.540E-06,0.020
-7.530E-06,0.040
-7.520E-06,0.040
-7.510E-06,0.040
-7.500E-06,0.060
-7.490E-06,0.040
-7.480E-06,0.020
-7.470E-06,0.060
-7.460E-06,0.060
-7.450E-06,0.040
-7.440E-06,0.020
-7.430E-06,0.020
-7.420E-06,0.040
-7.410E-06,0.020
-7.400E-06,0.040
-7.390E-06,0.040
-7.380E-06,0.060
-7.370E-06,0.040
-7.360E-06,0.040
-7.350E-06,0.080
-7.340E-06,0.040
-7.330E-06,0.060
-7.320E-06,0.040
-7.310E-06,0.080
-7.300E-06,0.080
-7.290E-06,0.020
-7.280E-06,0.020
-7.270E-06,0.040
-7.260E-06,0.040
-7.250E-06,0.040
-7.240E-06,0.060
-7.230E-06,0.060
-7.220E-06,0.040
-7.210E-06,0.060
-7.200E-06,0.040
-7.190E-06,0.020
-7.180E-06,0.020
-7.170E-06,0.020
-7.160E-06,0.020
-7.150E-06,0.020
-7.140E-06,0.020
-7.130E-06,0.040
-7.120E-06,0.020
-7.110E-06,0.040
-7.100E-06,0.020
-7.090E-06,0.020
-7.080E-06,0.040
-7.070E-06,0.060
-7.060E-06,0.060
-7.050E-06,0.060
-7.040E-06,0.040
-7.030E-06,0.040
-7.020E-06,0.060
-7.010E-06,0.040
-7.000E-06,0.060
-6.990E-06,0.060
-6.980E-06,0.020
-6.970E-06,0.020
-6.960E-06,0.040
-6.950E-06,0.060
-6.940E-06,0.060
-6.930E-06,0.060
-6.920E-06,0.060
-6.910E-06,0.020
-6.900E-06,0.020
-6.890E-06,0.040
-6.880E-06,0.060
-6.870E-06,0.020
-6.860E-06,0.040
-6.850E-06,0.060
-6.840E-06,0.040
-6.830E-06,0.020
-6.820E-06,0.020
-6.810E-06,0.040
-6.800E-06,0.020
-6.790E-06,0.020
-6.780E-06,0.020
-6.770E-06,0.020
-6.760E-06,0.060
-6.750E-06,0.020
-6.740E-06,0.000
-6.730E-06,0.040
-6.720E-06,0.040
-6.710E-06,0.020
-6.700E-06,0.040
-6.690E-06,0.060
-6.680E-06,0.020
-6.670E-06,0.060
-6.660E-06,0.060
-6.650E-06,0.020
-6.640E-06,0.020
-6.630E-06,0.040
-6.620E-06,0.000
-6.610E-06,0.040
-6.600E-06,0.020
-6.590E-06,0.040
-6.580E-06,0.060
-6.570E-06,0.020
-6.560E-06,0.060
-6.550E-06,0.060
-6.540E-06,0.040
-6.530E-06,0.060
-6.520E-06,0.020
-6.510E-06,0.000
-6.500E-06,0.040
-6.490E-06,0.040
-6.480E-06,0.040
-6.470E-06,0.060
-6.460E-06,0.040
-6.450E-06,0.060
-6.440E-06,0.020
-6.430E-06,0.040
-6.420E-06,0.040
-6.410E-06,0.020
-6.400E-06,0.000
-6.390E-06,0.020
-6.380E-06,0.000
-6.370E-06,0.020
-6.360E-06,0.040
-6.350E-06,0.020
-6.340E-06,0.040
-6.330E-06,0.040
-6.320E-06,0.040
-6.310E-06,0.060
-6.300E-06,0.040
-6.290E-06,0.020
-6.280E-06,0.020
-6.270E-06,0.040
-6.260E-06,-0.020
-6.250E-06,0.020
-6.240E-06,0.040
-6.230E-06,0.020
-6.220E-06,0.000
-6.210E-06,0.020
-6.200E-06,0.020
-6.190E-06,0.040
-6.180E-06,0.020
-6.170E-06,0.040
-6.160E-06,0.000
-6.150E-06,0.040
-6.140E-06,0.040
-6.130E-06,0.020
-6.120E-06,0.060
-6.110E-06,0.040
-6.100E-06,0.060
-6.090E-06,0.040
-6.080E-06,0.020
-6.070E-06,0.000
-6.060E-06,0.060
-6.050E-06,0.060
-6.040E-06,0.060
-6.030E-06,0.060
-6.020E-06,0.060
-6.010E-06,0.040
-6.000E-06,0.000
-5.990E-06,0.020
-5.980E-06,0.020
-5.970E-06,0.060
-5.960E-06,0.020
-5.950E-06,0.000
-5.940E-06,0.040
-5.930E-06,0.020
-5.920E-06,0.040
-5.910E-06,0.060
-5.900E-06,0.020
-5.890E-06,0.020
-5.880E-06,0.020
-5.870E-06,0.020
-5.860E-06,0.040
-5.850E-06,0.040
-5.840E-06,0.020
-5.830E-06,0.040
-5.820E-06,0.040
-5.810E-06,0.040
-5.800E-06,0.040
-5.790E-06,0.040
-5.780E-06,0.060
-5.770E-06,0.040
-5.760E-06,0.040
-5.750E-06,0.040
-5.740E-06,0.000
-5.730E-06,0.000
-5.720E-06,0.040
-5.710E-06,0.020
-5.700E-06,0.060
-5.690E-06,0.040
-5.680E-06,0.020
-5.670E-06,0.020
-5.660E-06,0.000
-5.650E-06,0.040
-5.640E-06,0.040
-5.630E-06,0.080
-5.620E-06,0.040
-5.610E-06,0.000
-5.600E-06,0.020
-5.590E-06,0.020
-5.580E-06,0.040
-5.570E-06,0.000
-5.560E-06,0.020
-5.550E-06,0.040
-5.540E-06,0.040
-5.530E-06,0.000
-5.520E-06,0.060
-5.510E-06,0.040
-5.500E-06,0.000
-5.490E-06,0.000
-5.480E-06,0.040
-5.470E-06,0.020
-5.460E-06,0.040
-5.450E-06,0.040
-5.440E-06,0.040
-5.430E-06,0.040
-5.420E-06,0.060
-5.410E-06,0.040
-5.400E-06,0.020
-5.390E-06,0.040
-5.380E-06,0.020
-5.370E-06,0.040
-5.360E-06,0.060
-5.350E-06,0.040
-5.340E-06,0.080
-5.330E-06,0.060
-5.320E-06,0.060
-5.310E-06,0.040
-5.300E-06,0.020
-5.290E-06,0.060
-5.280E-06,0.060
-5.270E-06,0.060
-5.260E-06,0.020
-5.250E-06,0.020
-5.240E-06,0.060
-5.230E-06,0.060
-5.220E-06,0.020
-5.210E-06,0.040
-5.200E-06,0.060
-5.190E-06,0.020
-5.180E-06,0.000
-5.170E-06,0.040
-5.160E-06,0.020
-5.150E-06,0.020
-5.140E-06,0.060
-5.130E-06,0.020
-5.120E-06,0.020
-5.110E-06,0.040
-5.100E-06,0.020
-5.090E-06,0.020
-5.080E-06,0.020
-5.070E-06,0.040
-5.060E-06,0.020
-5.050E-06,0.000
-5.040E-06,0.040
-5.030E-06,0.020
-5.020E-06,0.060
-5.010E-06,0.020
-5.000E-06,0.020
-4.990E-06,0.060
-4.980E-06,0.060
-4.970E-06,0.040
-4.960E-06,0.020
-4.950E-06,0.040
-4.940E-06,0.040
-4.930E-06,0.020
-4.920E-06,0.040
-4.910E-06,0.020
-4.900E-06,0.020
-4.890E-06,0.060
-4.880E-06,0.000
-4.870E-06,0.020
-4.860E-06,0.040
-4.850E-06,0.020
-4.840E-06,0.000
-4.830E-06,0.000
-4.820E-06,0.020
-4.810E-06,0.020
-4.800E-06,0.020
-4.790E-06,0.040
-4.780E-06,0.020
-4.770E-06,0.040
-4.760E-06,0.040
-4.750E-06,0.060
-4.740E-06,0.060
-4.730E-06,0.060
-4.720E-06,0.040
-4.710E-06,0.080
-4.700E-06,0.020
-4.690E-06,0.040
-4.680E-06,0.020
-4.670E-06,0.040
-4.660E-06,0.040
-4.650E-06,0.040
-4.640E-06,0.060
-4.630E-06,0.020
-4.620E-06,0.020
-4.610E-06,0.060
-4.600E-06,0.040
-4.590E-06,0.020
-4.580E-06,0.040
-4.570E-06,0.060
-4.560E-06,0.020
-4.550E-06,0.020
-4.540E-06,0.040
-4.530E-06,0.000
-4.520E-06,0.080
-4.510E-06,0.040
-4.500E-06,0.040
-4.490E-06,0.020
-4.480E-06,0.080
-4.470E-06,0.020
-4.460E-06,0.040
-4.450E-06,0.080
-4.440E-06,0.000
-4.430E-06,0.040
-4.420E-06,0.060
-4.410E-06,0.040
-4.400E-06,0.060
-4.390E-06,0.060
-4.380E-06,0.040
-4.370E-06,0.060
-4.360E-06,0.060
-4.350E-06,0.080
-4.340E-06,0.020
-4.330E-06,0.040
-4.320E-06,0.040
-4.310E-06,0.040
-4.300E-06,0.040
-4.290E-06,0.040
-4.280E-06,0.020
-4.270E-06,0.060
-4.260E-06,0.040
-4.250E-06,0.060
-4.240E-06,0.060
-4.230E-06,0.060
-4.220E-06,0.060
-4.210E-06,0.020
-4.200E-06,0.020
-4.190E-06,0.040
-4.180E-06,0.020
-4.170E-06,0.060
-4.160E-06,0.060
-4.150E-06,0.040
-4.140E-06,0.040
-4.130E-06,0.000
-4.120E-06,0.040
-4.110E-06,0.040
-4.100E-06,0.020
-4.090E-06,0.040
-4.080E-06,0.020
-4.070E-06,0.040
-4.060E-06,0.000
-4.050E-06,0.020
-4.040E-06,0.040
-4.030E-06,0.040
-4.020E-06,0.020
-4.010E-06,0.040
-4.000E-06,0.040
-3.990E-06,0.020
-3.980E-06,0.000
-3.970E-06,0.040
-3.960E-06,0.020
-3.950E-06,0.020
-3.940E-06,0.020
-3.930E-06,0.060
-3.920E-06,0.040
-3.910E-06,0.020
-3.900E-06,0.040
-3.890E-06,0.060
-3.880E-06,0.060
-3.870E-06,0.060
-3.860E-06,0.020
-3.850E-06,0.020
-3.840E-06,0.040
-3.830E-06,0.040
-3.820E-06,0.020
-3.810E-06,0.020
-3.800E-06,0.020
-3.790E-06,0.040
-3.780E-06,0.040
-3.770E-06,0.020
-3.760E-06,0.060
-3.750E-06,0.040
-3.740E-06,0.020
-3.730E-06,0.060
-3.720E-06,0.060
-3.710E-06,0.040
-3.700E-06,0.040
-3.690E-06,0.060
-3.680E-06,0.060
-3.670E-06,0.020
-3.660E-06,0.060
-3.650E-06,0.020
-3.640E-06,0.060
-3.630E-06,0.040
-3.620E-06,0.040
-3.610E-06,0.040
-3.600E-06,0.060
-3.590E-06,0.040
-3.580E-06,0.020
-3.570E-06,0.060
-3.560E-06,0.060
-3.550E-06,0.040
-3.540E-06,0.080
-3.530E-06,0.060
-3.520E-06,0.020
-3.510E-06,0.000
-3.500E-06,0.000
-3.490E-06,0.040
-3.480E-06,0.060
-3.470E-06,0.020
-3.460E-06,0.040
-3.450E-06,0.040
-3.440E-06,0.040
-3.430E-06,0.060
-3.420E-06,0.020
-3.410E-06,0.020
-3.400E-06,0.040
-3.390E-06,0.040
-3.380E-06,0.040
-3.370E-06,0.060
-3.360E-06,0.020
-3.350E-06,0.000
-3.340E-06,0.040
-3.330E-06,0.080
-3.320E-06,0.040
-3.310E-06,0.020
-3.300E-06,0.040
-3.290E-06,0.020
-3.280E-06,0.020
-3.270E-06,0.020
-3.260E-06,0.020
-3.250E-06,0.040
-3.240E-06,0.000
-3.230E-06,0.040
-3.220E-06,0.040
-3.210E-06,0.060
-3.200E-06,0.040
-3.190E-06,0.080
-3.180E-06,0.000
-3.170E-06,0.000
-3.160E-06,0.040
-3.150E-06,0.020
-3.140E-06,0.000
-3.130E-06,0.040
-3.120E-06,0.020
-3.110E-06,0.020
-3.100E-06,0.020
-3.090E-06,0.060
-3.080E-06,0.060
-3.070E-06,0.000
-3.060E-06,0.020
-3.050E-06,0.040
-3.040E-06,0.020
-3.030E-06,0.020
-3.020E-06,0.060
-3.010E-06,0.040
-3.000E-06,0.020
-2.990E-06,0.040
-2.980E-06,0.080
-2.970E-06,0.040
-2.960E-06,0.040
-2.950E-06,0.040
-2.940E-06,0.000
-2.930E-06,0.040
-2.920E-06,0.020
-2.910E-06,0.040
-2.900E-06,0.060
-2.890E-06,0.060
-2.880E-06,0.020
-2.870E-06,0.020
-2.860E-06,0.040
-2.850E-06,0.020
-2.840E-06,0.040
-2.830E-06,0.080
-2.820E-06,0.060
-2.810E-06,0.000
-2.800E-06,0.060
-2.790E-06,0.020
-2.780E-06,0.020
-2.770E-06,0.060
-2.760E-06,0.060
-2.750E-06,0.020
-2.740E-06,0.060
-2.730E-06,0.060
-2.720E-06,0.020
-2.710E-06,0.040
-2.700E-06,0.040
-2.690E-06,0.080
-2.680E-06,0.020
-2.670E-06,0.020
-2.660E-06,0.040
-2.650E-06,0.000
-2.640E-06,0.040
-2.630E-06,0.060
-2.620E-06,0.040
-2.610E-06,0.040
-2.600E-06,0.020
-2.590E-06,0.020
-2.580E-06,0.040
-2.570E-06,0.020
-2.560E-06,0.040
-2.550E-06,0.040
-2.540E-06,0.060
-2.530E-06,0.040
-2.520E-06,0.020
-2.510E-06,0.040
-2.500E-06,0.060
-2.490E-06,0.040
-2.480E-06,0.020
-2.470E-06,0.040
-2.460E-06,0.020
-2.450E-06,0.040
-2.440E-06,0.020
-2.430E-06,0.020
-2.420E-06,0.040
-2.410E-06,0.020
-2.400E-06,0.040
-2.390E-06,0.040
-2.380E-06,0.080
-2.370E-06,0.040
-2.360E-06,0.060
-2.350E-06,0.020
-2.340E-06,0.060
-2.330E-06,0.040
-2.320E-06,0.060
-2.310E-06,0.040
-2.300E-06,-0.020
-2.290E-06,0.040
-2.280E-06,0.020
-2.270E-06,0.020
-2.260E-06,0.040
-2.250E-06,0.040
-2.240E-06,0.020
-2.230E-06,0.040
-2.220E-06,0.040
-2.210E-06,0.040
-2.200E-06,0.080
-2.190E-06,0.040
-2.180E-06,0.000
-2.170E-06,0.040
-2.160E-06,0.040
-2.150E-06,0.040
-2.140E-06,0.060
-2.130E-06,0.020
-2.120E-06,0.020
-2.110E-06,0.040
-2.100E-06,0.040
-2.090E-06,0.060
-2.080E-06,0.060
-2.070E-06,0.040
-2.060E-06,0.020
-2.050E-06,0.020
-2.040E-06,0.060
-2.030E-06,0.020
-2.020E-06,0.020
-2.010E-06,0.040
-2.000E-06,0.020
-1.990E-06,0.040
-1.980E-06,0.060
-1.970E-06,0.040
-1.960E-06,0.020
-1.950E-06,0.020
-1.940E-06,0.080
-1.930E-06,0.020
-1.920E-06,0.040
-1.910E-06,0.040
-1.900E-06,0.080
-1.890E-06,0.060
-1.880E-06,-0.020
-1.870E-06,0.000
-1.860E-06,0.060
-1.850E-06,0.020
-1.840E-06,0.020
-1.830E-06,0.040
-1.820E-06,0.060
-1.810E-06,0.060
-1.800E-06,0.040
-1.790E-06,0.060
-1.780E-06,0.020
-1.770E-06,0.060
-1.760E-06,0.040
-1.750E-06,0.040
-1.740E-06,0.080
-1.730E-06,0.000
-1.720E-06,0.020
-1.710E-06,0.040
-1.700E-06,0.040
-1.690E-06,0.020
-1.680E-06,0.040
-1.670E-06,0.060
-1.660E-06,0.060
-1.650E-06,0.060
-1.640E-06,0.060
-1.630E-06,0.060
-1.620E-06,0.040
-1.610E-06,0.060
-1.600E-06,0.060
-1.590E-06,0.040
-1.580E-06,0.060
-1.570E-06,0.060
-1.560E-06,0.040
-1.550E-06,0.040
-1.540E-06,0.060
-1.530E-06,0.040
-1.520E-06,-0.020
-1.510E-06,-0.400
-1.500E-06,-1.200
-1.490E-06,-2.240
-1.480E-06,-3.100
-1.470E-06,-3.360
-1.460E-06,-3.020
-1.450E-06,-1.860
-1.440E-06,-0.620
-1.430E-06,0.720
-1.420E-06,1.980
-1.410E-06,2.100
-1.400E-06,2.080
-1.390E-06,2.100
-1.380E-06,2.080
-1.370E-06,2.100
-1.360E-06,2.080
-1.350E-06,2.060
-1.340E-06,1.140
-1.330E-06,0.240
-1.320E-06,-0.380
-1.310E-06,-0.820
-1.300E-06,-0.920
-1.290E-06,-0.680
-1.280E-06,-0.420
-1.270E-06,-0.180
-1.260E-06,-0.160
-1.250E-06,-0.320
-1.240E-06,-0.680
-1.230E-06,-1.160
-1.220E-06,-1.580
-1.210E-06,-1.960
-1.200E-06,-2.060
-1.190E-06,-2.040
-1.180E-06,-1.760
-1.170E-06,-1.340
-1.160E-06,-0.820
-1.150E-06,-0.160
-1.140E-06,0.460
-1.130E-06,1.080
-1.120E-06,1.480
-1.110E-06,1.680
-1.100E-06,1.740
-1.090E-06,1.540
-1.080E-06,1.200
-1.070E-06,0.740
-1.060E-06,0.220
-1.050E-06,-0.220
-1.040E-06,-0.600
-1.030E-06,-0.840
-1.020E-06,-0.940
-1.010E-06,-0.920
-1.000E-06,-0.840
-9.900E-07,-0.700
-9.800E-07,-0.540
-9.700E-07,-0.360
-9.600E-07,-0.240
-9.500E-07,-0.060
-9.400E-07,0.140
-9.300E-07,0.340
-9.200E-07,0.500
-9.100E-07,0.740
-9.000E-07,0.860
-8.900E-07,0.960
-8.800E-07,0.980
-8.700E-07,0.960
-8.600E-07,0.880
-8.500E-07,0.780
-8.400E-07,0.660
-8.300E-07,0.520
-8.200E-07,0.300
-8.100E-07,0.080
-8.000E-07,-0.080
-7.900E-07,-0.200
-7.800E-07,-0.320
-7.700E-07,-0.420
-7.600E-07,-0.460
-7.500E-07,-0.360
-7.400E-07,-0.380
-7.300E-07,-0.460
-7.200E-07,-0.600
-7.100E-07,-0.540
-7.000E-07,-0.600
-6.900E-07,-0.500
-6.800E-07,-0.300
-6.700E-07,0.100
-6.600E-07,0.480
-6.500E-07,0.540
-6.400E-07,0.780
-6.300E-07,0.660
-6.200E-07,0.660
-6.100E-07,0.520
-6.000E-07,0.420
-5.900E-07,0.400
-5.800E-07,0.300
-5.700E-07,0.080
-5.600E-07,-0.140
-5.500E-07,-0.440
-5.400E-07,-0.600
-5.300E-07,-0.740
-5.200E-07,-0.780
-5.100E-07,-0.640
-5.000E-07,-0.380
-4.900E-07,-0.260
-4.800E-07,-0.280
-4.700E-07,-0.160
-4.600E-07,-0.240
-4.500E-07,-0.120
-4.400E-07,-0.480
-4.300E-07,-0.080
-4.200E-07,-0.340
-4.100E-07,0.040
-4.000E-07,-0.080
-3.900E-07,0.020
-3.800E-07,-0.040
-3.700E-07,0.040
-3.600E-07,0.100
-3.500E-07,-0.020
-3.400E-07,-0.020
-3.300E-07,-0.020
-3.200E-07,0.040
-3.100E-07,-0.020
-3.000E-07,0.060
-2.900E-07,0.100
-2.800E-07,0.080
-2.700E-07,0.040
-2.600E-07,-0.100
-2.500E-07,-0.140
-2.400E-07,-0.240
-2.300E-07,-0.360
-2.200E-07,-0.320
-2.100E-07,-0.500
-2.000E-07,0.000
-1.900E-07,-0.340
-1.800E-07,0.240
-1.700E-07,-0.340
-1.600E-07,0.160
-1.500E-07,-0.240
-1.400E-07,-0.140
-1.300E-07,-0.200
-1.200E-07,-0.220
-1.100E-07,-0.120
-1.000E-07,-0.180
-9.000E-08,-0.240
-8.000E-08,0.060
-7.000E-08,0.040
-6.000E-08,0.660
-5.000E-08,0.680
-4.000E-08,2.080
-3.000E-08,0.440
-2.000E-08,-1.100
-1.000E-08,1.100
0.000E+00,-2.480
1.000E-08,-0.920
2.000E-08,-1.440
3.000E-08,-0.800
4.000E-08,0.780
5.000E-08,-1.640
6.000E-08,0.900
7.000E-08,-0.780
8.000E-08,-0.240
9.000E-08,0.000
1.000E-07,-0.160
1.100E-07,-0.340
1.200E-07,0.000
1.300E-07,0.840
1.400E-07,0.280
1.500E-07,-0.060
1.600E-07,-0.100
1.700E-07,0.260
1.800E-07,0.140
1.900E-07,-0.040
2.000E-07,0.000
2.100E-07,-0.020
2.200E-07,-0.280
2.300E-07,0.160
2.400E-07,-0.200
2.500E-07,-0.160
2.600E-07,0.260
2.700E-07,-0.040
2.800E-07,-0.240
2.900E-07,-0.140
3.000E-07,-0.460
3.100E-07,0.160
3.200E-07,-0.420
3.300E-07,-0.360
3.400E-07,-0.800
3.500E-07,-0.600
3.600E-07,-0.600
3.700E-07,-0.520
3.800E-07,-0.360
3.900E-07,0.020
4.000E-07,-0.180
4.100E-07,0.040
4.200E-07,0.020
4.300E-07,0.320
4.400E-07,0.580
4.500E-07,1.040
4.600E-07,1.380
4.700E-07,1.560
4.800E-07,1.300
4.900E-07,1.100
5.000E-07,0.440
5.100E-07,-0.040
5.200E-07,-0.640
5.300E-07,-1.320
5.400E-07,-1.500
5.500E-07,-2.100
5.600E-07,-1.780
5.700E-07,-2.080
5.800E-07,-1.420
5.900E-07,-1.400
6.000E-07,-0.280
6.100E-07,-0.240
6.200E-07,-0.040
6.300E-07,0.000
6.400E-07,0.060
6.500E-07,-0.280
6.600E-07,-0.480
6.700E-07,-0.640
6.800E-07,-0.680
6.900E-07,-0.580
7.000E-07,-0.380
7.100E-07,-0.260
7.200E-07,-0.120
7.300E-07,0.080
7.400E-07,0.420
7.500E-07,0.400
7.600E-07,0.500
7.700E-07,0.600
7.800E-07,0.200
7.900E-07,-0.080
8.000E-07,-0.780
8.100E-07,-0.840
8.200E-07,-1.120
8.300E-07,-1.040
8.400E-07,-1.160
8.500E-07,-0.820
8.600E-07,-0.700
8.700E-07,-0.340
8.800E-07,-0.120
8.900E-07,0.160
9.000E-07,0.380
9.100E-07,0.460
9.200E-07,0.500
9.300E-07,0.480
9.400E-07,0.500
9.500E-07,0.580
9.600E-07,0.660
9.700E-07,0.480
9.800E-07,0.220
9.900E-07,-0.180
1.000E-06,-0.580
1.010E-06,-0.780
1.020E-06,-1.060
1.030E-06,-0.600
1.040E-06,-0.980
1.050E-06,-0.520
1.060E-06,-0.960
1.070E-06,-0.640
1.080E-06,-0.620
1.090E-06,-0.660
1.100E-06,-0.480
1.110E-06,-0.460
1.120E-06,-0.460
1.130E-06,-0.480
1.140E-06,-0.520
1.150E-06,-0.500
1.160E-06,-0.680
1.170E-06,-0.740
1.180E-06,-0.660
1.190E-06,-0.760
1.200E-06,-0.520
1.210E-06,-0.880
1.220E-06,-0.240
1.230E-06,-0.780
1.240E-06,-0.280
1.250E-06,-0.900
1.260E-06,-0.700
1.270E-06,-0.980
1.280E-06,-1.080
1.290E-06,-1.040
1.300E-06,-1.260
1.310E-06,-1.100
1.320E-06,-1.200
1.330E-06,-1.100
1.340E-06,-0.900
1.350E-06,-0.760
1.360E-06,-0.520
1.370E-06,-0.180
1.380E-06,-0.040
1.390E-06,0.120
1.400E-06,0.200
1.410E-06,0.260
1.420E-06,0.040
1.430E-06,0.120
1.440E-06,0.300
1.450E-06,0.380
1.460E-06,0.480
1.470E-06,0.400
1.480E-06,0.080
1.490E-06,-0.100
1.500E-06,0.060
1.510E-06,-0.280
1.520E-06,-0.040
1.530E-06,-0.120
1.540E-06,0.040
1.550E-06,0.300
1.560E-06,0.040
1.570E-06,-0.040
1.580E-06,-0.220
1.590E-06,-0.440
1.600E-06,-0.560
1.610E-06,-0.740
1.620E-06,-0.660
1.630E-06,-0.720
1.640E-06,-0.700
1.650E-06,-0.680
1.660E-06,-0.780
1.670E-06,-0.780
1.680E-06,-0.760
1.690E-06,-0.760
1.700E-06,-0.720
1.710E-06,-0.700
1.720E-06,-0.700
1.730E-06,-0.720
1.740E-06,-0.720
1.750E-06,-0.600
1.760E-06,-0.540
1.770E-06,-0.500
1.780E-06,-0.380
1.790E-06,-0.360
1.800E-06,-0.340
1.810E-06,-0.420
1.820E-06,-0.180
1.830E-06,-0.020
1.840E-06,0.040
1.850E-06,0.120
1.860E-06,-0.040
1.870E-06,0.160
1.880E-06,0.080
1.890E-06,0.020
1.900E-06,0.220
1.910E-06,-0.220
1.920E-06,0.360
1.930E-06,-0.540
1.940E-06,-0.020
1.950E-06,-0.940
1.960E-06,-0.600
1.970E-06,-1.080
1.980E-06,-1.300
1.990E-06,-1.140
2.000E-06,-1.240
2.010E-06,-0.900
2.020E-06,-0.980
2.030E-06,-0.600
2.040E-06,-0.560
2.050E-06,-0.440
2.060E-06,-0.520
2.070E-06,-0.540
2.080E-06,-0.740
2.090E-06,-0.680
2.100E-06,-0.340
2.110E-06,-0.500
2.120E-06,-0.320
2.130E-06,-0.340
2.140E-06,-0.500
2.150E-06,-0.360
2.160E-06,-0.520
2.170E-06,-0.840
2.180E-06,-0.020
2.190E-06,1.200
2.200E-06,-0.720
2.210E-06,1.120
2.220E-06,0.640
2.230E-06,0.000
2.240E-06,-0.820
2.250E-06,-1.020
2.260E-06,-1.460
2.270E-06,-1.340
2.280E-06,-1.900
2.290E-06,-0.940
2.300E-06,-0.040
2.310E-06,0.280
2.320E-06,0.300
2.330E-06,-0.360
2.340E-06,-0.780
2.350E-06,-0.540
2.360E-06,-0.960
2.370E-06,-0.440
2.380E-06,-0.340
2.390E-06,-0.040
2.400E-06,-0.260
2.410E-06,-0.760
2.420E-06,-0.680
2.430E-06,-0.860
2.440E-06,-0.620
2.450E-06,-0.300
2.460E-06,-0.080
2.470E-06,0.180
2.480E-06,0.300
2.490E-06,0.240
2.500E-06,0.160
2.510E-06,0.220
2.520E-06,0.340
2.530E-06,0.460
2.540E-06,0.580
2.550E-06,0.780
2.560E-06,0.920
2.570E-06,0.920
2.580E-06,0.860
2.590E-06,0.880
2.600E-06,0.940
2.610E-06,0.960
2.620E-06,1.140
2.630E-06,0.840
2.640E-06,0.780
2.650E-06,0.300
2.660E-06,-0.020
2.670E-06,-0.480
2.680E-06,-0.760
2.690E-06,-0.940
2.700E-06,-1.160
2.710E-06,-1.320
2.720E-06,-1.340
2.730E-06,-1.600
2.740E-06,-1.660
2.750E-06,-1.760
2.760E-06,-1.760
2.770E-06,-1.060
2.780E-06,-0.860
2.790E-06,-0.280
2.800E-06,-0.160
2.810E-06,-0.360
2.820E-06,-0.680
2.830E-06,-1.040
2.840E-06,-1.560
2.850E-06,-2.120
2.860E-06,-2.220
2.870E-06,-2.560
2.880E-06,-2.160
2.890E-06,-2.320
2.900E-06,-1.680
2.910E-06,-1.660
2.920E-06,-1.440
2.930E-06,-1.420
2.940E-06,-1.400
2.950E-06,-1.180
2.960E-06,-0.960
2.970E-06,-0.720
2.980E-06,-0.520
2.990E-06,-0.380
3.000E-06,-0.500
3.010E-06,-0.440
3.020E-06,-0.340
3.030E-06,-0.300
3.040E-06,-0.320
3.050E-06,-0.280
3.060E-06,-0.100
3.070E-06,-0.120
3.080E-06,0.140
3.090E-06,0.400
3.100E-06,0.060
3.110E-06,-0.160
3.120E-06,-0.440
3.130E-06,-0.660
3.140E-06,-0.720
3.150E-06,-0.780
3.160E-06,-0.640
3.170E-06,-0.540
3.180E-06,-0.600
3.190E-06,-0.580
3.200E-06,-0.620
3.210E-06,-0.620
3.220E-06,-0.400
3.230E-06,-0.240
3.240E-06,-0.120
3.250E-06,0.080
3.260E-06,0.060
3.270E-06,0.100
3.280E-06,0.020
3.290E-06,-0.180
3.300E-06,0.020
3.310E-06,-0.320
3.320E-06,-0.180
3.330E-06,-0.260
3.340E-06,-0.280
3.350E-06,-0.340
3.360E-06,-0.400
3.370E-06,-0.380
