mediciones/curva carac 8-28 limpias/-22/WaveData65761.csv

#timebase=2000000(ps)
,#voltbase=500000(mv/100)
#size=4000
-8.350E-06,0.040
-8.340E-06,0.020
-8.330E-06,0.040
-8.320E-06,0.080
-8.310E-06,0.040
-8.300E-06,0.060
-8.290E-06,0.040
-8.280E-06,0.040
-8.270E-06,0.020
-8.260E-06,0.040
-8.250E-06,0.060
-8.240E-06,0.040
-8.230E-06,0.020
-8.220E-06,0.040
-8.210E-06,0.040
-8.200E-06,0.080
-8.190E-06,0.040
-8.180E-06,0.020
-8.170E-06,0.040
-8.160E-06,0.020
-8.150E-06,0.020
-8.140E-06,0.020
-8.130E-06,0.000
-8.120E-06,0.020
-8.110E-06,0.060
-8.100E-06,0.040
-8.090E-06,0.060
-8.080E-06,0.000
-8.070E-06,0.020
-8.060E-06,0.040
-8.050E-06,0.020
-8.040E-06,0.060
-8.030E-06,0.060
-8.020E-06,0.040
-8.010E-06,0.080
-8.000E-06,0.040
-7.990E-06,0.060
-7.980E-06,0.060
-7.970E-06,0.000
-7.960E-06,0.020
-7.950E-06,0.040
-7.940E-06,0.040
-7.930E-06,0.020
-7.920E-06,0.040
-7.910E-06,0.040
-7.900E-06,0.020
-7.890E-06,0.020
-7.880E-06,0.060
-7.870E-06,0.040
-7.860E-06,0.040
-7.850E-06,0.040
-7.840E-06,0.060
-7.830E-06,0.040
-7.820E-06,0.040
-7.810E-06,0.040
-7.800E-06,0.020
-7.790E-06,0.040
-7.780E-06,0.060
-7.770E-06,0.020
-7.760E-06,0.000
-7.750E-06,0.020
-7.740E-06,0.020
-7.730E-06,0.040
-7.720E-06,0.040
-7.710E-06,0.040
-7.700E-06,0.060
-7.690E-06,0.040
-7.680E-06,0.000
-7.670E-06,0.040
-7.660E-06,0.040
-7.650E-06,0.060
-7.640E-06,0.040
-7.630E-06,0.020
-7.620E-06,0.040
-7.610E-06,0.060
-7.600E-06,0.080
-7.590E-06,0.020
-7.580E-06,0.040
-7.570E-06,0.060
-7.560E-06,0.060
-7.550E-06,0.020
-7.540E-06,0.040
-7.530E-06,0.020
-7.520E-06,0.040
-7.510E-06,0.040
-7.500E-06,0.040
-7.490E-06,0.040
-7.480E-06,0.040
-7.470E-06,0.060
-7.460E-06,0.040
-7.450E-06,0.000
-7.440E-06,0.060
-7.430E-06,0.000
-7.420E-06,0.040
-7.410E-06,0.060
-7.400E-06,0.020
-7.390E-06,0.040
-7.380E-06,0.040
-7.370E-06,0.060
-7.360E-06,0.060
-7.350E-06,0.040
-7.340E-06,0.040
-7.330E-06,0.060
-7.320E-06,0.060
-7.310E-06,0.020
-7.300E-06,0.020
-7.290E-06,0.060
-7.280E-06,0.040
-7.270E-06,0.040
-7.260E-06,0.060
-7.250E-06,0.040
-7.240E-06,0.060
-7.230E-06,0.060
-7.220E-06,0.060
-7.210E-06,0.040
-7.200E-06,0.040
-7.190E-06,0.080
-7.180E-06,0.020
-7.170E-06,0.040
-7.160E-06,0.020
-7.150E-06,0.020
-7.140E-06,0.040
-7.130E-06,0.060
-7.120E-06,0.060
-7.110E-06,0.040
-7.100E-06,0.040
-7.090E-06,0.000
-7.080E-06,0.060
-7.070E-06,0.060
-7.060E-06,0.020
-7.050E-06,0.040
-7.040E-06,0.060
-7.030E-06,0.060
-7.020E-06,0.040
-7.010E-06,0.060
-7.000E-06,0.060
-6.990E-06,0.060
-6.980E-06,0.080
-6.970E-06,0.040
-6.960E-06,0.020
-6.950E-06,0.040
-6.940E-06,0.040
-6.930E-06,0.040
-6.920E-06,0.080
-6.910E-06,0.060
-6.900E-06,0.020
-6.890E-06,0.040
-6.880E-06,0.040
-6.870E-06,0.040
-6.860E-06,0.060
-6.850E-06,0.060
-6.840E-06,0.040
-6.830E-06,0.040
-6.820E-06,0.040
-6.810E-06,0.020
-6.800E-06,0.020
-6.790E-06,0.020
-6.780E-06,0.060
-6.770E-06,0.040
-6.760E-06,0.040
-6.750E-06,0.060
-6.740E-06,0.020
-6.730E-06,0.040
-6.720E-06,0.020
-6.710E-06,0.080
-6.700E-06,0.040
-6.690E-06,0.040
-6.680E-06,0.060
-6.670E-06,0.020
-6.660E-06,0.040
-6.650E-06,0.020
-6.640E-06,0.060
-6.630E-06,0.040
-6.620E-06,0.040
-6.610E-06,0.080
-6.600E-06,0.020
-6.590E-06,0.020
-6.580E-06,0.020
-6.570E-06,0.020
-6.560E-06,0.040
-6.550E-06,0.040
-6.540E-06,0.040
-6.530E-06,0.020
-6.520E-06,0.060
-6.510E-06,0.060
-6.500E-06,0.060
-6.490E-06,0.020
-6.480E-06,0.020
-6.470E-06,0.020
-6.460E-06,0.020
-6.450E-06,0.020
-6.440E-06,0.020
-6.430E-06,0.020
-6.420E-06,0.020
-6.410E-06,0.060
-6.400E-06,0.040
-6.390E-06,0.020
-6.380E-06,0.060
-6.370E-06,0.040
-6.360E-06,0.080
-6.350E-06,0.040
-6.340E-06,0.040
-6.330E-06,0.000
-6.320E-06,0.000
-6.310E-06,0.040
-6.300E-06,0.060
-6.290E-06,0.040
-6.280E-06,0.000
-6.270E-06,0.020
-6.260E-06,0.060
-6.250E-06,0.040
-6.240E-06,0.020
-6.230E-06,0.060
-6.220E-06,0.040
-6.210E-06,0.020
-6.200E-06,0.040
-6.190E-06,0.040
-6.180E-06,0.060
-6.170E-06,0.000
-6.160E-06,0.020
-6.150E-06,0.000
-6.140E-06,0.040
-6.130E-06,0.060
-6.120E-06,0.060
-6.110E-06,0.040
-6.100E-06,0.080
-6.090E-06,0.020
-6.080E-06,0.040
-6.070E-06,0.020
-6.060E-06,0.060
-6.050E-06,0.040
-6.040E-06,0.020
-6.030E-06,0.040
-6.020E-06,0.040
-6.010E-06,0.040
-6.000E-06,0.020
-5.990E-06,0.040
-5.980E-06,0.020
-5.970E-06,0.040
-5.960E-06,0.000
-5.950E-06,0.020
-5.940E-06,0.060
-5.930E-06,0.040
-5.920E-06,0.020
-5.910E-06,0.040
-5.900E-06,0.020
-5.890E-06,0.040
-5.880E-06,0.040
-5.870E-06,0.060
-5.860E-06,0.060
-5.850E-06,0.020
-5.840E-06,0.080
-5.830E-06,0.020
-5.820E-06,0.000
-5.810E-06,0.040
-5.800E-06,0.040
-5.790E-06,0.080
-5.780E-06,0.040
-5.770E-06,0.000
-5.760E-06,0.080
-5.750E-06,0.040
-5.740E-06,0.040
-5.730E-06,0.000
-5.720E-06,0.040
-5.710E-06,0.020
-5.700E-06,0.040
-5.690E-06,0.020
-5.680E-06,0.020
-5.670E-06,0.040
-5.660E-06,0.060
-5.650E-06,0.060
-5.640E-06,0.020
-5.630E-06,0.020
-5.620E-06,0.040
-5.610E-06,0.040
-5.600E-06,0.060
-5.590E-06,0.040
-5.580E-06,0.020
-5.570E-06,0.040
-5.560E-06,0.040
-5.550E-06,0.060
-5.540E-06,0.020
-5.530E-06,0.040
-5.520E-06,0.060
-5.510E-06,0.040
-5.500E-06,0.020
-5.490E-06,0.020
-5.480E-06,0.060
-5.470E-06,0.020
-5.460E-06,0.040
-5.450E-06,0.060
-5.440E-06,0.060
-5.430E-06,0.020
-5.420E-06,0.020
-5.410E-06,0.040
-5.400E-06,0.060
-5.390E-06,0.040
-5.380E-06,0.020
-5.370E-06,0.020
-5.360E-06,0.060
-5.350E-06,0.080
-5.340E-06,0.020
-5.330E-06,0.060
-5.320E-06,0.060
-5.310E-06,0.020
-5.300E-06,0.040
-5.290E-06,0.040
-5.280E-06,0.060
-5.270E-06,0.040
-5.260E-06,0.040
-5.250E-06,0.040
-5.240E-06,0.040
-5.230E-06,0.040
-5.220E-06,0.060
-5.210E-06,0.040
-5.200E-06,0.040
-5.190E-06,0.060
-5.180E-06,0.040
-5.170E-06,0.040
-5.160E-06,0.040
-5.150E-06,0.040
-5.140E-06,0.060
-5.130E-06,0.040
-5.120E-06,0.000
-5.110E-06,0.040
-5.100E-06,0.020
-5.090E-06,0.040
-5.080E-06,0.040
-5.070E-06,0.020
-5.060E-06,0.000
-5.050E-06,0.040
-5.040E-06,0.060
-5.030E-06,0.060
-5.020E-06,0.020
-5.010E-06,0.040
-5.000E-06,0.020
-4.990E-06,0.060
-4.980E-06,0.040
-4.970E-06,0.020
-4.960E-06,0.020
-4.950E-06,0.020
-4.940E-06,0.020
-4.930E-06,0.040
-4.920E-06,0.040
-4.910E-06,0.020
-4.900E-06,0.040
-4.890E-06,0.060
-4.880E-06,0.080
-4.870E-06,0.000
-4.860E-06,0.020
-4.850E-06,0.040
-4.840E-06,0.040
-4.830E-06,0.060
-4.820E-06,0.060
-4.810E-06,0.040
-4.800E-06,0.060
-4.790E-06,0.040
-4.780E-06,0.080
-4.770E-06,0.040
-4.760E-06,0.040
-4.750E-06,0.040
-4.740E-06,0.040
-4.730E-06,0.020
-4.720E-06,0.040
-4.710E-06,0.020
-4.700E-06,0.020
-4.690E-06,0.040
-4.680E-06,0.060
-4.670E-06,0.040
-4.660E-06,0.020
-4.650E-06,0.000
-4.640E-06,0.040
-4.630E-06,0.000
-4.620E-06,0.040
-4.610E-06,0.040
-4.600E-06,0.060
-4.590E-06,0.060
-4.580E-06,0.060
-4.570E-06,0.060
-4.560E-06,0.040
-4.550E-06,0.000
-4.540E-06,0.040
-4.530E-06,0.060
-4.520E-06,0.060
-4.510E-06,0.060
-4.500E-06,0.020
-4.490E-06,0.040
-4.480E-06,0.020
-4.470E-06,0.020
-4.460E-06,0.040
-4.450E-06,0.000
-4.440E-06,0.040
-4.430E-06,0.040
-4.420E-06,0.040
-4.410E-06,0.040
-4.400E-06,0.060
-4.390E-06,0.020
-4.380E-06,0.060
-4.370E-06,0.020
-4.360E-06,0.020
-4.350E-06,0.060
-4.340E-06,0.020
-4.330E-06,0.020
-4.320E-06,0.040
-4.310E-06,0.000
-4.300E-06,0.020
-4.290E-06,0.040
-4.280E-06,0.020
-4.270E-06,0.060
-4.260E-06,0.060
-4.250E-06,0.060
-4.240E-06,0.040
-4.230E-06,0.020
-4.220E-06,0.040
-4.210E-06,0.060
-4.200E-06,0.040
-4.190E-06,0.060
-4.180E-06,0.040
-4.170E-06,0.040
-4.160E-06,0.040
-4.150E-06,0.060
-4.140E-06,0.020
-4.130E-06,0.040
-4.120E-06,0.060
-4.110E-06,0.020
-4.100E-06,0.060
-4.090E-06,0.040
-4.080E-06,0.020
-4.070E-06,0.040
-4.060E-06,0.020
-4.050E-06,0.020
-4.040E-06,0.040
-4.030E-06,0.060
-4.020E-06,0.020
-4.010E-06,0.020
-4.000E-06,0.060
-3.990E-06,0.020
-3.980E-06,0.040
-3.970E-06,0.040
-3.960E-06,0.040
-3.950E-06,0.000
-3.940E-06,0.020
-3.930E-06,0.020
-3.920E-06,0.040
-3.910E-06,0.000
-3.900E-06,0.040
-3.890E-06,0.020
-3.880E-06,0.040
-3.870E-06,0.040
-3.860E-06,0.040
-3.850E-06,0.060
-3.840E-06,0.040
-3.830E-06,0.020
-3.820E-06,0.040
-3.810E-06,0.040
-3.800E-06,0.060
-3.790E-06,0.060
-3.780E-06,0.040
-3.770E-06,-0.020
-3.760E-06,0.000
-3.750E-06,0.020
-3.740E-06,0.040
-3.730E-06,0.040
-3.720E-06,0.020
-3.710E-06,0.020
-3.700E-06,0.020
-3.690E-06,0.000
-3.680E-06,0.020
-3.670E-06,0.020
-3.660E-06,0.040
-3.650E-06,0.060
-3.640E-06,0.060
-3.630E-06,0.060
-3.620E-06,0.020
-3.610E-06,0.060
-3.600E-06,0.040
-3.590E-06,0.020
-3.580E-06,0.060
-3.570E-06,0.020
-3.560E-06,0.020
-3.550E-06,0.040
-3.540E-06,0.020
-3.530E-06,0.040
-3.520E-06,0.020
-3.510E-06,0.040
-3.500E-06,0.060
-3.490E-06,0.020
-3.480E-06,0.020
-3.470E-06,0.040
-3.460E-06,0.000
-3.450E-06,0.040
-3.440E-06,0.020
-3.430E-06,0.040
-3.420E-06,0.060
-3.410E-06,0.040
-3.400E-06,0.020
-3.390E-06,0.040
-3.380E-06,0.060
-3.370E-06,0.040
-3.360E-06,0.040
-3.350E-06,0.020
-3.340E-06,0.040
-3.330E-06,0.060
-3.320E-06,0.060
-3.310E-06,-0.020
-3.300E-06,0.060
-3.290E-06,0.040
-3.280E-06,0.060
-3.270E-06,0.040
-3.260E-06,0.040
-3.250E-06,0.060
-3.240E-06,0.060
-3.230E-06,0.060
-3.220E-06,0.020
-3.210E-06,0.020
-3.200E-06,0.060
-3.190E-06,0.060
-3.180E-06,0.040
-3.170E-06,0.040
-3.160E-06,0.040
-3.150E-06,0.000
-3.140E-06,0.040
-3.130E-06,0.060
-3.120E-06,0.040
-3.110E-06,0.040
-3.100E-06,0.060
-3.090E-06,0.040
-3.080E-06,0.080
-3.070E-06,0.020
-3.060E-06,0.020
-3.050E-06,0.040
-3.040E-06,0.020
-3.030E-06,0.020
-3.020E-06,0.020
-3.010E-06,0.020
-3.000E-06,0.040
-2.990E-06,0.040
-2.980E-06,0.060
-2.970E-06,0.060
-2.960E-06,0.040
-2.950E-06,0.020
-2.940E-06,0.060
-2.930E-06,0.000
-2.920E-06,0.040
-2.910E-06,0.080
-2.900E-06,0.000
-2.890E-06,0.020
-2.880E-06,0.020
-2.870E-06,0.020
-2.860E-06,0.040
-2.850E-06,0.020
-2.840E-06,0.000
-2.830E-06,0.040
-2.820E-06,0.060
-2.810E-06,0.060
-2.800E-06,0.000
-2.790E-06,0.020
-2.780E-06,0.040
-2.770E-06,0.040
-2.760E-06,0.020
-2.750E-06,0.040
-2.740E-06,0.060
-2.730E-06,0.000
-2.720E-06,0.060
-2.710E-06,0.060
-2.700E-06,0.040
-2.690E-06,0.060
-2.680E-06,0.060
-2.670E-06,0.020
-2.660E-06,0.060
-2.650E-06,0.020
-2.640E-06,0.020
-2.630E-06,0.060
-2.620E-06,0.040
-2.610E-06,0.040
-2.600E-06,0.020
-2.590E-06,0.040
-2.580E-06,0.000
-2.570E-06,0.020
-2.560E-06,0.040
-2.550E-06,0.060
-2.540E-06,0.080
-2.530E-06,0.060
-2.520E-06,0.040
-2.510E-06,0.020
-2.500E-06,0.040
-2.490E-06,0.040
-2.480E-06,0.040
-2.470E-06,0.040
-2.460E-06,0.060
-2.450E-06,0.040
-2.440E-06,0.060
-2.430E-06,0.020
-2.420E-06,0.000
-2.410E-06,0.040
-2.400E-06,0.000
-2.390E-06,0.040
-2.380E-06,0.040
-2.370E-06,0.040
-2.360E-06,0.040
-2.350E-06,0.060
-2.340E-06,0.080
-2.330E-06,0.020
-2.320E-06,0.040
-2.310E-06,0.020
-2.300E-06,0.060
-2.290E-06,0.040
-2.280E-06,0.020
-2.270E-06,0.040
-2.260E-06,0.040
-2.250E-06,0.060
-2.240E-06,0.060
-2.230E-06,0.040
-2.220E-06,0.020
-2.210E-06,0.000
-2.200E-06,0.040
-2.190E-06,0.040
-2.180E-06,0.060
-2.170E-06,0.040
-2.160E-06,0.040
-2.150E-06,0.020
-2.140E-06,0.020
-2.130E-06,0.040
-2.120E-06,0.020
-2.110E-06,0.040
-2.100E-06,0.080
-2.090E-06,0.040
-2.080E-06,0.020
-2.070E-06,0.020
-2.060E-06,0.020
-2.050E-06,-0.040
-2.040E-06,-0.420
-2.030E-06,-1.160
-2.020E-06,-2.160
-2.010E-06,-3.020
-2.000E-06,-3.340
-1.990E-06,-3.040
-1.980E-06,-2.040
-1.970E-06,-0.240
-1.960E-06,0.760
-1.950E-06,1.700
-1.940E-06,2.060
-1.930E-06,2.080
-1.920E-06,2.100
-1.910E-06,2.100
-1.900E-06,2.080
-1.890E-06,2.080
-1.880E-06,1.880
-1.870E-06,1.160
-1.860E-06,0.260
-1.850E-06,-0.360
-1.840E-06,-0.640
-1.830E-06,-0.680
-1.820E-06,-0.540
-1.810E-06,-0.380
-1.800E-06,-0.120
-1.790E-06,-0.200
-1.780E-06,-0.420
-1.770E-06,-0.760
-1.760E-06,-1.200
-1.750E-06,-1.580
-1.740E-06,-1.920
-1.730E-06,-2.000
-1.720E-06,-1.960
-1.710E-06,-1.600
-1.700E-06,-1.180
-1.690E-06,-0.740
-1.680E-06,-0.080
-1.670E-06,0.460
-1.660E-06,1.100
-1.650E-06,1.420
-1.640E-06,1.680
-1.630E-06,1.680
-1.620E-06,1.420
-1.610E-06,1.160
-1.600E-06,0.700
-1.590E-06,0.320
-1.580E-06,-0.120
-1.570E-06,-0.560
-1.560E-06,-0.700
-1.550E-06,-0.920
-1.540E-06,-0.900
-1.530E-06,-0.900
-1.520E-06,-0.760
-1.510E-06,-0.500
-1.500E-06,-0.380
-1.490E-06,-0.220
-1.480E-06,-0.080
-1.470E-06,0.080
-1.460E-06,0.320
-1.450E-06,0.360
-1.440E-06,0.620
-1.430E-06,0.760
-1.420E-06,0.840
-1.410E-06,0.860
-1.400E-06,0.820
-1.390E-06,0.700
-1.380E-06,0.560
-1.370E-06,0.420
-1.360E-06,0.180
-1.350E-06,-0.020
-1.340E-06,-0.120
-1.330E-06,-0.200
-1.320E-06,-0.220
-1.310E-06,-0.240
-1.300E-06,-0.360
-1.290E-06,-0.380
-1.280E-06,-0.420
-1.270E-06,-0.540
-1.260E-06,-0.620
-1.250E-06,-0.640
-1.240E-06,-0.600
-1.230E-06,-0.500
-1.220E-06,-0.400
-1.210E-06,-0.260
-1.200E-06,0.100
-1.190E-06,0.260
-1.180E-06,0.500
-1.170E-06,0.660
-1.160E-06,0.760
-1.150E-06,0.720
-1.140E-06,0.700
-1.130E-06,0.660
-1.120E-06,0.240
-1.110E-06,0.060
-1.100E-06,-0.160
-1.090E-06,-0.380
-1.080E-06,-0.480
-1.070E-06,-0.560
-1.060E-06,-0.560
-1.050E-06,-0.460
-1.040E-06,-0.520
-1.030E-06,-0.380
-1.020E-06,-0.340
-1.010E-06,-0.260
-1.000E-06,-0.080
-9.900E-07,-0.100
-9.800E-07,-0.020
-9.700E-07,0.000
-9.600E-07,0.100
-9.500E-07,0.020
-9.400E-07,0.140
-9.300E-07,0.040
-9.200E-07,0.020
-9.100E-07,-0.120
-9.000E-07,-0.100
-8.900E-07,-0.140
-8.800E-07,-0.040
-8.700E-07,0.220
-8.600E-07,-0.060
-8.500E-07,0.260
-8.400E-07,0.100
-8.300E-07,-0.100
-8.200E-07,0.140
-8.100E-07,-0.100
-8.000E-07,-0.040
-7.900E-07,-0.100
-7.800E-07,-0.140
-7.700E-07,-0.080
-7.600E-07,-0.140
-7.500E-07,-0.020
-7.400E-07,-0.080
-7.300E-07,-0.020
-7.200E-07,-0.020
-7.100E-07,0.000
-7.000E-07,0.000
-6.900E-07,0.060
-6.800E-07,-0.040
-6.700E-07,-0.020
-6.600E-07,-0.080
-6.500E-07,-0.120
-6.400E-07,-0.120
-6.300E-07,-0.200
-6.200E-07,-0.140
-6.100E-07,-0.160
-6.000E-07,-0.160
-5.900E-07,-0.140
-5.800E-07,-0.160
-5.700E-07,-0.160
-5.600E-07,-0.180
-5.500E-07,-0.180
-5.400E-07,-0.160
-5.300E-07,-0.140
-5.200E-07,-0.140
-5.100E-07,-0.100
-5.000E-07,0.000
-4.900E-07,-0.080
-4.800E-07,-0.040
-4.700E-07,-0.120
-4.600E-07,-0.120
-4.500E-07,-0.200
-4.400E-07,-0.180
-4.300E-07,-0.120
-4.200E-07,-0.080
-4.100E-07,-0.100
-4.000E-07,-0.020
-3.900E-07,-0.180
-3.800E-07,-0.220
-3.700E-07,-0.140
-3.600E-07,-0.100
-3.500E-07,-0.140
-3.400E-07,-0.040
-3.300E-07,-0.240
-3.200E-07,-0.240
-3.100E-07,-0.420
-3.000E-07,0.000
-2.900E-07,-0.180
-2.800E-07,0.040
-2.700E-07,-0.200
-2.600E-07,0.060
-2.500E-07,-0.160
-2.400E-07,-0.180
-2.300E-07,-0.280
-2.200E-07,-0.460
-2.100E-07,-0.340
-2.000E-07,-0.160
-1.900E-07,-0.300
-1.800E-07,-0.100
-1.700E-07,-0.600
-1.600E-07,-0.340
-1.500E-07,-0.300
-1.400E-07,0.320
-1.300E-07,0.040
-1.200E-07,-0.100
-1.100E-07,-0.120
-1.000E-07,-0.480
-9.000E-08,-1.020
-8.000E-08,-1.280
-7.000E-08,-0.520
-6.000E-08,-0.700
-5.000E-08,-0.380
-4.000E-08,-0.120
-3.000E-08,0.240
-2.000E-08,-0.060
-1.000E-08,-0.140
0.000E+00,-0.400
1.000E-08,0.060
2.000E-08,-0.160
3.000E-08,-0.240
4.000E-08,0.240
5.000E-08,0.060
6.000E-08,0.160
7.000E-08,-0.160
8.000E-08,-0.180
9.000E-08,0.040
1.000E-07,-0.180
1.100E-07,0.020
1.200E-07,-0.020
1.300E-07,-0.160
1.400E-07,-0.100
1.500E-07,-0.260
1.600E-07,-0.460
1.700E-07,-0.460
1.800E-07,-0.440
1.900E-07,-0.240
2.000E-07,-0.260
2.100E-07,-0.240
2.200E-07,-0.280
2.300E-07,-0.360
2.400E-07,-0.400
2.500E-07,-0.480
2.600E-07,-0.460
2.700E-07,-0.360
2.800E-07,-0.120
2.900E-07,0.380
3.000E-07,1.060
3.100E-07,2.000
3.200E-07,2.080
3.300E-07,2.080
3.400E-07,1.960
3.500E-07,1.560
3.600E-07,0.160
3.700E-07,-0.440
3.800E-07,-1.640
3.900E-07,-1.800
4.000E-07,-2.040
4.100E-07,-2.280
4.200E-07,-2.820
4.300E-07,-3.340
4.400E-07,-3.340
4.500E-07,-3.340
4.600E-07,-3.340
4.700E-07,-3.000
4.800E-07,-2.540
4.900E-07,-2.140
5.000E-07,-1.880
5.100E-07,-1.820
5.200E-07,-1.660
5.300E-07,-1.280
5.400E-07,-0.700
5.500E-07,0.020
5.600E-07,0.680
5.700E-07,1.060
5.800E-07,1.420
5.900E-07,1.540
6.000E-07,1.440
6.100E-07,1.180
6.200E-07,1.020
6.300E-07,0.620
6.400E-07,0.460
6.500E-07,0.120
6.600E-07,-0.300
6.700E-07,-0.400
6.800E-07,-1.000
6.900E-07,-1.520
7.000E-07,-1.420
7.100E-07,-2.460
7.200E-07,-1.440
7.300E-07,-0.240
7.400E-07,-1.080
7.500E-07,0.860
7.600E-07,-2.060
7.700E-07,-1.000
7.800E-07,-1.860
7.900E-07,-0.600
8.000E-07,-0.500
8.100E-07,0.880
8.200E-07,0.840
8.300E-07,1.500
8.400E-07,0.280
8.500E-07,0.180
8.600E-07,-0.260
8.700E-07,-0.820
8.800E-07,-0.280
8.900E-07,-0.520
9.000E-07,-0.680
9.100E-07,-0.740
9.200E-07,-1.040
9.300E-07,-0.900
9.400E-07,-0.920
9.500E-07,-0.760
9.600E-07,-1.100
9.700E-07,-0.680
9.800E-07,-0.840
9.900E-07,-0.440
1.000E-06,-1.020
1.010E-06,-0.880
1.020E-06,-1.100
1.030E-06,-1.020
1.040E-06,-1.040
1.050E-06,-1.460
1.060E-06,-1.340
1.070E-06,-0.960
1.080E-06,-0.640
1.090E-06,-0.700
1.100E-06,-0.040
1.110E-06,-0.980
1.120E-06,-0.620
1.130E-06,-1.120
1.140E-06,-0.740
1.150E-06,-0.820
1.160E-06,-1.040
1.170E-06,-1.060
1.180E-06,-1.180
1.190E-06,-0.920
1.200E-06,-1.120
1.210E-06,-0.980
1.220E-06,-0.940
1.230E-06,-0.780
1.240E-06,-0.520
1.250E-06,-0.380
1.260E-06,-0.260
1.270E-06,-0.340
1.280E-06,-0.200
1.290E-06,-0.240
1.300E-06,0.000
1.310E-06,0.240
1.320E-06,0.360
1.330E-06,0.160
1.340E-06,0.220
1.350E-06,0.280
1.360E-06,0.140
1.370E-06,-0.080
1.380E-06,-0.240
1.390E-06,-0.500
1.400E-06,-1.220
1.410E-06,-0.980
1.420E-06,-1.240
1.430E-06,-1.000
1.440E-06,-0.820
1.450E-06,-0.780
1.460E-06,-0.580
1.470E-06,-0.580
1.480E-06,-0.660
1.490E-06,-0.620
1.500E-06,-0.700
1.510E-06,-0.600
1.520E-06,-0.600
1.530E-06,-0.500
1.540E-06,-0.400
1.550E-06,-0.260
1.560E-06,-0.340
1.570E-06,-0.420
1.580E-06,-0.600
1.590E-06,-0.620
1.600E-06,-0.520
1.610E-06,-0.460
1.620E-06,-0.440
1.630E-06,-0.460
1.640E-06,-0.480
1.650E-06,-0.460
1.660E-06,-0.400
1.670E-06,-0.500
1.680E-06,-0.340
1.690E-06,-0.240
1.700E-06,-0.180
1.710E-06,-0.240
1.720E-06,-0.540
1.730E-06,-0.740
1.740E-06,-1.100
1.750E-06,-0.860
1.760E-06,-0.920
1.770E-06,-0.440
1.780E-06,-0.600
1.790E-06,-0.400
1.800E-06,-0.600
1.810E-06,-0.460
1.820E-06,-0.660
1.830E-06,-0.700
1.840E-06,-0.780
1.850E-06,-0.840
1.860E-06,-0.920
1.870E-06,-0.760
1.880E-06,-0.920
1.890E-06,-0.580
1.900E-06,-0.940
1.910E-06,-0.620
1.920E-06,-1.520
1.930E-06,-1.680
1.940E-06,-2.540
1.950E-06,-2.540
1.960E-06,-2.760
1.970E-06,-2.840
1.980E-06,-2.760
1.990E-06,-3.060
2.000E-06,-2.980
2.010E-06,-2.900
2.020E-06,-2.780
2.030E-06,-2.660
2.040E-06,-2.520
2.050E-06,-2.300
2.060E-06,-2.240
2.070E-06,-2.020
2.080E-06,-1.960
2.090E-06,-1.880
2.100E-06,-1.880
2.110E-06,-1.880
2.120E-06,-1.740
2.130E-06,-1.940
2.140E-06,-1.840
2.150E-06,-2.200
2.160E-06,-2.460
2.170E-06,-2.220
2.180E-06,-2.240
2.190E-06,-2.560
2.200E-06,-2.320
2.210E-06,-2.140
2.220E-06,-2.220
2.230E-06,-2.520
2.240E-06,-2.780
2.250E-06,-2.840
2.260E-06,-2.840
2.270E-06,-2.560
2.280E-06,-2.080
2.290E-06,-1.520
2.300E-06,-0.760
2.310E-06,-0.740
2.320E-06,-0.560
2.330E-06,-0.500
2.340E-06,-0.800
2.350E-06,-0.880
2.360E-06,-1.100
2.370E-06,-1.420
2.380E-06,-1.460
2.390E-06,-1.660
2.400E-06,-1.540
2.410E-06,-1.540
2.420E-06,-1.620
2.430E-06,-1.560
2.440E-06,-1.660
2.450E-06,-1.700
2.460E-06,-1.760
2.470E-06,-1.800
2.480E-06,-1.740
2.490E-06,-1.820
2.500E-06,-1.700
2.510E-06,-1.580
2.520E-06,-0.960
2.530E-06,-0.940
2.540E-06,-0.600
2.550E-06,-0.220
2.560E-06,-0.180
2.570E-06,-0.340
2.580E-06,-0.500
2.590E-06,-2.360
2.600E-06,-3.180
2.610E-06,-3.340
2.620E-06,-3.340
2.630E-06,-3.340
2.640E-06,-3.340
2.650E-06,-3.340
2.660E-06,-3.340
2.670E-06,-3.340
2.680E-06,-3.340
2.690E-06,-3.340
2.700E-06,-3.040
2.710E-06,-2.560
2.720E-06,-2.540
2.730E-06,-2.240
2.740E-06,-2.360
2.750E-06,-2.540
2.760E-06,-2.740
2.770E-06,-2.760
2.780E-06,-2.800
2.790E-06,-2.560
2.800E-06,-2.200
2.810E-06,-1.520
2.820E-06,-1.080
2.830E-06,-0.760
2.840E-06,-0.720
2.850E-06,-0.420
2.860E-06,-0.640
2.870E-06,-0.420
2.880E-06,-0.360
2.890E-06,-0.260
2.900E-06,-0.140
2.910E-06,-0.120
2.920E-06,0.060
2.930E-06,0.140
2.940E-06,0.260
2.950E-06,0.420
2.960E-06,0.580
2.970E-06,0.720
2.980E-06,0.920
2.990E-06,1.100
3.000E-06,1.220
3.010E-06,1.260
3.020E-06,1.200
3.030E-06,0.900
3.040E-06,0.880
3.050E-06,0.420
3.060E-06,0.340
3.070E-06,0.000
3.080E-06,-0.360
3.090E-06,-0.640
3.100E-06,-1.000
3.110E-06,-1.220
3.120E-06,-1.360
3.130E-06,-1.480
3.140E-06,-1.600
3.150E-06,-1.620
3.160E-06,-1.760
3.170E-06,-1.600
3.180E-06,-1.700
3.190E-06,-1.640
3.200E-06,-1.700
3.210E-06,-1.680
3.220E-06,-1.660
3.230E-06,-1.680
3.240E-06,-1.620
3.250E-06,-1.580
3.260E-06,-1.520
3.270E-06,-1.440
3.280E-06,-1.300
3.290E-06,-1.360
3.300E-06,-1.340
3.310E-06,-1.420
