mediciones/curva carac 8-28 limpias/-48/WaveData65956.csv

#timebase=2000000(ps)
,#voltbase=500000(mv/100)
#size=4000
-8.350E-06,0.060
-8.340E-06,0.040
-8.330E-06,0.020
-8.320E-06,0.060
-8.310E-06,0.040
-8.300E-06,0.040
-8.290E-06,0.040
-8.280E-06,0.060
-8.270E-06,0.060
-8.260E-06,0.000
-8.250E-06,0.040
-8.240E-06,0.040
-8.230E-06,0.060
-8.220E-06,0.060
-8.210E-06,0.040
-8.200E-06,0.020
-8.190E-06,0.040
-8.180E-06,0.080
-8.170E-06,0.020
-8.160E-06,0.020
-8.150E-06,0.080
-8.140E-06,0.080
-8.130E-06,0.020
-8.120E-06,0.040
-8.110E-06,0.040
-8.100E-06,0.020
-8.090E-06,0.040
-8.080E-06,0.060
-8.070E-06,0.040
-8.060E-06,0.040
-8.050E-06,0.020
-8.040E-06,0.000
-8.030E-06,0.040
-8.020E-06,0.040
-8.010E-06,0.060
-8.000E-06,0.020
-7.990E-06,0.020
-7.980E-06,0.040
-7.970E-06,0.020
-7.960E-06,0.040
-7.950E-06,0.060
-7.940E-06,0.040
-7.930E-06,0.080
-7.920E-06,0.060
-7.910E-06,0.040
-7.900E-06,0.060
-7.890E-06,0.040
-7.880E-06,0.020
-7.870E-06,0.020
-7.860E-06,0.020
-7.850E-06,0.060
-7.840E-06,0.040
-7.830E-06,0.020
-7.820E-06,0.040
-7.810E-06,0.060
-7.800E-06,0.060
-7.790E-06,0.020
-7.780E-06,0.020
-7.770E-06,0.040
-7.760E-06,0.040
-7.750E-06,0.060
-7.740E-06,0.020
-7.730E-06,0.020
-7.720E-06,0.060
-7.710E-06,0.040
-7.700E-06,0.040
-7.690E-06,0.040
-7.680E-06,0.020
-7.670E-06,0.060
-7.660E-06,0.040
-7.650E-06,0.060
-7.640E-06,0.080
-7.630E-06,0.040
-7.620E-06,0.000
-7.610E-06,0.040
-7.600E-06,0.060
-7.590E-06,0.020
-7.580E-06,0.040
-7.570E-06,0.060
-7.560E-06,0.040
-7.550E-06,0.040
-7.540E-06,0.020
-7.530E-06,0.060
-7.520E-06,0.040
-7.510E-06,0.040
-7.500E-06,0.040
-7.490E-06,0.040
-7.480E-06,0.060
-7.470E-06,0.020
-7.460E-06,0.020
-7.450E-06,0.040
-7.440E-06,0.020
-7.430E-06,0.040
-7.420E-06,0.040
-7.410E-06,0.060
-7.400E-06,0.060
-7.390E-06,0.040
-7.380E-06,0.020
-7.370E-06,0.040
-7.360E-06,0.020
-7.350E-06,0.040
-7.340E-06,0.040
-7.330E-06,0.060
-7.320E-06,0.040
-7.310E-06,0.040
-7.300E-06,0.060
-7.290E-06,0.040
-7.280E-06,0.040
-7.270E-06,0.040
-7.260E-06,0.060
-7.250E-06,0.020
-7.240E-06,0.020
-7.230E-06,0.040
-7.220E-06,0.060
-7.210E-06,0.020
-7.200E-06,0.020
-7.190E-06,0.040
-7.180E-06,0.040
-7.170E-06,0.060
-7.160E-06,0.040
-7.150E-06,0.040
-7.140E-06,0.060
-7.130E-06,0.040
-7.120E-06,0.060
-7.110E-06,0.040
-7.100E-06,0.060
-7.090E-06,0.060
-7.080E-06,0.020
-7.070E-06,0.040
-7.060E-06,0.080
-7.050E-06,0.020
-7.040E-06,0.040
-7.030E-06,0.060
-7.020E-06,0.060
-7.010E-06,0.060
-7.000E-06,0.080
-6.990E-06,0.080
-6.980E-06,0.020
-6.970E-06,0.020
-6.960E-06,0.040
-6.950E-06,0.060
-6.940E-06,0.040
-6.930E-06,0.020
-6.920E-06,0.020
-6.910E-06,0.040
-6.900E-06,0.020
-6.890E-06,0.040
-6.880E-06,0.060
-6.870E-06,0.020
-6.860E-06,0.060
-6.850E-06,0.060
-6.840E-06,0.040
-6.830E-06,0.040
-6.820E-06,0.020
-6.810E-06,0.060
-6.800E-06,0.080
-6.790E-06,0.060
-6.780E-06,0.040
-6.770E-06,0.040
-6.760E-06,0.020
-6.750E-06,0.040
-6.740E-06,0.040
-6.730E-06,0.080
-6.720E-06,0.040
-6.710E-06,0.020
-6.700E-06,0.060
-6.690E-06,0.060
-6.680E-06,0.020
-6.670E-06,0.040
-6.660E-06,0.040
-6.650E-06,0.060
-6.640E-06,0.020
-6.630E-06,0.080
-6.620E-06,0.020
-6.610E-06,0.020
-6.600E-06,0.040
-6.590E-06,0.020
-6.580E-06,0.040
-6.570E-06,0.060
-6.560E-06,0.040
-6.550E-06,0.020
-6.540E-06,0.040
-6.530E-06,0.060
-6.520E-06,0.040
-6.510E-06,0.060
-6.500E-06,0.020
-6.490E-06,0.040
-6.480E-06,0.060
-6.470E-06,0.020
-6.460E-06,0.020
-6.450E-06,0.000
-6.440E-06,0.040
-6.430E-06,0.000
-6.420E-06,0.040
-6.410E-06,0.060
-6.400E-06,0.020
-6.390E-06,0.040
-6.380E-06,0.040
-6.370E-06,0.020
-6.360E-06,0.040
-6.350E-06,0.040
-6.340E-06,0.060
-6.330E-06,0.040
-6.320E-06,0.040
-6.310E-06,0.020
-6.300E-06,0.020
-6.290E-06,0.020
-6.280E-06,0.040
-6.270E-06,0.040
-6.260E-06,0.020
-6.250E-06,0.060
-6.240E-06,0.040
-6.230E-06,0.040
-6.220E-06,0.060
-6.210E-06,0.020
-6.200E-06,0.040
-6.190E-06,0.080
-6.180E-06,0.060
-6.170E-06,0.040
-6.160E-06,0.060
-6.150E-06,0.060
-6.140E-06,0.060
-6.130E-06,0.040
-6.120E-06,0.060
-6.110E-06,0.060
-6.100E-06,0.020
-6.090E-06,0.060
-6.080E-06,0.080
-6.070E-06,0.040
-6.060E-06,0.060
-6.050E-06,0.060
-6.040E-06,0.040
-6.030E-06,0.080
-6.020E-06,0.080
-6.010E-06,0.060
-6.000E-06,0.060
-5.990E-06,0.040
-5.980E-06,0.020
-5.970E-06,0.040
-5.960E-06,0.080
-5.950E-06,0.000
-5.940E-06,0.040
-5.930E-06,0.080
-5.920E-06,0.040
-5.910E-06,0.040
-5.900E-06,0.080
-5.890E-06,0.020
-5.880E-06,0.000
-5.870E-06,0.060
-5.860E-06,0.020
-5.850E-06,0.040
-5.840E-06,0.060
-5.830E-06,0.040
-5.820E-06,0.020
-5.810E-06,0.040
-5.800E-06,-0.020
-5.790E-06,0.060
-5.780E-06,0.020
-5.770E-06,0.040
-5.760E-06,0.040
-5.750E-06,0.080
-5.740E-06,0.040
-5.730E-06,0.040
-5.720E-06,0.040
-5.710E-06,0.020
-5.700E-06,0.040
-5.690E-06,0.000
-5.680E-06,0.040
-5.670E-06,0.080
-5.660E-06,0.080
-5.650E-06,0.080
-5.640E-06,0.020
-5.630E-06,0.040
-5.620E-06,0.060
-5.610E-06,0.060
-5.600E-06,0.020
-5.590E-06,0.040
-5.580E-06,0.060
-5.570E-06,0.060
-5.560E-06,0.060
-5.550E-06,0.060
-5.540E-06,0.020
-5.530E-06,0.040
-5.520E-06,0.060
-5.510E-06,0.040
-5.500E-06,0.020
-5.490E-06,0.040
-5.480E-06,0.040
-5.470E-06,0.020
-5.460E-06,0.040
-5.450E-06,0.020
-5.440E-06,0.040
-5.430E-06,0.040
-5.420E-06,0.040
-5.410E-06,0.060
-5.400E-06,0.040
-5.390E-06,0.040
-5.380E-06,0.020
-5.370E-06,0.040
-5.360E-06,0.040
-5.350E-06,0.040
-5.340E-06,0.060
-5.330E-06,0.040
-5.320E-06,0.020
-5.310E-06,0.020
-5.300E-06,0.060
-5.290E-06,0.020
-5.280E-06,0.040
-5.270E-06,0.060
-5.260E-06,0.020
-5.250E-06,0.020
-5.240E-06,0.040
-5.230E-06,0.080
-5.220E-06,0.060
-5.210E-06,0.020
-5.200E-06,0.060
-5.190E-06,0.040
-5.180E-06,0.080
-5.170E-06,0.040
-5.160E-06,0.040
-5.150E-06,0.040
-5.140E-06,0.060
-5.130E-06,0.020
-5.120E-06,0.040
-5.110E-06,0.040
-5.100E-06,0.040
-5.090E-06,0.060
-5.080E-06,0.040
-5.070E-06,0.060
-5.060E-06,0.060
-5.050E-06,0.020
-5.040E-06,0.040
-5.030E-06,0.040
-5.020E-06,0.060
-5.010E-06,0.060
-5.000E-06,0.020
-4.990E-06,0.060
-4.980E-06,0.040
-4.970E-06,0.060
-4.960E-06,0.020
-4.950E-06,0.040
-4.940E-06,0.040
-4.930E-06,0.000
-4.920E-06,0.080
-4.910E-06,0.040
-4.900E-06,0.080
-4.890E-06,0.040
-4.880E-06,0.040
-4.870E-06,0.060
-4.860E-06,0.040
-4.850E-06,0.040
-4.840E-06,0.040
-4.830E-06,0.020
-4.820E-06,0.080
-4.810E-06,0.060
-4.800E-06,0.020
-4.790E-06,0.040
-4.780E-06,0.080
-4.770E-06,0.020
-4.760E-06,0.000
-4.750E-06,0.040
-4.740E-06,0.020
-4.730E-06,0.040
-4.720E-06,0.000
-4.710E-06,0.020
-4.700E-06,0.040
-4.690E-06,0.060
-4.680E-06,0.020
-4.670E-06,0.060
-4.660E-06,0.080
-4.650E-06,0.060
-4.640E-06,0.060
-4.630E-06,0.040
-4.620E-06,0.020
-4.610E-06,0.060
-4.600E-06,0.040
-4.590E-06,0.040
-4.580E-06,0.080
-4.570E-06,0.060
-4.560E-06,0.040
-4.550E-06,0.040
-4.540E-06,0.020
-4.530E-06,0.020
-4.520E-06,0.040
-4.510E-06,0.020
-4.500E-06,0.060
-4.490E-06,0.020
-4.480E-06,0.020
-4.470E-06,0.040
-4.460E-06,0.040
-4.450E-06,0.040
-4.440E-06,0.020
-4.430E-06,0.040
-4.420E-06,0.040
-4.410E-06,0.020
-4.400E-06,0.000
-4.390E-06,0.020
-4.380E-06,0.040
-4.370E-06,0.020
-4.360E-06,0.020
-4.350E-06,0.040
-4.340E-06,0.040
-4.330E-06,0.060
-4.320E-06,0.040
-4.310E-06,0.000
-4.300E-06,0.040
-4.290E-06,0.040
-4.280E-06,0.060
-4.270E-06,0.040
-4.260E-06,0.040
-4.250E-06,0.060
-4.240E-06,0.040
-4.230E-06,0.000
-4.220E-06,0.020
-4.210E-06,0.060
-4.200E-06,0.040
-4.190E-06,0.080
-4.180E-06,0.060
-4.170E-06,0.040
-4.160E-06,0.060
-4.150E-06,0.060
-4.140E-06,0.040
-4.130E-06,0.000
-4.120E-06,0.040
-4.110E-06,0.040
-4.100E-06,0.040
-4.090E-06,0.040
-4.080E-06,0.020
-4.070E-06,0.040
-4.060E-06,0.020
-4.050E-06,0.080
-4.040E-06,-0.080
-4.030E-06,-0.600
-4.020E-06,-1.480
-4.010E-06,-2.540
-4.000E-06,-3.320
-3.990E-06,-3.340
-3.980E-06,-2.020
-3.970E-06,-1.740
-3.960E-06,-1.100
-3.950E-06,1.620
-3.940E-06,2.080
-3.930E-06,2.080
-3.920E-06,2.080
-3.910E-06,2.060
-3.900E-06,2.080
-3.890E-06,2.100
-3.880E-06,2.080
-3.870E-06,1.720
-3.860E-06,0.740
-3.850E-06,0.300
-3.840E-06,-0.680
-3.830E-06,-0.780
-3.820E-06,-0.900
-3.810E-06,-0.440
-3.800E-06,-0.160
-3.790E-06,-0.200
-3.780E-06,-0.020
-3.770E-06,-0.240
-3.760E-06,-0.680
-3.750E-06,-1.240
-3.740E-06,-1.580
-3.730E-06,-1.960
-3.720E-06,-2.180
-3.710E-06,-1.920
-3.700E-06,-1.780
-3.690E-06,-1.380
-3.680E-06,-0.660
-3.670E-06,-0.020
-3.660E-06,0.580
-3.650E-06,1.140
-3.640E-06,1.620
-3.630E-06,1.760
-3.620E-06,1.760
-3.610E-06,1.620
-3.600E-06,1.200
-3.590E-06,0.700
-3.580E-06,0.280
-3.570E-06,-0.220
-3.560E-06,-0.560
-3.550E-06,-0.820
-3.540E-06,-0.880
-3.530E-06,-0.940
-3.520E-06,-0.860
-3.510E-06,-0.700
-3.500E-06,-0.640
-3.490E-06,-0.480
-3.480E-06,-0.320
-3.470E-06,-0.140
-3.460E-06,0.040
-3.450E-06,0.260
-3.440E-06,0.500
-3.430E-06,0.660
-3.420E-06,0.820
-3.410E-06,0.920
-3.400E-06,0.940
-3.390E-06,0.900
-3.380E-06,0.860
-3.370E-06,0.700
-3.360E-06,0.600
-3.350E-06,0.440
-3.340E-06,0.320
-3.330E-06,0.120
-3.320E-06,-0.020
-3.310E-06,-0.180
-3.300E-06,-0.280
-3.290E-06,-0.380
-3.280E-06,-0.480
-3.270E-06,-0.540
-3.260E-06,-0.600
-3.250E-06,-0.640
-3.240E-06,-0.600
-3.230E-06,-0.540
-3.220E-06,-0.460
-3.210E-06,-0.300
-3.200E-06,-0.100
-3.190E-06,0.180
-3.180E-06,0.380
-3.170E-06,0.600
-3.160E-06,0.780
-3.150E-06,0.860
-3.140E-06,0.900
-3.130E-06,0.840
-3.120E-06,0.700
-3.110E-06,0.520
-3.100E-06,0.340
-3.090E-06,0.080
-3.080E-06,-0.180
-3.070E-06,-0.360
-3.060E-06,-0.520
-3.050E-06,-0.620
-3.040E-06,-0.620
-3.030E-06,-0.580
-3.020E-06,-0.500
-3.010E-06,-0.380
-3.000E-06,-0.320
-2.990E-06,-0.160
-2.980E-06,-0.100
-2.970E-06,-0.040
-2.960E-06,-0.020
-2.950E-06,0.020
-2.940E-06,0.020
-2.930E-06,0.080
-2.920E-06,0.120
-2.910E-06,0.160
-2.900E-06,0.180
-2.890E-06,0.180
-2.880E-06,0.180
-2.870E-06,0.220
-2.860E-06,0.220
-2.850E-06,0.180
-2.840E-06,0.160
-2.830E-06,0.180
-2.820E-06,0.060
-2.810E-06,0.060
-2.800E-06,-0.040
-2.790E-06,-0.080
-2.780E-06,-0.080
-2.770E-06,-0.120
-2.760E-06,-0.100
-2.750E-06,-0.100
-2.740E-06,-0.080
-2.730E-06,-0.020
-2.720E-06,-0.020
-2.710E-06,-0.020
-2.700E-06,0.020
-2.690E-06,0.020
-2.680E-06,-0.020
-2.670E-06,-0.020
-2.660E-06,0.000
-2.650E-06,0.000
-2.640E-06,-0.060
-2.630E-06,-0.040
-2.620E-06,-0.060
-2.610E-06,-0.060
-2.600E-06,-0.100
-2.590E-06,-0.140
-2.580E-06,-0.140
-2.570E-06,-0.160
-2.560E-06,-0.200
-2.550E-06,-0.200
-2.540E-06,-0.220
-2.530E-06,-0.260
-2.520E-06,-0.260
-2.510E-06,-0.260
-2.500E-06,-0.200
-2.490E-06,-0.200
-2.480E-06,-0.180
-2.470E-06,-0.180
-2.460E-06,-0.180
-2.450E-06,-0.160
-2.440E-06,-0.120
-2.430E-06,-0.160
-2.420E-06,-0.200
-2.410E-06,-0.220
-2.400E-06,-0.240
-2.390E-06,-0.240
-2.380E-06,-0.260
-2.370E-06,-0.180
-2.360E-06,-0.260
-2.350E-06,-0.160
-2.340E-06,-0.120
-2.330E-06,-0.060
-2.320E-06,0.060
-2.310E-06,-0.040
-2.300E-06,0.080
-2.290E-06,0.140
-2.280E-06,0.140
-2.270E-06,0.120
-2.260E-06,-0.060
-2.250E-06,-0.060
-2.240E-06,-0.200
-2.230E-06,-0.240
-2.220E-06,-0.200
-2.210E-06,-0.260
-2.200E-06,-0.300
-2.190E-06,-0.260
-2.180E-06,-0.200
-2.170E-06,-0.160
-2.160E-06,0.160
-2.150E-06,0.720
-2.140E-06,1.280
-2.130E-06,1.780
-2.120E-06,1.980
-2.110E-06,1.900
-2.100E-06,1.400
-2.090E-06,0.700
-2.080E-06,-0.100
-2.070E-06,-0.820
-2.060E-06,-1.440
-2.050E-06,-1.860
-2.040E-06,-2.080
-2.030E-06,-2.100
-2.020E-06,-1.920
-2.010E-06,-1.620
-2.000E-06,-1.320
-1.990E-06,-1.100
-1.980E-06,-1.060
-1.970E-06,-0.980
-1.960E-06,-0.840
-1.950E-06,-0.660
-1.940E-06,-0.500
-1.930E-06,-0.400
-1.920E-06,-0.320
-1.910E-06,-0.300
-1.900E-06,-0.200
-1.890E-06,-0.140
-1.880E-06,0.060
-1.870E-06,0.420
-1.860E-06,0.760
-1.850E-06,0.900
-1.840E-06,0.900
-1.830E-06,0.780
-1.820E-06,0.580
-1.810E-06,0.360
-1.800E-06,0.180
-1.790E-06,-0.080
-1.780E-06,-0.300
-1.770E-06,-0.600
-1.760E-06,-0.760
-1.750E-06,-0.900
-1.740E-06,-0.880
-1.730E-06,-0.800
-1.720E-06,-0.660
-1.710E-06,-0.400
-1.700E-06,-0.180
-1.690E-06,0.060
-1.680E-06,0.080
-1.670E-06,0.180
-1.660E-06,0.140
-1.650E-06,0.200
-1.640E-06,0.060
-1.630E-06,-0.140
-1.620E-06,-0.180
-1.610E-06,-0.320
-1.600E-06,-0.360
-1.590E-06,-0.660
-1.580E-06,-0.760
-1.570E-06,-0.920
-1.560E-06,-0.940
-1.550E-06,-1.020
-1.540E-06,-1.000
-1.530E-06,-0.940
-1.520E-06,-0.840
-1.510E-06,-0.740
-1.500E-06,-0.740
-1.490E-06,-0.740
-1.480E-06,-0.780
-1.470E-06,-0.860
-1.460E-06,-0.900
-1.450E-06,-0.900
-1.440E-06,-0.900
-1.430E-06,-0.820
-1.420E-06,-0.600
-1.410E-06,-0.480
-1.400E-06,-0.360
-1.390E-06,-0.120
-1.380E-06,0.180
-1.370E-06,0.220
-1.360E-06,0.240
-1.350E-06,-0.100
-1.340E-06,-0.340
-1.330E-06,-0.640
-1.320E-06,-1.000
-1.310E-06,-0.940
-1.300E-06,-1.260
-1.290E-06,-1.600
-1.280E-06,-1.500
-1.270E-06,-1.780
-1.260E-06,-1.680
-1.250E-06,-1.800
-1.240E-06,-1.080
-1.230E-06,-1.020
-1.220E-06,-0.500
-1.210E-06,-0.640
-1.200E-06,-0.320
-1.190E-06,-0.720
-1.180E-06,-0.660
-1.170E-06,-0.700
-1.160E-06,-0.740
-1.150E-06,-1.080
-1.140E-06,-0.740
-1.130E-06,-0.620
-1.120E-06,-0.480
-1.110E-06,-0.640
-1.100E-06,-0.440
-1.090E-06,-0.600
-1.080E-06,-0.660
-1.070E-06,-0.800
-1.060E-06,-0.500
-1.050E-06,-0.460
-1.040E-06,-0.500
-1.030E-06,-0.520
-1.020E-06,-0.440
-1.010E-06,-0.400
-1.000E-06,-0.700
-9.900E-07,-0.460
-9.800E-07,-0.360
-9.700E-07,-0.280
-9.600E-07,-0.260
-9.500E-07,-0.280
-9.400E-07,-0.200
-9.300E-07,-0.140
-9.200E-07,-0.160
-9.100E-07,-0.100
-9.000E-07,0.020
-8.900E-07,0.080
-8.800E-07,0.100
-8.700E-07,0.080
-8.600E-07,-0.080
-8.500E-07,-0.120
-8.400E-07,-0.260
-8.300E-07,-0.460
-8.200E-07,-0.500
-8.100E-07,-0.580
-8.000E-07,-0.700
-7.900E-07,-0.800
-7.800E-07,-0.820
-7.700E-07,-0.820
-7.600E-07,-0.840
-7.500E-07,-0.920
-7.400E-07,-0.980
-7.300E-07,-0.980
-7.200E-07,-1.020
-7.100E-07,-0.960
-7.000E-07,-0.860
-6.900E-07,-0.860
-6.800E-07,-0.740
-6.700E-07,-0.760
-6.600E-07,-0.640
-6.500E-07,-0.700
-6.400E-07,-0.640
-6.300E-07,-0.920
-6.200E-07,-0.680
-6.100E-07,-0.900
-6.000E-07,-0.780
-5.900E-07,-1.120
-5.800E-07,-1.300
-5.700E-07,-1.480
-5.600E-07,-1.680
-5.500E-07,-1.820
-5.400E-07,-1.820
-5.300E-07,-1.840
-5.200E-07,-1.800
-5.100E-07,-1.900
-5.000E-07,-1.800
-4.900E-07,-1.880
-4.800E-07,-1.540
-4.700E-07,-1.540
-4.600E-07,-1.540
-4.500E-07,-1.640
-4.400E-07,-1.620
-4.300E-07,-1.480
-4.200E-07,-1.440
-4.100E-07,-1.580
-4.000E-07,-1.220
-3.900E-07,-1.480
-3.800E-07,-1.300
-3.700E-07,-0.840
-3.600E-07,-0.660
-3.500E-07,-0.600
-3.400E-07,-0.940
-3.300E-07,-0.520
-3.200E-07,0.100
-3.100E-07,1.600
-3.000E-07,2.100
-2.900E-07,2.080
-2.800E-07,2.100
-2.700E-07,1.100
-2.600E-07,-3.340
-2.500E-07,-3.300
-2.400E-07,-3.340
-2.300E-07,-3.340
-2.200E-07,-3.340
-2.100E-07,-3.320
-2.000E-07,-3.340
-1.900E-07,-3.340
-1.800E-07,-3.340
-1.700E-07,-3.340
-1.600E-07,-3.100
-1.500E-07,-2.880
-1.400E-07,-1.700
-1.300E-07,-1.580
-1.200E-07,-0.560
-1.100E-07,-0.140
-1.000E-07,0.300
-9.000E-08,0.320
-8.000E-08,0.340
-7.000E-08,0.200
-6.000E-08,0.380
-5.000E-08,0.320
-4.000E-08,0.400
-3.000E-08,0.080
-2.000E-08,-0.240
-1.000E-08,-0.660
0.000E+00,-1.380
1.000E-08,-2.060
2.000E-08,-2.760
3.000E-08,-3.340
4.000E-08,-3.340
5.000E-08,-3.340
6.000E-08,-3.340
7.000E-08,-3.340
8.000E-08,-3.340
9.000E-08,-3.340
1.000E-07,-3.340
1.100E-07,-3.360
1.200E-07,-3.340
1.300E-07,-3.340
1.400E-07,-3.340
1.500E-07,-3.340
1.600E-07,-3.340
1.700E-07,-3.320
1.800E-07,-3.320
1.900E-07,-3.340
2.000E-07,-3.340
2.100E-07,-3.360
2.200E-07,-3.340
2.300E-07,-3.340
2.400E-07,-3.340
2.500E-07,-3.340
2.600E-07,-3.340
2.700E-07,-3.340
2.800E-07,-3.340
2.900E-07,-3.340
3.000E-07,-3.340
3.100E-07,-3.340
3.200E-07,-3.100
3.300E-07,-2.600
3.400E-07,-2.120
3.500E-07,-1.760
3.600E-07,-1.460
3.700E-07,-1.160
3.800E-07,-0.800
3.900E-07,-0.460
4.000E-07,-0.180
4.100E-07,0.060
4.200E-07,0.260
4.300E-07,0.400
4.400E-07,0.440
4.500E-07,0.460
4.600E-07,0.260
4.700E-07,0.180
4.800E-07,-0.300
4.900E-07,-0.760
5.000E-07,-1.280
5.100E-07,-1.880
5.200E-07,-2.600
5.300E-07,-3.020
5.400E-07,-3.340
5.500E-07,-3.340
5.600E-07,-3.340
5.700E-07,-3.340
5.800E-07,-3.320
5.900E-07,-2.960
6.000E-07,-2.560
6.100E-07,-2.240
6.200E-07,-2.440
6.300E-07,-2.760
6.400E-07,-3.260
6.500E-07,-3.340
6.600E-07,-3.360
6.700E-07,-3.340
6.800E-07,-3.340
6.900E-07,-3.340
7.000E-07,-3.340
7.100E-07,-3.320
7.200E-07,-3.320
7.300E-07,-3.320
7.400E-07,-3.120
7.500E-07,-2.860
7.600E-07,-2.460
7.700E-07,-2.200
7.800E-07,-1.920
7.900E-07,-1.700
8.000E-07,-1.520
8.100E-07,-1.340
8.200E-07,-1.120
8.300E-07,-0.960
8.400E-07,-0.860
8.500E-07,-0.720
8.600E-07,-0.640
8.700E-07,-0.500
8.800E-07,-0.360
8.900E-07,-0.200
9.000E-07,-0.020
9.100E-07,0.140
9.200E-07,0.240
9.300E-07,0.320
9.400E-07,0.340
9.500E-07,0.320
9.600E-07,0.320
9.700E-07,0.300
9.800E-07,0.220
9.900E-07,0.220
1.000E-06,0.200
1.010E-06,0.220
1.020E-06,0.220
1.030E-06,0.260
1.040E-06,0.300
1.050E-06,0.420
1.060E-06,0.420
1.070E-06,0.400
1.080E-06,0.340
1.090E-06,0.320
1.100E-06,0.180
1.110E-06,0.060
1.120E-06,-0.060
1.130E-06,-0.180
1.140E-06,-0.300
1.150E-06,-0.460
1.160E-06,-0.580
1.170E-06,-0.760
1.180E-06,-0.860
1.190E-06,-0.920
1.200E-06,-0.900
1.210E-06,-0.860
1.220E-06,-0.820
1.230E-06,-0.700
1.240E-06,-0.680
1.250E-06,-0.600
1.260E-06,-0.560
1.270E-06,-0.540
1.280E-06,-0.500
1.290E-06,-0.480
1.300E-06,-0.460
1.310E-06,-0.380
1.320E-06,-0.340
1.330E-06,-0.380
1.340E-06,-0.460
1.350E-06,-0.640
1.360E-06,-0.780
1.370E-06,-0.960
1.380E-06,-1.120
1.390E-06,-1.240
1.400E-06,-1.360
1.410E-06,-1.420
1.420E-06,-1.380
1.430E-06,-1.320
1.440E-06,-1.200
1.450E-06,-1.020
1.460E-06,-0.820
1.470E-06,-0.600
1.480E-06,-0.460
1.490E-06,-0.300
1.500E-06,-0.100
1.510E-06,0.080
1.520E-06,0.160
1.530E-06,0.220
1.540E-06,0.260
1.550E-06,0.320
1.560E-06,0.320
1.570E-06,0.340
1.580E-06,0.400
1.590E-06,0.440
1.600E-06,0.460
1.610E-06,0.420
1.620E-06,0.400
1.630E-06,0.300
1.640E-06,0.220
1.650E-06,0.160
1.660E-06,0.120
1.670E-06,0.100
1.680E-06,0.040
1.690E-06,-0.020
1.700E-06,-0.080
1.710E-06,-0.060
1.720E-06,-0.080
1.730E-06,-0.080
1.740E-06,-0.100
1.750E-06,-0.120
1.760E-06,-0.100
1.770E-06,-0.080
1.780E-06,-0.080
1.790E-06,-0.080
1.800E-06,-0.060
1.810E-06,-0.060
1.820E-06,-0.120
1.830E-06,-0.220
1.840E-06,-0.280
1.850E-06,-0.340
1.860E-06,-0.300
1.870E-06,-0.280
1.880E-06,-0.220
1.890E-06,-0.200
1.900E-06,-0.180
1.910E-06,-0.180
1.920E-06,-0.220
1.930E-06,-0.340
1.940E-06,-0.420
1.950E-06,-0.440
1.960E-06,-0.420
1.970E-06,-0.360
1.980E-06,-0.320
1.990E-06,-0.240
2.000E-06,-0.140
2.010E-06,-0.040
2.020E-06,0.020
2.030E-06,0.040
2.040E-06,0.100
2.050E-06,0.200
2.060E-06,0.260
2.070E-06,0.300
2.080E-06,0.260
2.090E-06,0.280
2.100E-06,0.300
2.110E-06,0.340
2.120E-06,0.320
2.130E-06,0.260
2.140E-06,0.260
2.150E-06,0.260
2.160E-06,0.260
2.170E-06,0.280
2.180E-06,0.260
2.190E-06,0.140
2.200E-06,0.020
2.210E-06,0.000
2.220E-06,-0.020
2.230E-06,-0.120
2.240E-06,-0.100
2.250E-06,-0.080
2.260E-06,-0.080
2.270E-06,-0.060
2.280E-06,0.000
2.290E-06,0.020
2.300E-06,0.080
2.310E-06,0.080
2.320E-06,0.040
2.330E-06,0.120
2.340E-06,0.160
2.350E-06,0.280
2.360E-06,0.320
2.370E-06,0.320
2.380E-06,0.340
2.390E-06,0.360
2.400E-06,0.320
2.410E-06,0.280
2.420E-06,0.260
2.430E-06,0.220
2.440E-06,0.160
2.450E-06,0.140
2.460E-06,0.100
2.470E-06,0.060
2.480E-06,0.080
2.490E-06,0.100
2.500E-06,0.080
2.510E-06,0.080
2.520E-06,0.040
2.530E-06,0.020
2.540E-06,-0.020
2.550E-06,-0.080
2.560E-06,-0.160
2.570E-06,-0.160
2.580E-06,-0.260
2.590E-06,-0.300
2.600E-06,-0.420
2.610E-06,-0.460
2.620E-06,-0.560
2.630E-06,-0.620
2.640E-06,-0.640
2.650E-06,-0.660
2.660E-06,-0.660
2.670E-06,-0.700
2.680E-06,-0.680
2.690E-06,-0.660
2.700E-06,-0.660
2.710E-06,-0.660
2.720E-06,-0.680
2.730E-06,-0.740
2.740E-06,-0.780
2.750E-06,-0.800
2.760E-06,-0.820
2.770E-06,-0.740
2.780E-06,-0.680
2.790E-06,-0.560
2.800E-06,-0.460
2.810E-06,-0.340
2.820E-06,-0.240
2.830E-06,-0.120
2.840E-06,0.020
2.850E-06,0.140
2.860E-06,0.220
2.870E-06,0.220
2.880E-06,0.160
2.890E-06,0.100
2.900E-06,-0.020
2.910E-06,-0.140
2.920E-06,-0.240
2.930E-06,-0.380
2.940E-06,-0.520
2.950E-06,-0.620
2.960E-06,-0.740
2.970E-06,-0.860
2.980E-06,-0.920
2.990E-06,-0.920
3.000E-06,-0.920
3.010E-06,-0.860
3.020E-06,-0.820
3.030E-06,-0.780
3.040E-06,-0.760
3.050E-06,-0.760
3.060E-06,-0.660
3.070E-06,-0.640
3.080E-06,-0.580
3.090E-06,-0.580
3.100E-06,-0.600
3.110E-06,-0.580
3.120E-06,-0.600
3.130E-06,-0.620
3.140E-06,-0.720
3.150E-06,-0.940
3.160E-06,-1.020
3.170E-06,-1.000
3.180E-06,-0.920
3.190E-06,-0.860
3.200E-06,-0.780
3.210E-06,-0.740
3.220E-06,-0.640
3.230E-06,-0.560
3.240E-06,-0.560
3.250E-06,-0.580
