mediciones/curva carac 8-28 limpias/-48/WaveData65950.csv

#timebase=2000000(ps)
,#voltbase=500000(mv/100)
#size=4000
-8.350E-06,0.040
-8.340E-06,0.040
-8.330E-06,0.020
-8.320E-06,0.020
-8.310E-06,0.060
-8.300E-06,0.060
-8.290E-06,0.040
-8.280E-06,0.040
-8.270E-06,0.060
-8.260E-06,0.040
-8.250E-06,0.060
-8.240E-06,0.060
-8.230E-06,0.060
-8.220E-06,0.040
-8.210E-06,0.060
-8.200E-06,0.060
-8.190E-06,0.060
-8.180E-06,0.060
-8.170E-06,0.080
-8.160E-06,0.040
-8.150E-06,0.060
-8.140E-06,0.040
-8.130E-06,0.080
-8.120E-06,0.060
-8.110E-06,0.020
-8.100E-06,0.060
-8.090E-06,0.040
-8.080E-06,0.040
-8.070E-06,0.060
-8.060E-06,0.060
-8.050E-06,0.020
-8.040E-06,0.040
-8.030E-06,0.040
-8.020E-06,0.060
-8.010E-06,0.060
-8.000E-06,0.060
-7.990E-06,0.080
-7.980E-06,0.040
-7.970E-06,0.060
-7.960E-06,0.060
-7.950E-06,0.060
-7.940E-06,0.060
-7.930E-06,0.060
-7.920E-06,0.060
-7.910E-06,0.020
-7.900E-06,0.080
-7.890E-06,0.060
-7.880E-06,0.020
-7.870E-06,0.080
-7.860E-06,0.040
-7.850E-06,0.060
-7.840E-06,0.060
-7.830E-06,0.060
-7.820E-06,0.060
-7.810E-06,0.040
-7.800E-06,0.060
-7.790E-06,0.060
-7.780E-06,0.060
-7.770E-06,0.060
-7.760E-06,0.020
-7.750E-06,0.060
-7.740E-06,0.040
-7.730E-06,0.040
-7.720E-06,0.040
-7.710E-06,0.060
-7.700E-06,0.060
-7.690E-06,0.040
-7.680E-06,0.040
-7.670E-06,0.040
-7.660E-06,0.040
-7.650E-06,0.060
-7.640E-06,0.060
-7.630E-06,0.020
-7.620E-06,0.080
-7.610E-06,0.040
-7.600E-06,0.020
-7.590E-06,0.060
-7.580E-06,0.040
-7.570E-06,0.080
-7.560E-06,0.100
-7.550E-06,0.020
-7.540E-06,0.060
-7.530E-06,0.040
-7.520E-06,0.040
-7.510E-06,0.040
-7.500E-06,0.060
-7.490E-06,0.060
-7.480E-06,0.020
-7.470E-06,0.020
-7.460E-06,0.060
-7.450E-06,0.040
-7.440E-06,0.020
-7.430E-06,0.040
-7.420E-06,0.020
-7.410E-06,0.040
-7.400E-06,0.040
-7.390E-06,0.060
-7.380E-06,0.020
-7.370E-06,0.060
-7.360E-06,0.040
-7.350E-06,0.060
-7.340E-06,0.060
-7.330E-06,0.080
-7.320E-06,0.040
-7.310E-06,0.040
-7.300E-06,0.060
-7.290E-06,0.060
-7.280E-06,0.060
-7.270E-06,0.040
-7.260E-06,0.040
-7.250E-06,0.080
-7.240E-06,0.040
-7.230E-06,0.040
-7.220E-06,0.060
-7.210E-06,0.080
-7.200E-06,0.080
-7.190E-06,0.040
-7.180E-06,0.020
-7.170E-06,0.060
-7.160E-06,0.080
-7.150E-06,0.040
-7.140E-06,0.000
-7.130E-06,0.060
-7.120E-06,0.020
-7.110E-06,0.040
-7.100E-06,0.080
-7.090E-06,0.040
-7.080E-06,0.040
-7.070E-06,0.060
-7.060E-06,0.040
-7.050E-06,0.040
-7.040E-06,0.060
-7.030E-06,0.080
-7.020E-06,0.040
-7.010E-06,0.040
-7.000E-06,0.060
-6.990E-06,0.020
-6.980E-06,0.080
-6.970E-06,0.040
-6.960E-06,0.080
-6.950E-06,0.040
-6.940E-06,0.060
-6.930E-06,0.060
-6.920E-06,0.080
-6.910E-06,0.040
-6.900E-06,0.060
-6.890E-06,0.080
-6.880E-06,0.040
-6.870E-06,0.020
-6.860E-06,0.060
-6.850E-06,0.080
-6.840E-06,0.040
-6.830E-06,0.020
-6.820E-06,0.040
-6.810E-06,0.060
-6.800E-06,0.040
-6.790E-06,0.060
-6.780E-06,0.080
-6.770E-06,0.060
-6.760E-06,0.040
-6.750E-06,0.060
-6.740E-06,0.060
-6.730E-06,0.060
-6.720E-06,0.020
-6.710E-06,0.040
-6.700E-06,0.040
-6.690E-06,0.040
-6.680E-06,0.060
-6.670E-06,0.060
-6.660E-06,0.040
-6.650E-06,0.040
-6.640E-06,0.060
-6.630E-06,0.060
-6.620E-06,0.040
-6.610E-06,0.020
-6.600E-06,0.060
-6.590E-06,0.020
-6.580E-06,0.040
-6.570E-06,0.080
-6.560E-06,0.040
-6.550E-06,0.060
-6.540E-06,0.080
-6.530E-06,0.060
-6.520E-06,0.020
-6.510E-06,0.040
-6.500E-06,0.060
-6.490E-06,0.060
-6.480E-06,0.040
-6.470E-06,0.080
-6.460E-06,0.040
-6.450E-06,0.060
-6.440E-06,0.080
-6.430E-06,0.060
-6.420E-06,0.060
-6.410E-06,0.060
-6.400E-06,0.040
-6.390E-06,0.040
-6.380E-06,0.060
-6.370E-06,0.040
-6.360E-06,0.040
-6.350E-06,0.060
-6.340E-06,0.060
-6.330E-06,0.060
-6.320E-06,0.060
-6.310E-06,0.020
-6.300E-06,0.060
-6.290E-06,0.020
-6.280E-06,0.040
-6.270E-06,0.080
-6.260E-06,0.060
-6.250E-06,0.020
-6.240E-06,0.060
-6.230E-06,0.080
-6.220E-06,0.040
-6.210E-06,0.080
-6.200E-06,0.020
-6.190E-06,0.040
-6.180E-06,0.060
-6.170E-06,0.040
-6.160E-06,0.040
-6.150E-06,0.040
-6.140E-06,0.040
-6.130E-06,0.040
-6.120E-06,0.060
-6.110E-06,0.020
-6.100E-06,0.040
-6.090E-06,0.040
-6.080E-06,0.040
-6.070E-06,0.040
-6.060E-06,0.040
-6.050E-06,0.060
-6.040E-06,0.020
-6.030E-06,0.060
-6.020E-06,0.060
-6.010E-06,0.020
-6.000E-06,0.040
-5.990E-06,0.060
-5.980E-06,0.080
-5.970E-06,0.040
-5.960E-06,0.080
-5.950E-06,0.080
-5.940E-06,0.080
-5.930E-06,0.080
-5.920E-06,0.080
-5.910E-06,0.080
-5.900E-06,0.040
-5.890E-06,0.040
-5.880E-06,0.040
-5.870E-06,0.060
-5.860E-06,0.040
-5.850E-06,0.020
-5.840E-06,0.020
-5.830E-06,0.060
-5.820E-06,0.040
-5.810E-06,0.040
-5.800E-06,0.060
-5.790E-06,0.100
-5.780E-06,0.040
-5.770E-06,0.060
-5.760E-06,0.060
-5.750E-06,0.060
-5.740E-06,0.080
-5.730E-06,0.060
-5.720E-06,0.040
-5.710E-06,0.060
-5.700E-06,0.100
-5.690E-06,0.040
-5.680E-06,0.020
-5.670E-06,0.060
-5.660E-06,0.060
-5.650E-06,0.060
-5.640E-06,0.020
-5.630E-06,0.040
-5.620E-06,0.060
-5.610E-06,0.080
-5.600E-06,0.040
-5.590E-06,0.060
-5.580E-06,0.040
-5.570E-06,0.060
-5.560E-06,0.040
-5.550E-06,0.040
-5.540E-06,0.020
-5.530E-06,0.040
-5.520E-06,0.080
-5.510E-06,0.080
-5.500E-06,0.060
-5.490E-06,0.020
-5.480E-06,0.040
-5.470E-06,0.080
-5.460E-06,0.040
-5.450E-06,0.020
-5.440E-06,0.040
-5.430E-06,0.020
-5.420E-06,0.040
-5.410E-06,0.040
-5.400E-06,0.020
-5.390E-06,0.040
-5.380E-06,0.060
-5.370E-06,0.080
-5.360E-06,0.080
-5.350E-06,0.060
-5.340E-06,0.060
-5.330E-06,0.080
-5.320E-06,0.000
-5.310E-06,0.040
-5.300E-06,0.040
-5.290E-06,0.020
-5.280E-06,0.040
-5.270E-06,0.080
-5.260E-06,0.040
-5.250E-06,0.040
-5.240E-06,0.060
-5.230E-06,0.040
-5.220E-06,0.040
-5.210E-06,0.080
-5.200E-06,0.060
-5.190E-06,0.040
-5.180E-06,0.060
-5.170E-06,0.040
-5.160E-06,0.040
-5.150E-06,0.020
-5.140E-06,0.060
-5.130E-06,0.080
-5.120E-06,0.060
-5.110E-06,0.020
-5.100E-06,0.040
-5.090E-06,0.060
-5.080E-06,0.040
-5.070E-06,0.000
-5.060E-06,0.040
-5.050E-06,0.040
-5.040E-06,0.040
-5.030E-06,0.080
-5.020E-06,0.060
-5.010E-06,0.040
-5.000E-06,0.060
-4.990E-06,0.040
-4.980E-06,0.060
-4.970E-06,0.060
-4.960E-06,0.060
-4.950E-06,0.060
-4.940E-06,0.060
-4.930E-06,0.040
-4.920E-06,0.080
-4.910E-06,0.020
-4.900E-06,0.080
-4.890E-06,0.080
-4.880E-06,0.020
-4.870E-06,0.020
-4.860E-06,0.040
-4.850E-06,0.080
-4.840E-06,0.060
-4.830E-06,0.040
-4.820E-06,0.060
-4.810E-06,0.040
-4.800E-06,0.080
-4.790E-06,0.060
-4.780E-06,0.080
-4.770E-06,0.040
-4.760E-06,0.040
-4.750E-06,0.060
-4.740E-06,0.040
-4.730E-06,0.060
-4.720E-06,0.060
-4.710E-06,0.080
-4.700E-06,0.020
-4.690E-06,0.060
-4.680E-06,0.020
-4.670E-06,0.000
-4.660E-06,-0.080
-4.650E-06,-0.540
-4.640E-06,-1.360
-4.630E-06,-2.320
-4.620E-06,-2.900
-4.610E-06,-2.860
-4.600E-06,-1.880
-4.590E-06,-0.720
-4.580E-06,0.240
-4.570E-06,0.760
-4.560E-06,2.080
-4.550E-06,2.060
-4.540E-06,2.080
-4.530E-06,2.080
-4.520E-06,2.080
-4.510E-06,2.080
-4.500E-06,1.880
-4.490E-06,1.220
-4.480E-06,0.600
-4.470E-06,-0.280
-4.460E-06,-0.380
-4.450E-06,-0.580
-4.440E-06,-0.640
-4.430E-06,-0.420
-4.420E-06,-0.160
-4.410E-06,-0.200
-4.400E-06,-0.320
-4.390E-06,-0.500
-4.380E-06,-0.840
-4.370E-06,-1.080
-4.360E-06,-1.340
-4.350E-06,-1.620
-4.340E-06,-1.640
-4.330E-06,-1.520
-4.320E-06,-1.220
-4.310E-06,-0.860
-4.300E-06,-0.360
-4.290E-06,0.280
-4.280E-06,0.760
-4.270E-06,1.200
-4.260E-06,1.420
-4.250E-06,1.460
-4.240E-06,1.360
-4.230E-06,1.100
-4.220E-06,0.780
-4.210E-06,0.400
-4.200E-06,-0.020
-4.190E-06,-0.360
-4.180E-06,-0.640
-4.170E-06,-0.740
-4.160E-06,-0.800
-4.150E-06,-0.780
-4.140E-06,-0.740
-4.130E-06,-0.580
-4.120E-06,-0.480
-4.110E-06,-0.340
-4.100E-06,-0.220
-4.090E-06,-0.020
-4.080E-06,0.160
-4.070E-06,0.320
-4.060E-06,0.540
-4.050E-06,0.660
-4.040E-06,0.860
-4.030E-06,0.900
-4.020E-06,0.940
-4.010E-06,0.880
-4.000E-06,0.800
-3.990E-06,0.660
-3.980E-06,0.500
-3.970E-06,0.320
-3.960E-06,0.160
-3.950E-06,-0.020
-3.940E-06,-0.180
-3.930E-06,-0.280
-3.920E-06,-0.360
-3.910E-06,-0.500
-3.900E-06,-0.520
-3.890E-06,-0.540
-3.880E-06,-0.600
-3.870E-06,-0.580
-3.860E-06,-0.520
-3.850E-06,-0.460
-3.840E-06,-0.360
-3.830E-06,-0.180
-3.820E-06,0.080
-3.810E-06,0.260
-3.800E-06,0.420
-3.790E-06,0.620
-3.780E-06,0.760
-3.770E-06,0.840
-3.760E-06,0.800
-3.750E-06,0.760
-3.740E-06,0.600
-3.730E-06,0.440
-3.720E-06,0.280
-3.710E-06,0.220
-3.700E-06,-0.140
-3.690E-06,-0.180
-3.680E-06,-0.420
-3.670E-06,-0.440
-3.660E-06,-0.480
-3.650E-06,-0.420
-3.640E-06,-0.360
-3.630E-06,-0.260
-3.620E-06,-0.220
-3.610E-06,-0.180
-3.600E-06,-0.080
-3.590E-06,-0.060
-3.580E-06,0.040
-3.570E-06,0.060
-3.560E-06,0.080
-3.550E-06,0.080
-3.540E-06,0.100
-3.530E-06,0.160
-3.520E-06,0.120
-3.510E-06,0.160
-3.500E-06,0.180
-3.490E-06,0.200
-3.480E-06,0.220
-3.470E-06,0.200
-3.460E-06,0.180
-3.450E-06,0.180
-3.440E-06,0.140
-3.430E-06,0.040
-3.420E-06,0.000
-3.410E-06,0.000
-3.400E-06,-0.020
-3.390E-06,0.080
-3.380E-06,-0.020
-3.370E-06,0.000
-3.360E-06,-0.060
-3.350E-06,0.000
-3.340E-06,0.040
-3.330E-06,0.080
-3.320E-06,0.020
-3.310E-06,0.040
-3.300E-06,0.060
-3.290E-06,-0.020
-3.280E-06,-0.020
-3.270E-06,0.000
-3.260E-06,0.000
-3.250E-06,0.000
-3.240E-06,-0.020
-3.230E-06,-0.020
-3.220E-06,-0.040
-3.210E-06,-0.100
-3.200E-06,-0.140
-3.190E-06,-0.160
-3.180E-06,-0.160
-3.170E-06,-0.200
-3.160E-06,-0.200
-3.150E-06,-0.220
-3.140E-06,-0.220
-3.130E-06,-0.220
-3.120E-06,-0.200
-3.110E-06,-0.200
-3.100E-06,-0.160
-3.090E-06,-0.160
-3.080E-06,-0.120
-3.070E-06,-0.180
-3.060E-06,-0.120
-3.050E-06,-0.160
-3.040E-06,-0.160
-3.030E-06,-0.140
-3.020E-06,-0.140
-3.010E-06,-0.100
-3.000E-06,-0.100
-2.990E-06,-0.080
-2.980E-06,-0.080
-2.970E-06,-0.120
-2.960E-06,-0.280
-2.950E-06,0.120
-2.940E-06,0.220
-2.930E-06,0.220
-2.920E-06,-0.080
-2.910E-06,0.080
-2.900E-06,0.000
-2.890E-06,-0.100
-2.880E-06,-0.020
-2.870E-06,-0.040
-2.860E-06,0.140
-2.850E-06,0.300
-2.840E-06,0.000
-2.830E-06,0.340
-2.820E-06,-0.600
-2.810E-06,0.140
-2.800E-06,-0.360
-2.790E-06,-0.320
-2.780E-06,-0.320
-2.770E-06,-0.160
-2.760E-06,0.100
-2.750E-06,-0.160
-2.740E-06,-0.300
-2.730E-06,0.080
-2.720E-06,-0.260
-2.710E-06,-0.200
-2.700E-06,-0.020
-2.690E-06,0.340
-2.680E-06,0.220
-2.670E-06,0.320
-2.660E-06,0.180
-2.650E-06,0.240
-2.640E-06,-0.100
-2.630E-06,0.080
-2.620E-06,0.080
-2.610E-06,0.200
-2.600E-06,-0.100
-2.590E-06,0.080
-2.580E-06,-0.020
-2.570E-06,-0.080
-2.560E-06,-0.140
-2.550E-06,-0.140
-2.540E-06,-0.020
-2.530E-06,-0.020
-2.520E-06,-0.140
-2.510E-06,0.000
-2.500E-06,-0.020
-2.490E-06,-0.120
-2.480E-06,-0.100
-2.470E-06,-0.140
-2.460E-06,-0.120
-2.450E-06,-0.100
-2.440E-06,-0.180
-2.430E-06,0.020
-2.420E-06,-0.140
-2.410E-06,-0.040
-2.400E-06,-0.060
-2.390E-06,0.000
-2.380E-06,-0.100
-2.370E-06,0.120
-2.360E-06,0.100
-2.350E-06,0.000
-2.340E-06,0.080
-2.330E-06,-0.100
-2.320E-06,-0.060
-2.310E-06,-0.080
-2.300E-06,0.100
-2.290E-06,0.240
-2.280E-06,0.560
-2.270E-06,0.860
-2.260E-06,0.940
-2.250E-06,0.960
-2.240E-06,0.780
-2.230E-06,0.640
-2.220E-06,-0.020
-2.210E-06,-0.100
-2.200E-06,-0.520
-2.190E-06,-0.620
-2.180E-06,-0.840
-2.170E-06,-1.120
-2.160E-06,-0.880
-2.150E-06,-0.840
-2.140E-06,-0.780
-2.130E-06,-0.520
-2.120E-06,-0.480
-2.110E-06,-0.300
-2.100E-06,-0.480
-2.090E-06,-0.440
-2.080E-06,-0.240
-2.070E-06,-0.100
-2.060E-06,0.000
-2.050E-06,0.360
-2.040E-06,0.160
-2.030E-06,0.440
-2.020E-06,0.360
-2.010E-06,0.380
-2.000E-06,0.600
-1.990E-06,0.580
-1.980E-06,0.520
-1.970E-06,0.240
-1.960E-06,0.100
-1.950E-06,0.000
-1.940E-06,-0.180
-1.930E-06,-0.360
-1.920E-06,-0.420
-1.910E-06,-0.520
-1.900E-06,-0.620
-1.890E-06,-0.600
-1.880E-06,-0.580
-1.870E-06,-0.600
-1.860E-06,-0.480
-1.850E-06,-0.340
-1.840E-06,-0.260
-1.830E-06,0.000
-1.820E-06,0.200
-1.810E-06,0.380
-1.800E-06,0.560
-1.790E-06,0.600
-1.780E-06,0.700
-1.770E-06,0.680
-1.760E-06,0.640
-1.750E-06,0.620
-1.740E-06,0.520
-1.730E-06,0.440
-1.720E-06,0.340
-1.710E-06,0.160
-1.700E-06,0.040
-1.690E-06,-0.060
-1.680E-06,-0.140
-1.670E-06,-0.200
-1.660E-06,-0.240
-1.650E-06,-0.300
-1.640E-06,-0.320
-1.630E-06,-0.340
-1.620E-06,-0.360
-1.610E-06,-0.340
-1.600E-06,-0.300
-1.590E-06,-0.260
-1.580E-06,-0.200
-1.570E-06,-0.140
-1.560E-06,0.000
-1.550E-06,0.020
-1.540E-06,0.080
-1.530E-06,0.180
-1.520E-06,0.160
-1.510E-06,0.220
-1.500E-06,0.260
-1.490E-06,0.160
-1.480E-06,0.140
-1.470E-06,-0.020
-1.460E-06,-0.080
-1.450E-06,-0.200
-1.440E-06,-0.240
-1.430E-06,-0.300
-1.420E-06,-0.360
-1.410E-06,-0.360
-1.400E-06,-0.320
-1.390E-06,-0.360
-1.380E-06,-0.300
-1.370E-06,-0.280
-1.360E-06,-0.200
-1.350E-06,-0.140
-1.340E-06,-0.040
-1.330E-06,0.020
-1.320E-06,0.120
-1.310E-06,0.160
-1.300E-06,0.160
-1.290E-06,0.180
-1.280E-06,0.220
-1.270E-06,0.220
-1.260E-06,0.180
-1.250E-06,0.180
-1.240E-06,0.120
-1.230E-06,0.080
-1.220E-06,0.080
-1.210E-06,0.000
-1.200E-06,-0.020
-1.190E-06,-0.080
-1.180E-06,-0.080
-1.170E-06,-0.100
-1.160E-06,-0.040
-1.150E-06,-0.020
-1.140E-06,-0.060
-1.130E-06,-0.100
-1.120E-06,-0.080
-1.110E-06,-0.080
-1.100E-06,-0.040
-1.090E-06,0.080
-1.080E-06,0.140
-1.070E-06,0.100
-1.060E-06,0.080
-1.050E-06,0.080
-1.040E-06,0.080
-1.030E-06,0.060
-1.020E-06,-0.020
-1.010E-06,-0.040
-1.000E-06,-0.120
-9.900E-07,-0.160
-9.800E-07,-0.200
-9.700E-07,-0.240
-9.600E-07,-0.280
-9.500E-07,-0.240
-9.400E-07,-0.260
-9.300E-07,-0.280
-9.200E-07,-0.260
-9.100E-07,-0.300
-9.000E-07,-0.260
-8.900E-07,-0.260
-8.800E-07,-0.260
-8.700E-07,-0.240
-8.600E-07,-0.240
-8.500E-07,-0.240
-8.400E-07,-0.240
-8.300E-07,-0.220
-8.200E-07,-0.200
-8.100E-07,-0.180
-8.000E-07,-0.180
-7.900E-07,-0.220
-7.800E-07,-0.240
-7.700E-07,-0.220
-7.600E-07,-0.280
-7.500E-07,-0.260
-7.400E-07,-0.300
-7.300E-07,-0.300
-7.200E-07,-0.300
-7.100E-07,-0.300
-7.000E-07,-0.280
-6.900E-07,-0.260
-6.800E-07,-0.300
-6.700E-07,-0.260
-6.600E-07,-0.260
-6.500E-07,-0.240
-6.400E-07,-0.200
-6.300E-07,-0.140
-6.200E-07,-0.080
-6.100E-07,0.080
-6.000E-07,0.080
-5.900E-07,0.100
-5.800E-07,0.100
-5.700E-07,-0.020
-5.600E-07,-0.080
-5.500E-07,-0.160
-5.400E-07,-0.240
-5.300E-07,-0.260
-5.200E-07,-0.320
-5.100E-07,-0.360
-5.000E-07,-0.360
-4.900E-07,-0.380
-4.800E-07,-0.360
-4.700E-07,-0.340
-4.600E-07,-0.360
-4.500E-07,-0.280
-4.400E-07,-0.300
-4.300E-07,-0.300
-4.200E-07,-0.280
-4.100E-07,-0.300
-4.000E-07,-0.320
-3.900E-07,-0.340
-3.800E-07,-0.340
-3.700E-07,-0.300
-3.600E-07,-0.300
-3.500E-07,-0.260
-3.400E-07,-0.280
-3.300E-07,-0.260
-3.200E-07,-0.280
-3.100E-07,-0.320
-3.000E-07,-0.340
-2.900E-07,-0.340
-2.800E-07,-0.400
-2.700E-07,-0.440
-2.600E-07,-0.420
-2.500E-07,-0.440
-2.400E-07,-0.360
-2.300E-07,-0.400
-2.200E-07,-0.400
-2.100E-07,-0.380
-2.000E-07,-0.320
-1.900E-07,-0.200
-1.800E-07,-0.200
-1.700E-07,-0.180
-1.600E-07,-0.260
-1.500E-07,-0.300
-1.400E-07,-0.400
-1.300E-07,-0.500
-1.200E-07,-0.500
-1.100E-07,-0.440
-1.000E-07,-0.620
-9.000E-08,-0.120
-8.000E-08,-0.240
-7.000E-08,0.580
-6.000E-08,0.060
-5.000E-08,-0.180
-4.000E-08,-0.260
-3.000E-08,-1.240
-2.000E-08,-1.540
-1.000E-08,-2.100
0.000E+00,-2.300
1.000E-08,-2.160
2.000E-08,-2.220
3.000E-08,-1.440
4.000E-08,-1.160
5.000E-08,-1.080
6.000E-08,-1.040
7.000E-08,-0.860
8.000E-08,-1.940
9.000E-08,-0.980
1.000E-07,-1.180
1.100E-07,-0.340
1.200E-07,-0.360
1.300E-07,0.020
1.400E-07,-0.240
1.500E-07,-0.140
1.600E-07,-0.440
1.700E-07,-0.320
1.800E-07,-0.080
1.900E-07,-0.040
2.000E-07,0.320
2.100E-07,0.120
2.200E-07,0.200
2.300E-07,0.080
2.400E-07,-0.080
2.500E-07,-0.100
2.600E-07,-0.120
2.700E-07,-0.020
2.800E-07,-0.040
2.900E-07,-0.140
3.000E-07,-0.100
3.100E-07,-0.280
3.200E-07,-0.360
3.300E-07,-0.420
3.400E-07,-0.460
3.500E-07,-0.360
3.600E-07,-0.280
3.700E-07,-0.180
3.800E-07,-0.080
3.900E-07,-0.020
4.000E-07,-0.040
4.100E-07,0.000
4.200E-07,-0.040
4.300E-07,-0.060
4.400E-07,-0.160
4.500E-07,-0.240
4.600E-07,-0.420
4.700E-07,-0.500
4.800E-07,-0.580
4.900E-07,-0.660
5.000E-07,-0.660
5.100E-07,-0.700
5.200E-07,-0.700
5.300E-07,-0.680
5.400E-07,-0.660
5.500E-07,-0.660
5.600E-07,-0.500
5.700E-07,-0.520
5.800E-07,-0.360
5.900E-07,-0.360
6.000E-07,-0.200
6.100E-07,-0.220
6.200E-07,-0.120
6.300E-07,-0.240
6.400E-07,0.160
6.500E-07,0.400
6.600E-07,0.340
6.700E-07,2.040
6.800E-07,1.900
6.900E-07,2.080
7.000E-07,2.060
7.100E-07,1.680
7.200E-07,-0.700
7.300E-07,-2.200
7.400E-07,-3.080
7.500E-07,-1.760
7.600E-07,-1.940
7.700E-07,-1.000
7.800E-07,-2.780
7.900E-07,-3.320
8.000E-07,-3.360
8.100E-07,-3.360
8.200E-07,-3.180
8.300E-07,-2.560
8.400E-07,-1.360
8.500E-07,-0.860
8.600E-07,-0.380
8.700E-07,-0.280
8.800E-07,-0.280
8.900E-07,-0.220
9.000E-07,0.300
9.100E-07,0.640
9.200E-07,0.820
9.300E-07,0.900
9.400E-07,0.840
9.500E-07,0.840
9.600E-07,0.520
9.700E-07,0.500
9.800E-07,0.280
9.900E-07,0.300
1.000E-06,0.160
1.010E-06,-0.060
1.020E-06,-0.500
1.030E-06,-0.820
1.040E-06,-1.300
1.050E-06,-1.420
1.060E-06,-1.700
1.070E-06,-1.760
1.080E-06,-1.800
1.090E-06,-1.680
1.100E-06,-1.680
1.110E-06,-1.460
1.120E-06,-1.200
1.130E-06,-0.700
1.140E-06,-0.440
1.150E-06,-0.200
1.160E-06,0.080
1.170E-06,0.180
1.180E-06,0.300
1.190E-06,0.260
1.200E-06,0.240
1.210E-06,0.180
1.220E-06,-0.060
1.230E-06,-0.320
1.240E-06,-0.540
1.250E-06,-0.680
1.260E-06,-0.540
1.270E-06,-0.700
1.280E-06,-0.460
1.290E-06,-0.740
1.300E-06,-1.000
1.310E-06,-0.520
1.320E-06,-0.320
1.330E-06,-0.120
1.340E-06,-0.480
1.350E-06,-0.120
1.360E-06,1.560
1.370E-06,2.080
1.380E-06,2.100
1.390E-06,2.080
1.400E-06,2.080
1.410E-06,1.180
1.420E-06,-2.640
1.430E-06,-3.340
1.440E-06,-3.360
1.450E-06,-3.360
1.460E-06,-3.340
1.470E-06,-3.340
1.480E-06,-3.320
1.490E-06,-3.200
1.500E-06,-3.180
1.510E-06,-3.060
1.520E-06,-2.600
1.530E-06,-1.900
1.540E-06,-1.200
1.550E-06,-0.380
1.560E-06,0.080
1.570E-06,0.640
1.580E-06,0.700
1.590E-06,0.640
1.600E-06,0.740
1.610E-06,0.880
1.620E-06,1.260
1.630E-06,1.680
1.640E-06,1.880
1.650E-06,1.900
1.660E-06,1.680
1.670E-06,1.180
1.680E-06,0.520
1.690E-06,-0.060
1.700E-06,-0.700
1.710E-06,-1.020
1.720E-06,-1.480
1.730E-06,-1.620
1.740E-06,-1.880
1.750E-06,-1.880
1.760E-06,-1.540
1.770E-06,-1.400
1.780E-06,-1.200
1.790E-06,-0.860
1.800E-06,-0.400
1.810E-06,0.240
1.820E-06,0.700
1.830E-06,1.180
1.840E-06,1.400
1.850E-06,1.380
1.860E-06,1.120
1.870E-06,0.740
1.880E-06,0.380
1.890E-06,0.000
1.900E-06,-0.280
1.910E-06,-0.500
1.920E-06,-0.740
1.930E-06,-0.920
1.940E-06,-1.100
1.950E-06,-1.300
1.960E-06,-1.420
1.970E-06,-1.400
1.980E-06,-1.260
1.990E-06,-1.020
2.000E-06,-0.700
2.010E-06,-0.360
2.020E-06,-0.120
2.030E-06,0.060
2.040E-06,0.060
2.050E-06,0.160
2.060E-06,0.380
2.070E-06,0.520
2.080E-06,0.720
2.090E-06,0.860
2.100E-06,0.980
2.110E-06,1.060
2.120E-06,1.080
2.130E-06,1.220
2.140E-06,1.020
2.150E-06,0.900
2.160E-06,0.880
2.170E-06,0.200
2.180E-06,0.480
2.190E-06,-0.260
2.200E-06,0.680
2.210E-06,-0.560
2.220E-06,0.100
2.230E-06,-0.880
2.240E-06,-1.700
2.250E-06,-1.940
2.260E-06,-3.340
2.270E-06,-3.340
2.280E-06,-3.340
2.290E-06,-3.360
2.300E-06,-3.340
2.310E-06,-3.340
2.320E-06,-3.320
2.330E-06,-3.320
2.340E-06,-3.320
2.350E-06,-3.320
2.360E-06,-3.340
2.370E-06,-3.340
2.380E-06,-3.340
2.390E-06,-3.220
2.400E-06,-2.940
2.410E-06,-2.540
2.420E-06,-2.000
2.430E-06,-1.660
2.440E-06,-1.200
2.450E-06,-0.600
2.460E-06,-0.420
2.470E-06,-0.040
2.480E-06,-0.040
2.490E-06,0.260
2.500E-06,0.460
2.510E-06,0.760
2.520E-06,0.860
2.530E-06,1.080
2.540E-06,1.040
2.550E-06,1.140
2.560E-06,1.020
2.570E-06,0.980
2.580E-06,0.880
2.590E-06,1.000
2.600E-06,0.980
2.610E-06,1.080
2.620E-06,1.100
2.630E-06,1.260
2.640E-06,1.360
2.650E-06,1.560
2.660E-06,1.560
2.670E-06,1.680
2.680E-06,1.700
2.690E-06,1.700
2.700E-06,1.600
2.710E-06,1.420
2.720E-06,1.140
2.730E-06,0.840
2.740E-06,0.520
2.750E-06,0.180
2.760E-06,-0.200
2.770E-06,-0.520
2.780E-06,-0.820
2.790E-06,-1.080
2.800E-06,-1.300
2.810E-06,-1.480
2.820E-06,-1.560
2.830E-06,-1.600
2.840E-06,-1.620
2.850E-06,-1.540
2.860E-06,-1.540
2.870E-06,-1.440
2.880E-06,-1.340
2.890E-06,-1.100
2.900E-06,-0.960
2.910E-06,-0.760
2.920E-06,-0.500
2.930E-06,-0.260
2.940E-06,-0.020
2.950E-06,0.240
2.960E-06,0.440
2.970E-06,0.560
2.980E-06,0.640
2.990E-06,0.600
3.000E-06,0.540
3.010E-06,0.400
3.020E-06,0.240
3.030E-06,0.040
3.040E-06,-0.180
3.050E-06,-0.300
3.060E-06,-0.420
3.070E-06,-0.460
3.080E-06,-0.460
3.090E-06,-0.440
3.100E-06,-0.340
3.110E-06,-0.160
3.120E-06,0.000
3.130E-06,0.220
3.140E-06,0.360
3.150E-06,0.480
3.160E-06,0.560
3.170E-06,0.600
3.180E-06,0.540
3.190E-06,0.500
3.200E-06,0.380
3.210E-06,0.320
3.220E-06,0.200
3.230E-06,0.080
3.240E-06,0.000
3.250E-06,-0.180
3.260E-06,-0.260
3.270E-06,-0.360
