mediciones/8-28/-33/WaveData65843.csv

#timebase=2000000(ps)
,#voltbase=500000(mv/100)
#size=4000
-8.350E-06,0.020
-8.340E-06,0.040
-8.330E-06,0.040
-8.320E-06,0.040
-8.310E-06,0.020
-8.300E-06,0.040
-8.290E-06,0.020
-8.280E-06,0.060
-8.270E-06,0.040
-8.260E-06,0.060
-8.250E-06,0.040
-8.240E-06,0.060
-8.230E-06,0.080
-8.220E-06,0.040
-8.210E-06,0.040
-8.200E-06,0.040
-8.190E-06,0.060
-8.180E-06,0.040
-8.170E-06,0.060
-8.160E-06,0.020
-8.150E-06,0.020
-8.140E-06,0.040
-8.130E-06,0.060
-8.120E-06,0.060
-8.110E-06,0.060
-8.100E-06,0.040
-8.090E-06,0.040
-8.080E-06,0.060
-8.070E-06,0.040
-8.060E-06,0.060
-8.050E-06,0.060
-8.040E-06,0.080
-8.030E-06,0.060
-8.020E-06,0.020
-8.010E-06,0.020
-8.000E-06,0.060
-7.990E-06,0.040
-7.980E-06,0.040
-7.970E-06,0.020
-7.960E-06,0.040
-7.950E-06,0.040
-7.940E-06,0.080
-7.930E-06,0.060
-7.920E-06,0.040
-7.910E-06,0.040
-7.900E-06,0.060
-7.890E-06,0.060
-7.880E-06,0.020
-7.870E-06,0.040
-7.860E-06,0.060
-7.850E-06,0.040
-7.840E-06,0.060
-7.830E-06,0.080
-7.820E-06,0.060
-7.810E-06,0.040
-7.800E-06,0.040
-7.790E-06,0.020
-7.780E-06,0.060
-7.770E-06,0.060
-7.760E-06,0.040
-7.750E-06,0.060
-7.740E-06,0.020
-7.730E-06,0.040
-7.720E-06,0.060
-7.710E-06,0.040
-7.700E-06,0.020
-7.690E-06,0.020
-7.680E-06,0.040
-7.670E-06,0.020
-7.660E-06,0.040
-7.650E-06,0.060
-7.640E-06,0.020
-7.630E-06,0.040
-7.620E-06,0.060
-7.610E-06,0.060
-7.600E-06,0.040
-7.590E-06,0.020
-7.580E-06,0.020
-7.570E-06,0.060
-7.560E-06,0.060
-7.550E-06,0.060
-7.540E-06,0.020
-7.530E-06,0.040
-7.520E-06,0.060
-7.510E-06,0.040
-7.500E-06,0.040
-7.490E-06,0.060
-7.480E-06,0.040
-7.470E-06,0.020
-7.460E-06,0.040
-7.450E-06,0.020
-7.440E-06,0.060
-7.430E-06,0.040
-7.420E-06,0.060
-7.410E-06,0.040
-7.400E-06,0.040
-7.390E-06,0.060
-7.380E-06,0.080
-7.370E-06,0.040
-7.360E-06,0.040
-7.350E-06,0.040
-7.340E-06,0.040
-7.330E-06,0.020
-7.320E-06,0.060
-7.310E-06,0.040
-7.300E-06,0.060
-7.290E-06,0.080
-7.280E-06,0.060
-7.270E-06,0.040
-7.260E-06,0.020
-7.250E-06,0.040
-7.240E-06,0.040
-7.230E-06,0.060
-7.220E-06,0.040
-7.210E-06,0.060
-7.200E-06,0.020
-7.190E-06,0.080
-7.180E-06,0.040
-7.170E-06,0.040
-7.160E-06,0.060
-7.150E-06,0.060
-7.140E-06,0.040
-7.130E-06,0.040
-7.120E-06,0.060
-7.110E-06,0.060
-7.100E-06,0.040
-7.090E-06,0.080
-7.080E-06,0.080
-7.070E-06,0.060
-7.060E-06,0.060
-7.050E-06,0.040
-7.040E-06,0.040
-7.030E-06,0.040
-7.020E-06,0.060
-7.010E-06,0.040
-7.000E-06,0.040
-6.990E-06,0.060
-6.980E-06,0.040
-6.970E-06,0.020
-6.960E-06,0.040
-6.950E-06,0.020
-6.940E-06,0.040
-6.930E-06,0.060
-6.920E-06,0.020
-6.910E-06,0.060
-6.900E-06,0.060
-6.890E-06,0.040
-6.880E-06,0.040
-6.870E-06,0.060
-6.860E-06,0.020
-6.850E-06,0.060
-6.840E-06,0.020
-6.830E-06,0.040
-6.820E-06,0.040
-6.810E-06,0.020
-6.800E-06,0.080
-6.790E-06,0.060
-6.780E-06,0.040
-6.770E-06,0.040
-6.760E-06,0.040
-6.750E-06,0.060
-6.740E-06,0.080
-6.730E-06,0.040
-6.720E-06,0.060
-6.710E-06,0.060
-6.700E-06,0.020
-6.690E-06,0.000
-6.680E-06,0.040
-6.670E-06,0.080
-6.660E-06,0.060
-6.650E-06,0.040
-6.640E-06,0.020
-6.630E-06,0.060
-6.620E-06,0.080
-6.610E-06,-0.020
-6.600E-06,0.040
-6.590E-06,0.060
-6.580E-06,0.060
-6.570E-06,0.020
-6.560E-06,0.060
-6.550E-06,0.020
-6.540E-06,0.040
-6.530E-06,0.060
-6.520E-06,0.060
-6.510E-06,0.040
-6.500E-06,0.040
-6.490E-06,0.060
-6.480E-06,0.000
-6.470E-06,0.040
-6.460E-06,0.080
-6.450E-06,0.040
-6.440E-06,0.000
-6.430E-06,0.040
-6.420E-06,0.020
-6.410E-06,0.040
-6.400E-06,0.060
-6.390E-06,0.040
-6.380E-06,0.080
-6.370E-06,0.060
-6.360E-06,0.020
-6.350E-06,0.060
-6.340E-06,0.020
-6.330E-06,0.060
-6.320E-06,0.060
-6.310E-06,0.020
-6.300E-06,0.060
-6.290E-06,0.060
-6.280E-06,0.020
-6.270E-06,0.040
-6.260E-06,0.060
-6.250E-06,0.020
-6.240E-06,0.060
-6.230E-06,0.060
-6.220E-06,0.040
-6.210E-06,0.060
-6.200E-06,0.060
-6.190E-06,0.020
-6.180E-06,0.060
-6.170E-06,0.060
-6.160E-06,0.040
-6.150E-06,0.040
-6.140E-06,0.060
-6.130E-06,0.100
-6.120E-06,0.020
-6.110E-06,0.060
-6.100E-06,0.020
-6.090E-06,0.060
-6.080E-06,0.040
-6.070E-06,0.040
-6.060E-06,0.020
-6.050E-06,0.020
-6.040E-06,0.020
-6.030E-06,0.060
-6.020E-06,0.020
-6.010E-06,0.060
-6.000E-06,0.080
-5.990E-06,0.040
-5.980E-06,0.040
-5.970E-06,0.040
-5.960E-06,0.040
-5.950E-06,0.040
-5.940E-06,0.060
-5.930E-06,0.060
-5.920E-06,0.020
-5.910E-06,0.040
-5.900E-06,0.060
-5.890E-06,0.040
-5.880E-06,0.060
-5.870E-06,0.080
-5.860E-06,0.020
-5.850E-06,0.020
-5.840E-06,0.040
-5.830E-06,0.060
-5.820E-06,0.060
-5.810E-06,0.040
-5.800E-06,0.080
-5.790E-06,0.020
-5.780E-06,0.020
-5.770E-06,0.060
-5.760E-06,0.040
-5.750E-06,0.040
-5.740E-06,0.060
-5.730E-06,0.040
-5.720E-06,0.040
-5.710E-06,0.060
-5.700E-06,0.040
-5.690E-06,0.040
-5.680E-06,0.020
-5.670E-06,0.040
-5.660E-06,0.040
-5.650E-06,0.040
-5.640E-06,0.040
-5.630E-06,0.040
-5.620E-06,0.060
-5.610E-06,0.080
-5.600E-06,0.040
-5.590E-06,0.040
-5.580E-06,-0.040
-5.570E-06,-0.480
-5.560E-06,-1.320
-5.550E-06,-2.420
-5.540E-06,-3.340
-5.530E-06,-3.340
-5.520E-06,-2.860
-5.510E-06,-2.160
-5.500E-06,-0.500
-5.490E-06,0.380
-5.480E-06,2.100
-5.470E-06,2.100
-5.460E-06,2.080
-5.450E-06,2.100
-5.440E-06,2.100
-5.430E-06,2.080
-5.420E-06,2.100
-5.410E-06,2.080
-5.400E-06,1.480
-5.390E-06,0.320
-5.380E-06,-0.200
-5.370E-06,-0.720
-5.360E-06,-1.020
-5.350E-06,-0.740
-5.340E-06,-0.520
-5.330E-06,-0.300
-5.320E-06,-0.260
-5.310E-06,-0.400
-5.300E-06,-0.820
-5.290E-06,-1.240
-5.280E-06,-1.680
-5.270E-06,-1.960
-5.260E-06,-2.180
-5.250E-06,-2.180
-5.240E-06,-1.860
-5.230E-06,-1.540
-5.220E-06,-0.960
-5.210E-06,-0.140
-5.200E-06,0.500
-5.190E-06,1.180
-5.180E-06,1.760
-5.170E-06,2.040
-5.160E-06,1.940
-5.150E-06,1.800
-5.140E-06,1.440
-5.130E-06,0.900
-5.120E-06,0.420
-5.110E-06,-0.100
-5.100E-06,-0.560
-5.090E-06,-0.840
-5.080E-06,-1.020
-5.070E-06,-1.140
-5.060E-06,-1.080
-5.050E-06,-0.940
-5.040E-06,-0.800
-5.030E-06,-0.640
-5.020E-06,-0.440
-5.010E-06,-0.220
-5.000E-06,0.000
-4.990E-06,0.260
-4.980E-06,0.520
-4.970E-06,0.760
-4.960E-06,0.980
-4.950E-06,1.140
-4.940E-06,1.180
-4.930E-06,1.200
-4.920E-06,1.140
-4.910E-06,0.980
-4.900E-06,0.800
-4.890E-06,0.580
-4.880E-06,0.400
-4.870E-06,0.140
-4.860E-06,-0.080
-4.850E-06,-0.240
-4.840E-06,-0.420
-4.830E-06,-0.520
-4.820E-06,-0.620
-4.810E-06,-0.700
-4.800E-06,-0.720
-4.790E-06,-0.760
-4.780E-06,-0.740
-4.770E-06,-0.700
-4.760E-06,-0.540
-4.750E-06,-0.360
-4.740E-06,-0.080
-4.730E-06,0.200
-4.720E-06,0.460
-4.710E-06,0.740
-4.700E-06,0.880
-4.690E-06,1.020
-4.680E-06,1.060
-4.670E-06,1.020
-4.660E-06,0.900
-4.650E-06,0.680
-4.640E-06,0.500
-4.630E-06,0.240
-4.620E-06,-0.040
-4.610E-06,-0.240
-4.600E-06,-0.420
-4.590E-06,-0.600
-4.580E-06,-0.620
-4.570E-06,-0.580
-4.560E-06,-0.620
-4.550E-06,-0.460
-4.540E-06,-0.360
-4.530E-06,-0.280
-4.520E-06,-0.140
-4.510E-06,-0.040
-4.500E-06,0.000
-4.490E-06,0.060
-4.480E-06,0.100
-4.470E-06,0.120
-4.460E-06,0.160
-4.450E-06,0.160
-4.440E-06,0.220
-4.430E-06,0.240
-4.420E-06,0.220
-4.410E-06,0.280
-4.400E-06,0.240
-4.390E-06,0.260
-4.380E-06,0.260
-4.370E-06,0.180
-4.360E-06,0.060
-4.350E-06,0.060
-4.340E-06,0.080
-4.330E-06,-0.040
-4.320E-06,-0.100
-4.310E-06,-0.020
-4.300E-06,-0.080
-4.290E-06,-0.080
-4.280E-06,0.000
-4.270E-06,0.020
-4.260E-06,0.080
-4.250E-06,0.080
-4.240E-06,0.140
-4.230E-06,0.120
-4.220E-06,0.120
-4.210E-06,0.160
-4.200E-06,0.100
-4.190E-06,0.100
-4.180E-06,0.080
-4.170E-06,0.060
-4.160E-06,0.060
-4.150E-06,0.020
-4.140E-06,0.060
-4.130E-06,0.040
-4.120E-06,0.060
-4.110E-06,0.020
-4.100E-06,0.020
-4.090E-06,0.000
-4.080E-06,-0.100
-4.070E-06,-0.100
-4.060E-06,-0.120
-4.050E-06,-0.140
-4.040E-06,-0.100
-4.030E-06,-0.080
-4.020E-06,-0.080
-4.010E-06,-0.080
-4.000E-06,0.000
-3.990E-06,0.000
-3.980E-06,0.020
-3.970E-06,0.000
-3.960E-06,0.000
-3.950E-06,-0.020
-3.940E-06,-0.040
-3.930E-06,-0.040
-3.920E-06,-0.080
-3.910E-06,-0.060
-3.900E-06,-0.020
-3.890E-06,0.000
-3.880E-06,0.080
-3.870E-06,0.100
-3.860E-06,0.140
-3.850E-06,0.160
-3.840E-06,0.200
-3.830E-06,0.260
-3.820E-06,0.240
-3.810E-06,0.220
-3.800E-06,0.200
-3.790E-06,0.160
-3.780E-06,0.100
-3.770E-06,0.040
-3.760E-06,-0.040
-3.750E-06,-0.060
-3.740E-06,-0.080
-3.730E-06,-0.120
-3.720E-06,-0.120
-3.710E-06,-0.040
-3.700E-06,0.160
-3.690E-06,0.600
-3.680E-06,1.080
-3.670E-06,1.640
-3.660E-06,1.920
-3.650E-06,1.860
-3.640E-06,1.460
-3.630E-06,0.840
-3.620E-06,0.160
-3.610E-06,-0.500
-3.600E-06,-1.060
-3.590E-06,-1.440
-3.580E-06,-1.720
-3.570E-06,-1.780
-3.560E-06,-1.760
-3.550E-06,-1.520
-3.540E-06,-1.160
-3.530E-06,-0.800
-3.520E-06,-0.560
-3.510E-06,-0.380
-3.500E-06,-0.360
-3.490E-06,-0.260
-3.480E-06,-0.220
-3.470E-06,-0.120
-3.460E-06,-0.060
-3.450E-06,0.040
-3.440E-06,0.120
-3.430E-06,0.260
-3.420E-06,0.460
-3.410E-06,0.660
-3.400E-06,0.920
-3.390E-06,1.020
-3.380E-06,1.100
-3.370E-06,1.080
-3.360E-06,0.900
-3.350E-06,0.740
-3.340E-06,0.440
-3.330E-06,0.160
-3.320E-06,-0.140
-3.310E-06,-0.380
-3.300E-06,-0.580
-3.290E-06,-0.720
-3.280E-06,-0.820
-3.270E-06,-0.760
-3.260E-06,-0.600
-3.250E-06,-0.340
-3.240E-06,-0.080
-3.230E-06,0.320
-3.220E-06,0.600
-3.210E-06,0.780
-3.200E-06,0.860
-3.190E-06,0.820
-3.180E-06,0.760
-3.170E-06,0.600
-3.160E-06,0.420
-3.150E-06,0.320
-3.140E-06,0.100
-3.130E-06,-0.100
-3.120E-06,-0.280
-3.110E-06,-0.420
-3.100E-06,-0.500
-3.090E-06,-0.560
-3.080E-06,-0.560
-3.070E-06,-0.500
-3.060E-06,-0.440
-3.050E-06,-0.380
-3.040E-06,-0.300
-3.030E-06,-0.300
-3.020E-06,-0.280
-3.010E-06,-0.260
-3.000E-06,-0.260
-2.990E-06,-0.260
-2.980E-06,-0.200
-2.970E-06,-0.120
-2.960E-06,0.000
-2.950E-06,0.120
-2.940E-06,0.240
-2.930E-06,0.400
-2.920E-06,0.480
-2.910E-06,0.560
-2.900E-06,0.580
-2.890E-06,0.500
-2.880E-06,0.420
-2.870E-06,0.240
-2.860E-06,0.040
-2.850E-06,-0.120
-2.840E-06,-0.280
-2.830E-06,-0.440
-2.820E-06,-0.540
-2.810E-06,-0.580
-2.800E-06,-0.560
-2.790E-06,-0.520
-2.780E-06,-0.400
-2.770E-06,-0.240
-2.760E-06,-0.120
-2.750E-06,0.020
-2.740E-06,0.140
-2.730E-06,0.200
-2.720E-06,0.300
-2.710E-06,0.300
-2.700E-06,0.300
-2.690E-06,0.280
-2.680E-06,0.220
-2.670E-06,0.140
-2.660E-06,0.080
-2.650E-06,0.060
-2.640E-06,0.000
-2.630E-06,0.000
-2.620E-06,0.060
-2.610E-06,0.100
-2.600E-06,0.080
-2.590E-06,0.080
-2.580E-06,0.100
-2.570E-06,0.100
-2.560E-06,0.100
-2.550E-06,0.080
-2.540E-06,0.020
-2.530E-06,-0.020
-2.520E-06,-0.040
-2.510E-06,-0.080
-2.500E-06,-0.080
-2.490E-06,-0.100
-2.480E-06,-0.060
-2.470E-06,-0.020
-2.460E-06,-0.020
-2.450E-06,0.020
-2.440E-06,0.100
-2.430E-06,0.080
-2.420E-06,0.080
-2.410E-06,0.080
-2.400E-06,0.060
-2.390E-06,0.020
-2.380E-06,0.020
-2.370E-06,-0.080
-2.360E-06,-0.100
-2.350E-06,-0.120
-2.340E-06,-0.180
-2.330E-06,-0.120
-2.320E-06,-0.120
-2.310E-06,-0.060
-2.300E-06,-0.040
-2.290E-06,0.000
-2.280E-06,0.060
-2.270E-06,0.040
-2.260E-06,0.060
-2.250E-06,0.080
-2.240E-06,0.080
-2.230E-06,0.100
-2.220E-06,0.100
-2.210E-06,0.080
-2.200E-06,0.100
-2.190E-06,0.040
-2.180E-06,0.040
-2.170E-06,0.040
-2.160E-06,0.080
-2.150E-06,0.100
-2.140E-06,0.100
-2.130E-06,0.060
-2.120E-06,0.100
-2.110E-06,0.080
-2.100E-06,0.080
-2.090E-06,0.100
-2.080E-06,0.040
-2.070E-06,0.000
-2.060E-06,-0.020
-2.050E-06,-0.040
-2.040E-06,-0.060
-2.030E-06,-0.080
-2.020E-06,-0.140
-2.010E-06,-0.100
-2.000E-06,-0.140
-1.990E-06,-0.120
-1.980E-06,-0.140
-1.970E-06,-0.100
-1.960E-06,-0.060
-1.950E-06,-0.060
-1.940E-06,-0.020
-1.930E-06,-0.040
-1.920E-06,-0.040
-1.910E-06,-0.040
-1.900E-06,-0.040
-1.890E-06,0.000
-1.880E-06,0.000
-1.870E-06,-0.020
-1.860E-06,0.020
-1.850E-06,0.020
-1.840E-06,-0.040
-1.830E-06,0.000
-1.820E-06,-0.180
-1.810E-06,0.260
-1.800E-06,-0.100
-1.790E-06,0.360
-1.780E-06,-0.100
-1.770E-06,0.200
-1.760E-06,0.020
-1.750E-06,0.080
-1.740E-06,-0.020
-1.730E-06,0.000
-1.720E-06,-0.020
-1.710E-06,-0.020
-1.700E-06,-0.060
-1.690E-06,-0.020
-1.680E-06,-0.140
-1.670E-06,-0.100
-1.660E-06,-0.020
-1.650E-06,0.020
-1.640E-06,0.100
-1.630E-06,0.140
-1.620E-06,0.100
-1.610E-06,0.080
-1.600E-06,0.020
-1.590E-06,0.040
-1.580E-06,0.000
-1.570E-06,0.000
-1.560E-06,-0.060
-1.550E-06,-0.060
-1.540E-06,-0.120
-1.530E-06,-0.120
-1.520E-06,-0.180
-1.510E-06,-0.180
-1.500E-06,-0.160
-1.490E-06,-0.180
-1.480E-06,-0.180
-1.470E-06,-0.200
-1.460E-06,-0.180
-1.450E-06,-0.160
-1.440E-06,-0.180
-1.430E-06,-0.180
-1.420E-06,-0.160
-1.410E-06,-0.180
-1.400E-06,-0.160
-1.390E-06,-0.140
-1.380E-06,-0.140
-1.370E-06,-0.140
-1.360E-06,-0.100
-1.350E-06,-0.120
-1.340E-06,-0.080
-1.330E-06,-0.080
-1.320E-06,-0.020
-1.310E-06,-0.020
-1.300E-06,-0.080
-1.290E-06,-0.080
-1.280E-06,-0.100
-1.270E-06,-0.120
-1.260E-06,-0.040
-1.250E-06,-0.020
-1.240E-06,0.000
-1.230E-06,0.000
-1.220E-06,-0.100
-1.210E-06,-0.180
-1.200E-06,-0.200
-1.190E-06,0.140
-1.180E-06,-0.160
-1.170E-06,0.220
-1.160E-06,-0.100
-1.150E-06,-0.060
-1.140E-06,0.040
-1.130E-06,-0.100
-1.120E-06,-0.020
-1.110E-06,-0.100
-1.100E-06,-0.140
-1.090E-06,-0.180
-1.080E-06,-0.220
-1.070E-06,-0.180
-1.060E-06,-0.180
-1.050E-06,-0.180
-1.040E-06,-0.140
-1.030E-06,-0.140
-1.020E-06,-0.120
-1.010E-06,-0.140
-1.000E-06,-0.180
-9.900E-07,-0.260
-9.800E-07,-0.300
-9.700E-07,-0.260
-9.600E-07,-0.320
-9.500E-07,-0.160
-9.400E-07,-0.360
-9.300E-07,-0.020
-9.200E-07,-0.320
-9.100E-07,-0.020
-9.000E-07,-0.320
-8.900E-07,-0.040
-8.800E-07,-0.400
-8.700E-07,-0.340
-8.600E-07,-0.480
-8.500E-07,-0.520
-8.400E-07,-0.520
-8.300E-07,-0.620
-8.200E-07,-0.600
-8.100E-07,-0.640
-8.000E-07,-0.720
-7.900E-07,-0.700
-7.800E-07,-0.780
-7.700E-07,-0.720
-7.600E-07,-0.720
-7.500E-07,-0.680
-7.400E-07,-0.680
-7.300E-07,-0.600
-7.200E-07,-0.560
-7.100E-07,-0.460
-7.000E-07,-0.460
-6.900E-07,-0.200
-6.800E-07,-0.420
-6.700E-07,-0.120
-6.600E-07,-0.340
-6.500E-07,0.040
-6.400E-07,-0.300
-6.300E-07,-0.020
-6.200E-07,-0.140
-6.100E-07,-0.100
-6.000E-07,-0.080
-5.900E-07,-0.160
-5.800E-07,-0.120
-5.700E-07,-0.140
-5.600E-07,-0.220
-5.500E-07,-0.180
-5.400E-07,-0.280
-5.300E-07,-0.260
-5.200E-07,-0.280
-5.100E-07,-0.320
-5.000E-07,-0.300
-4.900E-07,-0.320
-4.800E-07,-0.340
-4.700E-07,-0.360
-4.600E-07,-0.420
-4.500E-07,-0.480
-4.400E-07,-0.380
-4.300E-07,-0.520
-4.200E-07,-0.520
-4.100E-07,-0.680
-4.000E-07,-0.280
-3.900E-07,-0.700
-3.800E-07,-0.340
-3.700E-07,-0.820
-3.600E-07,-0.640
-3.500E-07,-0.920
-3.400E-07,-0.880
-3.300E-07,-0.820
-3.200E-07,-0.980
-3.100E-07,-0.800
-3.000E-07,-0.960
-2.900E-07,-0.940
-2.800E-07,-1.160
-2.700E-07,-1.080
-2.600E-07,-1.100
-2.500E-07,-0.920
-2.400E-07,-1.360
-2.300E-07,-1.020
-2.200E-07,-1.380
-2.100E-07,-1.180
-2.000E-07,-1.260
-1.900E-07,-1.200
-1.800E-07,-1.060
-1.700E-07,-0.860
-1.600E-07,-0.880
-1.500E-07,-0.560
-1.400E-07,-0.220
-1.300E-07,1.920
-1.200E-07,0.160
-1.100E-07,2.080
-1.000E-07,-0.380
-9.000E-08,0.620
-8.000E-08,-3.340
-7.000E-08,-2.080
-6.000E-08,-3.120
-5.000E-08,-1.500
-4.000E-08,-0.920
-3.000E-08,-0.500
-2.000E-08,0.120
-1.000E-08,-0.900
0.000E+00,-1.080
1.000E-08,-0.840
2.000E-08,-0.720
3.000E-08,-0.140
4.000E-08,0.220
5.000E-08,0.640
6.000E-08,0.540
7.000E-08,0.560
8.000E-08,0.260
9.000E-08,0.260
1.000E-07,-0.060
1.100E-07,-0.020
1.200E-07,0.060
1.300E-07,0.320
1.400E-07,0.280
1.500E-07,0.120
1.600E-07,-0.140
1.700E-07,-0.500
1.800E-07,-0.620
1.900E-07,-0.920
2.000E-07,-0.840
2.100E-07,-0.920
2.200E-07,-1.020
2.300E-07,-1.060
2.400E-07,-1.100
2.500E-07,-0.940
2.600E-07,-0.800
2.700E-07,-0.780
2.800E-07,-0.560
2.900E-07,-1.020
3.000E-07,-1.300
3.100E-07,-1.600
3.200E-07,-1.880
3.300E-07,-1.960
3.400E-07,-1.480
3.500E-07,-0.420
3.600E-07,-0.260
3.700E-07,-1.260
3.800E-07,-0.560
3.900E-07,-0.400
4.000E-07,1.600
4.100E-07,2.080
4.200E-07,0.260
4.300E-07,-1.320
4.400E-07,-3.340
4.500E-07,-1.200
4.600E-07,-0.080
4.700E-07,1.260
4.800E-07,2.080
4.900E-07,-0.120
5.000E-07,-2.640
5.100E-07,-3.340
5.200E-07,-3.340
5.300E-07,-3.340
5.400E-07,-3.280
5.500E-07,-1.600
5.600E-07,-0.700
5.700E-07,-0.280
5.800E-07,-0.820
5.900E-07,-0.640
6.000E-07,-0.420
6.100E-07,-0.200
6.200E-07,0.820
6.300E-07,1.220
6.400E-07,2.080
6.500E-07,2.080
6.600E-07,1.900
6.700E-07,1.160
6.800E-07,0.880
6.900E-07,0.280
7.000E-07,0.540
7.100E-07,0.420
7.200E-07,0.640
7.300E-07,0.420
7.400E-07,0.120
7.500E-07,-0.480
7.600E-07,-1.240
7.700E-07,-1.660
7.800E-07,-1.760
7.900E-07,-1.960
8.000E-07,-1.940
8.100E-07,-2.160
8.200E-07,-2.260
8.300E-07,-2.140
8.400E-07,-1.860
8.500E-07,-2.040
8.600E-07,-1.760
8.700E-07,-1.620
8.800E-07,-1.140
8.900E-07,-0.860
9.000E-07,-0.560
9.100E-07,-0.340
9.200E-07,-0.280
9.300E-07,-0.460
9.400E-07,-0.580
9.500E-07,-0.820
9.600E-07,-1.020
9.700E-07,-1.060
9.800E-07,-1.100
9.900E-07,-1.200
1.000E-06,-1.260
1.010E-06,-1.500
1.020E-06,-1.580
1.030E-06,-1.680
1.040E-06,-1.760
1.050E-06,-1.440
1.060E-06,-1.380
1.070E-06,-1.000
1.080E-06,-0.680
1.090E-06,-0.520
1.100E-06,-0.240
1.110E-06,-0.260
1.120E-06,0.020
1.130E-06,0.220
1.140E-06,-0.140
1.150E-06,-0.380
1.160E-06,-1.520
1.170E-06,-0.480
1.180E-06,0.680
1.190E-06,2.080
1.200E-06,2.100
1.210E-06,2.000
1.220E-06,0.580
1.230E-06,-3.320
1.240E-06,-3.340
1.250E-06,-3.340
1.260E-06,-3.340
1.270E-06,-3.340
1.280E-06,-3.340
1.290E-06,-3.360
1.300E-06,-3.340
1.310E-06,-3.340
1.320E-06,-3.340
1.330E-06,-3.340
1.340E-06,-3.340
1.350E-06,-3.360
1.360E-06,-3.340
1.370E-06,-3.340
1.380E-06,-3.340
1.390E-06,-3.340
1.400E-06,-3.340
1.410E-06,-3.340
1.420E-06,-2.740
1.430E-06,-2.020
1.440E-06,-1.680
1.450E-06,-1.080
1.460E-06,-1.360
1.470E-06,-1.180
1.480E-06,-1.200
1.490E-06,-0.840
1.500E-06,-0.740
1.510E-06,-0.680
1.520E-06,-0.920
1.530E-06,-1.260
1.540E-06,-1.840
1.550E-06,-2.180
1.560E-06,-2.540
1.570E-06,-2.160
1.580E-06,-2.060
1.590E-06,-1.480
1.600E-06,-1.240
1.610E-06,-0.480
1.620E-06,-0.020
1.630E-06,0.640
1.640E-06,1.120
1.650E-06,1.500
1.660E-06,1.860
1.670E-06,2.060
1.680E-06,2.060
1.690E-06,2.000
1.700E-06,1.700
1.710E-06,1.320
1.720E-06,0.840
1.730E-06,0.460
1.740E-06,0.060
1.750E-06,-0.320
1.760E-06,-0.700
1.770E-06,-1.100
1.780E-06,-1.380
1.790E-06,-1.660
1.800E-06,-1.780
1.810E-06,-1.820
1.820E-06,-1.760
1.830E-06,-1.680
1.840E-06,-1.540
1.850E-06,-1.460
1.860E-06,-1.320
1.870E-06,-1.180
1.880E-06,-0.960
1.890E-06,-0.720
1.900E-06,-0.640
1.910E-06,-0.580
1.920E-06,-0.780
1.930E-06,-0.800
1.940E-06,-0.800
1.950E-06,-0.740
1.960E-06,-0.780
1.970E-06,-0.740
1.980E-06,-1.000
1.990E-06,-1.180
2.000E-06,-1.440
2.010E-06,-1.600
2.020E-06,-1.760
2.030E-06,-1.880
2.040E-06,-1.940
2.050E-06,-2.060
2.060E-06,-2.000
2.070E-06,-1.940
2.080E-06,-1.720
2.090E-06,-1.500
2.100E-06,-1.280
2.110E-06,-1.320
2.120E-06,-1.040
2.130E-06,-0.940
2.140E-06,-0.700
2.150E-06,-0.460
2.160E-06,-0.400
2.170E-06,-0.200
2.180E-06,-0.120
2.190E-06,0.040
2.200E-06,0.140
2.210E-06,0.320
2.220E-06,0.340
2.230E-06,0.520
2.240E-06,0.480
2.250E-06,0.740
2.260E-06,0.640
2.270E-06,0.800
2.280E-06,0.640
2.290E-06,0.660
2.300E-06,0.600
2.310E-06,0.380
2.320E-06,0.340
2.330E-06,0.180
2.340E-06,0.060
2.350E-06,-0.020
2.360E-06,-0.080
2.370E-06,-0.080
2.380E-06,-0.020
2.390E-06,-0.140
2.400E-06,0.060
2.410E-06,-0.180
2.420E-06,0.000
2.430E-06,-0.220
2.440E-06,-0.140
2.450E-06,-0.220
2.460E-06,-0.140
2.470E-06,-0.160
2.480E-06,-0.260
2.490E-06,-0.180
2.500E-06,-0.240
2.510E-06,-0.140
2.520E-06,-0.160
2.530E-06,-0.340
2.540E-06,-0.120
2.550E-06,-0.340
2.560E-06,-0.180
2.570E-06,-0.120
2.580E-06,-0.120
2.590E-06,-0.120
2.600E-06,-0.260
2.610E-06,-0.160
2.620E-06,-0.120
2.630E-06,-0.040
2.640E-06,0.020
2.650E-06,0.080
2.660E-06,0.080
2.670E-06,0.080
2.680E-06,0.080
2.690E-06,0.220
2.700E-06,0.280
2.710E-06,0.420
2.720E-06,0.520
2.730E-06,0.520
2.740E-06,0.600
2.750E-06,0.520
2.760E-06,0.680
2.770E-06,0.520
2.780E-06,0.580
2.790E-06,0.660
2.800E-06,0.600
2.810E-06,0.420
2.820E-06,0.380
2.830E-06,0.300
2.840E-06,0.320
2.850E-06,0.060
2.860E-06,0.060
2.870E-06,-0.040
2.880E-06,-0.060
2.890E-06,0.060
2.900E-06,0.040
2.910E-06,-0.020
2.920E-06,-0.080
2.930E-06,-0.140
2.940E-06,0.080
2.950E-06,-0.100
2.960E-06,0.080
2.970E-06,-0.160
2.980E-06,0.100
2.990E-06,-0.040
3.000E-06,0.140
3.010E-06,0.220
3.020E-06,0.260
3.030E-06,0.260
3.040E-06,0.160
3.050E-06,0.280
3.060E-06,0.260
3.070E-06,0.240
3.080E-06,0.160
3.090E-06,0.000
3.100E-06,-0.260
3.110E-06,-0.440
3.120E-06,-0.500
3.130E-06,-0.540
3.140E-06,-0.320
3.150E-06,-0.340
3.160E-06,-0.480
3.170E-06,-0.560
3.180E-06,-0.680
3.190E-06,-0.660
3.200E-06,-0.680
3.210E-06,-0.540
3.220E-06,-0.340
3.230E-06,-0.180
