mediciones/8-28/-33/WaveData65835.csv

#timebase=2000000(ps)
,#voltbase=500000(mv/100)
#size=4000
-8.350E-06,0.020
-8.340E-06,0.080
-8.330E-06,0.020
-8.320E-06,0.020
-8.310E-06,0.060
-8.300E-06,0.020
-8.290E-06,0.040
-8.280E-06,0.060
-8.270E-06,0.060
-8.260E-06,0.020
-8.250E-06,0.080
-8.240E-06,0.040
-8.230E-06,0.020
-8.220E-06,0.020
-8.210E-06,0.020
-8.200E-06,0.020
-8.190E-06,0.040
-8.180E-06,0.040
-8.170E-06,0.040
-8.160E-06,0.080
-8.150E-06,0.040
-8.140E-06,0.020
-8.130E-06,0.060
-8.120E-06,0.080
-8.110E-06,0.040
-8.100E-06,0.020
-8.090E-06,0.020
-8.080E-06,0.060
-8.070E-06,0.040
-8.060E-06,0.060
-8.050E-06,0.020
-8.040E-06,0.040
-8.030E-06,0.020
-8.020E-06,0.040
-8.010E-06,0.020
-8.000E-06,0.040
-7.990E-06,0.040
-7.980E-06,0.060
-7.970E-06,0.040
-7.960E-06,0.020
-7.950E-06,0.020
-7.940E-06,0.060
-7.930E-06,0.040
-7.920E-06,0.040
-7.910E-06,0.060
-7.900E-06,0.020
-7.890E-06,0.040
-7.880E-06,0.040
-7.870E-06,0.060
-7.860E-06,0.040
-7.850E-06,0.080
-7.840E-06,0.080
-7.830E-06,0.060
-7.820E-06,0.040
-7.810E-06,0.040
-7.800E-06,0.060
-7.790E-06,0.040
-7.780E-06,0.040
-7.770E-06,0.060
-7.760E-06,0.040
-7.750E-06,0.040
-7.740E-06,0.080
-7.730E-06,0.060
-7.720E-06,0.060
-7.710E-06,0.060
-7.700E-06,0.060
-7.690E-06,0.080
-7.680E-06,0.060
-7.670E-06,0.080
-7.660E-06,0.080
-7.650E-06,0.060
-7.640E-06,0.040
-7.630E-06,0.000
-7.620E-06,0.060
-7.610E-06,0.040
-7.600E-06,0.100
-7.590E-06,0.040
-7.580E-06,0.040
-7.570E-06,0.060
-7.560E-06,0.040
-7.550E-06,0.060
-7.540E-06,0.040
-7.530E-06,0.060
-7.520E-06,0.040
-7.510E-06,0.020
-7.500E-06,0.040
-7.490E-06,0.060
-7.480E-06,0.060
-7.470E-06,0.020
-7.460E-06,0.040
-7.450E-06,0.080
-7.440E-06,0.060
-7.430E-06,0.060
-7.420E-06,0.080
-7.410E-06,0.040
-7.400E-06,0.040
-7.390E-06,0.020
-7.380E-06,0.080
-7.370E-06,0.020
-7.360E-06,0.020
-7.350E-06,0.020
-7.340E-06,0.040
-7.330E-06,0.040
-7.320E-06,0.080
-7.310E-06,0.020
-7.300E-06,0.040
-7.290E-06,0.060
-7.280E-06,0.080
-7.270E-06,0.040
-7.260E-06,0.060
-7.250E-06,0.080
-7.240E-06,0.000
-7.230E-06,0.020
-7.220E-06,0.060
-7.210E-06,0.060
-7.200E-06,0.040
-7.190E-06,0.020
-7.180E-06,0.060
-7.170E-06,0.060
-7.160E-06,0.040
-7.150E-06,0.080
-7.140E-06,0.040
-7.130E-06,0.040
-7.120E-06,0.020
-7.110E-06,0.060
-7.100E-06,0.060
-7.090E-06,0.060
-7.080E-06,0.060
-7.070E-06,0.000
-7.060E-06,0.060
-7.050E-06,0.040
-7.040E-06,0.020
-7.030E-06,0.020
-7.020E-06,0.020
-7.010E-06,0.040
-7.000E-06,0.060
-6.990E-06,0.000
-6.980E-06,0.000
-6.970E-06,0.040
-6.960E-06,0.020
-6.950E-06,0.040
-6.940E-06,0.020
-6.930E-06,0.040
-6.920E-06,0.020
-6.910E-06,0.060
-6.900E-06,0.060
-6.890E-06,0.020
-6.880E-06,0.020
-6.870E-06,0.060
-6.860E-06,0.020
-6.850E-06,0.020
-6.840E-06,0.040
-6.830E-06,0.020
-6.820E-06,0.040
-6.810E-06,0.040
-6.800E-06,0.080
-6.790E-06,0.060
-6.780E-06,0.040
-6.770E-06,0.040
-6.760E-06,0.080
-6.750E-06,0.000
-6.740E-06,0.060
-6.730E-06,0.060
-6.720E-06,0.040
-6.710E-06,0.060
-6.700E-06,0.020
-6.690E-06,0.060
-6.680E-06,0.020
-6.670E-06,0.060
-6.660E-06,0.040
-6.650E-06,0.060
-6.640E-06,0.020
-6.630E-06,0.040
-6.620E-06,0.000
-6.610E-06,0.020
-6.600E-06,0.020
-6.590E-06,0.040
-6.580E-06,0.040
-6.570E-06,0.040
-6.560E-06,0.060
-6.550E-06,0.060
-6.540E-06,0.040
-6.530E-06,0.060
-6.520E-06,0.040
-6.510E-06,0.020
-6.500E-06,0.040
-6.490E-06,0.080
-6.480E-06,0.060
-6.470E-06,0.020
-6.460E-06,0.040
-6.450E-06,0.020
-6.440E-06,0.020
-6.430E-06,0.040
-6.420E-06,0.020
-6.410E-06,0.040
-6.400E-06,0.080
-6.390E-06,0.060
-6.380E-06,0.060
-6.370E-06,0.060
-6.360E-06,0.040
-6.350E-06,0.040
-6.340E-06,0.060
-6.330E-06,0.060
-6.320E-06,0.000
-6.310E-06,0.040
-6.300E-06,0.080
-6.290E-06,0.040
-6.280E-06,0.060
-6.270E-06,0.100
-6.260E-06,0.040
-6.250E-06,0.040
-6.240E-06,0.060
-6.230E-06,0.060
-6.220E-06,0.060
-6.210E-06,0.060
-6.200E-06,0.020
-6.190E-06,0.060
-6.180E-06,0.080
-6.170E-06,0.040
-6.160E-06,0.040
-6.150E-06,0.060
-6.140E-06,0.060
-6.130E-06,0.040
-6.120E-06,0.040
-6.110E-06,0.060
-6.100E-06,0.060
-6.090E-06,0.020
-6.080E-06,0.080
-6.070E-06,0.060
-6.060E-06,0.080
-6.050E-06,0.060
-6.040E-06,0.020
-6.030E-06,0.080
-6.020E-06,0.000
-6.010E-06,0.040
-6.000E-06,0.040
-5.990E-06,0.040
-5.980E-06,0.040
-5.970E-06,0.060
-5.960E-06,0.020
-5.950E-06,0.060
-5.940E-06,0.020
-5.930E-06,0.040
-5.920E-06,0.060
-5.910E-06,0.060
-5.900E-06,0.080
-5.890E-06,0.020
-5.880E-06,0.020
-5.870E-06,0.020
-5.860E-06,0.000
-5.850E-06,0.040
-5.840E-06,0.080
-5.830E-06,0.040
-5.820E-06,0.060
-5.810E-06,0.020
-5.800E-06,0.020
-5.790E-06,0.040
-5.780E-06,0.040
-5.770E-06,0.040
-5.760E-06,0.040
-5.750E-06,0.080
-5.740E-06,0.040
-5.730E-06,0.020
-5.720E-06,0.060
-5.710E-06,0.080
-5.700E-06,0.060
-5.690E-06,0.040
-5.680E-06,0.040
-5.670E-06,0.040
-5.660E-06,0.060
-5.650E-06,0.020
-5.640E-06,0.040
-5.630E-06,0.080
-5.620E-06,0.040
-5.610E-06,0.040
-5.600E-06,0.060
-5.590E-06,0.020
-5.580E-06,0.060
-5.570E-06,0.040
-5.560E-06,0.060
-5.550E-06,0.060
-5.540E-06,0.080
-5.530E-06,0.020
-5.520E-06,0.020
-5.510E-06,0.040
-5.500E-06,0.060
-5.490E-06,0.020
-5.480E-06,0.020
-5.470E-06,0.040
-5.460E-06,0.060
-5.450E-06,0.060
-5.440E-06,0.080
-5.430E-06,0.020
-5.420E-06,0.040
-5.410E-06,0.060
-5.400E-06,0.060
-5.390E-06,0.040
-5.380E-06,0.060
-5.370E-06,0.080
-5.360E-06,0.060
-5.350E-06,0.060
-5.340E-06,0.020
-5.330E-06,0.020
-5.320E-06,0.040
-5.310E-06,0.060
-5.300E-06,0.060
-5.290E-06,0.020
-5.280E-06,0.040
-5.270E-06,0.040
-5.260E-06,0.060
-5.250E-06,0.020
-5.240E-06,0.020
-5.230E-06,0.060
-5.220E-06,0.020
-5.210E-06,0.040
-5.200E-06,0.040
-5.190E-06,0.040
-5.180E-06,0.040
-5.170E-06,0.040
-5.160E-06,0.020
-5.150E-06,0.000
-5.140E-06,0.060
-5.130E-06,0.040
-5.120E-06,0.020
-5.110E-06,0.040
-5.100E-06,0.060
-5.090E-06,0.040
-5.080E-06,0.000
-5.070E-06,0.040
-5.060E-06,0.080
-5.050E-06,0.040
-5.040E-06,0.040
-5.030E-06,0.040
-5.020E-06,0.060
-5.010E-06,0.060
-5.000E-06,0.040
-4.990E-06,0.060
-4.980E-06,0.060
-4.970E-06,0.040
-4.960E-06,0.060
-4.950E-06,0.060
-4.940E-06,0.060
-4.930E-06,0.040
-4.920E-06,0.060
-4.910E-06,0.020
-4.900E-06,0.040
-4.890E-06,0.040
-4.880E-06,0.060
-4.870E-06,0.000
-4.860E-06,0.040
-4.850E-06,0.020
-4.840E-06,0.040
-4.830E-06,0.040
-4.820E-06,0.080
-4.810E-06,0.060
-4.800E-06,0.060
-4.790E-06,0.060
-4.780E-06,0.060
-4.770E-06,0.040
-4.760E-06,0.040
-4.750E-06,0.020
-4.740E-06,0.060
-4.730E-06,0.080
-4.720E-06,0.040
-4.710E-06,0.040
-4.700E-06,0.040
-4.690E-06,0.040
-4.680E-06,0.060
-4.670E-06,0.060
-4.660E-06,0.040
-4.650E-06,0.020
-4.640E-06,0.040
-4.630E-06,0.000
-4.620E-06,0.040
-4.610E-06,0.040
-4.600E-06,0.060
-4.590E-06,0.060
-4.580E-06,0.040
-4.570E-06,0.020
-4.560E-06,0.040
-4.550E-06,0.080
-4.540E-06,0.060
-4.530E-06,0.080
-4.520E-06,0.060
-4.510E-06,0.060
-4.500E-06,0.080
-4.490E-06,0.080
-4.480E-06,0.040
-4.470E-06,0.040
-4.460E-06,0.040
-4.450E-06,0.020
-4.440E-06,0.060
-4.430E-06,0.020
-4.420E-06,0.040
-4.410E-06,0.020
-4.400E-06,0.040
-4.390E-06,0.040
-4.380E-06,0.040
-4.370E-06,0.060
-4.360E-06,0.060
-4.350E-06,0.060
-4.340E-06,0.080
-4.330E-06,0.020
-4.320E-06,0.060
-4.310E-06,0.060
-4.300E-06,0.040
-4.290E-06,0.060
-4.280E-06,0.060
-4.270E-06,0.040
-4.260E-06,0.020
-4.250E-06,0.060
-4.240E-06,0.040
-4.230E-06,0.020
-4.220E-06,0.080
-4.210E-06,0.040
-4.200E-06,0.080
-4.190E-06,0.020
-4.180E-06,0.040
-4.170E-06,0.040
-4.160E-06,0.040
-4.150E-06,0.020
-4.140E-06,0.060
-4.130E-06,0.020
-4.120E-06,0.040
-4.110E-06,0.020
-4.100E-06,0.000
-4.090E-06,0.040
-4.080E-06,0.020
-4.070E-06,0.020
-4.060E-06,0.040
-4.050E-06,0.000
-4.040E-06,0.040
-4.030E-06,0.040
-4.020E-06,0.020
-4.010E-06,0.020
-4.000E-06,0.020
-3.990E-06,0.000
-3.980E-06,0.060
-3.970E-06,0.060
-3.960E-06,0.020
-3.950E-06,0.040
-3.940E-06,0.020
-3.930E-06,0.060
-3.920E-06,0.060
-3.910E-06,0.040
-3.900E-06,0.040
-3.890E-06,0.040
-3.880E-06,0.060
-3.870E-06,0.040
-3.860E-06,0.060
-3.850E-06,0.060
-3.840E-06,0.060
-3.830E-06,0.040
-3.820E-06,0.060
-3.810E-06,0.040
-3.800E-06,0.040
-3.790E-06,0.080
-3.780E-06,0.060
-3.770E-06,0.000
-3.760E-06,0.060
-3.750E-06,0.060
-3.740E-06,0.060
-3.730E-06,0.020
-3.720E-06,0.040
-3.710E-06,0.060
-3.700E-06,0.060
-3.690E-06,0.060
-3.680E-06,0.040
-3.670E-06,0.080
-3.660E-06,0.060
-3.650E-06,0.020
-3.640E-06,0.060
-3.630E-06,0.020
-3.620E-06,0.060
-3.610E-06,0.040
-3.600E-06,0.020
-3.590E-06,0.020
-3.580E-06,0.000
-3.570E-06,0.040
-3.560E-06,0.060
-3.550E-06,0.040
-3.540E-06,0.080
-3.530E-06,0.060
-3.520E-06,0.040
-3.510E-06,0.020
-3.500E-06,0.060
-3.490E-06,0.060
-3.480E-06,0.080
-3.470E-06,0.040
-3.460E-06,0.080
-3.450E-06,0.080
-3.440E-06,0.020
-3.430E-06,0.020
-3.420E-06,0.040
-3.410E-06,0.020
-3.400E-06,0.020
-3.390E-06,0.020
-3.380E-06,0.040
-3.370E-06,0.020
-3.360E-06,0.000
-3.350E-06,0.040
-3.340E-06,0.060
-3.330E-06,0.060
-3.320E-06,0.040
-3.310E-06,0.020
-3.300E-06,0.060
-3.290E-06,0.020
-3.280E-06,0.020
-3.270E-06,0.060
-3.260E-06,-0.020
-3.250E-06,0.040
-3.240E-06,0.060
-3.230E-06,0.080
-3.220E-06,0.040
-3.210E-06,0.020
-3.200E-06,0.000
-3.190E-06,0.060
-3.180E-06,0.060
-3.170E-06,0.060
-3.160E-06,0.060
-3.150E-06,0.040
-3.140E-06,0.020
-3.130E-06,0.060
-3.120E-06,0.060
-3.110E-06,0.060
-3.100E-06,0.060
-3.090E-06,0.020
-3.080E-06,0.020
-3.070E-06,0.040
-3.060E-06,0.060
-3.050E-06,0.040
-3.040E-06,0.040
-3.030E-06,0.080
-3.020E-06,0.060
-3.010E-06,0.080
-3.000E-06,0.020
-2.990E-06,0.040
-2.980E-06,0.060
-2.970E-06,0.060
-2.960E-06,0.000
-2.950E-06,0.040
-2.940E-06,0.060
-2.930E-06,0.040
-2.920E-06,0.020
-2.910E-06,0.040
-2.900E-06,0.060
-2.890E-06,0.040
-2.880E-06,0.060
-2.870E-06,0.060
-2.860E-06,0.080
-2.850E-06,0.080
-2.840E-06,0.020
-2.830E-06,0.060
-2.820E-06,0.020
-2.810E-06,0.040
-2.800E-06,0.060
-2.790E-06,0.040
-2.780E-06,0.020
-2.770E-06,0.020
-2.760E-06,0.040
-2.750E-06,0.060
-2.740E-06,0.020
-2.730E-06,0.020
-2.720E-06,0.060
-2.710E-06,0.020
-2.700E-06,0.040
-2.690E-06,0.060
-2.680E-06,0.040
-2.670E-06,0.060
-2.660E-06,0.060
-2.650E-06,0.040
-2.640E-06,0.020
-2.630E-06,0.040
-2.620E-06,0.040
-2.610E-06,0.080
-2.600E-06,0.040
-2.590E-06,0.060
-2.580E-06,0.020
-2.570E-06,0.040
-2.560E-06,0.040
-2.550E-06,-0.020
-2.540E-06,-0.320
-2.530E-06,-1.000
-2.520E-06,-2.060
-2.510E-06,-3.060
-2.500E-06,-3.340
-2.490E-06,-3.340
-2.480E-06,-2.920
-2.470E-06,-1.660
-2.460E-06,0.040
-2.450E-06,1.320
-2.440E-06,2.100
-2.430E-06,2.080
-2.420E-06,2.080
-2.410E-06,2.080
-2.400E-06,2.060
-2.390E-06,2.080
-2.380E-06,2.100
-2.370E-06,1.700
-2.360E-06,0.880
-2.350E-06,-0.380
-2.340E-06,-0.800
-2.330E-06,-0.700
-2.320E-06,-1.120
-2.310E-06,-0.760
-2.300E-06,-0.480
-2.290E-06,-0.380
-2.280E-06,-0.420
-2.270E-06,-0.680
-2.260E-06,-1.020
-2.250E-06,-1.600
-2.240E-06,-2.040
-2.230E-06,-2.200
-2.220E-06,-2.260
-2.210E-06,-2.220
-2.200E-06,-1.780
-2.190E-06,-1.100
-2.180E-06,-0.520
-2.170E-06,0.260
-2.160E-06,1.080
-2.150E-06,1.660
-2.140E-06,1.960
-2.130E-06,2.100
-2.120E-06,2.040
-2.110E-06,1.680
-2.100E-06,1.200
-2.090E-06,0.680
-2.080E-06,0.080
-2.070E-06,-0.440
-2.060E-06,-0.780
-2.050E-06,-1.000
-2.040E-06,-1.100
-2.030E-06,-1.040
-2.020E-06,-0.940
-2.010E-06,-0.820
-2.000E-06,-0.620
-1.990E-06,-0.440
-1.980E-06,-0.260
-1.970E-06,0.000
-1.960E-06,0.200
-1.950E-06,0.420
-1.940E-06,0.620
-1.930E-06,0.840
-1.920E-06,0.940
-1.910E-06,0.980
-1.900E-06,0.940
-1.890E-06,0.820
-1.880E-06,0.640
-1.870E-06,0.660
-1.860E-06,0.520
-1.850E-06,0.320
-1.840E-06,0.200
-1.830E-06,-0.080
-1.820E-06,-0.300
-1.810E-06,-0.580
-1.800E-06,-0.680
-1.790E-06,-0.840
-1.780E-06,-0.840
-1.770E-06,-0.860
-1.760E-06,-0.900
-1.750E-06,-0.900
-1.740E-06,-0.940
-1.730E-06,-0.700
-1.720E-06,-0.520
-1.710E-06,-0.280
-1.700E-06,-0.040
-1.690E-06,0.280
-1.680E-06,0.580
-1.670E-06,0.640
-1.660E-06,0.940
-1.650E-06,0.880
-1.640E-06,1.080
-1.630E-06,0.780
-1.620E-06,0.700
-1.610E-06,0.520
-1.600E-06,0.260
-1.590E-06,0.100
-1.580E-06,-0.300
-1.570E-06,-0.480
-1.560E-06,-0.600
-1.550E-06,-0.700
-1.540E-06,-0.660
-1.530E-06,-0.560
-1.520E-06,-0.480
-1.510E-06,-0.360
-1.500E-06,-0.260
-1.490E-06,-0.120
-1.480E-06,-0.040
-1.470E-06,0.060
-1.460E-06,0.160
-1.450E-06,0.260
-1.440E-06,0.240
-1.430E-06,0.260
-1.420E-06,0.240
-1.410E-06,0.280
-1.400E-06,0.260
-1.390E-06,0.260
-1.380E-06,0.240
-1.370E-06,0.220
-1.360E-06,0.180
-1.350E-06,0.080
-1.340E-06,0.060
-1.330E-06,0.000
-1.320E-06,-0.100
-1.310E-06,-0.160
-1.300E-06,-0.240
-1.290E-06,-0.260
-1.280E-06,-0.260
-1.270E-06,-0.240
-1.260E-06,-0.200
-1.250E-06,-0.200
-1.240E-06,-0.200
-1.230E-06,-0.140
-1.220E-06,-0.160
-1.210E-06,-0.100
-1.200E-06,0.220
-1.190E-06,-0.060
-1.180E-06,0.260
-1.170E-06,-0.040
-1.160E-06,-0.080
-1.150E-06,0.060
-1.140E-06,-0.100
-1.130E-06,-0.060
-1.120E-06,0.020
-1.110E-06,-0.120
-1.100E-06,-0.060
-1.090E-06,0.020
-1.080E-06,-0.160
-1.070E-06,-0.020
-1.060E-06,-0.200
-1.050E-06,-0.120
-1.040E-06,-0.160
-1.030E-06,-0.260
-1.020E-06,-0.220
-1.010E-06,-0.320
-1.000E-06,-0.300
-9.900E-07,-0.360
-9.800E-07,-0.360
-9.700E-07,-0.340
-9.600E-07,-0.340
-9.500E-07,-0.300
-9.400E-07,-0.360
-9.300E-07,-0.360
-9.200E-07,-0.460
-9.100E-07,-0.360
-9.000E-07,-0.580
-8.900E-07,-0.240
-8.800E-07,-0.580
-8.700E-07,-0.200
-8.600E-07,-0.560
-8.500E-07,-0.260
-8.400E-07,-0.400
-8.300E-07,-0.260
-8.200E-07,-0.260
-8.100E-07,-0.180
-8.000E-07,-0.100
-7.900E-07,-0.020
-7.800E-07,0.000
-7.700E-07,0.020
-7.600E-07,-0.020
-7.500E-07,-0.040
-7.400E-07,-0.140
-7.300E-07,-0.200
-7.200E-07,-0.260
-7.100E-07,-0.320
-7.000E-07,-0.380
-6.900E-07,-0.260
-6.800E-07,-0.440
-6.700E-07,-0.260
-6.600E-07,-0.160
-6.500E-07,0.420
-6.400E-07,0.700
-6.300E-07,1.460
-6.200E-07,1.760
-6.100E-07,1.880
-6.000E-07,1.640
-5.900E-07,1.080
-5.800E-07,0.440
-5.700E-07,-0.320
-5.600E-07,-1.000
-5.500E-07,-1.460
-5.400E-07,-1.820
-5.300E-07,-1.860
-5.200E-07,-1.820
-5.100E-07,-1.640
-5.000E-07,-1.400
-4.900E-07,-1.060
-4.800E-07,-0.780
-4.700E-07,-0.480
-4.600E-07,-0.280
-4.500E-07,-0.180
-4.400E-07,0.020
-4.300E-07,-0.100
-4.200E-07,0.000
-4.100E-07,-0.080
-4.000E-07,0.000
-3.900E-07,0.120
-3.800E-07,0.240
-3.700E-07,0.380
-3.600E-07,0.600
-3.500E-07,0.600
-3.400E-07,0.580
-3.300E-07,0.340
-3.200E-07,0.440
-3.100E-07,0.000
-3.000E-07,0.160
-2.900E-07,-0.680
-2.800E-07,-0.460
-2.700E-07,-1.340
-2.600E-07,-1.040
-2.500E-07,-1.240
-2.400E-07,-1.380
-2.300E-07,-1.320
-2.200E-07,0.460
-2.100E-07,2.100
-2.000E-07,0.880
-1.900E-07,2.080
-1.800E-07,1.380
-1.700E-07,-0.220
-1.600E-07,-2.020
-1.500E-07,-2.520
-1.400E-07,-1.880
-1.300E-07,-1.040
-1.200E-07,-1.520
-1.100E-07,0.220
-1.000E-07,-0.740
-9.000E-08,-1.760
-8.000E-08,-1.740
-7.000E-08,-1.940
-6.000E-08,-1.980
-5.000E-08,-0.240
-4.000E-08,-0.420
-3.000E-08,0.480
-2.000E-08,0.260
-1.000E-08,0.560
0.000E+00,0.460
1.000E-08,0.440
2.000E-08,0.440
3.000E-08,0.660
4.000E-08,1.040
5.000E-08,1.260
6.000E-08,1.420
7.000E-08,1.200
8.000E-08,1.020
9.000E-08,0.740
1.000E-07,0.440
1.100E-07,0.320
1.200E-07,0.360
1.300E-07,-0.120
1.400E-07,-0.260
1.500E-07,-0.700
1.600E-07,-0.960
1.700E-07,-1.280
1.800E-07,-1.400
1.900E-07,-1.420
2.000E-07,-1.540
2.100E-07,-1.640
2.200E-07,-0.860
2.300E-07,-0.080
2.400E-07,0.960
2.500E-07,0.920
2.600E-07,1.200
2.700E-07,-0.280
2.800E-07,-0.580
2.900E-07,-1.680
3.000E-07,-1.000
3.100E-07,-0.940
3.200E-07,-0.440
3.300E-07,-0.120
3.400E-07,-0.120
3.500E-07,-0.460
3.600E-07,-0.900
3.700E-07,-1.140
3.800E-07,-1.060
3.900E-07,-1.060
4.000E-07,-0.900
4.100E-07,-0.460
4.200E-07,-0.060
4.300E-07,0.160
4.400E-07,-0.020
4.500E-07,-0.020
4.600E-07,0.160
4.700E-07,0.260
4.800E-07,0.280
4.900E-07,0.680
5.000E-07,0.960
5.100E-07,1.180
5.200E-07,0.840
5.300E-07,0.820
5.400E-07,0.780
5.500E-07,0.860
5.600E-07,0.740
5.700E-07,0.780
5.800E-07,0.600
5.900E-07,0.540
6.000E-07,0.280
6.100E-07,0.020
6.200E-07,0.040
6.300E-07,0.100
6.400E-07,-0.200
6.500E-07,-0.420
6.600E-07,0.100
6.700E-07,-0.160
6.800E-07,-0.320
6.900E-07,-0.340
7.000E-07,-0.540
7.100E-07,-0.600
7.200E-07,-0.760
7.300E-07,-0.420
7.400E-07,-0.100
7.500E-07,-0.120
7.600E-07,0.080
7.700E-07,-0.060
7.800E-07,-0.200
7.900E-07,-0.420
8.000E-07,-0.360
8.100E-07,-0.300
8.200E-07,-0.580
8.300E-07,-0.680
8.400E-07,-0.760
8.500E-07,-0.200
8.600E-07,-0.300
8.700E-07,-0.020
8.800E-07,-0.100
8.900E-07,-0.020
9.000E-07,-0.380
9.100E-07,-0.420
9.200E-07,-0.340
9.300E-07,-0.200
9.400E-07,0.020
9.500E-07,0.120
9.600E-07,0.240
9.700E-07,0.520
9.800E-07,0.500
9.900E-07,0.440
1.000E-06,0.300
1.010E-06,0.300
1.020E-06,0.220
1.030E-06,0.240
1.040E-06,0.240
1.050E-06,0.160
1.060E-06,-0.020
1.070E-06,-0.080
1.080E-06,-0.160
1.090E-06,-0.220
1.100E-06,-0.200
1.110E-06,-0.180
1.120E-06,-0.300
1.130E-06,-0.180
1.140E-06,-0.260
1.150E-06,-0.180
1.160E-06,-0.220
1.170E-06,-0.300
1.180E-06,-0.260
1.190E-06,-0.340
1.200E-06,-0.580
1.210E-06,-0.340
1.220E-06,-0.280
1.230E-06,0.060
1.240E-06,0.160
1.250E-06,0.220
1.260E-06,-0.160
1.270E-06,0.180
1.280E-06,-0.520
1.290E-06,-0.120
1.300E-06,-0.620
1.310E-06,-0.340
1.320E-06,-0.800
1.330E-06,-0.640
1.340E-06,-1.020
1.350E-06,-0.780
1.360E-06,-0.880
1.370E-06,-0.820
1.380E-06,-0.680
1.390E-06,-0.700
1.400E-06,-0.580
1.410E-06,-0.540
1.420E-06,-0.460
1.430E-06,-0.220
1.440E-06,-0.340
1.450E-06,0.000
1.460E-06,-0.200
1.470E-06,-0.020
1.480E-06,-0.120
1.490E-06,-0.120
1.500E-06,-0.080
1.510E-06,-0.180
1.520E-06,-0.100
1.530E-06,-0.120
1.540E-06,-0.160
1.550E-06,-0.220
1.560E-06,-0.260
1.570E-06,-0.400
1.580E-06,-0.420
1.590E-06,-0.400
1.600E-06,-0.420
1.610E-06,-0.440
1.620E-06,-0.520
1.630E-06,-0.560
1.640E-06,-0.620
1.650E-06,-0.720
1.660E-06,-0.620
1.670E-06,-0.700
1.680E-06,-0.600
1.690E-06,-0.440
1.700E-06,-0.440
1.710E-06,-0.320
1.720E-06,-0.360
1.730E-06,-0.340
1.740E-06,-0.320
1.750E-06,-0.300
1.760E-06,-0.340
1.770E-06,-0.320
1.780E-06,-0.460
1.790E-06,-0.620
1.800E-06,-0.620
1.810E-06,-0.760
1.820E-06,-0.740
1.830E-06,-0.680
1.840E-06,-0.500
1.850E-06,-0.660
1.860E-06,-0.640
1.870E-06,-0.780
1.880E-06,-0.840
1.890E-06,-0.820
1.900E-06,-0.860
1.910E-06,-0.680
1.920E-06,-0.640
1.930E-06,-0.580
1.940E-06,-0.320
1.950E-06,-0.680
1.960E-06,-0.360
1.970E-06,-0.540
1.980E-06,-1.180
1.990E-06,0.000
2.000E-06,0.120
2.010E-06,-0.100
2.020E-06,0.080
2.030E-06,0.800
2.040E-06,0.960
2.050E-06,2.000
2.060E-06,0.980
2.070E-06,0.980
2.080E-06,-1.080
2.090E-06,-3.340
2.100E-06,-3.340
2.110E-06,-3.360
2.120E-06,-3.360
2.130E-06,-1.760
2.140E-06,0.180
2.150E-06,1.020
2.160E-06,1.760
2.170E-06,-0.240
2.180E-06,-1.960
2.190E-06,-3.320
2.200E-06,-3.200
2.210E-06,-2.740
2.220E-06,-1.520
2.230E-06,-0.740
2.240E-06,-0.280
2.250E-06,-0.040
2.260E-06,-0.160
2.270E-06,-0.520
2.280E-06,-0.300
2.290E-06,-0.200
2.300E-06,0.580
2.310E-06,1.000
2.320E-06,1.220
2.330E-06,1.080
2.340E-06,0.640
2.350E-06,0.220
2.360E-06,-0.300
2.370E-06,-0.580
2.380E-06,-0.480
2.390E-06,-0.540
2.400E-06,-0.360
2.410E-06,-0.420
2.420E-06,-0.620
2.430E-06,-0.720
2.440E-06,-0.820
2.450E-06,-0.860
2.460E-06,-0.660
2.470E-06,-0.420
2.480E-06,-0.340
2.490E-06,-0.300
2.500E-06,-0.320
2.510E-06,-0.420
2.520E-06,-0.620
2.530E-06,-0.760
2.540E-06,-0.960
2.550E-06,-1.200
2.560E-06,-1.400
2.570E-06,-1.380
2.580E-06,-1.340
2.590E-06,-1.160
2.600E-06,-1.080
2.610E-06,-0.980
2.620E-06,-0.980
2.630E-06,-0.820
2.640E-06,-0.440
2.650E-06,-0.040
2.660E-06,0.840
2.670E-06,1.760
2.680E-06,2.060
2.690E-06,2.080
2.700E-06,2.080
2.710E-06,0.180
2.720E-06,-1.120
2.730E-06,-3.060
2.740E-06,-3.340
2.750E-06,-3.340
2.760E-06,-3.340
2.770E-06,-3.160
2.780E-06,-2.240
2.790E-06,-2.440
2.800E-06,-2.020
2.810E-06,-2.200
2.820E-06,-2.560
2.830E-06,-1.920
2.840E-06,-1.700
2.850E-06,-1.000
2.860E-06,-0.640
2.870E-06,-0.580
2.880E-06,-0.860
2.890E-06,-0.840
2.900E-06,-1.560
2.910E-06,-1.380
2.920E-06,-1.460
2.930E-06,-1.120
2.940E-06,-0.900
2.950E-06,-1.160
2.960E-06,-1.460
2.970E-06,-1.940
2.980E-06,-2.020
2.990E-06,-2.420
3.000E-06,-2.400
3.010E-06,-2.620
3.020E-06,-2.600
3.030E-06,-2.360
3.040E-06,-2.300
3.050E-06,-1.740
3.060E-06,-1.280
3.070E-06,-0.980
3.080E-06,-0.760
3.090E-06,-1.100
3.100E-06,-1.140
3.110E-06,-1.380
3.120E-06,-1.340
3.130E-06,-1.160
3.140E-06,-0.860
3.150E-06,-0.580
3.160E-06,-0.200
3.170E-06,-0.100
3.180E-06,0.160
3.190E-06,0.140
3.200E-06,0.100
3.210E-06,1.140
3.220E-06,1.940
3.230E-06,2.080
3.240E-06,2.100
3.250E-06,2.080
3.260E-06,1.480
3.270E-06,-0.340
3.280E-06,-2.200
3.290E-06,-3.340
3.300E-06,-3.340
3.310E-06,-3.340
3.320E-06,-3.340
