mediciones/8-28/-33/WaveData65840.csv

#timebase=2000000(ps)
,#voltbase=200000(mv/100)
#size=4000
-8.350E-06,0.008
-8.340E-06,0.008
-8.330E-06,0.000
-8.320E-06,0.000
-8.310E-06,0.000
-8.300E-06,0.008
-8.290E-06,0.000
-8.280E-06,0.008
-8.270E-06,0.008
-8.260E-06,0.008
-8.250E-06,0.000
-8.240E-06,0.008
-8.230E-06,0.008
-8.220E-06,0.000
-8.210E-06,0.000
-8.200E-06,0.000
-8.190E-06,0.008
-8.180E-06,0.008
-8.170E-06,0.000
-8.160E-06,0.000
-8.150E-06,0.000
-8.140E-06,0.008
-8.130E-06,0.008
-8.120E-06,0.008
-8.110E-06,0.008
-8.100E-06,0.008
-8.090E-06,0.000
-8.080E-06,0.008
-8.070E-06,0.008
-8.060E-06,0.008
-8.050E-06,0.008
-8.040E-06,0.000
-8.030E-06,0.008
-8.020E-06,0.000
-8.010E-06,0.008
-8.000E-06,0.016
-7.990E-06,0.008
-7.980E-06,0.008
-7.970E-06,0.000
-7.960E-06,0.008
-7.950E-06,0.008
-7.940E-06,0.000
-7.930E-06,0.008
-7.920E-06,0.008
-7.910E-06,0.000
-7.900E-06,0.000
-7.890E-06,0.008
-7.880E-06,0.008
-7.870E-06,0.000
-7.860E-06,0.000
-7.850E-06,0.008
-7.840E-06,0.008
-7.830E-06,0.008
-7.820E-06,0.008
-7.810E-06,0.000
-7.800E-06,0.008
-7.790E-06,0.000
-7.780E-06,0.000
-7.770E-06,0.008
-7.760E-06,0.008
-7.750E-06,0.000
-7.740E-06,-0.008
-7.730E-06,0.008
-7.720E-06,0.000
-7.710E-06,0.008
-7.700E-06,0.008
-7.690E-06,0.000
-7.680E-06,0.000
-7.670E-06,0.008
-7.660E-06,0.000
-7.650E-06,0.000
-7.640E-06,0.008
-7.630E-06,0.008
-7.620E-06,0.016
-7.610E-06,0.000
-7.600E-06,0.000
-7.590E-06,0.008
-7.580E-06,0.008
-7.570E-06,0.000
-7.560E-06,0.016
-7.550E-06,0.008
-7.540E-06,0.000
-7.530E-06,0.008
-7.520E-06,0.000
-7.510E-06,0.000
-7.500E-06,0.000
-7.490E-06,0.008
-7.480E-06,0.008
-7.470E-06,0.008
-7.460E-06,0.008
-7.450E-06,0.000
-7.440E-06,0.008
-7.430E-06,0.008
-7.420E-06,0.008
-7.410E-06,0.000
-7.400E-06,0.000
-7.390E-06,0.000
-7.380E-06,0.000
-7.370E-06,0.000
-7.360E-06,0.008
-7.350E-06,0.008
-7.340E-06,0.008
-7.330E-06,0.008
-7.320E-06,0.008
-7.310E-06,0.000
-7.300E-06,0.008
-7.290E-06,0.008
-7.280E-06,0.016
-7.270E-06,0.000
-7.260E-06,0.016
-7.250E-06,0.000
-7.240E-06,0.008
-7.230E-06,0.008
-7.220E-06,0.008
-7.210E-06,0.008
-7.200E-06,0.008
-7.190E-06,0.000
-7.180E-06,0.008
-7.170E-06,0.008
-7.160E-06,0.008
-7.150E-06,0.008
-7.140E-06,0.000
-7.130E-06,0.008
-7.120E-06,0.000
-7.110E-06,0.000
-7.100E-06,0.008
-7.090E-06,0.008
-7.080E-06,0.008
-7.070E-06,0.008
-7.060E-06,0.008
-7.050E-06,0.000
-7.040E-06,0.008
-7.030E-06,0.000
-7.020E-06,0.000
-7.010E-06,0.008
-7.000E-06,0.000
-6.990E-06,0.000
-6.980E-06,0.008
-6.970E-06,0.000
-6.960E-06,0.000
-6.950E-06,0.000
-6.940E-06,0.000
-6.930E-06,0.000
-6.920E-06,0.008
-6.910E-06,0.016
-6.900E-06,0.000
-6.890E-06,0.008
-6.880E-06,0.000
-6.870E-06,0.008
-6.860E-06,0.016
-6.850E-06,0.000
-6.840E-06,0.008
-6.830E-06,0.008
-6.820E-06,0.016
-6.810E-06,0.000
-6.800E-06,0.008
-6.790E-06,0.000
-6.780E-06,0.008
-6.770E-06,0.008
-6.760E-06,0.008
-6.750E-06,0.008
-6.740E-06,0.000
-6.730E-06,0.000
-6.720E-06,0.000
-6.710E-06,0.008
-6.700E-06,0.008
-6.690E-06,0.008
-6.680E-06,0.000
-6.670E-06,0.008
-6.660E-06,0.000
-6.650E-06,0.000
-6.640E-06,0.000
-6.630E-06,0.008
-6.620E-06,0.008
-6.610E-06,0.008
-6.600E-06,0.008
-6.590E-06,0.000
-6.580E-06,0.008
-6.570E-06,0.000
-6.560E-06,0.008
-6.550E-06,0.008
-6.540E-06,0.000
-6.530E-06,0.000
-6.520E-06,0.000
-6.510E-06,0.000
-6.500E-06,0.016
-6.490E-06,0.000
-6.480E-06,0.008
-6.470E-06,0.000
-6.460E-06,0.000
-6.450E-06,0.008
-6.440E-06,0.008
-6.430E-06,0.008
-6.420E-06,0.000
-6.410E-06,0.008
-6.400E-06,0.000
-6.390E-06,0.008
-6.380E-06,0.000
-6.370E-06,0.000
-6.360E-06,0.000
-6.350E-06,0.000
-6.340E-06,0.008
-6.330E-06,0.008
-6.320E-06,0.000
-6.310E-06,0.000
-6.300E-06,0.008
-6.290E-06,0.000
-6.280E-06,0.008
-6.270E-06,0.008
-6.260E-06,0.008
-6.250E-06,0.008
-6.240E-06,0.000
-6.230E-06,0.008
-6.220E-06,0.000
-6.210E-06,0.000
-6.200E-06,0.008
-6.190E-06,0.008
-6.180E-06,0.008
-6.170E-06,0.008
-6.160E-06,0.008
-6.150E-06,0.008
-6.140E-06,0.008
-6.130E-06,0.008
-6.120E-06,0.000
-6.110E-06,0.000
-6.100E-06,0.008
-6.090E-06,0.000
-6.080E-06,0.000
-6.070E-06,0.000
-6.060E-06,0.000
-6.050E-06,0.000
-6.040E-06,0.008
-6.030E-06,0.008
-6.020E-06,0.000
-6.010E-06,0.000
-6.000E-06,0.000
-5.990E-06,0.000
-5.980E-06,0.000
-5.970E-06,0.000
-5.960E-06,0.008
-5.950E-06,0.008
-5.940E-06,0.000
-5.930E-06,0.000
-5.920E-06,0.000
-5.910E-06,0.008
-5.900E-06,0.000
-5.890E-06,0.008
-5.880E-06,0.008
-5.870E-06,0.000
-5.860E-06,0.008
-5.850E-06,0.000
-5.840E-06,0.008
-5.830E-06,0.000
-5.820E-06,0.000
-5.810E-06,0.000
-5.800E-06,0.008
-5.790E-06,0.008
-5.780E-06,0.008
-5.770E-06,0.000
-5.760E-06,0.008
-5.750E-06,0.000
-5.740E-06,0.008
-5.730E-06,0.016
-5.720E-06,0.008
-5.710E-06,0.008
-5.700E-06,0.000
-5.690E-06,0.000
-5.680E-06,0.000
-5.670E-06,0.008
-5.660E-06,0.000
-5.650E-06,0.008
-5.640E-06,0.000
-5.630E-06,0.008
-5.620E-06,0.000
-5.610E-06,0.000
-5.600E-06,0.008
-5.590E-06,0.016
-5.580E-06,0.008
-5.570E-06,0.008
-5.560E-06,0.008
-5.550E-06,0.008
-5.540E-06,0.008
-5.530E-06,0.008
-5.520E-06,0.000
-5.510E-06,0.008
-5.500E-06,0.008
-5.490E-06,0.008
-5.480E-06,0.008
-5.470E-06,0.000
-5.460E-06,0.008
-5.450E-06,0.008
-5.440E-06,0.000
-5.430E-06,0.000
-5.420E-06,0.008
-5.410E-06,0.008
-5.400E-06,0.000
-5.390E-06,0.008
-5.380E-06,0.008
-5.370E-06,0.008
-5.360E-06,0.000
-5.350E-06,0.008
-5.340E-06,0.000
-5.330E-06,0.000
-5.320E-06,0.000
-5.310E-06,0.000
-5.300E-06,0.008
-5.290E-06,0.008
-5.280E-06,0.000
-5.270E-06,0.000
-5.260E-06,0.000
-5.250E-06,0.008
-5.240E-06,0.008
-5.230E-06,0.000
-5.220E-06,0.008
-5.210E-06,0.000
-5.200E-06,0.008
-5.190E-06,0.008
-5.180E-06,0.008
-5.170E-06,0.000
-5.160E-06,0.000
-5.150E-06,0.000
-5.140E-06,0.000
-5.130E-06,0.000
-5.120E-06,0.000
-5.110E-06,0.008
-5.100E-06,0.008
-5.090E-06,0.008
-5.080E-06,0.008
-5.070E-06,0.008
-5.060E-06,0.000
-5.050E-06,0.000
-5.040E-06,0.008
-5.030E-06,0.008
-5.020E-06,0.000
-5.010E-06,0.000
-5.000E-06,0.008
-4.990E-06,0.008
-4.980E-06,0.008
-4.970E-06,-0.008
-4.960E-06,0.000
-4.950E-06,0.000
-4.940E-06,0.008
-4.930E-06,0.000
-4.920E-06,0.008
-4.910E-06,0.008
-4.900E-06,0.000
-4.890E-06,0.000
-4.880E-06,0.008
-4.870E-06,0.000
-4.860E-06,0.008
-4.850E-06,0.000
-4.840E-06,0.000
-4.830E-06,0.008
-4.820E-06,0.016
-4.810E-06,0.032
-4.800E-06,0.040
-4.790E-06,0.056
-4.780E-06,0.016
-4.770E-06,-0.008
-4.760E-06,-0.032
-4.750E-06,-0.504
-4.740E-06,0.120
-4.730E-06,0.104
-4.720E-06,0.048
-4.710E-06,0.096
-4.700E-06,0.072
-4.690E-06,0.064
-4.680E-06,-0.200
-4.670E-06,0.016
-4.660E-06,0.008
-4.650E-06,0.016
-4.640E-06,0.032
-4.630E-06,0.024
-4.620E-06,0.096
-4.610E-06,0.016
-4.600E-06,-0.056
-4.590E-06,-0.088
-4.580E-06,-0.064
-4.570E-06,0.008
-4.560E-06,0.048
-4.550E-06,0.096
-4.540E-06,0.080
-4.530E-06,0.016
-4.520E-06,0.000
-4.510E-06,-0.016
-4.500E-06,-0.032
-4.490E-06,-0.024
-4.480E-06,0.016
-4.470E-06,0.040
-4.460E-06,0.024
-4.450E-06,0.016
-4.440E-06,-0.016
-4.430E-06,-0.032
-4.420E-06,-0.032
-4.410E-06,-0.016
-4.400E-06,0.008
-4.390E-06,0.032
-4.380E-06,0.056
-4.370E-06,0.024
-4.360E-06,0.008
-4.350E-06,0.000
-4.340E-06,-0.008
-4.330E-06,-0.016
-4.320E-06,-0.008
-4.310E-06,0.000
-4.300E-06,0.016
-4.290E-06,0.000
-4.280E-06,0.000
-4.270E-06,-0.008
-4.260E-06,-0.008
-4.250E-06,0.000
-4.240E-06,0.008
-4.230E-06,0.008
-4.220E-06,0.024
-4.210E-06,0.024
-4.200E-06,0.016
-4.190E-06,0.016
-4.180E-06,0.008
-4.170E-06,0.000
-4.160E-06,0.000
-4.150E-06,-0.008
-4.140E-06,-0.008
-4.130E-06,0.000
-4.120E-06,0.000
-4.110E-06,0.008
-4.100E-06,0.000
-4.090E-06,0.000
-4.080E-06,0.000
-4.070E-06,0.000
-4.060E-06,0.000
-4.050E-06,0.016
-4.040E-06,0.008
-4.030E-06,0.008
-4.020E-06,0.008
-4.010E-06,0.016
-4.000E-06,0.008
-3.990E-06,0.000
-3.980E-06,-0.008
-3.970E-06,-0.008
-3.960E-06,0.000
-3.950E-06,-0.008
-3.940E-06,0.000
-3.930E-06,0.000
-3.920E-06,0.008
-3.910E-06,0.008
-3.900E-06,0.008
-3.890E-06,0.000
-3.880E-06,0.000
-3.870E-06,0.008
-3.860E-06,0.008
-3.850E-06,0.008
-3.840E-06,0.008
-3.830E-06,0.016
-3.820E-06,0.000
-3.810E-06,0.000
-3.800E-06,0.008
-3.790E-06,0.000
-3.780E-06,0.000
-3.770E-06,0.008
-3.760E-06,0.008
-3.750E-06,0.008
-3.740E-06,0.000
-3.730E-06,0.008
-3.720E-06,0.016
-3.710E-06,0.000
-3.700E-06,0.008
-3.690E-06,0.008
-3.680E-06,0.000
-3.670E-06,0.000
-3.660E-06,0.000
-3.650E-06,0.008
-3.640E-06,0.000
-3.630E-06,0.000
-3.620E-06,0.008
-3.610E-06,0.008
-3.600E-06,0.016
-3.590E-06,0.000
-3.580E-06,0.000
-3.570E-06,0.000
-3.560E-06,0.000
-3.550E-06,-0.008
-3.540E-06,0.000
-3.530E-06,0.008
-3.520E-06,0.008
-3.510E-06,0.000
-3.500E-06,0.000
-3.490E-06,0.000
-3.480E-06,0.008
-3.470E-06,0.000
-3.460E-06,0.008
-3.450E-06,0.000
-3.440E-06,-0.008
-3.430E-06,0.000
-3.420E-06,-0.008
-3.410E-06,0.016
-3.400E-06,0.000
-3.390E-06,-0.008
-3.380E-06,0.000
-3.370E-06,0.008
-3.360E-06,0.016
-3.350E-06,-0.008
-3.340E-06,0.000
-3.330E-06,0.000
-3.320E-06,0.016
-3.310E-06,0.000
-3.300E-06,-0.008
-3.290E-06,0.008
-3.280E-06,0.000
-3.270E-06,0.008
-3.260E-06,-0.008
-3.250E-06,0.000
-3.240E-06,0.008
-3.230E-06,0.000
-3.220E-06,0.008
-3.210E-06,0.008
-3.200E-06,0.008
-3.190E-06,0.016
-3.180E-06,0.008
-3.170E-06,0.000
-3.160E-06,0.000
-3.150E-06,0.000
-3.140E-06,0.008
-3.130E-06,0.008
-3.120E-06,0.000
-3.110E-06,0.008
-3.100E-06,0.000
-3.090E-06,0.008
-3.080E-06,0.008
-3.070E-06,0.008
-3.060E-06,0.008
-3.050E-06,0.016
-3.040E-06,0.008
-3.030E-06,0.000
-3.020E-06,0.000
-3.010E-06,-0.008
-3.000E-06,0.008
-2.990E-06,0.008
-2.980E-06,0.008
-2.970E-06,0.000
-2.960E-06,0.000
-2.950E-06,-0.008
-2.940E-06,0.000
-2.930E-06,0.000
-2.920E-06,0.008
-2.910E-06,0.008
-2.900E-06,0.008
-2.890E-06,0.008
-2.880E-06,0.000
-2.870E-06,0.008
-2.860E-06,0.016
-2.850E-06,0.000
-2.840E-06,0.008
-2.830E-06,0.016
-2.820E-06,0.008
-2.810E-06,0.008
-2.800E-06,0.000
-2.790E-06,0.008
-2.780E-06,0.008
-2.770E-06,0.000
-2.760E-06,0.008
-2.750E-06,0.000
-2.740E-06,0.024
-2.730E-06,0.000
-2.720E-06,0.000
-2.710E-06,0.008
-2.700E-06,-0.008
-2.690E-06,0.000
-2.680E-06,0.000
-2.670E-06,0.000
-2.660E-06,0.000
-2.650E-06,0.008
-2.640E-06,0.000
-2.630E-06,0.000
-2.620E-06,0.008
-2.610E-06,0.000
-2.600E-06,-0.008
-2.590E-06,0.000
-2.580E-06,0.016
-2.570E-06,0.024
-2.560E-06,0.024
-2.550E-06,-0.008
-2.540E-06,0.000
-2.530E-06,0.000
-2.520E-06,0.000
-2.510E-06,0.000
-2.500E-06,0.008
-2.490E-06,0.024
-2.480E-06,0.024
-2.470E-06,-0.008
-2.460E-06,-0.008
-2.450E-06,0.016
-2.440E-06,0.024
-2.430E-06,0.056
-2.420E-06,0.056
-2.410E-06,0.040
-2.400E-06,0.024
-2.390E-06,0.000
-2.380E-06,-0.016
-2.370E-06,-0.016
-2.360E-06,-0.008
-2.350E-06,0.032
-2.340E-06,0.048
-2.330E-06,0.040
-2.320E-06,0.024
-2.310E-06,0.008
-2.300E-06,-0.016
-2.290E-06,-0.016
-2.280E-06,-0.008
-2.270E-06,0.016
-2.260E-06,0.032
-2.250E-06,0.048
-2.240E-06,0.024
-2.230E-06,0.024
-2.220E-06,0.016
-2.210E-06,-0.016
-2.200E-06,-0.016
-2.190E-06,-0.008
-2.180E-06,0.000
-2.170E-06,0.016
-2.160E-06,0.024
-2.150E-06,0.024
-2.140E-06,0.024
-2.130E-06,0.024
-2.120E-06,0.016
-2.110E-06,0.000
-2.100E-06,0.000
-2.090E-06,0.000
-2.080E-06,0.008
-2.070E-06,0.024
-2.060E-06,0.032
-2.050E-06,0.008
-2.040E-06,0.016
-2.030E-06,-0.008
-2.020E-06,0.008
-2.010E-06,0.000
-2.000E-06,0.024
-1.990E-06,0.032
-1.980E-06,0.024
-1.970E-06,0.016
-1.960E-06,0.000
-1.950E-06,0.008
-1.940E-06,0.008
-1.930E-06,-0.008
-1.920E-06,0.000
-1.910E-06,0.016
-1.900E-06,0.024
-1.890E-06,0.024
-1.880E-06,-0.008
-1.870E-06,0.008
-1.860E-06,0.000
-1.850E-06,0.008
-1.840E-06,0.000
-1.830E-06,0.032
-1.820E-06,0.032
-1.810E-06,0.024
-1.800E-06,0.016
-1.790E-06,0.016
-1.780E-06,0.016
-1.770E-06,0.008
-1.760E-06,0.016
-1.750E-06,0.016
-1.740E-06,0.024
-1.730E-06,0.024
-1.720E-06,0.032
-1.710E-06,0.016
-1.700E-06,0.016
-1.690E-06,0.016
-1.680E-06,0.016
-1.670E-06,0.032
-1.660E-06,0.032
-1.650E-06,0.032
-1.640E-06,0.048
-1.630E-06,0.040
-1.620E-06,0.032
-1.610E-06,0.032
-1.600E-06,0.016
-1.590E-06,0.016
-1.580E-06,0.016
-1.570E-06,0.032
-1.560E-06,0.008
-1.550E-06,0.024
-1.540E-06,0.024
-1.530E-06,0.008
-1.520E-06,0.040
-1.510E-06,0.032
-1.500E-06,0.048
-1.490E-06,-0.024
-1.480E-06,-0.080
-1.470E-06,-0.104
-1.460E-06,-0.144
-1.450E-06,-0.112
-1.440E-06,-0.064
-1.430E-06,0.040
-1.420E-06,0.080
-1.410E-06,0.064
-1.400E-06,0.024
-1.390E-06,-0.048
-1.380E-06,-0.056
-1.370E-06,-0.056
-1.360E-06,-0.008
-1.350E-06,0.024
-1.340E-06,0.048
-1.330E-06,0.048
-1.320E-06,0.040
-1.310E-06,0.000
-1.300E-06,-0.016
-1.290E-06,-0.016
-1.280E-06,0.000
-1.270E-06,0.032
-1.260E-06,0.040
-1.250E-06,0.032
-1.240E-06,0.016
-1.230E-06,0.000
-1.220E-06,0.000
-1.210E-06,0.008
-1.200E-06,0.040
-1.190E-06,0.056
-1.180E-06,0.064
-1.170E-06,0.040
-1.160E-06,0.040
-1.150E-06,0.016
-1.140E-06,0.032
-1.130E-06,0.032
-1.120E-06,0.032
-1.110E-06,0.056
-1.100E-06,0.056
-1.090E-06,0.056
-1.080E-06,0.048
-1.070E-06,0.064
-1.060E-06,0.040
-1.050E-06,0.016
-1.040E-06,-0.008
-1.030E-06,-0.048
-1.020E-06,-0.072
-1.010E-06,-0.056
-1.000E-06,-0.024
-9.900E-07,-0.008
-9.800E-07,0.032
-9.700E-07,0.032
-9.600E-07,0.040
-9.500E-07,-0.016
-9.400E-07,-0.032
-9.300E-07,-0.048
-9.200E-07,-0.008
-9.100E-07,0.008
-9.000E-07,0.040
-8.900E-07,0.040
-8.800E-07,0.024
-8.700E-07,-0.024
-8.600E-07,-0.040
-8.500E-07,-0.040
-8.400E-07,-0.032
-8.300E-07,0.008
-8.200E-07,0.048
-8.100E-07,0.048
-8.000E-07,0.032
-7.900E-07,0.000
-7.800E-07,-0.016
-7.700E-07,-0.024
-7.600E-07,-0.016
-7.500E-07,0.000
-7.400E-07,0.024
-7.300E-07,0.032
-7.200E-07,0.024
-7.100E-07,0.008
-7.000E-07,-0.008
-6.900E-07,0.008
-6.800E-07,0.016
-6.700E-07,0.032
-6.600E-07,0.048
-6.500E-07,0.032
-6.400E-07,0.024
-6.300E-07,0.024
-6.200E-07,0.008
-6.100E-07,0.024
-6.000E-07,0.048
-5.900E-07,0.056
-5.800E-07,0.056
-5.700E-07,0.048
-5.600E-07,0.024
-5.500E-07,0.032
-5.400E-07,0.040
-5.300E-07,0.024
-5.200E-07,0.048
-5.100E-07,0.048
-5.000E-07,0.048
-4.900E-07,0.056
-4.800E-07,0.040
-4.700E-07,0.040
-4.600E-07,0.024
-4.500E-07,0.056
-4.400E-07,0.056
-4.300E-07,0.056
-4.200E-07,0.072
-4.100E-07,0.064
-4.000E-07,0.064
-3.900E-07,0.048
-3.800E-07,0.056
-3.700E-07,0.048
-3.600E-07,0.056
-3.500E-07,0.064
-3.400E-07,0.056
-3.300E-07,0.048
-3.200E-07,0.056
-3.100E-07,0.048
-3.000E-07,0.048
-2.900E-07,0.040
-2.800E-07,0.032
-2.700E-07,0.040
-2.600E-07,0.024
-2.500E-07,0.016
-2.400E-07,0.000
-2.300E-07,-0.008
-2.200E-07,-0.048
-2.100E-07,0.032
-2.000E-07,-0.048
-1.900E-07,-0.016
-1.800E-07,0.008
-1.700E-07,0.096
-1.600E-07,0.064
-1.500E-07,0.112
-1.400E-07,0.160
-1.300E-07,0.200
-1.200E-07,0.152
-1.100E-07,0.152
-1.000E-07,0.144
-9.000E-08,0.128
-8.000E-08,0.160
-7.000E-08,0.120
-6.000E-08,0.024
-5.000E-08,-0.016
-4.000E-08,-0.080
-3.000E-08,0.016
-2.000E-08,0.080
-1.000E-08,0.248
0.000E+00,0.376
1.000E-08,0.336
2.000E-08,0.216
3.000E-08,0.104
4.000E-08,0.024
5.000E-08,0.048
6.000E-08,0.120
7.000E-08,0.112
8.000E-08,-0.008
9.000E-08,0.168
1.000E-07,-0.216
1.100E-07,-0.344
1.200E-07,-0.416
1.300E-07,-0.816
1.400E-07,-0.816
1.500E-07,-0.824
1.600E-07,-0.664
1.700E-07,0.056
1.800E-07,0.392
1.900E-07,0.440
2.000E-07,0.400
2.100E-07,0.456
2.200E-07,-0.328
2.300E-07,-0.448
2.400E-07,-0.376
2.500E-07,-0.120
2.600E-07,0.240
2.700E-07,0.384
2.800E-07,0.328
2.900E-07,0.160
3.000E-07,-0.008
3.100E-07,-0.144
3.200E-07,-0.192
3.300E-07,-0.072
3.400E-07,0.104
3.500E-07,0.264
3.600E-07,0.280
3.700E-07,0.232
3.800E-07,0.072
3.900E-07,-0.048
4.000E-07,-0.104
4.100E-07,-0.048
4.200E-07,0.056
4.300E-07,0.176
4.400E-07,0.240
4.500E-07,0.232
4.600E-07,0.176
4.700E-07,0.088
4.800E-07,-0.008
4.900E-07,0.000
5.000E-07,0.072
5.100E-07,0.144
5.200E-07,0.192
5.300E-07,0.208
5.400E-07,0.208
5.500E-07,0.160
5.600E-07,0.112
5.700E-07,0.072
5.800E-07,0.088
5.900E-07,0.152
6.000E-07,0.192
6.100E-07,0.248
6.200E-07,0.248
6.300E-07,0.216
6.400E-07,0.192
6.500E-07,0.152
6.600E-07,0.144
6.700E-07,0.160
6.800E-07,0.176
6.900E-07,0.192
7.000E-07,0.208
7.100E-07,0.200
7.200E-07,0.184
7.300E-07,0.152
7.400E-07,0.136
7.500E-07,0.128
7.600E-07,0.136
7.700E-07,0.136
7.800E-07,0.144
7.900E-07,0.144
8.000E-07,0.144
8.100E-07,0.120
8.200E-07,0.072
8.300E-07,0.064
8.400E-07,0.064
8.500E-07,0.056
8.600E-07,0.056
8.700E-07,0.088
8.800E-07,0.080
8.900E-07,0.112
9.000E-07,0.120
9.100E-07,0.128
9.200E-07,0.120
9.300E-07,0.144
9.400E-07,0.160
9.500E-07,0.184
9.600E-07,0.184
9.700E-07,0.184
9.800E-07,0.184
9.900E-07,0.176
1.000E-06,0.176
1.010E-06,0.176
1.020E-06,0.176
1.030E-06,0.176
1.040E-06,0.160
1.050E-06,0.152
1.060E-06,0.136
1.070E-06,0.136
1.080E-06,0.128
1.090E-06,0.120
1.100E-06,0.096
1.110E-06,0.064
1.120E-06,0.072
1.130E-06,0.096
1.140E-06,0.064
1.150E-06,0.088
1.160E-06,0.056
1.170E-06,0.040
1.180E-06,-0.008
1.190E-06,0.024
1.200E-06,0.056
1.210E-06,0.152
1.220E-06,0.152
1.230E-06,0.120
1.240E-06,0.104
1.250E-06,0.064
1.260E-06,0.088
1.270E-06,0.096
1.280E-06,0.128
1.290E-06,0.192
1.300E-06,0.200
1.310E-06,0.216
1.320E-06,0.192
1.330E-06,0.184
1.340E-06,0.160
1.350E-06,0.152
1.360E-06,0.160
1.370E-06,0.192
1.380E-06,0.216
1.390E-06,0.216
1.400E-06,0.216
1.410E-06,0.192
1.420E-06,0.160
1.430E-06,0.136
1.440E-06,0.152
1.450E-06,0.160
1.460E-06,0.192
1.470E-06,0.216
1.480E-06,0.216
1.490E-06,0.208
1.500E-06,0.184
1.510E-06,0.168
1.520E-06,0.136
1.530E-06,0.136
1.540E-06,0.160
1.550E-06,0.184
1.560E-06,0.200
1.570E-06,0.208
1.580E-06,0.208
1.590E-06,0.192
1.600E-06,0.176
1.610E-06,0.144
1.620E-06,0.152
1.630E-06,0.152
1.640E-06,0.168
1.650E-06,0.184
1.660E-06,0.192
1.670E-06,0.192
1.680E-06,0.192
1.690E-06,0.176
1.700E-06,0.160
1.710E-06,0.144
1.720E-06,0.144
1.730E-06,0.168
1.740E-06,0.184
1.750E-06,0.200
1.760E-06,0.192
1.770E-06,0.192
1.780E-06,0.184
1.790E-06,0.176
1.800E-06,0.160
1.810E-06,0.184
1.820E-06,0.176
1.830E-06,0.176
1.840E-06,0.200
1.850E-06,0.192
1.860E-06,0.184
1.870E-06,0.184
1.880E-06,0.176
1.890E-06,0.168
1.900E-06,0.184
1.910E-06,0.184
1.920E-06,0.184
1.930E-06,0.176
1.940E-06,0.184
1.950E-06,0.176
1.960E-06,0.160
1.970E-06,0.168
1.980E-06,0.168
1.990E-06,0.176
2.000E-06,0.168
2.010E-06,0.176
2.020E-06,0.168
2.030E-06,0.160
2.040E-06,0.152
2.050E-06,0.176
2.060E-06,0.168
2.070E-06,0.176
2.080E-06,0.168
2.090E-06,0.160
2.100E-06,0.152
2.110E-06,0.144
2.120E-06,0.160
2.130E-06,0.160
2.140E-06,0.152
2.150E-06,0.168
2.160E-06,0.168
2.170E-06,0.160
2.180E-06,0.168
2.190E-06,0.152
2.200E-06,0.152
2.210E-06,0.144
2.220E-06,0.160
2.230E-06,0.168
2.240E-06,0.152
2.250E-06,0.152
2.260E-06,0.144
2.270E-06,0.144
2.280E-06,0.144
2.290E-06,0.144
2.300E-06,0.160
2.310E-06,0.144
2.320E-06,0.168
2.330E-06,0.160
2.340E-06,0.152
2.350E-06,0.160
2.360E-06,0.144
2.370E-06,0.144
2.380E-06,0.136
2.390E-06,0.152
2.400E-06,0.160
2.410E-06,0.152
2.420E-06,0.152
2.430E-06,0.144
2.440E-06,0.144
2.450E-06,0.144
2.460E-06,0.160
2.470E-06,0.160
2.480E-06,0.168
2.490E-06,0.160
2.500E-06,0.144
2.510E-06,0.128
2.520E-06,0.120
2.530E-06,0.120
2.540E-06,0.136
2.550E-06,0.160
2.560E-06,0.152
2.570E-06,0.160
2.580E-06,0.152
2.590E-06,0.136
2.600E-06,0.144
2.610E-06,0.136
2.620E-06,0.144
2.630E-06,0.136
2.640E-06,0.128
2.650E-06,0.144
2.660E-06,0.128
2.670E-06,0.128
2.680E-06,0.144
2.690E-06,0.136
2.700E-06,0.128
2.710E-06,0.128
2.720E-06,0.128
2.730E-06,0.128
2.740E-06,0.128
2.750E-06,0.136
2.760E-06,0.136
2.770E-06,0.128
2.780E-06,0.128
2.790E-06,0.136
2.800E-06,0.128
2.810E-06,0.128
2.820E-06,0.136
2.830E-06,0.128
2.840E-06,0.128
2.850E-06,0.120
2.860E-06,0.120
2.870E-06,0.120
2.880E-06,0.120
2.890E-06,0.128
2.900E-06,0.120
2.910E-06,0.112
2.920E-06,0.120
2.930E-06,0.120
2.940E-06,0.120
2.950E-06,0.120
2.960E-06,0.112
2.970E-06,0.112
2.980E-06,0.128
2.990E-06,0.120
3.000E-06,0.120
3.010E-06,0.120
3.020E-06,0.120
3.030E-06,0.120
3.040E-06,0.128
3.050E-06,0.120
3.060E-06,0.112
3.070E-06,0.120
3.080E-06,0.120
3.090E-06,0.120
3.100E-06,0.112
3.110E-06,0.112
3.120E-06,0.120
3.130E-06,0.104
3.140E-06,0.112
3.150E-06,0.112
3.160E-06,0.104
3.170E-06,0.104
3.180E-06,0.112
3.190E-06,0.112
3.200E-06,0.112
3.210E-06,0.112
3.220E-06,0.112
3.230E-06,0.112
3.240E-06,0.104
3.250E-06,0.112
3.260E-06,0.120
3.270E-06,0.112
3.280E-06,0.088
3.290E-06,0.096
3.300E-06,0.112
3.310E-06,0.112
3.320E-06,0.112
3.330E-06,0.112
3.340E-06,0.104
3.350E-06,0.096
3.360E-06,0.088
3.370E-06,0.112
3.380E-06,0.096
3.390E-06,0.104
3.400E-06,0.096
3.410E-06,0.088
3.420E-06,0.104
3.430E-06,0.088
3.440E-06,0.096
3.450E-06,0.088
3.460E-06,0.096
3.470E-06,0.104
3.480E-06,0.112
3.490E-06,0.096
3.500E-06,0.096
3.510E-06,0.088
