mediciones/8-28/-33/WaveData65827.csv

#timebase=2000000(ps)
,#voltbase=500000(mv/100)
#size=4000
-8.350E-06,0.060
-8.340E-06,0.040
-8.330E-06,0.060
-8.320E-06,0.060
-8.310E-06,0.040
-8.300E-06,0.080
-8.290E-06,0.060
-8.280E-06,0.040
-8.270E-06,0.060
-8.260E-06,0.040
-8.250E-06,0.020
-8.240E-06,0.020
-8.230E-06,0.040
-8.220E-06,0.020
-8.210E-06,0.020
-8.200E-06,0.020
-8.190E-06,0.020
-8.180E-06,0.040
-8.170E-06,0.060
-8.160E-06,0.040
-8.150E-06,0.060
-8.140E-06,0.040
-8.130E-06,0.020
-8.120E-06,0.060
-8.110E-06,0.040
-8.100E-06,0.040
-8.090E-06,0.040
-8.080E-06,0.040
-8.070E-06,0.060
-8.060E-06,0.020
-8.050E-06,0.060
-8.040E-06,0.000
-8.030E-06,0.020
-8.020E-06,0.040
-8.010E-06,0.060
-8.000E-06,0.040
-7.990E-06,0.020
-7.980E-06,0.060
-7.970E-06,0.060
-7.960E-06,0.040
-7.950E-06,0.040
-7.940E-06,0.000
-7.930E-06,0.060
-7.920E-06,0.060
-7.910E-06,0.020
-7.900E-06,0.060
-7.890E-06,0.020
-7.880E-06,0.080
-7.870E-06,0.060
-7.860E-06,0.060
-7.850E-06,0.040
-7.840E-06,0.060
-7.830E-06,0.020
-7.820E-06,0.060
-7.810E-06,0.040
-7.800E-06,0.060
-7.790E-06,0.060
-7.780E-06,0.000
-7.770E-06,0.000
-7.760E-06,0.040
-7.750E-06,0.020
-7.740E-06,0.040
-7.730E-06,0.040
-7.720E-06,0.060
-7.710E-06,0.040
-7.700E-06,0.040
-7.690E-06,0.040
-7.680E-06,0.040
-7.670E-06,0.020
-7.660E-06,0.040
-7.650E-06,0.080
-7.640E-06,0.060
-7.630E-06,0.080
-7.620E-06,0.040
-7.610E-06,0.040
-7.600E-06,0.060
-7.590E-06,0.060
-7.580E-06,0.040
-7.570E-06,0.020
-7.560E-06,0.040
-7.550E-06,0.000
-7.540E-06,0.020
-7.530E-06,0.020
-7.520E-06,0.020
-7.510E-06,0.060
-7.500E-06,0.060
-7.490E-06,0.060
-7.480E-06,0.060
-7.470E-06,0.020
-7.460E-06,0.040
-7.450E-06,0.040
-7.440E-06,0.060
-7.430E-06,0.060
-7.420E-06,0.020
-7.410E-06,0.040
-7.400E-06,0.060
-7.390E-06,0.080
-7.380E-06,0.040
-7.370E-06,0.040
-7.360E-06,0.040
-7.350E-06,0.060
-7.340E-06,0.040
-7.330E-06,0.040
-7.320E-06,0.060
-7.310E-06,0.060
-7.300E-06,0.040
-7.290E-06,0.040
-7.280E-06,0.060
-7.270E-06,0.020
-7.260E-06,0.000
-7.250E-06,0.040
-7.240E-06,0.040
-7.230E-06,0.060
-7.220E-06,0.040
-7.210E-06,0.020
-7.200E-06,0.040
-7.190E-06,0.060
-7.180E-06,0.020
-7.170E-06,0.040
-7.160E-06,0.020
-7.150E-06,0.040
-7.140E-06,0.020
-7.130E-06,0.060
-7.120E-06,0.080
-7.110E-06,0.040
-7.100E-06,0.020
-7.090E-06,0.020
-7.080E-06,0.060
-7.070E-06,0.020
-7.060E-06,0.020
-7.050E-06,0.020
-7.040E-06,0.040
-7.030E-06,0.020
-7.020E-06,0.040
-7.010E-06,0.040
-7.000E-06,0.020
-6.990E-06,0.040
-6.980E-06,0.060
-6.970E-06,0.060
-6.960E-06,0.080
-6.950E-06,0.020
-6.940E-06,0.000
-6.930E-06,0.060
-6.920E-06,0.080
-6.910E-06,0.040
-6.900E-06,0.000
-6.890E-06,0.020
-6.880E-06,0.060
-6.870E-06,0.040
-6.860E-06,0.000
-6.850E-06,0.040
-6.840E-06,0.060
-6.830E-06,0.020
-6.820E-06,0.020
-6.810E-06,0.040
-6.800E-06,0.060
-6.790E-06,0.020
-6.780E-06,0.040
-6.770E-06,0.040
-6.760E-06,0.080
-6.750E-06,0.040
-6.740E-06,0.040
-6.730E-06,0.060
-6.720E-06,0.060
-6.710E-06,0.040
-6.700E-06,0.080
-6.690E-06,0.060
-6.680E-06,0.060
-6.670E-06,0.000
-6.660E-06,0.040
-6.650E-06,0.040
-6.640E-06,0.060
-6.630E-06,0.060
-6.620E-06,0.060
-6.610E-06,0.060
-6.600E-06,0.020
-6.590E-06,0.060
-6.580E-06,0.080
-6.570E-06,0.040
-6.560E-06,0.060
-6.550E-06,0.040
-6.540E-06,0.020
-6.530E-06,0.020
-6.520E-06,0.040
-6.510E-06,0.020
-6.500E-06,0.060
-6.490E-06,0.040
-6.480E-06,0.040
-6.470E-06,0.040
-6.460E-06,0.020
-6.450E-06,0.020
-6.440E-06,0.000
-6.430E-06,0.020
-6.420E-06,0.040
-6.410E-06,0.040
-6.400E-06,0.020
-6.390E-06,0.040
-6.380E-06,0.060
-6.370E-06,0.040
-6.360E-06,0.060
-6.350E-06,0.060
-6.340E-06,0.060
-6.330E-06,0.040
-6.320E-06,0.020
-6.310E-06,0.060
-6.300E-06,0.080
-6.290E-06,0.060
-6.280E-06,0.020
-6.270E-06,0.000
-6.260E-06,0.040
-6.250E-06,0.060
-6.240E-06,0.060
-6.230E-06,0.040
-6.220E-06,0.080
-6.210E-06,0.040
-6.200E-06,0.000
-6.190E-06,0.040
-6.180E-06,0.060
-6.170E-06,0.040
-6.160E-06,0.060
-6.150E-06,0.060
-6.140E-06,0.020
-6.130E-06,0.040
-6.120E-06,0.040
-6.110E-06,0.020
-6.100E-06,0.060
-6.090E-06,0.040
-6.080E-06,0.000
-6.070E-06,0.040
-6.060E-06,0.020
-6.050E-06,0.080
-6.040E-06,0.040
-6.030E-06,0.020
-6.020E-06,0.000
-6.010E-06,0.060
-6.000E-06,0.020
-5.990E-06,0.040
-5.980E-06,0.040
-5.970E-06,0.040
-5.960E-06,0.040
-5.950E-06,0.020
-5.940E-06,0.020
-5.930E-06,0.020
-5.920E-06,0.060
-5.910E-06,0.040
-5.900E-06,0.040
-5.890E-06,0.080
-5.880E-06,0.020
-5.870E-06,0.060
-5.860E-06,0.060
-5.850E-06,0.040
-5.840E-06,0.040
-5.830E-06,0.040
-5.820E-06,0.040
-5.810E-06,0.020
-5.800E-06,0.040
-5.790E-06,0.060
-5.780E-06,0.060
-5.770E-06,0.000
-5.760E-06,0.020
-5.750E-06,0.040
-5.740E-06,0.020
-5.730E-06,0.020
-5.720E-06,0.020
-5.710E-06,0.040
-5.700E-06,0.060
-5.690E-06,0.080
-5.680E-06,0.020
-5.670E-06,0.040
-5.660E-06,0.040
-5.650E-06,0.040
-5.640E-06,0.060
-5.630E-06,0.020
-5.620E-06,0.040
-5.610E-06,0.020
-5.600E-06,0.040
-5.590E-06,0.060
-5.580E-06,0.040
-5.570E-06,0.000
-5.560E-06,0.020
-5.550E-06,0.020
-5.540E-06,0.040
-5.530E-06,0.040
-5.520E-06,0.060
-5.510E-06,0.040
-5.500E-06,0.060
-5.490E-06,0.060
-5.480E-06,0.060
-5.470E-06,0.060
-5.460E-06,0.020
-5.450E-06,0.040
-5.440E-06,0.020
-5.430E-06,0.060
-5.420E-06,0.040
-5.410E-06,0.040
-5.400E-06,0.020
-5.390E-06,0.000
-5.380E-06,0.060
-5.370E-06,0.040
-5.360E-06,0.060
-5.350E-06,0.020
-5.340E-06,0.040
-5.330E-06,0.020
-5.320E-06,0.040
-5.310E-06,0.060
-5.300E-06,0.060
-5.290E-06,0.020
-5.280E-06,0.040
-5.270E-06,0.020
-5.260E-06,0.020
-5.250E-06,0.040
-5.240E-06,0.020
-5.230E-06,0.040
-5.220E-06,0.040
-5.210E-06,0.060
-5.200E-06,0.040
-5.190E-06,0.060
-5.180E-06,0.000
-5.170E-06,0.040
-5.160E-06,0.040
-5.150E-06,0.060
-5.140E-06,0.040
-5.130E-06,0.060
-5.120E-06,0.040
-5.110E-06,0.060
-5.100E-06,0.020
-5.090E-06,0.040
-5.080E-06,0.040
-5.070E-06,0.060
-5.060E-06,0.040
-5.050E-06,0.040
-5.040E-06,0.040
-5.030E-06,0.060
-5.020E-06,0.040
-5.010E-06,0.020
-5.000E-06,0.040
-4.990E-06,0.060
-4.980E-06,0.060
-4.970E-06,0.020
-4.960E-06,0.020
-4.950E-06,0.040
-4.940E-06,0.040
-4.930E-06,0.040
-4.920E-06,0.040
-4.910E-06,0.040
-4.900E-06,0.080
-4.890E-06,0.060
-4.880E-06,0.020
-4.870E-06,0.020
-4.860E-06,0.040
-4.850E-06,0.060
-4.840E-06,0.060
-4.830E-06,0.040
-4.820E-06,0.020
-4.810E-06,0.040
-4.800E-06,0.080
-4.790E-06,0.020
-4.780E-06,0.020
-4.770E-06,0.060
-4.760E-06,0.060
-4.750E-06,0.040
-4.740E-06,0.020
-4.730E-06,0.000
-4.720E-06,0.040
-4.710E-06,0.040
-4.700E-06,0.060
-4.690E-06,0.040
-4.680E-06,0.060
-4.670E-06,0.040
-4.660E-06,0.040
-4.650E-06,0.060
-4.640E-06,0.020
-4.630E-06,0.040
-4.620E-06,0.040
-4.610E-06,0.040
-4.600E-06,0.060
-4.590E-06,0.040
-4.580E-06,0.020
-4.570E-06,0.040
-4.560E-06,0.060
-4.550E-06,0.060
-4.540E-06,0.060
-4.530E-06,-0.020
-4.520E-06,-0.260
-4.510E-06,-0.880
-4.500E-06,-1.860
-4.490E-06,-2.880
-4.480E-06,-3.340
-4.470E-06,-2.780
-4.460E-06,-2.480
-4.450E-06,-0.840
-4.440E-06,0.040
-4.430E-06,2.100
-4.420E-06,2.080
-4.410E-06,2.060
-4.400E-06,2.080
-4.390E-06,2.100
-4.380E-06,2.100
-4.370E-06,2.080
-4.360E-06,2.100
-4.350E-06,1.420
-4.340E-06,0.340
-4.330E-06,0.020
-4.320E-06,-0.800
-4.310E-06,-0.860
-4.300E-06,-0.780
-4.290E-06,-0.500
-4.280E-06,-0.240
-4.270E-06,-0.140
-4.260E-06,-0.140
-4.250E-06,-0.580
-4.240E-06,-0.940
-4.230E-06,-1.400
-4.220E-06,-1.780
-4.210E-06,-2.060
-4.200E-06,-2.060
-4.190E-06,-1.840
-4.180E-06,-1.580
-4.170E-06,-0.940
-4.160E-06,-0.320
-4.150E-06,0.340
-4.140E-06,0.980
-4.130E-06,1.480
-4.120E-06,1.760
-4.110E-06,1.820
-4.100E-06,1.700
-4.090E-06,1.420
-4.080E-06,0.940
-4.070E-06,0.500
-4.060E-06,0.000
-4.050E-06,-0.460
-4.040E-06,-0.720
-4.030E-06,-0.900
-4.020E-06,-0.940
-4.010E-06,-0.900
-4.000E-06,-0.820
-3.990E-06,-0.660
-3.980E-06,-0.460
-3.970E-06,-0.400
-3.960E-06,-0.200
-3.950E-06,-0.080
-3.940E-06,0.100
-3.930E-06,0.360
-3.920E-06,0.520
-3.910E-06,0.700
-3.900E-06,0.920
-3.890E-06,0.920
-3.880E-06,1.000
-3.870E-06,0.900
-3.860E-06,0.840
-3.850E-06,0.700
-3.840E-06,0.500
-3.830E-06,0.340
-3.820E-06,0.180
-3.810E-06,0.040
-3.800E-06,-0.120
-3.790E-06,-0.180
-3.780E-06,-0.360
-3.770E-06,-0.460
-3.760E-06,-0.540
-3.750E-06,-0.580
-3.740E-06,-0.660
-3.730E-06,-0.680
-3.720E-06,-0.580
-3.710E-06,-0.520
-3.700E-06,-0.360
-3.690E-06,-0.140
-3.680E-06,0.100
-3.670E-06,0.360
-3.660E-06,0.540
-3.650E-06,0.760
-3.640E-06,0.900
-3.630E-06,0.900
-3.620E-06,0.880
-3.610E-06,0.760
-3.600E-06,0.600
-3.590E-06,0.420
-3.580E-06,0.180
-3.570E-06,-0.060
-3.560E-06,-0.220
-3.550E-06,-0.460
-3.540E-06,-0.580
-3.530E-06,-0.620
-3.520E-06,-0.640
-3.510E-06,-0.580
-3.500E-06,-0.480
-3.490E-06,-0.340
-3.480E-06,-0.200
-3.470E-06,-0.120
-3.460E-06,0.000
-3.450E-06,0.020
-3.440E-06,0.080
-3.430E-06,0.100
-3.420E-06,0.100
-3.410E-06,0.100
-3.400E-06,0.120
-3.390E-06,0.180
-3.380E-06,0.180
-3.370E-06,0.220
-3.360E-06,0.300
-3.350E-06,0.260
-3.340E-06,0.240
-3.330E-06,0.260
-3.320E-06,0.200
-3.310E-06,0.100
-3.300E-06,0.000
-3.290E-06,-0.020
-3.280E-06,-0.060
-3.270E-06,-0.140
-3.260E-06,-0.140
-3.250E-06,-0.140
-3.240E-06,-0.100
-3.230E-06,-0.060
-3.220E-06,0.020
-3.210E-06,0.020
-3.200E-06,0.060
-3.190E-06,0.160
-3.180E-06,0.160
-3.170E-06,0.160
-3.160E-06,0.160
-3.150E-06,0.160
-3.140E-06,0.120
-3.130E-06,0.100
-3.120E-06,0.120
-3.110E-06,0.080
-3.100E-06,0.100
-3.090E-06,0.100
-3.080E-06,0.000
-3.070E-06,-0.020
-3.060E-06,-0.020
-3.050E-06,-0.060
-3.040E-06,-0.060
-3.030E-06,-0.040
-3.020E-06,-0.060
-3.010E-06,-0.080
-3.000E-06,-0.080
-2.990E-06,-0.060
-2.980E-06,-0.060
-2.970E-06,-0.080
-2.960E-06,-0.020
-2.950E-06,-0.020
-2.940E-06,-0.020
-2.930E-06,0.000
-2.920E-06,-0.020
-2.910E-06,-0.020
-2.900E-06,-0.060
-2.890E-06,-0.040
-2.880E-06,-0.100
-2.870E-06,-0.080
-2.860E-06,-0.080
-2.850E-06,-0.060
-2.840E-06,-0.020
-2.830E-06,-0.020
-2.820E-06,-0.020
-2.810E-06,0.000
-2.800E-06,0.080
-2.790E-06,0.080
-2.780E-06,0.140
-2.770E-06,0.100
-2.760E-06,0.100
-2.750E-06,0.080
-2.740E-06,0.040
-2.730E-06,-0.020
-2.720E-06,-0.080
-2.710E-06,-0.120
-2.700E-06,-0.140
-2.690E-06,-0.200
-2.680E-06,-0.180
-2.670E-06,-0.180
-2.660E-06,-0.040
-2.650E-06,0.260
-2.640E-06,0.760
-2.630E-06,1.320
-2.620E-06,1.720
-2.610E-06,1.880
-2.600E-06,1.680
-2.590E-06,1.140
-2.580E-06,0.460
-2.570E-06,-0.280
-2.560E-06,-0.960
-2.550E-06,-1.480
-2.540E-06,-1.800
-2.530E-06,-1.960
-2.520E-06,-1.900
-2.510E-06,-1.700
-2.500E-06,-1.360
-2.490E-06,-1.000
-2.480E-06,-0.720
-2.470E-06,-0.560
-2.460E-06,-0.480
-2.450E-06,-0.420
-2.440E-06,-0.300
-2.430E-06,-0.180
-2.420E-06,-0.100
-2.410E-06,-0.060
-2.400E-06,-0.020
-2.390E-06,0.100
-2.380E-06,0.240
-2.370E-06,0.440
-2.360E-06,0.680
-2.350E-06,0.920
-2.340E-06,0.980
-2.330E-06,0.920
-2.320E-06,0.660
-2.310E-06,0.520
-2.300E-06,0.280
-2.290E-06,0.060
-2.280E-06,-0.180
-2.270E-06,-0.480
-2.260E-06,-0.680
-2.250E-06,-0.840
-2.240E-06,-1.040
-2.230E-06,-0.760
-2.220E-06,-0.700
-2.210E-06,-0.520
-2.200E-06,-0.120
-2.190E-06,0.120
-2.180E-06,0.420
-2.170E-06,0.600
-2.160E-06,0.620
-2.150E-06,0.760
-2.140E-06,0.680
-2.130E-06,0.600
-2.120E-06,0.420
-2.110E-06,0.260
-2.100E-06,0.060
-2.090E-06,-0.180
-2.080E-06,-0.280
-2.070E-06,-0.400
-2.060E-06,-0.480
-2.050E-06,-0.520
-2.040E-06,-0.560
-2.030E-06,-0.640
-2.020E-06,-0.600
-2.010E-06,-0.580
-2.000E-06,-0.520
-1.990E-06,-0.460
-1.980E-06,-0.460
-1.970E-06,-0.500
-1.960E-06,-0.500
-1.950E-06,-0.520
-1.940E-06,-0.480
-1.930E-06,-0.340
-1.920E-06,-0.380
-1.910E-06,-0.060
-1.900E-06,-0.040
-1.890E-06,0.060
-1.880E-06,0.380
-1.870E-06,0.220
-1.860E-06,0.340
-1.850E-06,0.340
-1.840E-06,0.300
-1.830E-06,0.260
-1.820E-06,0.000
-1.810E-06,-0.060
-1.800E-06,-0.300
-1.790E-06,-0.420
-1.780E-06,-0.520
-1.770E-06,-0.560
-1.760E-06,-0.560
-1.750E-06,-0.440
-1.740E-06,-0.340
-1.730E-06,-0.200
-1.720E-06,-0.040
-1.710E-06,0.040
-1.700E-06,0.160
-1.690E-06,0.260
-1.680E-06,0.320
-1.670E-06,0.360
-1.660E-06,0.320
-1.650E-06,0.280
-1.640E-06,0.220
-1.630E-06,0.100
-1.620E-06,-0.020
-1.610E-06,-0.060
-1.600E-06,-0.140
-1.590E-06,0.100
-1.580E-06,-0.180
-1.570E-06,0.020
-1.560E-06,-0.120
-1.550E-06,0.260
-1.540E-06,-0.140
-1.530E-06,0.160
-1.520E-06,-0.020
-1.510E-06,-0.020
-1.500E-06,-0.040
-1.490E-06,-0.160
-1.480E-06,-0.100
-1.470E-06,-0.200
-1.460E-06,-0.160
-1.450E-06,-0.160
-1.440E-06,-0.180
-1.430E-06,-0.180
-1.420E-06,-0.080
-1.410E-06,-0.100
-1.400E-06,-0.120
-1.390E-06,-0.160
-1.380E-06,-0.220
-1.370E-06,-0.260
-1.360E-06,-0.340
-1.350E-06,-0.420
-1.340E-06,-0.500
-1.330E-06,-0.600
-1.320E-06,-0.700
-1.310E-06,-0.620
-1.300E-06,-0.820
-1.290E-06,-0.800
-1.280E-06,-0.760
-1.270E-06,-0.640
-1.260E-06,-0.820
-1.250E-06,-0.640
-1.240E-06,-0.820
-1.230E-06,-0.820
-1.220E-06,-0.800
-1.210E-06,-0.820
-1.200E-06,-0.780
-1.190E-06,-0.860
-1.180E-06,-0.800
-1.170E-06,-0.720
-1.160E-06,-0.820
-1.150E-06,-0.820
-1.140E-06,-0.720
-1.130E-06,-0.640
-1.120E-06,-0.580
-1.110E-06,-0.560
-1.100E-06,-0.560
-1.090E-06,-0.440
-1.080E-06,-0.260
-1.070E-06,-0.240
-1.060E-06,0.260
-1.050E-06,-0.060
-1.040E-06,0.040
-1.030E-06,0.160
-1.020E-06,0.080
-1.010E-06,-0.680
-1.000E-06,-0.080
-9.900E-07,-1.160
-9.800E-07,-1.080
-9.700E-07,-1.880
-9.600E-07,-1.940
-9.500E-07,-2.200
-9.400E-07,-2.360
-9.300E-07,-2.140
-9.200E-07,-1.800
-9.100E-07,-1.300
-9.000E-07,-0.860
-8.900E-07,-0.620
-8.800E-07,-0.780
-8.700E-07,-0.500
-8.600E-07,-0.600
-8.500E-07,-0.700
-8.400E-07,-0.420
-8.300E-07,-0.440
-8.200E-07,-0.040
-8.100E-07,0.040
-8.000E-07,0.000
-7.900E-07,-0.120
-7.800E-07,0.020
-7.700E-07,-0.020
-7.600E-07,0.180
-7.500E-07,0.000
-7.400E-07,0.380
-7.300E-07,-0.180
-7.200E-07,-0.300
-7.100E-07,-0.800
-7.000E-07,-0.700
-6.900E-07,-0.660
-6.800E-07,-0.400
-6.700E-07,-0.280
-6.600E-07,-0.340
-6.500E-07,-0.500
-6.400E-07,-0.560
-6.300E-07,-0.620
-6.200E-07,-0.460
-6.100E-07,-0.540
-6.000E-07,-0.160
-5.900E-07,-0.620
-5.800E-07,-0.340
-5.700E-07,-0.900
-5.600E-07,-0.520
-5.500E-07,-0.960
-5.400E-07,-0.940
-5.300E-07,-0.920
-5.200E-07,-1.260
-5.100E-07,-1.360
-5.000E-07,-1.520
-4.900E-07,-1.640
-4.800E-07,-1.620
-4.700E-07,-1.700
-4.600E-07,-1.700
-4.500E-07,-1.600
-4.400E-07,-1.260
-4.300E-07,-1.420
-4.200E-07,-0.920
-4.100E-07,-1.080
-4.000E-07,-0.780
-3.900E-07,-0.900
-3.800E-07,-0.880
-3.700E-07,-0.840
-3.600E-07,-0.780
-3.500E-07,-0.700
-3.400E-07,-0.700
-3.300E-07,-0.600
-3.200E-07,-0.620
-3.100E-07,-0.480
-3.000E-07,-0.600
-2.900E-07,-0.480
-2.800E-07,-0.600
-2.700E-07,-0.860
-2.600E-07,-1.040
-2.500E-07,-1.200
-2.400E-07,-1.240
-2.300E-07,-1.280
-2.200E-07,-0.900
-2.100E-07,-0.180
-2.000E-07,0.000
-1.900E-07,-0.380
-1.800E-07,-1.300
-1.700E-07,0.000
-1.600E-07,-1.080
-1.500E-07,-0.540
-1.400E-07,-0.820
-1.300E-07,1.840
-1.200E-07,2.080
-1.100E-07,2.100
-1.000E-07,2.080
-9.000E-08,-0.360
-8.000E-08,-3.340
-7.000E-08,-3.340
-6.000E-08,-3.360
-5.000E-08,-3.360
-4.000E-08,-3.340
-3.000E-08,-3.340
-2.000E-08,-3.340
-1.000E-08,-3.340
0.000E+00,-3.340
1.000E-08,-3.340
2.000E-08,-3.340
3.000E-08,-3.360
4.000E-08,-1.940
5.000E-08,-1.680
6.000E-08,-0.540
7.000E-08,-0.020
8.000E-08,-0.040
9.000E-08,0.020
1.000E-07,-0.160
1.100E-07,0.040
1.200E-07,0.040
1.300E-07,0.380
1.400E-07,0.440
1.500E-07,0.200
1.600E-07,-0.060
1.700E-07,-0.620
1.800E-07,-1.280
1.900E-07,-1.860
2.000E-07,-2.680
2.100E-07,-3.260
2.200E-07,-3.340
2.300E-07,-3.340
2.400E-07,-3.340
2.500E-07,-3.360
2.600E-07,-3.340
2.700E-07,-3.340
2.800E-07,-3.340
2.900E-07,-3.360
3.000E-07,-3.340
3.100E-07,-3.200
3.200E-07,-2.660
3.300E-07,-2.200
3.400E-07,-2.000
3.500E-07,-2.020
3.600E-07,-2.140
3.700E-07,-2.500
3.800E-07,-2.820
3.900E-07,-3.360
4.000E-07,-3.360
4.100E-07,-3.360
4.200E-07,-3.360
4.300E-07,-3.340
4.400E-07,-3.340
4.500E-07,-3.340
4.600E-07,-3.360
4.700E-07,-3.340
4.800E-07,-3.120
4.900E-07,-2.900
5.000E-07,-2.480
5.100E-07,-2.040
5.200E-07,-1.700
5.300E-07,-1.480
5.400E-07,-1.280
5.500E-07,-1.120
5.600E-07,-1.040
5.700E-07,-0.880
5.800E-07,-0.660
5.900E-07,-0.360
6.000E-07,-0.360
6.100E-07,-0.360
6.200E-07,-0.280
6.300E-07,0.020
6.400E-07,0.220
6.500E-07,0.340
6.600E-07,0.000
6.700E-07,-0.320
6.800E-07,-0.900
6.900E-07,-1.460
7.000E-07,-1.880
7.100E-07,-2.160
7.200E-07,-2.340
7.300E-07,-2.400
7.400E-07,-2.420
7.500E-07,-2.360
7.600E-07,-2.400
7.700E-07,-2.340
7.800E-07,-2.120
7.900E-07,-2.040
8.000E-07,-1.780
8.100E-07,-1.620
8.200E-07,-1.600
8.300E-07,-1.580
8.400E-07,-1.620
8.500E-07,-1.580
8.600E-07,-1.660
8.700E-07,-1.700
8.800E-07,-1.720
8.900E-07,-1.740
9.000E-07,-1.680
9.100E-07,-1.680
9.200E-07,-1.680
9.300E-07,-1.600
9.400E-07,-1.520
9.500E-07,-1.520
9.600E-07,-1.460
9.700E-07,-1.440
9.800E-07,-1.380
9.900E-07,-1.400
1.000E-06,-1.480
1.010E-06,-1.480
1.020E-06,-1.540
1.030E-06,-1.400
1.040E-06,-1.360
1.050E-06,-1.340
1.060E-06,-1.040
1.070E-06,-1.040
1.080E-06,-0.940
1.090E-06,-0.820
1.100E-06,-0.760
1.110E-06,-0.720
1.120E-06,-0.700
1.130E-06,-0.700
1.140E-06,-0.700
1.150E-06,-0.800
1.160E-06,-0.760
1.170E-06,-0.860
1.180E-06,-0.840
1.190E-06,-0.820
1.200E-06,-0.860
1.210E-06,-0.700
1.220E-06,-0.700
1.230E-06,-0.600
1.240E-06,-0.480
1.250E-06,-0.340
1.260E-06,-0.200
1.270E-06,-0.200
1.280E-06,-0.180
1.290E-06,-0.440
1.300E-06,-0.280
1.310E-06,-0.440
1.320E-06,-0.420
1.330E-06,-0.320
1.340E-06,-0.400
1.350E-06,-0.360
1.360E-06,-0.360
1.370E-06,-0.180
1.380E-06,-0.160
1.390E-06,-0.100
1.400E-06,-0.020
1.410E-06,-0.040
1.420E-06,-0.060
1.430E-06,-0.060
1.440E-06,-0.300
1.450E-06,-0.260
1.460E-06,-0.460
1.470E-06,-0.640
1.480E-06,-0.620
1.490E-06,-0.740
1.500E-06,-0.700
1.510E-06,-0.720
1.520E-06,-0.780
1.530E-06,-0.820
1.540E-06,-0.880
1.550E-06,-0.960
1.560E-06,-1.000
1.570E-06,-0.980
1.580E-06,-0.880
1.590E-06,-0.880
1.600E-06,-0.760
1.610E-06,-0.940
1.620E-06,-0.620
1.630E-06,-0.680
1.640E-06,-0.520
1.650E-06,-0.340
1.660E-06,-0.340
1.670E-06,-0.260
1.680E-06,-0.160
1.690E-06,-0.420
1.700E-06,-0.940
1.710E-06,-0.920
1.720E-06,-0.560
1.730E-06,-0.380
1.740E-06,-0.380
1.750E-06,-0.360
1.760E-06,-0.300
1.770E-06,-0.160
1.780E-06,-0.220
1.790E-06,-0.280
1.800E-06,-0.180
1.810E-06,-0.240
1.820E-06,-0.380
1.830E-06,-0.400
1.840E-06,-0.260
1.850E-06,-0.220
1.860E-06,-0.140
1.870E-06,0.000
1.880E-06,0.120
1.890E-06,0.200
1.900E-06,0.220
1.910E-06,0.240
1.920E-06,0.260
1.930E-06,0.280
1.940E-06,0.320
1.950E-06,0.320
1.960E-06,0.320
1.970E-06,0.320
1.980E-06,0.300
1.990E-06,0.260
2.000E-06,0.220
2.010E-06,0.100
2.020E-06,0.020
2.030E-06,-0.080
2.040E-06,-0.080
2.050E-06,-0.180
2.060E-06,-0.200
2.070E-06,-0.060
2.080E-06,-0.060
2.090E-06,-0.060
2.100E-06,-0.040
2.110E-06,0.140
2.120E-06,0.180
2.130E-06,0.180
2.140E-06,0.140
2.150E-06,0.280
2.160E-06,0.300
2.170E-06,0.260
2.180E-06,0.260
2.190E-06,0.360
2.200E-06,0.260
2.210E-06,0.080
2.220E-06,0.100
2.230E-06,0.240
2.240E-06,0.220
2.250E-06,0.200
2.260E-06,0.040
2.270E-06,0.220
2.280E-06,0.100
2.290E-06,0.080
2.300E-06,0.080
2.310E-06,0.040
2.320E-06,0.000
2.330E-06,0.000
2.340E-06,0.060
2.350E-06,0.060
2.360E-06,0.080
2.370E-06,0.100
2.380E-06,0.120
2.390E-06,0.060
2.400E-06,-0.020
2.410E-06,-0.040
2.420E-06,0.100
2.430E-06,0.080
2.440E-06,0.160
2.450E-06,0.180
2.460E-06,0.220
2.470E-06,0.260
2.480E-06,0.200
2.490E-06,0.300
2.500E-06,0.200
2.510E-06,0.220
2.520E-06,0.120
2.530E-06,0.100
2.540E-06,0.060
2.550E-06,0.080
2.560E-06,0.060
2.570E-06,0.120
2.580E-06,0.180
2.590E-06,0.220
2.600E-06,0.260
2.610E-06,0.300
2.620E-06,0.300
2.630E-06,0.340
2.640E-06,0.340
2.650E-06,0.360
2.660E-06,0.320
2.670E-06,0.240
2.680E-06,0.220
2.690E-06,0.180
2.700E-06,0.140
2.710E-06,0.120
2.720E-06,0.080
2.730E-06,0.060
2.740E-06,0.020
2.750E-06,-0.020
2.760E-06,-0.100
2.770E-06,-0.120
2.780E-06,-0.160
2.790E-06,-0.260
2.800E-06,-0.260
2.810E-06,-0.240
2.820E-06,-0.240
2.830E-06,-0.220
2.840E-06,-0.160
2.850E-06,-0.160
2.860E-06,-0.160
2.870E-06,-0.080
2.880E-06,-0.240
2.890E-06,-0.340
2.900E-06,-0.320
2.910E-06,-0.260
2.920E-06,-0.320
2.930E-06,-0.460
2.940E-06,-0.500
2.950E-06,-0.480
2.960E-06,-0.500
2.970E-06,-0.600
2.980E-06,-0.600
2.990E-06,-0.600
3.000E-06,-0.580
3.010E-06,-0.580
3.020E-06,-0.520
3.030E-06,-0.520
3.040E-06,-0.480
3.050E-06,-0.480
3.060E-06,-0.420
3.070E-06,-0.400
3.080E-06,-0.360
3.090E-06,-0.340
3.100E-06,-0.360
3.110E-06,-0.280
3.120E-06,-0.260
3.130E-06,-0.180
3.140E-06,-0.120
3.150E-06,-0.140
3.160E-06,-0.160
3.170E-06,-0.180
3.180E-06,-0.180
3.190E-06,-0.120
3.200E-06,0.020
3.210E-06,0.160
3.220E-06,0.260
3.230E-06,0.340
3.240E-06,0.340
