mediciones/8-28/-19/WaveData65739.csv

#timebase=2000000(ps)
,#voltbase=500000(mv/100)
#size=4000
-8.350E-06,0.020
-8.340E-06,0.040
-8.330E-06,0.060
-8.320E-06,0.040
-8.310E-06,0.040
-8.300E-06,0.040
-8.290E-06,0.040
-8.280E-06,0.040
-8.270E-06,0.060
-8.260E-06,0.020
-8.250E-06,0.060
-8.240E-06,0.020
-8.230E-06,0.020
-8.220E-06,0.040
-8.210E-06,0.040
-8.200E-06,0.060
-8.190E-06,0.040
-8.180E-06,0.060
-8.170E-06,0.040
-8.160E-06,0.040
-8.150E-06,0.000
-8.140E-06,0.040
-8.130E-06,0.040
-8.120E-06,0.060
-8.110E-06,0.060
-8.100E-06,0.020
-8.090E-06,0.020
-8.080E-06,0.040
-8.070E-06,0.000
-8.060E-06,0.040
-8.050E-06,0.080
-8.040E-06,0.040
-8.030E-06,0.080
-8.020E-06,0.040
-8.010E-06,0.020
-8.000E-06,0.040
-7.990E-06,0.020
-7.980E-06,0.040
-7.970E-06,0.060
-7.960E-06,0.060
-7.950E-06,0.060
-7.940E-06,0.040
-7.930E-06,0.040
-7.920E-06,0.080
-7.910E-06,0.060
-7.900E-06,0.000
-7.890E-06,0.060
-7.880E-06,0.020
-7.870E-06,0.040
-7.860E-06,0.080
-7.850E-06,0.020
-7.840E-06,0.040
-7.830E-06,0.040
-7.820E-06,0.020
-7.810E-06,0.060
-7.800E-06,0.060
-7.790E-06,0.060
-7.780E-06,0.060
-7.770E-06,0.020
-7.760E-06,0.060
-7.750E-06,0.000
-7.740E-06,0.020
-7.730E-06,0.060
-7.720E-06,0.060
-7.710E-06,0.060
-7.700E-06,0.040
-7.690E-06,0.060
-7.680E-06,0.060
-7.670E-06,0.040
-7.660E-06,0.020
-7.650E-06,0.020
-7.640E-06,0.080
-7.630E-06,0.020
-7.620E-06,0.040
-7.610E-06,0.020
-7.600E-06,0.060
-7.590E-06,0.040
-7.580E-06,0.060
-7.570E-06,0.060
-7.560E-06,0.040
-7.550E-06,0.040
-7.540E-06,0.020
-7.530E-06,0.020
-7.520E-06,0.040
-7.510E-06,0.000
-7.500E-06,0.040
-7.490E-06,0.040
-7.480E-06,0.040
-7.470E-06,0.040
-7.460E-06,0.020
-7.450E-06,0.060
-7.440E-06,0.040
-7.430E-06,0.020
-7.420E-06,0.040
-7.410E-06,0.020
-7.400E-06,0.040
-7.390E-06,0.020
-7.380E-06,0.020
-7.370E-06,0.040
-7.360E-06,0.040
-7.350E-06,0.060
-7.340E-06,0.040
-7.330E-06,0.020
-7.320E-06,0.040
-7.310E-06,0.080
-7.300E-06,0.040
-7.290E-06,0.000
-7.280E-06,0.040
-7.270E-06,0.020
-7.260E-06,0.020
-7.250E-06,0.060
-7.240E-06,0.020
-7.230E-06,0.060
-7.220E-06,0.040
-7.210E-06,0.020
-7.200E-06,0.040
-7.190E-06,0.060
-7.180E-06,0.060
-7.170E-06,0.020
-7.160E-06,0.020
-7.150E-06,0.060
-7.140E-06,0.020
-7.130E-06,0.040
-7.120E-06,0.080
-7.110E-06,0.080
-7.100E-06,0.020
-7.090E-06,0.060
-7.080E-06,0.020
-7.070E-06,0.060
-7.060E-06,0.080
-7.050E-06,0.040
-7.040E-06,0.060
-7.030E-06,0.060
-7.020E-06,0.060
-7.010E-06,-0.020
-7.000E-06,-0.280
-6.990E-06,-1.000
-6.980E-06,-2.040
-6.970E-06,-2.980
-6.960E-06,-3.340
-6.950E-06,-2.800
-6.940E-06,-2.340
-6.930E-06,-0.640
-6.920E-06,0.520
-6.910E-06,2.080
-6.900E-06,2.080
-6.890E-06,2.080
-6.880E-06,2.080
-6.870E-06,2.080
-6.860E-06,2.080
-6.850E-06,2.060
-6.840E-06,1.760
-6.830E-06,1.280
-6.820E-06,0.180
-6.810E-06,-0.140
-6.800E-06,-0.640
-6.790E-06,-0.840
-6.780E-06,-0.680
-6.770E-06,-0.400
-6.760E-06,-0.200
-6.750E-06,-0.180
-6.740E-06,-0.200
-6.730E-06,-0.620
-6.720E-06,-1.060
-6.710E-06,-1.360
-6.700E-06,-1.780
-6.690E-06,-1.980
-6.680E-06,-1.960
-6.670E-06,-1.700
-6.660E-06,-1.400
-6.650E-06,-0.900
-6.640E-06,-0.200
-6.630E-06,0.400
-6.620E-06,0.940
-6.610E-06,1.420
-6.600E-06,1.700
-6.590E-06,1.760
-6.580E-06,1.600
-6.570E-06,1.320
-6.560E-06,0.860
-6.550E-06,0.420
-6.540E-06,-0.020
-6.530E-06,-0.440
-6.520E-06,-0.660
-6.510E-06,-0.840
-6.500E-06,-0.880
-6.490E-06,-0.860
-6.480E-06,-0.760
-6.470E-06,-0.640
-6.460E-06,-0.500
-6.450E-06,-0.340
-6.440E-06,-0.160
-6.430E-06,0.040
-6.420E-06,0.240
-6.410E-06,0.440
-6.400E-06,0.660
-6.390E-06,0.780
-6.380E-06,0.880
-6.370E-06,0.940
-6.360E-06,0.920
-6.350E-06,0.840
-6.340E-06,0.760
-6.330E-06,0.600
-6.320E-06,0.440
-6.310E-06,0.280
-6.300E-06,0.180
-6.290E-06,-0.020
-6.280E-06,-0.160
-6.270E-06,-0.260
-6.260E-06,-0.360
-6.250E-06,-0.400
-6.240E-06,-0.480
-6.230E-06,-0.560
-6.220E-06,-0.600
-6.210E-06,-0.620
-6.200E-06,-0.580
-6.190E-06,-0.520
-6.180E-06,-0.360
-6.170E-06,-0.160
-6.160E-06,0.060
-6.150E-06,0.320
-6.140E-06,0.580
-6.130E-06,0.760
-6.120E-06,0.880
-6.110E-06,0.900
-6.100E-06,0.880
-6.090E-06,0.800
-6.080E-06,0.580
-6.070E-06,0.340
-6.060E-06,0.220
-6.050E-06,-0.080
-6.040E-06,-0.340
-6.030E-06,-0.420
-6.020E-06,-0.520
-6.010E-06,-0.560
-6.000E-06,-0.540
-5.990E-06,-0.480
-5.980E-06,-0.420
-5.970E-06,-0.340
-5.960E-06,-0.240
-5.950E-06,-0.140
-5.940E-06,-0.020
-5.930E-06,0.000
-5.920E-06,0.080
-5.910E-06,0.120
-5.900E-06,0.120
-5.890E-06,0.180
-5.880E-06,0.180
-5.870E-06,0.240
-5.860E-06,0.240
-5.850E-06,0.260
-5.840E-06,0.260
-5.830E-06,0.240
-5.820E-06,0.240
-5.810E-06,0.200
-5.800E-06,0.160
-5.790E-06,0.120
-5.780E-06,0.100
-5.770E-06,0.020
-5.760E-06,0.000
-5.750E-06,0.000
-5.740E-06,-0.100
-5.730E-06,-0.120
-5.720E-06,-0.080
-5.710E-06,-0.060
-5.700E-06,-0.040
-5.690E-06,0.020
-5.680E-06,0.040
-5.670E-06,0.080
-5.660E-06,0.100
-5.650E-06,0.140
-5.640E-06,0.120
-5.630E-06,0.100
-5.620E-06,0.100
-5.610E-06,0.100
-5.600E-06,0.080
-5.590E-06,0.060
-5.580E-06,0.040
-5.570E-06,0.000
-5.560E-06,0.000
-5.550E-06,-0.020
-5.540E-06,-0.040
-5.530E-06,-0.060
-5.520E-06,-0.040
-5.510E-06,-0.060
-5.500E-06,-0.060
-5.490E-06,-0.080
-5.480E-06,-0.100
-5.470E-06,-0.080
-5.460E-06,-0.100
-5.450E-06,-0.060
-5.440E-06,-0.020
-5.430E-06,-0.020
-5.420E-06,-0.020
-5.410E-06,0.000
-5.400E-06,0.000
-5.390E-06,-0.020
-5.380E-06,0.000
-5.370E-06,0.000
-5.360E-06,-0.020
-5.350E-06,-0.020
-5.340E-06,0.000
-5.330E-06,0.000
-5.320E-06,0.020
-5.310E-06,0.020
-5.300E-06,0.080
-5.290E-06,0.080
-5.280E-06,0.120
-5.270E-06,0.180
-5.260E-06,0.180
-5.250E-06,0.220
-5.240E-06,0.160
-5.230E-06,0.180
-5.220E-06,0.120
-5.210E-06,0.080
-5.200E-06,0.060
-5.190E-06,0.000
-5.180E-06,-0.020
-5.170E-06,-0.040
-5.160E-06,-0.080
-5.150E-06,-0.140
-5.140E-06,-0.120
-5.130E-06,-0.160
-5.120E-06,-0.160
-5.110E-06,-0.120
-5.100E-06,-0.120
-5.090E-06,-0.120
-5.080E-06,-0.080
-5.070E-06,-0.060
-5.060E-06,-0.040
-5.050E-06,0.020
-5.040E-06,0.020
-5.030E-06,0.060
-5.020E-06,0.040
-5.010E-06,0.100
-5.000E-06,0.120
-4.990E-06,0.120
-4.980E-06,0.160
-4.970E-06,0.140
-4.960E-06,0.140
-4.950E-06,0.100
-4.940E-06,0.100
-4.930E-06,0.080
-4.920E-06,0.040
-4.910E-06,0.000
-4.900E-06,0.000
-4.890E-06,-0.020
-4.880E-06,-0.100
-4.870E-06,-0.080
-4.860E-06,-0.080
-4.850E-06,-0.060
-4.840E-06,-0.080
-4.830E-06,-0.040
-4.820E-06,0.000
-4.810E-06,0.000
-4.800E-06,0.120
-4.790E-06,0.120
-4.780E-06,0.080
-4.770E-06,0.120
-4.760E-06,0.100
-4.750E-06,0.080
-4.740E-06,0.060
-4.730E-06,0.080
-4.720E-06,0.100
-4.710E-06,0.100
-4.700E-06,0.060
-4.690E-06,0.060
-4.680E-06,0.040
-4.670E-06,0.080
-4.660E-06,0.100
-4.650E-06,0.160
-4.640E-06,0.500
-4.630E-06,0.920
-4.620E-06,1.480
-4.610E-06,1.880
-4.600E-06,1.920
-4.590E-06,1.680
-4.580E-06,1.200
-4.570E-06,0.500
-4.560E-06,-0.220
-4.550E-06,-0.820
-4.540E-06,-1.300
-4.530E-06,-1.620
-4.520E-06,-1.800
-4.510E-06,-1.880
-4.500E-06,-1.700
-4.490E-06,-1.520
-4.480E-06,-1.180
-4.470E-06,-0.860
-4.460E-06,-0.620
-4.450E-06,-0.460
-4.440E-06,-0.300
-4.430E-06,-0.200
-4.420E-06,-0.060
-4.410E-06,0.000
-4.400E-06,0.100
-4.390E-06,0.180
-4.380E-06,0.280
-4.370E-06,0.420
-4.360E-06,0.620
-4.350E-06,0.820
-4.340E-06,0.980
-4.330E-06,1.060
-4.320E-06,1.080
-4.310E-06,0.940
-4.300E-06,0.720
-4.290E-06,0.440
-4.280E-06,0.200
-4.270E-06,-0.100
-4.260E-06,-0.340
-4.250E-06,-0.560
-4.240E-06,-0.720
-4.230E-06,-0.780
-4.220E-06,-0.800
-4.210E-06,-0.640
-4.200E-06,-0.460
-4.190E-06,-0.160
-4.180E-06,0.200
-4.170E-06,0.460
-4.160E-06,0.660
-4.150E-06,0.860
-4.140E-06,0.940
-4.130E-06,0.900
-4.120E-06,0.800
-4.110E-06,0.720
-4.100E-06,0.500
-4.090E-06,0.320
-4.080E-06,0.060
-4.070E-06,-0.120
-4.060E-06,-0.260
-4.050E-06,-0.380
-4.040E-06,-0.460
-4.030E-06,-0.520
-4.020E-06,-0.520
-4.010E-06,-0.500
-4.000E-06,-0.460
-3.990E-06,-0.420
-3.980E-06,-0.360
-3.970E-06,-0.320
-3.960E-06,-0.300
-3.950E-06,-0.280
-3.940E-06,-0.300
-3.930E-06,-0.260
-3.920E-06,-0.200
-3.910E-06,-0.160
-3.900E-06,-0.020
-3.890E-06,0.160
-3.880E-06,0.240
-3.870E-06,0.400
-3.860E-06,0.440
-3.850E-06,0.480
-3.840E-06,0.460
-3.830E-06,0.400
-3.820E-06,0.300
-3.810E-06,0.100
-3.800E-06,-0.040
-3.790E-06,-0.200
-3.780E-06,-0.380
-3.770E-06,-0.460
-3.760E-06,-0.520
-3.750E-06,-0.500
-3.740E-06,-0.460
-3.730E-06,-0.340
-3.720E-06,-0.240
-3.710E-06,-0.100
-3.700E-06,0.080
-3.690E-06,0.160
-3.680E-06,0.260
-3.670E-06,0.380
-3.660E-06,0.420
-3.650E-06,0.380
-3.640E-06,0.320
-3.630E-06,0.280
-3.620E-06,0.160
-3.610E-06,0.120
-3.600E-06,0.060
-3.590E-06,0.000
-3.580E-06,-0.040
-3.570E-06,-0.060
-3.560E-06,-0.060
-3.550E-06,-0.040
-3.540E-06,-0.020
-3.530E-06,-0.040
-3.520E-06,-0.020
-3.510E-06,-0.060
-3.500E-06,-0.020
-3.490E-06,-0.040
-3.480E-06,-0.060
-3.470E-06,-0.100
-3.460E-06,-0.100
-3.450E-06,-0.120
-3.440E-06,-0.120
-3.430E-06,-0.080
-3.420E-06,-0.060
-3.410E-06,-0.020
-3.400E-06,0.040
-3.390E-06,0.080
-3.380E-06,0.080
-3.370E-06,0.100
-3.360E-06,0.080
-3.350E-06,0.080
-3.340E-06,0.080
-3.330E-06,0.020
-3.320E-06,-0.020
-3.310E-06,-0.040
-3.300E-06,-0.100
-3.290E-06,-0.100
-3.280E-06,-0.100
-3.270E-06,-0.100
-3.260E-06,-0.100
-3.250E-06,-0.060
-3.240E-06,-0.020
-3.230E-06,0.000
-3.220E-06,0.000
-3.210E-06,0.000
-3.200E-06,0.040
-3.190E-06,0.080
-3.180E-06,0.040
-3.170E-06,0.020
-3.160E-06,0.040
-3.150E-06,0.040
-3.140E-06,0.000
-3.130E-06,0.000
-3.120E-06,0.060
-3.110E-06,-0.020
-3.100E-06,-0.020
-3.090E-06,0.040
-3.080E-06,0.040
-3.070E-06,0.100
-3.060E-06,0.100
-3.050E-06,0.100
-3.040E-06,0.120
-3.030E-06,0.120
-3.020E-06,0.080
-3.010E-06,0.100
-3.000E-06,0.040
-2.990E-06,0.020
-2.980E-06,-0.020
-2.970E-06,-0.020
-2.960E-06,-0.020
-2.950E-06,-0.020
-2.940E-06,-0.020
-2.930E-06,0.000
-2.920E-06,-0.040
-2.910E-06,-0.040
-2.900E-06,-0.040
-2.890E-06,-0.040
-2.880E-06,-0.060
-2.870E-06,-0.080
-2.860E-06,-0.020
-2.850E-06,-0.040
-2.840E-06,-0.020
-2.830E-06,-0.020
-2.820E-06,-0.020
-2.810E-06,-0.020
-2.800E-06,-0.080
-2.790E-06,-0.060
-2.780E-06,-0.120
-2.770E-06,-0.080
-2.760E-06,0.220
-2.750E-06,-0.120
-2.740E-06,0.320
-2.730E-06,0.020
-2.720E-06,0.020
-2.710E-06,0.180
-2.700E-06,0.020
-2.690E-06,0.080
-2.680E-06,0.000
-2.670E-06,-0.020
-2.660E-06,0.020
-2.650E-06,-0.100
-2.640E-06,-0.020
-2.630E-06,-0.100
-2.620E-06,-0.080
-2.610E-06,-0.060
-2.600E-06,-0.080
-2.590E-06,-0.040
-2.580E-06,-0.040
-2.570E-06,-0.040
-2.560E-06,-0.040
-2.550E-06,-0.080
-2.540E-06,-0.120
-2.530E-06,-0.180
-2.520E-06,-0.180
-2.510E-06,-0.200
-2.500E-06,-0.140
-2.490E-06,-0.140
-2.480E-06,-0.160
-2.470E-06,-0.100
-2.460E-06,-0.160
-2.450E-06,-0.180
-2.440E-06,-0.220
-2.430E-06,0.040
-2.420E-06,-0.160
-2.410E-06,0.140
-2.400E-06,0.000
-2.390E-06,0.040
-2.380E-06,-0.040
-2.370E-06,-0.100
-2.360E-06,-0.140
-2.350E-06,-0.120
-2.340E-06,-0.140
-2.330E-06,-0.120
-2.320E-06,-0.140
-2.310E-06,-0.100
-2.300E-06,-0.100
-2.290E-06,-0.120
-2.280E-06,-0.100
-2.270E-06,-0.080
-2.260E-06,-0.060
-2.250E-06,0.020
-2.240E-06,0.020
-2.230E-06,-0.080
-2.220E-06,0.080
-2.210E-06,0.160
-2.200E-06,-0.020
-2.190E-06,0.220
-2.180E-06,0.020
-2.170E-06,0.100
-2.160E-06,0.080
-2.150E-06,0.000
-2.140E-06,0.080
-2.130E-06,0.040
-2.120E-06,0.060
-2.110E-06,0.000
-2.100E-06,-0.020
-2.090E-06,-0.060
-2.080E-06,-0.160
-2.070E-06,-0.160
-2.060E-06,-0.160
-2.050E-06,-0.200
-2.040E-06,-0.260
-2.030E-06,-0.240
-2.020E-06,-0.320
-2.010E-06,-0.320
-2.000E-06,-0.320
-1.990E-06,-0.320
-1.980E-06,-0.300
-1.970E-06,-0.080
-1.960E-06,-0.300
-1.950E-06,0.000
-1.940E-06,-0.160
-1.930E-06,-0.200
-1.920E-06,-0.020
-1.910E-06,-0.120
-1.900E-06,-0.100
-1.890E-06,-0.140
-1.880E-06,-0.200
-1.870E-06,-0.180
-1.860E-06,-0.260
-1.850E-06,-0.260
-1.840E-06,-0.300
-1.830E-06,-0.340
-1.820E-06,-0.360
-1.810E-06,-0.400
-1.800E-06,-0.480
-1.790E-06,-0.360
-1.780E-06,-0.600
-1.770E-06,-0.320
-1.760E-06,-0.560
-1.750E-06,-0.220
-1.740E-06,-0.500
-1.730E-06,-0.120
-1.720E-06,-0.520
-1.710E-06,-0.240
-1.700E-06,-0.360
-1.690E-06,-0.440
-1.680E-06,-0.360
-1.670E-06,-0.400
-1.660E-06,-0.420
-1.650E-06,-0.500
-1.640E-06,-0.460
-1.630E-06,-0.640
-1.620E-06,-0.580
-1.610E-06,-0.640
-1.600E-06,-0.600
-1.590E-06,-0.420
-1.580E-06,-0.560
-1.570E-06,-0.360
-1.560E-06,-0.200
-1.550E-06,-0.520
-1.540E-06,-0.240
-1.530E-06,-0.360
-1.520E-06,-0.240
-1.510E-06,0.100
-1.500E-06,0.220
-1.490E-06,0.160
-1.480E-06,0.080
-1.470E-06,-0.280
-1.460E-06,-0.700
-1.450E-06,-0.900
-1.440E-06,-1.160
-1.430E-06,-1.100
-1.420E-06,-1.060
-1.410E-06,-0.980
-1.400E-06,-0.920
-1.390E-06,-0.860
-1.380E-06,-1.020
-1.370E-06,-0.860
-1.360E-06,-0.580
-1.350E-06,-0.500
-1.340E-06,-0.320
-1.330E-06,-0.480
-1.320E-06,-0.280
-1.310E-06,-0.440
-1.300E-06,-0.520
-1.290E-06,-0.460
-1.280E-06,-0.420
-1.270E-06,-0.380
-1.260E-06,-0.420
-1.250E-06,-0.260
-1.240E-06,-0.280
-1.230E-06,-0.180
-1.220E-06,-0.020
-1.210E-06,-0.160
-1.200E-06,-0.040
-1.190E-06,-0.340
-1.180E-06,-0.340
-1.170E-06,-0.460
-1.160E-06,-0.540
-1.150E-06,-0.420
-1.140E-06,-0.620
-1.130E-06,-0.400
-1.120E-06,-0.400
-1.110E-06,-0.340
-1.100E-06,-0.320
-1.090E-06,-0.320
-1.080E-06,-0.460
-1.070E-06,-0.420
-1.060E-06,-0.440
-1.050E-06,-0.200
-1.040E-06,-0.420
-1.030E-06,-0.340
-1.020E-06,-0.700
-1.010E-06,-0.380
-1.000E-06,-0.860
-9.900E-07,-0.840
-9.800E-07,-1.340
-9.700E-07,-1.360
-9.600E-07,-1.320
-9.500E-07,-1.300
-9.400E-07,-1.280
-9.300E-07,-1.280
-9.200E-07,-1.460
-9.100E-07,-1.460
-9.000E-07,-1.580
-8.900E-07,-1.380
-8.800E-07,-1.360
-8.700E-07,-1.200
-8.600E-07,-1.380
-8.500E-07,-1.140
-8.400E-07,-1.340
-8.300E-07,-1.280
-8.200E-07,-1.240
-8.100E-07,-1.160
-8.000E-07,-0.980
-7.900E-07,-1.080
-7.800E-07,-0.860
-7.700E-07,-0.840
-7.600E-07,-0.940
-7.500E-07,-0.820
-7.400E-07,-0.580
-7.300E-07,-0.480
-7.200E-07,-0.460
-7.100E-07,-0.320
-7.000E-07,-0.560
-6.900E-07,-0.860
-6.800E-07,-1.000
-6.700E-07,-1.200
-6.600E-07,-1.040
-6.500E-07,-1.180
-6.400E-07,-1.180
-6.300E-07,-0.900
-6.200E-07,-1.040
-6.100E-07,-0.980
-6.000E-07,-0.840
-5.900E-07,-0.800
-5.800E-07,-0.680
-5.700E-07,-0.600
-5.600E-07,-0.540
-5.500E-07,-0.480
-5.400E-07,-0.640
-5.300E-07,-0.700
-5.200E-07,-0.640
-5.100E-07,-0.600
-5.000E-07,-0.480
-4.900E-07,-0.560
-4.800E-07,-0.560
-4.700E-07,-0.520
-4.600E-07,-0.520
-4.500E-07,-0.620
-4.400E-07,-0.660
-4.300E-07,-0.660
-4.200E-07,-0.360
-4.100E-07,-0.720
-4.000E-07,-0.460
-3.900E-07,-0.780
-3.800E-07,-0.780
-3.700E-07,-0.880
-3.600E-07,-1.040
-3.500E-07,-1.080
-3.400E-07,-1.180
-3.300E-07,-1.180
-3.200E-07,-1.120
-3.100E-07,-1.180
-3.000E-07,-1.100
-2.900E-07,-0.920
-2.800E-07,-0.780
-2.700E-07,-0.940
-2.600E-07,-0.940
-2.500E-07,-0.760
-2.400E-07,-0.840
-2.300E-07,-0.780
-2.200E-07,-0.740
-2.100E-07,-0.640
-2.000E-07,-0.540
-1.900E-07,-0.840
-1.800E-07,-0.440
-1.700E-07,-0.640
-1.600E-07,0.520
-1.500E-07,-0.680
-1.400E-07,-0.320
-1.300E-07,-0.800
-1.200E-07,-0.460
-1.100E-07,-0.380
-1.000E-07,-1.060
-9.000E-08,-1.560
-8.000E-08,-1.600
-7.000E-08,-2.140
-6.000E-08,-1.520
-5.000E-08,1.020
-4.000E-08,2.100
-3.000E-08,2.100
-2.000E-08,1.820
-1.000E-08,0.500
0.000E+00,-2.280
1.000E-08,-3.340
2.000E-08,-3.340
3.000E-08,-3.340
4.000E-08,-3.340
5.000E-08,-3.340
6.000E-08,-3.340
7.000E-08,-3.360
8.000E-08,-2.880
9.000E-08,-3.360
1.000E-07,-3.360
1.100E-07,-3.220
1.200E-07,-2.960
1.300E-07,-1.900
1.400E-07,-1.760
1.500E-07,-1.080
1.600E-07,-0.900
1.700E-07,-1.160
1.800E-07,-0.840
1.900E-07,-1.300
2.000E-07,-1.360
2.100E-07,-1.560
2.200E-07,-1.560
2.300E-07,-1.700
2.400E-07,-2.100
2.500E-07,-2.360
2.600E-07,-2.820
2.700E-07,-3.320
2.800E-07,-3.340
2.900E-07,-3.340
3.000E-07,-3.340
3.100E-07,-3.340
3.200E-07,-3.340
3.300E-07,-3.340
3.400E-07,-3.340
3.500E-07,-3.320
3.600E-07,-3.340
3.700E-07,-3.340
3.800E-07,-3.340
3.900E-07,-3.340
4.000E-07,-2.840
4.100E-07,-2.280
4.200E-07,-1.700
4.300E-07,-1.300
4.400E-07,-1.060
4.500E-07,-0.840
4.600E-07,-0.900
4.700E-07,-0.960
4.800E-07,-1.180
4.900E-07,-1.380
5.000E-07,-1.500
5.100E-07,-1.700
5.200E-07,-1.860
5.300E-07,-1.960
5.400E-07,-1.920
5.500E-07,-1.740
5.600E-07,-1.580
5.700E-07,-1.320
5.800E-07,-1.020
5.900E-07,-0.780
6.000E-07,-0.600
6.100E-07,-0.480
6.200E-07,-0.420
6.300E-07,-0.420
6.400E-07,-0.420
6.500E-07,-0.440
6.600E-07,-0.300
6.700E-07,-0.200
6.800E-07,0.040
6.900E-07,0.040
7.000E-07,0.200
7.100E-07,0.160
7.200E-07,0.040
7.300E-07,-0.160
7.400E-07,-0.500
7.500E-07,-0.920
7.600E-07,-1.360
7.700E-07,-1.840
7.800E-07,-2.200
7.900E-07,-2.540
8.000E-07,-2.800
8.100E-07,-2.880
8.200E-07,-2.900
8.300E-07,-2.760
8.400E-07,-2.580
8.500E-07,-2.400
8.600E-07,-2.120
8.700E-07,-1.900
8.800E-07,-1.680
8.900E-07,-1.420
9.000E-07,-1.240
9.100E-07,-1.040
9.200E-07,-0.960
9.300E-07,-0.900
9.400E-07,-0.940
9.500E-07,-0.980
9.600E-07,-1.020
9.700E-07,-1.060
9.800E-07,-1.080
9.900E-07,-1.120
1.000E-06,-1.100
1.010E-06,-1.120
1.020E-06,-1.040
1.030E-06,-1.080
1.040E-06,-1.080
1.050E-06,-1.120
1.060E-06,-1.320
1.070E-06,-1.300
1.080E-06,-1.400
1.090E-06,-1.540
1.100E-06,-1.380
1.110E-06,-1.500
1.120E-06,-1.380
1.130E-06,-1.280
1.140E-06,-1.200
1.150E-06,-1.020
1.160E-06,-0.920
1.170E-06,-0.800
1.180E-06,-0.680
1.190E-06,-0.720
1.200E-06,-0.640
1.210E-06,-0.680
1.220E-06,-0.740
1.230E-06,-0.780
1.240E-06,-0.780
1.250E-06,-0.900
1.260E-06,-0.900
1.270E-06,-1.000
1.280E-06,-0.940
1.290E-06,-1.000
1.300E-06,-1.040
1.310E-06,-1.100
1.320E-06,-1.100
1.330E-06,-1.120
1.340E-06,-1.100
1.350E-06,-1.040
1.360E-06,-1.040
1.370E-06,-1.000
1.380E-06,-1.040
1.390E-06,-0.960
1.400E-06,-0.940
1.410E-06,-0.940
1.420E-06,-0.940
1.430E-06,-0.840
1.440E-06,-0.820
1.450E-06,-0.780
1.460E-06,-0.740
1.470E-06,-0.840
1.480E-06,-0.760
1.490E-06,-0.800
1.500E-06,-0.760
1.510E-06,-0.700
1.520E-06,-0.840
1.530E-06,-0.860
1.540E-06,-0.920
1.550E-06,-0.860
1.560E-06,-0.920
1.570E-06,-0.960
1.580E-06,-0.860
1.590E-06,-0.860
1.600E-06,-0.860
1.610E-06,-0.780
1.620E-06,-0.680
1.630E-06,-0.600
1.640E-06,-0.460
1.650E-06,-0.360
1.660E-06,-0.280
1.670E-06,-0.420
1.680E-06,-0.600
1.690E-06,-0.760
1.700E-06,-0.860
1.710E-06,-0.420
1.720E-06,-0.860
1.730E-06,-0.340
1.740E-06,-0.620
1.750E-06,-0.460
1.760E-06,-0.520
1.770E-06,-0.240
1.780E-06,-0.260
1.790E-06,0.160
1.800E-06,0.080
1.810E-06,0.140
1.820E-06,0.140
1.830E-06,0.160
1.840E-06,0.220
1.850E-06,0.260
1.860E-06,0.320
1.870E-06,0.320
1.880E-06,0.300
1.890E-06,0.140
1.900E-06,0.020
1.910E-06,0.000
1.920E-06,-0.020
1.930E-06,-0.040
1.940E-06,-0.020
1.950E-06,0.040
1.960E-06,0.080
1.970E-06,0.080
1.980E-06,-0.020
1.990E-06,-0.120
2.000E-06,-0.220
2.010E-06,-0.280
2.020E-06,-0.340
2.030E-06,-0.420
2.040E-06,-0.440
2.050E-06,-0.460
2.060E-06,-0.420
2.070E-06,-0.400
2.080E-06,-0.320
2.090E-06,-0.240
2.100E-06,-0.180
2.110E-06,-0.120
2.120E-06,-0.120
2.130E-06,0.000
2.140E-06,0.020
2.150E-06,-0.020
2.160E-06,-0.020
2.170E-06,-0.040
2.180E-06,-0.040
2.190E-06,-0.080
2.200E-06,-0.040
2.210E-06,-0.060
2.220E-06,0.020
2.230E-06,0.080
2.240E-06,0.160
2.250E-06,0.240
2.260E-06,0.280
2.270E-06,0.380
2.280E-06,0.340
2.290E-06,0.360
2.300E-06,0.300
2.310E-06,0.240
2.320E-06,0.280
2.330E-06,0.280
2.340E-06,0.300
2.350E-06,0.260
2.360E-06,0.300
2.370E-06,0.260
2.380E-06,0.240
2.390E-06,0.340
2.400E-06,0.300
2.410E-06,0.360
2.420E-06,0.280
2.430E-06,0.260
2.440E-06,0.280
2.450E-06,0.280
2.460E-06,0.240
2.470E-06,0.260
2.480E-06,0.260
2.490E-06,0.240
2.500E-06,0.160
2.510E-06,0.220
2.520E-06,0.160
2.530E-06,0.160
2.540E-06,0.160
2.550E-06,0.160
2.560E-06,0.220
2.570E-06,0.240
2.580E-06,0.260
2.590E-06,0.260
2.600E-06,0.260
2.610E-06,0.280
2.620E-06,0.280
2.630E-06,0.360
2.640E-06,0.340
2.650E-06,0.300
2.660E-06,0.200
2.670E-06,0.260
2.680E-06,0.260
2.690E-06,0.260
2.700E-06,0.180
2.710E-06,0.160
2.720E-06,0.160
2.730E-06,0.140
2.740E-06,0.180
2.750E-06,0.200
2.760E-06,0.240
2.770E-06,0.240
2.780E-06,0.200
2.790E-06,0.180
2.800E-06,0.160
2.810E-06,0.140
2.820E-06,0.120
2.830E-06,0.100
2.840E-06,0.060
2.850E-06,0.080
2.860E-06,0.020
2.870E-06,-0.080
2.880E-06,-0.140
2.890E-06,-0.240
2.900E-06,-0.360
2.910E-06,-0.420
2.920E-06,-0.480
2.930E-06,-0.500
2.940E-06,-0.600
2.950E-06,-0.660
2.960E-06,-0.660
2.970E-06,-0.660
2.980E-06,-0.660
2.990E-06,-0.640
3.000E-06,-0.620
3.010E-06,-0.600
3.020E-06,-0.500
3.030E-06,-0.420
3.040E-06,-0.320
3.050E-06,-0.260
3.060E-06,-0.120
3.070E-06,0.140
3.080E-06,0.320
3.090E-06,0.340
3.100E-06,0.560
3.110E-06,0.840
3.120E-06,1.060
3.130E-06,1.100
3.140E-06,0.980
3.150E-06,1.060
3.160E-06,0.840
