mediciones/8-28/-19/WaveData65735.csv

#timebase=2000000(ps)
,#voltbase=500000(mv/100)
#size=4000
-8.350E-06,0.060
-8.340E-06,0.040
-8.330E-06,0.060
-8.320E-06,0.080
-8.310E-06,0.040
-8.300E-06,0.020
-8.290E-06,0.040
-8.280E-06,0.060
-8.270E-06,0.060
-8.260E-06,0.060
-8.250E-06,0.020
-8.240E-06,0.040
-8.230E-06,0.020
-8.220E-06,0.040
-8.210E-06,0.060
-8.200E-06,0.020
-8.190E-06,0.080
-8.180E-06,0.020
-8.170E-06,0.060
-8.160E-06,0.060
-8.150E-06,0.020
-8.140E-06,0.060
-8.130E-06,0.040
-8.120E-06,0.060
-8.110E-06,0.060
-8.100E-06,0.080
-8.090E-06,0.040
-8.080E-06,0.060
-8.070E-06,0.020
-8.060E-06,0.040
-8.050E-06,0.060
-8.040E-06,0.040
-8.030E-06,0.040
-8.020E-06,0.060
-8.010E-06,0.040
-8.000E-06,0.020
-7.990E-06,0.060
-7.980E-06,0.060
-7.970E-06,0.020
-7.960E-06,0.040
-7.950E-06,0.060
-7.940E-06,0.020
-7.930E-06,0.080
-7.920E-06,0.040
-7.910E-06,0.060
-7.900E-06,0.040
-7.890E-06,0.040
-7.880E-06,0.060
-7.870E-06,0.060
-7.860E-06,0.020
-7.850E-06,0.040
-7.840E-06,0.080
-7.830E-06,0.040
-7.820E-06,0.020
-7.810E-06,0.040
-7.800E-06,0.040
-7.790E-06,0.040
-7.780E-06,0.060
-7.770E-06,0.060
-7.760E-06,0.060
-7.750E-06,0.060
-7.740E-06,0.060
-7.730E-06,0.040
-7.720E-06,0.020
-7.710E-06,0.060
-7.700E-06,0.040
-7.690E-06,0.020
-7.680E-06,0.040
-7.670E-06,0.060
-7.660E-06,0.040
-7.650E-06,0.020
-7.640E-06,0.060
-7.630E-06,0.080
-7.620E-06,0.000
-7.610E-06,0.060
-7.600E-06,0.060
-7.590E-06,0.060
-7.580E-06,0.080
-7.570E-06,0.040
-7.560E-06,0.020
-7.550E-06,0.060
-7.540E-06,0.060
-7.530E-06,0.080
-7.520E-06,0.080
-7.510E-06,0.040
-7.500E-06,0.040
-7.490E-06,0.020
-7.480E-06,0.020
-7.470E-06,0.040
-7.460E-06,0.040
-7.450E-06,0.040
-7.440E-06,0.040
-7.430E-06,0.040
-7.420E-06,0.040
-7.410E-06,0.020
-7.400E-06,0.040
-7.390E-06,0.040
-7.380E-06,0.060
-7.370E-06,0.040
-7.360E-06,0.080
-7.350E-06,0.060
-7.340E-06,0.040
-7.330E-06,0.020
-7.320E-06,0.040
-7.310E-06,0.020
-7.300E-06,0.060
-7.290E-06,0.040
-7.280E-06,0.020
-7.270E-06,0.040
-7.260E-06,0.020
-7.250E-06,0.060
-7.240E-06,0.020
-7.230E-06,0.040
-7.220E-06,0.060
-7.210E-06,0.040
-7.200E-06,0.060
-7.190E-06,0.060
-7.180E-06,0.020
-7.170E-06,0.060
-7.160E-06,0.020
-7.150E-06,0.060
-7.140E-06,0.060
-7.130E-06,0.060
-7.120E-06,0.080
-7.110E-06,0.040
-7.100E-06,0.080
-7.090E-06,0.020
-7.080E-06,0.040
-7.070E-06,0.060
-7.060E-06,0.060
-7.050E-06,0.060
-7.040E-06,0.020
-7.030E-06,0.060
-7.020E-06,0.040
-7.010E-06,0.080
-7.000E-06,0.040
-6.990E-06,0.060
-6.980E-06,0.060
-6.970E-06,0.060
-6.960E-06,0.040
-6.950E-06,0.060
-6.940E-06,0.060
-6.930E-06,0.060
-6.920E-06,0.000
-6.910E-06,0.060
-6.900E-06,0.060
-6.890E-06,0.040
-6.880E-06,0.020
-6.870E-06,0.040
-6.860E-06,0.080
-6.850E-06,0.060
-6.840E-06,0.040
-6.830E-06,0.040
-6.820E-06,0.060
-6.810E-06,0.080
-6.800E-06,0.020
-6.790E-06,0.060
-6.780E-06,0.060
-6.770E-06,0.060
-6.760E-06,0.040
-6.750E-06,0.040
-6.740E-06,0.000
-6.730E-06,0.040
-6.720E-06,0.080
-6.710E-06,0.060
-6.700E-06,0.020
-6.690E-06,0.020
-6.680E-06,0.040
-6.670E-06,0.040
-6.660E-06,0.080
-6.650E-06,0.040
-6.640E-06,0.020
-6.630E-06,0.060
-6.620E-06,0.060
-6.610E-06,0.040
-6.600E-06,0.080
-6.590E-06,0.040
-6.580E-06,0.060
-6.570E-06,0.040
-6.560E-06,0.020
-6.550E-06,0.080
-6.540E-06,0.040
-6.530E-06,0.020
-6.520E-06,0.040
-6.510E-06,0.040
-6.500E-06,0.040
-6.490E-06,0.040
-6.480E-06,0.040
-6.470E-06,0.040
-6.460E-06,0.040
-6.450E-06,0.040
-6.440E-06,0.040
-6.430E-06,0.020
-6.420E-06,0.060
-6.410E-06,0.020
-6.400E-06,0.060
-6.390E-06,0.040
-6.380E-06,0.040
-6.370E-06,0.040
-6.360E-06,0.000
-6.350E-06,0.060
-6.340E-06,0.040
-6.330E-06,0.020
-6.320E-06,0.020
-6.310E-06,0.060
-6.300E-06,0.040
-6.290E-06,0.020
-6.280E-06,0.040
-6.270E-06,0.040
-6.260E-06,0.060
-6.250E-06,0.040
-6.240E-06,0.040
-6.230E-06,0.060
-6.220E-06,0.040
-6.210E-06,0.060
-6.200E-06,0.020
-6.190E-06,0.060
-6.180E-06,0.040
-6.170E-06,0.080
-6.160E-06,0.020
-6.150E-06,0.040
-6.140E-06,0.040
-6.130E-06,0.020
-6.120E-06,0.040
-6.110E-06,0.020
-6.100E-06,0.060
-6.090E-06,0.040
-6.080E-06,0.060
-6.070E-06,0.060
-6.060E-06,0.020
-6.050E-06,0.060
-6.040E-06,0.000
-6.030E-06,0.040
-6.020E-06,0.060
-6.010E-06,0.040
-6.000E-06,0.040
-5.990E-06,0.060
-5.980E-06,0.040
-5.970E-06,0.040
-5.960E-06,0.040
-5.950E-06,0.060
-5.940E-06,0.020
-5.930E-06,0.040
-5.920E-06,0.020
-5.910E-06,0.060
-5.900E-06,0.080
-5.890E-06,0.040
-5.880E-06,0.040
-5.870E-06,0.020
-5.860E-06,0.040
-5.850E-06,0.080
-5.840E-06,0.040
-5.830E-06,0.060
-5.820E-06,0.080
-5.810E-06,0.040
-5.800E-06,0.080
-5.790E-06,0.060
-5.780E-06,0.020
-5.770E-06,0.040
-5.760E-06,0.060
-5.750E-06,0.020
-5.740E-06,0.040
-5.730E-06,0.020
-5.720E-06,0.060
-5.710E-06,0.020
-5.700E-06,0.020
-5.690E-06,0.060
-5.680E-06,0.080
-5.670E-06,0.000
-5.660E-06,0.040
-5.650E-06,0.040
-5.640E-06,0.020
-5.630E-06,0.060
-5.620E-06,0.040
-5.610E-06,0.060
-5.600E-06,0.060
-5.590E-06,0.040
-5.580E-06,0.060
-5.570E-06,0.080
-5.560E-06,0.040
-5.550E-06,0.040
-5.540E-06,0.040
-5.530E-06,0.060
-5.520E-06,0.020
-5.510E-06,0.040
-5.500E-06,0.020
-5.490E-06,0.040
-5.480E-06,0.040
-5.470E-06,0.040
-5.460E-06,0.060
-5.450E-06,0.060
-5.440E-06,0.020
-5.430E-06,0.060
-5.420E-06,0.060
-5.410E-06,0.040
-5.400E-06,0.040
-5.390E-06,0.080
-5.380E-06,0.060
-5.370E-06,0.080
-5.360E-06,0.020
-5.350E-06,0.060
-5.340E-06,0.060
-5.330E-06,0.080
-5.320E-06,0.020
-5.310E-06,0.000
-5.300E-06,0.040
-5.290E-06,0.040
-5.280E-06,0.040
-5.270E-06,0.000
-5.260E-06,0.040
-5.250E-06,0.040
-5.240E-06,0.060
-5.230E-06,0.040
-5.220E-06,0.040
-5.210E-06,0.080
-5.200E-06,0.060
-5.190E-06,0.020
-5.180E-06,0.040
-5.170E-06,0.040
-5.160E-06,0.060
-5.150E-06,0.060
-5.140E-06,0.060
-5.130E-06,0.040
-5.120E-06,0.080
-5.110E-06,0.080
-5.100E-06,0.020
-5.090E-06,0.040
-5.080E-06,0.020
-5.070E-06,0.020
-5.060E-06,0.040
-5.050E-06,0.040
-5.040E-06,0.020
-5.030E-06,0.060
-5.020E-06,0.040
-5.010E-06,0.060
-5.000E-06,0.020
-4.990E-06,0.080
-4.980E-06,0.060
-4.970E-06,0.020
-4.960E-06,0.040
-4.950E-06,0.040
-4.940E-06,0.060
-4.930E-06,0.040
-4.920E-06,0.080
-4.910E-06,0.020
-4.900E-06,0.020
-4.890E-06,0.040
-4.880E-06,0.080
-4.870E-06,0.060
-4.860E-06,0.020
-4.850E-06,0.040
-4.840E-06,0.060
-4.830E-06,0.040
-4.820E-06,0.040
-4.810E-06,0.040
-4.800E-06,0.020
-4.790E-06,0.020
-4.780E-06,0.020
-4.770E-06,0.060
-4.760E-06,0.020
-4.750E-06,0.040
-4.740E-06,0.040
-4.730E-06,0.060
-4.720E-06,0.040
-4.710E-06,0.040
-4.700E-06,0.060
-4.690E-06,0.080
-4.680E-06,0.040
-4.670E-06,0.080
-4.660E-06,0.020
-4.650E-06,0.040
-4.640E-06,0.060
-4.630E-06,0.060
-4.620E-06,0.060
-4.610E-06,0.020
-4.600E-06,0.040
-4.590E-06,0.060
-4.580E-06,0.060
-4.570E-06,0.060
-4.560E-06,0.000
-4.550E-06,0.040
-4.540E-06,0.040
-4.530E-06,0.060
-4.520E-06,0.060
-4.510E-06,0.040
-4.500E-06,0.020
-4.490E-06,0.060
-4.480E-06,0.020
-4.470E-06,0.040
-4.460E-06,0.040
-4.450E-06,0.040
-4.440E-06,0.060
-4.430E-06,0.060
-4.420E-06,0.040
-4.410E-06,0.040
-4.400E-06,0.060
-4.390E-06,0.040
-4.380E-06,0.060
-4.370E-06,0.080
-4.360E-06,0.040
-4.350E-06,0.040
-4.340E-06,0.080
-4.330E-06,0.080
-4.320E-06,0.080
-4.310E-06,0.080
-4.300E-06,0.080
-4.290E-06,0.020
-4.280E-06,0.020
-4.270E-06,0.060
-4.260E-06,0.020
-4.250E-06,0.020
-4.240E-06,0.060
-4.230E-06,0.020
-4.220E-06,0.060
-4.210E-06,0.040
-4.200E-06,0.060
-4.190E-06,0.040
-4.180E-06,0.060
-4.170E-06,0.060
-4.160E-06,0.000
-4.150E-06,0.040
-4.140E-06,0.060
-4.130E-06,0.080
-4.120E-06,0.060
-4.110E-06,0.060
-4.100E-06,0.060
-4.090E-06,0.080
-4.080E-06,0.060
-4.070E-06,0.020
-4.060E-06,0.020
-4.050E-06,0.060
-4.040E-06,0.020
-4.030E-06,0.060
-4.020E-06,0.060
-4.010E-06,0.060
-4.000E-06,0.080
-3.990E-06,0.080
-3.980E-06,0.080
-3.970E-06,0.020
-3.960E-06,0.000
-3.950E-06,0.020
-3.940E-06,0.040
-3.930E-06,0.060
-3.920E-06,0.040
-3.910E-06,0.020
-3.900E-06,-0.180
-3.890E-06,-0.800
-3.880E-06,-1.760
-3.870E-06,-2.760
-3.860E-06,-3.340
-3.850E-06,-3.340
-3.840E-06,-1.440
-3.830E-06,-1.540
-3.820E-06,-0.760
-3.810E-06,1.340
-3.800E-06,2.060
-3.790E-06,2.080
-3.780E-06,2.080
-3.770E-06,2.100
-3.760E-06,2.100
-3.750E-06,2.080
-3.740E-06,2.080
-3.730E-06,1.520
-3.720E-06,0.400
-3.710E-06,-0.080
-3.700E-06,-0.800
-3.690E-06,-0.940
-3.680E-06,-0.920
-3.670E-06,-0.520
-3.660E-06,-0.280
-3.650E-06,-0.380
-3.640E-06,-0.440
-3.630E-06,-0.660
-3.620E-06,-0.980
-3.610E-06,-1.380
-3.600E-06,-1.700
-3.590E-06,-1.880
-3.580E-06,-1.960
-3.570E-06,-1.780
-3.560E-06,-1.540
-3.550E-06,-1.020
-3.540E-06,-0.420
-3.530E-06,0.260
-3.520E-06,0.940
-3.510E-06,1.460
-3.500E-06,1.800
-3.490E-06,1.880
-3.480E-06,1.740
-3.470E-06,1.460
-3.460E-06,1.020
-3.450E-06,0.540
-3.440E-06,0.080
-3.430E-06,-0.360
-3.420E-06,-0.660
-3.410E-06,-0.900
-3.400E-06,-1.020
-3.390E-06,-1.000
-3.380E-06,-0.880
-3.370E-06,-0.740
-3.360E-06,-0.620
-3.350E-06,-0.420
-3.340E-06,-0.240
-3.330E-06,-0.040
-3.320E-06,0.200
-3.310E-06,0.440
-3.300E-06,0.640
-3.290E-06,0.800
-3.280E-06,0.960
-3.270E-06,1.060
-3.260E-06,1.060
-3.250E-06,1.000
-3.240E-06,0.900
-3.230E-06,0.740
-3.220E-06,0.520
-3.210E-06,0.320
-3.200E-06,0.100
-3.190E-06,-0.120
-3.180E-06,-0.240
-3.170E-06,-0.360
-3.160E-06,-0.460
-3.150E-06,-0.520
-3.140E-06,-0.620
-3.130E-06,-0.680
-3.120E-06,-0.700
-3.110E-06,-0.680
-3.100E-06,-0.660
-3.090E-06,-0.580
-3.080E-06,-0.380
-3.070E-06,-0.160
-3.060E-06,0.020
-3.050E-06,0.300
-3.040E-06,0.520
-3.030E-06,0.660
-3.020E-06,0.860
-3.010E-06,0.940
-3.000E-06,0.960
-2.990E-06,0.920
-2.980E-06,0.700
-2.970E-06,0.520
-2.960E-06,0.260
-2.950E-06,-0.100
-2.940E-06,-0.240
-2.930E-06,-0.420
-2.920E-06,-0.560
-2.910E-06,-0.600
-2.900E-06,-0.660
-2.890E-06,-0.600
-2.880E-06,-0.500
-2.870E-06,-0.420
-2.860E-06,-0.260
-2.850E-06,-0.200
-2.840E-06,-0.080
-2.830E-06,0.000
-2.820E-06,0.060
-2.810E-06,0.100
-2.800E-06,0.120
-2.790E-06,0.140
-2.780E-06,0.140
-2.770E-06,0.120
-2.760E-06,0.180
-2.750E-06,0.160
-2.740E-06,0.200
-2.730E-06,0.220
-2.720E-06,0.220
-2.710E-06,0.200
-2.700E-06,0.240
-2.690E-06,0.120
-2.680E-06,-0.020
-2.670E-06,0.040
-2.660E-06,-0.180
-2.650E-06,0.020
-2.640E-06,-0.240
-2.630E-06,0.040
-2.620E-06,-0.240
-2.610E-06,0.140
-2.600E-06,-0.040
-2.590E-06,0.120
-2.580E-06,0.100
-2.570E-06,0.100
-2.560E-06,0.120
-2.550E-06,0.120
-2.540E-06,0.080
-2.530E-06,0.040
-2.520E-06,0.000
-2.510E-06,0.000
-2.500E-06,0.000
-2.490E-06,-0.060
-2.480E-06,-0.040
-2.470E-06,-0.160
-2.460E-06,-0.080
-2.450E-06,-0.320
-2.440E-06,0.020
-2.430E-06,-0.360
-2.420E-06,0.040
-2.410E-06,-0.400
-2.400E-06,0.040
-2.390E-06,-0.340
-2.380E-06,-0.160
-2.370E-06,-0.200
-2.360E-06,-0.180
-2.350E-06,-0.160
-2.340E-06,-0.180
-2.330E-06,-0.200
-2.320E-06,-0.200
-2.310E-06,-0.240
-2.300E-06,-0.180
-2.290E-06,-0.120
-2.280E-06,-0.020
-2.270E-06,-0.120
-2.260E-06,-0.020
-2.250E-06,-0.020
-2.240E-06,-0.220
-2.230E-06,-0.040
-2.220E-06,-0.120
-2.210E-06,-0.200
-2.200E-06,0.160
-2.190E-06,-0.080
-2.180E-06,-0.020
-2.170E-06,0.040
-2.160E-06,0.080
-2.150E-06,0.080
-2.140E-06,-0.080
-2.130E-06,-0.100
-2.120E-06,0.000
-2.110E-06,-0.100
-2.100E-06,-0.040
-2.090E-06,-0.100
-2.080E-06,-0.120
-2.070E-06,-0.180
-2.060E-06,-0.080
-2.050E-06,-0.240
-2.040E-06,0.000
-2.030E-06,0.120
-2.020E-06,0.500
-2.010E-06,1.020
-2.000E-06,1.520
-1.990E-06,1.840
-1.980E-06,1.880
-1.970E-06,1.400
-1.960E-06,0.960
-1.950E-06,0.060
-1.940E-06,-0.560
-1.930E-06,-1.320
-1.920E-06,-1.680
-1.910E-06,-2.000
-1.900E-06,-1.960
-1.890E-06,-1.720
-1.880E-06,-1.380
-1.870E-06,-1.360
-1.860E-06,-1.320
-1.850E-06,-1.420
-1.840E-06,-0.840
-1.830E-06,-1.180
-1.820E-06,-0.360
-1.810E-06,-0.660
-1.800E-06,-0.460
-1.790E-06,-0.380
-1.780E-06,-0.520
-1.770E-06,-0.320
-1.760E-06,-0.140
-1.750E-06,0.220
-1.740E-06,0.660
-1.730E-06,0.840
-1.720E-06,1.040
-1.710E-06,0.960
-1.700E-06,0.960
-1.690E-06,0.980
-1.680E-06,0.680
-1.670E-06,0.940
-1.660E-06,0.160
-1.650E-06,0.040
-1.640E-06,-1.040
-1.630E-06,-1.180
-1.620E-06,-1.520
-1.610E-06,-1.560
-1.600E-06,-1.300
-1.590E-06,-1.020
-1.580E-06,-0.700
-1.570E-06,-0.420
-1.560E-06,0.040
-1.550E-06,0.380
-1.540E-06,0.420
-1.530E-06,0.900
-1.520E-06,0.520
-1.510E-06,0.720
-1.500E-06,0.500
-1.490E-06,0.400
-1.480E-06,-0.140
-1.470E-06,-0.160
-1.460E-06,-0.560
-1.450E-06,-0.860
-1.440E-06,-0.660
-1.430E-06,-0.840
-1.420E-06,-0.680
-1.410E-06,-0.860
-1.400E-06,-0.840
-1.390E-06,-0.760
-1.380E-06,-0.860
-1.370E-06,-0.700
-1.360E-06,-0.680
-1.350E-06,-0.520
-1.340E-06,-0.660
-1.330E-06,-0.580
-1.320E-06,-0.900
-1.310E-06,-0.740
-1.300E-06,-0.700
-1.290E-06,-0.460
-1.280E-06,-0.260
-1.270E-06,-0.060
-1.260E-06,0.080
-1.250E-06,0.180
-1.240E-06,0.340
-1.230E-06,0.380
-1.220E-06,0.340
-1.210E-06,0.200
-1.200E-06,0.020
-1.190E-06,-0.220
-1.180E-06,-0.420
-1.170E-06,-0.660
-1.160E-06,-0.860
-1.150E-06,-1.020
-1.140E-06,-1.040
-1.130E-06,-1.040
-1.120E-06,-0.880
-1.110E-06,-0.660
-1.100E-06,-0.360
-1.090E-06,-0.220
-1.080E-06,-0.120
-1.070E-06,0.040
-1.060E-06,0.000
-1.050E-06,0.260
-1.040E-06,0.120
-1.030E-06,0.240
-1.020E-06,0.040
-1.010E-06,0.080
-1.000E-06,-0.180
-9.900E-07,-0.120
-9.800E-07,-0.100
-9.700E-07,-0.040
-9.600E-07,0.040
-9.500E-07,-0.060
-9.400E-07,-0.180
-9.300E-07,-0.160
-9.200E-07,-0.340
-9.100E-07,-0.040
-9.000E-07,-0.220
-8.900E-07,-0.080
-8.800E-07,-0.360
-8.700E-07,-0.340
-8.600E-07,-1.180
-8.500E-07,-1.360
-8.400E-07,-1.820
-8.300E-07,-1.780
-8.200E-07,-2.240
-8.100E-07,-2.320
-8.000E-07,-2.460
-7.900E-07,-2.140
-7.800E-07,-2.160
-7.700E-07,-1.780
-7.600E-07,-2.000
-7.500E-07,-1.920
-7.400E-07,-2.040
-7.300E-07,-1.780
-7.200E-07,-1.840
-7.100E-07,-1.120
-7.000E-07,-1.380
-6.900E-07,-1.060
-6.800E-07,-1.100
-6.700E-07,-1.060
-6.600E-07,-1.020
-6.500E-07,-0.740
-6.400E-07,-0.460
-6.300E-07,-0.340
-6.200E-07,-0.140
-6.100E-07,-0.320
-6.000E-07,-0.300
-5.900E-07,-0.420
-5.800E-07,-0.900
-5.700E-07,-0.880
-5.600E-07,-1.380
-5.500E-07,-1.200
-5.400E-07,-1.120
-5.300E-07,-1.020
-5.200E-07,-1.060
-5.100E-07,-0.940
-5.000E-07,-0.960
-4.900E-07,-0.800
-4.800E-07,-0.700
-4.700E-07,-0.520
-4.600E-07,-0.580
-4.500E-07,-0.320
-4.400E-07,-0.100
-4.300E-07,-0.020
-4.200E-07,-0.100
-4.100E-07,0.080
-4.000E-07,0.240
-3.900E-07,-0.020
-3.800E-07,0.000
-3.700E-07,-0.160
-3.600E-07,-0.300
-3.500E-07,-0.500
-3.400E-07,-0.640
-3.300E-07,-0.840
-3.200E-07,-1.020
-3.100E-07,-1.040
-3.000E-07,-1.160
-2.900E-07,-1.020
-2.800E-07,-0.980
-2.700E-07,-0.980
-2.600E-07,-1.040
-2.500E-07,-1.180
-2.400E-07,-1.100
-2.300E-07,-1.080
-2.200E-07,-0.780
-2.100E-07,-0.700
-2.000E-07,-0.460
-1.900E-07,-0.560
-1.800E-07,-0.400
-1.700E-07,-0.460
-1.600E-07,-0.460
-1.500E-07,-0.440
-1.400E-07,-0.440
-1.300E-07,-0.380
-1.200E-07,-0.420
-1.100E-07,-0.480
-1.000E-07,-0.560
-9.000E-08,-0.720
-8.000E-08,-0.840
-7.000E-08,-0.800
-6.000E-08,-0.880
-5.000E-08,-0.900
-4.000E-08,-0.960
-3.000E-08,-1.100
-2.000E-08,-1.120
-1.000E-08,-1.280
0.000E+00,-1.380
1.000E-08,-1.260
2.000E-08,-1.120
3.000E-08,-0.760
4.000E-08,-0.600
5.000E-08,-0.500
6.000E-08,-0.600
7.000E-08,-0.680
8.000E-08,-0.580
9.000E-08,-0.620
1.000E-07,-0.660
1.100E-07,-0.700
1.200E-07,-0.800
1.300E-07,-0.820
1.400E-07,-1.000
1.500E-07,-1.060
1.600E-07,-1.300
1.700E-07,-1.380
1.800E-07,-1.500
1.900E-07,-1.520
2.000E-07,-1.540
2.100E-07,-1.540
2.200E-07,-1.560
2.300E-07,-1.500
2.400E-07,-1.360
2.500E-07,-1.340
2.600E-07,-1.240
2.700E-07,-1.180
2.800E-07,-1.040
2.900E-07,-0.900
3.000E-07,-0.760
3.100E-07,-0.700
3.200E-07,-0.560
3.300E-07,-0.580
3.400E-07,-0.420
3.500E-07,-0.580
3.600E-07,-0.760
3.700E-07,-0.920
3.800E-07,-1.140
3.900E-07,-1.120
4.000E-07,-1.200
4.100E-07,-1.200
4.200E-07,-1.220
4.300E-07,-1.280
4.400E-07,-1.320
4.500E-07,-1.400
4.600E-07,-1.560
4.700E-07,-1.580
4.800E-07,-1.600
4.900E-07,-1.520
5.000E-07,-1.400
5.100E-07,-1.320
5.200E-07,-1.200
5.300E-07,-1.120
5.400E-07,-1.040
5.500E-07,-0.960
5.600E-07,-0.940
5.700E-07,-0.840
5.800E-07,-0.820
5.900E-07,-0.860
6.000E-07,-0.920
6.100E-07,-1.140
6.200E-07,-1.180
6.300E-07,-1.340
6.400E-07,-1.520
6.500E-07,-1.700
6.600E-07,-1.860
6.700E-07,-2.060
6.800E-07,-2.360
6.900E-07,-2.520
7.000E-07,-2.780
7.100E-07,-2.840
7.200E-07,-2.880
7.300E-07,-2.940
7.400E-07,-2.880
7.500E-07,-2.980
7.600E-07,-2.820
7.700E-07,-2.880
7.800E-07,-2.800
7.900E-07,-2.680
8.000E-07,-2.540
8.100E-07,-2.440
8.200E-07,-2.380
8.300E-07,-2.360
8.400E-07,-2.360
8.500E-07,-2.300
8.600E-07,-2.240
8.700E-07,-2.200
8.800E-07,-2.180
8.900E-07,-2.220
9.000E-07,-2.240
9.100E-07,-2.060
9.200E-07,-2.060
9.300E-07,-2.000
9.400E-07,-2.120
9.500E-07,-1.920
9.600E-07,-1.940
9.700E-07,-1.760
9.800E-07,-1.700
9.900E-07,-1.480
1.000E-06,-1.360
1.010E-06,-1.240
1.020E-06,-1.060
1.030E-06,-0.940
1.040E-06,-0.720
1.050E-06,-0.560
1.060E-06,-0.420
1.070E-06,-0.180
1.080E-06,-0.040
1.090E-06,0.080
1.100E-06,0.240
1.110E-06,0.380
1.120E-06,0.360
1.130E-06,0.500
1.140E-06,0.500
1.150E-06,0.500
1.160E-06,0.500
1.170E-06,0.420
1.180E-06,0.380
1.190E-06,0.360
1.200E-06,0.200
1.210E-06,0.060
1.220E-06,-0.080
1.230E-06,-0.100
1.240E-06,-0.140
1.250E-06,-0.300
1.260E-06,-0.300
1.270E-06,-0.280
1.280E-06,-0.260
1.290E-06,-0.240
1.300E-06,-0.280
1.310E-06,-0.200
1.320E-06,-0.240
1.330E-06,-0.180
1.340E-06,-0.260
1.350E-06,-0.160
1.360E-06,-0.120
1.370E-06,-0.060
1.380E-06,0.000
1.390E-06,0.120
1.400E-06,0.080
1.410E-06,0.060
1.420E-06,-0.040
1.430E-06,0.040
1.440E-06,0.000
1.450E-06,-0.020
1.460E-06,-0.020
1.470E-06,-0.020
1.480E-06,0.000
1.490E-06,-0.040
1.500E-06,0.060
1.510E-06,0.020
1.520E-06,0.060
1.530E-06,0.020
1.540E-06,0.080
1.550E-06,0.080
1.560E-06,0.080
1.570E-06,0.140
1.580E-06,0.220
1.590E-06,0.280
1.600E-06,0.320
1.610E-06,0.380
1.620E-06,0.320
1.630E-06,0.320
1.640E-06,0.320
1.650E-06,0.300
1.660E-06,0.300
1.670E-06,0.260
1.680E-06,0.280
1.690E-06,0.280
1.700E-06,0.260
1.710E-06,0.300
1.720E-06,0.280
1.730E-06,0.260
1.740E-06,0.240
1.750E-06,0.280
1.760E-06,0.280
1.770E-06,0.300
1.780E-06,0.320
1.790E-06,0.340
1.800E-06,0.340
1.810E-06,0.360
1.820E-06,0.380
1.830E-06,0.420
1.840E-06,0.420
1.850E-06,0.400
1.860E-06,0.440
1.870E-06,0.420
1.880E-06,0.360
1.890E-06,0.300
1.900E-06,0.260
1.910E-06,0.200
1.920E-06,0.200
1.930E-06,0.180
1.940E-06,0.220
1.950E-06,0.200
1.960E-06,0.240
1.970E-06,0.400
1.980E-06,0.500
1.990E-06,0.560
2.000E-06,0.600
2.010E-06,0.680
2.020E-06,0.720
2.030E-06,0.680
2.040E-06,0.500
2.050E-06,0.600
2.060E-06,0.400
2.070E-06,0.340
2.080E-06,0.240
2.090E-06,0.180
2.100E-06,0.060
2.110E-06,-0.080
2.120E-06,-0.120
2.130E-06,-0.120
2.140E-06,-0.180
2.150E-06,-0.160
2.160E-06,-0.120
2.170E-06,-0.080
2.180E-06,0.000
2.190E-06,0.100
2.200E-06,0.180
2.210E-06,0.260
2.220E-06,0.320
2.230E-06,0.340
2.240E-06,0.320
2.250E-06,0.340
2.260E-06,0.260
2.270E-06,0.220
2.280E-06,0.220
2.290E-06,0.080
2.300E-06,-0.020
2.310E-06,-0.180
2.320E-06,-0.140
2.330E-06,-0.080
2.340E-06,-0.100
2.350E-06,-0.100
2.360E-06,0.000
2.370E-06,-0.020
2.380E-06,0.000
2.390E-06,0.000
2.400E-06,0.000
2.410E-06,0.080
2.420E-06,0.100
2.430E-06,0.160
2.440E-06,0.240
2.450E-06,0.260
2.460E-06,0.260
2.470E-06,0.260
2.480E-06,0.240
2.490E-06,0.180
2.500E-06,0.140
2.510E-06,0.140
2.520E-06,0.100
2.530E-06,0.140
2.540E-06,0.200
2.550E-06,0.280
2.560E-06,0.380
2.570E-06,0.520
2.580E-06,0.700
2.590E-06,0.740
2.600E-06,0.860
2.610E-06,0.920
2.620E-06,0.900
2.630E-06,0.840
2.640E-06,0.820
2.650E-06,0.740
2.660E-06,0.640
2.670E-06,0.500
2.680E-06,0.420
2.690E-06,0.300
2.700E-06,0.220
2.710E-06,0.180
2.720E-06,0.080
2.730E-06,0.000
2.740E-06,-0.040
2.750E-06,-0.120
2.760E-06,-0.180
2.770E-06,-0.260
2.780E-06,-0.340
2.790E-06,-0.360
2.800E-06,-0.420
2.810E-06,-0.440
2.820E-06,-0.480
2.830E-06,-0.520
2.840E-06,-0.540
2.850E-06,-0.500
2.860E-06,-0.420
2.870E-06,-0.340
2.880E-06,-0.200
2.890E-06,-0.060
2.900E-06,-0.260
2.910E-06,-0.320
2.920E-06,-0.400
2.930E-06,-0.120
2.940E-06,-0.020
2.950E-06,0.140
2.960E-06,0.080
2.970E-06,0.260
2.980E-06,0.340
2.990E-06,0.340
3.000E-06,0.500
3.010E-06,0.560
3.020E-06,0.720
3.030E-06,0.800
3.040E-06,0.940
3.050E-06,1.020
3.060E-06,1.100
3.070E-06,1.160
3.080E-06,1.160
3.090E-06,1.120
3.100E-06,1.020
3.110E-06,0.960
3.120E-06,0.800
3.130E-06,0.680
3.140E-06,0.520
3.150E-06,0.380
3.160E-06,0.260
3.170E-06,0.140
3.180E-06,0.020
3.190E-06,0.040
3.200E-06,0.040
3.210E-06,0.080
3.220E-06,0.180
3.230E-06,0.260
3.240E-06,0.400
3.250E-06,0.460
3.260E-06,0.560
3.270E-06,0.680
3.280E-06,0.720
3.290E-06,0.780
3.300E-06,0.820
3.310E-06,0.860
