mediciones/8-28/-19/WaveData65733.csv

#timebase=2000000(ps)
,#voltbase=500000(mv/100)
#size=4000
-8.350E-06,0.060
-8.340E-06,0.060
-8.330E-06,0.020
-8.320E-06,0.020
-8.310E-06,0.060
-8.300E-06,0.040
-8.290E-06,0.080
-8.280E-06,0.040
-8.270E-06,0.060
-8.260E-06,0.080
-8.250E-06,0.040
-8.240E-06,0.020
-8.230E-06,0.020
-8.220E-06,0.040
-8.210E-06,0.040
-8.200E-06,0.040
-8.190E-06,0.040
-8.180E-06,0.060
-8.170E-06,0.020
-8.160E-06,0.040
-8.150E-06,0.040
-8.140E-06,0.060
-8.130E-06,0.040
-8.120E-06,0.020
-8.110E-06,0.060
-8.100E-06,0.040
-8.090E-06,0.060
-8.080E-06,0.020
-8.070E-06,0.020
-8.060E-06,0.040
-8.050E-06,0.020
-8.040E-06,0.040
-8.030E-06,0.080
-8.020E-06,0.060
-8.010E-06,0.040
-8.000E-06,0.020
-7.990E-06,0.000
-7.980E-06,0.040
-7.970E-06,0.000
-7.960E-06,0.000
-7.950E-06,0.040
-7.940E-06,0.020
-7.930E-06,0.060
-7.920E-06,0.040
-7.910E-06,0.040
-7.900E-06,0.060
-7.890E-06,0.040
-7.880E-06,0.020
-7.870E-06,0.020
-7.860E-06,0.060
-7.850E-06,0.060
-7.840E-06,0.060
-7.830E-06,0.060
-7.820E-06,0.060
-7.810E-06,0.060
-7.800E-06,0.080
-7.790E-06,0.000
-7.780E-06,0.040
-7.770E-06,0.040
-7.760E-06,0.060
-7.750E-06,0.020
-7.740E-06,0.020
-7.730E-06,0.040
-7.720E-06,0.040
-7.710E-06,0.080
-7.700E-06,0.060
-7.690E-06,0.060
-7.680E-06,0.060
-7.670E-06,0.060
-7.660E-06,0.020
-7.650E-06,0.020
-7.640E-06,0.040
-7.630E-06,0.060
-7.620E-06,0.040
-7.610E-06,0.040
-7.600E-06,0.020
-7.590E-06,0.060
-7.580E-06,0.000
-7.570E-06,0.040
-7.560E-06,0.060
-7.550E-06,0.020
-7.540E-06,0.060
-7.530E-06,0.020
-7.520E-06,0.040
-7.510E-06,0.060
-7.500E-06,0.000
-7.490E-06,0.020
-7.480E-06,0.060
-7.470E-06,0.060
-7.460E-06,0.000
-7.450E-06,0.040
-7.440E-06,0.040
-7.430E-06,0.080
-7.420E-06,0.020
-7.410E-06,0.020
-7.400E-06,0.020
-7.390E-06,0.000
-7.380E-06,0.000
-7.370E-06,0.040
-7.360E-06,0.080
-7.350E-06,0.040
-7.340E-06,0.040
-7.330E-06,0.020
-7.320E-06,0.040
-7.310E-06,0.040
-7.300E-06,0.000
-7.290E-06,0.020
-7.280E-06,0.040
-7.270E-06,0.020
-7.260E-06,0.020
-7.250E-06,0.040
-7.240E-06,0.060
-7.230E-06,0.060
-7.220E-06,0.020
-7.210E-06,0.020
-7.200E-06,0.040
-7.190E-06,0.000
-7.180E-06,0.020
-7.170E-06,0.040
-7.160E-06,0.020
-7.150E-06,0.040
-7.140E-06,0.040
-7.130E-06,0.080
-7.120E-06,0.020
-7.110E-06,0.040
-7.100E-06,0.020
-7.090E-06,0.080
-7.080E-06,0.040
-7.070E-06,0.040
-7.060E-06,0.060
-7.050E-06,0.020
-7.040E-06,0.060
-7.030E-06,0.020
-7.020E-06,0.020
-7.010E-06,0.020
-7.000E-06,0.040
-6.990E-06,0.060
-6.980E-06,0.080
-6.970E-06,0.060
-6.960E-06,0.060
-6.950E-06,0.080
-6.940E-06,0.000
-6.930E-06,0.040
-6.920E-06,0.060
-6.910E-06,0.020
-6.900E-06,0.060
-6.890E-06,0.040
-6.880E-06,0.020
-6.870E-06,0.040
-6.860E-06,-0.020
-6.850E-06,0.040
-6.840E-06,0.040
-6.830E-06,0.060
-6.820E-06,0.040
-6.810E-06,0.060
-6.800E-06,0.020
-6.790E-06,0.020
-6.780E-06,0.040
-6.770E-06,0.020
-6.760E-06,0.040
-6.750E-06,0.040
-6.740E-06,0.040
-6.730E-06,0.020
-6.720E-06,0.060
-6.710E-06,0.060
-6.700E-06,0.080
-6.690E-06,0.020
-6.680E-06,0.020
-6.670E-06,0.020
-6.660E-06,0.000
-6.650E-06,0.040
-6.640E-06,0.040
-6.630E-06,0.040
-6.620E-06,0.040
-6.610E-06,0.060
-6.600E-06,0.040
-6.590E-06,0.040
-6.580E-06,0.020
-6.570E-06,0.040
-6.560E-06,0.020
-6.550E-06,0.060
-6.540E-06,0.040
-6.530E-06,0.000
-6.520E-06,0.040
-6.510E-06,0.040
-6.500E-06,0.020
-6.490E-06,0.040
-6.480E-06,0.060
-6.470E-06,0.040
-6.460E-06,0.020
-6.450E-06,0.040
-6.440E-06,0.040
-6.430E-06,0.020
-6.420E-06,0.040
-6.410E-06,0.060
-6.400E-06,0.020
-6.390E-06,0.020
-6.380E-06,0.040
-6.370E-06,0.040
-6.360E-06,0.080
-6.350E-06,0.060
-6.340E-06,0.060
-6.330E-06,0.020
-6.320E-06,0.020
-6.310E-06,0.080
-6.300E-06,0.020
-6.290E-06,0.040
-6.280E-06,0.040
-6.270E-06,0.020
-6.260E-06,0.060
-6.250E-06,0.020
-6.240E-06,0.040
-6.230E-06,0.040
-6.220E-06,0.040
-6.210E-06,0.020
-6.200E-06,0.060
-6.190E-06,0.040
-6.180E-06,0.020
-6.170E-06,0.020
-6.160E-06,0.020
-6.150E-06,0.040
-6.140E-06,0.020
-6.130E-06,0.060
-6.120E-06,0.060
-6.110E-06,0.020
-6.100E-06,0.020
-6.090E-06,0.020
-6.080E-06,0.080
-6.070E-06,0.060
-6.060E-06,0.060
-6.050E-06,0.060
-6.040E-06,0.040
-6.030E-06,0.040
-6.020E-06,0.060
-6.010E-06,0.060
-6.000E-06,0.000
-5.990E-06,0.040
-5.980E-06,0.020
-5.970E-06,0.000
-5.960E-06,0.040
-5.950E-06,0.020
-5.940E-06,0.060
-5.930E-06,0.020
-5.920E-06,0.060
-5.910E-06,0.040
-5.900E-06,0.040
-5.890E-06,0.080
-5.880E-06,0.040
-5.870E-06,0.000
-5.860E-06,0.040
-5.850E-06,0.020
-5.840E-06,0.040
-5.830E-06,0.020
-5.820E-06,0.040
-5.810E-06,0.080
-5.800E-06,0.060
-5.790E-06,0.040
-5.780E-06,0.080
-5.770E-06,0.040
-5.760E-06,0.020
-5.750E-06,0.040
-5.740E-06,0.060
-5.730E-06,0.020
-5.720E-06,0.060
-5.710E-06,0.040
-5.700E-06,0.020
-5.690E-06,0.020
-5.680E-06,0.040
-5.670E-06,0.040
-5.660E-06,0.060
-5.650E-06,0.020
-5.640E-06,0.040
-5.630E-06,0.060
-5.620E-06,0.040
-5.610E-06,0.060
-5.600E-06,0.040
-5.590E-06,0.040
-5.580E-06,0.040
-5.570E-06,0.040
-5.560E-06,0.020
-5.550E-06,0.020
-5.540E-06,0.040
-5.530E-06,0.040
-5.520E-06,0.060
-5.510E-06,0.020
-5.500E-06,0.060
-5.490E-06,0.020
-5.480E-06,0.040
-5.470E-06,0.020
-5.460E-06,0.020
-5.450E-06,0.040
-5.440E-06,0.040
-5.430E-06,0.040
-5.420E-06,0.060
-5.410E-06,0.040
-5.400E-06,0.040
-5.390E-06,0.040
-5.380E-06,0.040
-5.370E-06,0.060
-5.360E-06,0.040
-5.350E-06,0.020
-5.340E-06,0.060
-5.330E-06,0.060
-5.320E-06,0.080
-5.310E-06,0.060
-5.300E-06,0.000
-5.290E-06,0.040
-5.280E-06,0.020
-5.270E-06,0.060
-5.260E-06,0.020
-5.250E-06,0.040
-5.240E-06,0.060
-5.230E-06,0.060
-5.220E-06,0.020
-5.210E-06,0.060
-5.200E-06,0.020
-5.190E-06,0.000
-5.180E-06,0.060
-5.170E-06,0.020
-5.160E-06,0.040
-5.150E-06,0.080
-5.140E-06,0.020
-5.130E-06,0.040
-5.120E-06,0.040
-5.110E-06,0.060
-5.100E-06,0.040
-5.090E-06,0.040
-5.080E-06,0.080
-5.070E-06,0.020
-5.060E-06,0.020
-5.050E-06,0.020
-5.040E-06,0.040
-5.030E-06,0.000
-5.020E-06,0.060
-5.010E-06,0.020
-5.000E-06,0.020
-4.990E-06,0.080
-4.980E-06,0.060
-4.970E-06,0.020
-4.960E-06,0.020
-4.950E-06,0.000
-4.940E-06,0.020
-4.930E-06,0.040
-4.920E-06,0.060
-4.910E-06,0.040
-4.900E-06,0.060
-4.890E-06,0.020
-4.880E-06,0.020
-4.870E-06,0.020
-4.860E-06,0.060
-4.850E-06,0.040
-4.840E-06,0.040
-4.830E-06,0.060
-4.820E-06,0.060
-4.810E-06,0.020
-4.800E-06,0.020
-4.790E-06,0.020
-4.780E-06,0.000
-4.770E-06,0.060
-4.760E-06,0.000
-4.750E-06,0.020
-4.740E-06,0.040
-4.730E-06,0.020
-4.720E-06,0.060
-4.710E-06,0.040
-4.700E-06,0.060
-4.690E-06,0.060
-4.680E-06,0.080
-4.670E-06,0.060
-4.660E-06,0.060
-4.650E-06,0.060
-4.640E-06,0.040
-4.630E-06,0.040
-4.620E-06,0.060
-4.610E-06,0.060
-4.600E-06,0.020
-4.590E-06,0.040
-4.580E-06,0.060
-4.570E-06,0.040
-4.560E-06,0.040
-4.550E-06,0.040
-4.540E-06,0.040
-4.530E-06,0.060
-4.520E-06,0.040
-4.510E-06,0.020
-4.500E-06,0.020
-4.490E-06,0.060
-4.480E-06,0.020
-4.470E-06,-0.020
-4.460E-06,0.040
-4.450E-06,0.020
-4.440E-06,0.040
-4.430E-06,0.020
-4.420E-06,0.040
-4.410E-06,0.020
-4.400E-06,0.040
-4.390E-06,0.040
-4.380E-06,0.040
-4.370E-06,0.060
-4.360E-06,0.040
-4.350E-06,0.080
-4.340E-06,0.020
-4.330E-06,0.020
-4.320E-06,0.060
-4.310E-06,0.020
-4.300E-06,0.020
-4.290E-06,0.040
-4.280E-06,0.020
-4.270E-06,0.040
-4.260E-06,0.020
-4.250E-06,0.040
-4.240E-06,0.020
-4.230E-06,0.020
-4.220E-06,0.040
-4.210E-06,0.060
-4.200E-06,0.040
-4.190E-06,0.020
-4.180E-06,0.000
-4.170E-06,0.040
-4.160E-06,0.080
-4.150E-06,0.040
-4.140E-06,0.060
-4.130E-06,0.020
-4.120E-06,0.040
-4.110E-06,0.060
-4.100E-06,0.020
-4.090E-06,0.020
-4.080E-06,0.060
-4.070E-06,0.060
-4.060E-06,0.020
-4.050E-06,0.020
-4.040E-06,0.040
-4.030E-06,0.040
-4.020E-06,0.040
-4.010E-06,0.040
-4.000E-06,0.000
-3.990E-06,0.040
-3.980E-06,0.040
-3.970E-06,0.060
-3.960E-06,0.040
-3.950E-06,0.040
-3.940E-06,0.000
-3.930E-06,0.060
-3.920E-06,0.040
-3.910E-06,0.040
-3.900E-06,0.060
-3.890E-06,0.040
-3.880E-06,0.040
-3.870E-06,0.000
-3.860E-06,0.020
-3.850E-06,0.020
-3.840E-06,0.020
-3.830E-06,0.020
-3.820E-06,0.020
-3.810E-06,0.040
-3.800E-06,0.060
-3.790E-06,0.040
-3.780E-06,0.020
-3.770E-06,0.020
-3.760E-06,0.040
-3.750E-06,0.020
-3.740E-06,0.020
-3.730E-06,0.060
-3.720E-06,0.040
-3.710E-06,0.060
-3.700E-06,0.060
-3.690E-06,0.060
-3.680E-06,0.060
-3.670E-06,0.060
-3.660E-06,0.080
-3.650E-06,0.040
-3.640E-06,0.060
-3.630E-06,0.060
-3.620E-06,0.060
-3.610E-06,0.040
-3.600E-06,0.080
-3.590E-06,0.020
-3.580E-06,0.060
-3.570E-06,0.020
-3.560E-06,-0.100
-3.550E-06,-0.620
-3.540E-06,-1.540
-3.530E-06,-2.540
-3.520E-06,-3.220
-3.510E-06,-3.300
-3.500E-06,-1.860
-3.490E-06,-1.600
-3.480E-06,0.440
-3.470E-06,0.860
-3.460E-06,2.060
-3.450E-06,2.080
-3.440E-06,2.080
-3.430E-06,2.080
-3.420E-06,2.080
-3.410E-06,2.080
-3.400E-06,2.100
-3.390E-06,1.300
-3.380E-06,1.000
-3.370E-06,-0.280
-3.360E-06,-0.440
-3.350E-06,-0.680
-3.340E-06,-0.860
-3.330E-06,-0.460
-3.320E-06,-0.240
-3.310E-06,-0.140
-3.300E-06,-0.200
-3.290E-06,-0.460
-3.280E-06,-0.960
-3.270E-06,-1.360
-3.260E-06,-1.620
-3.250E-06,-2.000
-3.240E-06,-2.000
-3.230E-06,-1.820
-3.220E-06,-1.520
-3.210E-06,-1.140
-3.200E-06,-0.580
-3.190E-06,0.120
-3.180E-06,0.680
-3.170E-06,1.220
-3.160E-06,1.620
-3.150E-06,1.760
-3.140E-06,1.700
-3.130E-06,1.460
-3.120E-06,1.080
-3.110E-06,0.580
-3.100E-06,0.140
-3.090E-06,-0.280
-3.080E-06,-0.600
-3.070E-06,-0.840
-3.060E-06,-0.920
-3.050E-06,-0.920
-3.040E-06,-0.860
-3.030E-06,-0.660
-3.020E-06,-0.580
-3.010E-06,-0.420
-3.000E-06,-0.240
-2.990E-06,-0.020
-2.980E-06,0.160
-2.970E-06,0.380
-2.960E-06,0.560
-2.950E-06,0.740
-2.940E-06,0.860
-2.930E-06,0.960
-2.920E-06,0.960
-2.910E-06,0.880
-2.900E-06,0.800
-2.890E-06,0.660
-2.880E-06,0.540
-2.870E-06,0.400
-2.860E-06,0.220
-2.850E-06,0.100
-2.840E-06,-0.040
-2.830E-06,-0.180
-2.820E-06,-0.300
-2.810E-06,-0.340
-2.800E-06,-0.440
-2.790E-06,-0.500
-2.780E-06,-0.540
-2.770E-06,-0.600
-2.760E-06,-0.600
-2.750E-06,-0.580
-2.740E-06,-0.440
-2.730E-06,-0.320
-2.720E-06,-0.060
-2.710E-06,0.180
-2.700E-06,0.420
-2.690E-06,0.580
-2.680E-06,0.740
-2.670E-06,0.800
-2.660E-06,0.820
-2.650E-06,0.760
-2.640E-06,0.600
-2.630E-06,0.400
-2.620E-06,0.240
-2.610E-06,0.000
-2.600E-06,-0.200
-2.590E-06,-0.400
-2.580E-06,-0.520
-2.570E-06,-0.540
-2.560E-06,-0.520
-2.550E-06,-0.500
-2.540E-06,-0.320
-2.530E-06,-0.260
-2.520E-06,-0.120
-2.510E-06,-0.040
-2.500E-06,0.100
-2.490E-06,0.180
-2.480E-06,0.100
-2.470E-06,0.080
-2.460E-06,0.080
-2.450E-06,-0.040
-2.440E-06,-0.020
-2.430E-06,-0.080
-2.420E-06,0.080
-2.410E-06,0.140
-2.400E-06,0.220
-2.390E-06,0.280
-2.380E-06,0.120
-2.370E-06,0.100
-2.360E-06,0.000
-2.350E-06,0.080
-2.340E-06,0.020
-2.330E-06,0.060
-2.320E-06,0.000
-2.310E-06,-0.020
-2.300E-06,-0.180
-2.290E-06,-0.180
-2.280E-06,-0.200
-2.270E-06,-0.140
-2.260E-06,-0.100
-2.250E-06,-0.020
-2.240E-06,0.060
-2.230E-06,0.100
-2.220E-06,0.080
-2.210E-06,0.100
-2.200E-06,0.140
-2.190E-06,0.120
-2.180E-06,0.120
-2.170E-06,0.120
-2.160E-06,0.120
-2.150E-06,0.140
-2.140E-06,0.080
-2.130E-06,0.100
-2.120E-06,0.100
-2.110E-06,0.080
-2.100E-06,0.080
-2.090E-06,0.060
-2.080E-06,0.060
-2.070E-06,0.100
-2.060E-06,0.020
-2.050E-06,-0.020
-2.040E-06,0.020
-2.030E-06,0.000
-2.020E-06,0.000
-2.010E-06,-0.060
-2.000E-06,-0.060
-1.990E-06,-0.020
-1.980E-06,-0.060
-1.970E-06,0.000
-1.960E-06,-0.020
-1.950E-06,-0.020
-1.940E-06,-0.040
-1.930E-06,-0.080
-1.920E-06,-0.100
-1.910E-06,-0.120
-1.900E-06,-0.080
-1.890E-06,-0.120
-1.880E-06,-0.100
-1.870E-06,-0.100
-1.860E-06,-0.060
-1.850E-06,-0.080
-1.840E-06,-0.040
-1.830E-06,-0.100
-1.820E-06,0.080
-1.810E-06,-0.120
-1.800E-06,0.200
-1.790E-06,-0.180
-1.780E-06,0.180
-1.770E-06,-0.160
-1.760E-06,0.220
-1.750E-06,-0.120
-1.740E-06,0.040
-1.730E-06,-0.120
-1.720E-06,-0.160
-1.710E-06,-0.200
-1.700E-06,-0.280
-1.690E-06,-0.240
-1.680E-06,-0.240
-1.670E-06,-0.180
-1.660E-06,-0.140
-1.650E-06,-0.100
-1.640E-06,-0.020
-1.630E-06,-0.020
-1.620E-06,0.020
-1.610E-06,0.080
-1.600E-06,0.120
-1.590E-06,0.140
-1.580E-06,0.200
-1.570E-06,0.200
-1.560E-06,0.160
-1.550E-06,0.200
-1.540E-06,0.160
-1.530E-06,0.180
-1.520E-06,0.180
-1.510E-06,0.200
-1.500E-06,0.160
-1.490E-06,0.100
-1.480E-06,0.080
-1.470E-06,-0.020
-1.460E-06,-0.040
-1.450E-06,-0.100
-1.440E-06,-0.120
-1.430E-06,-0.120
-1.420E-06,-0.120
-1.410E-06,-0.200
-1.400E-06,-0.200
-1.390E-06,-0.280
-1.380E-06,-0.180
-1.370E-06,-0.060
-1.360E-06,-0.200
-1.350E-06,0.000
-1.340E-06,-0.200
-1.330E-06,-0.240
-1.320E-06,-0.060
-1.310E-06,-0.160
-1.300E-06,-0.080
-1.290E-06,-0.080
-1.280E-06,-0.020
-1.270E-06,0.040
-1.260E-06,-0.080
-1.250E-06,-0.100
-1.240E-06,-0.180
-1.230E-06,-0.100
-1.220E-06,0.140
-1.210E-06,0.520
-1.200E-06,1.080
-1.190E-06,1.560
-1.180E-06,1.700
-1.170E-06,1.680
-1.160E-06,1.120
-1.150E-06,0.940
-1.140E-06,-0.120
-1.130E-06,-0.300
-1.120E-06,-1.140
-1.110E-06,-1.280
-1.100E-06,-1.360
-1.090E-06,-1.420
-1.080E-06,-1.240
-1.070E-06,-1.100
-1.060E-06,-0.920
-1.050E-06,-0.760
-1.040E-06,-0.700
-1.030E-06,-0.540
-1.020E-06,-0.500
-1.010E-06,-0.440
-1.000E-06,-0.360
-9.900E-07,-0.380
-9.800E-07,-0.380
-9.700E-07,-0.340
-9.600E-07,-0.280
-9.500E-07,-0.080
-9.400E-07,0.120
-9.300E-07,0.400
-9.200E-07,0.520
-9.100E-07,0.680
-9.000E-07,0.660
-8.900E-07,0.480
-8.800E-07,0.480
-8.700E-07,0.340
-8.600E-07,0.020
-8.500E-07,0.160
-8.400E-07,-0.140
-8.300E-07,-0.240
-8.200E-07,-0.380
-8.100E-07,-0.520
-8.000E-07,-0.500
-7.900E-07,-0.520
-7.800E-07,-0.280
-7.700E-07,-0.020
-7.600E-07,0.180
-7.500E-07,0.360
-7.400E-07,0.480
-7.300E-07,0.480
-7.200E-07,0.500
-7.100E-07,0.400
-7.000E-07,0.380
-6.900E-07,0.320
-6.800E-07,0.200
-6.700E-07,0.160
-6.600E-07,-0.020
-6.500E-07,-0.200
-6.400E-07,-0.320
-6.300E-07,-0.380
-6.200E-07,-0.420
-6.100E-07,-0.500
-6.000E-07,-0.180
-5.900E-07,-0.480
-5.800E-07,-0.120
-5.700E-07,-0.340
-5.600E-07,-0.460
-5.500E-07,-0.460
-5.400E-07,-0.720
-5.300E-07,-0.900
-5.200E-07,-1.120
-5.100E-07,-1.260
-5.000E-07,-1.340
-4.900E-07,-1.500
-4.800E-07,-1.180
-4.700E-07,-1.340
-4.600E-07,-0.820
-4.500E-07,-1.020
-4.400E-07,-0.540
-4.300E-07,-0.820
-4.200E-07,-0.420
-4.100E-07,-0.680
-4.000E-07,-0.440
-3.900E-07,-0.500
-3.800E-07,-0.480
-3.700E-07,-0.420
-3.600E-07,-0.600
-3.500E-07,-0.360
-3.400E-07,-0.520
-3.300E-07,-0.260
-3.200E-07,-0.360
-3.100E-07,-0.240
-3.000E-07,-0.120
-2.900E-07,-0.080
-2.800E-07,-0.020
-2.700E-07,0.000
-2.600E-07,-0.040
-2.500E-07,-0.160
-2.400E-07,-0.180
-2.300E-07,-0.340
-2.200E-07,-0.080
-2.100E-07,-0.460
-2.000E-07,-0.040
-1.900E-07,-0.460
-1.800E-07,-0.160
-1.700E-07,-0.120
-1.600E-07,-0.120
-1.500E-07,0.320
-1.400E-07,1.060
-1.300E-07,1.120
-1.200E-07,1.240
-1.100E-07,0.880
-1.000E-07,-0.060
-9.000E-08,-0.720
-8.000E-08,-1.100
-7.000E-08,-1.280
-6.000E-08,-1.360
-5.000E-08,-0.940
-4.000E-08,-0.960
-3.000E-08,-0.940
-2.000E-08,-1.180
-1.000E-08,-1.160
0.000E+00,-1.140
1.000E-08,-0.960
2.000E-08,-0.920
3.000E-08,-0.720
4.000E-08,-0.520
5.000E-08,-0.020
6.000E-08,-0.340
7.000E-08,-0.300
8.000E-08,0.100
9.000E-08,0.200
1.000E-07,0.640
1.100E-07,0.400
1.200E-07,0.440
1.300E-07,0.320
1.400E-07,-0.020
1.500E-07,0.080
1.600E-07,0.260
1.700E-07,0.800
1.800E-07,0.320
1.900E-07,-0.380
2.000E-07,-0.320
2.100E-07,-1.220
2.200E-07,-0.840
2.300E-07,-1.060
2.400E-07,-1.020
2.500E-07,-1.100
2.600E-07,-0.540
2.700E-07,-0.660
2.800E-07,-0.360
2.900E-07,0.100
3.000E-07,-0.260
3.100E-07,0.760
3.200E-07,0.180
3.300E-07,1.100
3.400E-07,1.700
3.500E-07,-0.240
3.600E-07,0.960
3.700E-07,0.080
3.800E-07,0.260
3.900E-07,-0.120
4.000E-07,0.640
4.100E-07,0.580
4.200E-07,0.320
4.300E-07,0.040
4.400E-07,-0.360
4.500E-07,-0.060
4.600E-07,-0.380
4.700E-07,-0.260
4.800E-07,-0.120
4.900E-07,-0.500
5.000E-07,-0.560
5.100E-07,-0.740
5.200E-07,-0.860
5.300E-07,-0.540
5.400E-07,-0.500
5.500E-07,-0.600
5.600E-07,-0.220
5.700E-07,-0.420
5.800E-07,-0.080
5.900E-07,-0.120
6.000E-07,-0.040
6.100E-07,0.080
6.200E-07,0.020
6.300E-07,-0.040
6.400E-07,0.280
6.500E-07,-0.060
6.600E-07,-0.300
6.700E-07,-0.400
6.800E-07,-0.600
6.900E-07,-0.440
7.000E-07,0.060
7.100E-07,0.040
7.200E-07,0.300
7.300E-07,0.000
7.400E-07,-0.180
7.500E-07,-0.160
7.600E-07,-0.600
7.700E-07,-0.400
7.800E-07,-0.540
7.900E-07,0.600
8.000E-07,-0.020
8.100E-07,0.400
8.200E-07,-0.040
8.300E-07,0.320
8.400E-07,-0.100
8.500E-07,-0.260
8.600E-07,-0.420
8.700E-07,-0.020
8.800E-07,-0.020
8.900E-07,-0.040
9.000E-07,0.080
9.100E-07,0.160
9.200E-07,0.060
9.300E-07,-0.100
9.400E-07,-0.220
9.500E-07,0.040
9.600E-07,0.000
9.700E-07,0.080
9.800E-07,0.080
9.900E-07,0.140
1.000E-06,0.040
1.010E-06,0.000
1.020E-06,0.100
1.030E-06,0.080
1.040E-06,0.240
1.050E-06,0.360
1.060E-06,0.520
1.070E-06,0.420
1.080E-06,0.600
1.090E-06,0.320
1.100E-06,-0.060
1.110E-06,-0.180
1.120E-06,-0.360
1.130E-06,-0.300
1.140E-06,-0.180
1.150E-06,-0.160
1.160E-06,-0.120
1.170E-06,-0.160
1.180E-06,-0.340
1.190E-06,-0.400
1.200E-06,-0.320
1.210E-06,-0.340
1.220E-06,-0.160
1.230E-06,-0.060
1.240E-06,0.080
1.250E-06,-0.060
1.260E-06,-0.200
1.270E-06,-0.420
1.280E-06,-0.520
1.290E-06,-0.520
1.300E-06,-0.480
1.310E-06,-0.360
1.320E-06,-0.340
1.330E-06,-0.380
1.340E-06,-0.540
1.350E-06,-0.620
1.360E-06,-0.780
1.370E-06,-0.580
1.380E-06,-0.540
1.390E-06,-0.180
1.400E-06,-0.320
1.410E-06,-0.120
1.420E-06,-0.380
1.430E-06,-0.320
1.440E-06,-0.500
1.450E-06,-0.420
1.460E-06,-0.360
1.470E-06,-0.440
1.480E-06,-0.360
1.490E-06,-0.360
1.500E-06,-0.340
1.510E-06,-0.320
1.520E-06,-0.520
1.530E-06,-0.400
1.540E-06,-0.360
1.550E-06,-0.340
1.560E-06,-0.320
1.570E-06,-0.260
1.580E-06,-0.180
1.590E-06,-0.140
1.600E-06,-0.100
1.610E-06,-0.120
1.620E-06,0.060
1.630E-06,0.220
1.640E-06,-0.040
1.650E-06,0.020
1.660E-06,0.020
1.670E-06,0.000
1.680E-06,-0.080
1.690E-06,0.100
1.700E-06,0.020
1.710E-06,-0.160
1.720E-06,-0.080
1.730E-06,-0.120
1.740E-06,-0.080
1.750E-06,-0.080
1.760E-06,-0.120
1.770E-06,-0.260
1.780E-06,-0.140
1.790E-06,-0.420
1.800E-06,-0.400
1.810E-06,-0.700
1.820E-06,-0.300
1.830E-06,-0.560
1.840E-06,-0.500
1.850E-06,-0.600
1.860E-06,-0.600
1.870E-06,-0.560
1.880E-06,-0.560
1.890E-06,-0.240
1.900E-06,2.080
1.910E-06,1.940
1.920E-06,2.080
1.930E-06,1.060
1.940E-06,0.580
1.950E-06,-0.440
1.960E-06,-1.600
1.970E-06,-1.740
1.980E-06,-3.360
1.990E-06,-2.240
2.000E-06,-3.360
2.010E-06,-1.800
2.020E-06,-3.340
2.030E-06,-2.340
2.040E-06,-2.840
2.050E-06,-2.500
2.060E-06,-2.040
2.070E-06,-1.820
2.080E-06,-0.620
2.090E-06,-0.380
2.100E-06,0.100
2.110E-06,0.400
2.120E-06,0.320
2.130E-06,0.980
2.140E-06,0.800
2.150E-06,1.380
2.160E-06,1.220
2.170E-06,1.400
2.180E-06,1.280
2.190E-06,1.200
2.200E-06,0.940
2.210E-06,0.840
2.220E-06,0.520
2.230E-06,0.080
2.240E-06,-0.120
2.250E-06,-0.660
2.260E-06,-0.820
2.270E-06,-1.060
2.280E-06,-0.960
2.290E-06,-1.200
2.300E-06,-1.280
2.310E-06,-1.340
2.320E-06,-1.360
2.330E-06,-1.060
2.340E-06,-1.020
2.350E-06,-0.640
2.360E-06,-0.440
2.370E-06,-0.300
2.380E-06,-0.180
2.390E-06,-0.080
2.400E-06,-0.120
2.410E-06,-0.180
2.420E-06,-0.220
2.430E-06,-0.360
2.440E-06,-0.420
2.450E-06,-0.580
2.460E-06,-0.660
2.470E-06,-0.840
2.480E-06,-1.020
2.490E-06,-0.940
2.500E-06,-0.960
2.510E-06,-0.840
2.520E-06,-0.740
2.530E-06,-0.600
2.540E-06,-0.440
2.550E-06,-0.460
2.560E-06,-0.400
2.570E-06,-0.400
2.580E-06,-0.320
2.590E-06,-0.220
2.600E-06,-0.120
2.610E-06,0.020
2.620E-06,0.160
2.630E-06,0.220
2.640E-06,0.300
2.650E-06,0.380
2.660E-06,0.400
2.670E-06,0.320
2.680E-06,0.260
2.690E-06,0.040
2.700E-06,-0.180
2.710E-06,-0.360
2.720E-06,-0.620
2.730E-06,-0.900
2.740E-06,-1.120
2.750E-06,-1.380
2.760E-06,-1.540
2.770E-06,-1.600
2.780E-06,-1.580
2.790E-06,-1.540
2.800E-06,-1.380
2.810E-06,-1.360
2.820E-06,-1.300
2.830E-06,-1.180
2.840E-06,-1.120
2.850E-06,-1.040
2.860E-06,-0.940
2.870E-06,-0.880
2.880E-06,-0.840
2.890E-06,-0.920
2.900E-06,-1.000
2.910E-06,-1.120
2.920E-06,-1.160
2.930E-06,-1.320
2.940E-06,-1.320
2.950E-06,-1.500
2.960E-06,-1.620
2.970E-06,-1.740
2.980E-06,-1.860
2.990E-06,-1.920
3.000E-06,-2.060
3.010E-06,-2.200
3.020E-06,-2.300
3.030E-06,-2.380
3.040E-06,-2.420
3.050E-06,-2.500
3.060E-06,-2.560
3.070E-06,-2.560
3.080E-06,-2.660
3.090E-06,-2.640
3.100E-06,-2.620
3.110E-06,-2.520
3.120E-06,-2.420
3.130E-06,-2.260
3.140E-06,-2.160
3.150E-06,-2.100
3.160E-06,-2.040
3.170E-06,-1.960
3.180E-06,-1.860
3.190E-06,-1.820
3.200E-06,-1.740
3.210E-06,-1.680
3.220E-06,-1.680
3.230E-06,-1.640
3.240E-06,-1.580
3.250E-06,-1.540
3.260E-06,-1.520
3.270E-06,-1.480
3.280E-06,-1.420
3.290E-06,-1.360
