mediciones/8-28/-19/WaveData65741.csv

#timebase=2000000(ps)
,#voltbase=500000(mv/100)
#size=4000
-8.350E-06,0.080
-8.340E-06,0.040
-8.330E-06,0.060
-8.320E-06,0.060
-8.310E-06,0.040
-8.300E-06,0.040
-8.290E-06,0.020
-8.280E-06,0.040
-8.270E-06,0.060
-8.260E-06,0.040
-8.250E-06,0.060
-8.240E-06,0.060
-8.230E-06,0.060
-8.220E-06,0.020
-8.210E-06,0.020
-8.200E-06,0.060
-8.190E-06,0.040
-8.180E-06,0.040
-8.170E-06,0.060
-8.160E-06,0.020
-8.150E-06,0.040
-8.140E-06,0.080
-8.130E-06,0.080
-8.120E-06,0.060
-8.110E-06,0.060
-8.100E-06,0.000
-8.090E-06,0.060
-8.080E-06,0.040
-8.070E-06,0.060
-8.060E-06,0.060
-8.050E-06,0.060
-8.040E-06,0.080
-8.030E-06,0.020
-8.020E-06,0.020
-8.010E-06,0.060
-8.000E-06,0.040
-7.990E-06,0.020
-7.980E-06,0.040
-7.970E-06,0.040
-7.960E-06,0.040
-7.950E-06,0.040
-7.940E-06,0.040
-7.930E-06,0.000
-7.920E-06,0.060
-7.910E-06,0.040
-7.900E-06,0.060
-7.890E-06,0.080
-7.880E-06,0.060
-7.870E-06,0.060
-7.860E-06,0.040
-7.850E-06,0.060
-7.840E-06,0.060
-7.830E-06,0.020
-7.820E-06,0.040
-7.810E-06,0.080
-7.800E-06,0.060
-7.790E-06,0.040
-7.780E-06,0.060
-7.770E-06,0.060
-7.760E-06,0.060
-7.750E-06,0.060
-7.740E-06,0.040
-7.730E-06,0.020
-7.720E-06,0.040
-7.710E-06,0.060
-7.700E-06,0.020
-7.690E-06,0.040
-7.680E-06,0.040
-7.670E-06,0.020
-7.660E-06,0.040
-7.650E-06,0.040
-7.640E-06,0.080
-7.630E-06,0.000
-7.620E-06,0.060
-7.610E-06,0.060
-7.600E-06,0.040
-7.590E-06,0.060
-7.580E-06,0.020
-7.570E-06,0.020
-7.560E-06,0.040
-7.550E-06,0.020
-7.540E-06,-0.020
-7.530E-06,0.020
-7.520E-06,0.040
-7.510E-06,0.040
-7.500E-06,0.040
-7.490E-06,0.060
-7.480E-06,0.040
-7.470E-06,0.040
-7.460E-06,0.040
-7.450E-06,0.060
-7.440E-06,0.080
-7.430E-06,0.040
-7.420E-06,0.020
-7.410E-06,0.060
-7.400E-06,0.040
-7.390E-06,0.040
-7.380E-06,0.060
-7.370E-06,0.020
-7.360E-06,0.060
-7.350E-06,0.060
-7.340E-06,0.060
-7.330E-06,0.040
-7.320E-06,0.040
-7.310E-06,0.040
-7.300E-06,0.060
-7.290E-06,0.020
-7.280E-06,0.040
-7.270E-06,0.040
-7.260E-06,0.040
-7.250E-06,0.060
-7.240E-06,0.060
-7.230E-06,0.020
-7.220E-06,0.040
-7.210E-06,0.040
-7.200E-06,0.060
-7.190E-06,0.040
-7.180E-06,0.020
-7.170E-06,0.040
-7.160E-06,0.040
-7.150E-06,0.060
-7.140E-06,0.060
-7.130E-06,0.080
-7.120E-06,0.040
-7.110E-06,0.040
-7.100E-06,0.040
-7.090E-06,0.040
-7.080E-06,0.040
-7.070E-06,0.080
-7.060E-06,0.060
-7.050E-06,0.040
-7.040E-06,0.040
-7.030E-06,0.060
-7.020E-06,0.060
-7.010E-06,0.060
-7.000E-06,0.040
-6.990E-06,0.060
-6.980E-06,0.060
-6.970E-06,0.040
-6.960E-06,0.020
-6.950E-06,0.060
-6.940E-06,0.080
-6.930E-06,0.060
-6.920E-06,0.060
-6.910E-06,0.060
-6.900E-06,0.040
-6.890E-06,0.020
-6.880E-06,0.060
-6.870E-06,0.040
-6.860E-06,0.040
-6.850E-06,0.040
-6.840E-06,0.040
-6.830E-06,0.040
-6.820E-06,0.080
-6.810E-06,0.040
-6.800E-06,0.060
-6.790E-06,0.040
-6.780E-06,0.000
-6.770E-06,0.040
-6.760E-06,0.020
-6.750E-06,0.040
-6.740E-06,0.060
-6.730E-06,0.060
-6.720E-06,0.060
-6.710E-06,0.040
-6.700E-06,0.060
-6.690E-06,0.080
-6.680E-06,0.020
-6.670E-06,0.020
-6.660E-06,0.060
-6.650E-06,0.020
-6.640E-06,0.000
-6.630E-06,0.040
-6.620E-06,0.040
-6.610E-06,0.020
-6.600E-06,0.040
-6.590E-06,0.040
-6.580E-06,0.020
-6.570E-06,0.040
-6.560E-06,0.040
-6.550E-06,0.060
-6.540E-06,0.040
-6.530E-06,0.040
-6.520E-06,0.040
-6.510E-06,0.080
-6.500E-06,0.060
-6.490E-06,0.060
-6.480E-06,0.020
-6.470E-06,0.020
-6.460E-06,0.060
-6.450E-06,0.020
-6.440E-06,0.040
-6.430E-06,0.040
-6.420E-06,0.040
-6.410E-06,0.080
-6.400E-06,0.060
-6.390E-06,0.040
-6.380E-06,0.040
-6.370E-06,0.060
-6.360E-06,0.060
-6.350E-06,0.060
-6.340E-06,0.020
-6.330E-06,0.040
-6.320E-06,0.080
-6.310E-06,0.040
-6.300E-06,0.020
-6.290E-06,0.040
-6.280E-06,0.060
-6.270E-06,0.040
-6.260E-06,0.060
-6.250E-06,0.040
-6.240E-06,0.000
-6.230E-06,0.060
-6.220E-06,0.040
-6.210E-06,0.060
-6.200E-06,0.040
-6.190E-06,0.060
-6.180E-06,0.060
-6.170E-06,0.060
-6.160E-06,0.040
-6.150E-06,0.060
-6.140E-06,0.020
-6.130E-06,0.040
-6.120E-06,0.060
-6.110E-06,0.060
-6.100E-06,0.020
-6.090E-06,0.060
-6.080E-06,0.060
-6.070E-06,0.060
-6.060E-06,0.040
-6.050E-06,0.040
-6.040E-06,0.080
-6.030E-06,0.020
-6.020E-06,0.040
-6.010E-06,0.040
-6.000E-06,0.060
-5.990E-06,0.040
-5.980E-06,0.040
-5.970E-06,0.040
-5.960E-06,0.040
-5.950E-06,0.060
-5.940E-06,0.040
-5.930E-06,0.060
-5.920E-06,0.040
-5.910E-06,0.040
-5.900E-06,0.060
-5.890E-06,0.060
-5.880E-06,0.080
-5.870E-06,0.040
-5.860E-06,0.020
-5.850E-06,0.040
-5.840E-06,0.060
-5.830E-06,0.080
-5.820E-06,0.040
-5.810E-06,0.060
-5.800E-06,0.040
-5.790E-06,0.060
-5.780E-06,0.060
-5.770E-06,0.040
-5.760E-06,0.060
-5.750E-06,0.080
-5.740E-06,0.060
-5.730E-06,0.040
-5.720E-06,0.080
-5.710E-06,0.060
-5.700E-06,0.060
-5.690E-06,0.080
-5.680E-06,0.060
-5.670E-06,0.020
-5.660E-06,0.080
-5.650E-06,0.060
-5.640E-06,0.060
-5.630E-06,0.020
-5.620E-06,0.040
-5.610E-06,0.040
-5.600E-06,0.060
-5.590E-06,0.040
-5.580E-06,0.040
-5.570E-06,0.060
-5.560E-06,0.100
-5.550E-06,0.000
-5.540E-06,0.020
-5.530E-06,0.020
-5.520E-06,0.000
-5.510E-06,0.060
-5.500E-06,0.060
-5.490E-06,0.060
-5.480E-06,0.040
-5.470E-06,0.020
-5.460E-06,0.040
-5.450E-06,0.040
-5.440E-06,0.060
-5.430E-06,0.040
-5.420E-06,0.020
-5.410E-06,0.040
-5.400E-06,0.040
-5.390E-06,0.060
-5.380E-06,0.020
-5.370E-06,0.060
-5.360E-06,0.000
-5.350E-06,0.060
-5.340E-06,0.040
-5.330E-06,0.060
-5.320E-06,0.080
-5.310E-06,0.040
-5.300E-06,0.040
-5.290E-06,0.040
-5.280E-06,0.020
-5.270E-06,0.040
-5.260E-06,0.040
-5.250E-06,0.040
-5.240E-06,0.060
-5.230E-06,0.040
-5.220E-06,0.060
-5.210E-06,0.060
-5.200E-06,0.040
-5.190E-06,0.040
-5.180E-06,0.020
-5.170E-06,0.000
-5.160E-06,0.060
-5.150E-06,0.020
-5.140E-06,0.040
-5.130E-06,0.040
-5.120E-06,0.060
-5.110E-06,0.060
-5.100E-06,0.040
-5.090E-06,0.040
-5.080E-06,0.060
-5.070E-06,0.060
-5.060E-06,0.060
-5.050E-06,0.040
-5.040E-06,0.060
-5.030E-06,0.020
-5.020E-06,0.040
-5.010E-06,0.060
-5.000E-06,0.080
-4.990E-06,0.020
-4.980E-06,0.040
-4.970E-06,0.060
-4.960E-06,0.060
-4.950E-06,0.020
-4.940E-06,0.040
-4.930E-06,0.060
-4.920E-06,0.060
-4.910E-06,0.040
-4.900E-06,0.060
-4.890E-06,0.060
-4.880E-06,0.060
-4.870E-06,0.020
-4.860E-06,0.000
-4.850E-06,0.040
-4.840E-06,0.060
-4.830E-06,0.060
-4.820E-06,0.060
-4.810E-06,0.080
-4.800E-06,0.020
-4.790E-06,0.060
-4.780E-06,0.040
-4.770E-06,0.080
-4.760E-06,0.040
-4.750E-06,0.040
-4.740E-06,0.020
-4.730E-06,0.040
-4.720E-06,0.060
-4.710E-06,0.040
-4.700E-06,0.040
-4.690E-06,0.000
-4.680E-06,0.060
-4.670E-06,0.040
-4.660E-06,0.060
-4.650E-06,0.060
-4.640E-06,0.060
-4.630E-06,0.040
-4.620E-06,0.040
-4.610E-06,0.060
-4.600E-06,0.060
-4.590E-06,0.060
-4.580E-06,0.060
-4.570E-06,0.060
-4.560E-06,0.040
-4.550E-06,0.080
-4.540E-06,0.040
-4.530E-06,0.020
-4.520E-06,0.040
-4.510E-06,0.040
-4.500E-06,0.060
-4.490E-06,0.020
-4.480E-06,0.040
-4.470E-06,0.060
-4.460E-06,0.060
-4.450E-06,0.060
-4.440E-06,0.020
-4.430E-06,0.060
-4.420E-06,0.080
-4.410E-06,0.020
-4.400E-06,0.060
-4.390E-06,0.040
-4.380E-06,0.040
-4.370E-06,0.080
-4.360E-06,0.040
-4.350E-06,0.040
-4.340E-06,0.040
-4.330E-06,0.040
-4.320E-06,0.060
-4.310E-06,0.060
-4.300E-06,0.040
-4.290E-06,0.020
-4.280E-06,0.040
-4.270E-06,0.020
-4.260E-06,0.060
-4.250E-06,0.040
-4.240E-06,0.040
-4.230E-06,0.080
-4.220E-06,0.060
-4.210E-06,0.020
-4.200E-06,0.020
-4.190E-06,0.020
-4.180E-06,0.040
-4.170E-06,0.020
-4.160E-06,0.060
-4.150E-06,0.060
-4.140E-06,0.020
-4.130E-06,0.040
-4.120E-06,0.060
-4.110E-06,0.060
-4.100E-06,0.020
-4.090E-06,0.020
-4.080E-06,0.060
-4.070E-06,0.040
-4.060E-06,0.080
-4.050E-06,0.020
-4.040E-06,0.040
-4.030E-06,0.040
-4.020E-06,0.080
-4.010E-06,0.040
-4.000E-06,0.060
-3.990E-06,0.060
-3.980E-06,0.060
-3.970E-06,0.040
-3.960E-06,0.020
-3.950E-06,0.060
-3.940E-06,0.040
-3.930E-06,0.060
-3.920E-06,0.040
-3.910E-06,0.060
-3.900E-06,0.060
-3.890E-06,0.060
-3.880E-06,0.020
-3.870E-06,0.040
-3.860E-06,0.060
-3.850E-06,0.060
-3.840E-06,0.060
-3.830E-06,0.040
-3.820E-06,0.060
-3.810E-06,0.020
-3.800E-06,0.020
-3.790E-06,0.040
-3.780E-06,0.080
-3.770E-06,0.020
-3.760E-06,0.040
-3.750E-06,0.080
-3.740E-06,0.040
-3.730E-06,0.040
-3.720E-06,0.060
-3.710E-06,0.060
-3.700E-06,0.060
-3.690E-06,0.060
-3.680E-06,0.040
-3.670E-06,0.020
-3.660E-06,0.040
-3.650E-06,0.040
-3.640E-06,0.060
-3.630E-06,0.040
-3.620E-06,0.040
-3.610E-06,0.040
-3.600E-06,0.080
-3.590E-06,0.080
-3.580E-06,0.040
-3.570E-06,0.040
-3.560E-06,0.040
-3.550E-06,0.040
-3.540E-06,0.040
-3.530E-06,0.060
-3.520E-06,0.060
-3.510E-06,0.060
-3.500E-06,0.020
-3.490E-06,0.060
-3.480E-06,0.060
-3.470E-06,0.040
-3.460E-06,0.060
-3.450E-06,0.040
-3.440E-06,0.020
-3.430E-06,-0.100
-3.420E-06,-0.660
-3.410E-06,-1.560
-3.400E-06,-2.620
-3.390E-06,-3.340
-3.380E-06,-3.340
-3.370E-06,-3.160
-3.360E-06,-2.100
-3.350E-06,-0.740
-3.340E-06,0.720
-3.330E-06,2.040
-3.320E-06,2.080
-3.310E-06,2.080
-3.300E-06,2.100
-3.290E-06,2.080
-3.280E-06,2.080
-3.270E-06,2.080
-3.260E-06,2.060
-3.250E-06,1.420
-3.240E-06,0.500
-3.230E-06,-0.300
-3.220E-06,-0.700
-3.210E-06,-0.860
-3.200E-06,-0.740
-3.190E-06,-0.600
-3.180E-06,-0.400
-3.170E-06,-0.360
-3.160E-06,-0.640
-3.150E-06,-0.940
-3.140E-06,-1.360
-3.130E-06,-1.780
-3.120E-06,-2.040
-3.110E-06,-2.260
-3.100E-06,-2.220
-3.090E-06,-1.920
-3.080E-06,-1.440
-3.070E-06,-0.820
-3.060E-06,-0.160
-3.050E-06,0.600
-3.040E-06,1.200
-3.030E-06,1.620
-3.020E-06,1.880
-3.010E-06,1.860
-3.000E-06,1.700
-2.990E-06,1.340
-2.980E-06,0.820
-2.970E-06,0.400
-2.960E-06,-0.120
-2.950E-06,-0.560
-2.940E-06,-0.760
-2.930E-06,-1.080
-2.920E-06,-0.960
-2.910E-06,-0.960
-2.900E-06,-0.920
-2.890E-06,-0.720
-2.880E-06,-0.700
-2.870E-06,-0.460
-2.860E-06,-0.280
-2.850E-06,-0.040
-2.840E-06,0.340
-2.830E-06,0.540
-2.820E-06,0.860
-2.810E-06,1.040
-2.800E-06,1.080
-2.790E-06,1.100
-2.780E-06,1.200
-2.770E-06,1.080
-2.760E-06,1.040
-2.750E-06,0.780
-2.740E-06,0.680
-2.730E-06,0.380
-2.720E-06,0.160
-2.710E-06,-0.160
-2.700E-06,-0.400
-2.690E-06,-0.680
-2.680E-06,-0.780
-2.670E-06,-0.840
-2.660E-06,-0.820
-2.650E-06,-0.940
-2.640E-06,-0.860
-2.630E-06,-0.860
-2.620E-06,-0.900
-2.610E-06,-0.720
-2.600E-06,-0.520
-2.590E-06,-0.180
-2.580E-06,0.100
-2.570E-06,0.240
-2.560E-06,0.640
-2.550E-06,0.720
-2.540E-06,0.920
-2.530E-06,0.940
-2.520E-06,0.920
-2.510E-06,0.780
-2.500E-06,0.800
-2.490E-06,0.480
-2.480E-06,0.260
-2.470E-06,-0.020
-2.460E-06,-0.280
-2.450E-06,-0.480
-2.440E-06,-0.540
-2.430E-06,-0.540
-2.420E-06,-0.500
-2.410E-06,-0.460
-2.400E-06,-0.300
-2.390E-06,-0.140
-2.380E-06,-0.040
-2.370E-06,0.080
-2.360E-06,0.160
-2.350E-06,0.180
-2.340E-06,0.340
-2.330E-06,0.320
-2.320E-06,0.080
-2.310E-06,0.140
-2.300E-06,-0.080
-2.290E-06,-0.080
-2.280E-06,-0.240
-2.270E-06,-0.160
-2.260E-06,-0.060
-2.250E-06,-0.160
-2.240E-06,-0.160
-2.230E-06,-0.320
-2.220E-06,0.020
-2.210E-06,-0.020
-2.200E-06,-0.320
-2.190E-06,-0.140
-2.180E-06,-0.140
-2.170E-06,-0.260
-2.160E-06,-0.320
-2.150E-06,-0.260
-2.140E-06,-0.180
-2.130E-06,-0.140
-2.120E-06,-0.140
-2.110E-06,-0.040
-2.100E-06,0.100
-2.090E-06,0.300
-2.080E-06,0.300
-2.070E-06,0.040
-2.060E-06,0.100
-2.050E-06,-0.080
-2.040E-06,0.360
-2.030E-06,-0.160
-2.020E-06,0.400
-2.010E-06,-0.240
-2.000E-06,0.080
-1.990E-06,-0.100
-1.980E-06,0.060
-1.970E-06,-0.040
-1.960E-06,0.160
-1.950E-06,0.000
-1.940E-06,0.060
-1.930E-06,-0.220
-1.920E-06,-0.140
-1.910E-06,-0.200
-1.900E-06,-0.220
-1.890E-06,-0.240
-1.880E-06,-0.200
-1.870E-06,-0.160
-1.860E-06,-0.140
-1.850E-06,-0.120
-1.840E-06,-0.120
-1.830E-06,-0.120
-1.820E-06,-0.220
-1.810E-06,-0.160
-1.800E-06,-0.300
-1.790E-06,-0.260
-1.780E-06,-0.260
-1.770E-06,-0.260
-1.760E-06,-0.060
-1.750E-06,-0.060
-1.740E-06,0.040
-1.730E-06,0.060
-1.720E-06,0.080
-1.710E-06,0.040
-1.700E-06,0.000
-1.690E-06,0.060
-1.680E-06,0.000
-1.670E-06,0.060
-1.660E-06,0.160
-1.650E-06,0.040
-1.640E-06,0.160
-1.630E-06,-0.060
-1.620E-06,-0.260
-1.610E-06,-0.260
-1.600E-06,-0.420
-1.590E-06,-0.100
-1.580E-06,-0.320
-1.570E-06,0.240
-1.560E-06,0.460
-1.550E-06,1.440
-1.540E-06,1.620
-1.530E-06,2.080
-1.520E-06,1.600
-1.510E-06,1.480
-1.500E-06,0.100
-1.490E-06,-0.240
-1.480E-06,-1.480
-1.470E-06,-1.800
-1.460E-06,-1.920
-1.450E-06,-1.680
-1.440E-06,-1.660
-1.430E-06,-2.020
-1.420E-06,-2.440
-1.410E-06,-2.660
-1.400E-06,-2.500
-1.390E-06,-2.000
-1.380E-06,-1.360
-1.370E-06,-1.020
-1.360E-06,-0.680
-1.350E-06,-0.600
-1.340E-06,-0.780
-1.330E-06,-0.540
-1.320E-06,-0.480
-1.310E-06,0.380
-1.300E-06,0.880
-1.290E-06,1.180
-1.280E-06,1.620
-1.270E-06,1.400
-1.260E-06,1.400
-1.250E-06,1.160
-1.240E-06,0.980
-1.230E-06,0.860
-1.220E-06,0.780
-1.210E-06,0.740
-1.200E-06,0.620
-1.190E-06,0.340
-1.180E-06,-0.120
-1.170E-06,-0.260
-1.160E-06,-0.340
-1.150E-06,-0.460
-1.140E-06,-0.740
-1.130E-06,-0.940
-1.120E-06,-0.920
-1.110E-06,-0.900
-1.100E-06,-1.220
-1.090E-06,-1.100
-1.080E-06,-1.280
-1.070E-06,-1.220
-1.060E-06,-1.440
-1.050E-06,-1.520
-1.040E-06,-1.420
-1.030E-06,-1.120
-1.020E-06,-0.940
-1.010E-06,-0.680
-1.000E-06,-0.780
-9.900E-07,-0.740
-9.800E-07,-0.900
-9.700E-07,-0.920
-9.600E-07,-0.900
-9.500E-07,-0.700
-9.400E-07,-0.480
-9.300E-07,-0.320
-9.200E-07,-0.180
-9.100E-07,-0.080
-9.000E-07,-0.180
-8.900E-07,-0.160
-8.800E-07,-0.280
-8.700E-07,-0.320
-8.600E-07,-0.500
-8.500E-07,-0.520
-8.400E-07,-0.500
-8.300E-07,-0.600
-8.200E-07,-0.280
-8.100E-07,-0.080
-8.000E-07,0.260
-7.900E-07,0.360
-7.800E-07,0.860
-7.700E-07,0.460
-7.600E-07,0.500
-7.500E-07,-0.140
-7.400E-07,-0.460
-7.300E-07,-0.820
-7.200E-07,-0.980
-7.100E-07,-1.480
-7.000E-07,-1.340
-6.900E-07,-1.640
-6.800E-07,-2.380
-6.700E-07,-2.420
-6.600E-07,-2.760
-6.500E-07,-2.500
-6.400E-07,-2.640
-6.300E-07,-2.480
-6.200E-07,-2.240
-6.100E-07,-2.100
-6.000E-07,-1.880
-5.900E-07,-1.700
-5.800E-07,-1.380
-5.700E-07,-1.260
-5.600E-07,-1.040
-5.500E-07,-1.120
-5.400E-07,-0.760
-5.300E-07,-1.240
-5.200E-07,-0.720
-5.100E-07,-1.120
-5.000E-07,-0.640
-4.900E-07,-0.700
-4.800E-07,-0.420
-4.700E-07,-0.280
-4.600E-07,-0.180
-4.500E-07,0.080
-4.400E-07,-0.460
-4.300E-07,-0.760
-4.200E-07,-0.900
-4.100E-07,-1.200
-4.000E-07,-1.140
-3.900E-07,-1.700
-3.800E-07,-1.680
-3.700E-07,-2.200
-3.600E-07,-2.600
-3.500E-07,-3.000
-3.400E-07,-2.840
-3.300E-07,-2.820
-3.200E-07,-2.280
-3.100E-07,-1.840
-3.000E-07,-1.500
-2.900E-07,-1.060
-2.800E-07,-1.060
-2.700E-07,-0.980
-2.600E-07,-0.960
-2.500E-07,-0.840
-2.400E-07,-0.780
-2.300E-07,-0.760
-2.200E-07,-0.800
-2.100E-07,-0.980
-2.000E-07,-1.240
-1.900E-07,-1.360
-1.800E-07,-1.440
-1.700E-07,-1.580
-1.600E-07,-1.080
-1.500E-07,-0.900
-1.400E-07,-0.900
-1.300E-07,-1.320
-1.200E-07,-1.700
-1.100E-07,-2.220
-1.000E-07,-2.780
-9.000E-08,-3.340
-8.000E-08,-3.340
-7.000E-08,-3.340
-6.000E-08,-3.340
-5.000E-08,-3.340
-4.000E-08,-3.340
-3.000E-08,-3.340
-2.000E-08,-3.340
-1.000E-08,-3.340
0.000E+00,-3.340
1.000E-08,-3.340
2.000E-08,-3.340
3.000E-08,-3.340
4.000E-08,-3.340
5.000E-08,-3.320
6.000E-08,-3.340
7.000E-08,-2.700
8.000E-08,-2.180
9.000E-08,-2.000
1.000E-07,-1.780
1.100E-07,-1.540
1.200E-07,-1.180
1.300E-07,-0.820
1.400E-07,-0.840
1.500E-07,-0.160
1.600E-07,-0.480
1.700E-07,-0.700
1.800E-07,-1.960
1.900E-07,-2.520
2.000E-07,-3.200
2.100E-07,-3.220
2.200E-07,-3.060
2.300E-07,-2.880
2.400E-07,-2.800
2.500E-07,-3.320
2.600E-07,-3.340
2.700E-07,-3.340
2.800E-07,-3.340
2.900E-07,-3.340
3.000E-07,-3.340
3.100E-07,-3.340
3.200E-07,-3.340
3.300E-07,-3.320
3.400E-07,-3.320
3.500E-07,-3.340
3.600E-07,-3.180
3.700E-07,-2.840
3.800E-07,-2.500
3.900E-07,-2.300
4.000E-07,-2.340
4.100E-07,-2.480
4.200E-07,-2.700
4.300E-07,-2.980
4.400E-07,-3.000
4.500E-07,-2.840
4.600E-07,-2.400
4.700E-07,-2.320
4.800E-07,-2.140
4.900E-07,-2.280
5.000E-07,-2.140
5.100E-07,-2.580
5.200E-07,-2.560
5.300E-07,-2.940
5.400E-07,-3.240
5.500E-07,-3.220
5.600E-07,-3.180
5.700E-07,-2.940
5.800E-07,-2.400
5.900E-07,-2.040
6.000E-07,-1.540
6.100E-07,-1.260
6.200E-07,-1.700
6.300E-07,-2.040
6.400E-07,-2.200
6.500E-07,-2.080
6.600E-07,-1.420
6.700E-07,-0.700
6.800E-07,-0.180
6.900E-07,0.220
7.000E-07,0.160
7.100E-07,-0.020
7.200E-07,-0.420
7.300E-07,-0.860
7.400E-07,-1.300
7.500E-07,-1.560
7.600E-07,-1.820
7.700E-07,-1.980
7.800E-07,-2.000
7.900E-07,-1.940
8.000E-07,-1.820
8.100E-07,-1.420
8.200E-07,-1.260
8.300E-07,-0.920
8.400E-07,-0.520
8.500E-07,-0.340
8.600E-07,0.040
8.700E-07,0.360
8.800E-07,0.480
8.900E-07,0.760
9.000E-07,0.840
9.100E-07,0.980
9.200E-07,1.060
9.300E-07,1.080
9.400E-07,1.180
9.500E-07,1.100
9.600E-07,1.080
9.700E-07,0.960
9.800E-07,0.800
9.900E-07,0.680
1.000E-06,0.560
1.010E-06,0.360
1.020E-06,0.220
1.030E-06,0.080
1.040E-06,-0.120
1.050E-06,-0.240
1.060E-06,-0.420
1.070E-06,-0.620
1.080E-06,-0.640
1.090E-06,-0.740
1.100E-06,-0.680
1.110E-06,-0.560
1.120E-06,-0.440
1.130E-06,-0.260
1.140E-06,-0.160
1.150E-06,-0.220
1.160E-06,0.080
1.170E-06,-0.120
1.180E-06,0.000
1.190E-06,-0.060
1.200E-06,-0.080
1.210E-06,-0.060
1.220E-06,-0.140
1.230E-06,-0.180
1.240E-06,-0.200
1.250E-06,-0.180
1.260E-06,-0.220
1.270E-06,-0.220
1.280E-06,-0.220
1.290E-06,-0.320
1.300E-06,-0.180
1.310E-06,-0.240
1.320E-06,-0.240
1.330E-06,-0.100
1.340E-06,-0.180
1.350E-06,-0.160
1.360E-06,-0.060
1.370E-06,-0.020
1.380E-06,0.060
1.390E-06,0.140
1.400E-06,0.300
1.410E-06,0.340
1.420E-06,0.340
1.430E-06,0.260
1.440E-06,0.480
1.450E-06,0.340
1.460E-06,0.500
1.470E-06,0.500
1.480E-06,0.460
1.490E-06,0.340
1.500E-06,0.240
1.510E-06,0.220
1.520E-06,0.160
1.530E-06,0.200
1.540E-06,0.020
1.550E-06,0.080
1.560E-06,-0.240
1.570E-06,0.080
1.580E-06,-0.240
1.590E-06,0.100
1.600E-06,-0.040
1.610E-06,0.180
1.620E-06,0.160
1.630E-06,0.140
1.640E-06,-0.400
1.650E-06,-0.220
1.660E-06,-0.720
1.670E-06,-0.300
1.680E-06,-0.380
1.690E-06,-0.600
1.700E-06,-0.520
1.710E-06,-1.100
1.720E-06,-0.680
1.730E-06,-1.280
1.740E-06,-0.660
1.750E-06,-0.700
1.760E-06,-0.120
1.770E-06,-0.140
1.780E-06,-0.060
1.790E-06,0.220
1.800E-06,0.180
1.810E-06,0.340
1.820E-06,0.280
1.830E-06,0.440
1.840E-06,0.320
1.850E-06,0.380
1.860E-06,0.400
1.870E-06,0.360
1.880E-06,0.420
1.890E-06,0.440
1.900E-06,0.460
1.910E-06,0.480
1.920E-06,0.560
1.930E-06,0.620
1.940E-06,0.640
1.950E-06,0.640
1.960E-06,0.640
1.970E-06,0.600
1.980E-06,0.500
1.990E-06,0.500
2.000E-06,0.460
2.010E-06,0.420
2.020E-06,0.380
2.030E-06,0.420
2.040E-06,0.460
2.050E-06,0.520
2.060E-06,0.580
2.070E-06,0.660
2.080E-06,0.740
2.090E-06,0.820
2.100E-06,0.820
2.110E-06,0.780
2.120E-06,0.760
2.130E-06,0.740
2.140E-06,0.660
2.150E-06,0.580
2.160E-06,0.520
2.170E-06,0.440
2.180E-06,0.400
2.190E-06,0.380
2.200E-06,0.420
2.210E-06,0.380
2.220E-06,0.420
2.230E-06,0.440
2.240E-06,0.480
2.250E-06,0.540
2.260E-06,0.560
2.270E-06,0.560
2.280E-06,0.540
2.290E-06,0.560
2.300E-06,0.560
2.310E-06,0.580
2.320E-06,0.560
2.330E-06,0.580
2.340E-06,0.600
2.350E-06,0.640
2.360E-06,0.660
2.370E-06,0.640
2.380E-06,0.680
2.390E-06,0.700
2.400E-06,0.680
2.410E-06,0.680
2.420E-06,0.660
2.430E-06,0.620
2.440E-06,0.540
2.450E-06,0.500
2.460E-06,0.440
2.470E-06,0.400
2.480E-06,0.320
2.490E-06,0.300
2.500E-06,0.260
2.510E-06,0.260
2.520E-06,0.280
2.530E-06,0.280
2.540E-06,0.300
2.550E-06,0.300
2.560E-06,0.320
2.570E-06,0.320
2.580E-06,0.340
2.590E-06,0.340
2.600E-06,0.340
2.610E-06,0.340
2.620E-06,0.340
2.630E-06,0.340
2.640E-06,0.340
2.650E-06,0.320
2.660E-06,0.320
2.670E-06,0.340
2.680E-06,0.340
2.690E-06,0.340
2.700E-06,0.360
2.710E-06,0.320
2.720E-06,0.340
2.730E-06,0.320
2.740E-06,0.280
2.750E-06,0.260
2.760E-06,0.240
2.770E-06,0.200
2.780E-06,0.220
2.790E-06,0.180
2.800E-06,0.200
2.810E-06,0.220
2.820E-06,0.220
2.830E-06,0.280
2.840E-06,0.360
2.850E-06,0.440
2.860E-06,0.480
2.870E-06,0.540
2.880E-06,0.600
2.890E-06,0.700
2.900E-06,0.680
2.910E-06,0.660
2.920E-06,0.700
2.930E-06,0.680
2.940E-06,0.580
2.950E-06,0.520
2.960E-06,0.640
2.970E-06,0.480
2.980E-06,0.640
2.990E-06,0.640
3.000E-06,0.780
3.010E-06,0.820
3.020E-06,0.840
3.030E-06,0.880
3.040E-06,0.960
3.050E-06,0.920
3.060E-06,0.920
3.070E-06,0.880
3.080E-06,0.780
3.090E-06,0.660
3.100E-06,0.560
3.110E-06,0.460
3.120E-06,0.440
3.130E-06,0.380
3.140E-06,0.400
3.150E-06,0.400
3.160E-06,0.420
3.170E-06,0.420
3.180E-06,0.360
3.190E-06,0.260
3.200E-06,0.380
3.210E-06,0.160
3.220E-06,0.200
3.230E-06,0.020
3.240E-06,-0.040
3.250E-06,-0.100
3.260E-06,-0.200
3.270E-06,-0.200
3.280E-06,-0.200
3.290E-06,-0.160
3.300E-06,-0.160
3.310E-06,-0.040
3.320E-06,0.000
3.330E-06,0.200
3.340E-06,0.300
