mediciones/curva carac 8-28 limpias/8/WaveData65208.csv

#timebase=2000000(ps)
,#voltbase=100000(mv/100)
#size=4000
-1.140E-05,0.008
-1.139E-05,0.008
-1.138E-05,0.000
-1.137E-05,0.004
-1.136E-05,0.004
-1.135E-05,0.004
-1.134E-05,0.004
-1.133E-05,0.004
-1.132E-05,0.000
-1.131E-05,0.000
-1.130E-05,0.004
-1.129E-05,0.004
-1.128E-05,0.000
-1.127E-05,0.004
-1.126E-05,0.008
-1.125E-05,0.004
-1.124E-05,0.004
-1.123E-05,0.000
-1.122E-05,0.000
-1.121E-05,0.004
-1.120E-05,0.008
-1.119E-05,0.000
-1.118E-05,0.000
-1.117E-05,0.000
-1.116E-05,0.004
-1.115E-05,0.008
-1.114E-05,0.000
-1.113E-05,0.004
-1.112E-05,0.004
-1.111E-05,0.000
-1.110E-05,0.004
-1.109E-05,0.008
-1.108E-05,0.000
-1.107E-05,0.004
-1.106E-05,0.008
-1.105E-05,0.000
-1.104E-05,0.008
-1.103E-05,0.004
-1.102E-05,0.004
-1.101E-05,0.000
-1.100E-05,0.000
-1.099E-05,0.004
-1.098E-05,0.000
-1.097E-05,0.000
-1.096E-05,0.000
-1.095E-05,0.004
-1.094E-05,0.000
-1.093E-05,0.004
-1.092E-05,0.000
-1.091E-05,0.004
-1.090E-05,0.000
-1.089E-05,0.004
-1.088E-05,0.000
-1.087E-05,0.004
-1.086E-05,0.004
-1.085E-05,0.004
-1.084E-05,0.000
-1.083E-05,0.004
-1.082E-05,0.004
-1.081E-05,0.004
-1.080E-05,0.004
-1.079E-05,0.000
-1.078E-05,0.004
-1.077E-05,0.000
-1.076E-05,0.004
-1.075E-05,0.004
-1.074E-05,0.004
-1.073E-05,0.008
-1.072E-05,0.008
-1.071E-05,0.008
-1.070E-05,0.000
-1.069E-05,0.000
-1.068E-05,0.004
-1.067E-05,0.008
-1.066E-05,0.008
-1.065E-05,0.000
-1.064E-05,0.000
-1.063E-05,0.008
-1.062E-05,0.008
-1.061E-05,0.004
-1.060E-05,0.004
-1.059E-05,0.004
-1.058E-05,0.000
-1.057E-05,0.004
-1.056E-05,0.004
-1.055E-05,0.008
-1.054E-05,0.004
-1.053E-05,0.000
-1.052E-05,0.000
-1.051E-05,0.008
-1.050E-05,0.000
-1.049E-05,0.004
-1.048E-05,0.000
-1.047E-05,0.004
-1.046E-05,0.004
-1.045E-05,0.000
-1.044E-05,0.000
-1.043E-05,0.008
-1.042E-05,0.000
-1.041E-05,0.000
-1.040E-05,0.000
-1.039E-05,0.008
-1.038E-05,0.000
-1.037E-05,0.004
-1.036E-05,0.000
-1.035E-05,0.004
-1.034E-05,0.004
-1.033E-05,0.004
-1.032E-05,0.004
-1.031E-05,0.004
-1.030E-05,0.000
-1.029E-05,0.000
-1.028E-05,0.000
-1.027E-05,0.004
-1.026E-05,0.004
-1.025E-05,0.004
-1.024E-05,0.004
-1.023E-05,0.008
-1.022E-05,0.008
-1.021E-05,0.000
-1.020E-05,0.000
-1.019E-05,0.000
-1.018E-05,0.000
-1.017E-05,0.008
-1.016E-05,0.004
-1.015E-05,0.000
-1.014E-05,0.004
-1.013E-05,0.004
-1.012E-05,0.008
-1.011E-05,0.000
-1.010E-05,0.004
-1.009E-05,0.004
-1.008E-05,0.000
-1.007E-05,0.004
-1.006E-05,0.008
-1.005E-05,0.000
-1.004E-05,0.004
-1.003E-05,0.008
-1.002E-05,0.000
-1.001E-05,0.000
-1.000E-05,0.004
-9.990E-06,0.004
-9.980E-06,0.000
-9.970E-06,0.000
-9.960E-06,0.000
-9.950E-06,0.004
-9.940E-06,0.008
-9.930E-06,0.000
-9.920E-06,0.000
-9.910E-06,0.008
-9.900E-06,0.000
-9.890E-06,0.004
-9.880E-06,0.008
-9.870E-06,0.004
-9.860E-06,0.004
-9.850E-06,0.000
-9.840E-06,0.000
-9.830E-06,0.004
-9.820E-06,0.004
-9.810E-06,0.008
-9.800E-06,0.004
-9.790E-06,0.008
-9.780E-06,0.000
-9.770E-06,0.000
-9.760E-06,0.004
-9.750E-06,0.004
-9.740E-06,0.000
-9.730E-06,0.004
-9.720E-06,0.000
-9.710E-06,0.000
-9.700E-06,0.000
-9.690E-06,0.000
-9.680E-06,0.008
-9.670E-06,0.000
-9.660E-06,0.008
-9.650E-06,0.008
-9.640E-06,0.004
-9.630E-06,0.004
-9.620E-06,0.004
-9.610E-06,0.004
-9.600E-06,0.008
-9.590E-06,0.004
-9.580E-06,0.000
-9.570E-06,0.004
-9.560E-06,0.000
-9.550E-06,0.004
-9.540E-06,0.004
-9.530E-06,0.000
-9.520E-06,0.000
-9.510E-06,0.000
-9.500E-06,0.004
-9.490E-06,0.004
-9.480E-06,0.008
-9.470E-06,0.004
-9.460E-06,0.004
-9.450E-06,0.000
-9.440E-06,0.000
-9.430E-06,0.000
-9.420E-06,0.004
-9.410E-06,0.004
-9.400E-06,0.000
-9.390E-06,0.000
-9.380E-06,0.000
-9.370E-06,0.000
-9.360E-06,0.000
-9.350E-06,0.000
-9.340E-06,0.008
-9.330E-06,0.004
-9.320E-06,0.000
-9.310E-06,0.000
-9.300E-06,0.000
-9.290E-06,0.004
-9.280E-06,0.004
-9.270E-06,0.000
-9.260E-06,0.004
-9.250E-06,0.004
-9.240E-06,0.004
-9.230E-06,0.004
-9.220E-06,0.004
-9.210E-06,0.000
-9.200E-06,0.000
-9.190E-06,0.008
-9.180E-06,0.008
-9.170E-06,0.004
-9.160E-06,0.008
-9.150E-06,0.000
-9.140E-06,0.004
-9.130E-06,0.008
-9.120E-06,0.000
-9.110E-06,0.008
-9.100E-06,0.004
-9.090E-06,0.000
-9.080E-06,0.000
-9.070E-06,0.000
-9.060E-06,0.004
-9.050E-06,0.000
-9.040E-06,0.004
-9.030E-06,0.000
-9.020E-06,0.000
-9.010E-06,0.008
-9.000E-06,0.004
-8.990E-06,0.000
-8.980E-06,0.008
-8.970E-06,0.004
-8.960E-06,0.000
-8.950E-06,0.000
-8.940E-06,0.000
-8.930E-06,0.004
-8.920E-06,0.004
-8.910E-06,0.000
-8.900E-06,0.000
-8.890E-06,0.000
-8.880E-06,0.004
-8.870E-06,0.000
-8.860E-06,0.004
-8.850E-06,0.004
-8.840E-06,0.004
-8.830E-06,0.000
-8.820E-06,0.000
-8.810E-06,0.004
-8.800E-06,0.004
-8.790E-06,0.004
-8.780E-06,0.000
-8.770E-06,0.008
-8.760E-06,0.008
-8.750E-06,0.004
-8.740E-06,0.000
-8.730E-06,0.008
-8.720E-06,0.004
-8.710E-06,0.004
-8.700E-06,0.008
-8.690E-06,0.004
-8.680E-06,0.008
-8.670E-06,0.000
-8.660E-06,0.000
-8.650E-06,0.008
-8.640E-06,0.004
-8.630E-06,0.004
-8.620E-06,0.004
-8.610E-06,0.004
-8.600E-06,0.000
-8.590E-06,0.008
-8.580E-06,0.004
-8.570E-06,0.000
-8.560E-06,0.000
-8.550E-06,0.008
-8.540E-06,0.000
-8.530E-06,0.000
-8.520E-06,0.004
-8.510E-06,0.004
-8.500E-06,0.000
-8.490E-06,0.004
-8.480E-06,0.000
-8.470E-06,0.000
-8.460E-06,0.004
-8.450E-06,0.004
-8.440E-06,0.004
-8.430E-06,0.008
-8.420E-06,0.004
-8.410E-06,0.004
-8.400E-06,0.004
-8.390E-06,0.004
-8.380E-06,0.004
-8.370E-06,0.004
-8.360E-06,0.004
-8.350E-06,0.008
-8.340E-06,0.004
-8.330E-06,0.000
-8.320E-06,0.000
-8.310E-06,0.000
-8.300E-06,0.004
-8.290E-06,0.004
-8.280E-06,0.004
-8.270E-06,0.004
-8.260E-06,0.004
-8.250E-06,0.004
-8.240E-06,0.000
-8.230E-06,0.004
-8.220E-06,0.000
-8.210E-06,0.000
-8.200E-06,0.000
-8.190E-06,0.000
-8.180E-06,0.000
-8.170E-06,0.000
-8.160E-06,0.008
-8.150E-06,0.000
-8.140E-06,0.000
-8.130E-06,0.000
-8.120E-06,0.000
-8.110E-06,0.000
-8.100E-06,0.004
-8.090E-06,0.008
-8.080E-06,0.008
-8.070E-06,0.004
-8.060E-06,0.000
-8.050E-06,0.000
-8.040E-06,0.008
-8.030E-06,0.000
-8.020E-06,0.008
-8.010E-06,0.000
-8.000E-06,0.004
-7.990E-06,0.000
-7.980E-06,0.004
-7.970E-06,0.000
-7.960E-06,0.000
-7.950E-06,0.000
-7.940E-06,0.008
-7.930E-06,0.004
-7.920E-06,0.008
-7.910E-06,0.004
-7.900E-06,0.000
-7.890E-06,0.008
-7.880E-06,0.000
-7.870E-06,0.000
-7.860E-06,0.004
-7.850E-06,0.008
-7.840E-06,0.004
-7.830E-06,0.000
-7.820E-06,0.000
-7.810E-06,0.004
-7.800E-06,0.004
-7.790E-06,0.000
-7.780E-06,0.004
-7.770E-06,0.000
-7.760E-06,0.004
-7.750E-06,0.004
-7.740E-06,0.004
-7.730E-06,0.008
-7.720E-06,0.004
-7.710E-06,0.000
-7.700E-06,0.000
-7.690E-06,0.000
-7.680E-06,0.004
-7.670E-06,0.008
-7.660E-06,0.008
-7.650E-06,0.004
-7.640E-06,0.008
-7.630E-06,0.004
-7.620E-06,0.004
-7.610E-06,0.000
-7.600E-06,0.000
-7.590E-06,0.008
-7.580E-06,0.000
-7.570E-06,0.004
-7.560E-06,0.004
-7.550E-06,0.000
-7.540E-06,0.008
-7.530E-06,0.000
-7.520E-06,0.004
-7.510E-06,0.008
-7.500E-06,0.000
-7.490E-06,0.008
-7.480E-06,0.008
-7.470E-06,0.000
-7.460E-06,0.000
-7.450E-06,0.000
-7.440E-06,0.008
-7.430E-06,0.000
-7.420E-06,0.000
-7.410E-06,0.000
-7.400E-06,0.004
-7.390E-06,0.000
-7.380E-06,0.004
-7.370E-06,0.004
-7.360E-06,0.004
-7.350E-06,0.008
-7.340E-06,0.004
-7.330E-06,0.008
-7.320E-06,0.004
-7.310E-06,0.004
-7.300E-06,0.004
-7.290E-06,0.004
-7.280E-06,0.000
-7.270E-06,0.008
-7.260E-06,0.004
-7.250E-06,0.004
-7.240E-06,0.000
-7.230E-06,0.000
-7.220E-06,0.000
-7.210E-06,0.000
-7.200E-06,0.000
-7.190E-06,0.004
-7.180E-06,0.008
-7.170E-06,0.000
-7.160E-06,0.008
-7.150E-06,0.000
-7.140E-06,0.000
-7.130E-06,0.000
-7.120E-06,0.000
-7.110E-06,0.004
-7.100E-06,0.004
-7.090E-06,0.004
-7.080E-06,0.008
-7.070E-06,0.004
-7.060E-06,0.000
-7.050E-06,0.000
-7.040E-06,0.004
-7.030E-06,0.008
-7.020E-06,0.000
-7.010E-06,0.004
-7.000E-06,0.008
-6.990E-06,0.008
-6.980E-06,0.004
-6.970E-06,0.004
-6.960E-06,0.000
-6.950E-06,0.000
-6.940E-06,0.008
-6.930E-06,0.004
-6.920E-06,0.004
-6.910E-06,0.004
-6.900E-06,0.000
-6.890E-06,0.004
-6.880E-06,0.008
-6.870E-06,0.004
-6.860E-06,0.000
-6.850E-06,0.000
-6.840E-06,0.004
-6.830E-06,0.008
-6.820E-06,0.000
-6.810E-06,0.004
-6.800E-06,0.004
-6.790E-06,0.004
-6.780E-06,0.000
-6.770E-06,0.000
-6.760E-06,0.000
-6.750E-06,0.004
-6.740E-06,0.000
-6.730E-06,0.000
-6.720E-06,0.000
-6.710E-06,0.004
-6.700E-06,0.004
-6.690E-06,0.000
-6.680E-06,0.000
-6.670E-06,0.000
-6.660E-06,0.000
-6.650E-06,0.008
-6.640E-06,0.004
-6.630E-06,0.004
-6.620E-06,0.000
-6.610E-06,0.008
-6.600E-06,0.000
-6.590E-06,0.004
-6.580E-06,0.000
-6.570E-06,0.004
-6.560E-06,0.008
-6.550E-06,0.004
-6.540E-06,0.004
-6.530E-06,0.000
-6.520E-06,0.008
-6.510E-06,0.000
-6.500E-06,0.004
-6.490E-06,0.000
-6.480E-06,0.000
-6.470E-06,0.000
-6.460E-06,0.000
-6.450E-06,0.004
-6.440E-06,0.004
-6.430E-06,0.008
-6.420E-06,0.004
-6.410E-06,0.000
-6.400E-06,0.004
-6.390E-06,0.004
-6.380E-06,0.000
-6.370E-06,0.004
-6.360E-06,0.004
-6.350E-06,0.004
-6.340E-06,0.004
-6.330E-06,0.004
-6.320E-06,0.000
-6.310E-06,0.000
-6.300E-06,0.008
-6.290E-06,0.008
-6.280E-06,0.000
-6.270E-06,0.000
-6.260E-06,0.004
-6.250E-06,0.000
-6.240E-06,0.000
-6.230E-06,0.000
-6.220E-06,0.000
-6.210E-06,0.000
-6.200E-06,0.000
-6.190E-06,0.004
-6.180E-06,0.000
-6.170E-06,0.000
-6.160E-06,0.004
-6.150E-06,0.004
-6.140E-06,0.000
-6.130E-06,0.000
-6.120E-06,0.008
-6.110E-06,0.000
-6.100E-06,0.000
-6.090E-06,0.008
-6.080E-06,0.008
-6.070E-06,0.004
-6.060E-06,0.000
-6.050E-06,0.000
-6.040E-06,0.008
-6.030E-06,0.000
-6.020E-06,0.004
-6.010E-06,0.004
-6.000E-06,0.004
-5.990E-06,0.004
-5.980E-06,0.000
-5.970E-06,0.000
-5.960E-06,0.004
-5.950E-06,0.004
-5.940E-06,0.004
-5.930E-06,0.004
-5.920E-06,0.000
-5.910E-06,0.008
-5.900E-06,0.004
-5.890E-06,0.000
-5.880E-06,0.000
-5.870E-06,0.000
-5.860E-06,0.004
-5.850E-06,0.000
-5.840E-06,0.004
-5.830E-06,0.004
-5.820E-06,0.004
-5.810E-06,0.004
-5.800E-06,0.004
-5.790E-06,0.000
-5.780E-06,0.000
-5.770E-06,0.008
-5.760E-06,0.008
-5.750E-06,0.004
-5.740E-06,0.000
-5.730E-06,0.000
-5.720E-06,0.004
-5.710E-06,0.000
-5.700E-06,0.000
-5.690E-06,0.008
-5.680E-06,0.008
-5.670E-06,0.000
-5.660E-06,0.000
-5.650E-06,0.008
-5.640E-06,0.004
-5.630E-06,0.000
-5.620E-06,0.004
-5.610E-06,0.008
-5.600E-06,0.000
-5.590E-06,0.004
-5.580E-06,0.004
-5.570E-06,0.004
-5.560E-06,0.008
-5.550E-06,0.000
-5.540E-06,0.008
-5.530E-06,0.004
-5.520E-06,0.008
-5.510E-06,0.000
-5.500E-06,0.004
-5.490E-06,0.008
-5.480E-06,0.000
-5.470E-06,0.000
-5.460E-06,0.000
-5.450E-06,0.004
-5.440E-06,0.000
-5.430E-06,0.008
-5.420E-06,0.000
-5.410E-06,0.000
-5.400E-06,0.004
-5.390E-06,0.000
-5.380E-06,0.000
-5.370E-06,0.000
-5.360E-06,0.004
-5.350E-06,0.004
-5.340E-06,0.008
-5.330E-06,0.004
-5.320E-06,0.000
-5.310E-06,0.000
-5.300E-06,0.008
-5.290E-06,0.008
-5.280E-06,0.008
-5.270E-06,0.000
-5.260E-06,0.004
-5.250E-06,0.004
-5.240E-06,0.004
-5.230E-06,0.000
-5.220E-06,0.000
-5.210E-06,0.000
-5.200E-06,0.004
-5.190E-06,0.000
-5.180E-06,0.000
-5.170E-06,0.000
-5.160E-06,0.000
-5.150E-06,0.008
-5.140E-06,0.008
-5.130E-06,0.000
-5.120E-06,0.004
-5.110E-06,0.000
-5.100E-06,0.000
-5.090E-06,0.000
-5.080E-06,0.000
-5.070E-06,0.000
-5.060E-06,0.004
-5.050E-06,0.000
-5.040E-06,0.004
-5.030E-06,0.008
-5.020E-06,0.000
-5.010E-06,0.008
-5.000E-06,0.008
-4.990E-06,0.000
-4.980E-06,0.000
-4.970E-06,0.004
-4.960E-06,0.000
-4.950E-06,0.004
-4.940E-06,0.000
-4.930E-06,0.000
-4.920E-06,0.000
-4.910E-06,0.000
-4.900E-06,0.000
-4.890E-06,0.000
-4.880E-06,0.004
-4.870E-06,0.008
-4.860E-06,0.004
-4.850E-06,0.004
-4.840E-06,0.004
-4.830E-06,0.004
-4.820E-06,0.008
-4.810E-06,0.000
-4.800E-06,0.008
-4.790E-06,0.004
-4.780E-06,0.000
-4.770E-06,0.000
-4.760E-06,0.004
-4.750E-06,0.004
-4.740E-06,0.000
-4.730E-06,0.004
-4.720E-06,0.000
-4.710E-06,0.000
-4.700E-06,0.008
-4.690E-06,0.004
-4.680E-06,0.000
-4.670E-06,0.000
-4.660E-06,0.000
-4.650E-06,0.004
-4.640E-06,0.004
-4.630E-06,0.000
-4.620E-06,0.000
-4.610E-06,0.000
-4.600E-06,0.008
-4.590E-06,0.004
-4.580E-06,0.000
-4.570E-06,0.000
-4.560E-06,0.008
-4.550E-06,0.000
-4.540E-06,0.000
-4.530E-06,0.008
-4.520E-06,0.008
-4.510E-06,0.004
-4.500E-06,0.000
-4.490E-06,0.004
-4.480E-06,0.008
-4.470E-06,0.004
-4.460E-06,0.004
-4.450E-06,0.004
-4.440E-06,0.000
-4.430E-06,0.004
-4.420E-06,0.008
-4.410E-06,0.000
-4.400E-06,0.000
-4.390E-06,0.000
-4.380E-06,0.000
-4.370E-06,0.000
-4.360E-06,0.004
-4.350E-06,0.004
-4.340E-06,0.004
-4.330E-06,0.004
-4.320E-06,0.000
-4.310E-06,0.000
-4.300E-06,0.000
-4.290E-06,0.000
-4.280E-06,0.008
-4.270E-06,0.008
-4.260E-06,0.000
-4.250E-06,0.000
-4.240E-06,0.000
-4.230E-06,0.000
-4.220E-06,0.008
-4.210E-06,0.008
-4.200E-06,0.004
-4.190E-06,0.000
-4.180E-06,0.004
-4.170E-06,0.004
-4.160E-06,0.008
-4.150E-06,0.008
-4.140E-06,0.000
-4.130E-06,0.000
-4.120E-06,0.004
-4.110E-06,0.004
-4.100E-06,0.004
-4.090E-06,0.008
-4.080E-06,0.004
-4.070E-06,0.000
-4.060E-06,0.000
-4.050E-06,0.004
-4.040E-06,0.008
-4.030E-06,0.000
-4.020E-06,0.004
-4.010E-06,0.004
-4.000E-06,0.004
-3.990E-06,0.000
-3.980E-06,0.004
-3.970E-06,0.004
-3.960E-06,0.008
-3.950E-06,0.000
-3.940E-06,0.004
-3.930E-06,0.004
-3.920E-06,0.000
-3.910E-06,0.000
-3.900E-06,0.000
-3.890E-06,0.000
-3.880E-06,0.008
-3.870E-06,0.000
-3.860E-06,0.000
-3.850E-06,0.000
-3.840E-06,0.004
-3.830E-06,0.000
-3.820E-06,0.000
-3.810E-06,0.008
-3.800E-06,0.008
-3.790E-06,0.004
-3.780E-06,0.004
-3.770E-06,0.000
-3.760E-06,0.000
-3.750E-06,0.004
-3.740E-06,0.004
-3.730E-06,0.004
-3.720E-06,0.004
-3.710E-06,0.004
-3.700E-06,0.008
-3.690E-06,0.000
-3.680E-06,0.008
-3.670E-06,0.000
-3.660E-06,0.004
-3.650E-06,0.004
-3.640E-06,0.004
-3.630E-06,0.000
-3.620E-06,0.000
-3.610E-06,0.000
-3.600E-06,0.000
-3.590E-06,0.004
-3.580E-06,0.000
-3.570E-06,0.000
-3.560E-06,0.000
-3.550E-06,0.000
-3.540E-06,0.008
-3.530E-06,0.008
-3.520E-06,0.004
-3.510E-06,0.004
-3.500E-06,0.000
-3.490E-06,0.000
-3.480E-06,0.000
-3.470E-06,0.004
-3.460E-06,0.004
-3.450E-06,0.016
-3.440E-06,0.032
-3.430E-06,0.044
-3.420E-06,0.052
-3.410E-06,0.028
-3.400E-06,-0.004
-3.390E-06,-0.068
-3.380E-06,-0.056
-3.370E-06,-0.080
-3.360E-06,-0.004
-3.350E-06,0.008
-3.340E-06,0.120
-3.330E-06,0.096
-3.320E-06,0.052
-3.310E-06,-0.024
-3.300E-06,-0.072
-3.290E-06,-0.068
-3.280E-06,-0.024
-3.270E-06,0.064
-3.260E-06,0.088
-3.250E-06,0.064
-3.240E-06,0.008
-3.230E-06,-0.040
-3.220E-06,-0.072
-3.210E-06,-0.064
-3.200E-06,-0.032
-3.190E-06,0.020
-3.180E-06,0.084
-3.170E-06,0.088
-3.160E-06,0.068
-3.150E-06,0.012
-3.140E-06,-0.024
-3.130E-06,-0.048
-3.120E-06,-0.032
-3.110E-06,-0.008
-3.100E-06,0.032
-3.090E-06,0.036
-3.080E-06,0.024
-3.070E-06,-0.004
-3.060E-06,-0.032
-3.050E-06,-0.048
-3.040E-06,-0.036
-3.030E-06,-0.004
-3.020E-06,0.028
-3.010E-06,0.048
-3.000E-06,0.044
-2.990E-06,0.028
-2.980E-06,0.008
-2.970E-06,-0.020
-2.960E-06,-0.024
-2.950E-06,-0.016
-2.940E-06,0.012
-2.930E-06,0.016
-2.920E-06,0.020
-2.910E-06,0.016
-2.900E-06,-0.004
-2.890E-06,0.000
-2.880E-06,-0.020
-2.870E-06,0.000
-2.860E-06,0.008
-2.850E-06,0.024
-2.840E-06,0.024
-2.830E-06,0.028
-2.820E-06,0.020
-2.810E-06,0.008
-2.800E-06,0.004
-2.790E-06,-0.004
-2.780E-06,0.000
-2.770E-06,0.008
-2.760E-06,0.004
-2.750E-06,0.012
-2.740E-06,-0.016
-2.730E-06,-0.008
-2.720E-06,-0.008
-2.710E-06,-0.004
-2.700E-06,-0.004
-2.690E-06,0.016
-2.680E-06,0.020
-2.670E-06,0.020
-2.660E-06,0.004
-2.650E-06,0.000
-2.640E-06,0.008
-2.630E-06,0.012
-2.620E-06,0.032
-2.610E-06,0.020
-2.600E-06,0.028
-2.590E-06,-0.004
-2.580E-06,-0.020
-2.570E-06,-0.032
-2.560E-06,-0.036
-2.550E-06,0.008
-2.540E-06,0.020
-2.530E-06,0.064
-2.520E-06,0.028
-2.510E-06,0.032
-2.500E-06,0.000
-2.490E-06,-0.016
-2.480E-06,-0.020
-2.470E-06,-0.012
-2.460E-06,0.020
-2.450E-06,0.024
-2.440E-06,0.028
-2.430E-06,-0.012
-2.420E-06,-0.016
-2.410E-06,-0.024
-2.400E-06,-0.012
-2.390E-06,-0.004
-2.380E-06,0.020
-2.370E-06,0.032
-2.360E-06,0.024
-2.350E-06,0.032
-2.340E-06,0.004
-2.330E-06,0.008
-2.320E-06,-0.028
-2.310E-06,0.008
-2.300E-06,-0.016
-2.290E-06,0.008
-2.280E-06,0.000
-2.270E-06,-0.008
-2.260E-06,0.004
-2.250E-06,-0.004
-2.240E-06,0.000
-2.230E-06,0.000
-2.220E-06,0.016
-2.210E-06,0.020
-2.200E-06,0.032
-2.190E-06,0.032
-2.180E-06,0.036
-2.170E-06,-0.012
-2.160E-06,-0.028
-2.150E-06,-0.036
-2.140E-06,-0.032
-2.130E-06,-0.008
-2.120E-06,0.016
-2.110E-06,0.028
-2.100E-06,0.016
-2.090E-06,0.016
-2.080E-06,-0.008
-2.070E-06,-0.008
-2.060E-06,-0.016
-2.050E-06,0.024
-2.040E-06,0.032
-2.030E-06,0.076
-2.020E-06,0.064
-2.010E-06,0.076
-2.000E-06,-0.048
-1.990E-06,-0.040
-1.980E-06,-0.084
-1.970E-06,-0.036
-1.960E-06,0.000
-1.950E-06,0.056
-1.940E-06,0.084
-1.930E-06,0.052
-1.920E-06,0.020
-1.910E-06,-0.060
-1.900E-06,-0.060
-1.890E-06,-0.040
-1.880E-06,0.000
-1.870E-06,0.040
-1.860E-06,0.060
-1.850E-06,0.068
-1.840E-06,0.072
-1.830E-06,0.036
-1.820E-06,0.028
-1.810E-06,-0.004
-1.800E-06,-0.020
-1.790E-06,0.004
-1.780E-06,-0.024
-1.770E-06,-0.004
-1.760E-06,0.000
-1.750E-06,-0.008
-1.740E-06,-0.020
-1.730E-06,-0.012
-1.720E-06,0.028
-1.710E-06,0.004
-1.700E-06,0.032
-1.690E-06,-0.016
-1.680E-06,-0.012
-1.670E-06,-0.040
-1.660E-06,-0.032
-1.650E-06,-0.028
-1.640E-06,-0.020
-1.630E-06,0.020
-1.620E-06,0.048
-1.610E-06,0.052
-1.600E-06,0.032
-1.590E-06,-0.008
-1.580E-06,-0.028
-1.570E-06,0.000
-1.560E-06,0.028
-1.550E-06,0.056
-1.540E-06,0.072
-1.530E-06,0.056
-1.520E-06,0.020
-1.510E-06,-0.016
-1.500E-06,-0.052
-1.490E-06,-0.020
-1.480E-06,0.032
-1.470E-06,0.092
-1.460E-06,0.112
-1.450E-06,0.084
-1.440E-06,0.028
-1.430E-06,-0.016
-1.420E-06,-0.016
-1.410E-06,0.016
-1.400E-06,0.100
-1.390E-06,0.116
-1.380E-06,0.100
-1.370E-06,0.028
-1.360E-06,-0.068
-1.350E-06,-0.072
-1.340E-06,-0.040
-1.330E-06,-0.024
-1.320E-06,-0.016
-1.310E-06,-0.064
-1.300E-06,-0.060
-1.290E-06,-0.104
-1.280E-06,-0.020
-1.270E-06,0.016
-1.260E-06,0.044
-1.250E-06,0.056
-1.240E-06,0.028
-1.230E-06,0.004
-1.220E-06,-0.044
-1.210E-06,-0.040
-1.200E-06,-0.032
-1.190E-06,0.000
-1.180E-06,0.040
-1.170E-06,0.040
-1.160E-06,0.032
-1.150E-06,-0.004
-1.140E-06,-0.012
-1.130E-06,-0.028
-1.120E-06,-0.008
-1.110E-06,0.020
-1.100E-06,0.044
-1.090E-06,0.044
-1.080E-06,0.044
-1.070E-06,0.032
-1.060E-06,0.016
-1.050E-06,0.024
-1.040E-06,0.032
-1.030E-06,0.064
-1.020E-06,0.080
-1.010E-06,0.096
-1.000E-06,0.100
-9.900E-07,0.068
-9.800E-07,0.064
-9.700E-07,-0.024
-9.600E-07,-0.072
-9.500E-07,-0.164
-9.400E-07,-0.160
-9.300E-07,-0.112
-9.200E-07,-0.032
-9.100E-07,0.052
-9.000E-07,0.096
-8.900E-07,0.088
-8.800E-07,0.032
-8.700E-07,-0.036
-8.600E-07,-0.072
-8.500E-07,-0.060
-8.400E-07,-0.016
-8.300E-07,0.040
-8.200E-07,0.080
-8.100E-07,0.100
-8.000E-07,0.080
-7.900E-07,0.036
-7.800E-07,-0.016
-7.700E-07,-0.028
-7.600E-07,-0.020
-7.500E-07,0.032
-7.400E-07,0.072
-7.300E-07,0.080
-7.200E-07,0.072
-7.100E-07,0.020
-7.000E-07,-0.004
-6.900E-07,-0.024
-6.800E-07,-0.008
-6.700E-07,0.016
-6.600E-07,0.020
-6.500E-07,0.048
-6.400E-07,0.044
-6.300E-07,0.044
-6.200E-07,0.048
-6.100E-07,0.060
-6.000E-07,0.092
-5.900E-07,0.072
-5.800E-07,0.064
-5.700E-07,0.048
-5.600E-07,0.004
-5.500E-07,-0.040
-5.400E-07,-0.096
-5.300E-07,-0.100
-5.200E-07,-0.108
-5.100E-07,-0.068
-5.000E-07,-0.020
-4.900E-07,0.024
-4.800E-07,0.048
-4.700E-07,0.016
-4.600E-07,0.000
-4.500E-07,-0.032
-4.400E-07,-0.024
-4.300E-07,0.008
-4.200E-07,0.044
-4.100E-07,0.076
-4.000E-07,0.080
-3.900E-07,0.100
-3.800E-07,0.100
-3.700E-07,0.096
-3.600E-07,0.096
-3.500E-07,0.096
-3.400E-07,0.092
-3.300E-07,0.076
-3.200E-07,0.080
-3.100E-07,0.084
-3.000E-07,0.092
-2.900E-07,0.104
-2.800E-07,0.112
-2.700E-07,0.108
-2.600E-07,0.096
-2.500E-07,0.080
-2.400E-07,0.052
-2.300E-07,0.084
-2.200E-07,0.076
-2.100E-07,0.112
-2.000E-07,0.128
-1.900E-07,0.136
-1.800E-07,0.112
-1.700E-07,0.068
-1.600E-07,0.080
-1.500E-07,0.040
-1.400E-07,0.092
-1.300E-07,0.064
-1.200E-07,0.084
-1.100E-07,0.076
-1.000E-07,0.100
-9.000E-08,0.104
-8.000E-08,0.032
-7.000E-08,0.024
-6.000E-08,-0.020
-5.000E-08,-0.008
-4.000E-08,0.032
-3.000E-08,0.124
-2.000E-08,0.200
-1.000E-08,0.228
0.000E+00,0.212
1.000E-08,0.064
2.000E-08,0.024
3.000E-08,-0.192
4.000E-08,-0.284
5.000E-08,-0.268
6.000E-08,0.016
7.000E-08,0.332
8.000E-08,0.544
9.000E-08,0.560
1.000E-07,0.256
1.100E-07,-0.136
1.200E-07,-0.388
1.300E-07,-0.376
1.400E-07,-0.184
1.500E-07,0.168
1.600E-07,0.008
1.700E-07,-0.408
1.800E-07,-0.408
1.900E-07,-0.408
2.000E-07,-0.408
2.100E-07,0.412
2.200E-07,0.644
2.300E-07,0.644
2.400E-07,0.300
2.500E-07,-0.048
