mediciones/8-28/-8/WaveData65664.csv

#timebase=2000000(ps)
,#voltbase=500000(mv/100)
#size=4000
-8.350E-06,0.040
-8.340E-06,0.080
-8.330E-06,0.060
-8.320E-06,0.060
-8.310E-06,0.060
-8.300E-06,0.020
-8.290E-06,0.040
-8.280E-06,0.040
-8.270E-06,0.060
-8.260E-06,0.020
-8.250E-06,0.060
-8.240E-06,0.060
-8.230E-06,0.020
-8.220E-06,0.020
-8.210E-06,0.020
-8.200E-06,0.060
-8.190E-06,0.020
-8.180E-06,0.040
-8.170E-06,0.080
-8.160E-06,0.040
-8.150E-06,0.040
-8.140E-06,0.020
-8.130E-06,0.020
-8.120E-06,0.000
-8.110E-06,0.000
-8.100E-06,0.020
-8.090E-06,0.040
-8.080E-06,0.080
-8.070E-06,0.020
-8.060E-06,0.020
-8.050E-06,0.060
-8.040E-06,0.040
-8.030E-06,0.060
-8.020E-06,0.040
-8.010E-06,0.080
-8.000E-06,0.020
-7.990E-06,0.040
-7.980E-06,0.060
-7.970E-06,0.020
-7.960E-06,0.020
-7.950E-06,0.060
-7.940E-06,0.020
-7.930E-06,0.040
-7.920E-06,0.060
-7.910E-06,0.000
-7.900E-06,0.080
-7.890E-06,0.020
-7.880E-06,0.040
-7.870E-06,0.060
-7.860E-06,0.040
-7.850E-06,0.080
-7.840E-06,0.040
-7.830E-06,0.020
-7.820E-06,0.040
-7.810E-06,0.000
-7.800E-06,0.060
-7.790E-06,0.060
-7.780E-06,0.040
-7.770E-06,0.040
-7.760E-06,0.060
-7.750E-06,0.020
-7.740E-06,0.020
-7.730E-06,0.040
-7.720E-06,0.040
-7.710E-06,0.060
-7.700E-06,0.020
-7.690E-06,0.020
-7.680E-06,0.040
-7.670E-06,0.020
-7.660E-06,0.060
-7.650E-06,0.020
-7.640E-06,0.040
-7.630E-06,0.060
-7.620E-06,0.060
-7.610E-06,0.020
-7.600E-06,0.020
-7.590E-06,0.060
-7.580E-06,0.000
-7.570E-06,0.000
-7.560E-06,0.040
-7.550E-06,0.000
-7.540E-06,0.020
-7.530E-06,0.040
-7.520E-06,0.020
-7.510E-06,0.060
-7.500E-06,0.020
-7.490E-06,0.020
-7.480E-06,0.000
-7.470E-06,0.040
-7.460E-06,0.040
-7.450E-06,0.040
-7.440E-06,0.040
-7.430E-06,0.040
-7.420E-06,0.060
-7.410E-06,0.020
-7.400E-06,0.020
-7.390E-06,0.060
-7.380E-06,0.020
-7.370E-06,0.040
-7.360E-06,0.060
-7.350E-06,0.080
-7.340E-06,0.080
-7.330E-06,0.060
-7.320E-06,0.040
-7.310E-06,0.020
-7.300E-06,0.060
-7.290E-06,0.060
-7.280E-06,0.020
-7.270E-06,0.060
-7.260E-06,0.080
-7.250E-06,0.060
-7.240E-06,0.040
-7.230E-06,0.080
-7.220E-06,0.020
-7.210E-06,0.020
-7.200E-06,0.060
-7.190E-06,0.020
-7.180E-06,0.060
-7.170E-06,0.060
-7.160E-06,-0.020
-7.150E-06,0.060
-7.140E-06,0.040
-7.130E-06,0.040
-7.120E-06,0.040
-7.110E-06,0.060
-7.100E-06,0.060
-7.090E-06,0.040
-7.080E-06,0.040
-7.070E-06,0.020
-7.060E-06,0.020
-7.050E-06,0.020
-7.040E-06,0.020
-7.030E-06,0.020
-7.020E-06,0.060
-7.010E-06,0.020
-7.000E-06,0.020
-6.990E-06,0.020
-6.980E-06,0.060
-6.970E-06,0.060
-6.960E-06,0.040
-6.950E-06,0.020
-6.940E-06,0.040
-6.930E-06,0.020
-6.920E-06,0.040
-6.910E-06,0.020
-6.900E-06,0.040
-6.890E-06,0.000
-6.880E-06,0.020
-6.870E-06,0.040
-6.860E-06,0.040
-6.850E-06,0.040
-6.840E-06,0.060
-6.830E-06,0.040
-6.820E-06,-0.020
-6.810E-06,0.040
-6.800E-06,0.020
-6.790E-06,0.040
-6.780E-06,0.040
-6.770E-06,0.000
-6.760E-06,0.040
-6.750E-06,0.060
-6.740E-06,0.060
-6.730E-06,0.040
-6.720E-06,0.060
-6.710E-06,0.020
-6.700E-06,0.060
-6.690E-06,0.060
-6.680E-06,0.060
-6.670E-06,0.080
-6.660E-06,0.060
-6.650E-06,0.060
-6.640E-06,0.020
-6.630E-06,0.040
-6.620E-06,0.020
-6.610E-06,0.040
-6.600E-06,0.080
-6.590E-06,0.080
-6.580E-06,0.020
-6.570E-06,0.040
-6.560E-06,0.060
-6.550E-06,0.040
-6.540E-06,0.020
-6.530E-06,0.040
-6.520E-06,0.060
-6.510E-06,0.040
-6.500E-06,0.020
-6.490E-06,0.040
-6.480E-06,0.020
-6.470E-06,0.040
-6.460E-06,0.060
-6.450E-06,0.060
-6.440E-06,0.040
-6.430E-06,0.020
-6.420E-06,0.040
-6.410E-06,0.040
-6.400E-06,0.060
-6.390E-06,0.060
-6.380E-06,0.020
-6.370E-06,0.020
-6.360E-06,0.040
-6.350E-06,0.040
-6.340E-06,0.020
-6.330E-06,0.040
-6.320E-06,0.060
-6.310E-06,0.020
-6.300E-06,0.040
-6.290E-06,0.000
-6.280E-06,0.000
-6.270E-06,0.040
-6.260E-06,0.060
-6.250E-06,0.040
-6.240E-06,0.040
-6.230E-06,0.060
-6.220E-06,0.040
-6.210E-06,0.060
-6.200E-06,0.020
-6.190E-06,0.000
-6.180E-06,0.040
-6.170E-06,0.040
-6.160E-06,0.020
-6.150E-06,0.000
-6.140E-06,0.020
-6.130E-06,0.040
-6.120E-06,0.040
-6.110E-06,0.040
-6.100E-06,0.020
-6.090E-06,0.040
-6.080E-06,0.000
-6.070E-06,0.040
-6.060E-06,0.060
-6.050E-06,0.060
-6.040E-06,0.080
-6.030E-06,0.040
-6.020E-06,0.020
-6.010E-06,0.020
-6.000E-06,0.080
-5.990E-06,0.040
-5.980E-06,0.020
-5.970E-06,0.040
-5.960E-06,0.060
-5.950E-06,0.020
-5.940E-06,0.040
-5.930E-06,0.060
-5.920E-06,0.040
-5.910E-06,0.020
-5.900E-06,0.060
-5.890E-06,0.060
-5.880E-06,0.020
-5.870E-06,0.060
-5.860E-06,0.020
-5.850E-06,0.060
-5.840E-06,0.080
-5.830E-06,0.040
-5.820E-06,0.020
-5.810E-06,0.040
-5.800E-06,0.000
-5.790E-06,0.040
-5.780E-06,0.020
-5.770E-06,0.060
-5.760E-06,0.040
-5.750E-06,0.060
-5.740E-06,0.060
-5.730E-06,0.040
-5.720E-06,0.040
-5.710E-06,0.080
-5.700E-06,0.020
-5.690E-06,0.060
-5.680E-06,0.060
-5.670E-06,0.060
-5.660E-06,0.020
-5.650E-06,0.040
-5.640E-06,0.040
-5.630E-06,0.040
-5.620E-06,0.020
-5.610E-06,0.040
-5.600E-06,0.040
-5.590E-06,0.020
-5.580E-06,0.040
-5.570E-06,0.060
-5.560E-06,0.060
-5.550E-06,0.060
-5.540E-06,0.060
-5.530E-06,0.000
-5.520E-06,0.020
-5.510E-06,0.040
-5.500E-06,0.040
-5.490E-06,0.040
-5.480E-06,0.080
-5.470E-06,0.040
-5.460E-06,0.000
-5.450E-06,0.020
-5.440E-06,0.040
-5.430E-06,0.020
-5.420E-06,0.040
-5.410E-06,0.040
-5.400E-06,0.000
-5.390E-06,0.060
-5.380E-06,0.040
-5.370E-06,0.040
-5.360E-06,0.020
-5.350E-06,0.040
-5.340E-06,0.060
-5.330E-06,0.020
-5.320E-06,0.020
-5.310E-06,0.040
-5.300E-06,0.060
-5.290E-06,0.040
-5.280E-06,0.040
-5.270E-06,0.020
-5.260E-06,0.000
-5.250E-06,0.060
-5.240E-06,0.020
-5.230E-06,0.020
-5.220E-06,0.020
-5.210E-06,0.060
-5.200E-06,0.060
-5.190E-06,0.080
-5.180E-06,0.040
-5.170E-06,0.020
-5.160E-06,0.040
-5.150E-06,0.040
-5.140E-06,0.020
-5.130E-06,0.040
-5.120E-06,0.040
-5.110E-06,0.020
-5.100E-06,0.060
-5.090E-06,0.040
-5.080E-06,0.060
-5.070E-06,0.060
-5.060E-06,0.020
-5.050E-06,0.040
-5.040E-06,0.060
-5.030E-06,0.060
-5.020E-06,0.040
-5.010E-06,0.040
-5.000E-06,0.080
-4.990E-06,0.060
-4.980E-06,0.040
-4.970E-06,0.040
-4.960E-06,0.060
-4.950E-06,0.060
-4.940E-06,0.020
-4.930E-06,0.040
-4.920E-06,0.060
-4.910E-06,0.040
-4.900E-06,0.020
-4.890E-06,0.040
-4.880E-06,0.060
-4.870E-06,0.080
-4.860E-06,0.060
-4.850E-06,0.060
-4.840E-06,0.020
-4.830E-06,0.020
-4.820E-06,0.040
-4.810E-06,0.040
-4.800E-06,0.060
-4.790E-06,0.040
-4.780E-06,0.020
-4.770E-06,0.040
-4.760E-06,0.060
-4.750E-06,0.060
-4.740E-06,0.040
-4.730E-06,0.020
-4.720E-06,0.040
-4.710E-06,0.040
-4.700E-06,0.040
-4.690E-06,0.020
-4.680E-06,0.040
-4.670E-06,0.020
-4.660E-06,0.040
-4.650E-06,0.060
-4.640E-06,0.040
-4.630E-06,0.000
-4.620E-06,0.060
-4.610E-06,0.020
-4.600E-06,0.020
-4.590E-06,0.020
-4.580E-06,0.000
-4.570E-06,0.040
-4.560E-06,0.040
-4.550E-06,0.040
-4.540E-06,0.040
-4.530E-06,0.080
-4.520E-06,0.020
-4.510E-06,0.060
-4.500E-06,0.020
-4.490E-06,0.040
-4.480E-06,0.040
-4.470E-06,0.000
-4.460E-06,0.020
-4.450E-06,0.060
-4.440E-06,0.020
-4.430E-06,0.020
-4.420E-06,0.060
-4.410E-06,0.040
-4.400E-06,0.060
-4.390E-06,0.040
-4.380E-06,0.000
-4.370E-06,0.040
-4.360E-06,0.020
-4.350E-06,0.040
-4.340E-06,0.040
-4.330E-06,0.040
-4.320E-06,0.040
-4.310E-06,0.020
-4.300E-06,0.060
-4.290E-06,0.040
-4.280E-06,0.040
-4.270E-06,0.040
-4.260E-06,0.020
-4.250E-06,0.020
-4.240E-06,0.000
-4.230E-06,0.060
-4.220E-06,0.040
-4.210E-06,0.060
-4.200E-06,0.020
-4.190E-06,0.020
-4.180E-06,0.040
-4.170E-06,0.020
-4.160E-06,0.060
-4.150E-06,0.040
-4.140E-06,0.040
-4.130E-06,0.020
-4.120E-06,0.040
-4.110E-06,0.040
-4.100E-06,0.040
-4.090E-06,0.040
-4.080E-06,0.040
-4.070E-06,0.040
-4.060E-06,0.060
-4.050E-06,0.040
-4.040E-06,0.000
-4.030E-06,0.020
-4.020E-06,0.040
-4.010E-06,0.060
-4.000E-06,0.060
-3.990E-06,0.020
-3.980E-06,0.040
-3.970E-06,0.020
-3.960E-06,0.000
-3.950E-06,0.060
-3.940E-06,0.060
-3.930E-06,0.040
-3.920E-06,0.020
-3.910E-06,0.020
-3.900E-06,0.060
-3.890E-06,0.040
-3.880E-06,0.020
-3.870E-06,0.060
-3.860E-06,0.060
-3.850E-06,0.040
-3.840E-06,0.020
-3.830E-06,0.040
-3.820E-06,0.060
-3.810E-06,0.040
-3.800E-06,0.020
-3.790E-06,0.040
-3.780E-06,0.020
-3.770E-06,0.040
-3.760E-06,0.020
-3.750E-06,0.060
-3.740E-06,0.060
-3.730E-06,0.020
-3.720E-06,0.060
-3.710E-06,0.040
-3.700E-06,0.080
-3.690E-06,0.040
-3.680E-06,0.060
-3.670E-06,0.040
-3.660E-06,0.040
-3.650E-06,0.060
-3.640E-06,0.060
-3.630E-06,0.040
-3.620E-06,0.020
-3.610E-06,0.040
-3.600E-06,0.040
-3.590E-06,0.060
-3.580E-06,0.040
-3.570E-06,0.060
-3.560E-06,0.060
-3.550E-06,0.040
-3.540E-06,0.040
-3.530E-06,0.040
-3.520E-06,0.060
-3.510E-06,0.040
-3.500E-06,0.020
-3.490E-06,0.060
-3.480E-06,0.020
-3.470E-06,0.040
-3.460E-06,0.060
-3.450E-06,0.020
-3.440E-06,0.040
-3.430E-06,0.040
-3.420E-06,0.060
-3.410E-06,0.060
-3.400E-06,0.040
-3.390E-06,0.040
-3.380E-06,0.040
-3.370E-06,0.060
-3.360E-06,0.060
-3.350E-06,0.020
-3.340E-06,0.040
-3.330E-06,0.020
-3.320E-06,-0.020
-3.310E-06,0.040
-3.300E-06,0.060
-3.290E-06,0.020
-3.280E-06,0.020
-3.270E-06,0.040
-3.260E-06,0.060
-3.250E-06,0.000
-3.240E-06,0.040
-3.230E-06,0.040
-3.220E-06,0.060
-3.210E-06,0.040
-3.200E-06,0.020
-3.190E-06,0.000
-3.180E-06,0.040
-3.170E-06,0.020
-3.160E-06,0.020
-3.150E-06,0.040
-3.140E-06,0.040
-3.130E-06,0.060
-3.120E-06,0.040
-3.110E-06,0.040
-3.100E-06,0.020
-3.090E-06,0.040
-3.080E-06,0.020
-3.070E-06,0.060
-3.060E-06,0.060
-3.050E-06,0.040
-3.040E-06,0.040
-3.030E-06,0.040
-3.020E-06,0.020
-3.010E-06,0.060
-3.000E-06,0.060
-2.990E-06,0.020
-2.980E-06,0.040
-2.970E-06,0.040
-2.960E-06,0.080
-2.950E-06,0.040
-2.940E-06,0.060
-2.930E-06,0.040
-2.920E-06,0.080
-2.910E-06,0.040
-2.900E-06,0.040
-2.890E-06,0.080
-2.880E-06,0.040
-2.870E-06,0.040
-2.860E-06,0.060
-2.850E-06,0.060
-2.840E-06,0.000
-2.830E-06,0.040
-2.820E-06,0.000
-2.810E-06,0.020
-2.800E-06,0.080
-2.790E-06,0.080
-2.780E-06,-0.020
-2.770E-06,0.060
-2.760E-06,0.040
-2.750E-06,0.040
-2.740E-06,0.060
-2.730E-06,0.040
-2.720E-06,0.020
-2.710E-06,0.040
-2.700E-06,0.020
-2.690E-06,0.040
-2.680E-06,0.000
-2.670E-06,0.060
-2.660E-06,0.060
-2.650E-06,0.040
-2.640E-06,0.020
-2.630E-06,0.020
-2.620E-06,0.040
-2.610E-06,0.040
-2.600E-06,0.060
-2.590E-06,0.020
-2.580E-06,0.020
-2.570E-06,0.020
-2.560E-06,0.080
-2.550E-06,0.060
-2.540E-06,0.000
-2.530E-06,0.060
-2.520E-06,0.020
-2.510E-06,0.040
-2.500E-06,0.040
-2.490E-06,0.080
-2.480E-06,0.020
-2.470E-06,0.060
-2.460E-06,0.060
-2.450E-06,0.040
-2.440E-06,0.060
-2.430E-06,0.040
-2.420E-06,0.040
-2.410E-06,0.060
-2.400E-06,0.040
-2.390E-06,0.060
-2.380E-06,0.000
-2.370E-06,0.020
-2.360E-06,0.040
-2.350E-06,0.080
-2.340E-06,0.040
-2.330E-06,0.020
-2.320E-06,0.020
-2.310E-06,0.020
-2.300E-06,0.060
-2.290E-06,0.020
-2.280E-06,0.040
-2.270E-06,0.040
-2.260E-06,0.040
-2.250E-06,0.040
-2.240E-06,0.020
-2.230E-06,0.000
-2.220E-06,-0.220
-2.210E-06,-0.880
-2.200E-06,-1.880
-2.190E-06,-2.900
-2.180E-06,-3.340
-2.170E-06,-3.360
-2.160E-06,-3.340
-2.150E-06,-2.420
-2.140E-06,-1.200
-2.130E-06,0.420
-2.120E-06,2.080
-2.110E-06,2.080
-2.100E-06,2.080
-2.090E-06,2.080
-2.080E-06,2.080
-2.070E-06,2.060
-2.060E-06,2.080
-2.050E-06,2.080
-2.040E-06,1.740
-2.030E-06,0.740
-2.020E-06,-0.120
-2.010E-06,-0.680
-2.000E-06,-0.860
-1.990E-06,-0.860
-1.980E-06,-0.700
-1.970E-06,-0.640
-1.960E-06,-0.600
-1.950E-06,-0.760
-1.940E-06,-1.320
-1.930E-06,-1.620
-1.920E-06,-2.020
-1.910E-06,-2.500
-1.900E-06,-2.560
-1.890E-06,-2.560
-1.880E-06,-2.220
-1.870E-06,-1.780
-1.860E-06,-1.100
-1.850E-06,-0.300
-1.840E-06,0.600
-1.830E-06,1.360
-1.820E-06,1.880
-1.810E-06,2.080
-1.800E-06,2.100
-1.790E-06,1.960
-1.780E-06,1.540
-1.770E-06,0.960
-1.760E-06,0.420
-1.750E-06,-0.180
-1.740E-06,-0.640
-1.730E-06,-1.020
-1.720E-06,-1.260
-1.710E-06,-1.280
-1.700E-06,-1.280
-1.690E-06,-1.140
-1.680E-06,-1.040
-1.670E-06,-0.760
-1.660E-06,-0.460
-1.650E-06,-0.200
-1.640E-06,0.120
-1.630E-06,0.380
-1.620E-06,0.720
-1.610E-06,1.020
-1.600E-06,1.220
-1.590E-06,1.380
-1.580E-06,1.460
-1.570E-06,1.400
-1.560E-06,1.340
-1.550E-06,1.200
-1.540E-06,1.000
-1.530E-06,0.680
-1.520E-06,0.400
-1.510E-06,0.140
-1.500E-06,-0.100
-1.490E-06,-0.340
-1.480E-06,-0.560
-1.470E-06,-0.660
-1.460E-06,-0.820
-1.450E-06,-0.940
-1.440E-06,-0.980
-1.430E-06,-1.020
-1.420E-06,-0.960
-1.410E-06,-0.800
-1.400E-06,-0.660
-1.390E-06,-0.380
-1.380E-06,-0.200
-1.370E-06,0.120
-1.360E-06,0.340
-1.350E-06,0.720
-1.340E-06,0.780
-1.330E-06,1.100
-1.320E-06,1.020
-1.310E-06,1.040
-1.300E-06,0.900
-1.290E-06,0.760
-1.280E-06,0.520
-1.270E-06,0.280
-1.260E-06,-0.160
-1.250E-06,-0.540
-1.240E-06,-0.860
-1.230E-06,-0.740
-1.220E-06,-1.100
-1.210E-06,-0.760
-1.200E-06,-0.960
-1.190E-06,-0.440
-1.180E-06,-0.620
-1.170E-06,-0.340
-1.160E-06,-0.240
-1.150E-06,-0.200
-1.140E-06,-0.120
-1.130E-06,0.000
-1.120E-06,0.040
-1.110E-06,0.140
-1.100E-06,0.040
-1.090E-06,0.160
-1.080E-06,0.080
-1.070E-06,0.100
-1.060E-06,0.180
-1.050E-06,0.100
-1.040E-06,0.280
-1.030E-06,0.220
-1.020E-06,0.220
-1.010E-06,0.000
-1.000E-06,0.200
-9.900E-07,-0.160
-9.800E-07,0.040
-9.700E-07,-0.280
-9.600E-07,-0.260
-9.500E-07,-0.460
-9.400E-07,-0.460
-9.300E-07,-0.600
-9.200E-07,-0.360
-9.100E-07,-0.340
-9.000E-07,-0.380
-8.900E-07,-0.120
-8.800E-07,0.040
-8.700E-07,0.360
-8.600E-07,0.080
-8.500E-07,0.500
-8.400E-07,0.220
-8.300E-07,-0.060
-8.200E-07,0.100
-8.100E-07,-0.660
-8.000E-07,-0.060
-7.900E-07,-0.460
-7.800E-07,-0.120
-7.700E-07,-0.400
-7.600E-07,-0.460
-7.500E-07,-0.380
-7.400E-07,-0.080
-7.300E-07,-0.600
-7.200E-07,-0.120
-7.100E-07,-0.420
-7.000E-07,-0.540
-6.900E-07,-0.480
-6.800E-07,-0.640
-6.700E-07,-0.540
-6.600E-07,-0.460
-6.500E-07,-0.460
-6.400E-07,-0.280
-6.300E-07,-0.520
-6.200E-07,-0.380
-6.100E-07,-0.520
-6.000E-07,-0.160
-5.900E-07,-0.680
-5.800E-07,-0.140
-5.700E-07,-0.600
-5.600E-07,-0.080
-5.500E-07,-0.160
-5.400E-07,-0.100
-5.300E-07,0.020
-5.200E-07,-0.120
-5.100E-07,-0.100
-5.000E-07,-0.160
-4.900E-07,-0.180
-4.800E-07,-0.020
-4.700E-07,-0.020
-4.600E-07,-0.060
-4.500E-07,-0.420
-4.400E-07,-0.420
-4.300E-07,-0.500
-4.200E-07,-0.460
-4.100E-07,0.040
-4.000E-07,-0.400
-3.900E-07,-0.420
-3.800E-07,-0.760
-3.700E-07,-0.720
-3.600E-07,-0.720
-3.500E-07,-0.580
-3.400E-07,-0.420
-3.300E-07,0.240
-3.200E-07,0.480
-3.100E-07,1.120
-3.000E-07,1.240
-2.900E-07,1.400
-2.800E-07,0.660
-2.700E-07,0.040
-2.600E-07,-1.020
-2.500E-07,-1.640
-2.400E-07,-2.080
-2.300E-07,-2.600
-2.200E-07,-2.960
-2.100E-07,-3.020
-2.000E-07,-2.700
-1.900E-07,-2.920
-1.800E-07,-2.980
-1.700E-07,-3.340
-1.600E-07,-2.980
-1.500E-07,-2.600
-1.400E-07,-2.160
-1.300E-07,-2.040
-1.200E-07,-2.000
-1.100E-07,-2.220
-1.000E-07,-1.800
-9.000E-08,-2.520
-8.000E-08,-2.220
-7.000E-08,-2.280
-6.000E-08,-1.340
-5.000E-08,-0.480
-4.000E-08,0.080
-3.000E-08,-0.340
-2.000E-08,0.160
-1.000E-08,-0.420
0.000E+00,-0.500
1.000E-08,-1.440
2.000E-08,-1.280
3.000E-08,-1.320
4.000E-08,-1.000
5.000E-08,-1.200
6.000E-08,-1.100
7.000E-08,-1.120
8.000E-08,-1.520
9.000E-08,-1.040
1.000E-07,-1.120
1.100E-07,-0.880
1.200E-07,-1.020
1.300E-07,-1.360
1.400E-07,-2.600
1.500E-07,-3.320
1.600E-07,-3.320
1.700E-07,-3.320
1.800E-07,-3.340
1.900E-07,-3.340
2.000E-07,-3.340
2.100E-07,-2.900
2.200E-07,-2.700
2.300E-07,-2.620
2.400E-07,-2.060
2.500E-07,-2.380
2.600E-07,-2.140
2.700E-07,-1.760
2.800E-07,-1.540
2.900E-07,-1.100
3.000E-07,-0.860
3.100E-07,-0.360
3.200E-07,-0.160
3.300E-07,-0.060
3.400E-07,0.140
3.500E-07,0.320
3.600E-07,0.340
3.700E-07,0.420
3.800E-07,0.500
3.900E-07,0.360
4.000E-07,0.260
4.100E-07,0.100
4.200E-07,-0.140
4.300E-07,-0.300
4.400E-07,-0.400
4.500E-07,-0.360
4.600E-07,-0.340
4.700E-07,-0.460
4.800E-07,-0.460
4.900E-07,-0.460
5.000E-07,-0.520
5.100E-07,-0.520
5.200E-07,-0.440
5.300E-07,-0.360
5.400E-07,-0.300
5.500E-07,-0.200
5.600E-07,-0.120
5.700E-07,-0.080
5.800E-07,-0.100
5.900E-07,-0.180
6.000E-07,-0.300
6.100E-07,-0.460
6.200E-07,-0.720
6.300E-07,-0.920
6.400E-07,-1.200
6.500E-07,-1.440
6.600E-07,-1.600
6.700E-07,-1.820
6.800E-07,-1.940
6.900E-07,-1.960
7.000E-07,-2.020
7.100E-07,-2.000
7.200E-07,-1.980
7.300E-07,-1.840
7.400E-07,-1.780
7.500E-07,-1.740
7.600E-07,-1.700
7.700E-07,-1.640
7.800E-07,-1.520
7.900E-07,-1.400
8.000E-07,-1.280
8.100E-07,-1.120
8.200E-07,-1.040
8.300E-07,-0.960
8.400E-07,-0.820
8.500E-07,-0.780
8.600E-07,-0.820
8.700E-07,-0.860
8.800E-07,-1.000
8.900E-07,-1.060
9.000E-07,-1.160
9.100E-07,-1.200
9.200E-07,-1.280
9.300E-07,-1.300
9.400E-07,-1.420
9.500E-07,-1.520
9.600E-07,-1.620
9.700E-07,-1.760
9.800E-07,-1.860
9.900E-07,-1.880
1.000E-06,-1.860
1.010E-06,-1.820
1.020E-06,-1.780
1.030E-06,-1.800
1.040E-06,-1.840
1.050E-06,-1.940
1.060E-06,-1.960
1.070E-06,-1.960
1.080E-06,-2.000
1.090E-06,-2.080
1.100E-06,-2.020
1.110E-06,-2.160
1.120E-06,-2.280
1.130E-06,-2.360
1.140E-06,-2.540
1.150E-06,-2.520
1.160E-06,-2.640
1.170E-06,-2.640
1.180E-06,-2.760
1.190E-06,-2.800
1.200E-06,-2.960
1.210E-06,-3.080
1.220E-06,-3.200
1.230E-06,-3.240
1.240E-06,-3.280
1.250E-06,-3.260
1.260E-06,-3.120
1.270E-06,-3.080
1.280E-06,-2.900
1.290E-06,-2.860
1.300E-06,-2.740
1.310E-06,-2.880
1.320E-06,-2.720
1.330E-06,-2.740
1.340E-06,-2.660
1.350E-06,-2.640
1.360E-06,-2.520
1.370E-06,-2.280
1.380E-06,-2.180
1.390E-06,-1.940
1.400E-06,-1.860
1.410E-06,-1.700
1.420E-06,-1.480
1.430E-06,-1.540
1.440E-06,-1.300
1.450E-06,-1.360
1.460E-06,-1.120
1.470E-06,-1.020
1.480E-06,-0.900
1.490E-06,-0.840
1.500E-06,-0.620
1.510E-06,-0.520
1.520E-06,-0.360
1.530E-06,-0.180
1.540E-06,-0.160
1.550E-06,0.220
1.560E-06,0.360
1.570E-06,0.580
1.580E-06,0.740
1.590E-06,0.800
1.600E-06,0.980
1.610E-06,0.920
1.620E-06,1.000
1.630E-06,1.020
1.640E-06,1.000
1.650E-06,0.980
1.660E-06,0.900
1.670E-06,0.860
1.680E-06,0.860
1.690E-06,0.860
1.700E-06,0.780
1.710E-06,0.480
1.720E-06,0.580
1.730E-06,0.240
1.740E-06,0.320
1.750E-06,0.100
1.760E-06,0.060
1.770E-06,0.000
1.780E-06,-0.180
1.790E-06,-0.080
1.800E-06,-0.260
1.810E-06,-0.160
1.820E-06,-0.220
1.830E-06,-0.040
1.840E-06,-0.100
1.850E-06,-0.120
1.860E-06,-0.180
1.870E-06,-0.020
1.880E-06,-0.120
1.890E-06,-0.020
1.900E-06,-0.080
1.910E-06,0.000
1.920E-06,0.040
1.930E-06,0.000
1.940E-06,0.120
1.950E-06,0.040
1.960E-06,0.120
1.970E-06,0.080
1.980E-06,0.120
1.990E-06,0.140
2.000E-06,0.060
2.010E-06,0.080
2.020E-06,0.040
2.030E-06,0.080
2.040E-06,0.060
2.050E-06,-0.020
2.060E-06,0.140
2.070E-06,0.000
2.080E-06,0.180
2.090E-06,0.140
2.100E-06,0.240
2.110E-06,0.280
2.120E-06,0.320
2.130E-06,0.340
2.140E-06,0.420
2.150E-06,0.440
2.160E-06,0.420
2.170E-06,0.500
2.180E-06,0.460
2.190E-06,0.440
2.200E-06,0.440
2.210E-06,0.400
2.220E-06,0.420
2.230E-06,0.400
2.240E-06,0.380
2.250E-06,0.340
2.260E-06,0.300
2.270E-06,0.260
2.280E-06,0.160
2.290E-06,0.160
2.300E-06,0.080
2.310E-06,0.040
2.320E-06,0.000
2.330E-06,0.000
2.340E-06,-0.060
2.350E-06,-0.120
2.360E-06,-0.120
2.370E-06,-0.140
2.380E-06,-0.140
2.390E-06,-0.080
2.400E-06,0.020
2.410E-06,0.060
2.420E-06,0.160
2.430E-06,0.220
2.440E-06,0.260
2.450E-06,0.320
2.460E-06,0.340
2.470E-06,0.320
2.480E-06,0.340
2.490E-06,0.340
2.500E-06,0.300
2.510E-06,0.220
2.520E-06,0.160
2.530E-06,0.140
2.540E-06,0.160
2.550E-06,0.120
2.560E-06,0.000
2.570E-06,0.080
2.580E-06,-0.100
2.590E-06,-0.140
2.600E-06,-0.180
2.610E-06,-0.200
2.620E-06,-0.160
2.630E-06,-0.100
2.640E-06,0.080
2.650E-06,0.180
2.660E-06,0.240
2.670E-06,0.280
2.680E-06,0.260
2.690E-06,0.280
2.700E-06,0.280
2.710E-06,0.240
2.720E-06,0.240
2.730E-06,0.260
2.740E-06,0.260
2.750E-06,0.280
2.760E-06,0.220
2.770E-06,0.220
2.780E-06,0.280
2.790E-06,0.240
2.800E-06,0.260
2.810E-06,0.220
2.820E-06,0.280
2.830E-06,0.220
2.840E-06,0.240
2.850E-06,0.240
2.860E-06,0.260
2.870E-06,0.300
2.880E-06,0.340
2.890E-06,0.320
2.900E-06,0.360
2.910E-06,0.400
2.920E-06,0.420
2.930E-06,0.460
2.940E-06,0.500
2.950E-06,0.540
2.960E-06,0.620
2.970E-06,0.660
2.980E-06,0.680
2.990E-06,0.760
3.000E-06,0.820
3.010E-06,0.900
3.020E-06,0.960
3.030E-06,1.000
3.040E-06,1.040
3.050E-06,1.060
3.060E-06,1.020
3.070E-06,1.060
3.080E-06,0.840
3.090E-06,0.740
3.100E-06,0.600
3.110E-06,0.460
3.120E-06,0.380
3.130E-06,0.260
3.140E-06,0.240
3.150E-06,0.160
3.160E-06,0.080
3.170E-06,0.080
3.180E-06,0.120
3.190E-06,0.160
3.200E-06,0.240
3.210E-06,0.380
3.220E-06,0.500
3.230E-06,0.540
3.240E-06,0.500
3.250E-06,0.480
3.260E-06,0.480
3.270E-06,0.380
3.280E-06,0.340
3.290E-06,0.240
3.300E-06,0.160
3.310E-06,0.080
3.320E-06,0.040
3.330E-06,0.020
3.340E-06,-0.020
3.350E-06,-0.020
3.360E-06,0.040
3.370E-06,0.080
