mediciones/8-28/-8/WaveData65660.csv

#timebase=2000000(ps)
,#voltbase=500000(mv/100)
#size=4000
-8.350E-06,0.020
-8.340E-06,0.040
-8.330E-06,0.060
-8.320E-06,0.040
-8.310E-06,0.060
-8.300E-06,0.080
-8.290E-06,0.060
-8.280E-06,0.080
-8.270E-06,0.060
-8.260E-06,0.020
-8.250E-06,0.040
-8.240E-06,0.040
-8.230E-06,0.060
-8.220E-06,0.060
-8.210E-06,0.020
-8.200E-06,0.020
-8.190E-06,0.060
-8.180E-06,0.080
-8.170E-06,-0.020
-8.160E-06,0.020
-8.150E-06,0.040
-8.140E-06,0.020
-8.130E-06,0.040
-8.120E-06,0.020
-8.110E-06,0.060
-8.100E-06,0.060
-8.090E-06,0.040
-8.080E-06,0.040
-8.070E-06,0.040
-8.060E-06,0.060
-8.050E-06,0.040
-8.040E-06,0.040
-8.030E-06,0.060
-8.020E-06,0.020
-8.010E-06,0.020
-8.000E-06,0.020
-7.990E-06,0.020
-7.980E-06,0.040
-7.970E-06,0.060
-7.960E-06,0.040
-7.950E-06,0.020
-7.940E-06,0.040
-7.930E-06,0.060
-7.920E-06,0.020
-7.910E-06,0.040
-7.900E-06,0.020
-7.890E-06,0.060
-7.880E-06,0.060
-7.870E-06,0.040
-7.860E-06,0.040
-7.850E-06,0.000
-7.840E-06,0.040
-7.830E-06,0.060
-7.820E-06,0.060
-7.810E-06,0.060
-7.800E-06,0.040
-7.790E-06,0.040
-7.780E-06,0.060
-7.770E-06,0.040
-7.760E-06,0.040
-7.750E-06,0.020
-7.740E-06,0.060
-7.730E-06,0.020
-7.720E-06,0.020
-7.710E-06,0.060
-7.700E-06,0.020
-7.690E-06,0.040
-7.680E-06,0.060
-7.670E-06,0.060
-7.660E-06,0.000
-7.650E-06,0.040
-7.640E-06,0.060
-7.630E-06,0.040
-7.620E-06,0.040
-7.610E-06,0.040
-7.600E-06,0.080
-7.590E-06,0.040
-7.580E-06,0.040
-7.570E-06,0.020
-7.560E-06,0.000
-7.550E-06,0.040
-7.540E-06,0.060
-7.530E-06,0.040
-7.520E-06,0.060
-7.510E-06,0.020
-7.500E-06,0.020
-7.490E-06,0.060
-7.480E-06,0.040
-7.470E-06,0.040
-7.460E-06,0.040
-7.450E-06,0.020
-7.440E-06,0.000
-7.430E-06,0.040
-7.420E-06,0.040
-7.410E-06,0.020
-7.400E-06,0.060
-7.390E-06,0.020
-7.380E-06,0.060
-7.370E-06,0.020
-7.360E-06,0.020
-7.350E-06,0.040
-7.340E-06,0.080
-7.330E-06,0.060
-7.320E-06,0.040
-7.310E-06,0.060
-7.300E-06,0.020
-7.290E-06,0.060
-7.280E-06,0.080
-7.270E-06,0.060
-7.260E-06,0.040
-7.250E-06,0.060
-7.240E-06,0.000
-7.230E-06,0.020
-7.220E-06,0.040
-7.210E-06,0.040
-7.200E-06,0.060
-7.190E-06,0.060
-7.180E-06,0.040
-7.170E-06,0.020
-7.160E-06,0.040
-7.150E-06,0.060
-7.140E-06,0.020
-7.130E-06,0.060
-7.120E-06,0.060
-7.110E-06,0.060
-7.100E-06,0.040
-7.090E-06,0.060
-7.080E-06,0.040
-7.070E-06,0.040
-7.060E-06,0.040
-7.050E-06,0.020
-7.040E-06,0.040
-7.030E-06,0.040
-7.020E-06,0.040
-7.010E-06,0.060
-7.000E-06,0.040
-6.990E-06,0.040
-6.980E-06,0.060
-6.970E-06,0.040
-6.960E-06,0.060
-6.950E-06,0.040
-6.940E-06,0.080
-6.930E-06,0.040
-6.920E-06,0.060
-6.910E-06,0.080
-6.900E-06,0.020
-6.890E-06,0.020
-6.880E-06,0.060
-6.870E-06,0.060
-6.860E-06,0.040
-6.850E-06,0.020
-6.840E-06,0.040
-6.830E-06,0.020
-6.820E-06,0.040
-6.810E-06,0.000
-6.800E-06,0.020
-6.790E-06,0.060
-6.780E-06,0.020
-6.770E-06,0.040
-6.760E-06,0.040
-6.750E-06,0.040
-6.740E-06,0.060
-6.730E-06,0.040
-6.720E-06,0.060
-6.710E-06,0.060
-6.700E-06,0.060
-6.690E-06,0.000
-6.680E-06,0.020
-6.670E-06,0.040
-6.660E-06,0.060
-6.650E-06,0.060
-6.640E-06,0.060
-6.630E-06,0.020
-6.620E-06,0.060
-6.610E-06,0.080
-6.600E-06,0.040
-6.590E-06,0.080
-6.580E-06,0.080
-6.570E-06,0.000
-6.560E-06,-0.020
-6.550E-06,0.020
-6.540E-06,0.020
-6.530E-06,0.020
-6.520E-06,0.040
-6.510E-06,0.060
-6.500E-06,0.060
-6.490E-06,0.020
-6.480E-06,0.020
-6.470E-06,0.040
-6.460E-06,0.020
-6.450E-06,0.040
-6.440E-06,0.060
-6.430E-06,0.060
-6.420E-06,0.040
-6.410E-06,0.040
-6.400E-06,0.060
-6.390E-06,0.020
-6.380E-06,0.060
-6.370E-06,0.020
-6.360E-06,0.060
-6.350E-06,0.040
-6.340E-06,0.040
-6.330E-06,0.040
-6.320E-06,0.040
-6.310E-06,0.040
-6.300E-06,0.020
-6.290E-06,0.060
-6.280E-06,0.060
-6.270E-06,0.080
-6.260E-06,0.080
-6.250E-06,0.040
-6.240E-06,0.040
-6.230E-06,0.020
-6.220E-06,0.020
-6.210E-06,0.060
-6.200E-06,0.020
-6.190E-06,0.060
-6.180E-06,0.080
-6.170E-06,0.060
-6.160E-06,0.040
-6.150E-06,0.080
-6.140E-06,0.040
-6.130E-06,0.060
-6.120E-06,0.080
-6.110E-06,0.060
-6.100E-06,0.020
-6.090E-06,0.040
-6.080E-06,0.020
-6.070E-06,0.080
-6.060E-06,0.040
-6.050E-06,0.060
-6.040E-06,0.040
-6.030E-06,0.040
-6.020E-06,0.040
-6.010E-06,0.020
-6.000E-06,0.020
-5.990E-06,0.020
-5.980E-06,0.060
-5.970E-06,0.060
-5.960E-06,0.040
-5.950E-06,0.020
-5.940E-06,0.040
-5.930E-06,0.040
-5.920E-06,0.040
-5.910E-06,0.040
-5.900E-06,0.060
-5.890E-06,0.040
-5.880E-06,0.000
-5.870E-06,0.020
-5.860E-06,0.060
-5.850E-06,0.000
-5.840E-06,0.060
-5.830E-06,0.060
-5.820E-06,0.020
-5.810E-06,0.080
-5.800E-06,0.040
-5.790E-06,0.040
-5.780E-06,0.060
-5.770E-06,0.000
-5.760E-06,0.060
-5.750E-06,0.060
-5.740E-06,0.060
-5.730E-06,0.020
-5.720E-06,0.000
-5.710E-06,0.040
-5.700E-06,0.020
-5.690E-06,0.040
-5.680E-06,0.060
-5.670E-06,0.000
-5.660E-06,0.000
-5.650E-06,0.040
-5.640E-06,0.060
-5.630E-06,0.060
-5.620E-06,0.040
-5.610E-06,0.020
-5.600E-06,0.020
-5.590E-06,0.060
-5.580E-06,0.040
-5.570E-06,0.040
-5.560E-06,0.040
-5.550E-06,0.020
-5.540E-06,0.060
-5.530E-06,0.060
-5.520E-06,0.020
-5.510E-06,0.020
-5.500E-06,0.020
-5.490E-06,0.060
-5.480E-06,0.060
-5.470E-06,0.020
-5.460E-06,0.000
-5.450E-06,0.060
-5.440E-06,0.040
-5.430E-06,0.000
-5.420E-06,0.040
-5.410E-06,0.020
-5.400E-06,0.040
-5.390E-06,0.080
-5.380E-06,0.040
-5.370E-06,0.020
-5.360E-06,0.060
-5.350E-06,0.080
-5.340E-06,0.040
-5.330E-06,0.060
-5.320E-06,0.080
-5.310E-06,0.020
-5.300E-06,0.060
-5.290E-06,0.040
-5.280E-06,0.020
-5.270E-06,0.020
-5.260E-06,0.020
-5.250E-06,0.060
-5.240E-06,0.020
-5.230E-06,0.040
-5.220E-06,0.060
-5.210E-06,0.060
-5.200E-06,0.060
-5.190E-06,0.020
-5.180E-06,0.040
-5.170E-06,0.060
-5.160E-06,0.040
-5.150E-06,0.060
-5.140E-06,0.020
-5.130E-06,0.020
-5.120E-06,0.020
-5.110E-06,0.020
-5.100E-06,0.040
-5.090E-06,0.060
-5.080E-06,0.040
-5.070E-06,0.060
-5.060E-06,0.060
-5.050E-06,0.060
-5.040E-06,0.060
-5.030E-06,0.040
-5.020E-06,0.020
-5.010E-06,0.060
-5.000E-06,0.020
-4.990E-06,0.040
-4.980E-06,0.080
-4.970E-06,0.060
-4.960E-06,0.020
-4.950E-06,0.060
-4.940E-06,0.060
-4.930E-06,0.020
-4.920E-06,0.040
-4.910E-06,0.080
-4.900E-06,0.020
-4.890E-06,0.020
-4.880E-06,0.040
-4.870E-06,0.040
-4.860E-06,0.020
-4.850E-06,0.020
-4.840E-06,0.040
-4.830E-06,0.040
-4.820E-06,0.060
-4.810E-06,0.020
-4.800E-06,0.040
-4.790E-06,0.060
-4.780E-06,0.060
-4.770E-06,0.020
-4.760E-06,0.000
-4.750E-06,0.040
-4.740E-06,0.040
-4.730E-06,0.040
-4.720E-06,0.000
-4.710E-06,0.020
-4.700E-06,0.040
-4.690E-06,0.040
-4.680E-06,0.020
-4.670E-06,0.040
-4.660E-06,0.080
-4.650E-06,0.040
-4.640E-06,0.020
-4.630E-06,0.040
-4.620E-06,0.060
-4.610E-06,0.060
-4.600E-06,0.040
-4.590E-06,0.040
-4.580E-06,0.020
-4.570E-06,0.060
-4.560E-06,0.040
-4.550E-06,0.000
-4.540E-06,0.040
-4.530E-06,0.040
-4.520E-06,0.060
-4.510E-06,0.060
-4.500E-06,0.040
-4.490E-06,0.040
-4.480E-06,0.080
-4.470E-06,0.040
-4.460E-06,0.040
-4.450E-06,0.040
-4.440E-06,0.020
-4.430E-06,0.040
-4.420E-06,0.060
-4.410E-06,0.040
-4.400E-06,0.020
-4.390E-06,0.040
-4.380E-06,0.020
-4.370E-06,0.040
-4.360E-06,0.040
-4.350E-06,0.040
-4.340E-06,0.020
-4.330E-06,0.040
-4.320E-06,0.020
-4.310E-06,0.040
-4.300E-06,0.060
-4.290E-06,0.080
-4.280E-06,0.020
-4.270E-06,0.060
-4.260E-06,0.080
-4.250E-06,0.060
-4.240E-06,0.020
-4.230E-06,0.020
-4.220E-06,0.060
-4.210E-06,0.020
-4.200E-06,0.060
-4.190E-06,0.040
-4.180E-06,0.020
-4.170E-06,0.040
-4.160E-06,0.060
-4.150E-06,0.040
-4.140E-06,0.060
-4.130E-06,0.060
-4.120E-06,0.020
-4.110E-06,0.040
-4.100E-06,0.080
-4.090E-06,0.040
-4.080E-06,0.060
-4.070E-06,0.080
-4.060E-06,0.020
-4.050E-06,0.080
-4.040E-06,0.060
-4.030E-06,0.020
-4.020E-06,0.020
-4.010E-06,0.040
-4.000E-06,0.000
-3.990E-06,0.040
-3.980E-06,0.080
-3.970E-06,0.020
-3.960E-06,0.060
-3.950E-06,0.020
-3.940E-06,0.060
-3.930E-06,0.080
-3.920E-06,0.020
-3.910E-06,0.040
-3.900E-06,0.040
-3.890E-06,0.060
-3.880E-06,0.040
-3.870E-06,0.040
-3.860E-06,0.020
-3.850E-06,0.040
-3.840E-06,0.020
-3.830E-06,0.040
-3.820E-06,0.020
-3.810E-06,0.020
-3.800E-06,0.060
-3.790E-06,0.040
-3.780E-06,0.040
-3.770E-06,0.060
-3.760E-06,0.020
-3.750E-06,0.060
-3.740E-06,0.080
-3.730E-06,0.040
-3.720E-06,0.020
-3.710E-06,0.040
-3.700E-06,0.040
-3.690E-06,0.060
-3.680E-06,0.040
-3.670E-06,0.040
-3.660E-06,0.060
-3.650E-06,0.040
-3.640E-06,0.060
-3.630E-06,0.040
-3.620E-06,0.020
-3.610E-06,0.040
-3.600E-06,0.020
-3.590E-06,0.060
-3.580E-06,0.020
-3.570E-06,0.060
-3.560E-06,0.060
-3.550E-06,0.020
-3.540E-06,0.020
-3.530E-06,0.060
-3.520E-06,0.020
-3.510E-06,0.020
-3.500E-06,0.040
-3.490E-06,0.000
-3.480E-06,0.040
-3.470E-06,0.020
-3.460E-06,0.020
-3.450E-06,0.060
-3.440E-06,0.020
-3.430E-06,0.020
-3.420E-06,0.020
-3.410E-06,0.060
-3.400E-06,0.040
-3.390E-06,0.060
-3.380E-06,0.060
-3.370E-06,0.040
-3.360E-06,0.040
-3.350E-06,0.000
-3.340E-06,0.040
-3.330E-06,0.020
-3.320E-06,0.060
-3.310E-06,0.020
-3.300E-06,0.040
-3.290E-06,0.040
-3.280E-06,0.000
-3.270E-06,0.040
-3.260E-06,0.020
-3.250E-06,0.060
-3.240E-06,0.020
-3.230E-06,0.080
-3.220E-06,0.060
-3.210E-06,0.040
-3.200E-06,0.000
-3.190E-06,0.020
-3.180E-06,0.060
-3.170E-06,0.000
-3.160E-06,0.020
-3.150E-06,0.040
-3.140E-06,0.020
-3.130E-06,0.040
-3.120E-06,0.060
-3.110E-06,0.080
-3.100E-06,0.000
-3.090E-06,0.020
-3.080E-06,0.040
-3.070E-06,0.020
-3.060E-06,0.040
-3.050E-06,0.060
-3.040E-06,0.040
-3.030E-06,0.040
-3.020E-06,0.040
-3.010E-06,0.020
-3.000E-06,0.040
-2.990E-06,0.040
-2.980E-06,0.040
-2.970E-06,0.040
-2.960E-06,0.060
-2.950E-06,0.000
-2.940E-06,-0.360
-2.930E-06,-1.020
-2.920E-06,-2.040
-2.910E-06,-2.880
-2.900E-06,-3.160
-2.890E-06,-2.680
-2.880E-06,-1.260
-2.870E-06,-0.460
-2.860E-06,0.440
-2.850E-06,1.940
-2.840E-06,2.080
-2.830E-06,2.080
-2.820E-06,2.080
-2.810E-06,2.060
-2.800E-06,2.080
-2.790E-06,2.080
-2.780E-06,1.880
-2.770E-06,1.020
-2.760E-06,0.020
-2.750E-06,-0.300
-2.740E-06,-0.680
-2.730E-06,-0.780
-2.720E-06,-0.600
-2.710E-06,-0.280
-2.700E-06,-0.160
-2.690E-06,-0.240
-2.680E-06,-0.400
-2.670E-06,-0.720
-2.660E-06,-1.020
-2.650E-06,-1.340
-2.640E-06,-1.660
-2.630E-06,-1.720
-2.620E-06,-1.680
-2.610E-06,-1.440
-2.600E-06,-1.120
-2.590E-06,-0.660
-2.580E-06,-0.060
-2.570E-06,0.500
-2.560E-06,1.020
-2.550E-06,1.440
-2.540E-06,1.600
-2.530E-06,1.560
-2.520E-06,1.340
-2.510E-06,1.020
-2.500E-06,0.620
-2.490E-06,0.200
-2.480E-06,-0.200
-2.470E-06,-0.480
-2.460E-06,-0.680
-2.450E-06,-0.760
-2.440E-06,-0.840
-2.430E-06,-0.800
-2.420E-06,-0.680
-2.410E-06,-0.580
-2.400E-06,-0.480
-2.390E-06,-0.300
-2.380E-06,-0.080
-2.370E-06,0.100
-2.360E-06,0.300
-2.350E-06,0.440
-2.340E-06,0.580
-2.330E-06,0.700
-2.320E-06,0.820
-2.310E-06,0.860
-2.300E-06,0.860
-2.290E-06,0.800
-2.280E-06,0.660
-2.270E-06,0.560
-2.260E-06,0.360
-2.250E-06,0.160
-2.240E-06,0.020
-2.230E-06,-0.140
-2.220E-06,-0.300
-2.210E-06,-0.420
-2.200E-06,-0.500
-2.190E-06,-0.560
-2.180E-06,-0.560
-2.170E-06,-0.600
-2.160E-06,-0.640
-2.150E-06,-0.680
-2.140E-06,-0.720
-2.130E-06,-0.680
-2.120E-06,-0.560
-2.110E-06,-0.180
-2.100E-06,-0.020
-2.090E-06,0.280
-2.080E-06,0.360
-2.070E-06,0.560
-2.060E-06,0.620
-2.050E-06,0.660
-2.040E-06,0.700
-2.030E-06,0.640
-2.020E-06,0.500
-2.010E-06,0.280
-2.000E-06,-0.040
-1.990E-06,-0.180
-1.980E-06,-0.480
-1.970E-06,-0.460
-1.960E-06,-0.580
-1.950E-06,-0.380
-1.940E-06,-0.460
-1.930E-06,-0.260
-1.920E-06,-0.300
-1.910E-06,-0.120
-1.900E-06,-0.080
-1.890E-06,-0.020
-1.880E-06,0.120
-1.870E-06,0.100
-1.860E-06,0.220
-1.850E-06,0.280
-1.840E-06,0.260
-1.830E-06,0.260
-1.820E-06,0.140
-1.810E-06,0.160
-1.800E-06,0.200
-1.790E-06,-0.040
-1.780E-06,0.000
-1.770E-06,-0.040
-1.760E-06,0.080
-1.750E-06,-0.180
-1.740E-06,0.040
-1.730E-06,-0.180
-1.720E-06,0.080
-1.710E-06,-0.200
-1.700E-06,-0.060
-1.690E-06,-0.060
-1.680E-06,-0.160
-1.670E-06,-0.140
-1.660E-06,-0.100
-1.650E-06,-0.180
-1.640E-06,0.000
-1.630E-06,-0.140
-1.620E-06,-0.080
-1.610E-06,-0.080
-1.600E-06,-0.080
-1.590E-06,-0.060
-1.580E-06,-0.080
-1.570E-06,-0.040
-1.560E-06,-0.040
-1.550E-06,-0.060
-1.540E-06,-0.060
-1.530E-06,-0.040
-1.520E-06,0.020
-1.510E-06,0.060
-1.500E-06,0.080
-1.490E-06,0.100
-1.480E-06,0.060
-1.470E-06,0.080
-1.460E-06,0.020
-1.450E-06,-0.020
-1.440E-06,0.020
-1.430E-06,0.080
-1.420E-06,0.060
-1.410E-06,0.040
-1.400E-06,0.060
-1.390E-06,0.060
-1.380E-06,0.060
-1.370E-06,0.000
-1.360E-06,0.040
-1.350E-06,0.040
-1.340E-06,0.000
-1.330E-06,-0.020
-1.320E-06,-0.040
-1.310E-06,-0.080
-1.300E-06,-0.160
-1.290E-06,-0.180
-1.280E-06,-0.160
-1.270E-06,-0.160
-1.260E-06,-0.180
-1.250E-06,-0.120
-1.240E-06,-0.100
-1.230E-06,0.000
-1.220E-06,-0.100
-1.210E-06,0.080
-1.200E-06,0.020
-1.190E-06,-0.080
-1.180E-06,0.020
-1.170E-06,-0.040
-1.160E-06,-0.040
-1.150E-06,-0.100
-1.140E-06,-0.180
-1.130E-06,-0.180
-1.120E-06,-0.300
-1.110E-06,-0.260
-1.100E-06,-0.340
-1.090E-06,-0.340
-1.080E-06,-0.440
-1.070E-06,-0.420
-1.060E-06,-0.440
-1.050E-06,-0.340
-1.040E-06,-0.360
-1.030E-06,-0.340
-1.020E-06,-0.220
-1.010E-06,-0.320
-1.000E-06,-0.220
-9.900E-07,-0.200
-9.800E-07,-0.180
-9.700E-07,-0.140
-9.600E-07,-0.160
-9.500E-07,-0.160
-9.400E-07,-0.120
-9.300E-07,-0.020
-9.200E-07,-0.180
-9.100E-07,-0.040
-9.000E-07,-0.040
-8.900E-07,-0.240
-8.800E-07,0.000
-8.700E-07,-0.180
-8.600E-07,-0.120
-8.500E-07,-0.080
-8.400E-07,-0.140
-8.300E-07,-0.060
-8.200E-07,-0.200
-8.100E-07,-0.360
-8.000E-07,-0.260
-7.900E-07,-0.340
-7.800E-07,-0.360
-7.700E-07,-0.340
-7.600E-07,-0.420
-7.500E-07,-0.400
-7.400E-07,-0.380
-7.300E-07,-0.480
-7.200E-07,-0.340
-7.100E-07,-0.440
-7.000E-07,-0.220
-6.900E-07,-0.360
-6.800E-07,-0.260
-6.700E-07,-0.200
-6.600E-07,-0.240
-6.500E-07,-0.240
-6.400E-07,-0.240
-6.300E-07,-0.120
-6.200E-07,0.200
-6.100E-07,0.940
-6.000E-07,1.380
-5.900E-07,2.020
-5.800E-07,2.100
-5.700E-07,1.640
-5.600E-07,1.100
-5.500E-07,0.100
-5.400E-07,-0.740
-5.300E-07,-1.520
-5.200E-07,-2.100
-5.100E-07,-2.380
-5.000E-07,-2.560
-4.900E-07,-2.480
-4.800E-07,-2.260
-4.700E-07,-1.840
-4.600E-07,-1.500
-4.500E-07,-1.020
-4.400E-07,-0.840
-4.300E-07,-0.520
-4.200E-07,-0.660
-4.100E-07,-0.160
-4.000E-07,-0.320
-3.900E-07,-0.060
-3.800E-07,-0.340
-3.700E-07,0.220
-3.600E-07,0.160
-3.500E-07,0.340
-3.400E-07,0.540
-3.300E-07,1.280
-3.200E-07,0.900
-3.100E-07,1.800
-3.000E-07,0.080
-2.900E-07,1.620
-2.800E-07,-0.180
-2.700E-07,0.060
-2.600E-07,-1.360
-2.500E-07,-1.240
-2.400E-07,-1.880
-2.300E-07,-1.620
-2.200E-07,-1.920
-2.100E-07,-1.580
-2.000E-07,-1.760
-1.900E-07,-1.800
-1.800E-07,-1.620
-1.700E-07,-1.740
-1.600E-07,-0.680
-1.500E-07,0.320
-1.400E-07,0.880
-1.300E-07,1.320
-1.200E-07,1.480
-1.100E-07,1.240
-1.000E-07,0.920
-9.000E-08,-0.380
-8.000E-08,-1.000
-7.000E-08,-2.040
-6.000E-08,-2.120
-5.000E-08,-3.340
-4.000E-08,-3.280
-3.000E-08,-3.340
-2.000E-08,-3.260
-1.000E-08,-3.340
0.000E+00,-3.340
1.000E-08,-3.340
2.000E-08,-3.340
3.000E-08,-3.340
4.000E-08,-2.600
5.000E-08,-1.380
6.000E-08,-0.760
7.000E-08,-0.660
8.000E-08,-0.840
9.000E-08,-1.200
1.000E-07,-0.480
1.100E-07,0.480
1.200E-07,1.660
1.300E-07,2.080
1.400E-07,2.060
1.500E-07,2.080
1.600E-07,1.740
1.700E-07,0.880
1.800E-07,-0.200
1.900E-07,-0.580
2.000E-07,-1.300
2.100E-07,-1.300
2.200E-07,-1.720
2.300E-07,-2.160
2.400E-07,-2.220
2.500E-07,-2.720
2.600E-07,-2.820
2.700E-07,-2.680
2.800E-07,-2.300
2.900E-07,-1.620
3.000E-07,-1.100
3.100E-07,-0.340
3.200E-07,0.380
3.300E-07,0.920
3.400E-07,1.340
3.500E-07,1.520
3.600E-07,1.580
3.700E-07,1.580
3.800E-07,1.460
3.900E-07,1.080
4.000E-07,0.800
4.100E-07,0.260
4.200E-07,-0.280
4.300E-07,-0.800
4.400E-07,-1.280
4.500E-07,-1.700
4.600E-07,-1.940
4.700E-07,-2.120
4.800E-07,-2.120
4.900E-07,-2.060
5.000E-07,-1.860
5.100E-07,-1.840
5.200E-07,-1.620
5.300E-07,-1.460
5.400E-07,-1.180
5.500E-07,-0.960
5.600E-07,-0.660
5.700E-07,-0.540
5.800E-07,-0.340
5.900E-07,-0.040
6.000E-07,0.280
6.100E-07,0.400
6.200E-07,0.620
6.300E-07,0.680
6.400E-07,0.640
6.500E-07,0.400
6.600E-07,0.260
6.700E-07,0.300
6.800E-07,0.340
6.900E-07,0.040
7.000E-07,-0.540
7.100E-07,-1.360
7.200E-07,-1.860
7.300E-07,-1.800
7.400E-07,-1.560
7.500E-07,-1.280
7.600E-07,-1.140
7.700E-07,-0.340
7.800E-07,-0.500
7.900E-07,-0.140
8.000E-07,0.740
8.100E-07,0.600
8.200E-07,1.180
8.300E-07,-0.120
8.400E-07,-1.060
8.500E-07,-2.460
8.600E-07,-3.340
8.700E-07,-3.340
8.800E-07,-3.340
8.900E-07,-3.340
9.000E-07,-3.340
9.100E-07,-3.340
9.200E-07,-3.300
9.300E-07,-2.780
9.400E-07,-2.580
9.500E-07,-2.600
9.600E-07,-2.100
9.700E-07,-1.720
9.800E-07,-1.360
9.900E-07,-0.900
1.000E-06,-0.860
1.010E-06,-0.860
1.020E-06,-0.980
1.030E-06,-1.020
1.040E-06,-1.120
1.050E-06,-1.020
1.060E-06,-1.020
1.070E-06,-0.920
1.080E-06,-1.160
1.090E-06,-1.380
1.100E-06,-1.820
1.110E-06,-2.020
1.120E-06,-2.460
1.130E-06,-2.680
1.140E-06,-2.940
1.150E-06,-3.080
1.160E-06,-3.320
1.170E-06,-3.340
1.180E-06,-3.340
1.190E-06,-3.340
1.200E-06,-3.340
1.210E-06,-3.200
1.220E-06,-2.760
1.230E-06,-2.080
1.240E-06,-1.820
1.250E-06,-1.260
1.260E-06,-1.180
1.270E-06,-0.920
1.280E-06,-1.080
1.290E-06,-1.120
1.300E-06,-1.280
1.310E-06,-1.500
1.320E-06,-1.620
1.330E-06,-1.860
1.340E-06,-1.880
1.350E-06,-2.040
1.360E-06,-2.120
1.370E-06,-2.140
1.380E-06,-2.160
1.390E-06,-2.060
1.400E-06,-1.780
1.410E-06,-1.520
1.420E-06,-1.200
1.430E-06,-0.800
1.440E-06,-0.560
1.450E-06,-0.260
1.460E-06,-0.160
1.470E-06,-0.060
1.480E-06,0.100
1.490E-06,0.220
1.500E-06,0.360
1.510E-06,0.460
1.520E-06,0.500
1.530E-06,0.520
1.540E-06,0.520
1.550E-06,0.440
1.560E-06,0.300
1.570E-06,0.000
1.580E-06,-0.420
1.590E-06,-0.820
1.600E-06,-1.220
1.610E-06,-1.440
1.620E-06,-1.620
1.630E-06,-1.740
1.640E-06,-1.800
1.650E-06,-1.820
1.660E-06,-1.800
1.670E-06,-1.720
1.680E-06,-1.620
1.690E-06,-1.500
1.700E-06,-1.440
1.710E-06,-1.360
1.720E-06,-1.400
1.730E-06,-1.240
1.740E-06,-1.320
1.750E-06,-1.240
1.760E-06,-1.220
1.770E-06,-1.200
1.780E-06,-1.240
1.790E-06,-1.280
1.800E-06,-1.260
1.810E-06,-1.220
1.820E-06,-1.180
1.830E-06,-1.080
1.840E-06,-1.040
1.850E-06,-0.920
1.860E-06,-0.800
1.870E-06,-0.700
1.880E-06,-0.600
1.890E-06,-0.520
1.900E-06,-0.440
1.910E-06,-0.420
1.920E-06,-0.420
1.930E-06,-0.320
1.940E-06,-0.320
1.950E-06,-0.320
1.960E-06,-0.400
1.970E-06,-0.280
1.980E-06,-0.280
1.990E-06,-0.240
2.000E-06,-0.200
2.010E-06,-0.180
2.020E-06,-0.140
2.030E-06,-0.200
2.040E-06,-0.180
2.050E-06,-0.180
2.060E-06,-0.260
2.070E-06,-0.260
2.080E-06,-0.360
2.090E-06,-0.340
2.100E-06,-0.400
2.110E-06,-0.420
2.120E-06,-0.360
2.130E-06,-0.380
2.140E-06,-0.360
2.150E-06,-0.360
2.160E-06,-0.300
2.170E-06,-0.300
2.180E-06,-0.380
2.190E-06,-0.320
2.200E-06,-0.400
2.210E-06,-0.140
2.220E-06,-0.360
2.230E-06,-0.100
2.240E-06,-0.460
2.250E-06,-0.480
2.260E-06,-0.420
2.270E-06,-0.740
2.280E-06,-0.560
2.290E-06,-0.800
2.300E-06,-0.620
2.310E-06,-0.700
2.320E-06,-0.520
2.330E-06,-0.440
2.340E-06,-0.340
2.350E-06,-0.120
2.360E-06,-0.080
2.370E-06,0.060
2.380E-06,0.040
2.390E-06,0.120
2.400E-06,0.180
2.410E-06,0.160
2.420E-06,0.180
2.430E-06,0.160
2.440E-06,0.180
2.450E-06,0.200
2.460E-06,0.220
2.470E-06,0.240
2.480E-06,0.200
2.490E-06,0.220
2.500E-06,0.240
2.510E-06,0.260
2.520E-06,0.260
2.530E-06,0.300
2.540E-06,0.340
2.550E-06,0.360
2.560E-06,0.340
2.570E-06,0.380
2.580E-06,0.440
2.590E-06,0.520
2.600E-06,0.600
2.610E-06,0.640
2.620E-06,0.680
2.630E-06,0.680
2.640E-06,0.620
2.650E-06,0.600
2.660E-06,0.660
2.670E-06,0.640
2.680E-06,0.640
2.690E-06,0.600
2.700E-06,0.500
2.710E-06,0.420
2.720E-06,0.280
2.730E-06,0.180
2.740E-06,0.000
2.750E-06,-0.080
2.760E-06,-0.160
2.770E-06,-0.160
2.780E-06,-0.200
2.790E-06,-0.140
2.800E-06,-0.160
2.810E-06,-0.100
2.820E-06,-0.100
2.830E-06,0.000
2.840E-06,0.000
2.850E-06,0.000
2.860E-06,0.060
2.870E-06,0.080
2.880E-06,0.140
2.890E-06,0.080
2.900E-06,0.180
2.910E-06,0.180
2.920E-06,0.240
2.930E-06,0.260
2.940E-06,0.280
2.950E-06,0.340
2.960E-06,0.320
2.970E-06,0.380
2.980E-06,0.380
2.990E-06,0.320
3.000E-06,0.340
3.010E-06,0.420
3.020E-06,0.400
3.030E-06,0.400
3.040E-06,0.300
3.050E-06,0.440
3.060E-06,0.360
3.070E-06,0.440
3.080E-06,0.400
3.090E-06,0.480
3.100E-06,0.500
3.110E-06,0.560
3.120E-06,0.560
3.130E-06,0.480
3.140E-06,0.600
3.150E-06,0.500
3.160E-06,0.520
3.170E-06,0.480
3.180E-06,0.480
3.190E-06,0.520
3.200E-06,0.440
3.210E-06,0.480
3.220E-06,0.420
3.230E-06,0.460
3.240E-06,0.420
3.250E-06,0.420
3.260E-06,0.360
3.270E-06,0.340
3.280E-06,0.260
3.290E-06,0.220
3.300E-06,0.180
3.310E-06,0.220
3.320E-06,0.220
3.330E-06,0.100
