mediciones/8-28/-8/WaveData65666.csv

#timebase=2000000(ps)
,#voltbase=500000(mv/100)
#size=4000
-8.350E-06,0.040
-8.340E-06,0.020
-8.330E-06,0.060
-8.320E-06,0.020
-8.310E-06,0.080
-8.300E-06,0.040
-8.290E-06,0.040
-8.280E-06,0.080
-8.270E-06,0.020
-8.260E-06,0.040
-8.250E-06,0.060
-8.240E-06,0.040
-8.230E-06,0.020
-8.220E-06,0.060
-8.210E-06,0.040
-8.200E-06,0.060
-8.190E-06,0.060
-8.180E-06,0.020
-8.170E-06,0.020
-8.160E-06,0.040
-8.150E-06,0.040
-8.140E-06,0.040
-8.130E-06,0.040
-8.120E-06,0.040
-8.110E-06,0.060
-8.100E-06,0.060
-8.090E-06,0.040
-8.080E-06,0.060
-8.070E-06,0.000
-8.060E-06,0.040
-8.050E-06,0.060
-8.040E-06,0.040
-8.030E-06,0.060
-8.020E-06,0.060
-8.010E-06,0.060
-8.000E-06,0.060
-7.990E-06,0.020
-7.980E-06,0.020
-7.970E-06,0.020
-7.960E-06,0.040
-7.950E-06,0.020
-7.940E-06,0.040
-7.930E-06,0.060
-7.920E-06,0.080
-7.910E-06,0.040
-7.900E-06,0.040
-7.890E-06,0.040
-7.880E-06,0.060
-7.870E-06,0.040
-7.860E-06,0.020
-7.850E-06,0.020
-7.840E-06,0.060
-7.830E-06,0.040
-7.820E-06,0.060
-7.810E-06,0.040
-7.800E-06,0.020
-7.790E-06,0.080
-7.780E-06,0.040
-7.770E-06,0.060
-7.760E-06,0.060
-7.750E-06,0.060
-7.740E-06,0.020
-7.730E-06,0.060
-7.720E-06,0.040
-7.710E-06,0.040
-7.700E-06,0.060
-7.690E-06,0.060
-7.680E-06,0.040
-7.670E-06,0.060
-7.660E-06,0.060
-7.650E-06,0.060
-7.640E-06,0.040
-7.630E-06,0.060
-7.620E-06,0.060
-7.610E-06,0.020
-7.600E-06,0.060
-7.590E-06,0.020
-7.580E-06,0.080
-7.570E-06,0.060
-7.560E-06,0.020
-7.550E-06,0.040
-7.540E-06,0.060
-7.530E-06,0.040
-7.520E-06,0.060
-7.510E-06,0.040
-7.500E-06,0.040
-7.490E-06,0.080
-7.480E-06,0.060
-7.470E-06,0.060
-7.460E-06,0.080
-7.450E-06,0.020
-7.440E-06,0.060
-7.430E-06,0.040
-7.420E-06,0.040
-7.410E-06,0.080
-7.400E-06,0.060
-7.390E-06,0.040
-7.380E-06,0.060
-7.370E-06,0.040
-7.360E-06,0.020
-7.350E-06,0.040
-7.340E-06,0.020
-7.330E-06,0.040
-7.320E-06,0.060
-7.310E-06,0.000
-7.300E-06,0.040
-7.290E-06,0.040
-7.280E-06,0.060
-7.270E-06,0.060
-7.260E-06,0.040
-7.250E-06,0.080
-7.240E-06,0.020
-7.230E-06,0.040
-7.220E-06,0.040
-7.210E-06,0.040
-7.200E-06,0.060
-7.190E-06,0.020
-7.180E-06,0.040
-7.170E-06,0.040
-7.160E-06,0.000
-7.150E-06,0.040
-7.140E-06,0.060
-7.130E-06,0.040
-7.120E-06,0.060
-7.110E-06,0.060
-7.100E-06,0.040
-7.090E-06,0.020
-7.080E-06,0.060
-7.070E-06,0.020
-7.060E-06,0.060
-7.050E-06,0.060
-7.040E-06,0.080
-7.030E-06,0.040
-7.020E-06,0.040
-7.010E-06,0.040
-7.000E-06,0.020
-6.990E-06,0.040
-6.980E-06,0.080
-6.970E-06,0.040
-6.960E-06,0.040
-6.950E-06,0.020
-6.940E-06,0.040
-6.930E-06,0.020
-6.920E-06,0.060
-6.910E-06,0.060
-6.900E-06,0.040
-6.890E-06,0.080
-6.880E-06,0.040
-6.870E-06,0.060
-6.860E-06,0.060
-6.850E-06,0.040
-6.840E-06,0.020
-6.830E-06,0.020
-6.820E-06,0.060
-6.810E-06,0.040
-6.800E-06,0.060
-6.790E-06,0.060
-6.780E-06,0.040
-6.770E-06,0.020
-6.760E-06,0.040
-6.750E-06,0.020
-6.740E-06,0.060
-6.730E-06,0.020
-6.720E-06,0.060
-6.710E-06,0.060
-6.700E-06,0.060
-6.690E-06,0.080
-6.680E-06,0.060
-6.670E-06,0.020
-6.660E-06,0.040
-6.650E-06,0.080
-6.640E-06,0.060
-6.630E-06,0.020
-6.620E-06,0.040
-6.610E-06,0.040
-6.600E-06,0.040
-6.590E-06,0.060
-6.580E-06,0.040
-6.570E-06,0.020
-6.560E-06,0.060
-6.550E-06,0.040
-6.540E-06,0.060
-6.530E-06,0.060
-6.520E-06,0.060
-6.510E-06,0.040
-6.500E-06,0.040
-6.490E-06,0.040
-6.480E-06,0.060
-6.470E-06,0.040
-6.460E-06,0.020
-6.450E-06,0.020
-6.440E-06,0.060
-6.430E-06,0.040
-6.420E-06,0.060
-6.410E-06,0.020
-6.400E-06,0.060
-6.390E-06,0.040
-6.380E-06,0.060
-6.370E-06,0.060
-6.360E-06,0.040
-6.350E-06,0.080
-6.340E-06,0.020
-6.330E-06,0.060
-6.320E-06,0.060
-6.310E-06,0.080
-6.300E-06,0.060
-6.290E-06,0.020
-6.280E-06,0.040
-6.270E-06,0.060
-6.260E-06,0.060
-6.250E-06,0.040
-6.240E-06,0.060
-6.230E-06,0.040
-6.220E-06,0.040
-6.210E-06,0.040
-6.200E-06,0.060
-6.190E-06,0.060
-6.180E-06,0.040
-6.170E-06,0.060
-6.160E-06,0.080
-6.150E-06,0.080
-6.140E-06,0.040
-6.130E-06,0.020
-6.120E-06,0.040
-6.110E-06,0.000
-6.100E-06,0.060
-6.090E-06,0.060
-6.080E-06,0.040
-6.070E-06,0.060
-6.060E-06,0.040
-6.050E-06,0.020
-6.040E-06,0.040
-6.030E-06,0.080
-6.020E-06,0.020
-6.010E-06,0.040
-6.000E-06,0.060
-5.990E-06,0.020
-5.980E-06,0.060
-5.970E-06,0.040
-5.960E-06,0.080
-5.950E-06,0.040
-5.940E-06,0.020
-5.930E-06,0.040
-5.920E-06,0.080
-5.910E-06,0.060
-5.900E-06,0.040
-5.890E-06,0.040
-5.880E-06,0.020
-5.870E-06,0.060
-5.860E-06,0.020
-5.850E-06,0.040
-5.840E-06,0.040
-5.830E-06,0.040
-5.820E-06,0.040
-5.810E-06,0.040
-5.800E-06,0.060
-5.790E-06,0.060
-5.780E-06,0.040
-5.770E-06,0.020
-5.760E-06,0.060
-5.750E-06,0.060
-5.740E-06,0.040
-5.730E-06,0.080
-5.720E-06,0.040
-5.710E-06,0.020
-5.700E-06,0.060
-5.690E-06,0.040
-5.680E-06,0.080
-5.670E-06,0.060
-5.660E-06,0.020
-5.650E-06,0.040
-5.640E-06,0.060
-5.630E-06,0.060
-5.620E-06,0.060
-5.610E-06,0.040
-5.600E-06,0.040
-5.590E-06,0.040
-5.580E-06,0.020
-5.570E-06,0.060
-5.560E-06,0.060
-5.550E-06,0.020
-5.540E-06,0.060
-5.530E-06,0.060
-5.520E-06,0.020
-5.510E-06,0.000
-5.500E-06,0.060
-5.490E-06,0.040
-5.480E-06,0.020
-5.470E-06,0.040
-5.460E-06,0.060
-5.450E-06,0.020
-5.440E-06,0.040
-5.430E-06,0.040
-5.420E-06,0.040
-5.410E-06,0.020
-5.400E-06,0.040
-5.390E-06,0.040
-5.380E-06,0.020
-5.370E-06,0.040
-5.360E-06,0.040
-5.350E-06,0.080
-5.340E-06,0.040
-5.330E-06,0.060
-5.320E-06,0.020
-5.310E-06,0.060
-5.300E-06,0.080
-5.290E-06,0.040
-5.280E-06,0.060
-5.270E-06,0.020
-5.260E-06,0.060
-5.250E-06,0.040
-5.240E-06,0.040
-5.230E-06,0.060
-5.220E-06,0.020
-5.210E-06,0.020
-5.200E-06,0.040
-5.190E-06,0.060
-5.180E-06,0.040
-5.170E-06,0.020
-5.160E-06,0.040
-5.150E-06,0.040
-5.140E-06,0.040
-5.130E-06,0.020
-5.120E-06,0.040
-5.110E-06,0.040
-5.100E-06,0.060
-5.090E-06,0.040
-5.080E-06,0.080
-5.070E-06,0.060
-5.060E-06,0.060
-5.050E-06,0.080
-5.040E-06,0.060
-5.030E-06,0.020
-5.020E-06,0.040
-5.010E-06,0.060
-5.000E-06,0.040
-4.990E-06,0.040
-4.980E-06,0.020
-4.970E-06,0.040
-4.960E-06,0.040
-4.950E-06,0.020
-4.940E-06,0.020
-4.930E-06,0.020
-4.920E-06,0.040
-4.910E-06,0.020
-4.900E-06,0.040
-4.890E-06,0.060
-4.880E-06,0.020
-4.870E-06,0.060
-4.860E-06,0.040
-4.850E-06,0.040
-4.840E-06,0.080
-4.830E-06,0.040
-4.820E-06,0.020
-4.810E-06,0.020
-4.800E-06,0.060
-4.790E-06,0.060
-4.780E-06,0.020
-4.770E-06,0.020
-4.760E-06,0.020
-4.750E-06,0.060
-4.740E-06,0.060
-4.730E-06,0.040
-4.720E-06,0.040
-4.710E-06,0.060
-4.700E-06,0.060
-4.690E-06,0.020
-4.680E-06,0.020
-4.670E-06,0.060
-4.660E-06,0.060
-4.650E-06,0.000
-4.640E-06,0.040
-4.630E-06,0.080
-4.620E-06,0.040
-4.610E-06,0.000
-4.600E-06,0.060
-4.590E-06,0.060
-4.580E-06,0.060
-4.570E-06,0.040
-4.560E-06,0.060
-4.550E-06,0.060
-4.540E-06,0.060
-4.530E-06,0.020
-4.520E-06,0.020
-4.510E-06,0.040
-4.500E-06,0.060
-4.490E-06,0.060
-4.480E-06,0.040
-4.470E-06,0.060
-4.460E-06,0.060
-4.450E-06,0.060
-4.440E-06,0.080
-4.430E-06,0.080
-4.420E-06,0.060
-4.410E-06,0.040
-4.400E-06,0.000
-4.390E-06,0.060
-4.380E-06,0.020
-4.370E-06,0.020
-4.360E-06,0.060
-4.350E-06,0.040
-4.340E-06,0.040
-4.330E-06,0.060
-4.320E-06,0.040
-4.310E-06,0.040
-4.300E-06,0.060
-4.290E-06,0.040
-4.280E-06,0.020
-4.270E-06,0.040
-4.260E-06,0.040
-4.250E-06,0.060
-4.240E-06,0.040
-4.230E-06,0.040
-4.220E-06,0.060
-4.210E-06,0.060
-4.200E-06,0.040
-4.190E-06,0.000
-4.180E-06,0.020
-4.170E-06,0.040
-4.160E-06,0.060
-4.150E-06,0.040
-4.140E-06,0.060
-4.130E-06,0.020
-4.120E-06,0.060
-4.110E-06,0.060
-4.100E-06,0.040
-4.090E-06,0.060
-4.080E-06,0.020
-4.070E-06,0.040
-4.060E-06,0.060
-4.050E-06,0.080
-4.040E-06,0.060
-4.030E-06,0.060
-4.020E-06,0.020
-4.010E-06,0.040
-4.000E-06,0.080
-3.990E-06,0.060
-3.980E-06,0.020
-3.970E-06,0.040
-3.960E-06,0.040
-3.950E-06,0.040
-3.940E-06,0.080
-3.930E-06,0.020
-3.920E-06,0.040
-3.910E-06,0.040
-3.900E-06,0.060
-3.890E-06,0.040
-3.880E-06,0.060
-3.870E-06,0.040
-3.860E-06,0.060
-3.850E-06,0.000
-3.840E-06,0.040
-3.830E-06,0.040
-3.820E-06,0.020
-3.810E-06,0.040
-3.800E-06,0.080
-3.790E-06,0.080
-3.780E-06,0.020
-3.770E-06,0.020
-3.760E-06,0.040
-3.750E-06,0.060
-3.740E-06,0.080
-3.730E-06,0.060
-3.720E-06,0.040
-3.710E-06,0.080
-3.700E-06,0.040
-3.690E-06,0.020
-3.680E-06,0.040
-3.670E-06,0.060
-3.660E-06,0.040
-3.650E-06,0.040
-3.640E-06,0.060
-3.630E-06,0.020
-3.620E-06,0.040
-3.610E-06,0.040
-3.600E-06,0.040
-3.590E-06,0.080
-3.580E-06,0.040
-3.570E-06,0.040
-3.560E-06,0.060
-3.550E-06,0.040
-3.540E-06,0.080
-3.530E-06,0.000
-3.520E-06,0.020
-3.510E-06,0.060
-3.500E-06,0.000
-3.490E-06,0.040
-3.480E-06,0.060
-3.470E-06,0.060
-3.460E-06,0.060
-3.450E-06,0.020
-3.440E-06,0.020
-3.430E-06,0.060
-3.420E-06,0.020
-3.410E-06,0.040
-3.400E-06,0.040
-3.390E-06,0.040
-3.380E-06,0.060
-3.370E-06,0.040
-3.360E-06,0.040
-3.350E-06,0.060
-3.340E-06,0.040
-3.330E-06,0.020
-3.320E-06,0.040
-3.310E-06,0.060
-3.300E-06,0.040
-3.290E-06,0.020
-3.280E-06,0.040
-3.270E-06,0.080
-3.260E-06,0.080
-3.250E-06,0.080
-3.240E-06,0.040
-3.230E-06,0.060
-3.220E-06,0.040
-3.210E-06,0.060
-3.200E-06,0.040
-3.190E-06,0.040
-3.180E-06,0.020
-3.170E-06,0.040
-3.160E-06,0.060
-3.150E-06,0.080
-3.140E-06,0.060
-3.130E-06,0.080
-3.120E-06,0.060
-3.110E-06,0.020
-3.100E-06,0.060
-3.090E-06,0.040
-3.080E-06,0.060
-3.070E-06,0.040
-3.060E-06,0.040
-3.050E-06,0.020
-3.040E-06,0.040
-3.030E-06,0.020
-3.020E-06,0.040
-3.010E-06,0.060
-3.000E-06,0.080
-2.990E-06,0.040
-2.980E-06,0.040
-2.970E-06,0.040
-2.960E-06,0.040
-2.950E-06,0.060
-2.940E-06,0.060
-2.930E-06,0.080
-2.920E-06,0.080
-2.910E-06,0.020
-2.900E-06,0.000
-2.890E-06,0.020
-2.880E-06,0.080
-2.870E-06,0.040
-2.860E-06,0.060
-2.850E-06,0.080
-2.840E-06,0.060
-2.830E-06,0.060
-2.820E-06,0.040
-2.810E-06,0.060
-2.800E-06,0.040
-2.790E-06,0.060
-2.780E-06,0.060
-2.770E-06,0.040
-2.760E-06,0.060
-2.750E-06,0.040
-2.740E-06,0.020
-2.730E-06,0.040
-2.720E-06,0.040
-2.710E-06,0.040
-2.700E-06,0.060
-2.690E-06,0.040
-2.680E-06,0.080
-2.670E-06,0.020
-2.660E-06,0.040
-2.650E-06,0.060
-2.640E-06,0.040
-2.630E-06,0.020
-2.620E-06,0.040
-2.610E-06,0.020
-2.600E-06,0.060
-2.590E-06,0.060
-2.580E-06,0.060
-2.570E-06,0.040
-2.560E-06,0.020
-2.550E-06,0.020
-2.540E-06,0.060
-2.530E-06,0.060
-2.520E-06,0.040
-2.510E-06,0.040
-2.500E-06,0.060
-2.490E-06,0.060
-2.480E-06,0.060
-2.470E-06,0.020
-2.460E-06,0.040
-2.450E-06,0.060
-2.440E-06,0.080
-2.430E-06,0.060
-2.420E-06,0.080
-2.410E-06,0.040
-2.400E-06,0.060
-2.390E-06,0.040
-2.380E-06,0.040
-2.370E-06,0.060
-2.360E-06,-0.120
-2.350E-06,-0.620
-2.340E-06,-1.580
-2.330E-06,-2.660
-2.320E-06,-3.340
-2.310E-06,-3.340
-2.300E-06,-3.240
-2.290E-06,-2.120
-2.280E-06,-0.740
-2.270E-06,0.800
-2.260E-06,2.080
-2.250E-06,2.060
-2.240E-06,2.080
-2.230E-06,2.100
-2.220E-06,2.080
-2.210E-06,2.100
-2.200E-06,2.080
-2.190E-06,2.100
-2.180E-06,1.280
-2.170E-06,0.320
-2.160E-06,-0.520
-2.150E-06,-0.820
-2.140E-06,-0.920
-2.130E-06,-0.640
-2.120E-06,-0.520
-2.110E-06,-0.360
-2.100E-06,-0.300
-2.090E-06,-0.640
-2.080E-06,-0.980
-2.070E-06,-1.480
-2.060E-06,-1.940
-2.050E-06,-2.220
-2.040E-06,-2.320
-2.030E-06,-2.200
-2.020E-06,-1.960
-2.010E-06,-1.520
-2.000E-06,-0.920
-1.990E-06,-0.160
-1.980E-06,0.600
-1.970E-06,1.260
-1.960E-06,1.780
-1.950E-06,2.040
-1.940E-06,2.040
-1.930E-06,1.800
-1.920E-06,1.360
-1.910E-06,0.780
-1.900E-06,0.280
-1.890E-06,-0.240
-1.880E-06,-0.640
-1.870E-06,-0.940
-1.860E-06,-1.120
-1.850E-06,-1.100
-1.840E-06,-1.020
-1.830E-06,-0.920
-1.820E-06,-0.700
-1.810E-06,-0.480
-1.800E-06,-0.280
-1.790E-06,0.020
-1.780E-06,0.160
-1.770E-06,0.440
-1.760E-06,0.620
-1.750E-06,0.860
-1.740E-06,1.040
-1.730E-06,1.100
-1.720E-06,1.160
-1.710E-06,1.160
-1.700E-06,1.100
-1.690E-06,0.940
-1.680E-06,0.760
-1.670E-06,0.540
-1.660E-06,0.300
-1.650E-06,0.120
-1.640E-06,-0.140
-1.630E-06,-0.300
-1.620E-06,-0.400
-1.610E-06,-0.500
-1.600E-06,-0.600
-1.590E-06,-0.680
-1.580E-06,-0.700
-1.570E-06,-0.680
-1.560E-06,-0.680
-1.550E-06,-0.660
-1.540E-06,-0.460
-1.530E-06,-0.280
-1.520E-06,-0.140
-1.510E-06,0.120
-1.500E-06,0.420
-1.490E-06,0.660
-1.480E-06,0.840
-1.470E-06,1.000
-1.460E-06,1.060
-1.450E-06,0.980
-1.440E-06,0.820
-1.430E-06,0.640
-1.420E-06,0.340
-1.410E-06,0.120
-1.400E-06,-0.080
-1.390E-06,-0.320
-1.380E-06,-0.380
-1.370E-06,-0.600
-1.360E-06,-0.620
-1.350E-06,-0.640
-1.340E-06,-0.740
-1.330E-06,-0.600
-1.320E-06,-0.560
-1.310E-06,-0.380
-1.300E-06,-0.260
-1.290E-06,-0.160
-1.280E-06,-0.140
-1.270E-06,-0.020
-1.260E-06,-0.020
-1.250E-06,-0.060
-1.240E-06,-0.040
-1.230E-06,-0.020
-1.220E-06,-0.040
-1.210E-06,-0.020
-1.200E-06,0.020
-1.190E-06,0.100
-1.180E-06,0.100
-1.170E-06,0.080
-1.160E-06,0.080
-1.150E-06,-0.020
-1.140E-06,-0.020
-1.130E-06,-0.160
-1.120E-06,-0.160
-1.110E-06,0.080
-1.100E-06,-0.120
-1.090E-06,-0.040
-1.080E-06,-0.200
-1.070E-06,0.240
-1.060E-06,-0.260
-1.050E-06,0.300
-1.040E-06,-0.180
-1.030E-06,0.060
-1.020E-06,-0.040
-1.010E-06,-0.080
-1.000E-06,0.120
-9.900E-07,-0.180
-9.800E-07,-0.180
-9.700E-07,-0.140
-9.600E-07,-0.280
-9.500E-07,0.140
-9.400E-07,0.140
-9.300E-07,0.000
-9.200E-07,0.240
-9.100E-07,0.000
-9.000E-07,0.300
-8.900E-07,-0.280
-8.800E-07,-0.220
-8.700E-07,-0.580
-8.600E-07,-0.300
-8.500E-07,-0.100
-8.400E-07,-0.460
-8.300E-07,-0.500
-8.200E-07,-0.580
-8.100E-07,-0.580
-8.000E-07,-0.780
-7.900E-07,-0.580
-7.800E-07,-0.940
-7.700E-07,-0.740
-7.600E-07,-0.920
-7.500E-07,-0.720
-7.400E-07,-0.800
-7.300E-07,-0.900
-7.200E-07,-0.340
-7.100E-07,-0.720
-7.000E-07,-0.140
-6.900E-07,-0.460
-6.800E-07,0.060
-6.700E-07,-0.060
-6.600E-07,-0.180
-6.500E-07,0.240
-6.400E-07,-0.080
-6.300E-07,0.000
-6.200E-07,-0.560
-6.100E-07,-0.320
-6.000E-07,-0.380
-5.900E-07,-0.540
-5.800E-07,-0.540
-5.700E-07,-0.800
-5.600E-07,-0.880
-5.500E-07,-0.900
-5.400E-07,-0.700
-5.300E-07,-0.620
-5.200E-07,-0.200
-5.100E-07,0.260
-5.000E-07,0.540
-4.900E-07,1.540
-4.800E-07,1.940
-4.700E-07,1.700
-4.600E-07,1.600
-4.500E-07,0.860
-4.400E-07,-0.280
-4.300E-07,-1.080
-4.200E-07,-2.020
-4.100E-07,-2.340
-4.000E-07,-2.620
-3.900E-07,-2.640
-3.800E-07,-2.340
-3.700E-07,-2.100
-3.600E-07,-1.680
-3.500E-07,-1.240
-3.400E-07,-0.980
-3.300E-07,-0.660
-3.200E-07,-0.840
-3.100E-07,-0.400
-3.000E-07,0.380
-2.900E-07,0.580
-2.800E-07,1.440
-2.700E-07,0.580
-2.600E-07,-0.020
-2.500E-07,-0.660
-2.400E-07,-1.000
-2.300E-07,-1.140
-2.200E-07,-1.540
-2.100E-07,-1.820
-2.000E-07,-1.240
-1.900E-07,-1.960
-1.800E-07,-1.680
-1.700E-07,-2.760
-1.600E-07,-2.440
-1.500E-07,-3.020
-1.400E-07,-2.520
-1.300E-07,-2.620
-1.200E-07,-2.140
-1.100E-07,-2.100
-1.000E-07,-1.820
-9.000E-08,-1.880
-8.000E-08,-1.780
-7.000E-08,-1.240
-6.000E-08,-0.520
-5.000E-08,0.420
-4.000E-08,1.320
-3.000E-08,1.880
-2.000E-08,2.100
-1.000E-08,2.020
0.000E+00,1.520
1.000E-08,1.060
2.000E-08,0.520
3.000E-08,-0.160
4.000E-08,-0.700
5.000E-08,-0.620
6.000E-08,-0.860
7.000E-08,-0.980
8.000E-08,-1.340
9.000E-08,-0.860
1.000E-07,-1.060
1.100E-07,-0.520
1.200E-07,-0.420
1.300E-07,-0.460
1.400E-07,-1.180
1.500E-07,-1.440
1.600E-07,-2.600
1.700E-07,-3.160
1.800E-07,-3.340
1.900E-07,-3.340
2.000E-07,-3.360
2.100E-07,-3.340
2.200E-07,-3.220
2.300E-07,-3.000
2.400E-07,-2.140
2.500E-07,-1.780
2.600E-07,-1.220
2.700E-07,-1.000
2.800E-07,-0.680
2.900E-07,-0.680
3.000E-07,-0.320
3.100E-07,-0.100
3.200E-07,0.140
3.300E-07,0.260
3.400E-07,0.340
3.500E-07,0.320
3.600E-07,0.340
3.700E-07,0.380
3.800E-07,0.680
3.900E-07,0.840
4.000E-07,0.980
4.100E-07,1.000
4.200E-07,0.980
4.300E-07,0.940
4.400E-07,0.880
4.500E-07,0.720
4.600E-07,0.620
4.700E-07,0.440
4.800E-07,0.300
4.900E-07,0.080
5.000E-07,-0.080
5.100E-07,-0.160
5.200E-07,-0.120
5.300E-07,0.020
5.400E-07,0.200
5.500E-07,0.320
5.600E-07,0.460
5.700E-07,0.480
5.800E-07,0.500
5.900E-07,0.380
6.000E-07,0.220
6.100E-07,-0.040
6.200E-07,-0.340
6.300E-07,-0.660
6.400E-07,-0.960
6.500E-07,-1.260
6.600E-07,-1.440
6.700E-07,-1.520
6.800E-07,-1.560
6.900E-07,-1.540
7.000E-07,-1.480
7.100E-07,-1.340
7.200E-07,-1.220
7.300E-07,-1.100
7.400E-07,-1.040
7.500E-07,-0.980
7.600E-07,-0.900
7.700E-07,-0.840
7.800E-07,-0.800
7.900E-07,-0.760
8.000E-07,-0.720
8.100E-07,-0.800
8.200E-07,-0.540
8.300E-07,-0.320
8.400E-07,-0.460
8.500E-07,0.500
8.600E-07,-0.180
8.700E-07,0.500
8.800E-07,-0.840
8.900E-07,-1.100
9.000E-07,-2.060
9.100E-07,-2.320
9.200E-07,-3.060
9.300E-07,-3.340
9.400E-07,-3.340
9.500E-07,-3.340
9.600E-07,-3.340
9.700E-07,-3.360
9.800E-07,-3.340
9.900E-07,-3.140
1.000E-06,-2.540
1.010E-06,-2.520
1.020E-06,-2.180
1.030E-06,-1.820
1.040E-06,-1.200
1.050E-06,-0.560
1.060E-06,0.040
1.070E-06,0.560
1.080E-06,0.800
1.090E-06,1.080
1.100E-06,1.180
1.110E-06,1.360
1.120E-06,1.360
1.130E-06,1.420
1.140E-06,1.460
1.150E-06,1.420
1.160E-06,1.340
1.170E-06,1.120
1.180E-06,1.060
1.190E-06,0.800
1.200E-06,0.700
1.210E-06,0.480
1.220E-06,0.340
1.230E-06,0.240
1.240E-06,0.180
1.250E-06,0.160
1.260E-06,0.200
1.270E-06,0.240
1.280E-06,0.300
1.290E-06,0.420
1.300E-06,0.560
1.310E-06,0.640
1.320E-06,0.680
1.330E-06,0.580
1.340E-06,0.440
1.350E-06,0.240
1.360E-06,-0.080
1.370E-06,-0.400
1.380E-06,-0.740
1.390E-06,-1.180
1.400E-06,-1.560
1.410E-06,-2.160
1.420E-06,-2.340
1.430E-06,-2.740
1.440E-06,-2.800
1.450E-06,-2.880
1.460E-06,-2.880
1.470E-06,-2.680
1.480E-06,-2.580
1.490E-06,-2.300
1.500E-06,-2.300
1.510E-06,-2.000
1.520E-06,-1.940
1.530E-06,-1.780
1.540E-06,-1.700
1.550E-06,-1.540
1.560E-06,-1.360
1.570E-06,-1.180
1.580E-06,-0.980
1.590E-06,-0.920
1.600E-06,-0.840
1.610E-06,-0.740
1.620E-06,-0.820
1.630E-06,-0.860
1.640E-06,-0.900
1.650E-06,-1.040
1.660E-06,-1.040
1.670E-06,-1.140
1.680E-06,-1.180
1.690E-06,-1.160
1.700E-06,-1.180
1.710E-06,-1.100
1.720E-06,-1.020
1.730E-06,-1.000
1.740E-06,-0.860
1.750E-06,-0.720
1.760E-06,-0.520
1.770E-06,-0.340
1.780E-06,-0.220
1.790E-06,-0.100
1.800E-06,-0.020
1.810E-06,0.040
1.820E-06,0.100
1.830E-06,0.180
1.840E-06,0.180
1.850E-06,0.180
1.860E-06,0.060
1.870E-06,0.040
1.880E-06,0.020
1.890E-06,0.180
1.900E-06,0.240
1.910E-06,0.340
1.920E-06,0.340
1.930E-06,0.560
1.940E-06,0.600
1.950E-06,0.620
1.960E-06,0.560
1.970E-06,0.580
1.980E-06,0.520
1.990E-06,0.440
2.000E-06,0.340
2.010E-06,0.360
2.020E-06,0.260
2.030E-06,0.140
2.040E-06,0.100
2.050E-06,0.040
2.060E-06,0.120
2.070E-06,0.000
2.080E-06,-0.040
2.090E-06,0.080
2.100E-06,-0.040
2.110E-06,0.020
2.120E-06,0.000
2.130E-06,0.040
2.140E-06,0.020
2.150E-06,0.020
2.160E-06,-0.060
2.170E-06,-0.040
2.180E-06,-0.160
2.190E-06,-0.020
2.200E-06,-0.160
2.210E-06,0.020
2.220E-06,-0.100
2.230E-06,0.020
2.240E-06,-0.020
2.250E-06,-0.020
2.260E-06,0.020
2.270E-06,-0.020
2.280E-06,0.080
2.290E-06,-0.020
2.300E-06,0.080
2.310E-06,0.060
2.320E-06,0.080
2.330E-06,0.040
2.340E-06,0.060
2.350E-06,0.100
2.360E-06,0.120
2.370E-06,0.160
2.380E-06,0.160
2.390E-06,0.200
2.400E-06,0.220
2.410E-06,0.220
2.420E-06,0.260
2.430E-06,0.240
2.440E-06,0.280
2.450E-06,0.240
2.460E-06,0.240
2.470E-06,0.260
2.480E-06,0.240
2.490E-06,0.220
2.500E-06,0.220
2.510E-06,0.220
2.520E-06,0.220
2.530E-06,0.080
2.540E-06,0.100
2.550E-06,0.060
2.560E-06,0.080
2.570E-06,0.000
2.580E-06,0.080
2.590E-06,0.060
2.600E-06,0.060
2.610E-06,0.080
2.620E-06,0.000
2.630E-06,0.020
2.640E-06,0.000
2.650E-06,0.080
2.660E-06,0.120
2.670E-06,0.120
2.680E-06,0.120
2.690E-06,0.200
2.700E-06,0.240
2.710E-06,0.240
2.720E-06,0.260
2.730E-06,0.280
2.740E-06,0.400
2.750E-06,0.400
2.760E-06,0.400
2.770E-06,0.400
2.780E-06,0.380
2.790E-06,0.360
2.800E-06,0.360
2.810E-06,0.320
2.820E-06,0.360
2.830E-06,0.400
2.840E-06,0.420
2.850E-06,0.500
2.860E-06,0.540
2.870E-06,0.580
2.880E-06,0.600
2.890E-06,0.620
2.900E-06,0.620
2.910E-06,0.660
2.920E-06,0.640
2.930E-06,0.640
2.940E-06,0.640
2.950E-06,0.600
2.960E-06,0.520
2.970E-06,0.500
2.980E-06,0.460
2.990E-06,0.380
3.000E-06,0.360
3.010E-06,0.320
3.020E-06,0.260
3.030E-06,0.280
3.040E-06,0.280
3.050E-06,0.300
3.060E-06,0.320
3.070E-06,0.400
3.080E-06,0.300
3.090E-06,0.080
3.100E-06,-0.040
3.110E-06,0.140
3.120E-06,0.380
3.130E-06,0.460
3.140E-06,0.440
3.150E-06,0.400
3.160E-06,0.420
3.170E-06,0.500
3.180E-06,0.500
3.190E-06,0.520
3.200E-06,0.540
3.210E-06,0.600
3.220E-06,0.600
3.230E-06,0.600
3.240E-06,0.380
3.250E-06,0.280
3.260E-06,0.240
3.270E-06,0.240
3.280E-06,0.320
3.290E-06,0.420
3.300E-06,0.520
3.310E-06,0.660
3.320E-06,0.740
3.330E-06,0.860
3.340E-06,0.860
3.350E-06,0.900
3.360E-06,0.880
3.370E-06,0.860
3.380E-06,0.860
3.390E-06,0.820
3.400E-06,0.700
