mediciones/curva carac 8-28 limpias/55/WaveData65559.csv

#timebase=2000000(ps)
,#voltbase=500000(mv/100)
#size=4000
-8.350E-06,0.040
-8.340E-06,0.080
-8.330E-06,0.080
-8.320E-06,0.060
-8.310E-06,0.060
-8.300E-06,0.040
-8.290E-06,0.040
-8.280E-06,0.020
-8.270E-06,0.080
-8.260E-06,0.060
-8.250E-06,0.080
-8.240E-06,0.080
-8.230E-06,0.080
-8.220E-06,0.040
-8.210E-06,0.060
-8.200E-06,0.040
-8.190E-06,0.060
-8.180E-06,0.080
-8.170E-06,0.080
-8.160E-06,0.080
-8.150E-06,0.040
-8.140E-06,0.020
-8.130E-06,0.060
-8.120E-06,0.060
-8.110E-06,0.060
-8.100E-06,0.060
-8.090E-06,0.060
-8.080E-06,0.060
-8.070E-06,0.060
-8.060E-06,0.060
-8.050E-06,0.060
-8.040E-06,0.060
-8.030E-06,0.080
-8.020E-06,0.060
-8.010E-06,0.060
-8.000E-06,0.080
-7.990E-06,0.060
-7.980E-06,0.080
-7.970E-06,0.060
-7.960E-06,0.040
-7.950E-06,0.080
-7.940E-06,0.080
-7.930E-06,0.060
-7.920E-06,0.060
-7.910E-06,0.060
-7.900E-06,0.040
-7.890E-06,0.040
-7.880E-06,0.040
-7.870E-06,0.080
-7.860E-06,0.040
-7.850E-06,0.060
-7.840E-06,0.060
-7.830E-06,0.080
-7.820E-06,0.060
-7.810E-06,0.080
-7.800E-06,0.040
-7.790E-06,0.060
-7.780E-06,0.080
-7.770E-06,0.080
-7.760E-06,0.060
-7.750E-06,0.060
-7.740E-06,0.040
-7.730E-06,0.040
-7.720E-06,0.080
-7.710E-06,0.040
-7.700E-06,0.080
-7.690E-06,0.040
-7.680E-06,0.060
-7.670E-06,0.060
-7.660E-06,0.040
-7.650E-06,0.080
-7.640E-06,0.060
-7.630E-06,0.040
-7.620E-06,0.080
-7.610E-06,0.060
-7.600E-06,0.080
-7.590E-06,0.080
-7.580E-06,0.060
-7.570E-06,0.080
-7.560E-06,0.080
-7.550E-06,0.060
-7.540E-06,0.060
-7.530E-06,0.040
-7.520E-06,0.080
-7.510E-06,0.060
-7.500E-06,0.080
-7.490E-06,0.080
-7.480E-06,0.060
-7.470E-06,0.100
-7.460E-06,0.060
-7.450E-06,0.060
-7.440E-06,0.060
-7.430E-06,0.040
-7.420E-06,0.040
-7.410E-06,0.060
-7.400E-06,0.060
-7.390E-06,0.060
-7.380E-06,0.080
-7.370E-06,0.080
-7.360E-06,0.080
-7.350E-06,0.040
-7.340E-06,0.040
-7.330E-06,0.040
-7.320E-06,0.060
-7.310E-06,0.020
-7.300E-06,0.060
-7.290E-06,0.040
-7.280E-06,0.040
-7.270E-06,0.060
-7.260E-06,0.060
-7.250E-06,0.060
-7.240E-06,0.060
-7.230E-06,0.040
-7.220E-06,0.060
-7.210E-06,0.040
-7.200E-06,0.040
-7.190E-06,0.080
-7.180E-06,0.020
-7.170E-06,0.040
-7.160E-06,0.080
-7.150E-06,0.060
-7.140E-06,0.080
-7.130E-06,0.080
-7.120E-06,0.060
-7.110E-06,0.040
-7.100E-06,0.060
-7.090E-06,0.060
-7.080E-06,0.060
-7.070E-06,0.060
-7.060E-06,0.060
-7.050E-06,0.080
-7.040E-06,0.060
-7.030E-06,0.040
-7.020E-06,0.080
-7.010E-06,0.060
-7.000E-06,0.060
-6.990E-06,0.060
-6.980E-06,0.060
-6.970E-06,0.040
-6.960E-06,0.060
-6.950E-06,0.060
-6.940E-06,0.060
-6.930E-06,0.080
-6.920E-06,0.060
-6.910E-06,0.060
-6.900E-06,0.060
-6.890E-06,0.060
-6.880E-06,0.040
-6.870E-06,0.060
-6.860E-06,0.080
-6.850E-06,0.060
-6.840E-06,0.100
-6.830E-06,0.060
-6.820E-06,0.080
-6.810E-06,0.060
-6.800E-06,0.060
-6.790E-06,0.020
-6.780E-06,0.080
-6.770E-06,0.080
-6.760E-06,0.060
-6.750E-06,0.060
-6.740E-06,0.020
-6.730E-06,0.020
-6.720E-06,0.080
-6.710E-06,0.080
-6.700E-06,0.080
-6.690E-06,0.060
-6.680E-06,0.040
-6.670E-06,0.060
-6.660E-06,0.100
-6.650E-06,0.060
-6.640E-06,0.060
-6.630E-06,0.060
-6.620E-06,0.040
-6.610E-06,0.080
-6.600E-06,0.060
-6.590E-06,0.060
-6.580E-06,0.040
-6.570E-06,0.060
-6.560E-06,0.060
-6.550E-06,0.040
-6.540E-06,0.040
-6.530E-06,0.080
-6.520E-06,0.060
-6.510E-06,0.100
-6.500E-06,0.060
-6.490E-06,0.040
-6.480E-06,0.060
-6.470E-06,0.060
-6.460E-06,0.040
-6.450E-06,0.060
-6.440E-06,0.040
-6.430E-06,0.080
-6.420E-06,0.040
-6.410E-06,0.040
-6.400E-06,0.060
-6.390E-06,0.080
-6.380E-06,0.040
-6.370E-06,0.040
-6.360E-06,0.040
-6.350E-06,0.060
-6.340E-06,0.040
-6.330E-06,0.020
-6.320E-06,0.060
-6.310E-06,0.080
-6.300E-06,0.040
-6.290E-06,0.040
-6.280E-06,0.060
-6.270E-06,0.040
-6.260E-06,0.040
-6.250E-06,0.080
-6.240E-06,0.040
-6.230E-06,0.060
-6.220E-06,0.040
-6.210E-06,0.080
-6.200E-06,0.080
-6.190E-06,0.040
-6.180E-06,0.080
-6.170E-06,0.060
-6.160E-06,0.040
-6.150E-06,0.040
-6.140E-06,0.060
-6.130E-06,0.080
-6.120E-06,0.080
-6.110E-06,0.100
-6.100E-06,0.040
-6.090E-06,0.100
-6.080E-06,0.040
-6.070E-06,0.060
-6.060E-06,0.060
-6.050E-06,0.040
-6.040E-06,0.040
-6.030E-06,0.060
-6.020E-06,0.060
-6.010E-06,0.040
-6.000E-06,0.060
-5.990E-06,0.040
-5.980E-06,0.080
-5.970E-06,0.060
-5.960E-06,0.060
-5.950E-06,0.040
-5.940E-06,0.080
-5.930E-06,0.060
-5.920E-06,0.060
-5.910E-06,0.040
-5.900E-06,0.020
-5.890E-06,0.060
-5.880E-06,0.060
-5.870E-06,0.060
-5.860E-06,0.060
-5.850E-06,0.060
-5.840E-06,0.080
-5.830E-06,0.040
-5.820E-06,0.040
-5.810E-06,0.080
-5.800E-06,0.040
-5.790E-06,0.040
-5.780E-06,0.060
-5.770E-06,0.060
-5.760E-06,0.020
-5.750E-06,0.060
-5.740E-06,0.060
-5.730E-06,0.080
-5.720E-06,0.060
-5.710E-06,0.100
-5.700E-06,0.060
-5.690E-06,0.060
-5.680E-06,0.040
-5.670E-06,0.060
-5.660E-06,0.060
-5.650E-06,0.080
-5.640E-06,0.040
-5.630E-06,0.080
-5.620E-06,0.060
-5.610E-06,0.060
-5.600E-06,0.080
-5.590E-06,0.060
-5.580E-06,0.040
-5.570E-06,0.040
-5.560E-06,0.060
-5.550E-06,0.060
-5.540E-06,0.040
-5.530E-06,0.060
-5.520E-06,0.060
-5.510E-06,0.060
-5.500E-06,0.040
-5.490E-06,0.040
-5.480E-06,0.060
-5.470E-06,0.080
-5.460E-06,0.040
-5.450E-06,0.060
-5.440E-06,0.040
-5.430E-06,0.060
-5.420E-06,0.060
-5.410E-06,0.040
-5.400E-06,0.040
-5.390E-06,0.120
-5.380E-06,0.040
-5.370E-06,0.040
-5.360E-06,0.020
-5.350E-06,0.100
-5.340E-06,0.040
-5.330E-06,0.080
-5.320E-06,0.060
-5.310E-06,0.080
-5.300E-06,0.060
-5.290E-06,0.060
-5.280E-06,0.040
-5.270E-06,0.060
-5.260E-06,0.060
-5.250E-06,0.020
-5.240E-06,0.040
-5.230E-06,0.080
-5.220E-06,0.080
-5.210E-06,0.060
-5.200E-06,0.060
-5.190E-06,0.060
-5.180E-06,0.060
-5.170E-06,0.040
-5.160E-06,0.080
-5.150E-06,0.060
-5.140E-06,0.080
-5.130E-06,0.060
-5.120E-06,0.060
-5.110E-06,0.060
-5.100E-06,0.080
-5.090E-06,0.080
-5.080E-06,0.060
-5.070E-06,0.080
-5.060E-06,0.060
-5.050E-06,0.040
-5.040E-06,0.060
-5.030E-06,0.060
-5.020E-06,0.040
-5.010E-06,0.060
-5.000E-06,0.060
-4.990E-06,0.080
-4.980E-06,0.060
-4.970E-06,0.060
-4.960E-06,0.080
-4.950E-06,0.060
-4.940E-06,0.080
-4.930E-06,0.060
-4.920E-06,0.040
-4.910E-06,0.060
-4.900E-06,0.060
-4.890E-06,0.040
-4.880E-06,0.040
-4.870E-06,0.060
-4.860E-06,0.060
-4.850E-06,0.060
-4.840E-06,0.060
-4.830E-06,0.060
-4.820E-06,0.080
-4.810E-06,0.040
-4.800E-06,0.060
-4.790E-06,0.080
-4.780E-06,0.060
-4.770E-06,0.020
-4.760E-06,0.060
-4.750E-06,0.060
-4.740E-06,0.060
-4.730E-06,0.060
-4.720E-06,0.080
-4.710E-06,0.060
-4.700E-06,0.040
-4.690E-06,0.060
-4.680E-06,0.060
-4.670E-06,0.060
-4.660E-06,0.040
-4.650E-06,0.060
-4.640E-06,0.040
-4.630E-06,0.080
-4.620E-06,0.060
-4.610E-06,0.080
-4.600E-06,0.040
-4.590E-06,0.040
-4.580E-06,0.080
-4.570E-06,0.080
-4.560E-06,0.060
-4.550E-06,0.020
-4.540E-06,0.060
-4.530E-06,0.080
-4.520E-06,0.060
-4.510E-06,0.060
-4.500E-06,0.080
-4.490E-06,0.040
-4.480E-06,0.040
-4.470E-06,0.040
-4.460E-06,0.060
-4.450E-06,0.040
-4.440E-06,0.080
-4.430E-06,0.040
-4.420E-06,0.060
-4.410E-06,0.060
-4.400E-06,0.060
-4.390E-06,0.060
-4.380E-06,0.040
-4.370E-06,0.040
-4.360E-06,0.080
-4.350E-06,0.080
-4.340E-06,0.060
-4.330E-06,0.060
-4.320E-06,0.040
-4.310E-06,0.080
-4.300E-06,0.060
-4.290E-06,0.040
-4.280E-06,0.060
-4.270E-06,0.080
-4.260E-06,0.080
-4.250E-06,0.060
-4.240E-06,0.080
-4.230E-06,0.040
-4.220E-06,0.040
-4.210E-06,0.060
-4.200E-06,0.040
-4.190E-06,0.040
-4.180E-06,0.040
-4.170E-06,0.080
-4.160E-06,0.060
-4.150E-06,0.040
-4.140E-06,0.060
-4.130E-06,0.040
-4.120E-06,0.060
-4.110E-06,0.060
-4.100E-06,0.040
-4.090E-06,0.080
-4.080E-06,0.060
-4.070E-06,0.060
-4.060E-06,0.040
-4.050E-06,0.080
-4.040E-06,0.060
-4.030E-06,0.040
-4.020E-06,0.060
-4.010E-06,0.080
-4.000E-06,0.060
-3.990E-06,0.040
-3.980E-06,0.060
-3.970E-06,0.060
-3.960E-06,0.060
-3.950E-06,0.040
-3.940E-06,0.060
-3.930E-06,0.080
-3.920E-06,0.040
-3.910E-06,0.040
-3.900E-06,0.040
-3.890E-06,0.060
-3.880E-06,0.060
-3.870E-06,0.040
-3.860E-06,0.060
-3.850E-06,0.060
-3.840E-06,0.060
-3.830E-06,0.040
-3.820E-06,0.060
-3.810E-06,0.060
-3.800E-06,0.060
-3.790E-06,0.060
-3.780E-06,0.080
-3.770E-06,0.060
-3.760E-06,0.060
-3.750E-06,0.060
-3.740E-06,0.060
-3.730E-06,0.000
-3.720E-06,-0.320
-3.710E-06,-1.020
-3.700E-06,-2.000
-3.690E-06,-2.140
-3.680E-06,-2.140
-3.670E-06,-2.120
-3.660E-06,-2.120
-3.650E-06,-2.100
-3.640E-06,-0.740
-3.630E-06,0.820
-3.620E-06,2.320
-3.610E-06,3.280
-3.600E-06,3.300
-3.590E-06,3.320
-3.580E-06,3.320
-3.570E-06,3.300
-3.560E-06,3.320
-3.550E-06,2.640
-3.540E-06,1.620
-3.530E-06,0.540
-3.520E-06,-0.240
-3.510E-06,-0.660
-3.500E-06,-0.840
-3.490E-06,-0.680
-3.480E-06,-0.480
-3.470E-06,-0.380
-3.460E-06,-0.400
-3.450E-06,-0.600
-3.440E-06,-1.020
-3.430E-06,-1.580
-3.420E-06,-2.020
-3.410E-06,-2.100
-3.400E-06,-2.100
-3.390E-06,-2.120
-3.380E-06,-2.120
-3.370E-06,-1.660
-3.360E-06,-0.940
-3.350E-06,-0.160
-3.340E-06,0.680
-3.330E-06,1.340
-3.320E-06,1.820
-3.310E-06,2.100
-3.300E-06,2.080
-3.290E-06,1.880
-3.280E-06,1.460
-3.270E-06,0.900
-3.260E-06,0.300
-3.250E-06,-0.300
-3.240E-06,-0.640
-3.230E-06,-1.000
-3.220E-06,-1.140
-3.210E-06,-1.180
-3.200E-06,-1.120
-3.190E-06,-0.980
-3.180E-06,-0.700
-3.170E-06,-0.520
-3.160E-06,-0.280
-3.150E-06,-0.060
-3.140E-06,0.180
-3.130E-06,0.400
-3.120E-06,0.600
-3.110E-06,0.880
-3.100E-06,1.100
-3.090E-06,1.240
-3.080E-06,1.260
-3.070E-06,1.280
-3.060E-06,1.180
-3.050E-06,1.060
-3.040E-06,0.840
-3.030E-06,0.640
-3.020E-06,0.440
-3.010E-06,0.220
-3.000E-06,0.040
-2.990E-06,-0.120
-2.980E-06,-0.300
-2.970E-06,-0.460
-2.960E-06,-0.580
-2.950E-06,-0.660
-2.940E-06,-0.780
-2.930E-06,-0.860
-2.920E-06,-0.820
-2.910E-06,-0.780
-2.900E-06,-0.640
-2.890E-06,-0.160
-2.880E-06,-0.220
-2.870E-06,0.240
-2.860E-06,0.280
-2.850E-06,0.720
-2.840E-06,0.620
-2.830E-06,1.020
-2.820E-06,0.960
-2.810E-06,1.040
-2.800E-06,0.880
-2.790E-06,0.640
-2.780E-06,0.360
-2.770E-06,0.060
-2.760E-06,-0.140
-2.750E-06,-0.460
-2.740E-06,-0.620
-2.730E-06,-0.660
-2.720E-06,-0.640
-2.710E-06,-0.640
-2.700E-06,-0.600
-2.690E-06,-0.420
-2.680E-06,-0.400
-2.670E-06,-0.260
-2.660E-06,-0.140
-2.650E-06,-0.080
-2.640E-06,0.000
-2.630E-06,0.060
-2.620E-06,0.400
-2.610E-06,0.340
-2.600E-06,0.200
-2.590E-06,0.340
-2.580E-06,0.200
-2.570E-06,0.200
-2.560E-06,0.120
-2.550E-06,0.200
-2.540E-06,0.140
-2.530E-06,0.120
-2.520E-06,0.120
-2.510E-06,0.020
-2.500E-06,0.060
-2.490E-06,0.040
-2.480E-06,0.020
-2.470E-06,-0.040
-2.460E-06,-0.060
-2.450E-06,-0.020
-2.440E-06,0.000
-2.430E-06,0.100
-2.420E-06,0.020
-2.410E-06,-0.060
-2.400E-06,-0.040
-2.390E-06,-0.020
-2.380E-06,-0.080
-2.370E-06,0.040
-2.360E-06,0.040
-2.350E-06,0.140
-2.340E-06,0.140
-2.330E-06,0.020
-2.320E-06,0.100
-2.310E-06,-0.040
-2.300E-06,0.060
-2.290E-06,-0.060
-2.280E-06,0.040
-2.270E-06,0.060
-2.260E-06,-0.060
-2.250E-06,-0.020
-2.240E-06,-0.040
-2.230E-06,-0.120
-2.220E-06,-0.120
-2.210E-06,-0.160
-2.200E-06,-0.100
-2.190E-06,-0.120
-2.180E-06,-0.040
-2.170E-06,-0.040
-2.160E-06,-0.120
-2.150E-06,-0.160
-2.140E-06,-0.220
-2.130E-06,-0.220
-2.120E-06,-0.220
-2.110E-06,-0.220
-2.100E-06,-0.200
-2.090E-06,-0.220
-2.080E-06,-0.260
-2.070E-06,-0.200
-2.060E-06,-0.280
-2.050E-06,-0.120
-2.040E-06,-0.320
-2.030E-06,-0.240
-2.020E-06,-0.260
-2.010E-06,-0.180
-2.000E-06,-0.220
-1.990E-06,0.120
-1.980E-06,0.100
-1.970E-06,0.260
-1.960E-06,0.280
-1.950E-06,0.260
-1.940E-06,0.320
-1.930E-06,0.400
-1.920E-06,-0.180
-1.910E-06,-0.220
-1.900E-06,-0.560
-1.890E-06,-0.300
-1.880E-06,-0.520
-1.870E-06,-0.060
-1.860E-06,0.280
-1.850E-06,1.380
-1.840E-06,2.080
-1.830E-06,2.580
-1.820E-06,2.580
-1.810E-06,2.000
-1.800E-06,1.260
-1.790E-06,0.280
-1.780E-06,-0.520
-1.770E-06,-0.800
-1.760E-06,-1.080
-1.750E-06,-1.380
-1.740E-06,-2.000
-1.730E-06,-2.120
-1.720E-06,-2.120
-1.710E-06,-2.120
-1.700E-06,-2.140
-1.690E-06,-2.140
-1.680E-06,-1.620
-1.670E-06,-1.220
-1.660E-06,-0.880
-1.650E-06,-0.740
-1.640E-06,-0.740
-1.630E-06,-0.420
-1.620E-06,0.000
-1.610E-06,0.520
-1.600E-06,0.920
-1.590E-06,1.160
-1.580E-06,1.380
-1.570E-06,1.460
-1.560E-06,1.440
-1.550E-06,1.500
-1.540E-06,1.480
-1.530E-06,1.480
-1.520E-06,1.260
-1.510E-06,0.840
-1.500E-06,0.400
-1.490E-06,-0.100
-1.480E-06,-0.600
-1.470E-06,-1.020
-1.460E-06,-1.200
-1.450E-06,-1.680
-1.440E-06,-1.660
-1.430E-06,-1.720
-1.420E-06,-1.640
-1.410E-06,-1.480
-1.400E-06,-1.240
-1.390E-06,-0.940
-1.380E-06,-0.740
-1.370E-06,-0.280
-1.360E-06,-0.020
-1.350E-06,0.460
-1.340E-06,0.540
-1.330E-06,0.700
-1.320E-06,0.740
-1.310E-06,0.640
-1.300E-06,0.580
-1.290E-06,0.320
-1.280E-06,0.220
-1.270E-06,-0.220
-1.260E-06,-0.400
-1.250E-06,-0.740
-1.240E-06,-1.120
-1.230E-06,-1.300
-1.220E-06,-1.360
-1.210E-06,-1.600
-1.200E-06,-1.580
-1.190E-06,-1.260
-1.180E-06,-1.340
-1.170E-06,-0.980
-1.160E-06,-0.980
-1.150E-06,-0.820
-1.140E-06,-0.680
-1.130E-06,-0.540
-1.120E-06,-0.260
-1.110E-06,-0.140
-1.100E-06,0.140
-1.090E-06,0.440
-1.080E-06,0.660
-1.070E-06,0.740
-1.060E-06,0.760
-1.050E-06,0.860
-1.040E-06,0.680
-1.030E-06,0.720
-1.020E-06,0.340
-1.010E-06,0.040
-1.000E-06,-0.700
-9.900E-07,-0.460
-9.800E-07,-1.820
-9.700E-07,-0.780
-9.600E-07,-1.720
-9.500E-07,-0.800
-9.400E-07,-1.580
-9.300E-07,-1.860
-9.200E-07,-2.120
-9.100E-07,-2.120
-9.000E-07,-2.120
-8.900E-07,-2.120
-8.800E-07,-1.940
-8.700E-07,-1.180
-8.600E-07,-0.720
-8.500E-07,-0.540
-8.400E-07,-0.380
-8.300E-07,-0.300
-8.200E-07,-0.240
-8.100E-07,0.120
-8.000E-07,0.400
-7.900E-07,0.540
-7.800E-07,0.680
-7.700E-07,0.680
-7.600E-07,0.660
-7.500E-07,0.800
-7.400E-07,0.860
-7.300E-07,1.000
-7.200E-07,1.040
-7.100E-07,0.980
-7.000E-07,0.920
-6.900E-07,0.560
-6.800E-07,0.260
-6.700E-07,0.080
-6.600E-07,-0.140
-6.500E-07,-0.160
-6.400E-07,-0.300
-6.300E-07,-0.480
-6.200E-07,-0.480
-6.100E-07,-0.560
-6.000E-07,-0.740
-5.900E-07,-0.460
-5.800E-07,-0.460
-5.700E-07,-0.680
-5.600E-07,-1.020
-5.500E-07,-1.040
-5.400E-07,-1.060
-5.300E-07,-1.120
-5.200E-07,-1.140
-5.100E-07,-0.880
-5.000E-07,-0.860
-4.900E-07,-0.800
-4.800E-07,-0.840
-4.700E-07,-1.140
-4.600E-07,-1.280
-4.500E-07,-1.360
-4.400E-07,-1.300
-4.300E-07,-1.340
-4.200E-07,-1.300
-4.100E-07,-1.140
-4.000E-07,-0.740
-3.900E-07,-0.600
-3.800E-07,-0.380
-3.700E-07,-0.480
-3.600E-07,-0.580
-3.500E-07,-1.040
-3.400E-07,-0.420
-3.300E-07,-0.360
-3.200E-07,0.280
-3.100E-07,0.760
-3.000E-07,0.960
-2.900E-07,1.440
-2.800E-07,1.460
-2.700E-07,0.680
-2.600E-07,-0.040
-2.500E-07,-0.880
-2.400E-07,-1.480
-2.300E-07,-2.120
-2.200E-07,-2.120
-2.100E-07,-2.140
-2.000E-07,-2.120
-1.900E-07,-2.120
-1.800E-07,-2.120
-1.700E-07,-2.120
-1.600E-07,-1.920
-1.500E-07,-2.120
-1.400E-07,-1.740
-1.300E-07,-0.880
-1.200E-07,-0.560
-1.100E-07,-0.260
-1.000E-07,-0.340
-9.000E-08,-0.940
-8.000E-08,-1.560
-7.000E-08,-1.300
-6.000E-08,0.080
-5.000E-08,1.100
-4.000E-08,2.640
-3.000E-08,2.680
-2.000E-08,2.760
-1.000E-08,1.360
0.000E+00,-0.580
1.000E-08,-2.000
2.000E-08,-2.140
3.000E-08,-1.960
4.000E-08,-1.140
5.000E-08,-0.460
6.000E-08,-0.640
7.000E-08,-0.820
8.000E-08,-1.740
9.000E-08,-1.500
1.000E-07,-1.960
1.100E-07,-1.360
1.200E-07,-0.680
1.300E-07,-0.240
1.400E-07,-0.120
1.500E-07,-0.140
1.600E-07,-0.280
1.700E-07,-0.280
1.800E-07,-0.140
1.900E-07,0.560
2.000E-07,0.920
2.100E-07,0.800
2.200E-07,0.260
2.300E-07,-0.400
2.400E-07,-1.460
2.500E-07,-2.120
2.600E-07,-2.120
2.700E-07,-2.120
2.800E-07,-2.100
2.900E-07,-2.100
3.000E-07,-2.120
3.100E-07,-2.120
3.200E-07,-2.120
3.300E-07,-2.120
3.400E-07,-2.120
3.500E-07,-2.120
3.600E-07,-2.120
3.700E-07,-2.120
3.800E-07,-2.120
3.900E-07,-2.140
4.000E-07,-2.140
4.100E-07,-1.940
4.200E-07,-1.480
4.300E-07,-0.920
4.400E-07,-0.640
4.500E-07,-0.240
4.600E-07,-0.180
4.700E-07,0.140
4.800E-07,0.180
4.900E-07,0.600
5.000E-07,0.940
5.100E-07,1.760
5.200E-07,1.420
5.300E-07,0.860
5.400E-07,0.560
5.500E-07,-0.220
5.600E-07,-1.480
5.700E-07,-2.140
5.800E-07,-2.140
5.900E-07,-2.120
6.000E-07,-2.120
6.100E-07,-1.680
6.200E-07,-1.260
6.300E-07,-0.360
6.400E-07,-0.640
6.500E-07,0.080
6.600E-07,-0.340
6.700E-07,0.300
6.800E-07,0.360
6.900E-07,0.740
7.000E-07,1.100
7.100E-07,0.940
7.200E-07,0.540
7.300E-07,0.280
7.400E-07,-0.360
7.500E-07,-0.700
7.600E-07,-0.780
7.700E-07,-0.480
7.800E-07,0.040
7.900E-07,0.520
8.000E-07,0.380
8.100E-07,0.800
8.200E-07,0.260
8.300E-07,0.620
8.400E-07,-0.540
8.500E-07,-0.620
8.600E-07,-1.680
8.700E-07,-1.880
8.800E-07,-2.140
8.900E-07,-2.120
9.000E-07,-1.760
9.100E-07,-1.500
9.200E-07,-1.000
9.300E-07,-0.920
9.400E-07,-0.800
9.500E-07,-0.640
9.600E-07,-0.380
9.700E-07,-0.160
9.800E-07,-0.120
9.900E-07,0.080
1.000E-06,-0.040
1.010E-06,-0.140
1.020E-06,-0.280
1.030E-06,-0.340
1.040E-06,-0.400
1.050E-06,-0.480
1.060E-06,-0.560
1.070E-06,-0.540
1.080E-06,-0.440
1.090E-06,-0.420
1.100E-06,-0.280
1.110E-06,0.160
1.120E-06,0.940
1.130E-06,1.100
1.140E-06,2.100
1.150E-06,1.720
1.160E-06,1.800
1.170E-06,0.500
1.180E-06,-0.700
1.190E-06,-2.120
1.200E-06,-2.120
1.210E-06,-2.120
1.220E-06,-2.120
1.230E-06,-2.120
1.240E-06,-2.120
1.250E-06,-1.720
1.260E-06,-1.460
1.270E-06,-1.460
1.280E-06,-1.400
1.290E-06,-1.360
1.300E-06,-1.320
1.310E-06,-1.080
1.320E-06,-1.060
1.330E-06,-0.880
1.340E-06,-0.720
1.350E-06,-0.820
1.360E-06,-0.820
1.370E-06,-0.680
1.380E-06,-0.220
1.390E-06,0.520
1.400E-06,1.360
1.410E-06,2.320
1.420E-06,2.640
1.430E-06,2.780
1.440E-06,1.800
1.450E-06,0.840
1.460E-06,-0.220
1.470E-06,-1.620
1.480E-06,-2.120
1.490E-06,-2.120
1.500E-06,-2.120
1.510E-06,-2.120
1.520E-06,-2.120
1.530E-06,-2.120
1.540E-06,-1.740
1.550E-06,-1.220
1.560E-06,-0.780
1.570E-06,-0.240
1.580E-06,0.100
1.590E-06,0.580
1.600E-06,0.960
1.610E-06,1.200
1.620E-06,1.140
1.630E-06,0.820
1.640E-06,0.500
1.650E-06,0.240
1.660E-06,0.020
1.670E-06,-0.120
1.680E-06,-0.240
1.690E-06,-0.340
1.700E-06,-0.520
1.710E-06,-0.600
1.720E-06,-0.620
1.730E-06,-0.680
1.740E-06,-0.980
1.750E-06,-0.860
1.760E-06,-0.980
1.770E-06,-1.240
1.780E-06,-1.040
1.790E-06,-0.620
1.800E-06,-0.280
1.810E-06,0.100
1.820E-06,0.100
1.830E-06,-0.060
1.840E-06,-0.400
1.850E-06,-0.700
1.860E-06,-0.680
1.870E-06,-0.560
1.880E-06,-0.620
1.890E-06,-0.300
1.900E-06,-0.040
1.910E-06,0.600
1.920E-06,1.300
1.930E-06,0.380
1.940E-06,-1.920
1.950E-06,-1.540
1.960E-06,-1.660
1.970E-06,-1.060
1.980E-06,-2.120
1.990E-06,-0.380
2.000E-06,-1.040
2.010E-06,0.160
2.020E-06,-0.960
2.030E-06,-2.100
2.040E-06,-2.120
2.050E-06,-2.120
2.060E-06,-2.120
2.070E-06,-2.120
2.080E-06,-2.120
2.090E-06,-2.120
2.100E-06,-2.120
2.110E-06,-2.120
2.120E-06,-2.140
2.130E-06,-2.140
2.140E-06,-2.120
2.150E-06,-2.120
2.160E-06,1.000
2.170E-06,-0.240
2.180E-06,3.320
2.190E-06,2.340
2.200E-06,3.300
2.210E-06,3.300
2.220E-06,3.240
2.230E-06,3.320
2.240E-06,3.260
2.250E-06,3.300
2.260E-06,3.300
2.270E-06,3.300
2.280E-06,2.820
2.290E-06,2.380
2.300E-06,1.660
2.310E-06,1.260
2.320E-06,0.880
2.330E-06,0.600
2.340E-06,0.620
2.350E-06,0.760
2.360E-06,0.620
2.370E-06,0.600
2.380E-06,0.500
2.390E-06,0.580
2.400E-06,0.460
2.410E-06,0.500
2.420E-06,0.540
2.430E-06,0.720
2.440E-06,0.800
2.450E-06,0.920
2.460E-06,0.880
2.470E-06,0.780
2.480E-06,0.480
2.490E-06,0.180
2.500E-06,-0.320
2.510E-06,-0.820
2.520E-06,-1.240
2.530E-06,-1.580
2.540E-06,-1.860
2.550E-06,-2.100
2.560E-06,-2.120
2.570E-06,-2.120
2.580E-06,-2.120
2.590E-06,-2.120
2.600E-06,-2.120
2.610E-06,-2.080
2.620E-06,-1.660
2.630E-06,-1.200
2.640E-06,-0.700
2.650E-06,-0.180
2.660E-06,0.240
2.670E-06,0.600
2.680E-06,0.940
2.690E-06,1.240
2.700E-06,1.460
2.710E-06,1.580
2.720E-06,1.660
2.730E-06,1.640
2.740E-06,1.580
2.750E-06,1.320
2.760E-06,1.080
2.770E-06,0.840
2.780E-06,0.520
2.790E-06,0.240
2.800E-06,-0.040
2.810E-06,-0.240
2.820E-06,-0.440
2.830E-06,-0.560
2.840E-06,-0.620
2.850E-06,-0.580
2.860E-06,-0.500
2.870E-06,-0.380
2.880E-06,-0.160
2.890E-06,0.080
2.900E-06,0.320
2.910E-06,0.520
2.920E-06,0.660
2.930E-06,0.800
2.940E-06,0.860
2.950E-06,0.860
2.960E-06,0.900
2.970E-06,0.860
2.980E-06,0.740
2.990E-06,0.640
3.000E-06,0.460
3.010E-06,0.280
3.020E-06,0.060
3.030E-06,-0.120
3.040E-06,-0.320
3.050E-06,-0.480
3.060E-06,-0.560
3.070E-06,-0.660
3.080E-06,-0.700
3.090E-06,-0.720
3.100E-06,-0.700
3.110E-06,-0.620
3.120E-06,-0.480
3.130E-06,-0.380
3.140E-06,-0.240
3.150E-06,-0.080
3.160E-06,0.060
3.170E-06,0.200
3.180E-06,0.360
3.190E-06,0.700
3.200E-06,1.100
3.210E-06,1.400
3.220E-06,1.100
3.230E-06,1.080
3.240E-06,0.860
3.250E-06,1.140
3.260E-06,1.040
3.270E-06,0.820
3.280E-06,0.120
3.290E-06,-0.380
3.300E-06,-0.840
3.310E-06,-1.080
