mediciones/11-20/filtrar/23.1/WaveData83143.csv

#timebase=4000000(ps)
,#voltbase=100000(mv/100)
#size=4000
-4.760E-05,0.008
-4.758E-05,0.008
-4.756E-05,0.004
-4.754E-05,0.008
-4.752E-05,0.004
-4.750E-05,0.004
-4.748E-05,0.004
-4.746E-05,0.000
-4.744E-05,0.012
-4.742E-05,0.008
-4.740E-05,0.008
-4.738E-05,0.012
-4.736E-05,0.004
-4.734E-05,0.012
-4.732E-05,0.000
-4.730E-05,0.000
-4.728E-05,0.000
-4.726E-05,0.004
-4.724E-05,0.004
-4.722E-05,0.004
-4.720E-05,0.000
-4.718E-05,0.000
-4.716E-05,0.000
-4.714E-05,0.012
-4.712E-05,0.004
-4.710E-05,0.008
-4.708E-05,0.000
-4.706E-05,0.004
-4.704E-05,0.008
-4.702E-05,0.004
-4.700E-05,0.000
-4.698E-05,0.008
-4.696E-05,0.008
-4.694E-05,0.004
-4.692E-05,0.000
-4.690E-05,0.004
-4.688E-05,0.012
-4.686E-05,0.004
-4.684E-05,0.000
-4.682E-05,0.008
-4.680E-05,-0.004
-4.678E-05,0.004
-4.676E-05,0.000
-4.674E-05,0.008
-4.672E-05,0.008
-4.670E-05,0.004
-4.668E-05,0.008
-4.666E-05,0.004
-4.664E-05,0.004
-4.662E-05,0.004
-4.660E-05,0.008
-4.658E-05,0.012
-4.656E-05,0.004
-4.654E-05,0.004
-4.652E-05,-0.004
-4.650E-05,0.000
-4.648E-05,0.008
-4.646E-05,0.008
-4.644E-05,0.008
-4.642E-05,0.000
-4.640E-05,0.004
-4.638E-05,0.000
-4.636E-05,0.000
-4.634E-05,0.012
-4.632E-05,0.008
-4.630E-05,0.008
-4.628E-05,0.008
-4.626E-05,0.004
-4.624E-05,0.008
-4.622E-05,0.008
-4.620E-05,0.004
-4.618E-05,0.012
-4.616E-05,0.008
-4.614E-05,0.004
-4.612E-05,0.008
-4.610E-05,0.000
-4.608E-05,0.004
-4.606E-05,0.004
-4.604E-05,0.004
-4.602E-05,0.000
-4.600E-05,0.008
-4.598E-05,0.000
-4.596E-05,0.004
-4.594E-05,0.008
-4.592E-05,0.000
-4.590E-05,0.008
-4.588E-05,0.008
-4.586E-05,0.008
-4.584E-05,0.008
-4.582E-05,0.000
-4.580E-05,0.004
-4.578E-05,0.008
-4.576E-05,0.008
-4.574E-05,0.004
-4.572E-05,0.000
-4.570E-05,0.008
-4.568E-05,0.004
-4.566E-05,0.008
-4.564E-05,0.000
-4.562E-05,0.012
-4.560E-05,0.008
-4.558E-05,0.008
-4.556E-05,0.004
-4.554E-05,0.004
-4.552E-05,0.004
-4.550E-05,0.004
-4.548E-05,0.000
-4.546E-05,0.008
-4.544E-05,0.004
-4.542E-05,0.004
-4.540E-05,0.004
-4.538E-05,0.004
-4.536E-05,0.012
-4.534E-05,0.004
-4.532E-05,0.000
-4.530E-05,0.012
-4.528E-05,0.004
-4.526E-05,0.008
-4.524E-05,0.004
-4.522E-05,0.008
-4.520E-05,0.000
-4.518E-05,0.004
-4.516E-05,0.008
-4.514E-05,0.008
-4.512E-05,0.008
-4.510E-05,0.008
-4.508E-05,0.000
-4.506E-05,0.008
-4.504E-05,0.008
-4.502E-05,0.008
-4.500E-05,0.008
-4.498E-05,0.004
-4.496E-05,0.000
-4.494E-05,0.004
-4.492E-05,0.000
-4.490E-05,0.000
-4.488E-05,0.008
-4.486E-05,0.008
-4.484E-05,0.008
-4.482E-05,0.008
-4.480E-05,0.004
-4.478E-05,0.008
-4.476E-05,0.008
-4.474E-05,0.004
-4.472E-05,0.004
-4.470E-05,0.004
-4.468E-05,0.004
-4.466E-05,0.008
-4.464E-05,0.004
-4.462E-05,0.004
-4.460E-05,0.000
-4.458E-05,0.004
-4.456E-05,0.000
-4.454E-05,0.008
-4.452E-05,0.008
-4.450E-05,0.004
-4.448E-05,0.012
-4.446E-05,0.004
-4.444E-05,0.008
-4.442E-05,0.008
-4.440E-05,-0.004
-4.438E-05,0.000
-4.436E-05,0.000
-4.434E-05,0.000
-4.432E-05,0.012
-4.430E-05,0.008
-4.428E-05,0.008
-4.426E-05,0.008
-4.424E-05,0.004
-4.422E-05,0.008
-4.420E-05,0.004
-4.418E-05,0.004
-4.416E-05,0.008
-4.414E-05,-0.008
-4.412E-05,0.008
-4.410E-05,0.004
-4.408E-05,0.012
-4.406E-05,0.004
-4.404E-05,0.004
-4.402E-05,0.004
-4.400E-05,0.008
-4.398E-05,0.004
-4.396E-05,0.012
-4.394E-05,0.004
-4.392E-05,0.000
-4.390E-05,0.004
-4.388E-05,0.004
-4.386E-05,0.004
-4.384E-05,0.004
-4.382E-05,0.004
-4.380E-05,0.004
-4.378E-05,0.004
-4.376E-05,0.004
-4.374E-05,0.008
-4.372E-05,0.008
-4.370E-05,0.000
-4.368E-05,0.000
-4.366E-05,0.008
-4.364E-05,0.012
-4.362E-05,0.008
-4.360E-05,0.008
-4.358E-05,0.008
-4.356E-05,0.004
-4.354E-05,0.004
-4.352E-05,0.000
-4.350E-05,0.004
-4.348E-05,0.008
-4.346E-05,0.008
-4.344E-05,0.004
-4.342E-05,0.004
-4.340E-05,0.004
-4.338E-05,0.004
-4.336E-05,0.008
-4.334E-05,0.012
-4.332E-05,0.004
-4.330E-05,0.008
-4.328E-05,0.004
-4.326E-05,0.008
-4.324E-05,0.000
-4.322E-05,0.012
-4.320E-05,0.000
-4.318E-05,0.004
-4.316E-05,0.004
-4.314E-05,0.008
-4.312E-05,0.004
-4.310E-05,0.000
-4.308E-05,0.004
-4.306E-05,0.004
-4.304E-05,0.004
-4.302E-05,0.008
-4.300E-05,0.008
-4.298E-05,0.000
-4.296E-05,0.008
-4.294E-05,0.004
-4.292E-05,0.004
-4.290E-05,0.004
-4.288E-05,0.004
-4.286E-05,0.004
-4.284E-05,0.008
-4.282E-05,0.012
-4.280E-05,0.004
-4.278E-05,0.008
-4.276E-05,0.004
-4.274E-05,0.008
-4.272E-05,0.020
-4.270E-05,0.004
-4.268E-05,0.000
-4.266E-05,0.008
-4.264E-05,0.004
-4.262E-05,0.004
-4.260E-05,0.000
-4.258E-05,0.004
-4.256E-05,0.008
-4.254E-05,0.000
-4.252E-05,0.000
-4.250E-05,0.008
-4.248E-05,0.000
-4.246E-05,0.000
-4.244E-05,0.004
-4.242E-05,0.008
-4.240E-05,0.004
-4.238E-05,0.000
-4.236E-05,0.004
-4.234E-05,0.004
-4.232E-05,0.000
-4.230E-05,0.008
-4.228E-05,0.000
-4.226E-05,0.004
-4.224E-05,0.008
-4.222E-05,0.004
-4.220E-05,0.004
-4.218E-05,0.004
-4.216E-05,0.004
-4.214E-05,0.004
-4.212E-05,0.008
-4.210E-05,0.004
-4.208E-05,0.000
-4.206E-05,0.004
-4.204E-05,0.004
-4.202E-05,0.012
-4.200E-05,0.012
-4.198E-05,0.004
-4.196E-05,0.008
-4.194E-05,0.008
-4.192E-05,0.004
-4.190E-05,0.008
-4.188E-05,0.004
-4.186E-05,0.004
-4.184E-05,0.004
-4.182E-05,0.000
-4.180E-05,0.008
-4.178E-05,0.008
-4.176E-05,0.008
-4.174E-05,0.004
-4.172E-05,0.004
-4.170E-05,0.004
-4.168E-05,0.004
-4.166E-05,0.000
-4.164E-05,0.004
-4.162E-05,0.000
-4.160E-05,0.008
-4.158E-05,0.008
-4.156E-05,0.008
-4.154E-05,0.004
-4.152E-05,0.000
-4.150E-05,0.012
-4.148E-05,0.004
-4.146E-05,0.008
-4.144E-05,0.004
-4.142E-05,0.000
-4.140E-05,0.004
-4.138E-05,0.004
-4.136E-05,0.000
-4.134E-05,0.004
-4.132E-05,0.004
-4.130E-05,0.008
-4.128E-05,0.008
-4.126E-05,0.000
-4.124E-05,0.004
-4.122E-05,0.008
-4.120E-05,0.004
-4.118E-05,0.004
-4.116E-05,0.000
-4.114E-05,0.004
-4.112E-05,0.008
-4.110E-05,0.004
-4.108E-05,0.008
-4.106E-05,0.004
-4.104E-05,0.000
-4.102E-05,0.008
-4.100E-05,0.000
-4.098E-05,0.004
-4.096E-05,0.000
-4.094E-05,0.000
-4.092E-05,0.012
-4.090E-05,0.008
-4.088E-05,0.004
-4.086E-05,0.008
-4.084E-05,0.000
-4.082E-05,0.008
-4.080E-05,0.008
-4.078E-05,0.000
-4.076E-05,0.008
-4.074E-05,0.000
-4.072E-05,0.012
-4.070E-05,0.004
-4.068E-05,0.004
-4.066E-05,0.004
-4.064E-05,0.004
-4.062E-05,0.004
-4.060E-05,0.004
-4.058E-05,0.000
-4.056E-05,0.008
-4.054E-05,0.004
-4.052E-05,0.000
-4.050E-05,0.004
-4.048E-05,0.004
-4.046E-05,0.004
-4.044E-05,0.008
-4.042E-05,0.000
-4.040E-05,0.004
-4.038E-05,0.000
-4.036E-05,0.000
-4.034E-05,0.008
-4.032E-05,0.008
-4.030E-05,0.008
-4.028E-05,0.004
-4.026E-05,0.004
-4.024E-05,0.000
-4.022E-05,0.004
-4.020E-05,0.000
-4.018E-05,0.000
-4.016E-05,0.000
-4.014E-05,0.000
-4.012E-05,0.012
-4.010E-05,0.004
-4.008E-05,0.000
-4.006E-05,0.000
-4.004E-05,0.020
-4.002E-05,0.004
-4.000E-05,0.004
-3.998E-05,0.004
-3.996E-05,0.004
-3.994E-05,0.004
-3.992E-05,0.008
-3.990E-05,0.000
-3.988E-05,0.008
-3.986E-05,0.004
-3.984E-05,0.008
-3.982E-05,0.004
-3.980E-05,0.000
-3.978E-05,0.004
-3.976E-05,0.008
-3.974E-05,0.004
-3.972E-05,0.000
-3.970E-05,0.000
-3.968E-05,0.004
-3.966E-05,0.000
-3.964E-05,0.012
-3.962E-05,0.004
-3.960E-05,0.008
-3.958E-05,0.000
-3.956E-05,0.020
-3.954E-05,0.000
-3.952E-05,0.012
-3.950E-05,-0.012
-3.948E-05,0.016
-3.946E-05,0.000
-3.944E-05,0.004
-3.942E-05,0.008
-3.940E-05,0.004
-3.938E-05,0.008
-3.936E-05,0.008
-3.934E-05,-0.008
-3.932E-05,0.008
-3.930E-05,0.000
-3.928E-05,0.000
-3.926E-05,0.004
-3.924E-05,-0.004
-3.922E-05,0.000
-3.920E-05,0.008
-3.918E-05,0.008
-3.916E-05,0.004
-3.914E-05,0.004
-3.912E-05,0.000
-3.910E-05,0.008
-3.908E-05,0.008
-3.906E-05,0.012
-3.904E-05,0.008
-3.902E-05,0.004
-3.900E-05,0.008
-3.898E-05,-0.004
-3.896E-05,0.012
-3.894E-05,0.000
-3.892E-05,0.008
-3.890E-05,0.000
-3.888E-05,0.008
-3.886E-05,0.004
-3.884E-05,0.008
-3.882E-05,0.004
-3.880E-05,0.004
-3.878E-05,0.000
-3.876E-05,0.004
-3.874E-05,0.012
-3.872E-05,0.000
-3.870E-05,0.016
-3.868E-05,0.000
-3.866E-05,0.008
-3.864E-05,0.008
-3.862E-05,0.004
-3.860E-05,0.004
-3.858E-05,0.008
-3.856E-05,0.012
-3.854E-05,0.004
-3.852E-05,0.012
-3.850E-05,0.004
-3.848E-05,0.012
-3.846E-05,0.008
-3.844E-05,0.004
-3.842E-05,0.008
-3.840E-05,0.004
-3.838E-05,0.000
-3.836E-05,0.004
-3.834E-05,0.004
-3.832E-05,0.008
-3.830E-05,0.008
-3.828E-05,0.004
-3.826E-05,0.000
-3.824E-05,0.008
-3.822E-05,0.008
-3.820E-05,0.004
-3.818E-05,0.000
-3.816E-05,0.008
-3.814E-05,0.004
-3.812E-05,0.004
-3.810E-05,0.000
-3.808E-05,0.012
-3.806E-05,0.004
-3.804E-05,0.000
-3.802E-05,0.000
-3.800E-05,0.008
-3.798E-05,0.004
-3.796E-05,0.004
-3.794E-05,0.004
-3.792E-05,0.004
-3.790E-05,0.004
-3.788E-05,0.004
-3.786E-05,0.000
-3.784E-05,0.008
-3.782E-05,0.004
-3.780E-05,0.004
-3.778E-05,0.004
-3.776E-05,0.000
-3.774E-05,0.004
-3.772E-05,0.004
-3.770E-05,0.004
-3.768E-05,0.000
-3.766E-05,0.004
-3.764E-05,0.012
-3.762E-05,0.000
-3.760E-05,0.008
-3.758E-05,0.008
-3.756E-05,0.004
-3.754E-05,0.008
-3.752E-05,0.008
-3.750E-05,0.000
-3.748E-05,0.008
-3.746E-05,-0.004
-3.744E-05,0.004
-3.742E-05,0.000
-3.740E-05,0.012
-3.738E-05,0.004
-3.736E-05,0.004
-3.734E-05,0.000
-3.732E-05,0.000
-3.730E-05,0.008
-3.728E-05,0.008
-3.726E-05,0.004
-3.724E-05,0.004
-3.722E-05,0.000
-3.720E-05,0.008
-3.718E-05,-0.004
-3.716E-05,0.004
-3.714E-05,0.000
-3.712E-05,0.008
-3.710E-05,0.008
-3.708E-05,0.004
-3.706E-05,0.008
-3.704E-05,0.004
-3.702E-05,0.000
-3.700E-05,0.000
-3.698E-05,0.004
-3.696E-05,0.000
-3.694E-05,0.000
-3.692E-05,0.000
-3.690E-05,0.000
-3.688E-05,0.008
-3.686E-05,0.008
-3.684E-05,0.004
-3.682E-05,0.004
-3.680E-05,0.008
-3.678E-05,0.000
-3.676E-05,0.004
-3.674E-05,-0.004
-3.672E-05,0.004
-3.670E-05,-0.004
-3.668E-05,0.012
-3.666E-05,0.004
-3.664E-05,0.008
-3.662E-05,0.000
-3.660E-05,0.000
-3.658E-05,0.000
-3.656E-05,0.008
-3.654E-05,0.004
-3.652E-05,0.004
-3.650E-05,0.000
-3.648E-05,0.004
-3.646E-05,0.012
-3.644E-05,0.004
-3.642E-05,0.012
-3.640E-05,0.004
-3.638E-05,0.012
-3.636E-05,0.008
-3.634E-05,0.008
-3.632E-05,0.000
-3.630E-05,0.008
-3.628E-05,0.008
-3.626E-05,-0.004
-3.624E-05,0.012
-3.622E-05,0.008
-3.620E-05,0.008
-3.618E-05,0.008
-3.616E-05,0.004
-3.614E-05,0.008
-3.612E-05,0.004
-3.610E-05,0.000
-3.608E-05,0.004
-3.606E-05,0.008
-3.604E-05,0.008
-3.602E-05,0.004
-3.600E-05,0.000
-3.598E-05,0.000
-3.596E-05,0.008
-3.594E-05,0.004
-3.592E-05,0.008
-3.590E-05,0.000
-3.588E-05,0.012
-3.586E-05,0.004
-3.584E-05,0.008
-3.582E-05,0.000
-3.580E-05,0.004
-3.578E-05,0.008
-3.576E-05,0.008
-3.574E-05,0.004
-3.572E-05,0.008
-3.570E-05,0.000
-3.568E-05,0.004
-3.566E-05,0.004
-3.564E-05,0.008
-3.562E-05,0.008
-3.560E-05,0.000
-3.558E-05,0.004
-3.556E-05,0.004
-3.554E-05,0.012
-3.552E-05,0.004
-3.550E-05,0.008
-3.548E-05,0.012
-3.546E-05,0.000
-3.544E-05,0.008
-3.542E-05,0.008
-3.540E-05,0.004
-3.538E-05,0.008
-3.536E-05,0.004
-3.534E-05,0.000
-3.532E-05,0.008
-3.530E-05,0.008
-3.528E-05,0.000
-3.526E-05,0.004
-3.524E-05,0.008
-3.522E-05,0.004
-3.520E-05,0.004
-3.518E-05,0.008
-3.516E-05,0.000
-3.514E-05,0.004
-3.512E-05,0.008
-3.510E-05,0.004
-3.508E-05,0.012
-3.506E-05,0.004
-3.504E-05,0.004
-3.502E-05,0.000
-3.500E-05,0.004
-3.498E-05,0.004
-3.496E-05,0.008
-3.494E-05,0.008
-3.492E-05,0.004
-3.490E-05,0.012
-3.488E-05,0.008
-3.486E-05,0.004
-3.484E-05,0.004
-3.482E-05,0.000
-3.480E-05,0.008
-3.478E-05,0.000
-3.476E-05,0.000
-3.474E-05,0.000
-3.472E-05,0.016
-3.470E-05,0.000
-3.468E-05,0.008
-3.466E-05,0.004
-3.464E-05,0.000
-3.462E-05,0.008
-3.460E-05,0.008
-3.458E-05,0.008
-3.456E-05,0.004
-3.454E-05,0.000
-3.452E-05,0.008
-3.450E-05,0.004
-3.448E-05,0.000
-3.446E-05,0.004
-3.444E-05,0.012
-3.442E-05,0.000
-3.440E-05,0.012
-3.438E-05,0.004
-3.436E-05,0.008
-3.434E-05,0.004
-3.432E-05,0.004
-3.430E-05,0.008
-3.428E-05,0.004
-3.426E-05,0.004
-3.424E-05,0.004
-3.422E-05,-0.004
-3.420E-05,0.000
-3.418E-05,0.008
-3.416E-05,0.012
-3.414E-05,0.004
-3.412E-05,0.000
-3.410E-05,0.000
-3.408E-05,0.000
-3.406E-05,0.008
-3.404E-05,0.008
-3.402E-05,0.008
-3.400E-05,0.012
-3.398E-05,0.004
-3.396E-05,0.000
-3.394E-05,0.012
-3.392E-05,0.004
-3.390E-05,0.004
-3.388E-05,0.004
-3.386E-05,0.008
-3.384E-05,0.008
-3.382E-05,0.012
-3.380E-05,0.008
-3.378E-05,0.004
-3.376E-05,0.000
-3.374E-05,0.012
-3.372E-05,0.008
-3.370E-05,0.004
-3.368E-05,0.000
-3.366E-05,0.004
-3.364E-05,0.008
-3.362E-05,0.004
-3.360E-05,0.004
-3.358E-05,0.000
-3.356E-05,0.004
-3.354E-05,0.004
-3.352E-05,0.008
-3.350E-05,0.004
-3.348E-05,0.004
-3.346E-05,0.012
-3.344E-05,0.008
-3.342E-05,0.004
-3.340E-05,0.004
-3.338E-05,0.000
-3.336E-05,0.004
-3.334E-05,0.008
-3.332E-05,0.000
-3.330E-05,0.004
-3.328E-05,0.000
-3.326E-05,0.000
-3.324E-05,0.008
-3.322E-05,0.004
-3.320E-05,0.004
-3.318E-05,0.000
-3.316E-05,0.016
-3.314E-05,0.008
-3.312E-05,0.008
-3.310E-05,0.000
-3.308E-05,0.000
-3.306E-05,0.004
-3.304E-05,0.004
-3.302E-05,0.008
-3.300E-05,0.012
-3.298E-05,0.004
-3.296E-05,0.012
-3.294E-05,0.004
-3.292E-05,0.000
-3.290E-05,0.004
-3.288E-05,0.008
-3.286E-05,0.012
-3.284E-05,0.000
-3.282E-05,0.004
-3.280E-05,0.008
-3.278E-05,0.008
-3.276E-05,0.008
-3.274E-05,0.008
-3.272E-05,0.012
-3.270E-05,0.004
-3.268E-05,0.004
-3.266E-05,0.004
-3.264E-05,0.000
-3.262E-05,0.004
-3.260E-05,0.012
-3.258E-05,0.000
-3.256E-05,0.004
-3.254E-05,-0.004
-3.252E-05,0.012
-3.250E-05,0.004
-3.248E-05,0.004
-3.246E-05,0.004
-3.244E-05,0.004
-3.242E-05,0.000
-3.240E-05,0.000
-3.238E-05,0.008
-3.236E-05,0.008
-3.234E-05,0.004
-3.232E-05,0.004
-3.230E-05,0.004
-3.228E-05,0.000
-3.226E-05,0.012
-3.224E-05,0.000
-3.222E-05,0.012
-3.220E-05,0.000
-3.218E-05,0.000
-3.216E-05,0.008
-3.214E-05,0.008
-3.212E-05,0.000
-3.210E-05,0.004
-3.208E-05,0.004
-3.206E-05,0.000
-3.204E-05,0.000
-3.202E-05,0.008
-3.200E-05,0.004
-3.198E-05,0.004
-3.196E-05,0.000
-3.194E-05,0.008
-3.192E-05,0.008
-3.190E-05,0.004
-3.188E-05,0.000
-3.186E-05,0.004
-3.184E-05,0.000
-3.182E-05,0.000
-3.180E-05,0.000
-3.178E-05,0.000
-3.176E-05,0.008
-3.174E-05,0.008
-3.172E-05,0.004
-3.170E-05,0.000
-3.168E-05,0.000
-3.166E-05,0.008
-3.164E-05,0.004
-3.162E-05,0.000
-3.160E-05,0.004
-3.158E-05,0.000
-3.156E-05,0.008
-3.154E-05,0.008
-3.152E-05,0.004
-3.150E-05,0.012
-3.148E-05,0.004
-3.146E-05,0.000
-3.144E-05,0.004
-3.142E-05,0.004
-3.140E-05,0.000
-3.138E-05,0.008
-3.136E-05,0.004
-3.134E-05,0.008
-3.132E-05,-0.004
-3.130E-05,0.004
-3.128E-05,0.008
-3.126E-05,0.012
-3.124E-05,0.008
-3.122E-05,0.004
-3.120E-05,0.000
-3.118E-05,0.004
-3.116E-05,0.004
-3.114E-05,0.012
-3.112E-05,0.004
-3.110E-05,0.004
-3.108E-05,0.004
-3.106E-05,0.004
-3.104E-05,0.004
-3.102E-05,0.000
-3.100E-05,0.012
-3.098E-05,0.004
-3.096E-05,0.008
-3.094E-05,0.008
-3.092E-05,0.008
-3.090E-05,0.004
-3.088E-05,0.008
-3.086E-05,0.004
-3.084E-05,0.000
-3.082E-05,0.004
-3.080E-05,0.008
-3.078E-05,0.004
-3.076E-05,0.012
-3.074E-05,0.004
-3.072E-05,0.008
-3.070E-05,0.004
-3.068E-05,0.008
-3.066E-05,0.000
-3.064E-05,0.000
-3.062E-05,0.004
-3.060E-05,0.008
-3.058E-05,0.004
-3.056E-05,0.008
-3.054E-05,0.004
-3.052E-05,0.008
-3.050E-05,0.008
-3.048E-05,0.004
-3.046E-05,0.004
-3.044E-05,0.008
-3.042E-05,0.008
-3.040E-05,0.008
-3.038E-05,0.004
-3.036E-05,0.004
-3.034E-05,0.004
-3.032E-05,0.008
-3.030E-05,0.004
-3.028E-05,0.008
-3.026E-05,0.008
-3.024E-05,0.004
-3.022E-05,0.000
-3.020E-05,0.004
-3.018E-05,0.000
-3.016E-05,0.004
-3.014E-05,0.012
-3.012E-05,0.008
-3.010E-05,0.000
-3.008E-05,0.004
-3.006E-05,0.000
-3.004E-05,0.008
-3.002E-05,0.008
-3.000E-05,0.000
-2.998E-05,0.008
-2.996E-05,0.004
-2.994E-05,0.004
-2.992E-05,0.008
-2.990E-05,0.004
-2.988E-05,0.008
-2.986E-05,0.004
-2.984E-05,0.000
-2.982E-05,0.004
-2.980E-05,0.004
-2.978E-05,0.004
-2.976E-05,0.004
-2.974E-05,0.000
-2.972E-05,0.004
-2.970E-05,0.012
-2.968E-05,0.000
-2.966E-05,0.000
-2.964E-05,0.000
-2.962E-05,0.008
-2.960E-05,0.000
-2.958E-05,-0.004
-2.956E-05,0.000
-2.954E-05,0.012
-2.952E-05,0.004
-2.950E-05,0.004
-2.948E-05,0.000
-2.946E-05,0.008
-2.944E-05,0.004
-2.942E-05,0.004
-2.940E-05,0.004
-2.938E-05,0.008
-2.936E-05,0.004
-2.934E-05,0.004
-2.932E-05,0.008
-2.930E-05,0.000
-2.928E-05,0.004
-2.926E-05,0.008
-2.924E-05,0.004
-2.922E-05,0.008
-2.920E-05,0.008
-2.918E-05,0.004
-2.916E-05,0.008
-2.914E-05,0.012
-2.912E-05,0.000
-2.910E-05,0.008
-2.908E-05,0.008
-2.906E-05,0.008
-2.904E-05,0.008
-2.902E-05,0.016
-2.900E-05,0.008
-2.898E-05,0.020
-2.896E-05,0.000
-2.894E-05,0.004
-2.892E-05,0.000
-2.890E-05,0.012
-2.888E-05,0.008
-2.886E-05,0.004
-2.884E-05,-0.008
-2.882E-05,0.024
-2.880E-05,-0.004
-2.878E-05,0.016
-2.876E-05,-0.004
-2.874E-05,0.004
-2.872E-05,0.004
-2.870E-05,0.008
-2.868E-05,0.012
-2.866E-05,0.004
-2.864E-05,0.008
-2.862E-05,0.004
-2.860E-05,0.012
-2.858E-05,0.016
-2.856E-05,-0.012
-2.854E-05,0.008
-2.852E-05,0.000
-2.850E-05,0.016
-2.848E-05,0.004
-2.846E-05,0.000
-2.844E-05,0.000
-2.842E-05,0.000
-2.840E-05,0.004
-2.838E-05,0.004
-2.836E-05,0.016
-2.834E-05,0.024
-2.832E-05,-0.004
-2.830E-05,0.020
-2.828E-05,0.000
-2.826E-05,0.000
-2.824E-05,0.004
-2.822E-05,0.008
-2.820E-05,0.024
-2.818E-05,-0.004
-2.816E-05,-0.036
-2.814E-05,0.016
-2.812E-05,0.020
-2.810E-05,0.008
-2.808E-05,-0.012
-2.806E-05,0.004
-2.804E-05,0.040
-2.802E-05,0.012
-2.800E-05,-0.012
-2.798E-05,-0.008
-2.796E-05,0.012
-2.794E-05,0.016
-2.792E-05,-0.008
-2.790E-05,0.004
-2.788E-05,0.004
-2.786E-05,0.012
-2.784E-05,0.004
-2.782E-05,-0.004
-2.780E-05,0.016
-2.778E-05,0.016
-2.776E-05,0.004
-2.774E-05,0.000
-2.772E-05,0.004
-2.770E-05,0.004
-2.768E-05,0.000
-2.766E-05,0.008
-2.764E-05,0.008
-2.762E-05,-0.004
-2.760E-05,0.012
-2.758E-05,0.016
-2.756E-05,0.004
-2.754E-05,0.004
-2.752E-05,0.008
-2.750E-05,0.012
-2.748E-05,-0.004
-2.746E-05,0.016
-2.744E-05,-0.020
-2.742E-05,0.016
-2.740E-05,0.004
-2.738E-05,0.020
-2.736E-05,0.008
-2.734E-05,0.008
-2.732E-05,0.008
-2.730E-05,0.004
-2.728E-05,0.004
-2.726E-05,0.020
-2.724E-05,-0.004
-2.722E-05,0.000
-2.720E-05,0.008
-2.718E-05,0.008
-2.716E-05,0.024
-2.714E-05,-0.016
-2.712E-05,0.008
-2.710E-05,-0.004
-2.708E-05,0.004
-2.706E-05,0.000
-2.704E-05,0.008
-2.702E-05,0.016
-2.700E-05,0.024
-2.698E-05,0.012
-2.696E-05,-0.004
-2.694E-05,-0.004
-2.692E-05,0.012
-2.690E-05,0.004
-2.688E-05,0.040
-2.686E-05,0.000
-2.684E-05,0.008
-2.682E-05,-0.028
-2.680E-05,0.000
-2.678E-05,-0.004
-2.676E-05,0.028
-2.674E-05,0.000
-2.672E-05,0.004
-2.670E-05,0.000
-2.668E-05,-0.012
-2.666E-05,0.016
-2.664E-05,0.000
-2.662E-05,0.012
-2.660E-05,0.020
-2.658E-05,-0.012
-2.656E-05,0.012
-2.654E-05,-0.028
-2.652E-05,-0.040
-2.650E-05,-0.016
-2.648E-05,-0.028
-2.646E-05,0.028
-2.644E-05,-0.020
-2.642E-05,0.020
-2.640E-05,0.016
-2.638E-05,-0.004
-2.636E-05,-0.004
-2.634E-05,0.016
-2.632E-05,0.000
-2.630E-05,0.020
-2.628E-05,-0.012
-2.626E-05,0.008
-2.624E-05,0.012
-2.622E-05,0.004
-2.620E-05,0.016
-2.618E-05,-0.004
-2.616E-05,0.004
-2.614E-05,0.008
-2.612E-05,-0.028
-2.610E-05,0.028
-2.608E-05,-0.004
-2.606E-05,0.024
-2.604E-05,-0.012
-2.602E-05,0.004
-2.600E-05,0.008
-2.598E-05,0.004
-2.596E-05,0.012
-2.594E-05,0.004
-2.592E-05,0.004
-2.590E-05,0.000
-2.588E-05,0.012
-2.586E-05,0.020
-2.584E-05,-0.004
-2.582E-05,0.008
-2.580E-05,0.024
-2.578E-05,-0.008
-2.576E-05,0.020
-2.574E-05,-0.024
-2.572E-05,0.012
-2.570E-05,0.012
-2.568E-05,-0.040
-2.566E-05,0.008
-2.564E-05,0.024
-2.562E-05,-0.004
-2.560E-05,0.016
-2.558E-05,-0.040
-2.556E-05,0.016
-2.554E-05,0.012
-2.552E-05,0.000
-2.550E-05,0.012
-2.548E-05,0.004
-2.546E-05,0.012
-2.544E-05,0.000
-2.542E-05,-0.024
-2.540E-05,-0.004
-2.538E-05,0.008
-2.536E-05,-0.004
-2.534E-05,-0.004
-2.532E-05,0.000
-2.530E-05,0.004
-2.528E-05,-0.012
-2.526E-05,0.012
-2.524E-05,-0.008
-2.522E-05,0.028
-2.520E-05,0.028
-2.518E-05,-0.008
-2.516E-05,0.024
-2.514E-05,0.016
-2.512E-05,-0.012
-2.510E-05,0.024
-2.508E-05,-0.040
-2.506E-05,0.024
-2.504E-05,-0.012
-2.502E-05,0.024
-2.500E-05,-0.020
-2.498E-05,0.016
-2.496E-05,0.016
-2.494E-05,0.000
-2.492E-05,0.040
-2.490E-05,0.016
-2.488E-05,0.016
-2.486E-05,0.008
-2.484E-05,0.020
-2.482E-05,-0.008
-2.480E-05,0.004
-2.478E-05,-0.008
-2.476E-05,-0.004
-2.474E-05,-0.020
-2.472E-05,-0.012
-2.470E-05,-0.040
-2.468E-05,-0.004
-2.466E-05,0.012
-2.464E-05,0.044
-2.462E-05,0.040
-2.460E-05,-0.004
-2.458E-05,0.032
-2.456E-05,-0.024
-2.454E-05,-0.024
-2.452E-05,-0.048
-2.450E-05,0.028
-2.448E-05,-0.028
-2.446E-05,-0.032
-2.444E-05,-0.048
-2.442E-05,-0.016
-2.440E-05,0.024
-2.438E-05,0.020
-2.436E-05,0.008
-2.434E-05,0.004
-2.432E-05,0.024
-2.430E-05,0.004
-2.428E-05,0.008
