mediciones/8-28/-13/WaveData65704.csv

#timebase=2000000(ps)
,#voltbase=500000(mv/100)
#size=4000
-8.350E-06,0.060
-8.340E-06,0.060
-8.330E-06,0.080
-8.320E-06,0.020
-8.310E-06,0.040
-8.300E-06,0.040
-8.290E-06,0.040
-8.280E-06,0.060
-8.270E-06,0.060
-8.260E-06,0.060
-8.250E-06,0.060
-8.240E-06,0.060
-8.230E-06,0.080
-8.220E-06,0.060
-8.210E-06,0.020
-8.200E-06,0.040
-8.190E-06,0.080
-8.180E-06,0.040
-8.170E-06,0.060
-8.160E-06,0.080
-8.150E-06,0.080
-8.140E-06,0.080
-8.130E-06,0.060
-8.120E-06,0.020
-8.110E-06,0.060
-8.100E-06,0.080
-8.090E-06,0.060
-8.080E-06,0.080
-8.070E-06,0.020
-8.060E-06,0.040
-8.050E-06,0.040
-8.040E-06,0.040
-8.030E-06,0.040
-8.020E-06,0.020
-8.010E-06,0.020
-8.000E-06,0.040
-7.990E-06,0.040
-7.980E-06,0.040
-7.970E-06,0.040
-7.960E-06,0.060
-7.950E-06,0.040
-7.940E-06,0.040
-7.930E-06,0.060
-7.920E-06,0.060
-7.910E-06,0.040
-7.900E-06,0.040
-7.890E-06,0.040
-7.880E-06,0.020
-7.870E-06,0.040
-7.860E-06,0.040
-7.850E-06,0.060
-7.840E-06,0.040
-7.830E-06,0.020
-7.820E-06,0.040
-7.810E-06,0.040
-7.800E-06,0.040
-7.790E-06,0.060
-7.780E-06,0.060
-7.770E-06,0.080
-7.760E-06,0.060
-7.750E-06,0.040
-7.740E-06,0.040
-7.730E-06,0.060
-7.720E-06,0.060
-7.710E-06,0.040
-7.700E-06,0.060
-7.690E-06,0.060
-7.680E-06,0.060
-7.670E-06,0.080
-7.660E-06,0.060
-7.650E-06,0.020
-7.640E-06,0.020
-7.630E-06,0.040
-7.620E-06,0.020
-7.610E-06,0.060
-7.600E-06,0.060
-7.590E-06,0.040
-7.580E-06,0.020
-7.570E-06,0.040
-7.560E-06,0.020
-7.550E-06,0.040
-7.540E-06,0.060
-7.530E-06,0.040
-7.520E-06,0.020
-7.510E-06,0.040
-7.500E-06,0.020
-7.490E-06,0.060
-7.480E-06,0.020
-7.470E-06,0.060
-7.460E-06,0.040
-7.450E-06,0.040
-7.440E-06,0.040
-7.430E-06,0.020
-7.420E-06,0.020
-7.410E-06,0.020
-7.400E-06,0.080
-7.390E-06,0.020
-7.380E-06,0.060
-7.370E-06,0.060
-7.360E-06,0.080
-7.350E-06,0.040
-7.340E-06,0.020
-7.330E-06,0.060
-7.320E-06,0.040
-7.310E-06,0.060
-7.300E-06,0.060
-7.290E-06,0.080
-7.280E-06,0.060
-7.270E-06,0.020
-7.260E-06,0.040
-7.250E-06,0.040
-7.240E-06,0.040
-7.230E-06,0.080
-7.220E-06,0.060
-7.210E-06,0.020
-7.200E-06,0.060
-7.190E-06,0.060
-7.180E-06,0.060
-7.170E-06,0.060
-7.160E-06,0.060
-7.150E-06,0.020
-7.140E-06,0.040
-7.130E-06,0.040
-7.120E-06,0.020
-7.110E-06,0.060
-7.100E-06,0.060
-7.090E-06,0.020
-7.080E-06,0.040
-7.070E-06,0.040
-7.060E-06,0.080
-7.050E-06,0.060
-7.040E-06,0.000
-7.030E-06,0.060
-7.020E-06,0.020
-7.010E-06,0.040
-7.000E-06,0.040
-6.990E-06,0.060
-6.980E-06,0.080
-6.970E-06,0.060
-6.960E-06,0.040
-6.950E-06,0.040
-6.940E-06,0.020
-6.930E-06,0.060
-6.920E-06,0.080
-6.910E-06,0.040
-6.900E-06,0.080
-6.890E-06,0.060
-6.880E-06,0.080
-6.870E-06,0.020
-6.860E-06,0.040
-6.850E-06,0.040
-6.840E-06,0.080
-6.830E-06,0.060
-6.820E-06,0.040
-6.810E-06,0.060
-6.800E-06,0.060
-6.790E-06,0.040
-6.780E-06,0.080
-6.770E-06,0.040
-6.760E-06,0.060
-6.750E-06,0.080
-6.740E-06,0.080
-6.730E-06,0.000
-6.720E-06,0.020
-6.710E-06,0.060
-6.700E-06,0.020
-6.690E-06,0.040
-6.680E-06,0.000
-6.670E-06,0.020
-6.660E-06,0.020
-6.650E-06,0.040
-6.640E-06,0.060
-6.630E-06,0.060
-6.620E-06,0.060
-6.610E-06,0.020
-6.600E-06,0.040
-6.590E-06,0.020
-6.580E-06,0.040
-6.570E-06,0.060
-6.560E-06,0.020
-6.550E-06,0.040
-6.540E-06,0.060
-6.530E-06,0.060
-6.520E-06,0.040
-6.510E-06,0.080
-6.500E-06,0.040
-6.490E-06,0.060
-6.480E-06,0.080
-6.470E-06,0.040
-6.460E-06,0.020
-6.450E-06,0.040
-6.440E-06,0.040
-6.430E-06,0.080
-6.420E-06,0.040
-6.410E-06,0.080
-6.400E-06,0.020
-6.390E-06,0.000
-6.380E-06,0.060
-6.370E-06,0.040
-6.360E-06,0.080
-6.350E-06,0.080
-6.340E-06,0.000
-6.330E-06,0.060
-6.320E-06,0.060
-6.310E-06,0.040
-6.300E-06,0.080
-6.290E-06,0.040
-6.280E-06,0.040
-6.270E-06,0.040
-6.260E-06,0.020
-6.250E-06,0.060
-6.240E-06,0.080
-6.230E-06,0.040
-6.220E-06,0.060
-6.210E-06,0.020
-6.200E-06,0.040
-6.190E-06,0.040
-6.180E-06,0.040
-6.170E-06,0.040
-6.160E-06,0.040
-6.150E-06,0.040
-6.140E-06,0.060
-6.130E-06,0.000
-6.120E-06,0.020
-6.110E-06,0.040
-6.100E-06,0.040
-6.090E-06,0.080
-6.080E-06,0.060
-6.070E-06,0.040
-6.060E-06,0.040
-6.050E-06,0.040
-6.040E-06,0.020
-6.030E-06,0.040
-6.020E-06,0.040
-6.010E-06,0.020
-6.000E-06,0.060
-5.990E-06,0.040
-5.980E-06,0.020
-5.970E-06,0.060
-5.960E-06,0.020
-5.950E-06,0.060
-5.940E-06,0.040
-5.930E-06,0.080
-5.920E-06,0.060
-5.910E-06,0.040
-5.900E-06,0.000
-5.890E-06,0.020
-5.880E-06,0.040
-5.870E-06,0.040
-5.860E-06,0.060
-5.850E-06,0.040
-5.840E-06,0.040
-5.830E-06,0.080
-5.820E-06,0.040
-5.810E-06,0.020
-5.800E-06,0.040
-5.790E-06,0.060
-5.780E-06,0.040
-5.770E-06,0.040
-5.760E-06,0.080
-5.750E-06,0.060
-5.740E-06,0.040
-5.730E-06,0.100
-5.720E-06,0.080
-5.710E-06,0.160
-5.700E-06,0.220
-5.690E-06,0.180
-5.680E-06,0.160
-5.670E-06,0.060
-5.660E-06,0.060
-5.650E-06,0.020
-5.640E-06,0.000
-5.630E-06,-0.020
-5.620E-06,-0.020
-5.610E-06,-0.020
-5.600E-06,-0.060
-5.590E-06,-0.080
-5.580E-06,-0.100
-5.570E-06,-0.080
-5.560E-06,-0.040
-5.550E-06,0.020
-5.540E-06,0.020
-5.530E-06,0.060
-5.520E-06,0.040
-5.510E-06,0.020
-5.500E-06,0.040
-5.490E-06,0.080
-5.480E-06,0.060
-5.470E-06,0.080
-5.460E-06,0.080
-5.450E-06,0.120
-5.440E-06,0.160
-5.430E-06,0.100
-5.420E-06,0.140
-5.410E-06,0.120
-5.400E-06,0.080
-5.390E-06,0.080
-5.380E-06,0.020
-5.370E-06,0.020
-5.360E-06,0.020
-5.350E-06,0.000
-5.340E-06,-0.020
-5.330E-06,-0.020
-5.320E-06,-0.020
-5.310E-06,-0.040
-5.300E-06,-0.040
-5.290E-06,0.000
-5.280E-06,0.060
-5.270E-06,0.060
-5.260E-06,0.080
-5.250E-06,0.080
-5.240E-06,0.080
-5.230E-06,0.100
-5.220E-06,0.120
-5.210E-06,0.140
-5.200E-06,0.120
-5.190E-06,0.140
-5.180E-06,0.100
-5.170E-06,0.080
-5.160E-06,0.080
-5.150E-06,0.020
-5.140E-06,0.000
-5.130E-06,0.000
-5.120E-06,0.000
-5.110E-06,0.020
-5.100E-06,0.000
-5.090E-06,-0.020
-5.080E-06,-0.020
-5.070E-06,-0.020
-5.060E-06,0.000
-5.050E-06,0.020
-5.040E-06,-0.020
-5.030E-06,0.000
-5.020E-06,0.020
-5.010E-06,0.040
-5.000E-06,0.080
-4.990E-06,0.060
-4.980E-06,0.080
-4.970E-06,0.080
-4.960E-06,0.060
-4.950E-06,0.080
-4.940E-06,0.100
-4.930E-06,0.080
-4.920E-06,0.060
-4.910E-06,0.060
-4.900E-06,0.020
-4.890E-06,0.020
-4.880E-06,0.000
-4.870E-06,0.000
-4.860E-06,0.000
-4.850E-06,0.000
-4.840E-06,-0.020
-4.830E-06,-0.020
-4.820E-06,0.000
-4.810E-06,-0.020
-4.800E-06,0.000
-4.790E-06,0.040
-4.780E-06,0.020
-4.770E-06,0.060
-4.760E-06,0.080
-4.750E-06,0.060
-4.740E-06,0.080
-4.730E-06,0.080
-4.720E-06,0.080
-4.710E-06,0.060
-4.700E-06,0.080
-4.690E-06,0.060
-4.680E-06,0.040
-4.670E-06,0.040
-4.660E-06,0.020
-4.650E-06,0.040
-4.640E-06,-0.020
-4.630E-06,0.000
-4.620E-06,0.000
-4.610E-06,0.020
-4.600E-06,0.020
-4.590E-06,0.020
-4.580E-06,-0.020
-4.570E-06,0.020
-4.560E-06,0.000
-4.550E-06,0.060
-4.540E-06,0.020
-4.530E-06,0.000
-4.520E-06,-0.020
-4.510E-06,0.040
-4.500E-06,0.060
-4.490E-06,0.060
-4.480E-06,0.080
-4.470E-06,0.060
-4.460E-06,0.000
-4.450E-06,0.040
-4.440E-06,0.060
-4.430E-06,0.040
-4.420E-06,0.040
-4.410E-06,0.020
-4.400E-06,0.020
-4.390E-06,0.000
-4.380E-06,0.000
-4.370E-06,0.000
-4.360E-06,0.000
-4.350E-06,0.000
-4.340E-06,0.000
-4.330E-06,0.040
-4.320E-06,0.000
-4.310E-06,0.000
-4.300E-06,-0.020
-4.290E-06,0.000
-4.280E-06,-0.020
-4.270E-06,0.020
-4.260E-06,-0.020
-4.250E-06,0.020
-4.240E-06,0.040
-4.230E-06,0.020
-4.220E-06,0.020
-4.210E-06,0.020
-4.200E-06,0.020
-4.190E-06,0.020
-4.180E-06,0.040
-4.170E-06,0.020
-4.160E-06,0.040
-4.150E-06,0.040
-4.140E-06,0.020
-4.130E-06,0.060
-4.120E-06,0.000
-4.110E-06,0.060
-4.100E-06,0.100
-4.090E-06,-0.020
-4.080E-06,0.120
-4.070E-06,0.020
-4.060E-06,-0.020
-4.050E-06,0.100
-4.040E-06,0.000
-4.030E-06,0.080
-4.020E-06,0.040
-4.010E-06,-0.020
-4.000E-06,0.040
-3.990E-06,-0.020
-3.980E-06,0.040
-3.970E-06,0.020
-3.960E-06,0.060
-3.950E-06,0.040
-3.940E-06,0.040
-3.930E-06,0.000
-3.920E-06,0.060
-3.910E-06,0.000
-3.900E-06,0.060
-3.890E-06,-0.020
-3.880E-06,0.000
-3.870E-06,0.040
-3.860E-06,-0.020
-3.850E-06,0.060
-3.840E-06,0.000
-3.830E-06,0.000
-3.820E-06,-0.020
-3.810E-06,-0.100
-3.800E-06,0.020
-3.790E-06,-0.180
-3.780E-06,0.140
-3.770E-06,-0.140
-3.760E-06,0.180
-3.750E-06,-0.020
-3.740E-06,0.260
-3.730E-06,-0.160
-3.720E-06,0.080
-3.710E-06,-0.200
-3.700E-06,-0.120
-3.690E-06,-0.200
-3.680E-06,-0.180
-3.670E-06,-0.200
-3.660E-06,-0.200
-3.650E-06,-0.300
-3.640E-06,-0.280
-3.630E-06,0.000
-3.620E-06,-0.160
-3.610E-06,0.160
-3.600E-06,-0.120
-3.590E-06,0.080
-3.580E-06,0.040
-3.570E-06,-0.020
-3.560E-06,0.040
-3.550E-06,0.060
-3.540E-06,0.060
-3.530E-06,0.100
-3.520E-06,0.080
-3.510E-06,0.080
-3.500E-06,0.080
-3.490E-06,0.140
-3.480E-06,0.140
-3.470E-06,0.120
-3.460E-06,0.120
-3.450E-06,0.140
-3.440E-06,0.100
-3.430E-06,0.120
-3.420E-06,0.100
-3.410E-06,0.120
-3.400E-06,0.100
-3.390E-06,0.120
-3.380E-06,0.080
-3.370E-06,0.100
-3.360E-06,0.100
-3.350E-06,0.100
-3.340E-06,0.100
-3.330E-06,0.080
-3.320E-06,0.080
-3.310E-06,0.100
-3.300E-06,0.080
-3.290E-06,0.080
-3.280E-06,0.060
-3.270E-06,0.080
-3.260E-06,0.020
-3.250E-06,0.000
-3.240E-06,0.000
-3.230E-06,-0.040
-3.220E-06,-0.020
-3.210E-06,-0.060
-3.200E-06,-0.040
-3.190E-06,-0.020
-3.180E-06,-0.100
-3.170E-06,-0.080
-3.160E-06,-0.060
-3.150E-06,-0.060
-3.140E-06,0.000
-3.130E-06,-0.020
-3.120E-06,0.000
-3.110E-06,-0.020
-3.100E-06,0.000
-3.090E-06,0.000
-3.080E-06,-0.020
-3.070E-06,-0.020
-3.060E-06,0.000
-3.050E-06,0.020
-3.040E-06,0.100
-3.030E-06,0.020
-3.020E-06,-0.020
-3.010E-06,-0.100
-3.000E-06,-0.120
-2.990E-06,-0.120
-2.980E-06,-0.080
-2.970E-06,-0.040
-2.960E-06,-0.020
-2.950E-06,0.000
-2.940E-06,-0.080
-2.930E-06,-0.060
-2.920E-06,-0.060
-2.910E-06,-0.020
-2.900E-06,-0.020
-2.890E-06,-0.020
-2.880E-06,0.120
-2.870E-06,0.000
-2.860E-06,0.240
-2.850E-06,-0.020
-2.840E-06,0.260
-2.830E-06,0.080
-2.820E-06,0.300
-2.810E-06,-0.120
-2.800E-06,0.040
-2.790E-06,-0.120
-2.780E-06,-0.080
-2.770E-06,-0.060
-2.760E-06,-0.060
-2.750E-06,0.000
-2.740E-06,0.000
-2.730E-06,-0.020
-2.720E-06,-0.020
-2.710E-06,-0.060
-2.700E-06,-0.020
-2.690E-06,-0.040
-2.680E-06,-0.080
-2.670E-06,-0.080
-2.660E-06,-0.100
-2.650E-06,-0.140
-2.640E-06,-0.120
-2.630E-06,-0.080
-2.620E-06,-0.060
-2.610E-06,-0.020
-2.600E-06,-0.020
-2.590E-06,-0.020
-2.580E-06,0.000
-2.570E-06,0.020
-2.560E-06,0.020
-2.550E-06,0.040
-2.540E-06,0.040
-2.530E-06,0.100
-2.520E-06,0.100
-2.510E-06,0.120
-2.500E-06,0.120
-2.490E-06,0.120
-2.480E-06,0.140
-2.470E-06,0.120
-2.460E-06,0.100
-2.450E-06,0.140
-2.440E-06,0.080
-2.430E-06,0.100
-2.420E-06,0.140
-2.410E-06,0.120
-2.400E-06,0.080
-2.390E-06,0.100
-2.380E-06,0.120
-2.370E-06,0.120
-2.360E-06,0.100
-2.350E-06,0.100
-2.340E-06,0.080
-2.330E-06,0.100
-2.320E-06,0.060
-2.310E-06,0.060
-2.300E-06,0.000
-2.290E-06,0.000
-2.280E-06,-0.020
-2.270E-06,-0.020
-2.260E-06,-0.040
-2.250E-06,-0.020
-2.240E-06,-0.020
-2.230E-06,-0.020
-2.220E-06,0.000
-2.210E-06,-0.040
-2.200E-06,-0.060
-2.190E-06,-0.120
-2.180E-06,-0.100
-2.170E-06,-0.120
-2.160E-06,-0.120
-2.150E-06,-0.100
-2.140E-06,-0.080
-2.130E-06,-0.100
-2.120E-06,-0.160
-2.110E-06,-0.060
-2.100E-06,-0.080
-2.090E-06,-0.080
-2.080E-06,-0.020
-2.070E-06,-0.040
-2.060E-06,0.060
-2.050E-06,0.060
-2.040E-06,-0.020
-2.030E-06,0.060
-2.020E-06,0.020
-2.010E-06,0.020
-2.000E-06,0.000
-1.990E-06,0.000
-1.980E-06,0.060
-1.970E-06,0.020
-1.960E-06,0.080
-1.950E-06,0.040
-1.940E-06,0.020
-1.930E-06,0.000
-1.920E-06,0.000
-1.910E-06,-0.100
-1.900E-06,-0.140
-1.890E-06,-0.180
-1.880E-06,-0.180
-1.870E-06,-0.020
-1.860E-06,-0.240
-1.850E-06,0.000
-1.840E-06,-0.180
-1.830E-06,-0.140
-1.820E-06,-0.080
-1.810E-06,-0.180
-1.800E-06,-0.120
-1.790E-06,-0.160
-1.780E-06,-0.120
-1.770E-06,-0.080
-1.760E-06,-0.140
-1.750E-06,-0.140
-1.740E-06,-0.140
-1.730E-06,-0.180
-1.720E-06,-0.180
-1.710E-06,-0.200
-1.700E-06,-0.240
-1.690E-06,-0.280
-1.680E-06,0.000
-1.670E-06,-0.240
-1.660E-06,0.100
-1.650E-06,-0.240
-1.640E-06,-0.100
-1.630E-06,-0.060
-1.620E-06,-0.120
-1.610E-06,-0.040
-1.600E-06,-0.060
-1.590E-06,-0.040
-1.580E-06,0.020
-1.570E-06,0.000
-1.560E-06,0.020
-1.550E-06,-0.040
-1.540E-06,-0.020
-1.530E-06,-0.040
-1.520E-06,-0.060
-1.510E-06,-0.060
-1.500E-06,-0.040
-1.490E-06,-0.100
-1.480E-06,-0.120
-1.470E-06,-0.120
-1.460E-06,-0.100
-1.450E-06,-0.100
-1.440E-06,-0.120
-1.430E-06,-0.100
-1.420E-06,-0.100
-1.410E-06,-0.100
-1.400E-06,-0.100
-1.390E-06,-0.040
-1.380E-06,-0.040
-1.370E-06,0.100
-1.360E-06,-0.140
-1.350E-06,0.060
-1.340E-06,-0.080
-1.330E-06,0.280
-1.320E-06,-0.180
-1.310E-06,0.240
-1.300E-06,0.000
-1.290E-06,0.060
-1.280E-06,0.060
-1.270E-06,-0.040
-1.260E-06,0.080
-1.250E-06,-0.040
-1.240E-06,-0.020
-1.230E-06,-0.020
-1.220E-06,-0.100
-1.210E-06,-0.060
-1.200E-06,-0.060
-1.190E-06,-0.060
-1.180E-06,-0.040
-1.170E-06,-0.060
-1.160E-06,-0.060
-1.150E-06,-0.060
-1.140E-06,-0.060
-1.130E-06,-0.060
-1.120E-06,-0.060
-1.110E-06,-0.060
-1.100E-06,-0.060
-1.090E-06,-0.080
-1.080E-06,-0.100
-1.070E-06,-0.100
-1.060E-06,-0.080
-1.050E-06,-0.040
-1.040E-06,-0.040
-1.030E-06,-0.020
-1.020E-06,-0.020
-1.010E-06,0.000
-1.000E-06,0.000
-9.900E-07,-0.020
-9.800E-07,-0.020
-9.700E-07,-0.100
-9.600E-07,-0.020
-9.500E-07,-0.180
-9.400E-07,0.100
-9.300E-07,-0.200
-9.200E-07,0.200
-9.100E-07,-0.160
-9.000E-07,0.280
-8.900E-07,-0.060
-8.800E-07,0.100
-8.700E-07,0.000
-8.600E-07,0.000
-8.500E-07,0.060
-8.400E-07,0.000
-8.300E-07,-0.020
-8.200E-07,0.000
-8.100E-07,0.000
-8.000E-07,0.000
-7.900E-07,-0.040
-7.800E-07,-0.020
-7.700E-07,-0.060
-7.600E-07,-0.100
-7.500E-07,-0.140
-7.400E-07,-0.200
-7.300E-07,-0.260
-7.200E-07,-0.340
-7.100E-07,-0.360
-7.000E-07,-0.400
-6.900E-07,-0.340
-6.800E-07,-0.360
-6.700E-07,-0.360
-6.600E-07,-0.320
-6.500E-07,-0.200
-6.400E-07,-0.260
-6.300E-07,-0.260
-6.200E-07,-0.280
-6.100E-07,-0.440
-6.000E-07,-0.040
-5.900E-07,-0.520
-5.800E-07,-0.020
-5.700E-07,-0.520
-5.600E-07,-0.240
-5.500E-07,-0.320
-5.400E-07,-0.320
-5.300E-07,-0.300
-5.200E-07,-0.320
-5.100E-07,-0.380
-5.000E-07,-0.440
-4.900E-07,-0.360
-4.800E-07,-0.360
-4.700E-07,-0.420
-4.600E-07,-0.360
-4.500E-07,-0.400
-4.400E-07,-0.480
-4.300E-07,-0.420
-4.200E-07,-0.680
-4.100E-07,-0.200
-4.000E-07,-0.780
-3.900E-07,-0.240
-3.800E-07,-0.640
-3.700E-07,0.160
-3.600E-07,-0.220
-3.500E-07,0.160
-3.400E-07,-0.240
-3.300E-07,-0.520
-3.200E-07,0.100
-3.100E-07,-0.580
-3.000E-07,0.260
-2.900E-07,0.520
-2.800E-07,0.480
-2.700E-07,0.060
-2.600E-07,-0.280
-2.500E-07,-0.900
-2.400E-07,-1.020
-2.300E-07,-1.520
-2.200E-07,-0.660
-2.100E-07,-0.680
-2.000E-07,0.420
-1.900E-07,0.160
-1.800E-07,0.240
-1.700E-07,-0.020
-1.600E-07,0.340
-1.500E-07,0.340
-1.400E-07,-0.140
-1.300E-07,0.360
-1.200E-07,0.240
-1.100E-07,0.220
-1.000E-07,-0.300
-9.000E-08,-0.860
-8.000E-08,-1.280
-7.000E-08,-1.340
-6.000E-08,-0.720
-5.000E-08,0.080
-4.000E-08,0.520
-3.000E-08,0.800
-2.000E-08,0.540
-1.000E-08,-0.180
0.000E+00,-0.660
1.000E-08,-0.800
2.000E-08,-0.340
3.000E-08,-0.380
4.000E-08,0.080
5.000E-08,-0.140
6.000E-08,-0.320
7.000E-08,-0.520
8.000E-08,-0.180
9.000E-08,-0.080
1.000E-07,-0.060
1.100E-07,-0.180
1.200E-07,-0.020
1.300E-07,0.100
1.400E-07,0.220
1.500E-07,0.000
1.600E-07,0.300
1.700E-07,0.040
1.800E-07,-0.180
1.900E-07,-0.460
2.000E-07,0.180
2.100E-07,0.740
2.200E-07,0.740
2.300E-07,1.160
2.400E-07,-0.020
2.500E-07,-0.220
2.600E-07,-1.380
2.700E-07,-1.420
2.800E-07,-1.600
2.900E-07,-0.940
3.000E-07,-0.420
3.100E-07,-0.080
3.200E-07,-0.100
3.300E-07,-0.200
3.400E-07,-0.480
3.500E-07,-0.860
3.600E-07,-0.680
3.700E-07,-0.240
3.800E-07,0.060
3.900E-07,-0.300
4.000E-07,0.940
4.100E-07,0.120
4.200E-07,0.320
4.300E-07,-0.100
4.400E-07,-0.220
4.500E-07,-0.040
4.600E-07,0.300
4.700E-07,0.300
4.800E-07,0.660
4.900E-07,0.060
5.000E-07,0.080
5.100E-07,-0.200
5.200E-07,-0.480
5.300E-07,-0.580
5.400E-07,-0.600
5.500E-07,-0.860
5.600E-07,-0.600
5.700E-07,-0.840
5.800E-07,-0.520
5.900E-07,-0.680
6.000E-07,-0.760
6.100E-07,-0.760
6.200E-07,-0.520
6.300E-07,-1.080
6.400E-07,-0.440
6.500E-07,-0.960
6.600E-07,-0.460
6.700E-07,-0.800
6.800E-07,-0.520
6.900E-07,-0.460
7.000E-07,-0.420
7.100E-07,-0.400
7.200E-07,-0.720
7.300E-07,-0.760
7.400E-07,-0.700
7.500E-07,-0.980
7.600E-07,-0.800
7.700E-07,-0.960
7.800E-07,-0.800
7.900E-07,-0.720
8.000E-07,-0.640
8.100E-07,-0.680
8.200E-07,-0.540
8.300E-07,-0.560
8.400E-07,-0.400
8.500E-07,-0.340
8.600E-07,-0.340
8.700E-07,-0.180
8.800E-07,-0.040
8.900E-07,0.000
9.000E-07,0.000
9.100E-07,-0.020
9.200E-07,0.160
9.300E-07,0.080
9.400E-07,0.120
9.500E-07,-0.020
9.600E-07,0.340
9.700E-07,0.080
9.800E-07,-0.080
9.900E-07,-0.340
1.000E-06,-0.380
1.010E-06,-0.420
1.020E-06,-0.660
1.030E-06,-0.660
1.040E-06,-0.780
1.050E-06,-0.920
1.060E-06,-0.920
1.070E-06,-0.920
1.080E-06,-0.740
1.090E-06,-0.700
1.100E-06,-0.420
1.110E-06,-0.440
1.120E-06,-0.200
1.130E-06,-0.420
1.140E-06,-0.260
1.150E-06,-0.180
1.160E-06,-0.200
1.170E-06,1.480
1.180E-06,1.920
1.190E-06,2.080
1.200E-06,0.900
1.210E-06,1.460
1.220E-06,-2.000
1.230E-06,-2.260
1.240E-06,-3.320
1.250E-06,-2.320
1.260E-06,-2.120
1.270E-06,-0.480
1.280E-06,-0.700
1.290E-06,-0.780
1.300E-06,-0.520
1.310E-06,-1.100
1.320E-06,-1.060
1.330E-06,-1.200
1.340E-06,-0.780
1.350E-06,0.540
1.360E-06,0.860
1.370E-06,0.820
1.380E-06,0.660
1.390E-06,0.140
1.400E-06,0.160
1.410E-06,-0.220
1.420E-06,-0.220
1.430E-06,0.040
1.440E-06,-0.340
1.450E-06,-0.740
1.460E-06,-1.100
1.470E-06,-1.240
1.480E-06,-1.220
1.490E-06,-1.000
1.500E-06,-0.700
1.510E-06,-0.820
1.520E-06,-0.480
1.530E-06,-0.680
1.540E-06,-1.180
1.550E-06,-1.480
1.560E-06,-1.460
1.570E-06,-1.700
1.580E-06,-1.540
1.590E-06,-1.320
1.600E-06,-1.020
1.610E-06,-0.540
1.620E-06,-0.400
1.630E-06,-0.060
1.640E-06,-0.040
1.650E-06,0.040
1.660E-06,-0.260
1.670E-06,-0.500
1.680E-06,-0.840
1.690E-06,-0.780
1.700E-06,-1.140
1.710E-06,-0.960
1.720E-06,-1.400
1.730E-06,-1.080
1.740E-06,-1.360
1.750E-06,-1.120
1.760E-06,-1.260
1.770E-06,-1.000
1.780E-06,-1.200
1.790E-06,-1.040
1.800E-06,-1.180
1.810E-06,-1.180
1.820E-06,-1.120
1.830E-06,-1.080
1.840E-06,-1.220
1.850E-06,-1.260
1.860E-06,-1.260
1.870E-06,-1.040
1.880E-06,-0.940
1.890E-06,-0.580
1.900E-06,-0.680
1.910E-06,-0.440
1.920E-06,-0.480
1.930E-06,-0.680
1.940E-06,-0.900
1.950E-06,-0.620
1.960E-06,-0.820
1.970E-06,-0.020
1.980E-06,0.560
1.990E-06,-0.960
2.000E-06,-0.740
2.010E-06,-1.600
2.020E-06,2.080
2.030E-06,2.100
2.040E-06,2.100
2.050E-06,2.080
2.060E-06,0.180
2.070E-06,-3.340
2.080E-06,-3.340
2.090E-06,-3.340
2.100E-06,-3.340
2.110E-06,-3.340
2.120E-06,-3.340
2.130E-06,-3.340
2.140E-06,-3.340
2.150E-06,-3.340
2.160E-06,-3.360
2.170E-06,-3.360
2.180E-06,-3.360
2.190E-06,-2.200
2.200E-06,-0.480
2.210E-06,0.360
2.220E-06,0.780
2.230E-06,0.640
2.240E-06,0.420
2.250E-06,0.320
2.260E-06,0.320
2.270E-06,0.780
2.280E-06,1.020
2.290E-06,1.120
2.300E-06,0.820
2.310E-06,0.280
2.320E-06,-0.400
2.330E-06,-1.200
2.340E-06,-1.680
2.350E-06,-2.020
2.360E-06,-2.040
2.370E-06,-2.260
2.380E-06,-2.300
2.390E-06,-2.380
2.400E-06,-2.420
2.410E-06,-2.400
2.420E-06,-2.340
2.430E-06,-1.940
2.440E-06,-1.620
2.450E-06,-0.800
2.460E-06,-0.120
2.470E-06,0.880
2.480E-06,1.400
2.490E-06,1.940
2.500E-06,1.840
2.510E-06,1.560
2.520E-06,1.040
2.530E-06,0.340
2.540E-06,-0.160
2.550E-06,-0.680
2.560E-06,-1.180
2.570E-06,-1.540
2.580E-06,-1.740
2.590E-06,-1.960
2.600E-06,-2.020
2.610E-06,-2.180
2.620E-06,-2.180
2.630E-06,-2.140
2.640E-06,-1.820
2.650E-06,-1.520
2.660E-06,-1.200
2.670E-06,-0.820
2.680E-06,-0.680
2.690E-06,-0.380
2.700E-06,-0.420
2.710E-06,-0.100
2.720E-06,0.140
2.730E-06,0.420
2.740E-06,0.740
2.750E-06,0.920
2.760E-06,1.040
2.770E-06,0.980
2.780E-06,0.760
2.790E-06,0.420
2.800E-06,-0.020
2.810E-06,-0.340
2.820E-06,-0.800
2.830E-06,-1.180
2.840E-06,-1.620
2.850E-06,-2.000
2.860E-06,-2.260
2.870E-06,-2.380
2.880E-06,-2.540
2.890E-06,-2.760
2.900E-06,-2.340
2.910E-06,-2.160
2.920E-06,-1.520
2.930E-06,-1.100
2.940E-06,-0.620
2.950E-06,-0.280
2.960E-06,-0.060
2.970E-06,0.180
2.980E-06,0.260
2.990E-06,0.340
3.000E-06,0.440
3.010E-06,0.440
3.020E-06,0.500
3.030E-06,0.180
3.040E-06,0.340
3.050E-06,0.060
3.060E-06,0.260
3.070E-06,0.140
3.080E-06,0.140
3.090E-06,0.120
3.100E-06,0.060
3.110E-06,0.000
3.120E-06,-0.120
3.130E-06,-0.220
3.140E-06,-0.260
3.150E-06,-0.320
3.160E-06,-0.420
3.170E-06,-0.440
3.180E-06,-0.440
3.190E-06,-0.300
3.200E-06,-0.220
3.210E-06,-0.040
3.220E-06,0.200
3.230E-06,0.300
3.240E-06,0.500
3.250E-06,0.600
3.260E-06,0.660
