mediciones/8-28/-13/WaveData65692.csv

#timebase=2000000(ps)
,#voltbase=500000(mv/100)
#size=4000
-8.350E-06,0.060
-8.340E-06,0.060
-8.330E-06,0.020
-8.320E-06,0.040
-8.310E-06,0.060
-8.300E-06,0.040
-8.290E-06,0.040
-8.280E-06,0.020
-8.270E-06,0.040
-8.260E-06,0.040
-8.250E-06,0.040
-8.240E-06,0.040
-8.230E-06,0.060
-8.220E-06,0.040
-8.210E-06,0.040
-8.200E-06,0.060
-8.190E-06,0.040
-8.180E-06,0.040
-8.170E-06,0.060
-8.160E-06,0.020
-8.150E-06,0.040
-8.140E-06,0.020
-8.130E-06,0.060
-8.120E-06,0.080
-8.110E-06,0.040
-8.100E-06,0.060
-8.090E-06,0.020
-8.080E-06,0.060
-8.070E-06,0.040
-8.060E-06,0.020
-8.050E-06,0.060
-8.040E-06,0.040
-8.030E-06,0.060
-8.020E-06,0.060
-8.010E-06,0.020
-8.000E-06,0.040
-7.990E-06,0.060
-7.980E-06,0.040
-7.970E-06,0.020
-7.960E-06,0.060
-7.950E-06,0.040
-7.940E-06,0.040
-7.930E-06,0.020
-7.920E-06,0.080
-7.910E-06,0.060
-7.900E-06,0.020
-7.890E-06,0.020
-7.880E-06,0.020
-7.870E-06,0.080
-7.860E-06,0.060
-7.850E-06,0.060
-7.840E-06,0.060
-7.830E-06,0.020
-7.820E-06,0.040
-7.810E-06,0.060
-7.800E-06,0.060
-7.790E-06,0.040
-7.780E-06,0.060
-7.770E-06,0.040
-7.760E-06,0.020
-7.750E-06,0.020
-7.740E-06,0.040
-7.730E-06,0.060
-7.720E-06,0.020
-7.710E-06,0.060
-7.700E-06,0.000
-7.690E-06,0.040
-7.680E-06,0.060
-7.670E-06,0.020
-7.660E-06,0.040
-7.650E-06,0.080
-7.640E-06,0.020
-7.630E-06,0.020
-7.620E-06,0.040
-7.610E-06,0.060
-7.600E-06,0.020
-7.590E-06,0.040
-7.580E-06,0.080
-7.570E-06,0.080
-7.560E-06,0.060
-7.550E-06,0.060
-7.540E-06,0.060
-7.530E-06,0.020
-7.520E-06,0.040
-7.510E-06,0.020
-7.500E-06,0.040
-7.490E-06,0.060
-7.480E-06,0.060
-7.470E-06,0.080
-7.460E-06,0.060
-7.450E-06,0.060
-7.440E-06,0.040
-7.430E-06,0.060
-7.420E-06,0.060
-7.410E-06,0.040
-7.400E-06,0.080
-7.390E-06,0.040
-7.380E-06,0.020
-7.370E-06,0.040
-7.360E-06,0.060
-7.350E-06,0.040
-7.340E-06,0.040
-7.330E-06,0.060
-7.320E-06,0.040
-7.310E-06,0.060
-7.300E-06,0.020
-7.290E-06,0.020
-7.280E-06,0.040
-7.270E-06,0.020
-7.260E-06,0.060
-7.250E-06,0.060
-7.240E-06,0.060
-7.230E-06,0.020
-7.220E-06,0.000
-7.210E-06,0.060
-7.200E-06,0.020
-7.190E-06,0.040
-7.180E-06,0.040
-7.170E-06,0.020
-7.160E-06,0.020
-7.150E-06,0.040
-7.140E-06,0.020
-7.130E-06,0.060
-7.120E-06,0.040
-7.110E-06,0.060
-7.100E-06,0.060
-7.090E-06,0.060
-7.080E-06,0.060
-7.070E-06,0.040
-7.060E-06,0.060
-7.050E-06,0.060
-7.040E-06,0.020
-7.030E-06,0.040
-7.020E-06,0.040
-7.010E-06,0.060
-7.000E-06,0.060
-6.990E-06,0.080
-6.980E-06,0.080
-6.970E-06,0.020
-6.960E-06,0.020
-6.950E-06,0.020
-6.940E-06,0.040
-6.930E-06,0.040
-6.920E-06,0.060
-6.910E-06,0.060
-6.900E-06,0.040
-6.890E-06,0.040
-6.880E-06,0.020
-6.870E-06,0.060
-6.860E-06,0.080
-6.850E-06,0.020
-6.840E-06,0.020
-6.830E-06,0.060
-6.820E-06,0.020
-6.810E-06,0.040
-6.800E-06,0.040
-6.790E-06,0.040
-6.780E-06,0.040
-6.770E-06,0.020
-6.760E-06,0.020
-6.750E-06,0.020
-6.740E-06,0.040
-6.730E-06,0.040
-6.720E-06,0.060
-6.710E-06,0.040
-6.700E-06,0.040
-6.690E-06,0.040
-6.680E-06,0.060
-6.670E-06,0.060
-6.660E-06,0.020
-6.650E-06,0.040
-6.640E-06,0.020
-6.630E-06,0.040
-6.620E-06,0.040
-6.610E-06,0.060
-6.600E-06,0.040
-6.590E-06,0.040
-6.580E-06,0.040
-6.570E-06,0.040
-6.560E-06,0.060
-6.550E-06,0.080
-6.540E-06,0.060
-6.530E-06,0.020
-6.520E-06,0.040
-6.510E-06,0.060
-6.500E-06,0.080
-6.490E-06,0.040
-6.480E-06,0.060
-6.470E-06,0.020
-6.460E-06,0.000
-6.450E-06,0.040
-6.440E-06,0.020
-6.430E-06,0.040
-6.420E-06,0.060
-6.410E-06,0.040
-6.400E-06,0.040
-6.390E-06,0.040
-6.380E-06,0.020
-6.370E-06,0.020
-6.360E-06,0.020
-6.350E-06,0.040
-6.340E-06,0.020
-6.330E-06,0.040
-6.320E-06,0.020
-6.310E-06,0.040
-6.300E-06,0.060
-6.290E-06,0.040
-6.280E-06,-0.020
-6.270E-06,0.020
-6.260E-06,0.040
-6.250E-06,0.040
-6.240E-06,0.060
-6.230E-06,0.060
-6.220E-06,0.040
-6.210E-06,0.060
-6.200E-06,0.080
-6.190E-06,0.020
-6.180E-06,0.040
-6.170E-06,0.060
-6.160E-06,0.040
-6.150E-06,0.020
-6.140E-06,0.060
-6.130E-06,0.080
-6.120E-06,0.040
-6.110E-06,0.040
-6.100E-06,0.060
-6.090E-06,0.060
-6.080E-06,0.060
-6.070E-06,0.060
-6.060E-06,0.060
-6.050E-06,0.000
-6.040E-06,0.020
-6.030E-06,0.060
-6.020E-06,0.020
-6.010E-06,0.040
-6.000E-06,0.020
-5.990E-06,0.040
-5.980E-06,0.040
-5.970E-06,0.060
-5.960E-06,0.060
-5.950E-06,0.080
-5.940E-06,0.060
-5.930E-06,0.020
-5.920E-06,0.060
-5.910E-06,0.060
-5.900E-06,0.060
-5.890E-06,0.060
-5.880E-06,0.020
-5.870E-06,0.040
-5.860E-06,0.060
-5.850E-06,0.040
-5.840E-06,0.040
-5.830E-06,0.060
-5.820E-06,0.040
-5.810E-06,0.060
-5.800E-06,0.080
-5.790E-06,0.060
-5.780E-06,0.020
-5.770E-06,0.040
-5.760E-06,0.020
-5.750E-06,0.040
-5.740E-06,0.060
-5.730E-06,0.020
-5.720E-06,0.060
-5.710E-06,0.040
-5.700E-06,0.040
-5.690E-06,0.060
-5.680E-06,0.080
-5.670E-06,0.080
-5.660E-06,0.040
-5.650E-06,0.020
-5.640E-06,0.040
-5.630E-06,0.040
-5.620E-06,0.080
-5.610E-06,0.020
-5.600E-06,0.020
-5.590E-06,0.060
-5.580E-06,0.060
-5.570E-06,0.040
-5.560E-06,0.080
-5.550E-06,0.060
-5.540E-06,0.080
-5.530E-06,0.040
-5.520E-06,0.000
-5.510E-06,0.040
-5.500E-06,0.020
-5.490E-06,0.040
-5.480E-06,0.000
-5.470E-06,0.020
-5.460E-06,0.060
-5.450E-06,0.020
-5.440E-06,0.020
-5.430E-06,0.040
-5.420E-06,0.040
-5.410E-06,0.080
-5.400E-06,0.040
-5.390E-06,0.020
-5.380E-06,0.040
-5.370E-06,0.080
-5.360E-06,0.020
-5.350E-06,0.040
-5.340E-06,0.040
-5.330E-06,0.040
-5.320E-06,0.080
-5.310E-06,0.060
-5.300E-06,0.040
-5.290E-06,0.040
-5.280E-06,0.020
-5.270E-06,0.040
-5.260E-06,0.040
-5.250E-06,0.060
-5.240E-06,0.040
-5.230E-06,0.060
-5.220E-06,0.060
-5.210E-06,0.040
-5.200E-06,0.060
-5.190E-06,0.020
-5.180E-06,0.060
-5.170E-06,0.040
-5.160E-06,0.040
-5.150E-06,0.060
-5.140E-06,0.020
-5.130E-06,0.040
-5.120E-06,0.060
-5.110E-06,0.040
-5.100E-06,0.040
-5.090E-06,0.040
-5.080E-06,0.060
-5.070E-06,0.040
-5.060E-06,0.060
-5.050E-06,0.080
-5.040E-06,0.020
-5.030E-06,0.000
-5.020E-06,0.040
-5.010E-06,0.020
-5.000E-06,0.060
-4.990E-06,0.060
-4.980E-06,0.060
-4.970E-06,0.060
-4.960E-06,0.060
-4.950E-06,0.040
-4.940E-06,0.020
-4.930E-06,0.020
-4.920E-06,0.060
-4.910E-06,0.060
-4.900E-06,0.040
-4.890E-06,0.020
-4.880E-06,0.040
-4.870E-06,0.060
-4.860E-06,0.060
-4.850E-06,0.080
-4.840E-06,0.060
-4.830E-06,0.040
-4.820E-06,0.040
-4.810E-06,0.020
-4.800E-06,0.040
-4.790E-06,0.040
-4.780E-06,0.060
-4.770E-06,0.060
-4.760E-06,0.040
-4.750E-06,0.040
-4.740E-06,0.020
-4.730E-06,0.020
-4.720E-06,0.020
-4.710E-06,0.040
-4.700E-06,0.020
-4.690E-06,0.020
-4.680E-06,0.040
-4.670E-06,0.000
-4.660E-06,0.040
-4.650E-06,0.060
-4.640E-06,0.040
-4.630E-06,0.040
-4.620E-06,0.020
-4.610E-06,0.040
-4.600E-06,0.020
-4.590E-06,0.040
-4.580E-06,0.060
-4.570E-06,0.040
-4.560E-06,0.020
-4.550E-06,0.020
-4.540E-06,0.060
-4.530E-06,0.040
-4.520E-06,0.060
-4.510E-06,0.060
-4.500E-06,0.040
-4.490E-06,0.080
-4.480E-06,0.080
-4.470E-06,0.020
-4.460E-06,0.020
-4.450E-06,0.040
-4.440E-06,0.060
-4.430E-06,0.060
-4.420E-06,0.040
-4.410E-06,0.040
-4.400E-06,0.020
-4.390E-06,0.000
-4.380E-06,0.040
-4.370E-06,0.060
-4.360E-06,0.000
-4.350E-06,0.040
-4.340E-06,0.040
-4.330E-06,0.040
-4.320E-06,0.060
-4.310E-06,0.040
-4.300E-06,0.040
-4.290E-06,0.040
-4.280E-06,0.020
-4.270E-06,0.020
-4.260E-06,0.020
-4.250E-06,0.040
-4.240E-06,0.040
-4.230E-06,0.020
-4.220E-06,0.080
-4.210E-06,0.040
-4.200E-06,0.040
-4.190E-06,0.040
-4.180E-06,0.060
-4.170E-06,0.060
-4.160E-06,0.040
-4.150E-06,0.040
-4.140E-06,0.040
-4.130E-06,0.040
-4.120E-06,0.040
-4.110E-06,0.060
-4.100E-06,0.020
-4.090E-06,0.040
-4.080E-06,0.060
-4.070E-06,0.060
-4.060E-06,0.060
-4.050E-06,0.060
-4.040E-06,0.040
-4.030E-06,0.060
-4.020E-06,0.080
-4.010E-06,0.020
-4.000E-06,0.060
-3.990E-06,0.040
-3.980E-06,0.080
-3.970E-06,0.040
-3.960E-06,0.040
-3.950E-06,0.060
-3.940E-06,0.040
-3.930E-06,0.060
-3.920E-06,0.040
-3.910E-06,0.040
-3.900E-06,0.020
-3.890E-06,0.000
-3.880E-06,0.060
-3.870E-06,0.060
-3.860E-06,0.060
-3.850E-06,0.020
-3.840E-06,0.040
-3.830E-06,0.040
-3.820E-06,0.060
-3.810E-06,0.040
-3.800E-06,0.080
-3.790E-06,0.040
-3.780E-06,0.020
-3.770E-06,0.040
-3.760E-06,0.060
-3.750E-06,0.040
-3.740E-06,0.040
-3.730E-06,0.040
-3.720E-06,0.040
-3.710E-06,0.020
-3.700E-06,0.060
-3.690E-06,0.000
-3.680E-06,0.020
-3.670E-06,0.040
-3.660E-06,0.040
-3.650E-06,0.040
-3.640E-06,0.080
-3.630E-06,0.060
-3.620E-06,0.040
-3.610E-06,0.000
-3.600E-06,0.020
-3.590E-06,0.040
-3.580E-06,0.020
-3.570E-06,0.060
-3.560E-06,0.040
-3.550E-06,0.020
-3.540E-06,0.040
-3.530E-06,0.060
-3.520E-06,0.040
-3.510E-06,0.020
-3.500E-06,0.040
-3.490E-06,0.020
-3.480E-06,0.020
-3.470E-06,0.040
-3.460E-06,0.040
-3.450E-06,0.060
-3.440E-06,0.060
-3.430E-06,0.080
-3.420E-06,0.080
-3.410E-06,0.040
-3.400E-06,0.020
-3.390E-06,0.040
-3.380E-06,0.020
-3.370E-06,0.040
-3.360E-06,0.060
-3.350E-06,0.060
-3.340E-06,0.020
-3.330E-06,0.020
-3.320E-06,0.060
-3.310E-06,0.040
-3.300E-06,0.040
-3.290E-06,0.060
-3.280E-06,0.080
-3.270E-06,0.040
-3.260E-06,0.060
-3.250E-06,0.040
-3.240E-06,0.080
-3.230E-06,0.060
-3.220E-06,0.040
-3.210E-06,0.020
-3.200E-06,0.020
-3.190E-06,0.040
-3.180E-06,0.040
-3.170E-06,0.040
-3.160E-06,0.020
-3.150E-06,0.040
-3.140E-06,0.060
-3.130E-06,0.040
-3.120E-06,0.020
-3.110E-06,0.060
-3.100E-06,0.020
-3.090E-06,0.080
-3.080E-06,0.060
-3.070E-06,0.020
-3.060E-06,0.040
-3.050E-06,0.060
-3.040E-06,0.060
-3.030E-06,0.020
-3.020E-06,0.060
-3.010E-06,0.040
-3.000E-06,0.060
-2.990E-06,0.060
-2.980E-06,0.040
-2.970E-06,0.040
-2.960E-06,0.020
-2.950E-06,0.040
-2.940E-06,0.060
-2.930E-06,0.020
-2.920E-06,0.060
-2.910E-06,0.060
-2.900E-06,0.060
-2.890E-06,0.020
-2.880E-06,0.060
-2.870E-06,0.060
-2.860E-06,0.060
-2.850E-06,0.060
-2.840E-06,0.020
-2.830E-06,0.020
-2.820E-06,0.040
-2.810E-06,0.060
-2.800E-06,0.060
-2.790E-06,0.020
-2.780E-06,0.060
-2.770E-06,0.080
-2.760E-06,0.060
-2.750E-06,0.000
-2.740E-06,0.040
-2.730E-06,0.040
-2.720E-06,0.020
-2.710E-06,0.020
-2.700E-06,0.040
-2.690E-06,0.040
-2.680E-06,0.060
-2.670E-06,0.020
-2.660E-06,0.040
-2.650E-06,0.040
-2.640E-06,0.040
-2.630E-06,0.060
-2.620E-06,0.040
-2.610E-06,0.080
-2.600E-06,0.020
-2.590E-06,0.020
-2.580E-06,0.060
-2.570E-06,0.060
-2.560E-06,0.080
-2.550E-06,0.040
-2.540E-06,0.040
-2.530E-06,0.060
-2.520E-06,0.080
-2.510E-06,0.060
-2.500E-06,0.040
-2.490E-06,0.060
-2.480E-06,0.000
-2.470E-06,-0.280
-2.460E-06,-0.940
-2.450E-06,-1.900
-2.440E-06,-2.800
-2.430E-06,-3.180
-2.420E-06,-2.260
-2.410E-06,-1.880
-2.400E-06,-0.180
-2.390E-06,0.380
-2.380E-06,1.820
-2.370E-06,2.080
-2.360E-06,2.100
-2.350E-06,2.100
-2.340E-06,2.080
-2.330E-06,2.080
-2.320E-06,2.080
-2.310E-06,1.600
-2.300E-06,1.260
-2.290E-06,0.140
-2.280E-06,-0.220
-2.270E-06,-0.580
-2.260E-06,-0.840
-2.250E-06,-0.580
-2.240E-06,-0.360
-2.230E-06,-0.200
-2.220E-06,-0.160
-2.210E-06,-0.320
-2.200E-06,-0.700
-2.190E-06,-1.020
-2.180E-06,-1.320
-2.170E-06,-1.640
-2.160E-06,-1.780
-2.150E-06,-1.700
-2.140E-06,-1.540
-2.130E-06,-1.220
-2.120E-06,-0.680
-2.110E-06,-0.080
-2.100E-06,0.460
-2.090E-06,0.980
-2.080E-06,1.400
-2.070E-06,1.560
-2.060E-06,1.600
-2.050E-06,1.380
-2.040E-06,1.080
-2.030E-06,0.660
-2.020E-06,0.260
-2.010E-06,-0.140
-2.000E-06,-0.480
-1.990E-06,-0.720
-1.980E-06,-0.840
-1.970E-06,-0.860
-1.960E-06,-0.840
-1.950E-06,-0.680
-1.940E-06,-0.560
-1.930E-06,-0.480
-1.920E-06,-0.280
-1.910E-06,-0.120
-1.900E-06,0.000
-1.890E-06,0.320
-1.880E-06,0.320
-1.870E-06,0.620
-1.860E-06,0.640
-1.850E-06,0.840
-1.840E-06,0.880
-1.830E-06,0.840
-1.820E-06,0.900
-1.810E-06,0.680
-1.800E-06,0.640
-1.790E-06,0.480
-1.780E-06,0.320
-1.770E-06,0.160
-1.760E-06,-0.080
-1.750E-06,-0.140
-1.740E-06,-0.260
-1.730E-06,-0.340
-1.720E-06,-0.460
-1.710E-06,-0.500
-1.700E-06,-0.500
-1.690E-06,-0.520
-1.680E-06,-0.640
-1.670E-06,-0.580
-1.660E-06,-0.560
-1.650E-06,-0.380
-1.640E-06,-0.180
-1.630E-06,0.020
-1.620E-06,0.220
-1.610E-06,0.360
-1.600E-06,0.480
-1.590E-06,0.560
-1.580E-06,0.600
-1.570E-06,0.540
-1.560E-06,0.460
-1.550E-06,0.360
-1.540E-06,0.180
-1.530E-06,0.000
-1.520E-06,-0.180
-1.510E-06,-0.340
-1.500E-06,-0.420
-1.490E-06,-0.500
-1.480E-06,-0.560
-1.470E-06,-0.500
-1.460E-06,-0.500
-1.450E-06,-0.400
-1.440E-06,-0.360
-1.430E-06,-0.200
-1.420E-06,-0.180
-1.410E-06,-0.100
-1.400E-06,-0.180
-1.390E-06,-0.040
-1.380E-06,-0.100
-1.370E-06,-0.060
-1.360E-06,-0.040
-1.350E-06,0.000
-1.340E-06,0.000
-1.330E-06,0.060
-1.320E-06,0.100
-1.310E-06,0.100
-1.300E-06,0.080
-1.290E-06,0.040
-1.280E-06,-0.080
-1.270E-06,0.300
-1.260E-06,-0.020
-1.250E-06,0.380
-1.240E-06,-0.100
-1.230E-06,0.060
-1.220E-06,-0.080
-1.210E-06,-0.180
-1.200E-06,-0.140
-1.190E-06,-0.160
-1.180E-06,-0.140
-1.170E-06,-0.080
-1.160E-06,-0.060
-1.150E-06,0.020
-1.140E-06,0.000
-1.130E-06,0.000
-1.120E-06,-0.040
-1.110E-06,-0.120
-1.100E-06,-0.100
-1.090E-06,-0.060
-1.080E-06,-0.080
-1.070E-06,0.020
-1.060E-06,0.000
-1.050E-06,0.000
-1.040E-06,0.060
-1.030E-06,0.040
-1.020E-06,0.020
-1.010E-06,0.100
-1.000E-06,0.060
-9.900E-07,0.100
-9.800E-07,0.040
-9.700E-07,-0.040
-9.600E-07,-0.060
-9.500E-07,-0.120
-9.400E-07,-0.220
-9.300E-07,-0.220
-9.200E-07,-0.280
-9.100E-07,-0.260
-9.000E-07,-0.180
-8.900E-07,-0.220
-8.800E-07,-0.200
-8.700E-07,-0.120
-8.600E-07,-0.060
-8.500E-07,-0.180
-8.400E-07,-0.100
-8.300E-07,-0.100
-8.200E-07,-0.340
-8.100E-07,-0.360
-8.000E-07,-0.600
-7.900E-07,-0.600
-7.800E-07,-0.920
-7.700E-07,-0.780
-7.600E-07,-0.920
-7.500E-07,-0.840
-7.400E-07,-0.980
-7.300E-07,-0.840
-7.200E-07,-1.080
-7.100E-07,-0.860
-7.000E-07,-1.020
-6.900E-07,-0.860
-6.800E-07,-1.280
-6.700E-07,-1.280
-6.600E-07,-1.080
-6.500E-07,-1.280
-6.400E-07,-1.020
-6.300E-07,-1.120
-6.200E-07,-1.260
-6.100E-07,-1.340
-6.000E-07,-1.260
-5.900E-07,-1.420
-5.800E-07,-1.280
-5.700E-07,-1.480
-5.600E-07,-1.480
-5.500E-07,-1.580
-5.400E-07,-1.220
-5.300E-07,-1.360
-5.200E-07,-1.220
-5.100E-07,-1.480
-5.000E-07,-1.280
-4.900E-07,-1.280
-4.800E-07,-1.200
-4.700E-07,-1.020
-4.600E-07,-0.880
-4.500E-07,-0.740
-4.400E-07,-0.600
-4.300E-07,-0.760
-4.200E-07,-0.540
-4.100E-07,-0.700
-4.000E-07,-0.540
-3.900E-07,-0.660
-3.800E-07,-0.420
-3.700E-07,-0.620
-3.600E-07,-0.600
-3.500E-07,-0.660
-3.400E-07,-0.680
-3.300E-07,-0.660
-3.200E-07,-0.720
-3.100E-07,-0.680
-3.000E-07,-0.700
-2.900E-07,-0.680
-2.800E-07,-0.640
-2.700E-07,-0.660
-2.600E-07,-0.680
-2.500E-07,-0.640
-2.400E-07,-0.680
-2.300E-07,-0.640
-2.200E-07,-0.680
-2.100E-07,-0.660
-2.000E-07,-0.720
-1.900E-07,-0.700
-1.800E-07,-0.700
-1.700E-07,-0.880
-1.600E-07,-0.880
-1.500E-07,-0.980
-1.400E-07,-0.920
-1.300E-07,-0.840
-1.200E-07,-0.900
-1.100E-07,-0.860
-1.000E-07,-0.700
-9.000E-08,-0.640
-8.000E-08,-0.400
-7.000E-08,-0.260
-6.000E-08,-0.240
-5.000E-08,-0.540
-4.000E-08,-0.940
-3.000E-08,-1.500
-2.000E-08,-2.440
-1.000E-08,-2.780
0.000E+00,-3.360
1.000E-08,-3.340
2.000E-08,-3.340
3.000E-08,-3.340
4.000E-08,-3.320
5.000E-08,-3.060
6.000E-08,-2.640
7.000E-08,-2.220
8.000E-08,-1.940
9.000E-08,-1.620
1.000E-07,-1.360
1.100E-07,-1.100
1.200E-07,-0.880
1.300E-07,-0.800
1.400E-07,-0.600
1.500E-07,-0.480
1.600E-07,-0.320
1.700E-07,-0.140
1.800E-07,0.000
1.900E-07,0.040
2.000E-07,0.080
2.100E-07,0.000
2.200E-07,-0.120
2.300E-07,-0.280
2.400E-07,-0.460
2.500E-07,-0.680
2.600E-07,-0.940
2.700E-07,-1.120
2.800E-07,-1.340
2.900E-07,-1.500
3.000E-07,-1.580
3.100E-07,-1.560
3.200E-07,-1.460
3.300E-07,-1.240
3.400E-07,-0.980
3.500E-07,-0.680
3.600E-07,-0.420
3.700E-07,-0.160
3.800E-07,-0.020
3.900E-07,0.080
4.000E-07,0.100
4.100E-07,0.080
4.200E-07,0.020
4.300E-07,-0.100
4.400E-07,-0.260
4.500E-07,-0.480
4.600E-07,-0.720
4.700E-07,-0.900
4.800E-07,-1.040
4.900E-07,-1.200
5.000E-07,-1.260
5.100E-07,-1.300
5.200E-07,-1.360
5.300E-07,-1.340
5.400E-07,-1.300
5.500E-07,-1.280
5.600E-07,-1.280
5.700E-07,-1.280
5.800E-07,-1.280
5.900E-07,-1.300
6.000E-07,-1.280
6.100E-07,-1.260
6.200E-07,-1.180
6.300E-07,-1.080
6.400E-07,-0.940
6.500E-07,-0.840
6.600E-07,-0.740
6.700E-07,-0.700
6.800E-07,-0.640
6.900E-07,-0.680
7.000E-07,-0.820
7.100E-07,-1.020
7.200E-07,-1.280
7.300E-07,-1.480
7.400E-07,-1.700
7.500E-07,-1.860
7.600E-07,-2.080
7.700E-07,-2.260
7.800E-07,-2.460
7.900E-07,-2.520
8.000E-07,-2.720
8.100E-07,-2.920
8.200E-07,-2.900
8.300E-07,-2.980
8.400E-07,-2.960
8.500E-07,-2.900
8.600E-07,-2.900
8.700E-07,-2.880
8.800E-07,-2.920
8.900E-07,-2.880
9.000E-07,-2.960
9.100E-07,-3.080
9.200E-07,-3.120
9.300E-07,-3.220
9.400E-07,-3.120
9.500E-07,-3.180
9.600E-07,-3.180
9.700E-07,-3.320
9.800E-07,-3.340
9.900E-07,-3.340
1.000E-06,-3.340
1.010E-06,-3.320
1.020E-06,-3.320
1.030E-06,-3.200
1.040E-06,-3.180
1.050E-06,-2.900
1.060E-06,-2.780
1.070E-06,-2.480
1.080E-06,-2.320
1.090E-06,-2.240
1.100E-06,-2.060
1.110E-06,-1.960
1.120E-06,-1.900
1.130E-06,-1.540
1.140E-06,-1.460
1.150E-06,-1.180
1.160E-06,-0.920
1.170E-06,-0.700
1.180E-06,-0.540
1.190E-06,-0.380
1.200E-06,-0.180
1.210E-06,0.000
1.220E-06,0.320
1.230E-06,0.420
1.240E-06,0.560
1.250E-06,0.660
1.260E-06,0.680
1.270E-06,0.620
1.280E-06,0.780
1.290E-06,0.740
1.300E-06,0.800
1.310E-06,0.760
1.320E-06,0.720
1.330E-06,0.700
1.340E-06,0.620
1.350E-06,0.660
1.360E-06,0.580
1.370E-06,0.620
1.380E-06,0.540
1.390E-06,0.500
1.400E-06,0.440
1.410E-06,0.360
1.420E-06,0.340
1.430E-06,0.300
1.440E-06,0.260
1.450E-06,0.180
1.460E-06,0.180
1.470E-06,0.140
1.480E-06,0.080
1.490E-06,-0.040
1.500E-06,-0.060
1.510E-06,-0.020
1.520E-06,-0.180
1.530E-06,-0.200
1.540E-06,-0.120
1.550E-06,-0.260
1.560E-06,-0.160
1.570E-06,-0.180
1.580E-06,-0.060
1.590E-06,0.020
1.600E-06,0.000
1.610E-06,0.100
1.620E-06,0.140
1.630E-06,0.180
1.640E-06,0.220
1.650E-06,0.240
1.660E-06,0.260
1.670E-06,0.300
1.680E-06,0.300
1.690E-06,0.320
1.700E-06,0.400
1.710E-06,0.340
1.720E-06,0.340
1.730E-06,0.300
1.740E-06,0.440
1.750E-06,0.360
1.760E-06,0.460
1.770E-06,0.320
1.780E-06,0.420
1.790E-06,0.420
1.800E-06,0.380
1.810E-06,0.500
1.820E-06,0.440
1.830E-06,0.500
1.840E-06,0.460
1.850E-06,0.480
1.860E-06,0.400
1.870E-06,0.400
1.880E-06,0.380
1.890E-06,0.400
1.900E-06,0.360
1.910E-06,0.360
1.920E-06,0.340
1.930E-06,0.340
1.940E-06,0.300
1.950E-06,0.320
1.960E-06,0.320
1.970E-06,0.380
1.980E-06,0.380
1.990E-06,0.380
2.000E-06,0.420
2.010E-06,0.440
2.020E-06,0.440
2.030E-06,0.420
2.040E-06,0.420
2.050E-06,0.380
2.060E-06,0.380
2.070E-06,0.360
2.080E-06,0.360
2.090E-06,0.340
2.100E-06,0.340
2.110E-06,0.340
2.120E-06,0.340
2.130E-06,0.340
2.140E-06,0.320
2.150E-06,0.300
2.160E-06,0.320
2.170E-06,0.300
2.180E-06,0.300
2.190E-06,0.300
2.200E-06,0.260
2.210E-06,0.260
2.220E-06,0.220
2.230E-06,0.180
2.240E-06,0.080
2.250E-06,-0.120
2.260E-06,-0.060
2.270E-06,-0.200
2.280E-06,-0.240
2.290E-06,-0.260
2.300E-06,-0.280
2.310E-06,-0.260
2.320E-06,-0.360
2.330E-06,-0.300
2.340E-06,-0.360
2.350E-06,-0.340
2.360E-06,-0.400
2.370E-06,-0.420
2.380E-06,-0.400
2.390E-06,-0.400
2.400E-06,-0.420
2.410E-06,-0.360
2.420E-06,-0.360
2.430E-06,-0.300
2.440E-06,-0.260
2.450E-06,-0.160
2.460E-06,-0.020
2.470E-06,0.100
2.480E-06,0.200
2.490E-06,0.300
2.500E-06,0.440
2.510E-06,0.440
2.520E-06,0.480
2.530E-06,0.480
2.540E-06,0.480
2.550E-06,0.460
2.560E-06,0.480
2.570E-06,0.540
2.580E-06,0.580
2.590E-06,0.680
2.600E-06,0.800
2.610E-06,0.920
2.620E-06,0.980
2.630E-06,1.020
2.640E-06,1.100
2.650E-06,0.940
2.660E-06,0.780
2.670E-06,0.680
2.680E-06,0.720
2.690E-06,0.480
2.700E-06,0.360
2.710E-06,0.400
2.720E-06,0.220
2.730E-06,0.320
2.740E-06,0.280
2.750E-06,0.460
2.760E-06,0.560
2.770E-06,0.700
2.780E-06,0.800
2.790E-06,0.940
2.800E-06,1.000
2.810E-06,0.980
2.820E-06,0.960
2.830E-06,0.880
2.840E-06,0.760
2.850E-06,0.600
2.860E-06,0.460
2.870E-06,0.360
2.880E-06,0.180
2.890E-06,0.020
2.900E-06,-0.100
2.910E-06,-0.220
2.920E-06,-0.260
2.930E-06,-0.340
2.940E-06,-0.380
2.950E-06,-0.360
2.960E-06,-0.300
2.970E-06,-0.280
2.980E-06,-0.340
2.990E-06,-0.380
3.000E-06,-0.360
3.010E-06,-0.260
3.020E-06,-0.300
3.030E-06,-0.260
3.040E-06,-0.240
3.050E-06,-0.280
3.060E-06,-0.300
3.070E-06,-0.360
3.080E-06,-0.400
3.090E-06,-0.500
3.100E-06,-0.480
3.110E-06,-0.600
3.120E-06,-0.560
3.130E-06,-0.560
3.140E-06,-0.560
3.150E-06,-0.520
3.160E-06,-0.480
3.170E-06,-0.380
3.180E-06,-0.280
3.190E-06,-0.140
3.200E-06,0.000
3.210E-06,0.080
3.220E-06,0.100
3.230E-06,0.240
3.240E-06,0.360
3.250E-06,0.600
3.260E-06,0.660
3.270E-06,0.780
3.280E-06,0.880
3.290E-06,0.960
3.300E-06,0.980
3.310E-06,1.020
3.320E-06,1.000
3.330E-06,0.960
3.340E-06,0.880
3.350E-06,0.740
