mediciones/8-28/-57/WaveData651008.csv

#timebase=2000000(ps)
,#voltbase=200000(mv/100)
#size=4000
-8.350E-06,0.024
-8.340E-06,0.056
-8.330E-06,0.064
-8.320E-06,0.040
-8.310E-06,-0.032
-8.300E-06,-0.080
-8.290E-06,-0.072
-8.280E-06,-0.032
-8.270E-06,0.024
-8.260E-06,0.080
-8.250E-06,0.080
-8.240E-06,0.072
-8.230E-06,0.016
-8.220E-06,-0.016
-8.210E-06,-0.072
-8.200E-06,-0.048
-8.190E-06,-0.008
-8.180E-06,0.032
-8.170E-06,0.064
-8.160E-06,0.032
-8.150E-06,-0.008
-8.140E-06,-0.040
-8.130E-06,-0.048
-8.120E-06,-0.032
-8.110E-06,-0.016
-8.100E-06,0.024
-8.090E-06,0.056
-8.080E-06,0.048
-8.070E-06,0.048
-8.060E-06,0.008
-8.050E-06,-0.016
-8.040E-06,-0.048
-8.030E-06,-0.008
-8.020E-06,0.008
-8.010E-06,0.024
-8.000E-06,0.024
-7.990E-06,0.024
-7.980E-06,0.000
-7.970E-06,-0.008
-7.960E-06,-0.008
-7.950E-06,-0.016
-7.940E-06,0.000
-7.930E-06,0.016
-7.920E-06,0.024
-7.910E-06,0.032
-7.900E-06,0.032
-7.890E-06,-0.008
-7.880E-06,-0.008
-7.870E-06,-0.008
-7.860E-06,0.008
-7.850E-06,0.008
-7.840E-06,-0.008
-7.830E-06,-0.008
-7.820E-06,-0.008
-7.810E-06,0.000
-7.800E-06,-0.016
-7.790E-06,0.008
-7.780E-06,-0.016
-7.770E-06,0.016
-7.760E-06,0.024
-7.750E-06,0.032
-7.740E-06,0.008
-7.730E-06,0.000
-7.720E-06,0.000
-7.710E-06,0.000
-7.700E-06,0.000
-7.690E-06,-0.008
-7.680E-06,0.000
-7.670E-06,0.008
-7.660E-06,0.000
-7.650E-06,0.000
-7.640E-06,0.000
-7.630E-06,0.000
-7.620E-06,0.008
-7.610E-06,0.008
-7.600E-06,0.024
-7.590E-06,0.000
-7.580E-06,0.008
-7.570E-06,-0.008
-7.560E-06,0.008
-7.550E-06,0.000
-7.540E-06,0.008
-7.530E-06,-0.008
-7.520E-06,-0.008
-7.510E-06,0.000
-7.500E-06,-0.008
-7.490E-06,0.000
-7.480E-06,0.008
-7.470E-06,0.024
-7.460E-06,0.008
-7.450E-06,0.000
-7.440E-06,0.000
-7.430E-06,0.000
-7.420E-06,0.000
-7.410E-06,-0.008
-7.400E-06,0.016
-7.390E-06,0.024
-7.380E-06,0.024
-7.370E-06,0.000
-7.360E-06,-0.008
-7.350E-06,-0.008
-7.340E-06,0.000
-7.330E-06,0.000
-7.320E-06,0.008
-7.310E-06,0.008
-7.300E-06,0.008
-7.290E-06,-0.008
-7.280E-06,0.016
-7.270E-06,-0.008
-7.260E-06,0.000
-7.250E-06,0.000
-7.240E-06,0.008
-7.230E-06,0.016
-7.220E-06,0.000
-7.210E-06,0.008
-7.200E-06,0.008
-7.190E-06,0.008
-7.180E-06,0.000
-7.170E-06,-0.008
-7.160E-06,0.016
-7.150E-06,-0.008
-7.140E-06,0.008
-7.130E-06,0.000
-7.120E-06,0.016
-7.110E-06,0.000
-7.100E-06,0.000
-7.090E-06,0.000
-7.080E-06,0.000
-7.070E-06,0.008
-7.060E-06,0.000
-7.050E-06,0.008
-7.040E-06,0.016
-7.030E-06,0.016
-7.020E-06,-0.008
-7.010E-06,-0.008
-7.000E-06,0.008
-6.990E-06,0.032
-6.980E-06,0.024
-6.970E-06,0.024
-6.960E-06,-0.016
-6.950E-06,-0.016
-6.940E-06,-0.024
-6.930E-06,0.000
-6.920E-06,0.000
-6.910E-06,0.032
-6.900E-06,0.024
-6.890E-06,0.040
-6.880E-06,0.024
-6.870E-06,0.008
-6.860E-06,0.008
-6.850E-06,0.000
-6.840E-06,0.008
-6.830E-06,0.008
-6.820E-06,-0.016
-6.810E-06,-0.008
-6.800E-06,0.000
-6.790E-06,0.016
-6.780E-06,0.016
-6.770E-06,0.024
-6.760E-06,0.016
-6.750E-06,0.032
-6.740E-06,0.008
-6.730E-06,0.016
-6.720E-06,-0.016
-6.710E-06,-0.008
-6.700E-06,-0.008
-6.690E-06,0.008
-6.680E-06,0.016
-6.670E-06,0.024
-6.660E-06,0.016
-6.650E-06,0.000
-6.640E-06,-0.008
-6.630E-06,-0.024
-6.620E-06,-0.008
-6.610E-06,0.016
-6.600E-06,0.024
-6.590E-06,0.040
-6.580E-06,0.024
-6.570E-06,0.008
-6.560E-06,-0.016
-6.550E-06,-0.024
-6.540E-06,-0.024
-6.530E-06,0.008
-6.520E-06,0.032
-6.510E-06,0.040
-6.500E-06,0.032
-6.490E-06,0.008
-6.480E-06,-0.008
-6.470E-06,-0.024
-6.460E-06,-0.016
-6.450E-06,-0.008
-6.440E-06,0.016
-6.430E-06,0.032
-6.420E-06,0.024
-6.410E-06,0.016
-6.400E-06,0.000
-6.390E-06,-0.008
-6.380E-06,-0.016
-6.370E-06,-0.008
-6.360E-06,0.032
-6.350E-06,0.032
-6.340E-06,0.008
-6.330E-06,-0.008
-6.320E-06,-0.024
-6.310E-06,-0.016
-6.300E-06,-0.016
-6.290E-06,0.008
-6.280E-06,0.032
-6.270E-06,0.032
-6.260E-06,0.024
-6.250E-06,-0.008
-6.240E-06,-0.008
-6.230E-06,-0.008
-6.220E-06,0.000
-6.210E-06,0.008
-6.200E-06,0.008
-6.190E-06,0.024
-6.180E-06,0.000
-6.170E-06,-0.008
-6.160E-06,-0.008
-6.150E-06,-0.008
-6.140E-06,0.016
-6.130E-06,0.016
-6.120E-06,0.024
-6.110E-06,0.024
-6.100E-06,0.008
-6.090E-06,0.000
-6.080E-06,0.000
-6.070E-06,0.000
-6.060E-06,0.000
-6.050E-06,0.016
-6.040E-06,0.016
-6.030E-06,0.008
-6.020E-06,0.008
-6.010E-06,-0.008
-6.000E-06,-0.008
-5.990E-06,-0.008
-5.980E-06,0.016
-5.970E-06,0.024
-5.960E-06,0.048
-5.950E-06,0.040
-5.940E-06,-0.008
-5.930E-06,-0.032
-5.920E-06,-0.056
-5.910E-06,-0.040
-5.900E-06,-0.016
-5.890E-06,0.032
-5.880E-06,0.056
-5.870E-06,0.056
-5.860E-06,0.024
-5.850E-06,-0.008
-5.840E-06,-0.048
-5.830E-06,-0.024
-5.820E-06,-0.016
-5.810E-06,0.008
-5.800E-06,0.048
-5.790E-06,0.040
-5.780E-06,0.024
-5.770E-06,0.000
-5.760E-06,-0.016
-5.750E-06,-0.016
-5.740E-06,-0.032
-5.730E-06,0.024
-5.720E-06,0.016
-5.710E-06,0.048
-5.700E-06,0.008
-5.690E-06,0.008
-5.680E-06,-0.008
-5.670E-06,-0.016
-5.660E-06,-0.008
-5.650E-06,-0.008
-5.640E-06,0.016
-5.630E-06,0.032
-5.620E-06,0.024
-5.610E-06,0.024
-5.600E-06,0.008
-5.590E-06,0.008
-5.580E-06,-0.008
-5.570E-06,-0.008
-5.560E-06,0.000
-5.550E-06,0.008
-5.540E-06,0.016
-5.530E-06,0.016
-5.520E-06,0.024
-5.510E-06,0.016
-5.500E-06,0.024
-5.490E-06,0.016
-5.480E-06,0.000
-5.470E-06,0.008
-5.460E-06,0.000
-5.450E-06,0.000
-5.440E-06,0.008
-5.430E-06,0.032
-5.420E-06,0.032
-5.410E-06,0.000
-5.400E-06,-0.032
-5.390E-06,-0.048
-5.380E-06,-0.048
-5.370E-06,-0.040
-5.360E-06,-0.008
-5.350E-06,0.024
-5.340E-06,0.040
-5.330E-06,0.032
-5.320E-06,0.000
-5.310E-06,-0.008
-5.300E-06,-0.024
-5.290E-06,-0.008
-5.280E-06,0.000
-5.270E-06,0.032
-5.260E-06,0.032
-5.250E-06,0.008
-5.240E-06,0.016
-5.230E-06,-0.016
-5.220E-06,-0.008
-5.210E-06,-0.008
-5.200E-06,0.032
-5.190E-06,0.032
-5.180E-06,0.040
-5.170E-06,0.000
-5.160E-06,-0.016
-5.150E-06,-0.032
-5.140E-06,-0.016
-5.130E-06,0.008
-5.120E-06,0.008
-5.110E-06,0.016
-5.100E-06,0.008
-5.090E-06,0.000
-5.080E-06,-0.008
-5.070E-06,-0.008
-5.060E-06,0.000
-5.050E-06,0.008
-5.040E-06,0.016
-5.030E-06,0.008
-5.020E-06,0.000
-5.010E-06,0.000
-5.000E-06,0.000
-4.990E-06,-0.008
-4.980E-06,0.000
-4.970E-06,0.016
-4.960E-06,0.000
-4.950E-06,0.024
-4.940E-06,0.000
-4.930E-06,-0.008
-4.920E-06,0.000
-4.910E-06,0.000
-4.900E-06,0.000
-4.890E-06,0.000
-4.880E-06,0.000
-4.870E-06,0.008
-4.860E-06,0.000
-4.850E-06,0.000
-4.840E-06,0.000
-4.830E-06,0.008
-4.820E-06,0.008
-4.810E-06,0.016
-4.800E-06,0.008
-4.790E-06,0.008
-4.780E-06,0.016
-4.770E-06,0.016
-4.760E-06,0.008
-4.750E-06,0.008
-4.740E-06,0.016
-4.730E-06,0.000
-4.720E-06,-0.024
-4.710E-06,-0.040
-4.700E-06,-0.016
-4.690E-06,0.000
-4.680E-06,0.032
-4.670E-06,0.056
-4.660E-06,0.048
-4.650E-06,0.032
-4.640E-06,-0.016
-4.630E-06,-0.040
-4.620E-06,-0.040
-4.610E-06,-0.024
-4.600E-06,0.016
-4.590E-06,0.040
-4.580E-06,0.048
-4.570E-06,0.024
-4.560E-06,0.016
-4.550E-06,-0.016
-4.540E-06,-0.024
-4.530E-06,-0.016
-4.520E-06,0.000
-4.510E-06,0.024
-4.500E-06,0.032
-4.490E-06,0.024
-4.480E-06,0.000
-4.470E-06,-0.008
-4.460E-06,-0.008
-4.450E-06,-0.008
-4.440E-06,0.000
-4.430E-06,0.016
-4.420E-06,0.024
-4.410E-06,0.016
-4.400E-06,0.008
-4.390E-06,0.000
-4.380E-06,-0.008
-4.370E-06,0.000
-4.360E-06,0.008
-4.350E-06,0.016
-4.340E-06,0.024
-4.330E-06,0.016
-4.320E-06,0.000
-4.310E-06,0.008
-4.300E-06,-0.008
-4.290E-06,0.000
-4.280E-06,0.008
-4.270E-06,0.000
-4.260E-06,0.008
-4.250E-06,0.008
-4.240E-06,0.000
-4.230E-06,0.008
-4.220E-06,0.008
-4.210E-06,0.008
-4.200E-06,0.016
-4.190E-06,0.000
-4.180E-06,-0.008
-4.170E-06,-0.008
-4.160E-06,-0.008
-4.150E-06,0.000
-4.140E-06,0.008
-4.130E-06,0.008
-4.120E-06,0.008
-4.110E-06,0.016
-4.100E-06,0.008
-4.090E-06,-0.008
-4.080E-06,-0.008
-4.070E-06,-0.008
-4.060E-06,0.008
-4.050E-06,0.000
-4.040E-06,0.008
-4.030E-06,0.008
-4.020E-06,0.000
-4.010E-06,0.000
-4.000E-06,0.000
-3.990E-06,0.000
-3.980E-06,0.000
-3.970E-06,0.008
-3.960E-06,0.008
-3.950E-06,0.000
-3.940E-06,0.016
-3.930E-06,0.016
-3.920E-06,0.008
-3.910E-06,0.000
-3.900E-06,0.000
-3.890E-06,0.008
-3.880E-06,0.000
-3.870E-06,0.008
-3.860E-06,0.008
-3.850E-06,0.008
-3.840E-06,0.016
-3.830E-06,0.016
-3.820E-06,0.024
-3.810E-06,0.000
-3.800E-06,0.000
-3.790E-06,-0.008
-3.780E-06,-0.008
-3.770E-06,-0.008
-3.760E-06,0.016
-3.750E-06,0.032
-3.740E-06,0.024
-3.730E-06,0.024
-3.720E-06,-0.008
-3.710E-06,-0.016
-3.700E-06,-0.016
-3.690E-06,-0.008
-3.680E-06,0.024
-3.670E-06,0.024
-3.660E-06,0.032
-3.650E-06,0.008
-3.640E-06,-0.008
-3.630E-06,-0.008
-3.620E-06,-0.008
-3.610E-06,0.016
-3.600E-06,0.032
-3.590E-06,0.024
-3.580E-06,0.008
-3.570E-06,0.000
-3.560E-06,-0.016
-3.550E-06,-0.008
-3.540E-06,0.000
-3.530E-06,0.008
-3.520E-06,0.016
-3.510E-06,0.016
-3.500E-06,0.008
-3.490E-06,0.000
-3.480E-06,-0.016
-3.470E-06,-0.016
-3.460E-06,-0.008
-3.450E-06,0.000
-3.440E-06,0.024
-3.430E-06,0.024
-3.420E-06,0.024
-3.410E-06,0.000
-3.400E-06,-0.008
-3.390E-06,-0.008
-3.380E-06,-0.016
-3.370E-06,0.008
-3.360E-06,0.016
-3.350E-06,0.024
-3.340E-06,0.032
-3.330E-06,0.000
-3.320E-06,0.008
-3.310E-06,-0.008
-3.300E-06,0.000
-3.290E-06,0.000
-3.280E-06,0.008
-3.270E-06,0.016
-3.260E-06,0.016
-3.250E-06,0.008
-3.240E-06,0.008
-3.230E-06,0.000
-3.220E-06,0.008
-3.210E-06,0.008
-3.200E-06,0.024
-3.190E-06,0.024
-3.180E-06,0.016
-3.170E-06,0.016
-3.160E-06,0.024
-3.150E-06,0.008
-3.140E-06,0.016
-3.130E-06,0.008
-3.120E-06,-0.008
-3.110E-06,0.000
-3.100E-06,0.000
-3.090E-06,0.016
-3.080E-06,0.024
-3.070E-06,0.024
-3.060E-06,0.016
-3.050E-06,0.008
-3.040E-06,-0.008
-3.030E-06,-0.024
-3.020E-06,-0.008
-3.010E-06,0.016
-3.000E-06,0.024
-2.990E-06,0.040
-2.980E-06,0.024
-2.970E-06,0.016
-2.960E-06,0.008
-2.950E-06,-0.008
-2.940E-06,-0.008
-2.930E-06,0.008
-2.920E-06,0.008
-2.910E-06,0.040
-2.900E-06,0.024
-2.890E-06,0.032
-2.880E-06,0.008
-2.870E-06,0.000
-2.860E-06,-0.008
-2.850E-06,-0.008
-2.840E-06,0.000
-2.830E-06,0.024
-2.820E-06,0.032
-2.810E-06,0.024
-2.800E-06,0.016
-2.790E-06,0.008
-2.780E-06,0.008
-2.770E-06,0.024
-2.760E-06,0.024
-2.750E-06,0.024
-2.740E-06,0.032
-2.730E-06,0.032
-2.720E-06,0.016
-2.710E-06,0.048
-2.700E-06,0.040
-2.690E-06,0.032
-2.680E-06,0.032
-2.670E-06,0.016
-2.660E-06,0.032
-2.650E-06,-0.008
-2.640E-06,0.000
-2.630E-06,-0.016
-2.620E-06,-0.064
-2.610E-06,-0.080
-2.600E-06,-0.088
-2.590E-06,-0.032
-2.580E-06,-0.008
-2.570E-06,0.048
-2.560E-06,0.040
-2.550E-06,0.032
-2.540E-06,-0.016
-2.530E-06,-0.064
-2.520E-06,-0.056
-2.510E-06,-0.032
-2.500E-06,0.024
-2.490E-06,0.048
-2.480E-06,0.056
-2.470E-06,0.032
-2.460E-06,-0.008
-2.450E-06,-0.024
-2.440E-06,-0.024
-2.430E-06,-0.016
-2.420E-06,0.016
-2.410E-06,0.040
-2.400E-06,0.056
-2.390E-06,0.056
-2.380E-06,0.024
-2.370E-06,0.000
-2.360E-06,-0.008
-2.350E-06,-0.024
-2.340E-06,0.008
-2.330E-06,0.032
-2.320E-06,0.072
-2.310E-06,0.080
-2.300E-06,-0.016
-2.290E-06,-0.072
-2.280E-06,-0.144
-2.270E-06,-0.096
-2.260E-06,-0.048
-2.250E-06,0.056
-2.240E-06,0.120
-2.230E-06,0.096
-2.220E-06,0.032
-2.210E-06,-0.040
-2.200E-06,-0.064
-2.190E-06,0.024
-2.180E-06,0.040
-2.170E-06,0.056
-2.160E-06,0.024
-2.150E-06,0.008
-2.140E-06,-0.064
-2.130E-06,-0.032
-2.120E-06,0.008
-2.110E-06,0.040
-2.100E-06,0.056
-2.090E-06,0.056
-2.080E-06,0.032
-2.070E-06,-0.040
-2.060E-06,-0.064
-2.050E-06,-0.112
-2.040E-06,-0.064
-2.030E-06,0.016
-2.020E-06,0.064
-2.010E-06,0.120
-2.000E-06,0.120
-1.990E-06,0.080
-1.980E-06,0.016
-1.970E-06,-0.080
-1.960E-06,-0.128
-1.950E-06,-0.144
-1.940E-06,-0.064
-1.930E-06,0.048
-1.920E-06,0.152
-1.910E-06,0.160
-1.900E-06,0.088
-1.890E-06,-0.040
-1.880E-06,-0.112
-1.870E-06,-0.152
-1.860E-06,-0.080
-1.850E-06,0.032
-1.840E-06,0.128
-1.830E-06,0.176
-1.820E-06,0.120
-1.810E-06,0.024
-1.800E-06,-0.072
-1.790E-06,-0.104
-1.780E-06,-0.088
-1.770E-06,-0.008
-1.760E-06,0.064
-1.750E-06,0.120
-1.740E-06,0.112
-1.730E-06,0.072
-1.720E-06,-0.016
-1.710E-06,-0.080
-1.700E-06,-0.072
-1.690E-06,-0.032
-1.680E-06,0.048
-1.670E-06,0.088
-1.660E-06,0.096
-1.650E-06,0.064
-1.640E-06,0.008
-1.630E-06,-0.032
-1.620E-06,-0.032
-1.610E-06,0.024
-1.600E-06,0.096
-1.590E-06,0.136
-1.580E-06,0.136
-1.570E-06,0.072
-1.560E-06,0.032
-1.550E-06,-0.056
-1.540E-06,-0.072
-1.530E-06,-0.072
-1.520E-06,-0.032
-1.510E-06,0.024
-1.500E-06,0.048
-1.490E-06,0.064
-1.480E-06,0.000
-1.470E-06,-0.016
-1.460E-06,-0.064
-1.450E-06,-0.088
-1.440E-06,-0.088
-1.430E-06,-0.080
-1.420E-06,-0.032
-1.410E-06,0.000
-1.400E-06,0.056
-1.390E-06,0.064
-1.380E-06,0.040
-1.370E-06,0.008
-1.360E-06,-0.008
-1.350E-06,-0.016
-1.340E-06,-0.024
-1.330E-06,0.024
-1.320E-06,0.048
-1.310E-06,0.104
-1.300E-06,0.112
-1.290E-06,0.104
-1.280E-06,0.080
-1.270E-06,0.056
-1.260E-06,0.048
-1.250E-06,-0.016
-1.240E-06,-0.008
-1.230E-06,-0.064
-1.220E-06,-0.088
-1.210E-06,-0.160
-1.200E-06,-0.168
-1.190E-06,-0.096
-1.180E-06,-0.008
-1.170E-06,0.088
-1.160E-06,0.088
-1.150E-06,0.088
-1.140E-06,0.024
-1.130E-06,-0.048
-1.120E-06,-0.096
-1.110E-06,-0.080
-1.100E-06,-0.048
-1.090E-06,0.000
-1.080E-06,0.080
-1.070E-06,0.088
-1.060E-06,0.032
-1.050E-06,-0.056
-1.040E-06,-0.088
-1.030E-06,-0.064
-1.020E-06,-0.008
-1.010E-06,0.072
-1.000E-06,0.096
-9.900E-07,0.120
-9.800E-07,0.096
-9.700E-07,0.080
-9.600E-07,0.056
-9.500E-07,0.080
-9.400E-07,0.088
-9.300E-07,0.096
-9.200E-07,0.072
-9.100E-07,0.000
-9.000E-07,-0.112
-8.900E-07,-0.152
-8.800E-07,-0.160
-8.700E-07,-0.080
-8.600E-07,-0.008
-8.500E-07,0.064
-8.400E-07,0.112
-8.300E-07,0.096
-8.200E-07,0.048
-8.100E-07,-0.032
-8.000E-07,-0.048
-7.900E-07,-0.056
-7.800E-07,-0.056
-7.700E-07,-0.056
-7.600E-07,0.016
-7.500E-07,0.064
-7.400E-07,0.176
-7.300E-07,0.184
-7.200E-07,0.056
-7.100E-07,0.032
-7.000E-07,-0.168
-6.900E-07,-0.120
-6.800E-07,-0.160
-6.700E-07,-0.032
-6.600E-07,0.112
-6.500E-07,0.208
-6.400E-07,0.208
-6.300E-07,0.096
-6.200E-07,-0.024
-6.100E-07,-0.080
-6.000E-07,-0.064
-5.900E-07,0.032
-5.800E-07,0.160
-5.700E-07,0.232
-5.600E-07,0.224
-5.500E-07,0.088
-5.400E-07,-0.048
-5.300E-07,-0.144
-5.200E-07,-0.168
-5.100E-07,-0.104
-5.000E-07,0.016
-4.900E-07,0.112
-4.800E-07,0.096
-4.700E-07,0.056
-4.600E-07,-0.040
-4.500E-07,-0.072
-4.400E-07,-0.080
-4.300E-07,-0.032
-4.200E-07,0.048
-4.100E-07,0.104
-4.000E-07,0.120
-3.900E-07,0.120
-3.800E-07,0.064
-3.700E-07,0.048
-3.600E-07,-0.016
-3.500E-07,-0.032
-3.400E-07,-0.072
-3.300E-07,-0.072
-3.200E-07,-0.040
-3.100E-07,0.008
-3.000E-07,0.096
-2.900E-07,0.128
-2.800E-07,0.120
-2.700E-07,0.112
-2.600E-07,0.088
-2.500E-07,0.040
-2.400E-07,0.016
-2.300E-07,0.040
-2.200E-07,0.056
-2.100E-07,-0.072
-2.000E-07,-0.152
-1.900E-07,-0.224
-1.800E-07,-0.336
-1.700E-07,-0.128
-1.600E-07,-0.088
-1.500E-07,0.248
-1.400E-07,0.256
-1.300E-07,0.272
-1.200E-07,0.152
-1.100E-07,-0.096
-1.000E-07,-0.136
-9.000E-08,-0.232
-8.000E-08,-0.208
-7.000E-08,-0.192
-6.000E-08,-0.136
-5.000E-08,-0.096
-4.000E-08,-0.008
-3.000E-08,0.112
-2.000E-08,0.248
-1.000E-08,0.256
0.000E+00,0.056
1.000E-08,-0.208
2.000E-08,-0.416
3.000E-08,-0.400
4.000E-08,-0.128
5.000E-08,0.120
6.000E-08,0.144
7.000E-08,0.248
8.000E-08,-0.024
9.000E-08,0.032
1.000E-07,-0.432
1.100E-07,-0.272
1.200E-07,-0.120
1.300E-07,0.152
1.400E-07,0.320
1.500E-07,0.216
1.600E-07,0.096
1.700E-07,-0.088
1.800E-07,-0.152
1.900E-07,-0.216
2.000E-07,-0.136
2.100E-07,0.040
2.200E-07,0.200
2.300E-07,0.256
2.400E-07,0.176
2.500E-07,0.008
2.600E-07,-0.136
2.700E-07,-0.168
2.800E-07,-0.096
2.900E-07,0.000
3.000E-07,0.120
3.100E-07,0.192
3.200E-07,0.168
3.300E-07,0.072
3.400E-07,-0.040
3.500E-07,-0.104
3.600E-07,-0.088
3.700E-07,-0.024
3.800E-07,0.064
3.900E-07,0.144
4.000E-07,0.152
4.100E-07,0.088
4.200E-07,0.040
4.300E-07,-0.024
4.400E-07,-0.024
4.500E-07,0.016
4.600E-07,0.080
4.700E-07,0.136
4.800E-07,0.176
4.900E-07,0.160
5.000E-07,0.128
5.100E-07,0.088
5.200E-07,0.064
5.300E-07,0.064
5.400E-07,0.096
5.500E-07,0.128
5.600E-07,0.184
5.700E-07,0.200
5.800E-07,0.200
5.900E-07,0.192
6.000E-07,0.136
6.100E-07,0.112
6.200E-07,0.088
6.300E-07,0.096
6.400E-07,0.136
6.500E-07,0.144
6.600E-07,0.152
6.700E-07,0.152
6.800E-07,0.064
6.900E-07,0.024
7.000E-07,-0.016
7.100E-07,-0.040
7.200E-07,-0.112
7.300E-07,-0.392
7.400E-07,-0.504
7.500E-07,-0.824
7.600E-07,-0.656
7.700E-07,-0.600
7.800E-07,0.280
7.900E-07,0.352
8.000E-07,0.608
8.100E-07,0.368
8.200E-07,0.056
8.300E-07,-0.296
8.400E-07,-0.568
8.500E-07,-0.608
8.600E-07,-0.352
8.700E-07,0.144
8.800E-07,0.448
8.900E-07,0.536
9.000E-07,0.240
9.100E-07,-0.128
9.200E-07,-0.392
9.300E-07,-0.464
9.400E-07,-0.248
9.500E-07,-0.008
9.600E-07,0.360
9.700E-07,0.480
9.800E-07,0.424
9.900E-07,0.136
1.000E-06,-0.192
1.010E-06,-0.336
1.020E-06,-0.264
1.030E-06,-0.064
1.040E-06,0.192
1.050E-06,0.376
1.060E-06,0.376
1.070E-06,0.256
1.080E-06,0.024
1.090E-06,-0.136
1.100E-06,-0.208
1.110E-06,-0.136
1.120E-06,0.056
1.130E-06,0.216
1.140E-06,0.280
1.150E-06,0.224
1.160E-06,0.080
1.170E-06,-0.040
1.180E-06,-0.096
1.190E-06,-0.072
1.200E-06,0.048
1.210E-06,0.176
1.220E-06,0.288
1.230E-06,0.312
1.240E-06,0.256
1.250E-06,0.144
1.260E-06,0.064
1.270E-06,0.056
1.280E-06,0.096
1.290E-06,0.184
1.300E-06,0.240
1.310E-06,0.256
1.320E-06,0.256
1.330E-06,0.192
1.340E-06,0.144
1.350E-06,0.088
1.360E-06,0.088
1.370E-06,0.128
1.380E-06,0.200
1.390E-06,0.240
1.400E-06,0.256
1.410E-06,0.216
1.420E-06,0.152
1.430E-06,0.128
1.440E-06,0.112
1.450E-06,0.096
1.460E-06,0.112
1.470E-06,0.144
1.480E-06,0.184
1.490E-06,0.184
1.500E-06,0.200
1.510E-06,0.176
1.520E-06,0.144
1.530E-06,0.112
1.540E-06,0.112
1.550E-06,0.096
1.560E-06,0.136
1.570E-06,0.160
1.580E-06,0.176
1.590E-06,0.184
1.600E-06,0.192
1.610E-06,0.168
1.620E-06,0.152
1.630E-06,0.128
1.640E-06,0.136
1.650E-06,0.136
1.660E-06,0.160
1.670E-06,0.176
1.680E-06,0.184
1.690E-06,0.136
1.700E-06,0.128
1.710E-06,0.088
1.720E-06,0.048
1.730E-06,0.000
1.740E-06,-0.056
1.750E-06,-0.056
1.760E-06,-0.160
1.770E-06,-0.136
1.780E-06,-0.232
1.790E-06,-0.256
1.800E-06,-0.456
1.810E-06,-0.312
1.820E-06,-0.120
1.830E-06,0.392
1.840E-06,0.048
1.850E-06,0.224
1.860E-06,-0.232
1.870E-06,-0.072
1.880E-06,-0.240
1.890E-06,-0.056
1.900E-06,0.104
1.910E-06,0.280
1.920E-06,0.344
1.930E-06,0.240
1.940E-06,0.136
1.950E-06,0.048
1.960E-06,-0.008
1.970E-06,0.040
1.980E-06,0.192
1.990E-06,0.312
2.000E-06,0.312
2.010E-06,0.296
2.020E-06,0.192
2.030E-06,0.112
2.040E-06,0.072
2.050E-06,0.104
2.060E-06,0.160
2.070E-06,0.224
2.080E-06,0.280
2.090E-06,0.264
2.100E-06,0.224
2.110E-06,0.160
2.120E-06,0.120
2.130E-06,0.120
2.140E-06,0.152
2.150E-06,0.200
2.160E-06,0.248
2.170E-06,0.248
2.180E-06,0.224
2.190E-06,0.184
2.200E-06,0.144
2.210E-06,0.128
2.220E-06,0.160
2.230E-06,0.192
2.240E-06,0.200
2.250E-06,0.224
2.260E-06,0.216
2.270E-06,0.192
2.280E-06,0.160
2.290E-06,0.144
2.300E-06,0.160
2.310E-06,0.176
2.320E-06,0.176
2.330E-06,0.200
2.340E-06,0.176
2.350E-06,0.152
2.360E-06,0.152
2.370E-06,0.152
2.380E-06,0.152
2.390E-06,0.160
2.400E-06,0.184
2.410E-06,0.184
2.420E-06,0.184
2.430E-06,0.184
2.440E-06,0.168
2.450E-06,0.160
2.460E-06,0.184
2.470E-06,0.192
2.480E-06,0.184
2.490E-06,0.176
2.500E-06,0.168
2.510E-06,0.176
2.520E-06,0.184
2.530E-06,0.168
2.540E-06,0.176
2.550E-06,0.152
2.560E-06,0.168
2.570E-06,0.160
2.580E-06,0.192
2.590E-06,0.192
2.600E-06,0.176
2.610E-06,0.168
2.620E-06,0.160
2.630E-06,0.176
2.640E-06,0.176
2.650E-06,0.192
2.660E-06,0.184
2.670E-06,0.176
2.680E-06,0.176
2.690E-06,0.176
2.700E-06,0.152
2.710E-06,0.144
2.720E-06,0.152
2.730E-06,0.176
2.740E-06,0.184
2.750E-06,0.152
2.760E-06,0.152
2.770E-06,0.152
2.780E-06,0.168
2.790E-06,0.160
2.800E-06,0.144
2.810E-06,0.152
2.820E-06,0.152
2.830E-06,0.168
2.840E-06,0.168
2.850E-06,0.160
2.860E-06,0.160
2.870E-06,0.144
2.880E-06,0.152
2.890E-06,0.152
2.900E-06,0.144
2.910E-06,0.168
2.920E-06,0.160
2.930E-06,0.168
2.940E-06,0.160
2.950E-06,0.160
2.960E-06,0.144
2.970E-06,0.152
2.980E-06,0.136
2.990E-06,0.144
3.000E-06,0.160
3.010E-06,0.160
3.020E-06,0.192
3.030E-06,0.176
3.040E-06,0.152
3.050E-06,0.120
3.060E-06,0.152
3.070E-06,0.144
3.080E-06,0.144
3.090E-06,0.152
3.100E-06,0.168
3.110E-06,0.168
3.120E-06,0.152
3.130E-06,0.144
3.140E-06,0.136
3.150E-06,0.128
3.160E-06,0.136
3.170E-06,0.144
3.180E-06,0.160
3.190E-06,0.152
3.200E-06,0.160
3.210E-06,0.120
3.220E-06,0.120
3.230E-06,0.128
3.240E-06,0.144
3.250E-06,0.144
3.260E-06,0.144
3.270E-06,0.160
3.280E-06,0.160
3.290E-06,0.160
3.300E-06,0.136
3.310E-06,0.112
3.320E-06,0.128
3.330E-06,0.136
3.340E-06,0.128
3.350E-06,0.128
3.360E-06,0.120
