mediciones/8-28/-57/WaveData651017.csv

#timebase=2000000(ps)
,#voltbase=500000(mv/100)
#size=4000
-8.350E-06,0.020
-8.340E-06,0.000
-8.330E-06,0.000
-8.320E-06,0.000
-8.310E-06,0.020
-8.300E-06,0.040
-8.290E-06,0.020
-8.280E-06,0.020
-8.270E-06,0.060
-8.260E-06,0.040
-8.250E-06,0.000
-8.240E-06,0.040
-8.230E-06,0.040
-8.220E-06,0.040
-8.210E-06,0.040
-8.200E-06,0.020
-8.190E-06,0.020
-8.180E-06,0.020
-8.170E-06,0.020
-8.160E-06,0.020
-8.150E-06,0.040
-8.140E-06,0.080
-8.130E-06,0.000
-8.120E-06,0.040
-8.110E-06,0.020
-8.100E-06,0.020
-8.090E-06,0.040
-8.080E-06,0.060
-8.070E-06,0.040
-8.060E-06,0.020
-8.050E-06,0.020
-8.040E-06,0.080
-8.030E-06,0.040
-8.020E-06,0.060
-8.010E-06,0.060
-8.000E-06,0.040
-7.990E-06,0.040
-7.980E-06,0.040
-7.970E-06,0.040
-7.960E-06,0.040
-7.950E-06,0.040
-7.940E-06,0.060
-7.930E-06,0.060
-7.920E-06,0.080
-7.910E-06,0.040
-7.900E-06,0.040
-7.890E-06,0.040
-7.880E-06,0.060
-7.870E-06,0.040
-7.860E-06,0.040
-7.850E-06,0.040
-7.840E-06,0.040
-7.830E-06,0.020
-7.820E-06,0.060
-7.810E-06,0.040
-7.800E-06,0.020
-7.790E-06,0.040
-7.780E-06,0.040
-7.770E-06,0.020
-7.760E-06,0.060
-7.750E-06,0.060
-7.740E-06,0.040
-7.730E-06,0.040
-7.720E-06,0.040
-7.710E-06,0.060
-7.700E-06,0.060
-7.690E-06,0.040
-7.680E-06,0.040
-7.670E-06,0.040
-7.660E-06,0.040
-7.650E-06,0.040
-7.640E-06,0.020
-7.630E-06,0.020
-7.620E-06,0.060
-7.610E-06,0.040
-7.600E-06,0.080
-7.590E-06,0.060
-7.580E-06,0.080
-7.570E-06,0.040
-7.560E-06,0.040
-7.550E-06,0.060
-7.540E-06,0.060
-7.530E-06,0.060
-7.520E-06,0.040
-7.510E-06,0.020
-7.500E-06,0.040
-7.490E-06,0.020
-7.480E-06,0.060
-7.470E-06,0.060
-7.460E-06,0.000
-7.450E-06,0.000
-7.440E-06,0.060
-7.430E-06,0.040
-7.420E-06,0.040
-7.410E-06,0.040
-7.400E-06,0.040
-7.390E-06,0.040
-7.380E-06,0.040
-7.370E-06,0.040
-7.360E-06,0.040
-7.350E-06,0.060
-7.340E-06,0.040
-7.330E-06,0.040
-7.320E-06,0.040
-7.310E-06,0.040
-7.300E-06,0.040
-7.290E-06,0.040
-7.280E-06,0.060
-7.270E-06,0.040
-7.260E-06,0.060
-7.250E-06,0.060
-7.240E-06,0.060
-7.230E-06,0.040
-7.220E-06,0.040
-7.210E-06,0.020
-7.200E-06,0.020
-7.190E-06,0.020
-7.180E-06,0.020
-7.170E-06,0.020
-7.160E-06,0.020
-7.150E-06,0.020
-7.140E-06,0.060
-7.130E-06,0.040
-7.120E-06,0.040
-7.110E-06,0.020
-7.100E-06,0.000
-7.090E-06,0.020
-7.080E-06,0.020
-7.070E-06,0.040
-7.060E-06,0.040
-7.050E-06,0.060
-7.040E-06,0.040
-7.030E-06,0.040
-7.020E-06,0.080
-7.010E-06,0.040
-7.000E-06,0.060
-6.990E-06,0.060
-6.980E-06,0.060
-6.970E-06,0.040
-6.960E-06,0.040
-6.950E-06,0.060
-6.940E-06,0.060
-6.930E-06,0.020
-6.920E-06,0.060
-6.910E-06,0.040
-6.900E-06,0.040
-6.890E-06,0.040
-6.880E-06,0.040
-6.870E-06,0.060
-6.860E-06,0.080
-6.850E-06,0.060
-6.840E-06,0.040
-6.830E-06,0.040
-6.820E-06,0.040
-6.810E-06,0.040
-6.800E-06,0.060
-6.790E-06,0.040
-6.780E-06,0.060
-6.770E-06,0.060
-6.760E-06,0.040
-6.750E-06,0.040
-6.740E-06,0.040
-6.730E-06,0.040
-6.720E-06,0.040
-6.710E-06,0.060
-6.700E-06,0.020
-6.690E-06,0.040
-6.680E-06,0.040
-6.670E-06,0.040
-6.660E-06,0.040
-6.650E-06,0.020
-6.640E-06,0.020
-6.630E-06,0.040
-6.620E-06,0.000
-6.610E-06,0.020
-6.600E-06,0.060
-6.590E-06,0.000
-6.580E-06,0.040
-6.570E-06,0.060
-6.560E-06,0.040
-6.550E-06,0.040
-6.540E-06,0.040
-6.530E-06,0.040
-6.520E-06,0.020
-6.510E-06,0.040
-6.500E-06,0.040
-6.490E-06,0.040
-6.480E-06,0.020
-6.470E-06,0.040
-6.460E-06,0.040
-6.450E-06,0.040
-6.440E-06,0.060
-6.430E-06,0.060
-6.420E-06,0.060
-6.410E-06,0.060
-6.400E-06,0.060
-6.390E-06,0.060
-6.380E-06,0.060
-6.370E-06,0.040
-6.360E-06,0.060
-6.350E-06,0.040
-6.340E-06,0.020
-6.330E-06,0.040
-6.320E-06,0.060
-6.310E-06,0.040
-6.300E-06,0.040
-6.290E-06,0.040
-6.280E-06,0.040
-6.270E-06,0.020
-6.260E-06,0.040
-6.250E-06,0.040
-6.240E-06,0.020
-6.230E-06,0.020
-6.220E-06,0.000
-6.210E-06,0.020
-6.200E-06,0.020
-6.190E-06,0.020
-6.180E-06,0.040
-6.170E-06,0.040
-6.160E-06,0.060
-6.150E-06,0.040
-6.140E-06,0.040
-6.130E-06,0.040
-6.120E-06,0.060
-6.110E-06,0.040
-6.100E-06,0.040
-6.090E-06,0.040
-6.080E-06,0.040
-6.070E-06,0.040
-6.060E-06,0.040
-6.050E-06,0.040
-6.040E-06,0.060
-6.030E-06,0.020
-6.020E-06,0.020
-6.010E-06,0.040
-6.000E-06,0.060
-5.990E-06,0.080
-5.980E-06,0.000
-5.970E-06,0.040
-5.960E-06,0.040
-5.950E-06,0.040
-5.940E-06,0.020
-5.930E-06,0.020
-5.920E-06,0.040
-5.910E-06,0.040
-5.900E-06,0.040
-5.890E-06,0.020
-5.880E-06,0.040
-5.870E-06,0.040
-5.860E-06,0.060
-5.850E-06,0.040
-5.840E-06,0.060
-5.830E-06,0.040
-5.820E-06,0.060
-5.810E-06,0.040
-5.800E-06,0.040
-5.790E-06,0.060
-5.780E-06,0.060
-5.770E-06,0.040
-5.760E-06,0.040
-5.750E-06,0.060
-5.740E-06,0.020
-5.730E-06,0.020
-5.720E-06,0.060
-5.710E-06,0.060
-5.700E-06,0.060
-5.690E-06,0.020
-5.680E-06,0.060
-5.670E-06,0.000
-5.660E-06,0.040
-5.650E-06,0.040
-5.640E-06,0.040
-5.630E-06,0.000
-5.620E-06,0.020
-5.610E-06,0.020
-5.600E-06,0.040
-5.590E-06,0.040
-5.580E-06,0.060
-5.570E-06,0.040
-5.560E-06,0.040
-5.550E-06,0.040
-5.540E-06,0.060
-5.530E-06,0.060
-5.520E-06,0.000
-5.510E-06,0.040
-5.500E-06,0.060
-5.490E-06,0.040
-5.480E-06,0.020
-5.470E-06,0.020
-5.460E-06,0.020
-5.450E-06,0.060
-5.440E-06,0.020
-5.430E-06,0.060
-5.420E-06,0.060
-5.410E-06,0.060
-5.400E-06,0.020
-5.390E-06,0.060
-5.380E-06,0.060
-5.370E-06,0.060
-5.360E-06,0.040
-5.350E-06,0.000
-5.340E-06,0.040
-5.330E-06,0.040
-5.320E-06,0.040
-5.310E-06,0.020
-5.300E-06,0.020
-5.290E-06,0.020
-5.280E-06,0.020
-5.270E-06,0.020
-5.260E-06,0.060
-5.250E-06,0.040
-5.240E-06,0.020
-5.230E-06,0.060
-5.220E-06,0.040
-5.210E-06,0.060
-5.200E-06,0.040
-5.190E-06,0.020
-5.180E-06,0.020
-5.170E-06,0.060
-5.160E-06,0.040
-5.150E-06,0.040
-5.140E-06,0.040
-5.130E-06,0.040
-5.120E-06,0.080
-5.110E-06,0.040
-5.100E-06,0.020
-5.090E-06,0.060
-5.080E-06,0.020
-5.070E-06,-0.200
-5.060E-06,-0.860
-5.050E-06,-1.820
-5.040E-06,-2.920
-5.030E-06,-3.620
-5.020E-06,-3.600
-5.010E-06,-3.420
-5.000E-06,-0.980
-4.990E-06,-0.400
-4.980E-06,0.120
-4.970E-06,1.820
-4.960E-06,1.820
-4.950E-06,1.820
-4.940E-06,1.800
-4.930E-06,1.820
-4.920E-06,1.840
-4.910E-06,1.820
-4.900E-06,1.820
-4.890E-06,1.180
-4.880E-06,-0.020
-4.870E-06,-0.180
-4.860E-06,-0.980
-4.850E-06,-1.020
-4.840E-06,-0.820
-4.830E-06,-0.340
-4.820E-06,-0.280
-4.810E-06,-0.480
-4.800E-06,-0.560
-4.790E-06,-0.940
-4.780E-06,-1.460
-4.770E-06,-1.840
-4.760E-06,-2.140
-4.750E-06,-2.300
-4.740E-06,-2.200
-4.730E-06,-1.800
-4.720E-06,-1.400
-4.710E-06,-0.740
-4.700E-06,0.080
-4.690E-06,0.760
-4.680E-06,1.340
-4.670E-06,1.820
-4.660E-06,1.800
-4.650E-06,1.820
-4.640E-06,1.700
-4.630E-06,1.360
-4.620E-06,0.760
-4.610E-06,0.260
-4.600E-06,-0.200
-4.590E-06,-0.680
-4.580E-06,-0.940
-4.570E-06,-1.120
-4.560E-06,-1.100
-4.550E-06,-1.080
-4.540E-06,-0.940
-4.530E-06,-0.720
-4.520E-06,-0.580
-4.510E-06,-0.420
-4.500E-06,-0.160
-4.490E-06,0.100
-4.480E-06,0.320
-4.470E-06,0.580
-4.460E-06,0.860
-4.450E-06,1.040
-4.440E-06,1.180
-4.430E-06,1.180
-4.420E-06,1.160
-4.410E-06,1.060
-4.400E-06,0.920
-4.390E-06,0.740
-4.380E-06,0.540
-4.370E-06,0.320
-4.360E-06,0.100
-4.350E-06,-0.120
-4.340E-06,-0.340
-4.330E-06,-0.460
-4.320E-06,-0.580
-4.310E-06,-0.620
-4.300E-06,-0.700
-4.290E-06,-0.740
-4.280E-06,-0.780
-4.270E-06,-0.760
-4.260E-06,-0.700
-4.250E-06,-0.520
-4.240E-06,-0.380
-4.230E-06,-0.060
-4.220E-06,0.240
-4.210E-06,0.520
-4.200E-06,0.780
-4.190E-06,0.920
-4.180E-06,1.020
-4.170E-06,1.020
-4.160E-06,0.960
-4.150E-06,0.860
-4.140E-06,0.620
-4.130E-06,0.380
-4.120E-06,0.040
-4.110E-06,-0.180
-4.100E-06,-0.440
-4.090E-06,-0.620
-4.080E-06,-0.680
-4.070E-06,-0.700
-4.060E-06,-0.660
-4.050E-06,-0.560
-4.040E-06,-0.460
-4.030E-06,-0.340
-4.020E-06,-0.240
-4.010E-06,-0.080
-4.000E-06,-0.020
-3.990E-06,0.060
-3.980E-06,0.100
-3.970E-06,0.120
-3.960E-06,0.140
-3.950E-06,0.180
-3.940E-06,0.180
-3.930E-06,0.160
-3.920E-06,0.220
-3.910E-06,0.240
-3.900E-06,0.280
-3.890E-06,0.260
-3.880E-06,0.240
-3.870E-06,0.240
-3.860E-06,0.180
-3.850E-06,0.140
-3.840E-06,0.080
-3.830E-06,0.060
-3.820E-06,-0.060
-3.810E-06,-0.080
-3.800E-06,-0.060
-3.790E-06,-0.040
-3.780E-06,0.000
-3.770E-06,0.040
-3.760E-06,0.080
-3.750E-06,0.100
-3.740E-06,0.140
-3.730E-06,0.140
-3.720E-06,0.120
-3.710E-06,0.140
-3.700E-06,0.080
-3.690E-06,0.080
-3.680E-06,0.060
-3.670E-06,0.040
-3.660E-06,0.000
-3.650E-06,0.020
-3.640E-06,0.000
-3.630E-06,0.000
-3.620E-06,0.000
-3.610E-06,-0.040
-3.600E-06,-0.040
-3.590E-06,-0.060
-3.580E-06,-0.060
-3.570E-06,-0.100
-3.560E-06,-0.080
-3.550E-06,-0.100
-3.540E-06,-0.120
-3.530E-06,-0.080
-3.520E-06,-0.080
-3.510E-06,-0.060
-3.500E-06,-0.040
-3.490E-06,-0.020
-3.480E-06,-0.020
-3.470E-06,0.020
-3.460E-06,0.020
-3.450E-06,0.000
-3.440E-06,-0.020
-3.430E-06,-0.040
-3.420E-06,-0.040
-3.410E-06,-0.080
-3.400E-06,-0.020
-3.390E-06,-0.020
-3.380E-06,0.020
-3.370E-06,0.040
-3.360E-06,0.100
-3.350E-06,0.120
-3.340E-06,0.160
-3.330E-06,0.180
-3.320E-06,0.220
-3.310E-06,0.240
-3.300E-06,0.180
-3.290E-06,0.180
-3.280E-06,0.140
-3.270E-06,0.100
-3.260E-06,0.060
-3.250E-06,0.000
-3.240E-06,-0.060
-3.230E-06,-0.060
-3.220E-06,-0.100
-3.210E-06,0.000
-3.200E-06,0.220
-3.190E-06,0.680
-3.180E-06,1.240
-3.170E-06,1.680
-3.160E-06,1.820
-3.150E-06,1.720
-3.140E-06,1.300
-3.130E-06,0.760
-3.120E-06,0.100
-3.110E-06,-0.540
-3.100E-06,-1.100
-3.090E-06,-1.520
-3.080E-06,-1.780
-3.070E-06,-1.880
-3.060E-06,-1.760
-3.050E-06,-1.500
-3.040E-06,-1.100
-3.030E-06,-0.760
-3.020E-06,-0.540
-3.010E-06,-0.440
-3.000E-06,-0.280
-2.990E-06,-0.240
-2.980E-06,-0.160
-2.970E-06,-0.100
-2.960E-06,0.000
-2.950E-06,0.020
-2.940E-06,0.140
-2.930E-06,0.240
-2.920E-06,0.420
-2.910E-06,0.680
-2.900E-06,0.900
-2.890E-06,1.040
-2.880E-06,1.080
-2.870E-06,1.020
-2.860E-06,0.840
-2.850E-06,0.620
-2.840E-06,0.360
-2.830E-06,0.100
-2.820E-06,-0.220
-2.810E-06,-0.440
-2.800E-06,-0.620
-2.790E-06,-0.780
-2.780E-06,-0.800
-2.770E-06,-0.720
-2.760E-06,-0.520
-2.750E-06,-0.260
-2.740E-06,0.040
-2.730E-06,0.320
-2.720E-06,0.580
-2.710E-06,0.720
-2.700E-06,0.760
-2.690E-06,0.800
-2.680E-06,0.720
-2.670E-06,0.620
-2.660E-06,0.400
-2.650E-06,0.260
-2.640E-06,0.040
-2.630E-06,-0.120
-2.620E-06,-0.300
-2.610E-06,-0.440
-2.600E-06,-0.480
-2.590E-06,-0.520
-2.580E-06,-0.540
-2.570E-06,-0.460
-2.560E-06,-0.420
-2.550E-06,-0.380
-2.540E-06,-0.360
-2.530E-06,-0.320
-2.520E-06,-0.300
-2.510E-06,-0.260
-2.500E-06,-0.260
-2.490E-06,-0.280
-2.480E-06,-0.220
-2.470E-06,-0.120
-2.460E-06,0.000
-2.450E-06,0.120
-2.440E-06,0.240
-2.430E-06,0.340
-2.420E-06,0.400
-2.410E-06,0.440
-2.400E-06,0.420
-2.390E-06,0.340
-2.380E-06,0.220
-2.370E-06,0.060
-2.360E-06,-0.100
-2.350E-06,-0.320
-2.340E-06,-0.420
-2.330E-06,-0.580
-2.320E-06,-0.600
-2.310E-06,-0.680
-2.300E-06,-0.680
-2.290E-06,-0.580
-2.280E-06,-0.440
-2.270E-06,-0.280
-2.260E-06,-0.100
-2.250E-06,0.020
-2.240E-06,0.120
-2.230E-06,0.180
-2.220E-06,0.220
-2.210E-06,0.240
-2.200E-06,0.220
-2.190E-06,0.200
-2.180E-06,0.140
-2.170E-06,0.080
-2.160E-06,0.040
-2.150E-06,0.020
-2.140E-06,-0.020
-2.130E-06,0.020
-2.120E-06,0.040
-2.110E-06,0.060
-2.100E-06,0.100
-2.090E-06,0.140
-2.080E-06,0.160
-2.070E-06,0.180
-2.060E-06,0.180
-2.050E-06,0.140
-2.040E-06,0.140
-2.030E-06,0.100
-2.020E-06,0.060
-2.010E-06,0.060
-2.000E-06,0.020
-1.990E-06,0.020
-1.980E-06,0.040
-1.970E-06,0.080
-1.960E-06,0.080
-1.950E-06,0.100
-1.940E-06,0.140
-1.930E-06,0.100
-1.920E-06,0.080
-1.910E-06,0.080
-1.900E-06,0.020
-1.890E-06,0.000
-1.880E-06,-0.060
-1.870E-06,-0.120
-1.860E-06,-0.160
-1.850E-06,-0.200
-1.840E-06,-0.200
-1.830E-06,-0.200
-1.820E-06,-0.160
-1.810E-06,-0.160
-1.800E-06,-0.140
-1.790E-06,-0.160
-1.780E-06,-0.080
-1.770E-06,-0.080
-1.760E-06,-0.080
-1.750E-06,-0.040
-1.740E-06,-0.020
-1.730E-06,0.000
-1.720E-06,-0.020
-1.710E-06,-0.020
-1.700E-06,-0.020
-1.690E-06,-0.040
-1.680E-06,-0.040
-1.670E-06,-0.020
-1.660E-06,-0.020
-1.650E-06,-0.020
-1.640E-06,0.020
-1.630E-06,0.040
-1.620E-06,0.080
-1.610E-06,0.080
-1.600E-06,0.120
-1.590E-06,0.140
-1.580E-06,0.080
-1.570E-06,0.100
-1.560E-06,0.120
-1.550E-06,0.060
-1.540E-06,0.060
-1.530E-06,0.040
-1.520E-06,-0.020
-1.510E-06,-0.020
-1.500E-06,-0.020
-1.490E-06,-0.020
-1.480E-06,-0.020
-1.470E-06,0.000
-1.460E-06,-0.020
-1.450E-06,-0.020
-1.440E-06,-0.040
-1.430E-06,-0.020
-1.420E-06,-0.020
-1.410E-06,-0.040
-1.400E-06,0.000
-1.390E-06,0.000
-1.380E-06,0.020
-1.370E-06,-0.020
-1.360E-06,0.020
-1.350E-06,0.000
-1.340E-06,0.020
-1.330E-06,0.000
-1.320E-06,0.020
-1.310E-06,0.020
-1.300E-06,0.020
-1.290E-06,0.040
-1.280E-06,0.060
-1.270E-06,0.020
-1.260E-06,0.020
-1.250E-06,0.000
-1.240E-06,-0.040
-1.230E-06,-0.040
-1.220E-06,-0.080
-1.210E-06,-0.100
-1.200E-06,-0.080
-1.190E-06,-0.100
-1.180E-06,-0.100
-1.170E-06,-0.120
-1.160E-06,-0.100
-1.150E-06,-0.040
-1.140E-06,-0.040
-1.130E-06,0.000
-1.120E-06,0.000
-1.110E-06,0.000
-1.100E-06,0.020
-1.090E-06,0.040
-1.080E-06,0.060
-1.070E-06,0.060
-1.060E-06,0.080
-1.050E-06,0.080
-1.040E-06,0.020
-1.030E-06,0.000
-1.020E-06,0.000
-1.010E-06,-0.040
-1.000E-06,-0.040
-9.900E-07,-0.060
-9.800E-07,-0.080
-9.700E-07,-0.060
-9.600E-07,-0.080
-9.500E-07,-0.160
-9.400E-07,-0.120
-9.300E-07,-0.180
-9.200E-07,-0.200
-9.100E-07,-0.220
-9.000E-07,-0.220
-8.900E-07,-0.240
-8.800E-07,-0.340
-8.700E-07,-0.340
-8.600E-07,-0.340
-8.500E-07,-0.460
-8.400E-07,-0.440
-8.300E-07,-0.480
-8.200E-07,-0.300
-8.100E-07,-0.420
-8.000E-07,-0.420
-7.900E-07,-0.480
-7.800E-07,-0.420
-7.700E-07,-0.460
-7.600E-07,-0.440
-7.500E-07,-0.460
-7.400E-07,-0.460
-7.300E-07,-0.540
-7.200E-07,-0.620
-7.100E-07,-0.580
-7.000E-07,-0.580
-6.900E-07,-0.580
-6.800E-07,-0.700
-6.700E-07,-0.680
-6.600E-07,-0.720
-6.500E-07,-0.760
-6.400E-07,-0.760
-6.300E-07,-0.800
-6.200E-07,-0.720
-6.100E-07,-0.720
-6.000E-07,-0.660
-5.900E-07,-0.680
-5.800E-07,-0.780
-5.700E-07,-0.640
-5.600E-07,-0.620
-5.500E-07,-0.540
-5.400E-07,-0.440
-5.300E-07,-0.560
-5.200E-07,-0.600
-5.100E-07,-0.840
-5.000E-07,-1.020
-4.900E-07,-1.020
-4.800E-07,-1.000
-4.700E-07,-0.920
-4.600E-07,-0.820
-4.500E-07,-0.780
-4.400E-07,-0.720
-4.300E-07,-0.640
-4.200E-07,-0.700
-4.100E-07,-0.700
-4.000E-07,-0.760
-3.900E-07,-0.720
-3.800E-07,-0.640
-3.700E-07,-0.500
-3.600E-07,-0.480
-3.500E-07,-0.500
-3.400E-07,-0.720
-3.300E-07,-0.760
-3.200E-07,-0.940
-3.100E-07,-1.060
-3.000E-07,-1.160
-2.900E-07,-1.260
-2.800E-07,-1.260
-2.700E-07,-1.500
-2.600E-07,-1.160
-2.500E-07,-0.840
-2.400E-07,-1.800
-2.300E-07,0.040
-2.200E-07,0.920
-2.100E-07,1.020
-2.000E-07,1.840
-1.900E-07,-0.540
-1.800E-07,-0.560
-1.700E-07,-3.180
-1.600E-07,-3.260
-1.500E-07,-3.620
-1.400E-07,-1.480
-1.300E-07,-0.800
-1.200E-07,0.000
-1.100E-07,-0.740
-1.000E-07,-1.500
-9.000E-08,-1.540
-8.000E-08,-2.480
-7.000E-08,-1.880
-6.000E-08,-0.960
-5.000E-08,-0.600
-4.000E-08,0.500
-3.000E-08,0.280
-2.000E-08,0.240
-1.000E-08,-0.200
0.000E+00,-0.280
1.000E-08,-0.460
2.000E-08,0.000
3.000E-08,0.140
4.000E-08,0.480
5.000E-08,0.480
6.000E-08,0.260
7.000E-08,0.080
8.000E-08,-0.400
9.000E-08,-0.440
1.000E-07,-0.560
1.100E-07,-0.440
1.200E-07,-0.460
1.300E-07,-0.500
1.400E-07,-0.440
1.500E-07,-0.620
1.600E-07,-0.660
1.700E-07,-0.880
1.800E-07,-0.920
1.900E-07,-1.240
2.000E-07,-1.320
2.100E-07,-1.120
2.200E-07,-0.780
2.300E-07,-0.820
2.400E-07,-0.500
2.500E-07,0.240
2.600E-07,0.160
2.700E-07,0.880
2.800E-07,1.400
2.900E-07,-0.100
3.000E-07,1.820
3.100E-07,-0.080
3.200E-07,1.300
3.300E-07,-0.680
3.400E-07,-0.740
3.500E-07,-2.960
3.600E-07,-3.020
3.700E-07,-3.600
3.800E-07,-3.600
3.900E-07,-3.220
4.000E-07,-2.880
4.100E-07,-1.540
4.200E-07,-1.280
4.300E-07,-1.260
4.400E-07,-1.000
4.500E-07,-1.740
4.600E-07,-1.240
4.700E-07,-1.120
4.800E-07,-0.420
4.900E-07,-0.340
5.000E-07,-0.120
5.100E-07,0.200
5.200E-07,-0.200
5.300E-07,0.240
5.400E-07,0.760
5.500E-07,0.180
5.600E-07,0.880
5.700E-07,0.360
5.800E-07,0.860
5.900E-07,0.660
6.000E-07,0.220
6.100E-07,0.160
6.200E-07,-0.580
6.300E-07,-0.860
6.400E-07,-1.260
6.500E-07,-2.340
6.600E-07,-2.280
6.700E-07,-2.580
6.800E-07,-2.100
6.900E-07,-1.540
7.000E-07,-1.100
7.100E-07,-0.940
7.200E-07,-1.100
7.300E-07,-1.040
7.400E-07,-0.420
7.500E-07,-0.720
7.600E-07,-0.040
7.700E-07,-0.060
7.800E-07,0.080
7.900E-07,-0.440
8.000E-07,-0.940
8.100E-07,-1.460
8.200E-07,-1.560
8.300E-07,-1.820
8.400E-07,-1.580
8.500E-07,-1.620
8.600E-07,-1.260
8.700E-07,-1.520
8.800E-07,-1.440
8.900E-07,-1.620
9.000E-07,-1.560
9.100E-07,-1.620
9.200E-07,-1.320
9.300E-07,-1.120
9.400E-07,-0.940
9.500E-07,-0.940
9.600E-07,-0.880
9.700E-07,-0.720
9.800E-07,-0.120
9.900E-07,-0.300
1.000E-06,0.500
1.010E-06,0.700
1.020E-06,0.800
1.030E-06,1.300
1.040E-06,1.140
1.050E-06,1.340
1.060E-06,1.000
1.070E-06,0.720
1.080E-06,-0.440
1.090E-06,-0.620
1.100E-06,-2.360
1.110E-06,-2.820
1.120E-06,-3.420
1.130E-06,-3.380
1.140E-06,-3.600
1.150E-06,-3.520
1.160E-06,-3.300
1.170E-06,-3.000
1.180E-06,-2.660
1.190E-06,-2.560
1.200E-06,-2.180
1.210E-06,-1.900
1.220E-06,-1.480
1.230E-06,-1.200
1.240E-06,-1.320
1.250E-06,-1.480
1.260E-06,-1.700
1.270E-06,-2.040
1.280E-06,-2.360
1.290E-06,-2.800
1.300E-06,-2.920
1.310E-06,-2.980
1.320E-06,-3.080
1.330E-06,-2.880
1.340E-06,-2.760
1.350E-06,-2.500
1.360E-06,-2.420
1.370E-06,-2.360
1.380E-06,-2.420
1.390E-06,-2.460
1.400E-06,-2.680
1.410E-06,-2.460
1.420E-06,-2.660
1.430E-06,-2.360
1.440E-06,-2.700
1.450E-06,-2.540
1.460E-06,-2.540
1.470E-06,-2.320
1.480E-06,-2.300
1.490E-06,-2.080
1.500E-06,-2.200
1.510E-06,-2.200
1.520E-06,-2.320
1.530E-06,-2.460
1.540E-06,-2.360
1.550E-06,-2.340
1.560E-06,-2.220
1.570E-06,-2.200
1.580E-06,-2.120
1.590E-06,-2.100
1.600E-06,-2.200
1.610E-06,-2.500
1.620E-06,-2.340
1.630E-06,-2.380
1.640E-06,-2.080
1.650E-06,-1.720
1.660E-06,-1.460
1.670E-06,-1.320
1.680E-06,-1.360
1.690E-06,-1.360
1.700E-06,-1.300
1.710E-06,-1.160
1.720E-06,-1.080
1.730E-06,-0.980
1.740E-06,-0.920
1.750E-06,-1.040
1.760E-06,-1.040
1.770E-06,-1.020
1.780E-06,-0.940
1.790E-06,-0.820
1.800E-06,-0.580
1.810E-06,-0.380
1.820E-06,-0.240
1.830E-06,-0.180
1.840E-06,-0.220
1.850E-06,-0.280
1.860E-06,-0.400
1.870E-06,-0.400
1.880E-06,-0.520
1.890E-06,-0.600
1.900E-06,-0.600
1.910E-06,-0.700
1.920E-06,-0.760
1.930E-06,-0.880
1.940E-06,-0.900
1.950E-06,-0.800
1.960E-06,-0.780
1.970E-06,-0.520
1.980E-06,-0.500
1.990E-06,-0.520
2.000E-06,-0.160
2.010E-06,-0.180
2.020E-06,-0.020
2.030E-06,-0.120
2.040E-06,-0.880
2.050E-06,-0.980
2.060E-06,-1.540
2.070E-06,-1.520
2.080E-06,-1.620
2.090E-06,-1.540
2.100E-06,-0.880
2.110E-06,-0.180
2.120E-06,-0.500
2.130E-06,-0.780
2.140E-06,-1.200
2.150E-06,-1.460
2.160E-06,-1.600
2.170E-06,-2.080
2.180E-06,-2.180
2.190E-06,-2.300
2.200E-06,-2.540
2.210E-06,-2.840
2.220E-06,-2.660
2.230E-06,-2.440
2.240E-06,-1.740
2.250E-06,-1.380
2.260E-06,-1.160
2.270E-06,-1.500
2.280E-06,-2.060
2.290E-06,-2.440
2.300E-06,-2.800
2.310E-06,-2.560
2.320E-06,-2.520
2.330E-06,-2.260
2.340E-06,-2.160
2.350E-06,-2.060
2.360E-06,-1.920
2.370E-06,-1.780
2.380E-06,-1.460
2.390E-06,-1.200
2.400E-06,-0.780
2.410E-06,-0.480
2.420E-06,-0.120
2.430E-06,0.120
2.440E-06,0.400
2.450E-06,0.600
2.460E-06,0.680
2.470E-06,0.840
2.480E-06,0.840
2.490E-06,0.860
2.500E-06,0.860
2.510E-06,0.780
2.520E-06,0.740
2.530E-06,0.620
2.540E-06,0.560
2.550E-06,0.520
2.560E-06,0.460
2.570E-06,0.440
2.580E-06,0.420
2.590E-06,0.400
2.600E-06,0.360
2.610E-06,0.300
2.620E-06,0.280
2.630E-06,0.240
2.640E-06,0.240
2.650E-06,0.260
2.660E-06,0.240
2.670E-06,0.240
2.680E-06,0.180
2.690E-06,0.160
2.700E-06,0.120
2.710E-06,0.040
2.720E-06,0.000
2.730E-06,-0.040
2.740E-06,-0.080
2.750E-06,-0.160
2.760E-06,-0.220
2.770E-06,-0.260
2.780E-06,-0.340
2.790E-06,-0.400
2.800E-06,-0.440
2.810E-06,-0.460
2.820E-06,-0.460
2.830E-06,-0.440
2.840E-06,-0.440
2.850E-06,-0.360
2.860E-06,-0.260
2.870E-06,-0.180
2.880E-06,-0.100
2.890E-06,0.020
2.900E-06,0.140
2.910E-06,0.180
2.920E-06,0.220
2.930E-06,0.280
2.940E-06,0.300
2.950E-06,0.400
2.960E-06,0.400
2.970E-06,0.400
2.980E-06,0.440
2.990E-06,0.440
3.000E-06,0.420
3.010E-06,0.400
3.020E-06,0.380
3.030E-06,0.340
3.040E-06,0.300
3.050E-06,0.300
3.060E-06,0.260
3.070E-06,0.240
3.080E-06,0.220
3.090E-06,0.220
3.100E-06,0.200
3.110E-06,0.200
3.120E-06,0.240
3.130E-06,0.220
3.140E-06,0.260
3.150E-06,0.260
3.160E-06,0.260
3.170E-06,0.300
3.180E-06,0.340
3.190E-06,0.380
3.200E-06,0.420
3.210E-06,0.380
3.220E-06,0.400
3.230E-06,0.420
3.240E-06,0.380
3.250E-06,0.400
3.260E-06,0.320
