mediciones/curva carac 8-28 limpias/-30/WaveData65805.csv

#timebase=2000000(ps)
,#voltbase=500000(mv/100)
#size=4000
-8.350E-06,0.020
-8.340E-06,0.040
-8.330E-06,0.060
-8.320E-06,0.020
-8.310E-06,0.020
-8.300E-06,0.020
-8.290E-06,0.020
-8.280E-06,0.040
-8.270E-06,0.060
-8.260E-06,0.060
-8.250E-06,0.060
-8.240E-06,0.060
-8.230E-06,0.060
-8.220E-06,0.060
-8.210E-06,0.040
-8.200E-06,0.060
-8.190E-06,0.060
-8.180E-06,0.020
-8.170E-06,0.020
-8.160E-06,0.060
-8.150E-06,0.040
-8.140E-06,0.060
-8.130E-06,0.040
-8.120E-06,0.020
-8.110E-06,0.040
-8.100E-06,0.040
-8.090E-06,0.020
-8.080E-06,0.040
-8.070E-06,0.060
-8.060E-06,0.060
-8.050E-06,0.060
-8.040E-06,0.060
-8.030E-06,0.060
-8.020E-06,0.060
-8.010E-06,0.040
-8.000E-06,0.060
-7.990E-06,0.020
-7.980E-06,0.020
-7.970E-06,0.040
-7.960E-06,0.000
-7.950E-06,0.040
-7.940E-06,0.040
-7.930E-06,0.040
-7.920E-06,0.060
-7.910E-06,0.060
-7.900E-06,0.060
-7.890E-06,0.020
-7.880E-06,0.040
-7.870E-06,0.080
-7.860E-06,0.040
-7.850E-06,0.040
-7.840E-06,0.040
-7.830E-06,0.080
-7.820E-06,0.020
-7.810E-06,0.040
-7.800E-06,0.060
-7.790E-06,0.020
-7.780E-06,0.040
-7.770E-06,0.060
-7.760E-06,0.080
-7.750E-06,0.020
-7.740E-06,0.020
-7.730E-06,0.040
-7.720E-06,0.080
-7.710E-06,0.060
-7.700E-06,0.020
-7.690E-06,0.020
-7.680E-06,0.020
-7.670E-06,0.020
-7.660E-06,0.000
-7.650E-06,0.040
-7.640E-06,0.000
-7.630E-06,0.020
-7.620E-06,0.040
-7.610E-06,0.020
-7.600E-06,0.060
-7.590E-06,0.040
-7.580E-06,0.020
-7.570E-06,0.080
-7.560E-06,0.020
-7.550E-06,0.040
-7.540E-06,0.060
-7.530E-06,0.000
-7.520E-06,0.060
-7.510E-06,0.000
-7.500E-06,0.040
-7.490E-06,0.020
-7.480E-06,0.040
-7.470E-06,0.020
-7.460E-06,0.040
-7.450E-06,0.040
-7.440E-06,0.020
-7.430E-06,0.040
-7.420E-06,0.080
-7.410E-06,0.060
-7.400E-06,0.020
-7.390E-06,0.060
-7.380E-06,0.020
-7.370E-06,0.020
-7.360E-06,0.020
-7.350E-06,0.000
-7.340E-06,0.040
-7.330E-06,0.020
-7.320E-06,0.040
-7.310E-06,0.020
-7.300E-06,0.060
-7.290E-06,0.060
-7.280E-06,0.000
-7.270E-06,0.060
-7.260E-06,0.060
-7.250E-06,0.000
-7.240E-06,0.080
-7.230E-06,0.060
-7.220E-06,0.080
-7.210E-06,0.020
-7.200E-06,0.040
-7.190E-06,0.060
-7.180E-06,0.040
-7.170E-06,0.000
-7.160E-06,0.040
-7.150E-06,0.040
-7.140E-06,0.020
-7.130E-06,0.060
-7.120E-06,0.000
-7.110E-06,0.040
-7.100E-06,0.040
-7.090E-06,0.040
-7.080E-06,0.080
-7.070E-06,0.040
-7.060E-06,0.060
-7.050E-06,0.040
-7.040E-06,0.080
-7.030E-06,0.060
-7.020E-06,0.040
-7.010E-06,0.020
-7.000E-06,0.040
-6.990E-06,0.060
-6.980E-06,0.020
-6.970E-06,0.020
-6.960E-06,0.000
-6.950E-06,0.040
-6.940E-06,0.080
-6.930E-06,0.040
-6.920E-06,0.040
-6.910E-06,0.000
-6.900E-06,0.060
-6.890E-06,0.000
-6.880E-06,0.040
-6.870E-06,0.080
-6.860E-06,0.020
-6.850E-06,0.020
-6.840E-06,0.020
-6.830E-06,0.060
-6.820E-06,0.040
-6.810E-06,0.020
-6.800E-06,0.020
-6.790E-06,0.060
-6.780E-06,0.060
-6.770E-06,0.040
-6.760E-06,0.040
-6.750E-06,0.020
-6.740E-06,0.060
-6.730E-06,0.060
-6.720E-06,0.020
-6.710E-06,0.000
-6.700E-06,0.040
-6.690E-06,0.080
-6.680E-06,0.020
-6.670E-06,0.020
-6.660E-06,0.040
-6.650E-06,0.060
-6.640E-06,0.080
-6.630E-06,0.040
-6.620E-06,0.040
-6.610E-06,0.020
-6.600E-06,0.080
-6.590E-06,0.040
-6.580E-06,0.020
-6.570E-06,0.060
-6.560E-06,0.020
-6.550E-06,0.040
-6.540E-06,0.080
-6.530E-06,0.060
-6.520E-06,0.020
-6.510E-06,0.060
-6.500E-06,0.080
-6.490E-06,0.040
-6.480E-06,0.060
-6.470E-06,0.060
-6.460E-06,0.020
-6.450E-06,0.040
-6.440E-06,0.060
-6.430E-06,0.080
-6.420E-06,0.060
-6.410E-06,0.060
-6.400E-06,0.060
-6.390E-06,0.080
-6.380E-06,0.020
-6.370E-06,0.040
-6.360E-06,0.040
-6.350E-06,0.040
-6.340E-06,0.020
-6.330E-06,0.060
-6.320E-06,0.000
-6.310E-06,0.020
-6.300E-06,0.020
-6.290E-06,0.040
-6.280E-06,0.060
-6.270E-06,0.060
-6.260E-06,0.060
-6.250E-06,0.020
-6.240E-06,0.060
-6.230E-06,0.000
-6.220E-06,0.060
-6.210E-06,0.060
-6.200E-06,0.060
-6.190E-06,0.020
-6.180E-06,0.060
-6.170E-06,0.040
-6.160E-06,0.040
-6.150E-06,0.020
-6.140E-06,0.040
-6.130E-06,0.040
-6.120E-06,0.020
-6.110E-06,0.040
-6.100E-06,0.100
-6.090E-06,0.040
-6.080E-06,0.020
-6.070E-06,0.040
-6.060E-06,0.020
-6.050E-06,0.060
-6.040E-06,0.060
-6.030E-06,0.060
-6.020E-06,0.060
-6.010E-06,-0.120
-6.000E-06,-0.580
-5.990E-06,-1.400
-5.980E-06,-2.460
-5.970E-06,-3.320
-5.960E-06,-3.100
-5.950E-06,-2.660
-5.940E-06,-1.900
-5.930E-06,0.320
-5.920E-06,0.660
-5.910E-06,2.100
-5.900E-06,2.100
-5.890E-06,2.080
-5.880E-06,2.100
-5.870E-06,2.100
-5.860E-06,2.080
-5.850E-06,2.080
-5.840E-06,1.600
-5.830E-06,0.980
-5.820E-06,-0.120
-5.810E-06,-0.320
-5.800E-06,-0.800
-5.790E-06,-0.540
-5.780E-06,-0.520
-5.770E-06,-0.440
-5.760E-06,-0.220
-5.750E-06,-0.220
-5.740E-06,-0.480
-5.730E-06,-0.900
-5.720E-06,-1.100
-5.710E-06,-1.520
-5.700E-06,-1.820
-5.690E-06,-1.860
-5.680E-06,-1.840
-5.670E-06,-1.560
-5.660E-06,-1.200
-5.650E-06,-0.500
-5.640E-06,0.100
-5.630E-06,0.740
-5.620E-06,1.340
-5.610E-06,1.660
-5.600E-06,1.760
-5.590E-06,1.700
-5.580E-06,1.440
-5.570E-06,1.040
-5.560E-06,0.620
-5.550E-06,0.180
-5.540E-06,-0.240
-5.530E-06,-0.600
-5.520E-06,-0.840
-5.510E-06,-0.980
-5.500E-06,-0.960
-5.490E-06,-0.900
-5.480E-06,-0.800
-5.470E-06,-0.640
-5.460E-06,-0.500
-5.450E-06,-0.320
-5.440E-06,-0.160
-5.430E-06,0.020
-5.420E-06,0.240
-5.410E-06,0.500
-5.400E-06,0.680
-5.390E-06,0.840
-5.380E-06,0.980
-5.370E-06,1.040
-5.360E-06,1.040
-5.350E-06,1.000
-5.340E-06,0.820
-5.330E-06,0.660
-5.320E-06,0.480
-5.310E-06,0.260
-5.300E-06,0.040
-5.290E-06,-0.100
-5.280E-06,-0.300
-5.270E-06,-0.420
-5.260E-06,-0.500
-5.250E-06,-0.580
-5.240E-06,-0.620
-5.230E-06,-0.660
-5.220E-06,-0.700
-5.210E-06,-0.640
-5.200E-06,-0.520
-5.190E-06,-0.360
-5.180E-06,-0.220
-5.170E-06,0.000
-5.160E-06,0.220
-5.150E-06,0.440
-5.140E-06,0.640
-5.130E-06,0.740
-5.120E-06,0.820
-5.110E-06,0.840
-5.100E-06,0.800
-5.090E-06,0.680
-5.080E-06,0.500
-5.070E-06,0.300
-5.060E-06,0.060
-5.050E-06,-0.180
-5.040E-06,-0.320
-5.030E-06,-0.480
-5.020E-06,-0.540
-5.010E-06,-0.600
-5.000E-06,-0.520
-4.990E-06,-0.460
-4.980E-06,-0.360
-4.970E-06,-0.260
-4.960E-06,-0.140
-4.950E-06,-0.100
-4.940E-06,-0.020
-4.930E-06,0.040
-4.920E-06,0.120
-4.910E-06,0.060
-4.900E-06,0.080
-4.890E-06,0.180
-4.880E-06,0.160
-4.870E-06,0.160
-4.860E-06,0.200
-4.850E-06,0.220
-4.840E-06,0.220
-4.830E-06,0.220
-4.820E-06,0.220
-4.810E-06,0.160
-4.800E-06,0.160
-4.790E-06,0.100
-4.780E-06,0.040
-4.770E-06,-0.020
-4.760E-06,-0.060
-4.750E-06,-0.080
-4.740E-06,-0.080
-4.730E-06,-0.080
-4.720E-06,-0.020
-4.710E-06,-0.020
-4.700E-06,0.040
-4.690E-06,0.080
-4.680E-06,0.100
-4.670E-06,0.100
-4.660E-06,0.120
-4.650E-06,0.100
-4.640E-06,0.080
-4.630E-06,0.080
-4.620E-06,0.060
-4.610E-06,0.020
-4.600E-06,0.020
-4.590E-06,-0.020
-4.580E-06,0.000
-4.570E-06,0.000
-4.560E-06,0.040
-4.550E-06,-0.020
-4.540E-06,0.000
-4.530E-06,-0.020
-4.520E-06,-0.040
-4.510E-06,-0.040
-4.500E-06,-0.080
-4.490E-06,-0.080
-4.480E-06,-0.080
-4.470E-06,-0.080
-4.460E-06,-0.020
-4.450E-06,-0.020
-4.440E-06,-0.020
-4.430E-06,0.020
-4.420E-06,-0.020
-4.410E-06,-0.020
-4.400E-06,-0.020
-4.390E-06,-0.020
-4.380E-06,-0.020
-4.370E-06,-0.040
-4.360E-06,-0.020
-4.350E-06,-0.040
-4.340E-06,-0.040
-4.330E-06,-0.020
-4.320E-06,0.000
-4.310E-06,0.040
-4.300E-06,0.080
-4.290E-06,0.100
-4.280E-06,0.160
-4.270E-06,0.160
-4.260E-06,0.200
-4.250E-06,0.200
-4.240E-06,0.160
-4.230E-06,0.140
-4.220E-06,0.120
-4.210E-06,0.060
-4.200E-06,0.000
-4.190E-06,-0.020
-4.180E-06,-0.080
-4.170E-06,-0.100
-4.160E-06,-0.120
-4.150E-06,-0.140
-4.140E-06,-0.160
-4.130E-06,-0.180
-4.120E-06,-0.160
-4.110E-06,-0.100
-4.100E-06,-0.100
-4.090E-06,-0.100
-4.080E-06,-0.060
-4.070E-06,-0.040
-4.060E-06,0.000
-4.050E-06,-0.020
-4.040E-06,0.100
-4.030E-06,0.080
-4.020E-06,0.080
-4.010E-06,0.080
-4.000E-06,0.100
-3.990E-06,0.120
-3.980E-06,0.120
-3.970E-06,0.100
-3.960E-06,0.100
-3.950E-06,0.060
-3.940E-06,0.040
-3.930E-06,0.000
-3.920E-06,0.000
-3.910E-06,-0.020
-3.900E-06,-0.140
-3.890E-06,-0.180
-3.880E-06,-0.360
-3.870E-06,0.220
-3.860E-06,-0.320
-3.850E-06,0.340
-3.840E-06,-0.260
-3.830E-06,0.080
-3.820E-06,0.020
-3.810E-06,0.060
-3.800E-06,0.100
-3.790E-06,0.100
-3.780E-06,0.080
-3.770E-06,0.120
-3.760E-06,0.080
-3.750E-06,0.060
-3.740E-06,0.080
-3.730E-06,0.100
-3.720E-06,0.080
-3.710E-06,0.140
-3.700E-06,0.140
-3.690E-06,0.320
-3.680E-06,0.720
-3.670E-06,1.280
-3.660E-06,1.720
-3.650E-06,1.940
-3.640E-06,1.880
-3.630E-06,1.440
-3.620E-06,0.860
-3.610E-06,0.140
-3.600E-06,-0.600
-3.590E-06,-1.200
-3.580E-06,-1.700
-3.570E-06,-1.960
-3.560E-06,-2.080
-3.550E-06,-2.020
-3.540E-06,-1.700
-3.530E-06,-1.320
-3.520E-06,-0.980
-3.510E-06,-0.680
-3.500E-06,-0.600
-3.490E-06,-0.500
-3.480E-06,-0.440
-3.470E-06,-0.240
-3.460E-06,-0.220
-3.450E-06,-0.080
-3.440E-06,-0.020
-3.430E-06,0.340
-3.420E-06,0.200
-3.410E-06,0.660
-3.400E-06,0.720
-3.390E-06,0.940
-3.380E-06,1.000
-3.370E-06,0.900
-3.360E-06,0.880
-3.350E-06,0.640
-3.340E-06,0.460
-3.330E-06,0.120
-3.320E-06,-0.180
-3.310E-06,-0.460
-3.300E-06,-0.740
-3.290E-06,-0.720
-3.280E-06,-1.080
-3.270E-06,-0.860
-3.260E-06,-0.780
-3.250E-06,-0.500
-3.240E-06,-0.220
-3.230E-06,-0.060
-3.220E-06,0.220
-3.210E-06,0.420
-3.200E-06,0.660
-3.190E-06,0.880
-3.180E-06,0.980
-3.170E-06,0.900
-3.160E-06,0.940
-3.150E-06,0.660
-3.140E-06,0.520
-3.130E-06,0.280
-3.120E-06,0.140
-3.110E-06,-0.080
-3.100E-06,-0.200
-3.090E-06,-0.280
-3.080E-06,-0.480
-3.070E-06,-0.480
-3.060E-06,-0.540
-3.050E-06,-0.500
-3.040E-06,-0.540
-3.030E-06,-0.500
-3.020E-06,-0.440
-3.010E-06,-0.460
-3.000E-06,-0.480
-2.990E-06,-0.420
-2.980E-06,-0.480
-2.970E-06,-0.420
-2.960E-06,-0.340
-2.950E-06,-0.200
-2.940E-06,-0.080
-2.930E-06,0.140
-2.920E-06,0.300
-2.910E-06,0.460
-2.900E-06,0.520
-2.890E-06,0.520
-2.880E-06,0.500
-2.870E-06,0.440
-2.860E-06,0.320
-2.850E-06,0.160
-2.840E-06,-0.080
-2.830E-06,-0.220
-2.820E-06,-0.340
-2.810E-06,-0.440
-2.800E-06,-0.480
-2.790E-06,-0.420
-2.780E-06,-0.320
-2.770E-06,-0.260
-2.760E-06,-0.100
-2.750E-06,0.040
-2.740E-06,0.220
-2.730E-06,0.220
-2.720E-06,0.280
-2.710E-06,0.260
-2.700E-06,0.200
-2.690E-06,0.160
-2.680E-06,0.160
-2.670E-06,0.120
-2.660E-06,0.100
-2.650E-06,0.040
-2.640E-06,0.000
-2.630E-06,-0.040
-2.620E-06,-0.100
-2.610E-06,-0.080
-2.600E-06,-0.140
-2.590E-06,-0.080
-2.580E-06,0.080
-2.570E-06,-0.200
-2.560E-06,0.080
-2.550E-06,-0.120
-2.540E-06,-0.220
-2.530E-06,0.000
-2.520E-06,-0.240
-2.510E-06,-0.220
-2.500E-06,-0.320
-2.490E-06,-0.400
-2.480E-06,-0.360
-2.470E-06,-0.380
-2.460E-06,-0.260
-2.450E-06,-0.240
-2.440E-06,-0.180
-2.430E-06,-0.080
-2.420E-06,-0.060
-2.410E-06,-0.040
-2.400E-06,0.000
-2.390E-06,0.000
-2.380E-06,-0.020
-2.370E-06,-0.040
-2.360E-06,-0.040
-2.350E-06,-0.060
-2.340E-06,-0.100
-2.330E-06,-0.120
-2.320E-06,-0.040
-2.310E-06,-0.080
-2.300E-06,-0.120
-2.290E-06,-0.020
-2.280E-06,0.160
-2.270E-06,-0.120
-2.260E-06,0.220
-2.250E-06,-0.020
-2.240E-06,0.140
-2.230E-06,0.100
-2.220E-06,0.020
-2.210E-06,0.100
-2.200E-06,-0.020
-2.190E-06,-0.020
-2.180E-06,-0.020
-2.170E-06,-0.080
-2.160E-06,0.000
-2.150E-06,-0.020
-2.140E-06,0.000
-2.130E-06,0.000
-2.120E-06,0.000
-2.110E-06,0.040
-2.100E-06,0.020
-2.090E-06,0.060
-2.080E-06,0.040
-2.070E-06,0.080
-2.060E-06,-0.020
-2.050E-06,0.000
-2.040E-06,-0.080
-2.030E-06,-0.120
-2.020E-06,-0.120
-2.010E-06,-0.120
-2.000E-06,-0.160
-1.990E-06,-0.180
-1.980E-06,-0.180
-1.970E-06,-0.140
-1.960E-06,-0.180
-1.950E-06,-0.180
-1.940E-06,-0.180
-1.930E-06,-0.180
-1.920E-06,-0.220
-1.910E-06,-0.080
-1.900E-06,-0.240
-1.890E-06,0.140
-1.880E-06,-0.320
-1.870E-06,0.140
-1.860E-06,-0.260
-1.850E-06,0.300
-1.840E-06,-0.140
-1.830E-06,0.200
-1.820E-06,0.080
-1.810E-06,0.080
-1.800E-06,0.160
-1.790E-06,0.040
-1.780E-06,0.120
-1.770E-06,0.060
-1.760E-06,0.080
-1.750E-06,0.080
-1.740E-06,-0.020
-1.730E-06,-0.020
-1.720E-06,0.000
-1.710E-06,-0.040
-1.700E-06,-0.040
-1.690E-06,-0.120
-1.680E-06,-0.060
-1.670E-06,-0.200
-1.660E-06,-0.120
-1.650E-06,-0.100
-1.640E-06,0.060
-1.630E-06,0.060
-1.620E-06,0.040
-1.610E-06,0.080
-1.600E-06,0.000
-1.590E-06,-0.040
-1.580E-06,-0.100
-1.570E-06,-0.100
-1.560E-06,-0.080
-1.550E-06,-0.100
-1.540E-06,-0.120
-1.530E-06,-0.080
-1.520E-06,-0.180
-1.510E-06,-0.260
-1.500E-06,-0.300
-1.490E-06,-0.260
-1.480E-06,-0.300
-1.470E-06,-0.240
-1.460E-06,-0.220
-1.450E-06,-0.180
-1.440E-06,-0.220
-1.430E-06,-0.240
-1.420E-06,-0.260
-1.410E-06,-0.240
-1.400E-06,-0.280
-1.390E-06,-0.260
-1.380E-06,-0.260
-1.370E-06,-0.280
-1.360E-06,-0.280
-1.350E-06,-0.220
-1.340E-06,-0.200
-1.330E-06,-0.240
-1.320E-06,-0.280
-1.310E-06,-0.180
-1.300E-06,-0.280
-1.290E-06,-0.140
-1.280E-06,-0.040
-1.270E-06,-0.180
-1.260E-06,0.020
-1.250E-06,0.140
-1.240E-06,-0.200
-1.230E-06,0.180
-1.220E-06,-0.100
-1.210E-06,0.040
-1.200E-06,-0.020
-1.190E-06,-0.100
-1.180E-06,0.020
-1.170E-06,-0.120
-1.160E-06,-0.040
-1.150E-06,-0.100
-1.140E-06,-0.160
-1.130E-06,-0.100
-1.120E-06,-0.180
-1.110E-06,-0.140
-1.100E-06,-0.140
-1.090E-06,-0.160
-1.080E-06,-0.180
-1.070E-06,-0.200
-1.060E-06,-0.180
-1.050E-06,-0.220
-1.040E-06,-0.200
-1.030E-06,-0.220
-1.020E-06,-0.180
-1.010E-06,-0.260
-1.000E-06,-0.260
-9.900E-07,-0.340
-9.800E-07,-0.300
-9.700E-07,-0.400
-9.600E-07,-0.200
-9.500E-07,-0.480
-9.400E-07,-0.280
-9.300E-07,-0.440
-9.200E-07,-0.120
-9.100E-07,-0.500
-9.000E-07,-0.240
-8.900E-07,-0.420
-8.800E-07,-0.340
-8.700E-07,-0.340
-8.600E-07,-0.520
-8.500E-07,-0.320
-8.400E-07,-0.300
-8.300E-07,-0.420
-8.200E-07,-0.320
-8.100E-07,-0.200
-8.000E-07,-0.120
-7.900E-07,-0.020
-7.800E-07,-0.060
-7.700E-07,0.100
-7.600E-07,0.020
-7.500E-07,-0.200
-7.400E-07,-0.180
-7.300E-07,-0.600
-7.200E-07,-0.300
-7.100E-07,-0.660
-7.000E-07,-0.420
-6.900E-07,-0.780
-6.800E-07,-0.600
-6.700E-07,-0.760
-6.600E-07,-0.720
-6.500E-07,-0.640
-6.400E-07,-0.760
-6.300E-07,-0.600
-6.200E-07,-0.620
-6.100E-07,-0.540
-6.000E-07,-0.320
-5.900E-07,-0.380
-5.800E-07,-0.260
-5.700E-07,-0.400
-5.600E-07,-0.300
-5.500E-07,-0.280
-5.400E-07,-0.260
-5.300E-07,-0.240
-5.200E-07,-0.260
-5.100E-07,0.000
-5.000E-07,-0.280
-4.900E-07,0.140
-4.800E-07,-0.380
-4.700E-07,0.100
-4.600E-07,-0.500
-4.500E-07,-0.080
-4.400E-07,-0.420
-4.300E-07,-0.240
-4.200E-07,-0.440
-4.100E-07,-0.460
-4.000E-07,-0.420
-3.900E-07,-0.500
-3.800E-07,-0.440
-3.700E-07,-0.340
-3.600E-07,-0.260
-3.500E-07,-0.160
-3.400E-07,-0.160
-3.300E-07,-0.180
-3.200E-07,-0.140
-3.100E-07,-0.280
-3.000E-07,-0.340
-2.900E-07,-0.240
-2.800E-07,-0.420
-2.700E-07,-0.420
-2.600E-07,-0.900
-2.500E-07,-0.440
-2.400E-07,-1.100
-2.300E-07,-0.740
-2.200E-07,-1.180
-2.100E-07,-0.860
-2.000E-07,-1.260
-1.900E-07,-1.120
-1.800E-07,-1.260
-1.700E-07,-1.080
-1.600E-07,-1.240
-1.500E-07,-1.280
-1.400E-07,-0.800
-1.300E-07,-1.060
-1.200E-07,-0.760
-1.100E-07,-1.020
-1.000E-07,-0.980
-9.000E-08,-1.000
-8.000E-08,-0.960
-7.000E-08,-1.360
-6.000E-08,-0.860
-5.000E-08,-0.600
-4.000E-08,-0.160
-3.000E-08,0.160
-2.000E-08,-0.400
-1.000E-08,-0.280
0.000E+00,-1.240
1.000E-08,-1.440
2.000E-08,-1.200
3.000E-08,-1.440
4.000E-08,-0.240
5.000E-08,0.280
6.000E-08,1.180
7.000E-08,0.740
8.000E-08,0.000
9.000E-08,-0.500
1.000E-07,-1.340
1.100E-07,-1.420
1.200E-07,-1.300
1.300E-07,0.100
1.400E-07,0.200
1.500E-07,0.440
1.600E-07,0.280
1.700E-07,0.200
1.800E-07,-0.120
1.900E-07,-0.260
2.000E-07,-0.080
2.100E-07,-0.160
2.200E-07,-0.040
2.300E-07,-0.040
2.400E-07,-0.020
2.500E-07,-0.080
2.600E-07,0.000
2.700E-07,0.400
2.800E-07,-0.200
2.900E-07,0.660
3.000E-07,0.100
3.100E-07,-0.080
3.200E-07,-0.920
3.300E-07,-0.860
3.400E-07,-1.360
3.500E-07,-0.900
3.600E-07,-0.620
3.700E-07,-0.260
3.800E-07,-0.140
3.900E-07,-0.120
4.000E-07,-0.320
4.100E-07,-0.600
4.200E-07,-1.020
4.300E-07,-1.080
4.400E-07,-1.240
4.500E-07,-1.280
4.600E-07,-1.260
4.700E-07,-1.180
4.800E-07,-1.000
4.900E-07,-0.600
5.000E-07,-0.320
5.100E-07,0.020
5.200E-07,0.040
5.300E-07,-0.060
5.400E-07,-0.040
5.500E-07,-0.160
5.600E-07,0.340
5.700E-07,0.040
5.800E-07,0.300
5.900E-07,-0.340
6.000E-07,-0.680
6.100E-07,-0.980
6.200E-07,-1.280
6.300E-07,-1.240
6.400E-07,-1.300
6.500E-07,-1.100
6.600E-07,-1.040
6.700E-07,-1.080
6.800E-07,-1.000
6.900E-07,-1.120
7.000E-07,-1.100
7.100E-07,-0.900
7.200E-07,-0.840
7.300E-07,-0.600
7.400E-07,-0.580
7.500E-07,-0.360
7.600E-07,-0.360
7.700E-07,-0.320
7.800E-07,0.180
7.900E-07,0.680
8.000E-07,1.260
8.100E-07,1.520
8.200E-07,1.280
8.300E-07,0.260
8.400E-07,-1.240
8.500E-07,-2.240
8.600E-07,-2.600
8.700E-07,-2.280
8.800E-07,-1.700
8.900E-07,-0.960
9.000E-07,-1.000
9.100E-07,-0.680
9.200E-07,-1.320
9.300E-07,-1.040
9.400E-07,-0.960
9.500E-07,-0.620
9.600E-07,-0.020
9.700E-07,0.220
9.800E-07,0.420
9.900E-07,-0.520
1.000E-06,-1.120
1.010E-06,-0.320
1.020E-06,0.080
1.030E-06,2.080
1.040E-06,2.080
1.050E-06,1.840
1.060E-06,1.100
1.070E-06,-0.940
1.080E-06,-2.680
1.090E-06,-3.320
1.100E-06,-3.340
1.110E-06,-3.340
1.120E-06,-3.340
1.130E-06,-3.340
1.140E-06,-3.340
1.150E-06,-3.220
1.160E-06,-3.040
1.170E-06,-2.180
1.180E-06,-1.580
1.190E-06,-0.580
1.200E-06,-0.080
1.210E-06,0.080
1.220E-06,-0.020
1.230E-06,-0.260
1.240E-06,-0.620
1.250E-06,-0.880
1.260E-06,-0.320
1.270E-06,-0.440
1.280E-06,0.360
1.290E-06,0.320
1.300E-06,0.220
1.310E-06,-0.060
1.320E-06,-0.460
1.330E-06,-0.720
1.340E-06,-1.440
1.350E-06,-1.740
1.360E-06,-1.780
1.370E-06,-2.000
1.380E-06,-2.100
1.390E-06,-2.340
1.400E-06,-2.360
1.410E-06,-2.180
1.420E-06,-2.140
1.430E-06,-1.920
1.440E-06,-1.620
1.450E-06,-1.320
1.460E-06,-1.180
1.470E-06,-0.960
1.480E-06,-0.920
1.490E-06,-0.780
1.500E-06,-0.920
1.510E-06,-0.960
1.520E-06,-1.120
1.530E-06,-1.340
1.540E-06,-1.520
1.550E-06,-1.780
1.560E-06,-2.000
1.570E-06,-2.260
1.580E-06,-2.460
1.590E-06,-2.620
1.600E-06,-2.660
1.610E-06,-2.640
1.620E-06,-2.540
1.630E-06,-2.400
1.640E-06,-2.200
1.650E-06,-2.080
1.660E-06,-2.360
1.670E-06,-2.560
1.680E-06,-2.280
1.690E-06,-1.580
1.700E-06,-1.360
1.710E-06,-1.360
1.720E-06,-1.440
1.730E-06,-1.320
1.740E-06,-1.920
1.750E-06,-2.180
1.760E-06,-2.760
1.770E-06,-2.740
1.780E-06,-3.200
1.790E-06,-3.040
1.800E-06,-3.140
1.810E-06,-3.200
1.820E-06,-3.140
1.830E-06,-2.960
1.840E-06,-2.740
1.850E-06,-2.480
1.860E-06,-2.260
1.870E-06,-1.800
1.880E-06,-1.380
1.890E-06,-1.020
1.900E-06,-0.700
1.910E-06,-0.340
1.920E-06,-0.080
1.930E-06,0.100
1.940E-06,0.300
1.950E-06,0.360
1.960E-06,0.340
1.970E-06,0.300
1.980E-06,0.200
1.990E-06,0.040
2.000E-06,-0.120
2.010E-06,-0.340
2.020E-06,-0.580
2.030E-06,-0.760
2.040E-06,-0.920
2.050E-06,-0.980
2.060E-06,-0.920
2.070E-06,-0.840
2.080E-06,-0.720
2.090E-06,-0.620
2.100E-06,-0.580
2.110E-06,-0.560
2.120E-06,-0.560
2.130E-06,-0.520
2.140E-06,-0.600
2.150E-06,-0.480
2.160E-06,-0.620
2.170E-06,-0.560
2.180E-06,-0.640
2.190E-06,-0.700
2.200E-06,-0.800
2.210E-06,-0.940
2.220E-06,-1.040
2.230E-06,-1.160
2.240E-06,-1.200
2.250E-06,-1.280
2.260E-06,-1.240
2.270E-06,-1.280
2.280E-06,-1.260
2.290E-06,-1.260
2.300E-06,-1.280
2.310E-06,-1.420
2.320E-06,-1.420
2.330E-06,-1.440
2.340E-06,-1.380
2.350E-06,-1.360
2.360E-06,-1.320
2.370E-06,-1.260
2.380E-06,-1.240
2.390E-06,-1.260
2.400E-06,-1.220
2.410E-06,-1.180
2.420E-06,-1.080
2.430E-06,-0.820
2.440E-06,-0.800
2.450E-06,-0.680
2.460E-06,-0.860
2.470E-06,-0.700
2.480E-06,-0.860
2.490E-06,-0.860
2.500E-06,-1.000
2.510E-06,-1.120
2.520E-06,-1.200
2.530E-06,-1.360
2.540E-06,-1.420
2.550E-06,-1.540
2.560E-06,-1.520
2.570E-06,-1.480
2.580E-06,-1.520
2.590E-06,-1.460
2.600E-06,-1.360
2.610E-06,-1.360
2.620E-06,-1.220
2.630E-06,-1.140
2.640E-06,-1.020
2.650E-06,-0.980
2.660E-06,-0.880
2.670E-06,-0.900
2.680E-06,-0.760
2.690E-06,-0.820
2.700E-06,-0.820
2.710E-06,-0.720
2.720E-06,-0.800
2.730E-06,-0.740
2.740E-06,-0.700
2.750E-06,-0.680
2.760E-06,-0.640
2.770E-06,-0.720
2.780E-06,-0.600
2.790E-06,-0.700
2.800E-06,-0.760
2.810E-06,-0.800
2.820E-06,-0.620
2.830E-06,-0.700
2.840E-06,-0.520
2.850E-06,-0.520
2.860E-06,-0.340
2.870E-06,-0.340
2.880E-06,-0.320
2.890E-06,-0.180
2.900E-06,-0.240
2.910E-06,-0.100
2.920E-06,-0.280
2.930E-06,-0.380
2.940E-06,-0.420
2.950E-06,-0.340
2.960E-06,-0.460
2.970E-06,-0.420
2.980E-06,-0.600
2.990E-06,-0.500
3.000E-06,-0.520
3.010E-06,-0.540
3.020E-06,-0.480
3.030E-06,-0.520
3.040E-06,-0.520
3.050E-06,-0.600
3.060E-06,-0.460
3.070E-06,-0.520
3.080E-06,-0.560
3.090E-06,-0.500
3.100E-06,-0.480
3.110E-06,-0.580
3.120E-06,-0.580
3.130E-06,-0.520
3.140E-06,-0.400
3.150E-06,-0.380
3.160E-06,-0.320
3.170E-06,-0.240
