mediciones/curva carac 8-28 limpias/-19/WaveData65737.csv

#timebase=2000000(ps)
,#voltbase=500000(mv/100)
#size=4000
-8.350E-06,0.040
-8.340E-06,0.020
-8.330E-06,0.040
-8.320E-06,0.060
-8.310E-06,0.060
-8.300E-06,0.020
-8.290E-06,0.020
-8.280E-06,0.060
-8.270E-06,0.000
-8.260E-06,0.040
-8.250E-06,0.020
-8.240E-06,0.020
-8.230E-06,0.020
-8.220E-06,0.060
-8.210E-06,0.000
-8.200E-06,0.040
-8.190E-06,0.040
-8.180E-06,0.040
-8.170E-06,0.060
-8.160E-06,0.020
-8.150E-06,0.040
-8.140E-06,0.020
-8.130E-06,0.040
-8.120E-06,0.040
-8.110E-06,0.060
-8.100E-06,0.020
-8.090E-06,0.040
-8.080E-06,0.040
-8.070E-06,0.060
-8.060E-06,0.060
-8.050E-06,0.060
-8.040E-06,0.060
-8.030E-06,0.060
-8.020E-06,0.080
-8.010E-06,0.020
-8.000E-06,0.020
-7.990E-06,0.060
-7.980E-06,0.060
-7.970E-06,0.040
-7.960E-06,0.060
-7.950E-06,0.020
-7.940E-06,0.020
-7.930E-06,0.040
-7.920E-06,0.040
-7.910E-06,0.040
-7.900E-06,0.020
-7.890E-06,0.040
-7.880E-06,0.020
-7.870E-06,0.060
-7.860E-06,0.040
-7.850E-06,0.040
-7.840E-06,0.060
-7.830E-06,0.000
-7.820E-06,0.060
-7.810E-06,0.040
-7.800E-06,0.000
-7.790E-06,0.060
-7.780E-06,0.060
-7.770E-06,0.020
-7.760E-06,0.020
-7.750E-06,0.060
-7.740E-06,0.020
-7.730E-06,0.040
-7.720E-06,0.060
-7.710E-06,0.060
-7.700E-06,0.040
-7.690E-06,0.060
-7.680E-06,0.020
-7.670E-06,0.020
-7.660E-06,0.040
-7.650E-06,0.020
-7.640E-06,0.040
-7.630E-06,0.060
-7.620E-06,0.060
-7.610E-06,0.020
-7.600E-06,0.040
-7.590E-06,0.020
-7.580E-06,0.020
-7.570E-06,0.040
-7.560E-06,0.020
-7.550E-06,0.040
-7.540E-06,0.020
-7.530E-06,0.040
-7.520E-06,0.040
-7.510E-06,0.020
-7.500E-06,0.060
-7.490E-06,0.040
-7.480E-06,0.020
-7.470E-06,0.040
-7.460E-06,0.080
-7.450E-06,0.000
-7.440E-06,0.040
-7.430E-06,0.020
-7.420E-06,0.060
-7.410E-06,0.040
-7.400E-06,0.080
-7.390E-06,0.060
-7.380E-06,0.060
-7.370E-06,0.040
-7.360E-06,0.060
-7.350E-06,0.060
-7.340E-06,0.040
-7.330E-06,0.020
-7.320E-06,0.040
-7.310E-06,0.040
-7.300E-06,0.020
-7.290E-06,0.040
-7.280E-06,0.060
-7.270E-06,0.020
-7.260E-06,0.020
-7.250E-06,0.040
-7.240E-06,0.040
-7.230E-06,0.040
-7.220E-06,0.040
-7.210E-06,0.060
-7.200E-06,0.060
-7.190E-06,0.060
-7.180E-06,0.040
-7.170E-06,0.020
-7.160E-06,0.020
-7.150E-06,0.060
-7.140E-06,0.060
-7.130E-06,0.040
-7.120E-06,0.060
-7.110E-06,0.000
-7.100E-06,0.020
-7.090E-06,0.060
-7.080E-06,0.020
-7.070E-06,0.020
-7.060E-06,0.020
-7.050E-06,0.060
-7.040E-06,0.060
-7.030E-06,0.020
-7.020E-06,0.020
-7.010E-06,0.040
-7.000E-06,0.040
-6.990E-06,0.020
-6.980E-06,0.060
-6.970E-06,0.060
-6.960E-06,0.040
-6.950E-06,0.060
-6.940E-06,0.080
-6.930E-06,0.040
-6.920E-06,0.040
-6.910E-06,0.040
-6.900E-06,0.060
-6.890E-06,0.060
-6.880E-06,0.040
-6.870E-06,0.060
-6.860E-06,0.040
-6.850E-06,0.060
-6.840E-06,0.060
-6.830E-06,0.040
-6.820E-06,-0.020
-6.810E-06,0.000
-6.800E-06,0.060
-6.790E-06,0.040
-6.780E-06,0.060
-6.770E-06,0.060
-6.760E-06,0.040
-6.750E-06,0.040
-6.740E-06,0.020
-6.730E-06,0.040
-6.720E-06,0.060
-6.710E-06,0.040
-6.700E-06,0.020
-6.690E-06,0.040
-6.680E-06,0.020
-6.670E-06,0.020
-6.660E-06,0.020
-6.650E-06,0.020
-6.640E-06,0.040
-6.630E-06,0.060
-6.620E-06,0.060
-6.610E-06,0.020
-6.600E-06,0.040
-6.590E-06,0.060
-6.580E-06,0.060
-6.570E-06,0.020
-6.560E-06,0.040
-6.550E-06,0.060
-6.540E-06,0.060
-6.530E-06,0.080
-6.520E-06,0.040
-6.510E-06,0.040
-6.500E-06,0.040
-6.490E-06,0.040
-6.480E-06,0.080
-6.470E-06,0.040
-6.460E-06,0.020
-6.450E-06,0.040
-6.440E-06,0.060
-6.430E-06,0.040
-6.420E-06,0.060
-6.410E-06,0.060
-6.400E-06,0.060
-6.390E-06,0.060
-6.380E-06,0.000
-6.370E-06,0.040
-6.360E-06,0.060
-6.350E-06,0.060
-6.340E-06,0.000
-6.330E-06,0.040
-6.320E-06,0.060
-6.310E-06,0.060
-6.300E-06,0.060
-6.290E-06,0.020
-6.280E-06,0.000
-6.270E-06,0.040
-6.260E-06,0.020
-6.250E-06,0.060
-6.240E-06,0.000
-6.230E-06,0.040
-6.220E-06,0.040
-6.210E-06,0.060
-6.200E-06,0.040
-6.190E-06,0.040
-6.180E-06,0.040
-6.170E-06,0.040
-6.160E-06,0.060
-6.150E-06,0.040
-6.140E-06,0.060
-6.130E-06,0.080
-6.120E-06,0.020
-6.110E-06,0.040
-6.100E-06,0.020
-6.090E-06,0.080
-6.080E-06,0.020
-6.070E-06,0.060
-6.060E-06,0.020
-6.050E-06,0.060
-6.040E-06,0.020
-6.030E-06,0.040
-6.020E-06,0.040
-6.010E-06,0.020
-6.000E-06,0.040
-5.990E-06,0.040
-5.980E-06,0.040
-5.970E-06,0.040
-5.960E-06,0.020
-5.950E-06,0.040
-5.940E-06,0.040
-5.930E-06,0.080
-5.920E-06,0.040
-5.910E-06,0.060
-5.900E-06,0.060
-5.890E-06,0.000
-5.880E-06,0.060
-5.870E-06,0.060
-5.860E-06,0.040
-5.850E-06,0.060
-5.840E-06,0.060
-5.830E-06,0.040
-5.820E-06,0.040
-5.810E-06,0.040
-5.800E-06,0.020
-5.790E-06,0.020
-5.780E-06,0.060
-5.770E-06,0.020
-5.760E-06,0.040
-5.750E-06,0.080
-5.740E-06,0.020
-5.730E-06,0.060
-5.720E-06,0.040
-5.710E-06,0.060
-5.700E-06,0.040
-5.690E-06,0.020
-5.680E-06,0.040
-5.670E-06,0.020
-5.660E-06,0.040
-5.650E-06,0.080
-5.640E-06,0.000
-5.630E-06,0.020
-5.620E-06,0.060
-5.610E-06,0.040
-5.600E-06,0.060
-5.590E-06,0.020
-5.580E-06,0.060
-5.570E-06,0.020
-5.560E-06,0.060
-5.550E-06,0.040
-5.540E-06,0.040
-5.530E-06,0.020
-5.520E-06,0.080
-5.510E-06,0.000
-5.500E-06,0.040
-5.490E-06,0.040
-5.480E-06,0.080
-5.470E-06,0.040
-5.460E-06,0.020
-5.450E-06,0.040
-5.440E-06,0.040
-5.430E-06,0.040
-5.420E-06,0.040
-5.410E-06,0.020
-5.400E-06,0.060
-5.390E-06,0.060
-5.380E-06,0.060
-5.370E-06,0.020
-5.360E-06,0.020
-5.350E-06,0.060
-5.340E-06,0.040
-5.330E-06,0.060
-5.320E-06,0.020
-5.310E-06,0.040
-5.300E-06,0.060
-5.290E-06,0.040
-5.280E-06,0.040
-5.270E-06,0.060
-5.260E-06,0.040
-5.250E-06,0.020
-5.240E-06,0.040
-5.230E-06,0.020
-5.220E-06,0.020
-5.210E-06,0.020
-5.200E-06,0.040
-5.190E-06,0.020
-5.180E-06,0.040
-5.170E-06,0.020
-5.160E-06,0.020
-5.150E-06,0.060
-5.140E-06,0.060
-5.130E-06,0.040
-5.120E-06,0.020
-5.110E-06,0.040
-5.100E-06,0.020
-5.090E-06,0.040
-5.080E-06,0.000
-5.070E-06,0.040
-5.060E-06,0.020
-5.050E-06,0.040
-5.040E-06,0.060
-5.030E-06,0.040
-5.020E-06,0.020
-5.010E-06,0.040
-5.000E-06,0.000
-4.990E-06,0.040
-4.980E-06,0.040
-4.970E-06,0.040
-4.960E-06,0.080
-4.950E-06,0.000
-4.940E-06,0.060
-4.930E-06,0.020
-4.920E-06,0.020
-4.910E-06,0.040
-4.900E-06,0.040
-4.890E-06,0.040
-4.880E-06,0.040
-4.870E-06,0.060
-4.860E-06,0.040
-4.850E-06,0.040
-4.840E-06,0.040
-4.830E-06,0.040
-4.820E-06,0.040
-4.810E-06,0.060
-4.800E-06,0.060
-4.790E-06,0.060
-4.780E-06,0.060
-4.770E-06,0.020
-4.760E-06,0.000
-4.750E-06,0.040
-4.740E-06,0.060
-4.730E-06,0.060
-4.720E-06,0.060
-4.710E-06,0.020
-4.700E-06,0.040
-4.690E-06,0.040
-4.680E-06,0.040
-4.670E-06,0.080
-4.660E-06,0.100
-4.650E-06,0.020
-4.640E-06,0.060
-4.630E-06,0.040
-4.620E-06,0.040
-4.610E-06,0.020
-4.600E-06,0.060
-4.590E-06,0.040
-4.580E-06,0.040
-4.570E-06,0.020
-4.560E-06,0.060
-4.550E-06,0.040
-4.540E-06,0.060
-4.530E-06,0.040
-4.520E-06,0.020
-4.510E-06,0.060
-4.500E-06,0.040
-4.490E-06,0.060
-4.480E-06,0.040
-4.470E-06,0.060
-4.460E-06,0.040
-4.450E-06,0.020
-4.440E-06,0.020
-4.430E-06,0.020
-4.420E-06,0.060
-4.410E-06,0.060
-4.400E-06,0.060
-4.390E-06,0.020
-4.380E-06,0.000
-4.370E-06,0.040
-4.360E-06,0.060
-4.350E-06,0.060
-4.340E-06,0.020
-4.330E-06,0.020
-4.320E-06,0.040
-4.310E-06,0.020
-4.300E-06,0.040
-4.290E-06,0.020
-4.280E-06,0.040
-4.270E-06,0.020
-4.260E-06,0.020
-4.250E-06,0.020
-4.240E-06,0.040
-4.230E-06,0.040
-4.220E-06,0.060
-4.210E-06,0.000
-4.200E-06,0.020
-4.190E-06,0.060
-4.180E-06,0.060
-4.170E-06,0.080
-4.160E-06,0.040
-4.150E-06,0.020
-4.140E-06,0.040
-4.130E-06,0.040
-4.120E-06,0.060
-4.110E-06,0.040
-4.100E-06,0.080
-4.090E-06,0.020
-4.080E-06,0.040
-4.070E-06,0.060
-4.060E-06,0.060
-4.050E-06,0.020
-4.040E-06,0.040
-4.030E-06,0.040
-4.020E-06,0.020
-4.010E-06,0.060
-4.000E-06,0.040
-3.990E-06,0.040
-3.980E-06,0.060
-3.970E-06,0.040
-3.960E-06,0.060
-3.950E-06,0.060
-3.940E-06,0.060
-3.930E-06,0.060
-3.920E-06,0.080
-3.910E-06,0.040
-3.900E-06,0.020
-3.890E-06,0.040
-3.880E-06,0.060
-3.870E-06,0.040
-3.860E-06,0.020
-3.850E-06,0.040
-3.840E-06,0.060
-3.830E-06,0.020
-3.820E-06,0.000
-3.810E-06,0.040
-3.800E-06,0.000
-3.790E-06,0.040
-3.780E-06,0.040
-3.770E-06,0.060
-3.760E-06,0.040
-3.750E-06,0.060
-3.740E-06,0.040
-3.730E-06,0.060
-3.720E-06,0.060
-3.710E-06,0.060
-3.700E-06,0.060
-3.690E-06,0.020
-3.680E-06,0.040
-3.670E-06,0.060
-3.660E-06,0.060
-3.650E-06,0.040
-3.640E-06,0.040
-3.630E-06,0.060
-3.620E-06,0.060
-3.610E-06,0.060
-3.600E-06,0.040
-3.590E-06,-0.020
-3.580E-06,0.040
-3.570E-06,0.040
-3.560E-06,0.060
-3.550E-06,0.020
-3.540E-06,0.060
-3.530E-06,0.060
-3.520E-06,0.000
-3.510E-06,-0.240
-3.500E-06,-0.860
-3.490E-06,-1.840
-3.480E-06,-2.820
-3.470E-06,-3.320
-3.460E-06,-2.700
-3.450E-06,-2.460
-3.440E-06,-1.700
-3.430E-06,0.600
-3.420E-06,1.260
-3.410E-06,2.100
-3.400E-06,2.080
-3.390E-06,2.060
-3.380E-06,2.080
-3.370E-06,2.100
-3.360E-06,2.080
-3.350E-06,2.080
-3.340E-06,1.360
-3.330E-06,0.100
-3.320E-06,-0.380
-3.310E-06,-0.720
-3.300E-06,-0.960
-3.290E-06,-0.520
-3.280E-06,-0.560
-3.270E-06,-0.420
-3.260E-06,-0.340
-3.250E-06,-0.360
-3.240E-06,-0.680
-3.230E-06,-1.140
-3.220E-06,-1.360
-3.210E-06,-1.660
-3.200E-06,-1.840
-3.190E-06,-1.840
-3.180E-06,-1.700
-3.170E-06,-1.360
-3.160E-06,-0.980
-3.150E-06,-0.280
-3.140E-06,0.360
-3.130E-06,1.000
-3.120E-06,1.480
-3.110E-06,1.780
-3.100E-06,1.780
-3.090E-06,1.620
-3.080E-06,1.340
-3.070E-06,0.920
-3.060E-06,0.460
-3.050E-06,-0.020
-3.040E-06,-0.380
-3.030E-06,-0.700
-3.020E-06,-0.940
-3.010E-06,-1.000
-3.000E-06,-0.960
-2.990E-06,-0.860
-2.980E-06,-0.700
-2.970E-06,-0.560
-2.960E-06,-0.380
-2.950E-06,-0.200
-2.940E-06,0.020
-2.930E-06,0.220
-2.920E-06,0.420
-2.910E-06,0.680
-2.900E-06,0.840
-2.890E-06,0.960
-2.880E-06,1.040
-2.870E-06,1.000
-2.860E-06,0.960
-2.850E-06,0.840
-2.840E-06,0.680
-2.830E-06,0.520
-2.820E-06,0.300
-2.810E-06,0.080
-2.800E-06,-0.120
-2.790E-06,-0.260
-2.780E-06,-0.400
-2.770E-06,-0.480
-2.760E-06,-0.540
-2.750E-06,-0.620
-2.740E-06,-0.660
-2.730E-06,-0.680
-2.720E-06,-0.680
-2.710E-06,-0.640
-2.700E-06,-0.500
-2.690E-06,-0.360
-2.680E-06,-0.180
-2.670E-06,0.100
-2.660E-06,0.340
-2.650E-06,0.560
-2.640E-06,0.700
-2.630E-06,0.840
-2.620E-06,0.920
-2.610E-06,0.880
-2.600E-06,0.800
-2.590E-06,0.660
-2.580E-06,0.460
-2.570E-06,0.260
-2.560E-06,0.020
-2.550E-06,-0.200
-2.540E-06,-0.360
-2.530E-06,-0.500
-2.520E-06,-0.560
-2.510E-06,-0.520
-2.500E-06,-0.520
-2.490E-06,-0.440
-2.480E-06,-0.340
-2.470E-06,-0.280
-2.460E-06,-0.200
-2.450E-06,-0.140
-2.440E-06,-0.040
-2.430E-06,0.000
-2.420E-06,0.040
-2.410E-06,0.060
-2.400E-06,0.080
-2.390E-06,0.080
-2.380E-06,0.120
-2.370E-06,0.160
-2.360E-06,0.180
-2.350E-06,0.160
-2.340E-06,0.180
-2.330E-06,0.160
-2.320E-06,0.120
-2.310E-06,0.000
-2.300E-06,-0.060
-2.290E-06,-0.160
-2.280E-06,-0.340
-2.270E-06,0.200
-2.260E-06,-0.340
-2.250E-06,0.220
-2.240E-06,-0.180
-2.230E-06,-0.240
-2.220E-06,0.080
-2.210E-06,-0.040
-2.200E-06,0.100
-2.190E-06,0.120
-2.180E-06,0.040
-2.170E-06,0.100
-2.160E-06,-0.020
-2.150E-06,0.000
-2.140E-06,-0.020
-2.130E-06,-0.120
-2.120E-06,-0.060
-2.110E-06,-0.100
-2.100E-06,-0.080
-2.090E-06,-0.040
-2.080E-06,-0.020
-2.070E-06,-0.080
-2.060E-06,-0.200
-2.050E-06,-0.160
-2.040E-06,-0.260
-2.030E-06,-0.260
-2.020E-06,-0.320
-2.010E-06,0.000
-2.000E-06,-0.280
-1.990E-06,-0.100
-1.980E-06,-0.340
-1.970E-06,0.100
-1.960E-06,-0.340
-1.950E-06,-0.140
-1.940E-06,-0.180
-1.930E-06,-0.200
-1.920E-06,-0.180
-1.910E-06,-0.140
-1.900E-06,-0.040
-1.890E-06,0.000
-1.880E-06,-0.040
-1.870E-06,0.000
-1.860E-06,0.000
-1.850E-06,0.000
-1.840E-06,0.100
-1.830E-06,0.000
-1.820E-06,0.000
-1.810E-06,-0.120
-1.800E-06,0.000
-1.790E-06,-0.220
-1.780E-06,0.240
-1.770E-06,-0.260
-1.760E-06,0.300
-1.750E-06,-0.200
-1.740E-06,0.220
-1.730E-06,-0.180
-1.720E-06,-0.060
-1.710E-06,-0.160
-1.700E-06,-0.160
-1.690E-06,-0.180
-1.680E-06,-0.160
-1.670E-06,-0.280
-1.660E-06,-0.180
-1.650E-06,-0.240
-1.640E-06,-0.020
-1.630E-06,0.320
-1.620E-06,0.760
-1.610E-06,1.320
-1.600E-06,1.560
-1.590E-06,1.480
-1.580E-06,1.360
-1.570E-06,0.680
-1.560E-06,0.520
-1.550E-06,-0.520
-1.540E-06,-0.660
-1.530E-06,-1.540
-1.520E-06,-1.380
-1.510E-06,-1.860
-1.500E-06,-1.800
-1.490E-06,-1.520
-1.480E-06,-1.180
-1.470E-06,-0.740
-1.460E-06,-0.440
-1.450E-06,-0.340
-1.440E-06,-0.220
-1.430E-06,-0.380
-1.420E-06,-0.100
-1.410E-06,-0.200
-1.400E-06,-0.120
-1.390E-06,-0.260
-1.380E-06,0.080
-1.370E-06,-0.080
-1.360E-06,0.520
-1.350E-06,0.000
-1.340E-06,0.120
-1.330E-06,-0.640
-1.320E-06,-0.260
-1.310E-06,-0.100
-1.300E-06,-0.500
-1.290E-06,-0.420
-1.280E-06,-1.340
-1.270E-06,-1.280
-1.260E-06,-1.960
-1.250E-06,-1.780
-1.240E-06,-1.580
-1.230E-06,-1.500
-1.220E-06,-1.320
-1.210E-06,-1.360
-1.200E-06,-1.280
-1.190E-06,-0.460
-1.180E-06,-0.620
-1.170E-06,0.320
-1.160E-06,0.300
-1.150E-06,0.880
-1.140E-06,0.900
-1.130E-06,0.980
-1.120E-06,0.860
-1.110E-06,0.820
-1.100E-06,0.500
-1.090E-06,0.420
-1.080E-06,0.240
-1.070E-06,0.120
-1.060E-06,0.000
-1.050E-06,-0.480
-1.040E-06,-0.780
-1.030E-06,-1.040
-1.020E-06,-1.340
-1.010E-06,-1.420
-1.000E-06,-1.180
-9.900E-07,-0.820
-9.800E-07,-0.740
-9.700E-07,-0.600
-9.600E-07,-0.440
-9.500E-07,-0.520
-9.400E-07,-0.160
-9.300E-07,-0.420
-9.200E-07,0.140
-9.100E-07,-0.160
-9.000E-07,0.420
-8.900E-07,0.060
-8.800E-07,0.220
-8.700E-07,-0.080
-8.600E-07,-0.280
-8.500E-07,-0.520
-8.400E-07,-0.860
-8.300E-07,-0.980
-8.200E-07,-1.280
-8.100E-07,-1.400
-8.000E-07,-1.600
-7.900E-07,-1.780
-7.800E-07,-1.600
-7.700E-07,-1.940
-7.600E-07,-1.660
-7.500E-07,-1.620
-7.400E-07,-1.380
-7.300E-07,-1.280
-7.200E-07,-1.100
-7.100E-07,-0.560
-7.000E-07,-0.460
-6.900E-07,-0.040
-6.800E-07,0.020
-6.700E-07,0.160
-6.600E-07,0.140
-6.500E-07,0.100
-6.400E-07,0.080
-6.300E-07,0.020
-6.200E-07,0.060
-6.100E-07,0.060
-6.000E-07,-0.140
-5.900E-07,-0.220
-5.800E-07,-0.520
-5.700E-07,-0.580
-5.600E-07,-0.260
-5.500E-07,-0.680
-5.400E-07,-0.360
-5.300E-07,-0.720
-5.200E-07,-0.760
-5.100E-07,-0.540
-5.000E-07,-0.680
-4.900E-07,-0.540
-4.800E-07,-0.560
-4.700E-07,-0.500
-4.600E-07,-0.420
-4.500E-07,-0.500
-4.400E-07,-0.500
-4.300E-07,-0.720
-4.200E-07,-0.380
-4.100E-07,-0.860
-4.000E-07,-0.500
-3.900E-07,-0.940
-3.800E-07,-0.900
-3.700E-07,-1.120
-3.600E-07,-1.320
-3.500E-07,-1.420
-3.400E-07,-1.560
-3.300E-07,-1.540
-3.200E-07,-1.620
-3.100E-07,-1.720
-3.000E-07,-1.700
-2.900E-07,-1.700
-2.800E-07,-1.680
-2.700E-07,-1.600
-2.600E-07,-1.440
-2.500E-07,-1.540
-2.400E-07,-1.520
-2.300E-07,-1.160
-2.200E-07,-1.400
-2.100E-07,-1.020
-2.000E-07,-1.360
-1.900E-07,-0.940
-1.800E-07,-0.980
-1.700E-07,-0.780
-1.600E-07,-0.500
-1.500E-07,-0.260
-1.400E-07,-0.160
-1.300E-07,-0.260
-1.200E-07,-0.600
-1.100E-07,-0.700
-1.000E-07,-1.200
-9.000E-08,-1.400
-8.000E-08,-1.680
-7.000E-08,-1.400
-6.000E-08,-0.980
-5.000E-08,-0.560
-4.000E-08,-0.360
-3.000E-08,-0.600
-2.000E-08,-0.980
-1.000E-08,-1.540
0.000E+00,-2.020
1.000E-08,-2.240
2.000E-08,-1.820
3.000E-08,-2.120
4.000E-08,-1.880
5.000E-08,-1.620
6.000E-08,-1.520
7.000E-08,-1.180
8.000E-08,-1.900
9.000E-08,-1.400
1.000E-07,-2.240
1.100E-07,-1.440
1.200E-07,-1.880
1.300E-07,-1.760
1.400E-07,-2.200
1.500E-07,-2.860
1.600E-07,-3.340
1.700E-07,-3.340
1.800E-07,-3.340
1.900E-07,-3.200
2.000E-07,-3.360
2.100E-07,-3.340
2.200E-07,-3.340
2.300E-07,-3.340
2.400E-07,-3.340
2.500E-07,-3.340
2.600E-07,-3.340
2.700E-07,-3.360
2.800E-07,-3.340
2.900E-07,-3.040
3.000E-07,-3.320
3.100E-07,-3.240
3.200E-07,-3.340
3.300E-07,-3.160
3.400E-07,-2.460
3.500E-07,-1.840
3.600E-07,-0.740
3.700E-07,-0.200
3.800E-07,0.460
3.900E-07,0.980
4.000E-07,1.240
4.100E-07,1.400
4.200E-07,1.500
4.300E-07,1.640
4.400E-07,1.880
4.500E-07,1.840
4.600E-07,1.880
4.700E-07,1.460
4.800E-07,1.440
4.900E-07,1.080
5.000E-07,1.120
5.100E-07,0.880
5.200E-07,0.680
5.300E-07,0.500
5.400E-07,0.300
5.500E-07,0.000
5.600E-07,-0.220
5.700E-07,-0.420
5.800E-07,-0.460
5.900E-07,-0.520
6.000E-07,-0.680
6.100E-07,-0.840
6.200E-07,-1.120
6.300E-07,-1.600
6.400E-07,-1.940
6.500E-07,-2.620
6.600E-07,-2.920
6.700E-07,-3.340
6.800E-07,-3.340
6.900E-07,-3.360
7.000E-07,-3.340
7.100E-07,-3.340
7.200E-07,-3.320
7.300E-07,-3.340
7.400E-07,-3.340
7.500E-07,-3.340
7.600E-07,-3.340
7.700E-07,-3.340
7.800E-07,-3.340
7.900E-07,-3.320
8.000E-07,-3.320
8.100E-07,-3.340
8.200E-07,-3.340
8.300E-07,-3.320
8.400E-07,-3.240
8.500E-07,-3.120
8.600E-07,-2.980
8.700E-07,-2.760
8.800E-07,-2.520
8.900E-07,-2.440
9.000E-07,-2.280
9.100E-07,-2.300
9.200E-07,-2.120
9.300E-07,-2.000
9.400E-07,-1.880
9.500E-07,-1.600
9.600E-07,-1.400
9.700E-07,-1.260
9.800E-07,-1.020
9.900E-07,-0.860
1.000E-06,-0.520
1.010E-06,-0.440
1.020E-06,-0.200
1.030E-06,-0.180
1.040E-06,0.200
1.050E-06,0.140
1.060E-06,0.360
1.070E-06,0.420
1.080E-06,0.480
1.090E-06,0.500
1.100E-06,0.540
1.110E-06,0.640
1.120E-06,0.540
1.130E-06,0.660
1.140E-06,0.440
1.150E-06,0.620
1.160E-06,0.400
1.170E-06,0.360
1.180E-06,0.300
1.190E-06,0.240
1.200E-06,0.240
1.210E-06,0.060
1.220E-06,0.220
1.230E-06,0.020
1.240E-06,0.200
1.250E-06,0.080
1.260E-06,0.080
1.270E-06,0.040
1.280E-06,0.020
1.290E-06,-0.040
1.300E-06,-0.100
1.310E-06,-0.240
1.320E-06,-0.040
1.330E-06,-0.240
1.340E-06,-0.200
1.350E-06,-0.420
1.360E-06,-0.320
1.370E-06,-0.460
1.380E-06,-0.460
1.390E-06,-0.440
1.400E-06,-0.340
1.410E-06,-0.400
1.420E-06,-0.340
1.430E-06,-0.340
1.440E-06,-0.200
1.450E-06,-0.240
1.460E-06,-0.220
1.470E-06,-0.140
1.480E-06,-0.360
1.490E-06,-0.100
1.500E-06,-0.180
1.510E-06,-0.120
1.520E-06,0.000
1.530E-06,-0.020
1.540E-06,0.060
1.550E-06,-0.120
1.560E-06,-0.200
1.570E-06,-0.560
1.580E-06,-0.680
1.590E-06,-0.580
1.600E-06,-0.440
1.610E-06,-0.340
1.620E-06,-0.420
1.630E-06,-0.420
1.640E-06,-0.520
1.650E-06,-0.360
1.660E-06,-0.300
1.670E-06,-0.360
1.680E-06,-0.020
1.690E-06,0.100
1.700E-06,0.140
1.710E-06,0.020
1.720E-06,0.200
1.730E-06,0.260
1.740E-06,0.340
1.750E-06,0.280
1.760E-06,0.360
1.770E-06,0.340
1.780E-06,0.300
1.790E-06,0.240
1.800E-06,0.240
1.810E-06,0.200
1.820E-06,0.220
1.830E-06,0.240
1.840E-06,0.240
1.850E-06,0.340
1.860E-06,0.340
1.870E-06,0.320
1.880E-06,0.300
1.890E-06,0.280
1.900E-06,0.280
1.910E-06,0.340
1.920E-06,0.300
1.930E-06,0.320
1.940E-06,0.320
1.950E-06,0.260
1.960E-06,0.260
1.970E-06,0.260
1.980E-06,0.340
1.990E-06,0.400
2.000E-06,0.560
2.010E-06,0.660
2.020E-06,0.680
2.030E-06,0.660
2.040E-06,0.680
2.050E-06,0.660
2.060E-06,0.580
2.070E-06,0.560
2.080E-06,0.520
2.090E-06,0.480
2.100E-06,0.440
2.110E-06,0.420
2.120E-06,0.440
2.130E-06,0.440
2.140E-06,0.480
2.150E-06,0.500
2.160E-06,0.500
2.170E-06,0.560
2.180E-06,0.560
2.190E-06,0.540
2.200E-06,0.500
2.210E-06,0.520
2.220E-06,0.480
2.230E-06,0.420
2.240E-06,0.500
2.250E-06,0.460
2.260E-06,0.480
2.270E-06,0.320
2.280E-06,0.420
2.290E-06,0.260
2.300E-06,0.320
2.310E-06,0.200
2.320E-06,0.280
2.330E-06,0.260
2.340E-06,0.220
2.350E-06,0.200
2.360E-06,0.120
2.370E-06,0.100
2.380E-06,0.020
2.390E-06,0.000
2.400E-06,0.000
2.410E-06,-0.040
2.420E-06,-0.060
2.430E-06,-0.040
2.440E-06,-0.020
2.450E-06,0.000
2.460E-06,0.100
2.470E-06,0.100
2.480E-06,0.040
2.490E-06,0.120
2.500E-06,0.040
2.510E-06,0.060
2.520E-06,0.080
2.530E-06,0.040
2.540E-06,0.080
2.550E-06,0.000
2.560E-06,0.020
2.570E-06,-0.020
2.580E-06,0.000
2.590E-06,0.060
2.600E-06,0.160
2.610E-06,0.300
2.620E-06,0.500
2.630E-06,0.700
2.640E-06,0.860
2.650E-06,1.060
2.660E-06,1.140
2.670E-06,1.200
2.680E-06,1.240
2.690E-06,1.260
2.700E-06,1.260
2.710E-06,1.260
2.720E-06,1.180
2.730E-06,1.160
2.740E-06,1.080
2.750E-06,1.000
2.760E-06,0.840
2.770E-06,0.720
2.780E-06,0.560
2.790E-06,0.440
2.800E-06,0.300
2.810E-06,0.180
2.820E-06,0.080
2.830E-06,0.000
2.840E-06,-0.020
2.850E-06,-0.040
2.860E-06,-0.020
2.870E-06,-0.080
2.880E-06,-0.020
2.890E-06,-0.120
2.900E-06,-0.040
2.910E-06,-0.160
2.920E-06,-0.100
2.930E-06,-0.160
2.940E-06,-0.180
2.950E-06,-0.140
2.960E-06,-0.180
2.970E-06,-0.180
2.980E-06,-0.200
2.990E-06,-0.180
3.000E-06,-0.240
3.010E-06,-0.260
3.020E-06,-0.240
3.030E-06,-0.220
3.040E-06,-0.220
3.050E-06,-0.160
3.060E-06,-0.100
3.070E-06,-0.020
3.080E-06,0.080
3.090E-06,0.200
3.100E-06,0.360
3.110E-06,0.420
3.120E-06,0.520
3.130E-06,0.660
3.140E-06,0.780
3.150E-06,0.940
3.160E-06,1.020
3.170E-06,1.160
3.180E-06,1.260
3.190E-06,1.360
3.200E-06,1.360
3.210E-06,1.300
3.220E-06,1.240
3.230E-06,1.140
3.240E-06,1.040
3.250E-06,0.940
3.260E-06,0.800
3.270E-06,0.700
3.280E-06,0.600
3.290E-06,0.500
3.300E-06,0.500
3.310E-06,0.420
3.320E-06,0.320
3.330E-06,0.240
