mediciones/curva carac 8-28 limpias/-19/WaveData65727.csv

#timebase=2000000(ps)
,#voltbase=500000(mv/100)
#size=4000
-8.350E-06,0.000
-8.340E-06,0.000
-8.330E-06,-0.040
-8.320E-06,-0.060
-8.310E-06,-0.060
-8.300E-06,-0.080
-8.290E-06,-0.100
-8.280E-06,-0.080
-8.270E-06,-0.080
-8.260E-06,-0.040
-8.250E-06,0.000
-8.240E-06,-0.020
-8.230E-06,0.000
-8.220E-06,0.040
-8.210E-06,0.000
-8.200E-06,0.000
-8.190E-06,0.000
-8.180E-06,-0.020
-8.170E-06,-0.020
-8.160E-06,0.000
-8.150E-06,-0.020
-8.140E-06,0.040
-8.130E-06,0.060
-8.120E-06,0.120
-8.110E-06,0.140
-8.100E-06,0.140
-8.090E-06,0.180
-8.080E-06,0.220
-8.070E-06,0.180
-8.060E-06,0.200
-8.050E-06,0.200
-8.040E-06,0.100
-8.030E-06,0.100
-8.020E-06,0.020
-8.010E-06,0.000
-8.000E-06,-0.020
-7.990E-06,-0.120
-7.980E-06,-0.120
-7.970E-06,-0.160
-7.960E-06,-0.180
-7.950E-06,-0.160
-7.940E-06,-0.140
-7.930E-06,-0.120
-7.920E-06,-0.120
-7.910E-06,-0.080
-7.900E-06,-0.020
-7.890E-06,-0.020
-7.880E-06,-0.020
-7.870E-06,0.040
-7.860E-06,0.040
-7.850E-06,0.080
-7.840E-06,0.120
-7.830E-06,0.140
-7.820E-06,0.160
-7.810E-06,0.120
-7.800E-06,0.180
-7.790E-06,0.120
-7.780E-06,0.140
-7.770E-06,0.100
-7.760E-06,0.060
-7.750E-06,0.020
-7.740E-06,0.060
-7.730E-06,0.020
-7.720E-06,-0.020
-7.710E-06,-0.020
-7.700E-06,-0.060
-7.690E-06,-0.060
-7.680E-06,-0.060
-7.670E-06,-0.080
-7.660E-06,-0.080
-7.650E-06,-0.020
-7.640E-06,-0.020
-7.630E-06,0.040
-7.620E-06,0.040
-7.610E-06,0.080
-7.600E-06,0.100
-7.590E-06,0.080
-7.580E-06,0.100
-7.570E-06,0.180
-7.560E-06,0.140
-7.550E-06,0.100
-7.540E-06,0.100
-7.530E-06,0.100
-7.520E-06,0.120
-7.510E-06,0.100
-7.500E-06,0.160
-7.490E-06,0.300
-7.480E-06,0.640
-7.470E-06,1.140
-7.460E-06,1.580
-7.450E-06,1.820
-7.440E-06,1.780
-7.430E-06,1.440
-7.420E-06,0.840
-7.410E-06,0.240
-7.400E-06,-0.440
-7.390E-06,-1.040
-7.380E-06,-1.440
-7.370E-06,-1.720
-7.360E-06,-1.780
-7.350E-06,-1.820
-7.340E-06,-1.660
-7.330E-06,-1.360
-7.320E-06,-1.000
-7.310E-06,-0.620
-7.300E-06,-0.420
-7.290E-06,-0.240
-7.280E-06,-0.120
-7.270E-06,-0.020
-7.260E-06,0.080
-7.250E-06,0.180
-7.240E-06,0.300
-7.230E-06,0.380
-7.220E-06,0.520
-7.210E-06,0.660
-7.200E-06,0.760
-7.190E-06,0.900
-7.180E-06,0.920
-7.170E-06,0.940
-7.160E-06,0.840
-7.150E-06,0.700
-7.140E-06,0.500
-7.130E-06,0.300
-7.120E-06,0.020
-7.110E-06,-0.240
-7.100E-06,-0.480
-7.090E-06,-0.720
-7.080E-06,-0.840
-7.070E-06,-0.880
-7.060E-06,-0.800
-7.050E-06,-0.600
-7.040E-06,-0.280
-7.030E-06,-0.020
-7.020E-06,0.320
-7.010E-06,0.600
-7.000E-06,0.820
-6.990E-06,0.980
-6.980E-06,1.020
-6.970E-06,0.980
-6.960E-06,0.880
-6.950E-06,0.700
-6.940E-06,0.500
-6.930E-06,0.260
-6.920E-06,0.000
-6.910E-06,-0.200
-6.900E-06,-0.360
-6.890E-06,-0.500
-6.880E-06,-0.560
-6.870E-06,-0.540
-6.860E-06,-0.520
-6.850E-06,-0.440
-6.840E-06,-0.380
-6.830E-06,-0.340
-6.820E-06,-0.260
-6.810E-06,-0.220
-6.800E-06,-0.200
-6.790E-06,-0.180
-6.780E-06,-0.140
-6.770E-06,-0.120
-6.760E-06,-0.100
-6.750E-06,0.040
-6.740E-06,0.080
-6.730E-06,0.200
-6.720E-06,0.320
-6.710E-06,0.420
-6.700E-06,0.480
-6.690E-06,0.500
-6.680E-06,0.420
-6.670E-06,0.340
-6.660E-06,0.220
-6.650E-06,0.020
-6.640E-06,-0.140
-6.630E-06,-0.280
-6.620E-06,-0.460
-6.610E-06,-0.520
-6.600E-06,-0.580
-6.590E-06,-0.520
-6.580E-06,-0.460
-6.570E-06,-0.340
-6.560E-06,-0.180
-6.550E-06,-0.040
-6.540E-06,0.100
-6.530E-06,0.240
-6.520E-06,0.320
-6.510E-06,0.420
-6.500E-06,0.440
-6.490E-06,0.420
-6.480E-06,0.400
-6.470E-06,0.360
-6.460E-06,0.240
-6.450E-06,0.140
-6.440E-06,0.060
-6.430E-06,-0.020
-6.420E-06,0.000
-6.410E-06,-0.020
-6.400E-06,-0.060
-6.390E-06,-0.020
-6.380E-06,0.040
-6.370E-06,0.040
-6.360E-06,0.040
-6.350E-06,0.060
-6.340E-06,0.040
-6.330E-06,0.040
-6.320E-06,0.000
-6.310E-06,-0.020
-6.300E-06,-0.020
-6.290E-06,-0.080
-6.280E-06,-0.040
-6.270E-06,-0.040
-6.260E-06,-0.040
-6.250E-06,0.060
-6.240E-06,0.060
-6.230E-06,0.080
-6.220E-06,0.120
-6.210E-06,0.120
-6.200E-06,0.100
-6.190E-06,0.120
-6.180E-06,0.080
-6.170E-06,0.040
-6.160E-06,-0.020
-6.150E-06,0.000
-6.140E-06,-0.060
-6.130E-06,-0.060
-6.120E-06,-0.080
-6.110E-06,-0.080
-6.100E-06,-0.060
-6.090E-06,-0.040
-6.080E-06,0.000
-6.070E-06,0.020
-6.060E-06,0.100
-6.050E-06,0.080
-6.040E-06,0.100
-6.030E-06,0.120
-6.020E-06,0.100
-6.010E-06,0.100
-6.000E-06,0.080
-5.990E-06,0.100
-5.980E-06,0.080
-5.970E-06,0.040
-5.960E-06,0.020
-5.950E-06,0.040
-5.940E-06,0.060
-5.930E-06,0.060
-5.920E-06,0.100
-5.910E-06,0.120
-5.900E-06,0.120
-5.890E-06,0.160
-5.880E-06,0.160
-5.870E-06,0.160
-5.860E-06,0.140
-5.850E-06,0.120
-5.840E-06,0.080
-5.830E-06,0.080
-5.820E-06,0.040
-5.810E-06,0.000
-5.800E-06,0.000
-5.790E-06,-0.040
-5.780E-06,-0.040
-5.770E-06,-0.020
-5.760E-06,-0.020
-5.750E-06,0.000
-5.740E-06,0.000
-5.730E-06,0.000
-5.720E-06,0.040
-5.710E-06,0.060
-5.700E-06,0.060
-5.690E-06,0.060
-5.680E-06,0.080
-5.670E-06,0.100
-5.660E-06,0.120
-5.650E-06,0.100
-5.640E-06,0.100
-5.630E-06,0.080
-5.620E-06,0.120
-5.610E-06,0.100
-5.600E-06,0.120
-5.590E-06,0.080
-5.580E-06,0.100
-5.570E-06,0.100
-5.560E-06,0.100
-5.550E-06,0.100
-5.540E-06,0.060
-5.530E-06,0.040
-5.520E-06,0.020
-5.510E-06,0.000
-5.500E-06,0.000
-5.490E-06,0.020
-5.480E-06,0.000
-5.470E-06,-0.020
-5.460E-06,0.000
-5.450E-06,0.020
-5.440E-06,0.060
-5.430E-06,0.060
-5.420E-06,0.080
-5.410E-06,0.080
-5.400E-06,0.120
-5.390E-06,0.140
-5.380E-06,0.140
-5.370E-06,0.120
-5.360E-06,0.120
-5.350E-06,0.100
-5.340E-06,0.100
-5.330E-06,0.060
-5.320E-06,0.060
-5.310E-06,0.040
-5.300E-06,0.000
-5.290E-06,0.000
-5.280E-06,0.000
-5.270E-06,-0.020
-5.260E-06,0.020
-5.250E-06,0.020
-5.240E-06,-0.020
-5.230E-06,0.000
-5.220E-06,0.000
-5.210E-06,0.000
-5.200E-06,0.040
-5.190E-06,0.020
-5.180E-06,0.040
-5.170E-06,0.020
-5.160E-06,0.040
-5.150E-06,0.020
-5.140E-06,0.020
-5.130E-06,0.040
-5.120E-06,0.040
-5.110E-06,0.080
-5.100E-06,0.080
-5.090E-06,0.080
-5.080E-06,0.080
-5.070E-06,0.080
-5.060E-06,0.120
-5.050E-06,0.140
-5.040E-06,0.080
-5.030E-06,0.120
-5.020E-06,0.100
-5.010E-06,0.080
-5.000E-06,0.080
-4.990E-06,0.040
-4.980E-06,0.040
-4.970E-06,0.040
-4.960E-06,0.060
-4.950E-06,0.040
-4.940E-06,0.060
-4.930E-06,0.040
-4.920E-06,-0.020
-4.910E-06,0.000
-4.900E-06,-0.020
-4.890E-06,0.020
-4.880E-06,-0.020
-4.870E-06,0.000
-4.860E-06,-0.020
-4.850E-06,-0.020
-4.840E-06,0.040
-4.830E-06,0.000
-4.820E-06,0.060
-4.810E-06,0.040
-4.800E-06,0.100
-4.790E-06,0.120
-4.780E-06,0.080
-4.770E-06,0.080
-4.760E-06,0.060
-4.750E-06,0.040
-4.740E-06,0.060
-4.730E-06,0.060
-4.720E-06,0.020
-4.710E-06,0.040
-4.700E-06,0.020
-4.690E-06,0.000
-4.680E-06,0.020
-4.670E-06,-0.020
-4.660E-06,0.000
-4.650E-06,0.020
-4.640E-06,0.020
-4.630E-06,0.040
-4.620E-06,0.060
-4.610E-06,0.040
-4.600E-06,0.000
-4.590E-06,0.060
-4.580E-06,0.020
-4.570E-06,0.080
-4.560E-06,0.060
-4.550E-06,0.080
-4.540E-06,0.080
-4.530E-06,0.060
-4.520E-06,0.040
-4.510E-06,0.060
-4.500E-06,0.040
-4.490E-06,0.060
-4.480E-06,0.020
-4.470E-06,-0.020
-4.460E-06,0.000
-4.450E-06,-0.040
-4.440E-06,-0.040
-4.430E-06,-0.040
-4.420E-06,-0.020
-4.410E-06,-0.020
-4.400E-06,-0.020
-4.390E-06,0.000
-4.380E-06,0.000
-4.370E-06,0.020
-4.360E-06,0.040
-4.350E-06,0.040
-4.340E-06,0.100
-4.330E-06,0.080
-4.320E-06,0.080
-4.310E-06,0.120
-4.300E-06,0.080
-4.290E-06,0.080
-4.280E-06,0.060
-4.270E-06,0.100
-4.260E-06,0.100
-4.250E-06,0.080
-4.240E-06,0.040
-4.230E-06,0.040
-4.220E-06,0.020
-4.210E-06,0.020
-4.200E-06,-0.020
-4.190E-06,0.000
-4.180E-06,-0.020
-4.170E-06,-0.060
-4.160E-06,0.000
-4.150E-06,0.000
-4.140E-06,0.000
-4.130E-06,0.020
-4.120E-06,-0.020
-4.110E-06,-0.020
-4.100E-06,0.020
-4.090E-06,0.040
-4.080E-06,0.060
-4.070E-06,0.060
-4.060E-06,0.020
-4.050E-06,0.020
-4.040E-06,0.040
-4.030E-06,0.000
-4.020E-06,-0.020
-4.010E-06,-0.020
-4.000E-06,-0.060
-3.990E-06,0.000
-3.980E-06,-0.080
-3.970E-06,-0.080
-3.960E-06,-0.060
-3.950E-06,0.080
-3.940E-06,-0.160
-3.930E-06,0.080
-3.920E-06,-0.060
-3.910E-06,0.060
-3.900E-06,0.020
-3.890E-06,-0.040
-3.880E-06,0.060
-3.870E-06,0.000
-3.860E-06,0.100
-3.850E-06,0.080
-3.840E-06,0.060
-3.830E-06,0.080
-3.820E-06,0.080
-3.810E-06,0.020
-3.800E-06,0.020
-3.790E-06,0.020
-3.780E-06,0.040
-3.770E-06,0.020
-3.760E-06,0.020
-3.750E-06,-0.020
-3.740E-06,-0.040
-3.730E-06,-0.020
-3.720E-06,-0.160
-3.710E-06,-0.180
-3.700E-06,-0.240
-3.690E-06,-0.360
-3.680E-06,-0.020
-3.670E-06,-0.380
-3.660E-06,0.100
-3.650E-06,-0.160
-3.640E-06,-0.220
-3.630E-06,-0.040
-3.620E-06,-0.180
-3.610E-06,-0.080
-3.600E-06,-0.040
-3.590E-06,-0.040
-3.580E-06,0.060
-3.570E-06,0.020
-3.560E-06,0.100
-3.550E-06,0.080
-3.540E-06,0.140
-3.530E-06,0.120
-3.520E-06,0.140
-3.510E-06,0.100
-3.500E-06,0.140
-3.490E-06,0.100
-3.480E-06,0.100
-3.470E-06,0.080
-3.460E-06,0.020
-3.450E-06,0.080
-3.440E-06,0.020
-3.430E-06,0.000
-3.420E-06,0.000
-3.410E-06,-0.020
-3.400E-06,-0.020
-3.390E-06,0.000
-3.380E-06,0.000
-3.370E-06,0.060
-3.360E-06,0.020
-3.350E-06,0.060
-3.340E-06,0.000
-3.330E-06,-0.100
-3.320E-06,-0.100
-3.310E-06,-0.260
-3.300E-06,0.180
-3.290E-06,-0.320
-3.280E-06,0.180
-3.270E-06,-0.280
-3.260E-06,0.020
-3.250E-06,-0.140
-3.240E-06,-0.080
-3.230E-06,-0.080
-3.220E-06,-0.120
-3.210E-06,-0.060
-3.200E-06,-0.140
-3.190E-06,-0.160
-3.180E-06,-0.180
-3.170E-06,-0.180
-3.160E-06,-0.160
-3.150E-06,-0.280
-3.140E-06,-0.180
-3.130E-06,-0.160
-3.120E-06,-0.140
-3.110E-06,-0.080
-3.100E-06,0.040
-3.090E-06,0.040
-3.080E-06,0.120
-3.070E-06,0.120
-3.060E-06,0.000
-3.050E-06,-0.180
-3.040E-06,-0.020
-3.030E-06,-0.260
-3.020E-06,-0.100
-3.010E-06,-0.180
-3.000E-06,0.060
-2.990E-06,-0.120
-2.980E-06,-0.040
-2.970E-06,-0.140
-2.960E-06,-0.080
-2.950E-06,-0.140
-2.940E-06,-0.120
-2.930E-06,-0.100
-2.920E-06,-0.120
-2.910E-06,-0.180
-2.900E-06,-0.180
-2.890E-06,-0.240
-2.880E-06,-0.120
-2.870E-06,-0.220
-2.860E-06,0.080
-2.850E-06,-0.180
-2.840E-06,0.160
-2.830E-06,-0.120
-2.820E-06,0.080
-2.810E-06,-0.160
-2.800E-06,-0.060
-2.790E-06,-0.040
-2.780E-06,0.040
-2.770E-06,0.100
-2.760E-06,0.100
-2.750E-06,0.080
-2.740E-06,-0.040
-2.730E-06,-0.220
-2.720E-06,-0.280
-2.710E-06,-0.400
-2.700E-06,-0.120
-2.690E-06,-0.440
-2.680E-06,-0.080
-2.670E-06,-0.380
-2.660E-06,-0.140
-2.650E-06,-0.240
-2.640E-06,-0.160
-2.630E-06,0.020
-2.620E-06,0.060
-2.610E-06,0.020
-2.600E-06,-0.040
-2.590E-06,-0.160
-2.580E-06,-0.140
-2.570E-06,-0.200
-2.560E-06,-0.120
-2.550E-06,-0.100
-2.540E-06,-0.140
-2.530E-06,-0.140
-2.520E-06,-0.220
-2.510E-06,-0.240
-2.500E-06,-0.120
-2.490E-06,-0.160
-2.480E-06,0.060
-2.470E-06,-0.120
-2.460E-06,0.080
-2.450E-06,-0.200
-2.440E-06,-0.120
-2.430E-06,-0.380
-2.420E-06,-0.240
-2.410E-06,-0.400
-2.400E-06,-0.320
-2.390E-06,-0.400
-2.380E-06,-0.400
-2.370E-06,-0.380
-2.360E-06,-0.420
-2.350E-06,-0.420
-2.340E-06,-0.400
-2.330E-06,-0.380
-2.320E-06,-0.280
-2.310E-06,-0.260
-2.300E-06,-0.200
-2.290E-06,-0.260
-2.280E-06,-0.280
-2.270E-06,-0.060
-2.260E-06,-0.240
-2.250E-06,0.100
-2.240E-06,-0.160
-2.230E-06,0.000
-2.220E-06,-0.100
-2.210E-06,-0.100
-2.200E-06,-0.100
-2.190E-06,-0.100
-2.180E-06,-0.040
-2.170E-06,-0.040
-2.160E-06,-0.160
-2.150E-06,-0.120
-2.140E-06,-0.200
-2.130E-06,-0.160
-2.120E-06,-0.100
-2.110E-06,-0.180
-2.100E-06,-0.120
-2.090E-06,-0.220
-2.080E-06,-0.280
-2.070E-06,-0.120
-2.060E-06,-0.040
-2.050E-06,0.000
-2.040E-06,0.040
-2.030E-06,-0.020
-2.020E-06,-0.060
-2.010E-06,-0.040
-2.000E-06,-0.260
-1.990E-06,-0.040
-1.980E-06,-0.320
-1.970E-06,-0.160
-1.960E-06,-0.460
-1.950E-06,-0.320
-1.940E-06,-0.680
-1.930E-06,-0.700
-1.920E-06,-0.820
-1.910E-06,-0.800
-1.900E-06,-0.940
-1.890E-06,-0.880
-1.880E-06,-0.940
-1.870E-06,-0.840
-1.860E-06,-0.980
-1.850E-06,-0.660
-1.840E-06,-1.020
-1.830E-06,-0.840
-1.820E-06,-1.000
-1.810E-06,-0.960
-1.800E-06,-0.940
-1.790E-06,-0.880
-1.780E-06,-0.740
-1.770E-06,-0.600
-1.760E-06,-0.360
-1.750E-06,-0.360
-1.740E-06,-0.260
-1.730E-06,-0.320
-1.720E-06,-0.320
-1.710E-06,-0.340
-1.700E-06,-0.400
-1.690E-06,-0.460
-1.680E-06,-0.520
-1.670E-06,-0.540
-1.660E-06,-0.520
-1.650E-06,-0.520
-1.640E-06,-0.600
-1.630E-06,-0.380
-1.620E-06,-0.560
-1.610E-06,-0.160
-1.600E-06,-0.420
-1.590E-06,-0.020
-1.580E-06,-0.340
-1.570E-06,0.060
-1.560E-06,-0.200
-1.550E-06,0.000
-1.540E-06,-0.060
-1.530E-06,0.000
-1.520E-06,0.120
-1.510E-06,0.000
-1.500E-06,0.100
-1.490E-06,0.060
-1.480E-06,0.020
-1.470E-06,0.060
-1.460E-06,-0.100
-1.450E-06,-0.040
-1.440E-06,-0.080
-1.430E-06,-0.020
-1.420E-06,-0.100
-1.410E-06,-0.020
-1.400E-06,0.020
-1.390E-06,0.060
-1.380E-06,-0.020
-1.370E-06,-0.020
-1.360E-06,-0.080
-1.350E-06,-0.120
-1.340E-06,-0.180
-1.330E-06,-0.200
-1.320E-06,-0.180
-1.310E-06,-0.180
-1.300E-06,-0.240
-1.290E-06,-0.280
-1.280E-06,-0.340
-1.270E-06,-0.460
-1.260E-06,-0.620
-1.250E-06,-0.700
-1.240E-06,-0.720
-1.230E-06,-0.680
-1.220E-06,-0.700
-1.210E-06,-0.440
-1.200E-06,-0.600
-1.190E-06,-0.300
-1.180E-06,-0.480
-1.170E-06,-0.400
-1.160E-06,-0.340
-1.150E-06,-0.300
-1.140E-06,-0.140
-1.130E-06,-0.120
-1.120E-06,-0.160
-1.110E-06,-0.120
-1.100E-06,-0.160
-1.090E-06,-0.180
-1.080E-06,-0.200
-1.070E-06,-0.240
-1.060E-06,-0.240
-1.050E-06,-0.140
-1.040E-06,-0.080
-1.030E-06,-0.040
-1.020E-06,-0.160
-1.010E-06,-0.140
-1.000E-06,-0.340
-9.900E-07,-0.040
-9.800E-07,-0.400
-9.700E-07,-0.080
-9.600E-07,-0.560
-9.500E-07,-0.240
-9.400E-07,-0.600
-9.300E-07,-0.480
-9.200E-07,-0.580
-9.100E-07,-0.660
-9.000E-07,-0.600
-8.900E-07,-0.680
-8.800E-07,-0.660
-8.700E-07,-0.740
-8.600E-07,-0.720
-8.500E-07,-0.800
-8.400E-07,-0.840
-8.300E-07,-0.940
-8.200E-07,-1.080
-8.100E-07,-1.060
-8.000E-07,-0.980
-7.900E-07,-0.980
-7.800E-07,-1.180
-7.700E-07,-0.960
-7.600E-07,-1.360
-7.500E-07,-1.340
-7.400E-07,-1.200
-7.300E-07,-1.440
-7.200E-07,-1.020
-7.100E-07,-1.340
-7.000E-07,-1.320
-6.900E-07,-1.240
-6.800E-07,-1.340
-6.700E-07,-1.320
-6.600E-07,-1.520
-6.500E-07,-1.420
-6.400E-07,-1.600
-6.300E-07,-1.440
-6.200E-07,-1.360
-6.100E-07,-1.680
-6.000E-07,-1.280
-5.900E-07,-1.380
-5.800E-07,-1.520
-5.700E-07,-1.420
-5.600E-07,-1.720
-5.500E-07,-1.680
-5.400E-07,-1.960
-5.300E-07,-1.940
-5.200E-07,-1.680
-5.100E-07,-2.140
-5.000E-07,-1.520
-4.900E-07,-2.200
-4.800E-07,-1.680
-4.700E-07,-1.840
-4.600E-07,-1.800
-4.500E-07,-1.700
-4.400E-07,-1.680
-4.300E-07,-1.480
-4.200E-07,-1.580
-4.100E-07,-1.360
-4.000E-07,-1.380
-3.900E-07,-1.180
-3.800E-07,-1.060
-3.700E-07,-1.020
-3.600E-07,-0.920
-3.500E-07,-0.820
-3.400E-07,-0.700
-3.300E-07,-0.780
-3.200E-07,-0.760
-3.100E-07,-0.700
-3.000E-07,-0.660
-2.900E-07,-0.640
-2.800E-07,-0.620
-2.700E-07,-0.480
-2.600E-07,-0.520
-2.500E-07,-0.500
-2.400E-07,-0.500
-2.300E-07,-0.480
-2.200E-07,-0.320
-2.100E-07,-0.360
-2.000E-07,-0.620
-1.900E-07,-0.520
-1.800E-07,-0.220
-1.700E-07,-0.460
-1.600E-07,-0.320
-1.500E-07,-0.340
-1.400E-07,0.120
-1.300E-07,-0.160
-1.200E-07,0.080
-1.100E-07,-0.420
-1.000E-07,-0.780
-9.000E-08,-1.400
-8.000E-08,-2.220
-7.000E-08,-2.080
-6.000E-08,-2.340
-5.000E-08,-1.980
-4.000E-08,-2.000
-3.000E-08,-1.960
-2.000E-08,-1.840
-1.000E-08,-1.940
0.000E+00,-1.860
1.000E-08,-1.860
2.000E-08,-1.760
3.000E-08,-1.260
4.000E-08,-1.360
5.000E-08,-0.880
6.000E-08,-0.920
7.000E-08,-0.780
8.000E-08,-1.160
9.000E-08,-1.860
1.000E-07,-2.740
1.100E-07,-3.340
1.200E-07,-3.340
1.300E-07,-3.340
1.400E-07,-3.340
1.500E-07,-3.340
1.600E-07,-3.340
1.700E-07,-3.340
1.800E-07,-3.340
1.900E-07,-3.340
2.000E-07,-3.340
2.100E-07,-3.340
2.200E-07,-3.340
2.300E-07,-3.120
2.400E-07,-2.720
2.500E-07,-2.540
2.600E-07,-2.320
2.700E-07,-2.160
2.800E-07,-2.280
2.900E-07,-2.420
3.000E-07,-2.780
3.100E-07,-2.960
3.200E-07,-3.080
3.300E-07,-3.300
3.400E-07,-3.340
3.500E-07,-3.340
3.600E-07,-3.340
3.700E-07,-3.340
3.800E-07,-3.340
3.900E-07,-3.340
4.000E-07,-3.340
4.100E-07,-3.340
4.200E-07,-3.340
4.300E-07,-3.340
4.400E-07,-3.340
4.500E-07,-3.340
4.600E-07,-3.340
4.700E-07,-3.340
4.800E-07,-3.260
4.900E-07,-3.100
5.000E-07,-2.880
5.100E-07,-2.720
5.200E-07,-2.480
5.300E-07,-2.380
5.400E-07,-2.400
5.500E-07,-2.360
5.600E-07,-2.440
5.700E-07,-2.340
5.800E-07,-2.380
5.900E-07,-2.280
6.000E-07,-2.260
6.100E-07,-2.200
6.200E-07,-2.220
6.300E-07,-2.180
6.400E-07,-1.920
6.500E-07,-1.900
6.600E-07,-1.340
6.700E-07,-1.320
6.800E-07,-0.960
6.900E-07,-0.560
7.000E-07,-0.440
7.100E-07,-0.280
7.200E-07,0.000
7.300E-07,0.260
7.400E-07,0.500
7.500E-07,0.860
7.600E-07,0.920
7.700E-07,0.860
7.800E-07,0.600
7.900E-07,1.040
8.000E-07,0.700
8.100E-07,1.020
8.200E-07,0.400
8.300E-07,0.440
8.400E-07,0.560
8.500E-07,-0.300
8.600E-07,0.060
8.700E-07,-0.400
8.800E-07,-0.180
8.900E-07,-0.360
9.000E-07,-0.260
9.100E-07,-0.180
9.200E-07,-0.320
9.300E-07,-0.280
9.400E-07,-0.180
9.500E-07,-0.080
9.600E-07,-0.060
9.700E-07,0.140
9.800E-07,0.220
9.900E-07,0.180
1.000E-06,0.320
1.010E-06,0.420
1.020E-06,0.420
1.030E-06,0.420
1.040E-06,0.400
1.050E-06,0.440
1.060E-06,0.360
1.070E-06,0.240
1.080E-06,0.160
1.090E-06,0.100
1.100E-06,-0.060
1.110E-06,-0.140
1.120E-06,-0.200
1.130E-06,-0.180
1.140E-06,-0.180
1.150E-06,-0.080
1.160E-06,-0.020
1.170E-06,-0.100
1.180E-06,0.120
1.190E-06,0.120
1.200E-06,0.300
1.210E-06,0.480
1.220E-06,0.500
1.230E-06,0.600
1.240E-06,0.600
1.250E-06,0.700
1.260E-06,0.620
1.270E-06,0.640
1.280E-06,0.580
1.290E-06,0.560
1.300E-06,0.560
1.310E-06,0.560
1.320E-06,0.600
1.330E-06,0.600
1.340E-06,0.580
1.350E-06,0.560
1.360E-06,0.480
1.370E-06,0.420
1.380E-06,0.400
1.390E-06,0.340
1.400E-06,0.300
1.410E-06,0.260
1.420E-06,0.220
1.430E-06,0.160
1.440E-06,0.200
1.450E-06,0.220
1.460E-06,0.240
1.470E-06,0.180
1.480E-06,0.080
1.490E-06,0.200
1.500E-06,0.160
1.510E-06,0.160
1.520E-06,0.340
1.530E-06,0.120
1.540E-06,0.320
1.550E-06,0.260
1.560E-06,0.360
1.570E-06,0.380
1.580E-06,0.400
1.590E-06,0.520
1.600E-06,0.520
1.610E-06,0.520
1.620E-06,0.500
1.630E-06,0.560
1.640E-06,0.540
1.650E-06,0.500
1.660E-06,0.460
1.670E-06,0.420
1.680E-06,0.440
1.690E-06,0.500
1.700E-06,0.520
1.710E-06,0.560
1.720E-06,0.440
1.730E-06,0.600
1.740E-06,0.480
1.750E-06,0.600
1.760E-06,0.380
1.770E-06,0.600
1.780E-06,0.460
1.790E-06,0.500
1.800E-06,0.540
1.810E-06,0.520
1.820E-06,0.500
1.830E-06,0.500
1.840E-06,0.440
1.850E-06,0.420
1.860E-06,0.360
1.870E-06,0.320
1.880E-06,0.240
1.890E-06,0.200
1.900E-06,0.160
1.910E-06,0.160
1.920E-06,0.080
1.930E-06,0.040
1.940E-06,0.020
1.950E-06,-0.040
1.960E-06,-0.100
1.970E-06,-0.100
1.980E-06,-0.060
1.990E-06,-0.040
2.000E-06,-0.040
2.010E-06,0.040
2.020E-06,0.100
2.030E-06,0.120
2.040E-06,0.180
2.050E-06,0.220
2.060E-06,0.240
2.070E-06,0.260
2.080E-06,0.320
2.090E-06,0.360
2.100E-06,0.420
2.110E-06,0.440
2.120E-06,0.500
2.130E-06,0.560
2.140E-06,0.640
2.150E-06,0.660
2.160E-06,0.660
2.170E-06,0.700
2.180E-06,0.700
2.190E-06,0.680
2.200E-06,0.740
2.210E-06,0.780
2.220E-06,0.780
2.230E-06,0.860
2.240E-06,0.880
2.250E-06,0.960
2.260E-06,0.940
2.270E-06,0.840
2.280E-06,0.760
2.290E-06,0.640
2.300E-06,0.680
2.310E-06,0.460
2.320E-06,0.360
2.330E-06,0.400
2.340E-06,0.380
2.350E-06,0.460
2.360E-06,0.420
2.370E-06,0.480
2.380E-06,0.440
2.390E-06,0.420
2.400E-06,0.340
2.410E-06,0.280
2.420E-06,0.220
2.430E-06,0.120
2.440E-06,0.040
2.450E-06,-0.060
2.460E-06,-0.120
2.470E-06,-0.160
2.480E-06,-0.180
2.490E-06,-0.180
2.500E-06,-0.160
2.510E-06,-0.100
2.520E-06,-0.020
2.530E-06,0.080
2.540E-06,0.180
2.550E-06,0.260
2.560E-06,0.340
2.570E-06,0.400
2.580E-06,0.460
2.590E-06,0.520
2.600E-06,0.500
2.610E-06,0.540
2.620E-06,0.600
2.630E-06,0.600
2.640E-06,0.600
2.650E-06,0.600
2.660E-06,0.560
2.670E-06,0.520
2.680E-06,0.420
2.690E-06,0.340
2.700E-06,0.180
2.710E-06,0.060
2.720E-06,0.080
2.730E-06,-0.060
2.740E-06,-0.200
2.750E-06,-0.320
2.760E-06,-0.180
2.770E-06,-0.160
2.780E-06,-0.080
2.790E-06,-0.100
2.800E-06,0.120
2.810E-06,0.140
2.820E-06,0.180
2.830E-06,0.160
2.840E-06,0.260
2.850E-06,0.340
2.860E-06,0.400
2.870E-06,0.400
2.880E-06,0.460
2.890E-06,0.460
2.900E-06,0.500
2.910E-06,0.500
2.920E-06,0.460
2.930E-06,0.480
2.940E-06,0.480
2.950E-06,0.500
2.960E-06,0.560
2.970E-06,0.640
2.980E-06,0.740
2.990E-06,0.860
3.000E-06,0.980
3.010E-06,1.100
3.020E-06,1.240
3.030E-06,1.320
3.040E-06,1.440
3.050E-06,1.520
3.060E-06,1.560
3.070E-06,1.660
3.080E-06,1.780
3.090E-06,1.860
3.100E-06,2.000
3.110E-06,2.080
3.120E-06,2.100
3.130E-06,2.080
3.140E-06,2.100
3.150E-06,2.080
3.160E-06,1.440
3.170E-06,0.420
3.180E-06,-0.880
3.190E-06,-1.440
3.200E-06,-1.580
3.210E-06,-1.620
3.220E-06,-1.640
