mediciones/8-28/51/WaveData65509.csv

#timebase=2000000(ps)
,#voltbase=500000(mv/100)
#size=4000
-8.350E-06,0.060
-8.340E-06,0.060
-8.330E-06,0.040
-8.320E-06,0.040
-8.310E-06,0.060
-8.300E-06,0.060
-8.290E-06,0.080
-8.280E-06,0.060
-8.270E-06,0.100
-8.260E-06,0.040
-8.250E-06,0.040
-8.240E-06,0.040
-8.230E-06,0.060
-8.220E-06,0.040
-8.210E-06,0.080
-8.200E-06,0.060
-8.190E-06,0.040
-8.180E-06,0.040
-8.170E-06,0.080
-8.160E-06,0.040
-8.150E-06,0.080
-8.140E-06,0.020
-8.130E-06,0.060
-8.120E-06,0.040
-8.110E-06,0.060
-8.100E-06,0.080
-8.090E-06,0.060
-8.080E-06,0.060
-8.070E-06,0.080
-8.060E-06,0.080
-8.050E-06,0.060
-8.040E-06,0.020
-8.030E-06,0.080
-8.020E-06,0.060
-8.010E-06,0.100
-8.000E-06,0.080
-7.990E-06,0.080
-7.980E-06,0.040
-7.970E-06,0.020
-7.960E-06,0.060
-7.950E-06,0.040
-7.940E-06,0.060
-7.930E-06,0.020
-7.920E-06,0.040
-7.910E-06,0.060
-7.900E-06,0.060
-7.890E-06,0.060
-7.880E-06,0.060
-7.870E-06,0.060
-7.860E-06,0.040
-7.850E-06,0.040
-7.840E-06,0.060
-7.830E-06,0.060
-7.820E-06,0.060
-7.810E-06,0.060
-7.800E-06,0.060
-7.790E-06,0.040
-7.780E-06,0.040
-7.770E-06,0.060
-7.760E-06,0.040
-7.750E-06,0.060
-7.740E-06,0.080
-7.730E-06,0.040
-7.720E-06,0.040
-7.710E-06,0.060
-7.700E-06,0.060
-7.690E-06,0.080
-7.680E-06,0.060
-7.670E-06,0.040
-7.660E-06,0.040
-7.650E-06,0.080
-7.640E-06,0.040
-7.630E-06,0.020
-7.620E-06,0.060
-7.610E-06,0.040
-7.600E-06,0.080
-7.590E-06,0.100
-7.580E-06,0.060
-7.570E-06,0.020
-7.560E-06,0.040
-7.550E-06,0.080
-7.540E-06,0.040
-7.530E-06,0.060
-7.520E-06,0.060
-7.510E-06,0.060
-7.500E-06,0.020
-7.490E-06,0.080
-7.480E-06,0.060
-7.470E-06,0.060
-7.460E-06,0.080
-7.450E-06,0.060
-7.440E-06,0.040
-7.430E-06,0.060
-7.420E-06,0.040
-7.410E-06,0.020
-7.400E-06,0.120
-7.390E-06,0.040
-7.380E-06,0.040
-7.370E-06,0.040
-7.360E-06,0.080
-7.350E-06,0.040
-7.340E-06,0.060
-7.330E-06,0.060
-7.320E-06,0.060
-7.310E-06,0.060
-7.300E-06,0.040
-7.290E-06,0.060
-7.280E-06,0.100
-7.270E-06,0.040
-7.260E-06,0.060
-7.250E-06,0.020
-7.240E-06,0.040
-7.230E-06,0.060
-7.220E-06,0.060
-7.210E-06,0.060
-7.200E-06,0.040
-7.190E-06,0.080
-7.180E-06,0.060
-7.170E-06,0.040
-7.160E-06,0.060
-7.150E-06,0.040
-7.140E-06,0.080
-7.130E-06,0.020
-7.120E-06,0.080
-7.110E-06,0.040
-7.100E-06,0.060
-7.090E-06,0.060
-7.080E-06,0.040
-7.070E-06,0.080
-7.060E-06,0.040
-7.050E-06,0.020
-7.040E-06,0.060
-7.030E-06,0.060
-7.020E-06,0.100
-7.010E-06,0.060
-7.000E-06,0.080
-6.990E-06,0.060
-6.980E-06,0.080
-6.970E-06,0.020
-6.960E-06,0.040
-6.950E-06,0.040
-6.940E-06,0.080
-6.930E-06,0.080
-6.920E-06,0.080
-6.910E-06,0.080
-6.900E-06,0.060
-6.890E-06,0.040
-6.880E-06,0.060
-6.870E-06,0.060
-6.860E-06,0.060
-6.850E-06,0.040
-6.840E-06,0.080
-6.830E-06,0.040
-6.820E-06,0.020
-6.810E-06,0.060
-6.800E-06,0.060
-6.790E-06,0.080
-6.780E-06,0.060
-6.770E-06,0.060
-6.760E-06,0.060
-6.750E-06,0.060
-6.740E-06,0.060
-6.730E-06,0.080
-6.720E-06,0.080
-6.710E-06,0.040
-6.700E-06,0.040
-6.690E-06,0.080
-6.680E-06,0.040
-6.670E-06,0.080
-6.660E-06,0.060
-6.650E-06,0.060
-6.640E-06,0.080
-6.630E-06,0.060
-6.620E-06,0.040
-6.610E-06,0.040
-6.600E-06,0.020
-6.590E-06,0.060
-6.580E-06,0.060
-6.570E-06,0.020
-6.560E-06,0.040
-6.550E-06,0.060
-6.540E-06,0.080
-6.530E-06,0.080
-6.520E-06,0.060
-6.510E-06,0.040
-6.500E-06,0.060
-6.490E-06,0.060
-6.480E-06,0.020
-6.470E-06,0.040
-6.460E-06,0.080
-6.450E-06,0.040
-6.440E-06,0.080
-6.430E-06,0.080
-6.420E-06,0.040
-6.410E-06,0.060
-6.400E-06,0.060
-6.390E-06,0.060
-6.380E-06,0.060
-6.370E-06,0.100
-6.360E-06,0.080
-6.350E-06,0.080
-6.340E-06,0.060
-6.330E-06,0.080
-6.320E-06,0.060
-6.310E-06,0.060
-6.300E-06,0.060
-6.290E-06,0.060
-6.280E-06,0.040
-6.270E-06,0.060
-6.260E-06,0.060
-6.250E-06,0.040
-6.240E-06,0.060
-6.230E-06,0.020
-6.220E-06,0.060
-6.210E-06,0.080
-6.200E-06,0.080
-6.190E-06,0.080
-6.180E-06,0.060
-6.170E-06,0.060
-6.160E-06,0.060
-6.150E-06,0.020
-6.140E-06,0.040
-6.130E-06,0.060
-6.120E-06,0.060
-6.110E-06,0.080
-6.100E-06,0.060
-6.090E-06,0.060
-6.080E-06,0.060
-6.070E-06,0.060
-6.060E-06,0.060
-6.050E-06,0.080
-6.040E-06,0.040
-6.030E-06,0.060
-6.020E-06,0.080
-6.010E-06,0.040
-6.000E-06,0.040
-5.990E-06,0.060
-5.980E-06,0.060
-5.970E-06,0.060
-5.960E-06,0.060
-5.950E-06,0.040
-5.940E-06,0.060
-5.930E-06,0.080
-5.920E-06,0.060
-5.910E-06,0.060
-5.900E-06,0.060
-5.890E-06,0.040
-5.880E-06,0.080
-5.870E-06,0.080
-5.860E-06,0.100
-5.850E-06,0.040
-5.840E-06,0.080
-5.830E-06,0.060
-5.820E-06,0.080
-5.810E-06,0.040
-5.800E-06,0.060
-5.790E-06,0.060
-5.780E-06,0.080
-5.770E-06,0.040
-5.760E-06,0.080
-5.750E-06,0.060
-5.740E-06,0.080
-5.730E-06,0.060
-5.720E-06,0.040
-5.710E-06,0.040
-5.700E-06,0.040
-5.690E-06,0.060
-5.680E-06,0.080
-5.670E-06,0.060
-5.660E-06,0.040
-5.650E-06,0.080
-5.640E-06,0.020
-5.630E-06,0.080
-5.620E-06,0.080
-5.610E-06,0.060
-5.600E-06,0.080
-5.590E-06,0.020
-5.580E-06,0.040
-5.570E-06,0.080
-5.560E-06,0.040
-5.550E-06,0.060
-5.540E-06,0.060
-5.530E-06,0.080
-5.520E-06,0.060
-5.510E-06,0.060
-5.500E-06,0.080
-5.490E-06,0.060
-5.480E-06,0.040
-5.470E-06,0.060
-5.460E-06,0.060
-5.450E-06,0.060
-5.440E-06,0.040
-5.430E-06,0.060
-5.420E-06,0.060
-5.410E-06,0.040
-5.400E-06,0.060
-5.390E-06,0.060
-5.380E-06,0.060
-5.370E-06,0.080
-5.360E-06,0.080
-5.350E-06,0.060
-5.340E-06,0.040
-5.330E-06,0.060
-5.320E-06,0.080
-5.310E-06,0.060
-5.300E-06,0.080
-5.290E-06,0.060
-5.280E-06,0.040
-5.270E-06,0.040
-5.260E-06,0.040
-5.250E-06,0.060
-5.240E-06,0.040
-5.230E-06,0.080
-5.220E-06,0.060
-5.210E-06,0.100
-5.200E-06,0.060
-5.190E-06,0.060
-5.180E-06,0.080
-5.170E-06,0.060
-5.160E-06,0.020
-5.150E-06,0.040
-5.140E-06,0.060
-5.130E-06,0.060
-5.120E-06,0.080
-5.110E-06,0.040
-5.100E-06,0.060
-5.090E-06,0.060
-5.080E-06,0.040
-5.070E-06,0.080
-5.060E-06,0.040
-5.050E-06,0.040
-5.040E-06,0.080
-5.030E-06,0.060
-5.020E-06,0.080
-5.010E-06,0.080
-5.000E-06,0.040
-4.990E-06,0.040
-4.980E-06,0.060
-4.970E-06,0.080
-4.960E-06,0.040
-4.950E-06,0.040
-4.940E-06,0.080
-4.930E-06,0.080
-4.920E-06,0.060
-4.910E-06,0.060
-4.900E-06,0.060
-4.890E-06,0.080
-4.880E-06,0.040
-4.870E-06,0.060
-4.860E-06,0.080
-4.850E-06,0.040
-4.840E-06,0.020
-4.830E-06,0.040
-4.820E-06,0.060
-4.810E-06,0.040
-4.800E-06,0.060
-4.790E-06,0.080
-4.780E-06,0.040
-4.770E-06,0.060
-4.760E-06,0.040
-4.750E-06,0.060
-4.740E-06,0.080
-4.730E-06,0.040
-4.720E-06,0.020
-4.710E-06,0.080
-4.700E-06,0.060
-4.690E-06,0.040
-4.680E-06,0.080
-4.670E-06,0.060
-4.660E-06,0.020
-4.650E-06,0.060
-4.640E-06,0.080
-4.630E-06,0.040
-4.620E-06,0.080
-4.610E-06,0.040
-4.600E-06,0.040
-4.590E-06,0.080
-4.580E-06,0.060
-4.570E-06,0.060
-4.560E-06,0.080
-4.550E-06,0.060
-4.540E-06,0.060
-4.530E-06,0.020
-4.520E-06,0.080
-4.510E-06,0.060
-4.500E-06,0.020
-4.490E-06,0.040
-4.480E-06,0.060
-4.470E-06,0.040
-4.460E-06,0.060
-4.450E-06,0.040
-4.440E-06,0.020
-4.430E-06,0.040
-4.420E-06,0.040
-4.410E-06,0.060
-4.400E-06,0.040
-4.390E-06,0.040
-4.380E-06,0.040
-4.370E-06,0.080
-4.360E-06,0.040
-4.350E-06,0.080
-4.340E-06,0.080
-4.330E-06,0.060
-4.320E-06,0.040
-4.310E-06,0.040
-4.300E-06,0.080
-4.290E-06,0.080
-4.280E-06,0.020
-4.270E-06,0.060
-4.260E-06,0.060
-4.250E-06,0.080
-4.240E-06,0.040
-4.230E-06,0.080
-4.220E-06,0.060
-4.210E-06,0.080
-4.200E-06,0.040
-4.190E-06,0.060
-4.180E-06,0.060
-4.170E-06,0.040
-4.160E-06,0.040
-4.150E-06,0.060
-4.140E-06,0.040
-4.130E-06,0.060
-4.120E-06,0.080
-4.110E-06,0.040
-4.100E-06,0.080
-4.090E-06,0.080
-4.080E-06,0.040
-4.070E-06,0.080
-4.060E-06,0.060
-4.050E-06,0.080
-4.040E-06,0.080
-4.030E-06,0.080
-4.020E-06,0.060
-4.010E-06,0.060
-4.000E-06,0.020
-3.990E-06,0.040
-3.980E-06,0.060
-3.970E-06,0.080
-3.960E-06,0.080
-3.950E-06,0.020
-3.940E-06,0.040
-3.930E-06,0.060
-3.920E-06,0.080
-3.910E-06,0.040
-3.900E-06,0.080
-3.890E-06,0.040
-3.880E-06,0.060
-3.870E-06,0.040
-3.860E-06,0.060
-3.850E-06,0.080
-3.840E-06,0.060
-3.830E-06,0.060
-3.820E-06,0.080
-3.810E-06,0.060
-3.800E-06,0.040
-3.790E-06,0.040
-3.780E-06,0.080
-3.770E-06,0.080
-3.760E-06,0.040
-3.750E-06,0.040
-3.740E-06,0.060
-3.730E-06,0.060
-3.720E-06,0.100
-3.710E-06,0.060
-3.700E-06,0.080
-3.690E-06,0.040
-3.680E-06,0.080
-3.670E-06,0.040
-3.660E-06,0.060
-3.650E-06,0.060
-3.640E-06,0.020
-3.630E-06,0.060
-3.620E-06,0.080
-3.610E-06,0.060
-3.600E-06,0.060
-3.590E-06,0.060
-3.580E-06,0.060
-3.570E-06,0.040
-3.560E-06,0.060
-3.550E-06,0.060
-3.540E-06,0.060
-3.530E-06,0.060
-3.520E-06,0.020
-3.510E-06,0.060
-3.500E-06,0.060
-3.490E-06,0.080
-3.480E-06,0.080
-3.470E-06,0.060
-3.460E-06,0.060
-3.450E-06,0.040
-3.440E-06,0.060
-3.430E-06,0.040
-3.420E-06,0.060
-3.410E-06,0.080
-3.400E-06,0.040
-3.390E-06,0.040
-3.380E-06,0.060
-3.370E-06,0.080
-3.360E-06,0.020
-3.350E-06,0.060
-3.340E-06,0.080
-3.330E-06,0.060
-3.320E-06,0.080
-3.310E-06,0.020
-3.300E-06,0.040
-3.290E-06,0.060
-3.280E-06,0.040
-3.270E-06,0.080
-3.260E-06,0.060
-3.250E-06,0.040
-3.240E-06,0.060
-3.230E-06,0.040
-3.220E-06,-0.240
-3.210E-06,-0.920
-3.200E-06,-1.860
-3.190E-06,-2.120
-3.180E-06,-2.100
-3.170E-06,-2.100
-3.160E-06,-2.120
-3.150E-06,-1.880
-3.140E-06,-0.400
-3.130E-06,1.100
-3.120E-06,2.460
-3.110E-06,3.300
-3.100E-06,3.300
-3.090E-06,3.300
-3.080E-06,3.300
-3.070E-06,3.280
-3.060E-06,3.080
-3.050E-06,1.920
-3.040E-06,1.320
-3.030E-06,0.220
-3.020E-06,-0.260
-3.010E-06,-0.900
-3.000E-06,-0.840
-2.990E-06,-0.600
-2.980E-06,-0.620
-2.970E-06,-0.340
-2.960E-06,-0.540
-2.950E-06,-0.800
-2.940E-06,-1.120
-2.930E-06,-1.460
-2.920E-06,-1.880
-2.910E-06,-2.140
-2.900E-06,-2.140
-2.890E-06,-2.140
-2.880E-06,-1.820
-2.870E-06,-1.320
-2.860E-06,-0.720
-2.850E-06,0.040
-2.840E-06,0.820
-2.830E-06,1.480
-2.820E-06,1.880
-2.810E-06,2.080
-2.800E-06,2.060
-2.790E-06,1.820
-2.780E-06,1.340
-2.770E-06,0.800
-2.760E-06,0.220
-2.750E-06,-0.280
-2.740E-06,-0.700
-2.730E-06,-0.940
-2.720E-06,-1.120
-2.710E-06,-1.120
-2.700E-06,-1.040
-2.690E-06,-0.920
-2.680E-06,-0.720
-2.670E-06,-0.480
-2.660E-06,-0.280
-2.650E-06,-0.020
-2.640E-06,0.200
-2.630E-06,0.460
-2.620E-06,0.720
-2.610E-06,0.940
-2.600E-06,1.100
-2.590E-06,1.220
-2.580E-06,1.240
-2.570E-06,1.160
-2.560E-06,1.040
-2.550E-06,0.940
-2.540E-06,0.740
-2.530E-06,0.520
-2.520E-06,0.300
-2.510E-06,0.140
-2.500E-06,-0.100
-2.490E-06,-0.300
-2.480E-06,-0.460
-2.470E-06,-0.540
-2.460E-06,-0.640
-2.450E-06,-0.700
-2.440E-06,-0.780
-2.430E-06,-0.780
-2.420E-06,-0.740
-2.410E-06,-0.700
-2.400E-06,-0.500
-2.390E-06,-0.300
-2.380E-06,0.040
-2.370E-06,0.300
-2.360E-06,0.560
-2.350E-06,0.820
-2.340E-06,0.980
-2.330E-06,1.080
-2.320E-06,1.060
-2.310E-06,1.020
-2.300E-06,0.860
-2.290E-06,0.640
-2.280E-06,0.400
-2.270E-06,0.040
-2.260E-06,-0.260
-2.250E-06,-0.460
-2.240E-06,-0.640
-2.230E-06,-0.720
-2.220E-06,-0.740
-2.210E-06,-0.620
-2.200E-06,-0.580
-2.190E-06,-0.420
-2.180E-06,-0.320
-2.170E-06,-0.180
-2.160E-06,-0.080
-2.150E-06,-0.040
-2.140E-06,0.040
-2.130E-06,0.000
-2.120E-06,0.000
-2.110E-06,0.000
-2.100E-06,0.000
-2.090E-06,-0.040
-2.080E-06,0.020
-2.070E-06,0.040
-2.060E-06,0.040
-2.050E-06,0.120
-2.040E-06,0.100
-2.030E-06,0.100
-2.020E-06,0.040
-2.010E-06,0.020
-2.000E-06,-0.040
-1.990E-06,-0.100
-1.980E-06,-0.140
-1.970E-06,-0.180
-1.960E-06,-0.260
-1.950E-06,-0.160
-1.940E-06,-0.240
-1.930E-06,-0.140
-1.920E-06,-0.100
-1.910E-06,-0.060
-1.900E-06,0.000
-1.890E-06,-0.020
-1.880E-06,0.020
-1.870E-06,0.020
-1.860E-06,0.020
-1.850E-06,0.040
-1.840E-06,0.000
-1.830E-06,0.020
-1.820E-06,-0.020
-1.810E-06,-0.060
-1.800E-06,-0.160
-1.790E-06,-0.300
-1.780E-06,-0.300
-1.770E-06,-0.360
-1.760E-06,-0.400
-1.750E-06,-0.400
-1.740E-06,-0.400
-1.730E-06,-0.420
-1.720E-06,-0.420
-1.710E-06,-0.440
-1.700E-06,-0.400
-1.690E-06,-0.560
-1.680E-06,-0.500
-1.670E-06,-0.580
-1.660E-06,-0.540
-1.650E-06,-0.500
-1.640E-06,-0.500
-1.630E-06,-0.420
-1.620E-06,-0.440
-1.610E-06,-0.360
-1.600E-06,-0.400
-1.590E-06,-0.320
-1.580E-06,-0.380
-1.570E-06,-0.460
-1.560E-06,-0.480
-1.550E-06,-0.460
-1.540E-06,-0.500
-1.530E-06,-0.460
-1.520E-06,-0.460
-1.510E-06,-0.400
-1.500E-06,-0.400
-1.490E-06,-0.380
-1.480E-06,-0.460
-1.470E-06,-0.440
-1.460E-06,-0.540
-1.450E-06,-0.620
-1.440E-06,-0.660
-1.430E-06,-0.720
-1.420E-06,-0.720
-1.410E-06,-0.840
-1.400E-06,-0.820
-1.390E-06,-0.960
-1.380E-06,-1.020
-1.370E-06,-0.980
-1.360E-06,-0.680
-1.350E-06,-0.260
-1.340E-06,0.260
-1.330E-06,0.740
-1.320E-06,0.940
-1.310E-06,0.680
-1.300E-06,0.240
-1.290E-06,-0.500
-1.280E-06,-1.240
-1.270E-06,-1.800
-1.260E-06,-2.100
-1.250E-06,-2.120
-1.240E-06,-2.120
-1.230E-06,-2.120
-1.220E-06,-2.100
-1.210E-06,-2.100
-1.200E-06,-2.100
-1.190E-06,-2.100
-1.180E-06,-2.080
-1.170E-06,-1.780
-1.160E-06,-1.460
-1.150E-06,-1.020
-1.140E-06,-0.640
-1.130E-06,-0.860
-1.120E-06,-0.980
-1.110E-06,-1.040
-1.100E-06,-1.560
-1.090E-06,-2.120
-1.080E-06,-2.120
-1.070E-06,-2.120
-1.060E-06,-2.100
-1.050E-06,-2.120
-1.040E-06,-2.120
-1.030E-06,-1.560
-1.020E-06,-1.800
-1.010E-06,-2.120
-1.000E-06,-2.120
-9.900E-07,-2.000
-9.800E-07,-2.120
-9.700E-07,-2.120
-9.600E-07,-2.100
-9.500E-07,-2.100
-9.400E-07,-2.120
-9.300E-07,-2.120
-9.200E-07,-2.120
-9.100E-07,-2.120
-9.000E-07,-2.120
-8.900E-07,-1.500
-8.800E-07,-1.580
-8.700E-07,-1.020
-8.600E-07,-0.960
-8.500E-07,-0.380
-8.400E-07,-0.240
-8.300E-07,0.180
-8.200E-07,0.040
-8.100E-07,0.260
-8.000E-07,-0.140
-7.900E-07,-0.280
-7.800E-07,-0.340
-7.700E-07,-0.220
-7.600E-07,0.040
-7.500E-07,0.080
-7.400E-07,0.240
-7.300E-07,0.340
-7.200E-07,0.280
-7.100E-07,-0.080
-7.000E-07,-0.420
-6.900E-07,-0.700
-6.800E-07,-0.880
-6.700E-07,-1.100
-6.600E-07,-1.380
-6.500E-07,-1.600
-6.400E-07,-1.660
-6.300E-07,-1.540
-6.200E-07,-1.320
-6.100E-07,-1.000
-6.000E-07,-0.620
-5.900E-07,-0.220
-5.800E-07,0.200
-5.700E-07,0.360
-5.600E-07,0.600
-5.500E-07,0.600
-5.400E-07,0.660
-5.300E-07,0.540
-5.200E-07,0.360
-5.100E-07,0.100
-5.000E-07,-0.060
-4.900E-07,-0.300
-4.800E-07,-0.720
-4.700E-07,-0.980
-4.600E-07,-1.360
-4.500E-07,-1.400
-4.400E-07,-1.280
-4.300E-07,-1.000
-4.200E-07,-0.660
-4.100E-07,-0.620
-4.000E-07,-0.800
-3.900E-07,-1.280
-3.800E-07,-1.440
-3.700E-07,-1.780
-3.600E-07,-1.640
-3.500E-07,-1.460
-3.400E-07,-1.140
-3.300E-07,-1.060
-3.200E-07,-1.140
-3.100E-07,-1.140
-3.000E-07,-1.260
-2.900E-07,-1.260
-2.800E-07,-1.280
-2.700E-07,-1.340
-2.600E-07,-1.480
-2.500E-07,-1.800
-2.400E-07,-2.140
-2.300E-07,-2.120
-2.200E-07,-2.120
-2.100E-07,-2.100
-2.000E-07,-2.120
-1.900E-07,-2.120
-1.800E-07,-2.120
-1.700E-07,-2.120
-1.600E-07,-2.100
-1.500E-07,-2.120
-1.400E-07,-2.120
-1.300E-07,-2.120
-1.200E-07,-2.120
-1.100E-07,-2.120
-1.000E-07,-2.120
-9.000E-08,-2.120
-8.000E-08,-2.100
-7.000E-08,-2.120
-6.000E-08,-2.120
-5.000E-08,-2.120
-4.000E-08,-2.120
-3.000E-08,-2.120
-2.000E-08,-2.120
-1.000E-08,-2.120
0.000E+00,-2.120
1.000E-08,-2.120
2.000E-08,-2.120
3.000E-08,-2.120
4.000E-08,-2.120
5.000E-08,-2.120
6.000E-08,-2.120
7.000E-08,-1.580
8.000E-08,-0.640
9.000E-08,0.320
1.000E-07,1.200
1.100E-07,1.960
1.200E-07,2.440
1.300E-07,2.620
1.400E-07,2.760
1.500E-07,2.780
1.600E-07,2.780
1.700E-07,2.620
1.800E-07,2.440
1.900E-07,2.060
2.000E-07,1.860
2.100E-07,1.580
2.200E-07,1.420
2.300E-07,1.200
2.400E-07,1.060
2.500E-07,0.820
2.600E-07,0.640
2.700E-07,0.500
2.800E-07,0.460
2.900E-07,0.500
3.000E-07,0.560
3.100E-07,0.740
3.200E-07,0.860
3.300E-07,1.020
3.400E-07,1.120
3.500E-07,1.180
3.600E-07,1.220
3.700E-07,1.160
3.800E-07,1.040
3.900E-07,0.840
4.000E-07,0.560
4.100E-07,0.180
4.200E-07,-0.240
4.300E-07,-0.740
4.400E-07,-1.180
4.500E-07,-1.580
4.600E-07,-1.920
4.700E-07,-2.120
4.800E-07,-2.120
4.900E-07,-2.120
5.000E-07,-2.120
5.100E-07,-2.000
5.200E-07,-1.800
5.300E-07,-1.480
5.400E-07,-1.120
5.500E-07,-0.760
5.600E-07,-0.380
5.700E-07,-0.020
5.800E-07,0.300
5.900E-07,0.560
6.000E-07,0.720
6.100E-07,0.860
6.200E-07,0.960
6.300E-07,1.040
6.400E-07,1.120
6.500E-07,1.200
6.600E-07,1.200
6.700E-07,1.240
6.800E-07,1.400
6.900E-07,1.580
7.000E-07,1.880
7.100E-07,1.860
7.200E-07,1.780
7.300E-07,1.520
7.400E-07,0.220
7.500E-07,-0.160
7.600E-07,-0.780
7.700E-07,-1.000
7.800E-07,-1.200
7.900E-07,-1.580
8.000E-07,-1.060
8.100E-07,-0.900
8.200E-07,-0.340
8.300E-07,0.100
8.400E-07,0.600
8.500E-07,1.080
8.600E-07,1.400
8.700E-07,1.740
8.800E-07,1.800
8.900E-07,1.740
9.000E-07,1.560
9.100E-07,1.300
9.200E-07,1.040
9.300E-07,0.720
9.400E-07,0.560
9.500E-07,0.340
9.600E-07,0.180
9.700E-07,0.020
9.800E-07,0.000
9.900E-07,-0.060
1.000E-06,-0.040
1.010E-06,0.000
1.020E-06,-0.020
1.030E-06,-0.040
1.040E-06,-0.060
1.050E-06,-0.100
1.060E-06,-0.160
1.070E-06,-0.200
1.080E-06,-0.140
1.090E-06,-0.060
1.100E-06,0.020
1.110E-06,0.160
1.120E-06,0.320
1.130E-06,0.440
1.140E-06,0.580
1.150E-06,0.800
1.160E-06,0.940
1.170E-06,1.000
1.180E-06,1.040
1.190E-06,1.040
1.200E-06,0.880
1.210E-06,0.640
1.220E-06,0.480
1.230E-06,0.280
1.240E-06,0.100
1.250E-06,0.020
1.260E-06,-0.020
1.270E-06,-0.020
1.280E-06,0.080
1.290E-06,0.180
1.300E-06,0.280
1.310E-06,0.380
1.320E-06,0.520
1.330E-06,0.600
1.340E-06,0.640
1.350E-06,0.700
1.360E-06,0.700
1.370E-06,0.720
1.380E-06,0.680
1.390E-06,0.640
1.400E-06,0.600
1.410E-06,0.540
1.420E-06,0.540
1.430E-06,0.500
1.440E-06,0.500
1.450E-06,0.480
1.460E-06,0.480
1.470E-06,0.460
1.480E-06,0.420
1.490E-06,0.400
1.500E-06,0.360
1.510E-06,0.320
1.520E-06,0.260
1.530E-06,0.220
1.540E-06,0.160
1.550E-06,0.120
1.560E-06,0.080
1.570E-06,0.080
1.580E-06,0.080
1.590E-06,0.120
1.600E-06,0.220
1.610E-06,0.280
1.620E-06,0.360
1.630E-06,0.460
1.640E-06,0.540
1.650E-06,0.580
1.660E-06,0.660
1.670E-06,0.720
1.680E-06,0.740
1.690E-06,0.780
1.700E-06,0.780
1.710E-06,0.820
1.720E-06,0.840
1.730E-06,0.840
1.740E-06,0.860
1.750E-06,0.880
1.760E-06,0.860
1.770E-06,0.840
1.780E-06,0.820
1.790E-06,0.800
1.800E-06,0.780
1.810E-06,0.720
1.820E-06,0.660
1.830E-06,0.620
1.840E-06,0.600
1.850E-06,0.560
1.860E-06,0.480
1.870E-06,0.460
1.880E-06,0.440
1.890E-06,0.420
1.900E-06,0.440
1.910E-06,0.400
1.920E-06,0.460
1.930E-06,0.440
1.940E-06,0.460
1.950E-06,0.440
1.960E-06,0.460
1.970E-06,0.500
1.980E-06,0.460
1.990E-06,0.460
2.000E-06,0.500
2.010E-06,0.460
2.020E-06,0.440
2.030E-06,0.420
2.040E-06,0.440
2.050E-06,0.420
2.060E-06,0.380
2.070E-06,0.400
2.080E-06,0.420
2.090E-06,0.440
2.100E-06,0.420
2.110E-06,0.420
2.120E-06,0.460
2.130E-06,0.480
2.140E-06,0.520
2.150E-06,0.540
2.160E-06,0.540
2.170E-06,0.580
2.180E-06,0.640
2.190E-06,0.640
2.200E-06,0.680
2.210E-06,0.700
2.220E-06,0.720
2.230E-06,0.760
2.240E-06,0.800
2.250E-06,0.800
2.260E-06,0.840
2.270E-06,0.800
2.280E-06,0.840
2.290E-06,0.800
2.300E-06,0.800
2.310E-06,0.800
2.320E-06,0.780
2.330E-06,0.720
2.340E-06,0.720
2.350E-06,0.680
2.360E-06,0.620
2.370E-06,0.620
2.380E-06,0.600
2.390E-06,0.560
2.400E-06,0.560
2.410E-06,0.580
2.420E-06,0.560
2.430E-06,0.560
2.440E-06,0.540
2.450E-06,0.540
2.460E-06,0.540
2.470E-06,0.560
2.480E-06,0.560
2.490E-06,0.560
2.500E-06,0.580
2.510E-06,0.600
2.520E-06,0.640
2.530E-06,0.660
2.540E-06,0.700
2.550E-06,0.780
2.560E-06,0.820
2.570E-06,0.880
2.580E-06,0.900
2.590E-06,0.900
2.600E-06,0.920
2.610E-06,0.860
2.620E-06,0.820
2.630E-06,0.820
2.640E-06,0.780
2.650E-06,0.800
2.660E-06,0.780
2.670E-06,0.760
2.680E-06,0.740
2.690E-06,0.740
2.700E-06,0.700
2.710E-06,0.700
2.720E-06,0.720
2.730E-06,0.740
2.740E-06,0.760
2.750E-06,0.800
2.760E-06,0.800
2.770E-06,0.820
2.780E-06,0.780
2.790E-06,0.760
2.800E-06,0.740
2.810E-06,0.720
2.820E-06,0.680
2.830E-06,0.620
2.840E-06,0.600
2.850E-06,0.540
2.860E-06,0.540
2.870E-06,0.480
2.880E-06,0.480
2.890E-06,0.480
2.900E-06,0.520
2.910E-06,0.540
2.920E-06,0.560
2.930E-06,0.620
2.940E-06,0.620
2.950E-06,0.720
2.960E-06,0.800
2.970E-06,0.900
2.980E-06,0.960
2.990E-06,1.000
3.000E-06,1.100
3.010E-06,1.160
3.020E-06,1.280
3.030E-06,1.380
3.040E-06,1.500
3.050E-06,1.600
3.060E-06,1.760
3.070E-06,1.880
3.080E-06,2.020
3.090E-06,2.140
3.100E-06,2.240
3.110E-06,2.340
3.120E-06,2.400
3.130E-06,2.460
3.140E-06,2.560
3.150E-06,2.600
3.160E-06,2.680
3.170E-06,2.740
3.180E-06,2.780
3.190E-06,2.800
3.200E-06,2.780
3.210E-06,2.740
3.220E-06,2.580
3.230E-06,1.900
3.240E-06,0.380
3.250E-06,-1.520
3.260E-06,-2.140
3.270E-06,-2.120
3.280E-06,-1.800
3.290E-06,-1.600
3.300E-06,-1.660
3.310E-06,-1.840
3.320E-06,-2.040
3.330E-06,-2.120
3.340E-06,-2.120
3.350E-06,-2.120
3.360E-06,-2.120
3.370E-06,-2.120
3.380E-06,-2.100
3.390E-06,-1.560
