mediciones/8-28/51/WaveData65515.csv

#timebase=2000000(ps)
,#voltbase=500000(mv/100)
#size=4000
-8.350E-06,0.060
-8.340E-06,0.080
-8.330E-06,0.080
-8.320E-06,0.040
-8.310E-06,0.080
-8.300E-06,0.080
-8.290E-06,0.060
-8.280E-06,0.120
-8.270E-06,0.080
-8.260E-06,0.040
-8.250E-06,0.080
-8.240E-06,0.040
-8.230E-06,0.060
-8.220E-06,0.040
-8.210E-06,0.080
-8.200E-06,0.060
-8.190E-06,0.100
-8.180E-06,0.060
-8.170E-06,0.080
-8.160E-06,0.080
-8.150E-06,0.040
-8.140E-06,0.040
-8.130E-06,0.080
-8.120E-06,0.080
-8.110E-06,0.040
-8.100E-06,0.080
-8.090E-06,0.060
-8.080E-06,0.080
-8.070E-06,0.060
-8.060E-06,0.040
-8.050E-06,0.060
-8.040E-06,0.060
-8.030E-06,0.040
-8.020E-06,0.080
-8.010E-06,0.040
-8.000E-06,0.060
-7.990E-06,0.060
-7.980E-06,0.080
-7.970E-06,0.060
-7.960E-06,0.060
-7.950E-06,0.040
-7.940E-06,0.060
-7.930E-06,0.080
-7.920E-06,0.060
-7.910E-06,0.040
-7.900E-06,0.060
-7.890E-06,0.080
-7.880E-06,0.080
-7.870E-06,0.060
-7.860E-06,0.100
-7.850E-06,0.060
-7.840E-06,0.060
-7.830E-06,0.100
-7.820E-06,0.060
-7.810E-06,0.080
-7.800E-06,0.060
-7.790E-06,0.060
-7.780E-06,0.060
-7.770E-06,0.060
-7.760E-06,0.060
-7.750E-06,0.040
-7.740E-06,0.080
-7.730E-06,0.060
-7.720E-06,0.060
-7.710E-06,0.060
-7.700E-06,0.040
-7.690E-06,0.080
-7.680E-06,0.080
-7.670E-06,0.080
-7.660E-06,0.060
-7.650E-06,0.040
-7.640E-06,0.080
-7.630E-06,0.080
-7.620E-06,0.040
-7.610E-06,0.100
-7.600E-06,0.060
-7.590E-06,0.060
-7.580E-06,0.060
-7.570E-06,0.060
-7.560E-06,0.060
-7.550E-06,0.060
-7.540E-06,0.060
-7.530E-06,0.100
-7.520E-06,0.060
-7.510E-06,0.060
-7.500E-06,0.060
-7.490E-06,0.060
-7.480E-06,0.080
-7.470E-06,0.040
-7.460E-06,0.040
-7.450E-06,0.080
-7.440E-06,0.100
-7.430E-06,0.080
-7.420E-06,0.060
-7.410E-06,0.060
-7.400E-06,0.060
-7.390E-06,0.060
-7.380E-06,0.080
-7.370E-06,0.060
-7.360E-06,0.080
-7.350E-06,0.060
-7.340E-06,0.060
-7.330E-06,0.040
-7.320E-06,0.080
-7.310E-06,0.080
-7.300E-06,0.080
-7.290E-06,0.080
-7.280E-06,0.060
-7.270E-06,0.040
-7.260E-06,0.080
-7.250E-06,0.040
-7.240E-06,0.060
-7.230E-06,0.060
-7.220E-06,0.100
-7.210E-06,0.060
-7.200E-06,0.060
-7.190E-06,0.080
-7.180E-06,0.080
-7.170E-06,0.060
-7.160E-06,0.040
-7.150E-06,0.060
-7.140E-06,0.060
-7.130E-06,0.080
-7.120E-06,0.060
-7.110E-06,0.100
-7.100E-06,0.080
-7.090E-06,0.080
-7.080E-06,0.100
-7.070E-06,0.080
-7.060E-06,0.080
-7.050E-06,0.060
-7.040E-06,0.040
-7.030E-06,0.080
-7.020E-06,0.060
-7.010E-06,0.080
-7.000E-06,0.080
-6.990E-06,0.060
-6.980E-06,0.060
-6.970E-06,0.060
-6.960E-06,0.040
-6.950E-06,0.040
-6.940E-06,0.060
-6.930E-06,0.060
-6.920E-06,0.060
-6.910E-06,0.060
-6.900E-06,0.080
-6.890E-06,0.040
-6.880E-06,0.060
-6.870E-06,0.060
-6.860E-06,0.060
-6.850E-06,0.040
-6.840E-06,0.040
-6.830E-06,0.080
-6.820E-06,0.080
-6.810E-06,0.080
-6.800E-06,0.040
-6.790E-06,0.100
-6.780E-06,0.060
-6.770E-06,0.060
-6.760E-06,0.080
-6.750E-06,0.040
-6.740E-06,0.060
-6.730E-06,0.120
-6.720E-06,0.080
-6.710E-06,0.060
-6.700E-06,0.080
-6.690E-06,0.020
-6.680E-06,0.060
-6.670E-06,0.100
-6.660E-06,0.060
-6.650E-06,0.080
-6.640E-06,0.100
-6.630E-06,0.060
-6.620E-06,0.040
-6.610E-06,0.040
-6.600E-06,0.080
-6.590E-06,0.060
-6.580E-06,0.060
-6.570E-06,0.060
-6.560E-06,0.040
-6.550E-06,0.040
-6.540E-06,0.080
-6.530E-06,0.060
-6.520E-06,0.060
-6.510E-06,0.080
-6.500E-06,0.060
-6.490E-06,0.060
-6.480E-06,0.060
-6.470E-06,0.080
-6.460E-06,0.060
-6.450E-06,0.120
-6.440E-06,0.100
-6.430E-06,0.060
-6.420E-06,0.040
-6.410E-06,0.040
-6.400E-06,0.080
-6.390E-06,0.040
-6.380E-06,0.080
-6.370E-06,0.060
-6.360E-06,0.060
-6.350E-06,0.040
-6.340E-06,0.080
-6.330E-06,0.060
-6.320E-06,0.060
-6.310E-06,0.040
-6.300E-06,0.080
-6.290E-06,0.060
-6.280E-06,0.060
-6.270E-06,0.020
-6.260E-06,0.060
-6.250E-06,0.080
-6.240E-06,0.060
-6.230E-06,0.100
-6.220E-06,0.080
-6.210E-06,0.080
-6.200E-06,0.060
-6.190E-06,0.060
-6.180E-06,0.060
-6.170E-06,0.060
-6.160E-06,0.080
-6.150E-06,0.080
-6.140E-06,0.080
-6.130E-06,0.060
-6.120E-06,0.060
-6.110E-06,0.120
-6.100E-06,0.060
-6.090E-06,0.060
-6.080E-06,0.040
-6.070E-06,0.060
-6.060E-06,0.100
-6.050E-06,0.020
-6.040E-06,0.080
-6.030E-06,0.060
-6.020E-06,0.040
-6.010E-06,0.080
-6.000E-06,0.080
-5.990E-06,0.080
-5.980E-06,0.080
-5.970E-06,0.060
-5.960E-06,0.060
-5.950E-06,0.060
-5.940E-06,0.060
-5.930E-06,0.060
-5.920E-06,0.040
-5.910E-06,0.040
-5.900E-06,0.040
-5.890E-06,0.060
-5.880E-06,0.080
-5.870E-06,0.060
-5.860E-06,0.060
-5.850E-06,0.060
-5.840E-06,0.060
-5.830E-06,0.060
-5.820E-06,0.040
-5.810E-06,0.040
-5.800E-06,0.040
-5.790E-06,0.080
-5.780E-06,0.080
-5.770E-06,0.060
-5.760E-06,0.040
-5.750E-06,0.080
-5.740E-06,0.080
-5.730E-06,0.060
-5.720E-06,0.060
-5.710E-06,0.060
-5.700E-06,0.040
-5.690E-06,0.060
-5.680E-06,0.060
-5.670E-06,0.080
-5.660E-06,0.060
-5.650E-06,0.060
-5.640E-06,0.100
-5.630E-06,0.080
-5.620E-06,0.060
-5.610E-06,0.100
-5.600E-06,0.060
-5.590E-06,0.060
-5.580E-06,0.060
-5.570E-06,0.080
-5.560E-06,0.060
-5.550E-06,0.060
-5.540E-06,0.080
-5.530E-06,0.080
-5.520E-06,0.080
-5.510E-06,0.040
-5.500E-06,0.080
-5.490E-06,0.060
-5.480E-06,0.060
-5.470E-06,0.060
-5.460E-06,0.040
-5.450E-06,0.060
-5.440E-06,0.080
-5.430E-06,0.080
-5.420E-06,0.040
-5.410E-06,0.060
-5.400E-06,0.080
-5.390E-06,0.080
-5.380E-06,0.060
-5.370E-06,0.040
-5.360E-06,0.060
-5.350E-06,0.060
-5.340E-06,0.080
-5.330E-06,0.080
-5.320E-06,0.080
-5.310E-06,0.080
-5.300E-06,0.080
-5.290E-06,0.040
-5.280E-06,0.060
-5.270E-06,0.060
-5.260E-06,0.040
-5.250E-06,0.080
-5.240E-06,0.060
-5.230E-06,0.080
-5.220E-06,0.040
-5.210E-06,0.060
-5.200E-06,0.080
-5.190E-06,0.040
-5.180E-06,0.040
-5.170E-06,0.040
-5.160E-06,0.040
-5.150E-06,0.100
-5.140E-06,0.060
-5.130E-06,0.060
-5.120E-06,0.060
-5.110E-06,0.080
-5.100E-06,0.060
-5.090E-06,0.060
-5.080E-06,0.060
-5.070E-06,0.040
-5.060E-06,0.040
-5.050E-06,0.060
-5.040E-06,0.060
-5.030E-06,0.060
-5.020E-06,0.080
-5.010E-06,0.080
-5.000E-06,0.040
-4.990E-06,0.040
-4.980E-06,0.080
-4.970E-06,0.060
-4.960E-06,0.060
-4.950E-06,0.100
-4.940E-06,0.060
-4.930E-06,0.060
-4.920E-06,0.040
-4.910E-06,0.080
-4.900E-06,0.060
-4.890E-06,0.080
-4.880E-06,0.080
-4.870E-06,0.060
-4.860E-06,0.060
-4.850E-06,0.080
-4.840E-06,0.060
-4.830E-06,0.060
-4.820E-06,0.060
-4.810E-06,0.120
-4.800E-06,0.080
-4.790E-06,0.040
-4.780E-06,0.060
-4.770E-06,0.080
-4.760E-06,0.080
-4.750E-06,0.080
-4.740E-06,0.060
-4.730E-06,0.080
-4.720E-06,0.080
-4.710E-06,0.040
-4.700E-06,0.040
-4.690E-06,0.060
-4.680E-06,0.080
-4.670E-06,0.060
-4.660E-06,0.080
-4.650E-06,0.080
-4.640E-06,0.060
-4.630E-06,0.060
-4.620E-06,0.060
-4.610E-06,0.060
-4.600E-06,0.080
-4.590E-06,0.080
-4.580E-06,0.020
-4.570E-06,0.040
-4.560E-06,0.060
-4.550E-06,0.040
-4.540E-06,0.060
-4.530E-06,0.060
-4.520E-06,0.080
-4.510E-06,0.080
-4.500E-06,0.040
-4.490E-06,0.080
-4.480E-06,0.080
-4.470E-06,0.040
-4.460E-06,0.040
-4.450E-06,0.040
-4.440E-06,0.080
-4.430E-06,0.080
-4.420E-06,0.060
-4.410E-06,0.060
-4.400E-06,0.060
-4.390E-06,0.060
-4.380E-06,0.060
-4.370E-06,0.080
-4.360E-06,0.040
-4.350E-06,0.060
-4.340E-06,0.060
-4.330E-06,0.080
-4.320E-06,0.060
-4.310E-06,0.080
-4.300E-06,0.060
-4.290E-06,0.080
-4.280E-06,0.060
-4.270E-06,0.040
-4.260E-06,0.060
-4.250E-06,0.060
-4.240E-06,0.040
-4.230E-06,0.060
-4.220E-06,0.080
-4.210E-06,0.040
-4.200E-06,0.080
-4.190E-06,0.060
-4.180E-06,0.060
-4.170E-06,0.080
-4.160E-06,0.060
-4.150E-06,0.040
-4.140E-06,0.080
-4.130E-06,0.060
-4.120E-06,0.040
-4.110E-06,0.080
-4.100E-06,0.080
-4.090E-06,0.020
-4.080E-06,0.100
-4.070E-06,0.080
-4.060E-06,0.060
-4.050E-06,0.060
-4.040E-06,0.080
-4.030E-06,0.080
-4.020E-06,0.060
-4.010E-06,0.080
-4.000E-06,0.060
-3.990E-06,0.060
-3.980E-06,0.060
-3.970E-06,0.060
-3.960E-06,0.040
-3.950E-06,0.080
-3.940E-06,0.060
-3.930E-06,0.060
-3.920E-06,0.060
-3.910E-06,0.120
-3.900E-06,0.060
-3.890E-06,0.040
-3.880E-06,0.060
-3.870E-06,0.060
-3.860E-06,0.080
-3.850E-06,0.060
-3.840E-06,0.060
-3.830E-06,0.080
-3.820E-06,0.060
-3.810E-06,0.080
-3.800E-06,0.060
-3.790E-06,0.060
-3.780E-06,0.040
-3.770E-06,0.080
-3.760E-06,0.080
-3.750E-06,0.040
-3.740E-06,0.080
-3.730E-06,0.040
-3.720E-06,0.060
-3.710E-06,0.060
-3.700E-06,0.060
-3.690E-06,0.040
-3.680E-06,0.060
-3.670E-06,0.080
-3.660E-06,0.060
-3.650E-06,0.060
-3.640E-06,0.060
-3.630E-06,0.080
-3.620E-06,0.080
-3.610E-06,0.100
-3.600E-06,0.060
-3.590E-06,0.120
-3.580E-06,0.060
-3.570E-06,0.040
-3.560E-06,0.060
-3.550E-06,0.060
-3.540E-06,0.040
-3.530E-06,0.060
-3.520E-06,0.080
-3.510E-06,0.020
-3.500E-06,0.080
-3.490E-06,0.060
-3.480E-06,0.040
-3.470E-06,0.100
-3.460E-06,0.040
-3.450E-06,0.060
-3.440E-06,0.060
-3.430E-06,0.060
-3.420E-06,0.060
-3.410E-06,0.060
-3.400E-06,0.020
-3.390E-06,0.060
-3.380E-06,0.080
-3.370E-06,0.060
-3.360E-06,0.080
-3.350E-06,0.040
-3.340E-06,0.080
-3.330E-06,0.060
-3.320E-06,0.040
-3.310E-06,0.060
-3.300E-06,0.080
-3.290E-06,0.060
-3.280E-06,0.080
-3.270E-06,0.040
-3.260E-06,0.080
-3.250E-06,0.100
-3.240E-06,0.060
-3.230E-06,0.080
-3.220E-06,0.080
-3.210E-06,0.060
-3.200E-06,0.060
-3.190E-06,0.040
-3.180E-06,0.080
-3.170E-06,0.080
-3.160E-06,0.080
-3.150E-06,0.060
-3.140E-06,0.080
-3.130E-06,0.060
-3.120E-06,0.080
-3.110E-06,0.060
-3.100E-06,0.040
-3.090E-06,0.060
-3.080E-06,0.080
-3.070E-06,0.040
-3.060E-06,0.060
-3.050E-06,0.020
-3.040E-06,0.040
-3.030E-06,0.060
-3.020E-06,0.080
-3.010E-06,0.060
-3.000E-06,0.060
-2.990E-06,0.060
-2.980E-06,0.060
-2.970E-06,0.080
-2.960E-06,0.080
-2.950E-06,0.000
-2.940E-06,-0.320
-2.930E-06,-1.100
-2.920E-06,-2.060
-2.910E-06,-2.120
-2.900E-06,-2.120
-2.890E-06,-2.120
-2.880E-06,-2.120
-2.870E-06,-1.280
-2.860E-06,0.140
-2.850E-06,1.400
-2.840E-06,2.700
-2.830E-06,3.300
-2.820E-06,3.320
-2.810E-06,3.300
-2.800E-06,3.300
-2.790E-06,3.300
-2.780E-06,2.820
-2.770E-06,1.820
-2.760E-06,0.820
-2.750E-06,-0.020
-2.740E-06,-0.560
-2.730E-06,-0.820
-2.720E-06,-0.700
-2.710E-06,-0.480
-2.700E-06,-0.300
-2.690E-06,-0.320
-2.680E-06,-0.440
-2.670E-06,-0.720
-2.660E-06,-1.260
-2.650E-06,-1.640
-2.640E-06,-1.960
-2.630E-06,-2.120
-2.620E-06,-2.120
-2.610E-06,-2.040
-2.600E-06,-1.660
-2.590E-06,-1.100
-2.580E-06,-0.460
-2.570E-06,0.280
-2.560E-06,0.920
-2.550E-06,1.540
-2.540E-06,1.860
-2.530E-06,1.980
-2.520E-06,1.880
-2.510E-06,1.540
-2.500E-06,1.100
-2.490E-06,0.580
-2.480E-06,0.040
-2.470E-06,-0.460
-2.460E-06,-0.780
-2.450E-06,-0.820
-2.440E-06,-1.100
-2.430E-06,-1.140
-2.420E-06,-0.820
-2.410E-06,-0.660
-2.400E-06,-0.640
-2.390E-06,-0.380
-2.380E-06,-0.140
-2.370E-06,0.040
-2.360E-06,0.180
-2.350E-06,0.400
-2.340E-06,0.760
-2.330E-06,0.860
-2.320E-06,1.060
-2.310E-06,1.120
-2.300E-06,1.060
-2.290E-06,1.060
-2.280E-06,0.960
-2.270E-06,0.800
-2.260E-06,0.660
-2.250E-06,0.480
-2.240E-06,0.280
-2.230E-06,0.080
-2.220E-06,-0.100
-2.210E-06,-0.220
-2.200E-06,-0.340
-2.190E-06,-0.500
-2.180E-06,-0.520
-2.170E-06,-0.620
-2.160E-06,-0.640
-2.150E-06,-0.660
-2.140E-06,-0.560
-2.130E-06,-0.540
-2.120E-06,-0.360
-2.110E-06,-0.140
-2.100E-06,0.060
-2.090E-06,0.360
-2.080E-06,0.620
-2.070E-06,1.040
-2.060E-06,0.940
-2.050E-06,0.860
-2.040E-06,1.000
-2.030E-06,0.840
-2.020E-06,0.480
-2.010E-06,0.440
-2.000E-06,0.200
-1.990E-06,0.460
-1.980E-06,-0.760
-1.970E-06,-0.460
-1.960E-06,-0.800
-1.950E-06,-0.880
-1.940E-06,-0.900
-1.930E-06,-0.720
-1.920E-06,-0.460
-1.910E-06,-0.280
-1.900E-06,-0.260
-1.890E-06,-0.100
-1.880E-06,-0.200
-1.870E-06,-0.060
-1.860E-06,-0.020
-1.850E-06,0.060
-1.840E-06,0.120
-1.830E-06,0.200
-1.820E-06,0.220
-1.810E-06,0.200
-1.800E-06,0.300
-1.790E-06,0.280
-1.780E-06,0.280
-1.770E-06,0.400
-1.760E-06,0.360
-1.750E-06,0.420
-1.740E-06,0.360
-1.730E-06,0.380
-1.720E-06,0.280
-1.710E-06,0.120
-1.700E-06,0.100
-1.690E-06,0.060
-1.680E-06,-0.060
-1.670E-06,-0.060
-1.660E-06,0.160
-1.650E-06,-0.040
-1.640E-06,0.160
-1.630E-06,0.000
-1.620E-06,0.160
-1.610E-06,-0.100
-1.600E-06,-0.040
-1.590E-06,-0.120
-1.580E-06,-0.280
-1.570E-06,-0.280
-1.560E-06,-0.140
-1.550E-06,-0.280
-1.540E-06,-0.120
-1.530E-06,-0.180
-1.520E-06,-0.160
-1.510E-06,-0.180
-1.500E-06,-0.120
-1.490E-06,0.100
-1.480E-06,-0.240
-1.470E-06,-0.120
-1.460E-06,-0.100
-1.450E-06,-0.360
-1.440E-06,-0.320
-1.430E-06,-0.320
-1.420E-06,-0.280
-1.410E-06,-0.300
-1.400E-06,-0.300
-1.390E-06,-0.140
-1.380E-06,-0.140
-1.370E-06,-0.080
-1.360E-06,-0.020
-1.350E-06,-0.060
-1.340E-06,-0.260
-1.330E-06,0.120
-1.320E-06,-0.080
-1.310E-06,0.380
-1.300E-06,-0.260
-1.290E-06,0.280
-1.280E-06,0.020
-1.270E-06,-0.120
-1.260E-06,-0.060
-1.250E-06,-0.220
-1.240E-06,0.260
-1.230E-06,-0.220
-1.220E-06,0.220
-1.210E-06,0.020
-1.200E-06,0.040
-1.190E-06,0.320
-1.180E-06,0.360
-1.170E-06,0.280
-1.160E-06,0.100
-1.150E-06,-0.020
-1.140E-06,-0.360
-1.130E-06,-0.340
-1.120E-06,-0.480
-1.110E-06,-0.280
-1.100E-06,-0.460
-1.090E-06,0.140
-1.080E-06,0.380
-1.070E-06,1.120
-1.060E-06,1.780
-1.050E-06,2.160
-1.040E-06,2.140
-1.030E-06,1.840
-1.020E-06,1.120
-1.010E-06,0.480
-1.000E-06,-0.240
-9.900E-07,-0.500
-9.800E-07,-0.520
-9.700E-07,-0.800
-9.600E-07,-1.240
-9.500E-07,-2.060
-9.400E-07,-2.100
-9.300E-07,-2.120
-9.200E-07,-2.120
-9.100E-07,-1.720
-9.000E-07,-1.340
-8.900E-07,-1.200
-8.800E-07,-1.060
-8.700E-07,-1.080
-8.600E-07,-1.060
-8.500E-07,-0.860
-8.400E-07,-0.300
-8.300E-07,0.240
-8.200E-07,0.660
-8.100E-07,0.860
-8.000E-07,0.980
-7.900E-07,1.060
-7.800E-07,1.140
-7.700E-07,1.180
-7.600E-07,1.220
-7.500E-07,1.320
-7.400E-07,1.160
-7.300E-07,0.960
-7.200E-07,0.540
-7.100E-07,0.120
-7.000E-07,-0.420
-6.900E-07,-0.820
-6.800E-07,-1.080
-6.700E-07,-1.260
-6.600E-07,-1.300
-6.500E-07,-1.120
-6.400E-07,-1.020
-6.300E-07,-0.760
-6.200E-07,-0.500
-6.100E-07,-0.180
-6.000E-07,0.220
-5.900E-07,0.440
-5.800E-07,0.760
-5.700E-07,1.040
-5.600E-07,1.200
-5.500E-07,1.360
-5.400E-07,1.400
-5.300E-07,1.140
-5.200E-07,0.700
-5.100E-07,0.360
-5.000E-07,0.020
-4.900E-07,-0.400
-4.800E-07,-0.780
-4.700E-07,-1.080
-4.600E-07,-1.080
-4.500E-07,-1.240
-4.400E-07,-1.320
-4.300E-07,-1.400
-4.200E-07,-1.380
-4.100E-07,-1.240
-4.000E-07,-1.160
-3.900E-07,-1.020
-3.800E-07,-0.900
-3.700E-07,-0.760
-3.600E-07,-0.520
-3.500E-07,-0.360
-3.400E-07,-0.140
-3.300E-07,0.080
-3.200E-07,0.360
-3.100E-07,0.520
-3.000E-07,0.540
-2.900E-07,0.800
-2.800E-07,0.760
-2.700E-07,0.740
-2.600E-07,0.760
-2.500E-07,0.420
-2.400E-07,0.340
-2.300E-07,0.200
-2.200E-07,-0.060
-2.100E-07,-0.240
-2.000E-07,-0.340
-1.900E-07,-0.300
-1.800E-07,-0.620
-1.700E-07,-0.520
-1.600E-07,-0.800
-1.500E-07,-0.640
-1.400E-07,-0.420
-1.300E-07,-0.500
-1.200E-07,-0.100
-1.100E-07,-0.040
-1.000E-07,0.000
-9.000E-08,0.200
-8.000E-08,0.080
-7.000E-08,0.180
-6.000E-08,0.220
-5.000E-08,0.220
-4.000E-08,0.100
-3.000E-08,0.340
-2.000E-08,-0.140
-1.000E-08,-1.480
0.000E+00,-1.920
1.000E-08,-0.120
2.000E-08,-2.120
3.000E-08,-0.580
4.000E-08,-1.900
5.000E-08,2.540
6.000E-08,0.700
7.000E-08,2.560
8.000E-08,2.340
9.000E-08,0.040
1.000E-07,1.560
1.100E-07,2.080
1.200E-07,2.620
1.300E-07,1.940
1.400E-07,2.100
1.500E-07,1.060
1.600E-07,0.160
1.700E-07,-0.360
1.800E-07,0.380
1.900E-07,1.000
2.000E-07,1.360
2.100E-07,0.760
2.200E-07,-0.300
2.300E-07,-2.120
2.400E-07,-2.120
2.500E-07,-2.140
2.600E-07,-2.120
2.700E-07,-2.120
2.800E-07,-2.120
2.900E-07,-2.120
3.000E-07,-2.120
3.100E-07,-2.120
3.200E-07,-1.720
3.300E-07,-0.960
3.400E-07,-0.140
3.500E-07,0.860
3.600E-07,1.760
3.700E-07,2.700
3.800E-07,3.160
3.900E-07,3.120
4.000E-07,3.000
4.100E-07,2.580
4.200E-07,1.960
4.300E-07,1.460
4.400E-07,1.020
4.500E-07,0.760
4.600E-07,0.360
4.700E-07,-0.020
4.800E-07,-0.340
4.900E-07,-0.580
5.000E-07,-0.760
5.100E-07,-0.820
5.200E-07,-0.840
5.300E-07,-0.740
5.400E-07,-0.620
5.500E-07,-0.480
5.600E-07,-0.260
5.700E-07,-0.060
5.800E-07,0.120
5.900E-07,0.260
6.000E-07,0.420
6.100E-07,0.560
6.200E-07,0.700
6.300E-07,0.880
6.400E-07,0.920
6.500E-07,1.040
6.600E-07,0.980
6.700E-07,0.880
6.800E-07,0.620
6.900E-07,0.200
7.000E-07,-0.280
7.100E-07,-0.880
7.200E-07,-1.400
7.300E-07,-1.640
7.400E-07,-1.880
7.500E-07,-1.860
7.600E-07,-1.800
7.700E-07,-1.840
7.800E-07,-1.600
7.900E-07,-1.440
8.000E-07,-0.860
8.100E-07,-0.240
8.200E-07,0.660
8.300E-07,1.320
8.400E-07,1.820
8.500E-07,2.040
8.600E-07,1.860
8.700E-07,1.300
8.800E-07,0.860
8.900E-07,0.140
9.000E-07,-0.340
9.100E-07,-1.300
9.200E-07,-2.120
9.300E-07,-2.120
9.400E-07,-2.120
9.500E-07,-2.120
9.600E-07,-2.120
9.700E-07,-2.120
9.800E-07,-2.120
9.900E-07,-2.100
1.000E-06,-2.040
1.010E-06,-1.900
1.020E-06,-1.600
1.030E-06,-1.500
1.040E-06,-1.180
1.050E-06,-0.840
1.060E-06,-0.220
1.070E-06,0.140
1.080E-06,0.540
1.090E-06,0.620
1.100E-06,0.500
1.110E-06,0.620
1.120E-06,0.800
1.130E-06,1.000
1.140E-06,1.200
1.150E-06,1.280
1.160E-06,1.240
1.170E-06,1.040
1.180E-06,0.540
1.190E-06,0.580
1.200E-06,0.300
1.210E-06,-0.100
1.220E-06,-0.500
1.230E-06,-1.120
1.240E-06,-1.560
1.250E-06,-2.120
1.260E-06,-2.120
1.270E-06,-2.120
1.280E-06,-2.140
1.290E-06,-1.840
1.300E-06,-1.140
1.310E-06,-0.840
1.320E-06,-0.600
1.330E-06,-0.500
1.340E-06,-0.560
1.350E-06,-0.560
1.360E-06,-0.420
1.370E-06,-0.240
1.380E-06,-0.060
1.390E-06,-0.120
1.400E-06,-0.080
1.410E-06,-0.260
1.420E-06,-0.220
1.430E-06,-0.320
1.440E-06,-0.320
1.450E-06,-0.120
1.460E-06,-0.300
1.470E-06,-0.300
1.480E-06,-0.720
1.490E-06,-0.860
1.500E-06,-1.760
1.510E-06,-2.100
1.520E-06,-2.120
1.530E-06,-2.120
1.540E-06,-2.120
1.550E-06,-2.120
1.560E-06,-2.120
1.570E-06,-2.120
1.580E-06,-2.040
1.590E-06,-1.720
1.600E-06,-1.280
1.610E-06,-1.080
1.620E-06,-0.860
1.630E-06,-1.000
1.640E-06,-0.980
1.650E-06,-0.580
1.660E-06,-0.280
1.670E-06,-0.200
1.680E-06,1.360
1.690E-06,-0.560
1.700E-06,0.420
1.710E-06,-2.120
1.720E-06,-2.120
1.730E-06,-2.120
1.740E-06,-2.100
1.750E-06,-2.120
1.760E-06,-2.120
1.770E-06,-2.140
1.780E-06,-2.140
1.790E-06,-2.140
1.800E-06,-2.140
1.810E-06,-2.140
1.820E-06,-2.120
1.830E-06,-2.120
1.840E-06,-2.120
1.850E-06,-1.740
1.860E-06,-1.160
1.870E-06,-0.800
1.880E-06,-0.640
1.890E-06,-0.740
1.900E-06,-0.500
1.910E-06,-0.460
1.920E-06,-0.360
1.930E-06,-0.080
1.940E-06,0.040
1.950E-06,-0.080
1.960E-06,-0.400
1.970E-06,-0.800
1.980E-06,-1.380
1.990E-06,-1.840
2.000E-06,-2.120
2.010E-06,-2.120
2.020E-06,-2.120
2.030E-06,-2.100
2.040E-06,-2.100
2.050E-06,-2.120
2.060E-06,-2.100
2.070E-06,-1.740
2.080E-06,-1.280
2.090E-06,-0.580
2.100E-06,0.160
2.110E-06,0.900
2.120E-06,1.480
2.130E-06,1.920
2.140E-06,2.080
2.150E-06,2.180
2.160E-06,1.880
2.170E-06,1.320
2.180E-06,1.300
2.190E-06,0.920
2.200E-06,1.600
2.210E-06,1.400
2.220E-06,0.820
2.230E-06,-0.340
2.240E-06,-0.640
2.250E-06,-1.120
2.260E-06,-2.120
2.270E-06,-2.120
2.280E-06,-2.140
2.290E-06,-2.120
2.300E-06,-2.120
2.310E-06,-2.120
2.320E-06,-2.120
2.330E-06,-2.120
2.340E-06,-2.120
2.350E-06,-2.120
2.360E-06,-2.120
2.370E-06,-1.780
2.380E-06,-1.080
2.390E-06,-0.220
2.400E-06,0.860
2.410E-06,1.640
2.420E-06,2.260
2.430E-06,2.540
2.440E-06,2.480
2.450E-06,2.300
2.460E-06,1.960
2.470E-06,1.600
2.480E-06,1.260
2.490E-06,1.020
2.500E-06,0.780
2.510E-06,0.500
2.520E-06,0.260
2.530E-06,0.080
2.540E-06,-0.080
2.550E-06,-0.160
2.560E-06,-0.120
2.570E-06,0.140
2.580E-06,0.420
2.590E-06,0.780
2.600E-06,1.120
2.610E-06,1.440
2.620E-06,1.660
2.630E-06,1.840
2.640E-06,1.980
2.650E-06,2.140
2.660E-06,2.220
2.670E-06,2.240
2.680E-06,2.120
2.690E-06,1.900
2.700E-06,1.520
2.710E-06,1.080
2.720E-06,0.560
2.730E-06,0.040
2.740E-06,-0.480
2.750E-06,-0.940
2.760E-06,-1.320
2.770E-06,-1.680
2.780E-06,-1.920
2.790E-06,-2.120
2.800E-06,-2.120
2.810E-06,-2.100
2.820E-06,-2.060
2.830E-06,-1.820
2.840E-06,-1.440
2.850E-06,-1.020
2.860E-06,-0.600
2.870E-06,0.160
2.880E-06,1.060
2.890E-06,1.720
2.900E-06,1.980
2.910E-06,2.100
2.920E-06,2.180
2.930E-06,2.060
2.940E-06,1.660
2.950E-06,-0.120
2.960E-06,-0.060
2.970E-06,-0.740
2.980E-06,-0.940
2.990E-06,-1.440
3.000E-06,-1.140
3.010E-06,-1.140
3.020E-06,-0.880
3.030E-06,-0.840
3.040E-06,-0.460
3.050E-06,0.120
3.060E-06,0.540
3.070E-06,0.540
3.080E-06,0.720
3.090E-06,0.700
3.100E-06,0.760
3.110E-06,0.880
3.120E-06,0.980
3.130E-06,1.100
3.140E-06,1.240
3.150E-06,1.280
3.160E-06,1.300
3.170E-06,1.380
3.180E-06,1.320
3.190E-06,1.260
3.200E-06,1.220
3.210E-06,1.160
3.220E-06,1.000
3.230E-06,0.880
3.240E-06,0.740
3.250E-06,0.600
3.260E-06,0.460
3.270E-06,0.360
3.280E-06,0.260
3.290E-06,0.220
3.300E-06,0.220
3.310E-06,0.260
3.320E-06,0.360
3.330E-06,0.360
3.340E-06,0.480
3.350E-06,0.540
3.360E-06,0.540
