mediciones/8-28/-37/WaveData65887.csv

#timebase=2000000(ps)
,#voltbase=500000(mv/100)
#size=4000
-8.350E-06,0.000
-8.340E-06,0.040
-8.330E-06,0.020
-8.320E-06,0.060
-8.310E-06,0.040
-8.300E-06,0.020
-8.290E-06,0.060
-8.280E-06,0.020
-8.270E-06,0.040
-8.260E-06,0.020
-8.250E-06,0.020
-8.240E-06,0.040
-8.230E-06,0.060
-8.220E-06,0.000
-8.210E-06,0.060
-8.200E-06,0.020
-8.190E-06,0.020
-8.180E-06,0.040
-8.170E-06,0.020
-8.160E-06,0.020
-8.150E-06,0.040
-8.140E-06,0.020
-8.130E-06,0.040
-8.120E-06,0.020
-8.110E-06,0.040
-8.100E-06,0.020
-8.090E-06,0.060
-8.080E-06,0.020
-8.070E-06,0.020
-8.060E-06,0.020
-8.050E-06,0.040
-8.040E-06,0.080
-8.030E-06,0.040
-8.020E-06,0.040
-8.010E-06,0.040
-8.000E-06,0.060
-7.990E-06,0.020
-7.980E-06,0.040
-7.970E-06,0.020
-7.960E-06,0.060
-7.950E-06,0.040
-7.940E-06,0.060
-7.930E-06,0.020
-7.920E-06,0.060
-7.910E-06,0.040
-7.900E-06,0.040
-7.890E-06,0.080
-7.880E-06,0.040
-7.870E-06,0.060
-7.860E-06,0.020
-7.850E-06,0.020
-7.840E-06,0.040
-7.830E-06,0.000
-7.820E-06,0.060
-7.810E-06,0.040
-7.800E-06,0.040
-7.790E-06,0.080
-7.780E-06,0.040
-7.770E-06,0.040
-7.760E-06,0.060
-7.750E-06,0.020
-7.740E-06,0.060
-7.730E-06,0.040
-7.720E-06,0.020
-7.710E-06,0.020
-7.700E-06,0.040
-7.690E-06,0.060
-7.680E-06,0.040
-7.670E-06,0.040
-7.660E-06,0.040
-7.650E-06,0.060
-7.640E-06,0.020
-7.630E-06,0.080
-7.620E-06,0.060
-7.610E-06,0.020
-7.600E-06,0.040
-7.590E-06,0.040
-7.580E-06,0.020
-7.570E-06,0.020
-7.560E-06,0.040
-7.550E-06,0.040
-7.540E-06,0.040
-7.530E-06,0.060
-7.520E-06,0.020
-7.510E-06,0.060
-7.500E-06,0.060
-7.490E-06,0.040
-7.480E-06,0.060
-7.470E-06,0.060
-7.460E-06,0.060
-7.450E-06,0.060
-7.440E-06,0.080
-7.430E-06,0.080
-7.420E-06,0.080
-7.410E-06,0.040
-7.400E-06,0.060
-7.390E-06,0.040
-7.380E-06,0.040
-7.370E-06,0.020
-7.360E-06,0.080
-7.350E-06,0.000
-7.340E-06,0.040
-7.330E-06,0.080
-7.320E-06,0.020
-7.310E-06,0.000
-7.300E-06,0.040
-7.290E-06,0.040
-7.280E-06,0.060
-7.270E-06,0.060
-7.260E-06,0.020
-7.250E-06,0.040
-7.240E-06,0.060
-7.230E-06,0.020
-7.220E-06,0.020
-7.210E-06,0.040
-7.200E-06,0.040
-7.190E-06,0.020
-7.180E-06,0.060
-7.170E-06,0.060
-7.160E-06,0.040
-7.150E-06,0.040
-7.140E-06,0.040
-7.130E-06,0.040
-7.120E-06,0.080
-7.110E-06,0.060
-7.100E-06,0.020
-7.090E-06,0.020
-7.080E-06,0.080
-7.070E-06,0.080
-7.060E-06,0.040
-7.050E-06,0.040
-7.040E-06,0.020
-7.030E-06,0.040
-7.020E-06,0.040
-7.010E-06,0.020
-7.000E-06,0.020
-6.990E-06,0.020
-6.980E-06,0.060
-6.970E-06,0.040
-6.960E-06,0.040
-6.950E-06,0.060
-6.940E-06,0.060
-6.930E-06,0.040
-6.920E-06,0.040
-6.910E-06,0.060
-6.900E-06,0.040
-6.890E-06,0.080
-6.880E-06,0.040
-6.870E-06,0.000
-6.860E-06,0.040
-6.850E-06,0.060
-6.840E-06,0.060
-6.830E-06,0.040
-6.820E-06,0.080
-6.810E-06,0.040
-6.800E-06,0.040
-6.790E-06,0.020
-6.780E-06,0.040
-6.770E-06,0.060
-6.760E-06,0.020
-6.750E-06,0.040
-6.740E-06,0.040
-6.730E-06,0.020
-6.720E-06,0.040
-6.710E-06,0.020
-6.700E-06,0.040
-6.690E-06,0.040
-6.680E-06,0.060
-6.670E-06,0.040
-6.660E-06,0.020
-6.650E-06,0.040
-6.640E-06,0.040
-6.630E-06,0.020
-6.620E-06,0.020
-6.610E-06,0.060
-6.600E-06,0.020
-6.590E-06,0.040
-6.580E-06,0.060
-6.570E-06,0.040
-6.560E-06,0.060
-6.550E-06,0.060
-6.540E-06,0.040
-6.530E-06,0.020
-6.520E-06,0.040
-6.510E-06,0.040
-6.500E-06,0.060
-6.490E-06,0.040
-6.480E-06,0.040
-6.470E-06,0.080
-6.460E-06,0.040
-6.450E-06,0.020
-6.440E-06,0.040
-6.430E-06,0.020
-6.420E-06,0.040
-6.410E-06,0.040
-6.400E-06,0.060
-6.390E-06,0.060
-6.380E-06,0.040
-6.370E-06,0.000
-6.360E-06,0.040
-6.350E-06,0.040
-6.340E-06,0.020
-6.330E-06,0.040
-6.320E-06,0.060
-6.310E-06,0.020
-6.300E-06,0.060
-6.290E-06,0.080
-6.280E-06,0.060
-6.270E-06,0.020
-6.260E-06,0.000
-6.250E-06,0.040
-6.240E-06,0.040
-6.230E-06,0.040
-6.220E-06,0.020
-6.210E-06,0.040
-6.200E-06,0.040
-6.190E-06,0.060
-6.180E-06,0.060
-6.170E-06,0.040
-6.160E-06,0.060
-6.150E-06,0.000
-6.140E-06,0.020
-6.130E-06,0.040
-6.120E-06,0.060
-6.110E-06,0.060
-6.100E-06,0.020
-6.090E-06,0.040
-6.080E-06,0.040
-6.070E-06,0.080
-6.060E-06,0.040
-6.050E-06,0.040
-6.040E-06,0.040
-6.030E-06,0.060
-6.020E-06,0.060
-6.010E-06,0.080
-6.000E-06,0.020
-5.990E-06,0.060
-5.980E-06,0.060
-5.970E-06,0.020
-5.960E-06,0.040
-5.950E-06,0.080
-5.940E-06,0.020
-5.930E-06,0.060
-5.920E-06,0.060
-5.910E-06,0.040
-5.900E-06,0.040
-5.890E-06,0.020
-5.880E-06,0.040
-5.870E-06,0.080
-5.860E-06,0.040
-5.850E-06,0.040
-5.840E-06,0.060
-5.830E-06,0.020
-5.820E-06,0.060
-5.810E-06,0.060
-5.800E-06,0.020
-5.790E-06,0.020
-5.780E-06,0.040
-5.770E-06,0.000
-5.760E-06,0.060
-5.750E-06,0.020
-5.740E-06,0.040
-5.730E-06,0.020
-5.720E-06,0.020
-5.710E-06,0.040
-5.700E-06,0.060
-5.690E-06,0.040
-5.680E-06,0.020
-5.670E-06,0.040
-5.660E-06,0.020
-5.650E-06,0.060
-5.640E-06,0.040
-5.630E-06,0.080
-5.620E-06,0.060
-5.610E-06,0.080
-5.600E-06,0.040
-5.590E-06,0.020
-5.580E-06,0.020
-5.570E-06,0.060
-5.560E-06,0.000
-5.550E-06,0.040
-5.540E-06,0.040
-5.530E-06,0.080
-5.520E-06,0.040
-5.510E-06,0.060
-5.500E-06,0.060
-5.490E-06,0.080
-5.480E-06,0.020
-5.470E-06,0.060
-5.460E-06,0.060
-5.450E-06,0.080
-5.440E-06,0.060
-5.430E-06,0.040
-5.420E-06,0.040
-5.410E-06,0.060
-5.400E-06,0.060
-5.390E-06,0.020
-5.380E-06,0.060
-5.370E-06,0.040
-5.360E-06,0.080
-5.350E-06,0.020
-5.340E-06,0.060
-5.330E-06,0.020
-5.320E-06,0.020
-5.310E-06,0.060
-5.300E-06,0.040
-5.290E-06,0.060
-5.280E-06,0.060
-5.270E-06,0.060
-5.260E-06,0.020
-5.250E-06,0.020
-5.240E-06,0.060
-5.230E-06,0.040
-5.220E-06,0.060
-5.210E-06,0.060
-5.200E-06,0.020
-5.190E-06,0.040
-5.180E-06,0.040
-5.170E-06,0.060
-5.160E-06,0.020
-5.150E-06,0.080
-5.140E-06,0.020
-5.130E-06,0.080
-5.120E-06,0.040
-5.110E-06,0.040
-5.100E-06,0.080
-5.090E-06,0.040
-5.080E-06,0.060
-5.070E-06,0.020
-5.060E-06,0.060
-5.050E-06,0.040
-5.040E-06,0.060
-5.030E-06,0.040
-5.020E-06,0.060
-5.010E-06,0.040
-5.000E-06,0.040
-4.990E-06,0.060
-4.980E-06,0.060
-4.970E-06,0.000
-4.960E-06,0.020
-4.950E-06,0.040
-4.940E-06,0.020
-4.930E-06,0.040
-4.920E-06,0.020
-4.910E-06,0.020
-4.900E-06,0.040
-4.890E-06,0.000
-4.880E-06,0.040
-4.870E-06,0.060
-4.860E-06,0.020
-4.850E-06,0.080
-4.840E-06,0.060
-4.830E-06,0.060
-4.820E-06,0.060
-4.810E-06,0.060
-4.800E-06,0.020
-4.790E-06,0.060
-4.780E-06,0.040
-4.770E-06,0.060
-4.760E-06,0.060
-4.750E-06,0.040
-4.740E-06,0.080
-4.730E-06,0.040
-4.720E-06,0.080
-4.710E-06,0.000
-4.700E-06,0.040
-4.690E-06,0.060
-4.680E-06,0.020
-4.670E-06,0.020
-4.660E-06,0.040
-4.650E-06,0.080
-4.640E-06,0.040
-4.630E-06,0.040
-4.620E-06,0.020
-4.610E-06,0.040
-4.600E-06,0.020
-4.590E-06,0.020
-4.580E-06,0.060
-4.570E-06,0.060
-4.560E-06,0.040
-4.550E-06,0.060
-4.540E-06,0.060
-4.530E-06,0.060
-4.520E-06,0.040
-4.510E-06,0.060
-4.500E-06,0.020
-4.490E-06,0.060
-4.480E-06,0.060
-4.470E-06,0.040
-4.460E-06,0.040
-4.450E-06,0.040
-4.440E-06,0.020
-4.430E-06,0.060
-4.420E-06,-0.020
-4.410E-06,0.060
-4.400E-06,0.020
-4.390E-06,0.040
-4.380E-06,0.020
-4.370E-06,0.040
-4.360E-06,0.040
-4.350E-06,0.080
-4.340E-06,0.040
-4.330E-06,0.020
-4.320E-06,0.040
-4.310E-06,0.060
-4.300E-06,0.060
-4.290E-06,0.040
-4.280E-06,0.040
-4.270E-06,0.020
-4.260E-06,0.060
-4.250E-06,0.080
-4.240E-06,0.040
-4.230E-06,0.060
-4.220E-06,0.020
-4.210E-06,0.040
-4.200E-06,0.020
-4.190E-06,0.040
-4.180E-06,0.060
-4.170E-06,0.020
-4.160E-06,0.060
-4.150E-06,0.040
-4.140E-06,0.080
-4.130E-06,0.040
-4.120E-06,0.040
-4.110E-06,0.020
-4.100E-06,0.040
-4.090E-06,0.060
-4.080E-06,0.060
-4.070E-06,0.000
-4.060E-06,0.040
-4.050E-06,0.040
-4.040E-06,0.060
-4.030E-06,0.040
-4.020E-06,0.040
-4.010E-06,0.080
-4.000E-06,0.040
-3.990E-06,0.040
-3.980E-06,0.040
-3.970E-06,0.040
-3.960E-06,0.040
-3.950E-06,0.020
-3.940E-06,0.000
-3.930E-06,0.000
-3.920E-06,0.040
-3.910E-06,0.060
-3.900E-06,0.060
-3.890E-06,0.040
-3.880E-06,0.040
-3.870E-06,0.080
-3.860E-06,0.040
-3.850E-06,0.040
-3.840E-06,0.040
-3.830E-06,0.060
-3.820E-06,0.060
-3.810E-06,0.080
-3.800E-06,0.040
-3.790E-06,0.060
-3.780E-06,0.020
-3.770E-06,0.060
-3.760E-06,0.040
-3.750E-06,0.060
-3.740E-06,0.040
-3.730E-06,0.020
-3.720E-06,0.040
-3.710E-06,0.020
-3.700E-06,0.040
-3.690E-06,0.040
-3.680E-06,0.040
-3.670E-06,0.060
-3.660E-06,0.060
-3.650E-06,0.040
-3.640E-06,0.060
-3.630E-06,0.040
-3.620E-06,0.060
-3.610E-06,0.040
-3.600E-06,0.060
-3.590E-06,0.040
-3.580E-06,0.060
-3.570E-06,0.060
-3.560E-06,0.060
-3.550E-06,0.080
-3.540E-06,0.040
-3.530E-06,0.040
-3.520E-06,0.040
-3.510E-06,0.060
-3.500E-06,0.060
-3.490E-06,0.060
-3.480E-06,0.060
-3.470E-06,0.040
-3.460E-06,0.060
-3.450E-06,0.040
-3.440E-06,0.020
-3.430E-06,0.060
-3.420E-06,0.060
-3.410E-06,0.060
-3.400E-06,0.040
-3.390E-06,0.020
-3.380E-06,0.040
-3.370E-06,0.020
-3.360E-06,0.060
-3.350E-06,0.060
-3.340E-06,0.020
-3.330E-06,0.080
-3.320E-06,0.020
-3.310E-06,0.040
-3.300E-06,0.040
-3.290E-06,0.020
-3.280E-06,0.060
-3.270E-06,0.040
-3.260E-06,0.060
-3.250E-06,0.060
-3.240E-06,0.040
-3.230E-06,0.040
-3.220E-06,0.020
-3.210E-06,0.040
-3.200E-06,0.040
-3.190E-06,0.040
-3.180E-06,0.060
-3.170E-06,0.040
-3.160E-06,0.060
-3.150E-06,0.020
-3.140E-06,0.040
-3.130E-06,0.020
-3.120E-06,0.060
-3.110E-06,0.040
-3.100E-06,0.040
-3.090E-06,0.040
-3.080E-06,0.000
-3.070E-06,0.060
-3.060E-06,0.060
-3.050E-06,0.060
-3.040E-06,0.020
-3.030E-06,0.020
-3.020E-06,0.040
-3.010E-06,0.060
-3.000E-06,0.040
-2.990E-06,0.000
-2.980E-06,0.040
-2.970E-06,0.020
-2.960E-06,0.040
-2.950E-06,0.020
-2.940E-06,-0.020
-2.930E-06,0.020
-2.920E-06,0.040
-2.910E-06,0.040
-2.900E-06,0.020
-2.890E-06,0.060
-2.880E-06,0.040
-2.870E-06,0.040
-2.860E-06,0.060
-2.850E-06,0.020
-2.840E-06,0.060
-2.830E-06,0.000
-2.820E-06,0.020
-2.810E-06,0.020
-2.800E-06,0.020
-2.790E-06,0.040
-2.780E-06,0.040
-2.770E-06,0.040
-2.760E-06,0.040
-2.750E-06,0.040
-2.740E-06,0.000
-2.730E-06,0.020
-2.720E-06,0.060
-2.710E-06,0.020
-2.700E-06,0.020
-2.690E-06,0.020
-2.680E-06,0.040
-2.670E-06,0.020
-2.660E-06,0.040
-2.650E-06,0.040
-2.640E-06,0.040
-2.630E-06,0.040
-2.620E-06,0.040
-2.610E-06,0.080
-2.600E-06,0.060
-2.590E-06,0.060
-2.580E-06,0.040
-2.570E-06,0.060
-2.560E-06,0.040
-2.550E-06,0.040
-2.540E-06,0.040
-2.530E-06,0.040
-2.520E-06,0.080
-2.510E-06,0.060
-2.500E-06,0.040
-2.490E-06,0.060
-2.480E-06,0.060
-2.470E-06,0.060
-2.460E-06,0.020
-2.450E-06,0.040
-2.440E-06,0.040
-2.430E-06,0.020
-2.420E-06,0.060
-2.410E-06,0.020
-2.400E-06,0.040
-2.390E-06,0.020
-2.380E-06,0.020
-2.370E-06,0.060
-2.360E-06,0.060
-2.350E-06,0.060
-2.340E-06,0.060
-2.330E-06,0.080
-2.320E-06,0.060
-2.310E-06,0.000
-2.300E-06,0.040
-2.290E-06,0.080
-2.280E-06,0.040
-2.270E-06,0.060
-2.260E-06,0.040
-2.250E-06,0.040
-2.240E-06,0.060
-2.230E-06,0.040
-2.220E-06,0.040
-2.210E-06,0.020
-2.200E-06,0.020
-2.190E-06,0.060
-2.180E-06,0.060
-2.170E-06,0.020
-2.160E-06,0.020
-2.150E-06,0.060
-2.140E-06,0.020
-2.130E-06,0.060
-2.120E-06,0.040
-2.110E-06,0.040
-2.100E-06,0.040
-2.090E-06,0.020
-2.080E-06,0.040
-2.070E-06,0.060
-2.060E-06,0.080
-2.050E-06,0.040
-2.040E-06,0.020
-2.030E-06,0.020
-2.020E-06,-0.080
-2.010E-06,-0.480
-2.000E-06,-1.320
-1.990E-06,-2.320
-1.980E-06,-3.100
-1.970E-06,-3.220
-1.960E-06,-2.900
-1.950E-06,-1.820
-1.940E-06,-0.560
-1.930E-06,0.720
-1.920E-06,1.900
-1.910E-06,2.080
-1.900E-06,2.080
-1.890E-06,2.080
-1.880E-06,2.060
-1.870E-06,2.080
-1.860E-06,2.100
-1.850E-06,1.960
-1.840E-06,1.020
-1.830E-06,0.180
-1.820E-06,-0.360
-1.810E-06,-0.660
-1.800E-06,-0.740
-1.790E-06,-0.580
-1.780E-06,-0.440
-1.770E-06,-0.340
-1.760E-06,-0.380
-1.750E-06,-0.560
-1.740E-06,-0.900
-1.730E-06,-1.280
-1.720E-06,-1.600
-1.710E-06,-1.860
-1.700E-06,-1.980
-1.690E-06,-1.880
-1.680E-06,-1.660
-1.670E-06,-1.260
-1.660E-06,-0.700
-1.650E-06,-0.060
-1.640E-06,0.620
-1.630E-06,1.200
-1.620E-06,1.560
-1.610E-06,1.760
-1.600E-06,1.720
-1.590E-06,1.480
-1.580E-06,1.120
-1.570E-06,0.680
-1.560E-06,0.180
-1.550E-06,-0.220
-1.540E-06,-0.600
-1.530E-06,-0.860
-1.520E-06,-0.980
-1.510E-06,-1.000
-1.500E-06,-0.940
-1.490E-06,-0.820
-1.480E-06,-0.680
-1.470E-06,-0.520
-1.460E-06,-0.340
-1.450E-06,-0.180
-1.440E-06,0.100
-1.430E-06,0.300
-1.420E-06,0.620
-1.410E-06,0.780
-1.400E-06,0.940
-1.390E-06,1.040
-1.380E-06,1.100
-1.370E-06,1.080
-1.360E-06,1.020
-1.350E-06,0.840
-1.340E-06,0.760
-1.330E-06,0.600
-1.320E-06,0.180
-1.310E-06,-0.060
-1.300E-06,-0.220
-1.290E-06,-0.340
-1.280E-06,-0.620
-1.270E-06,-0.640
-1.260E-06,-0.740
-1.250E-06,-0.900
-1.240E-06,-0.960
-1.230E-06,-0.840
-1.220E-06,-0.860
-1.210E-06,-0.660
-1.200E-06,-0.500
-1.190E-06,-0.160
-1.180E-06,0.000
-1.170E-06,0.180
-1.160E-06,0.460
-1.150E-06,0.780
-1.140E-06,0.820
-1.130E-06,0.980
-1.120E-06,0.880
-1.110E-06,0.840
-1.100E-06,0.640
-1.090E-06,0.380
-1.080E-06,0.320
-1.070E-06,-0.160
-1.060E-06,-0.200
-1.050E-06,-0.560
-1.040E-06,-0.720
-1.030E-06,-0.800
-1.020E-06,-0.860
-1.010E-06,-0.780
-1.000E-06,-0.740
-9.900E-07,-0.480
-9.800E-07,0.120
-9.700E-07,-0.280
-9.600E-07,-0.020
-9.500E-07,-0.060
-9.400E-07,-0.060
-9.300E-07,-0.180
-9.200E-07,-0.100
-9.100E-07,0.060
-9.000E-07,0.220
-8.900E-07,0.120
-8.800E-07,0.140
-8.700E-07,0.140
-8.600E-07,0.120
-8.500E-07,0.220
-8.400E-07,0.200
-8.300E-07,0.280
-8.200E-07,0.340
-8.100E-07,0.320
-8.000E-07,0.320
-7.900E-07,0.200
-7.800E-07,0.120
-7.700E-07,0.040
-7.600E-07,0.000
-7.500E-07,-0.080
-7.400E-07,-0.140
-7.300E-07,-0.100
-7.200E-07,-0.060
-7.100E-07,-0.060
-7.000E-07,-0.080
-6.900E-07,0.000
-6.800E-07,0.000
-6.700E-07,-0.060
-6.600E-07,-0.160
-6.500E-07,-0.160
-6.400E-07,-0.300
-6.300E-07,-0.320
-6.200E-07,-0.320
-6.100E-07,-0.320
-6.000E-07,-0.280
-5.900E-07,-0.340
-5.800E-07,-0.220
-5.700E-07,-0.340
-5.600E-07,-0.220
-5.500E-07,-0.460
-5.400E-07,-0.280
-5.300E-07,-0.200
-5.200E-07,-0.280
-5.100E-07,-0.360
-5.000E-07,-0.320
-4.900E-07,-0.260
-4.800E-07,-0.400
-4.700E-07,-0.420
-4.600E-07,-0.320
-4.500E-07,-0.420
-4.400E-07,-0.480
-4.300E-07,-0.560
-4.200E-07,-0.420
-4.100E-07,-0.300
-4.000E-07,-0.200
-3.900E-07,0.160
-3.800E-07,0.080
-3.700E-07,0.160
-3.600E-07,-0.360
-3.500E-07,-0.500
-3.400E-07,-0.240
-3.300E-07,-0.680
-3.200E-07,-0.200
-3.100E-07,-0.500
-3.000E-07,-0.080
-2.900E-07,-0.340
-2.800E-07,-0.160
-2.700E-07,-0.560
-2.600E-07,-0.460
-2.500E-07,-0.640
-2.400E-07,-0.520
-2.300E-07,-0.940
-2.200E-07,-0.480
-2.100E-07,-0.760
-2.000E-07,-0.660
-1.900E-07,-1.060
-1.800E-07,-1.060
-1.700E-07,-0.740
-1.600E-07,-1.000
-1.500E-07,-0.260
-1.400E-07,0.020
-1.300E-07,1.100
-1.200E-07,1.780
-1.100E-07,2.100
-1.000E-07,2.100
-9.000E-08,1.660
-8.000E-08,0.640
-7.000E-08,-0.120
-6.000E-08,-1.180
-5.000E-08,-1.700
-4.000E-08,-1.760
-3.000E-08,-2.060
-2.000E-08,-2.320
-1.000E-08,-2.860
0.000E+00,-3.160
1.000E-08,-3.120
2.000E-08,-2.880
3.000E-08,-2.360
4.000E-08,-1.800
5.000E-08,-1.340
6.000E-08,-0.920
7.000E-08,-0.540
8.000E-08,0.080
9.000E-08,0.820
1.000E-07,1.680
1.100E-07,2.080
1.200E-07,2.100
1.300E-07,2.080
1.400E-07,2.040
1.500E-07,1.420
1.600E-07,1.080
1.700E-07,0.640
1.800E-07,0.520
1.900E-07,0.140
2.000E-07,-0.240
2.100E-07,-0.860
2.200E-07,-1.400
2.300E-07,-2.020
2.400E-07,-2.520
2.500E-07,-2.540
2.600E-07,-2.540
2.700E-07,-2.480
2.800E-07,-2.320
2.900E-07,-2.180
3.000E-07,-1.800
3.100E-07,-1.460
3.200E-07,-0.900
3.300E-07,-0.340
3.400E-07,0.340
3.500E-07,0.780
3.600E-07,1.140
3.700E-07,1.280
3.800E-07,1.380
3.900E-07,1.260
4.000E-07,1.100
4.100E-07,0.860
4.200E-07,0.400
4.300E-07,-0.080
4.400E-07,-0.500
4.500E-07,-0.980
4.600E-07,-1.260
4.700E-07,-1.600
4.800E-07,-1.600
4.900E-07,-1.780
5.000E-07,-1.600
5.100E-07,-1.640
5.200E-07,-1.620
5.300E-07,-1.640
5.400E-07,-1.780
5.500E-07,-1.700
5.600E-07,-1.800
5.700E-07,-1.620
5.800E-07,-1.440
5.900E-07,-1.080
6.000E-07,-0.800
6.100E-07,-0.640
6.200E-07,-0.420
6.300E-07,-0.300
6.400E-07,-0.480
6.500E-07,-0.460
6.600E-07,-0.580
6.700E-07,-0.560
6.800E-07,-0.740
6.900E-07,-0.780
7.000E-07,-0.880
7.100E-07,-0.920
7.200E-07,-1.140
7.300E-07,-1.140
7.400E-07,-1.220
7.500E-07,-1.160
7.600E-07,-0.980
7.700E-07,-0.860
7.800E-07,-0.560
7.900E-07,0.100
8.000E-07,0.400
8.100E-07,0.040
8.200E-07,0.240
8.300E-07,-0.180
8.400E-07,-0.180
8.500E-07,-0.820
8.600E-07,-0.920
8.700E-07,-1.240
8.800E-07,-1.540
8.900E-07,-1.740
9.000E-07,-2.060
9.100E-07,-2.420
9.200E-07,-2.400
9.300E-07,-2.680
9.400E-07,-2.380
9.500E-07,-2.380
9.600E-07,-2.080
9.700E-07,-1.940
9.800E-07,-1.660
9.900E-07,-1.600
1.000E-06,-1.360
1.010E-06,-1.300
1.020E-06,-1.080
1.030E-06,-0.860
1.040E-06,-0.780
1.050E-06,-0.060
1.060E-06,-0.200
1.070E-06,0.520
1.080E-06,0.520
1.090E-06,0.560
1.100E-06,0.060
1.110E-06,-0.800
1.120E-06,-1.800
1.130E-06,-3.040
1.140E-06,-3.340
1.150E-06,-3.340
1.160E-06,-3.340
1.170E-06,-3.340
1.180E-06,-3.340
1.190E-06,-3.100
1.200E-06,-2.980
1.210E-06,-2.660
1.220E-06,-2.240
1.230E-06,-2.100
1.240E-06,-1.820
1.250E-06,-1.260
1.260E-06,-0.900
1.270E-06,-0.820
1.280E-06,-0.600
1.290E-06,-0.360
1.300E-06,-0.100
1.310E-06,0.240
1.320E-06,0.580
1.330E-06,1.000
1.340E-06,0.860
1.350E-06,0.520
1.360E-06,0.480
1.370E-06,0.140
1.380E-06,-0.340
1.390E-06,-0.680
1.400E-06,-1.520
1.410E-06,-2.260
1.420E-06,-2.780
1.430E-06,-3.360
1.440E-06,-3.340
1.450E-06,-3.340
1.460E-06,-3.340
1.470E-06,-3.340
1.480E-06,-2.980
1.490E-06,-2.720
1.500E-06,-2.400
1.510E-06,-2.060
1.520E-06,-1.820
1.530E-06,-1.340
1.540E-06,-1.180
1.550E-06,-0.920
1.560E-06,-0.780
1.570E-06,-0.600
1.580E-06,-0.700
1.590E-06,-0.720
1.600E-06,-0.900
1.610E-06,-0.940
1.620E-06,-0.920
1.630E-06,-0.880
1.640E-06,-0.760
1.650E-06,-0.960
1.660E-06,-1.080
1.670E-06,-1.460
1.680E-06,-1.920
1.690E-06,-2.140
1.700E-06,-2.100
1.710E-06,-2.040
1.720E-06,-1.680
1.730E-06,-1.780
1.740E-06,-1.620
1.750E-06,-1.720
1.760E-06,-1.700
1.770E-06,-1.780
1.780E-06,-1.580
1.790E-06,-1.700
1.800E-06,-1.560
1.810E-06,-1.860
1.820E-06,-1.740
1.830E-06,-2.080
1.840E-06,-2.340
1.850E-06,-2.500
1.860E-06,-2.580
1.870E-06,-2.820
1.880E-06,-2.960
1.890E-06,-2.980
1.900E-06,-2.900
1.910E-06,-2.880
1.920E-06,-2.720
1.930E-06,-2.620
1.940E-06,-2.480
1.950E-06,-2.200
1.960E-06,-1.940
1.970E-06,-1.580
1.980E-06,-1.360
1.990E-06,-1.040
2.000E-06,-0.700
2.010E-06,-0.200
2.020E-06,0.140
2.030E-06,0.520
2.040E-06,1.100
2.050E-06,0.840
2.060E-06,0.660
2.070E-06,0.040
2.080E-06,-0.460
2.090E-06,-1.580
2.100E-06,-2.240
2.110E-06,-3.300
2.120E-06,-3.340
2.130E-06,-3.340
2.140E-06,-3.320
2.150E-06,-2.980
2.160E-06,-2.460
2.170E-06,-2.540
2.180E-06,-3.040
2.190E-06,-3.340
2.200E-06,-3.320
2.210E-06,-3.340
2.220E-06,-3.340
2.230E-06,-3.120
2.240E-06,-3.340
2.250E-06,-2.520
2.260E-06,-3.340
2.270E-06,-3.340
2.280E-06,-3.340
2.290E-06,-3.340
2.300E-06,-3.340
2.310E-06,-3.340
2.320E-06,-3.340
2.330E-06,-3.340
2.340E-06,-3.340
2.350E-06,-3.340
2.360E-06,-3.340
2.370E-06,-3.340
2.380E-06,-3.320
2.390E-06,-3.320
2.400E-06,-3.320
2.410E-06,-3.340
2.420E-06,-3.340
2.430E-06,-3.340
2.440E-06,-3.080
2.450E-06,-3.100
2.460E-06,-1.600
2.470E-06,-1.660
2.480E-06,-0.220
2.490E-06,-0.460
2.500E-06,0.100
2.510E-06,0.000
2.520E-06,-0.160
2.530E-06,0.120
2.540E-06,0.120
2.550E-06,0.240
2.560E-06,0.220
2.570E-06,0.180
2.580E-06,0.040
2.590E-06,-0.160
2.600E-06,-0.160
2.610E-06,-0.160
2.620E-06,0.040
2.630E-06,0.120
2.640E-06,0.380
2.650E-06,0.580
2.660E-06,0.780
2.670E-06,0.840
2.680E-06,0.900
2.690E-06,0.860
2.700E-06,0.640
2.710E-06,0.480
2.720E-06,0.220
2.730E-06,-0.060
2.740E-06,-0.280
2.750E-06,-0.440
2.760E-06,-0.540
2.770E-06,-0.660
2.780E-06,-0.720
2.790E-06,-0.780
2.800E-06,-0.880
2.810E-06,-0.940
2.820E-06,-1.060
2.830E-06,-1.080
2.840E-06,-1.160
2.850E-06,-1.180
2.860E-06,-1.320
2.870E-06,-1.320
2.880E-06,-1.420
2.890E-06,-1.460
2.900E-06,-1.520
2.910E-06,-1.340
2.920E-06,-1.300
2.930E-06,-1.080
2.940E-06,-0.980
2.950E-06,-0.880
2.960E-06,-0.840
2.970E-06,-0.820
2.980E-06,-0.800
2.990E-06,-0.780
3.000E-06,-0.840
3.010E-06,-0.900
3.020E-06,-0.940
3.030E-06,-1.120
3.040E-06,-1.180
3.050E-06,-1.460
3.060E-06,-1.440
3.070E-06,-1.520
3.080E-06,-1.480
3.090E-06,-1.360
3.100E-06,-1.260
3.110E-06,-1.160
3.120E-06,-1.060
3.130E-06,-0.900
3.140E-06,-0.840
3.150E-06,-0.760
3.160E-06,-0.820
3.170E-06,-0.680
3.180E-06,-0.680
3.190E-06,-0.640
3.200E-06,-0.580
3.210E-06,-0.520
3.220E-06,-0.480
3.230E-06,-0.480
3.240E-06,-0.280
3.250E-06,-0.280
3.260E-06,-0.160
3.270E-06,-0.080
3.280E-06,-0.040
3.290E-06,-0.060
3.300E-06,-0.160
3.310E-06,-0.160
3.320E-06,-0.220
