mediciones/8-28/-37/WaveData65883.csv

#timebase=2000000(ps)
,#voltbase=500000(mv/100)
#size=4000
-8.350E-06,0.040
-8.340E-06,0.020
-8.330E-06,0.060
-8.320E-06,0.060
-8.310E-06,0.040
-8.300E-06,0.000
-8.290E-06,0.020
-8.280E-06,0.060
-8.270E-06,0.020
-8.260E-06,0.060
-8.250E-06,0.060
-8.240E-06,0.020
-8.230E-06,0.080
-8.220E-06,0.060
-8.210E-06,0.020
-8.200E-06,0.040
-8.190E-06,0.060
-8.180E-06,0.080
-8.170E-06,0.060
-8.160E-06,0.040
-8.150E-06,0.020
-8.140E-06,0.020
-8.130E-06,0.060
-8.120E-06,0.020
-8.110E-06,0.000
-8.100E-06,0.040
-8.090E-06,0.000
-8.080E-06,0.040
-8.070E-06,0.080
-8.060E-06,0.060
-8.050E-06,0.080
-8.040E-06,0.020
-8.030E-06,0.040
-8.020E-06,0.060
-8.010E-06,0.040
-8.000E-06,0.060
-7.990E-06,0.080
-7.980E-06,0.020
-7.970E-06,0.040
-7.960E-06,0.080
-7.950E-06,0.040
-7.940E-06,0.020
-7.930E-06,0.060
-7.920E-06,0.000
-7.910E-06,0.060
-7.900E-06,0.060
-7.890E-06,0.060
-7.880E-06,0.020
-7.870E-06,0.040
-7.860E-06,0.040
-7.850E-06,0.040
-7.840E-06,0.060
-7.830E-06,0.080
-7.820E-06,0.000
-7.810E-06,0.020
-7.800E-06,0.060
-7.790E-06,0.040
-7.780E-06,0.040
-7.770E-06,0.060
-7.760E-06,0.060
-7.750E-06,0.060
-7.740E-06,0.080
-7.730E-06,0.060
-7.720E-06,0.040
-7.710E-06,0.040
-7.700E-06,0.040
-7.690E-06,0.060
-7.680E-06,0.020
-7.670E-06,0.040
-7.660E-06,0.040
-7.650E-06,0.040
-7.640E-06,0.060
-7.630E-06,0.040
-7.620E-06,0.060
-7.610E-06,0.040
-7.600E-06,0.060
-7.590E-06,0.080
-7.580E-06,0.020
-7.570E-06,0.080
-7.560E-06,0.060
-7.550E-06,0.060
-7.540E-06,0.020
-7.530E-06,0.020
-7.520E-06,0.060
-7.510E-06,0.020
-7.500E-06,0.020
-7.490E-06,0.040
-7.480E-06,0.040
-7.470E-06,0.020
-7.460E-06,0.040
-7.450E-06,0.060
-7.440E-06,0.080
-7.430E-06,0.080
-7.420E-06,0.040
-7.410E-06,0.020
-7.400E-06,0.060
-7.390E-06,0.060
-7.380E-06,0.040
-7.370E-06,0.040
-7.360E-06,0.060
-7.350E-06,0.060
-7.340E-06,0.060
-7.330E-06,0.040
-7.320E-06,0.040
-7.310E-06,0.060
-7.300E-06,0.020
-7.290E-06,0.060
-7.280E-06,0.060
-7.270E-06,0.060
-7.260E-06,0.020
-7.250E-06,0.080
-7.240E-06,0.020
-7.230E-06,0.020
-7.220E-06,0.100
-7.210E-06,0.020
-7.200E-06,0.060
-7.190E-06,0.080
-7.180E-06,0.040
-7.170E-06,0.080
-7.160E-06,0.060
-7.150E-06,0.020
-7.140E-06,0.080
-7.130E-06,0.020
-7.120E-06,0.060
-7.110E-06,0.060
-7.100E-06,0.040
-7.090E-06,0.020
-7.080E-06,0.080
-7.070E-06,0.040
-7.060E-06,0.040
-7.050E-06,0.080
-7.040E-06,0.040
-7.030E-06,0.020
-7.020E-06,0.040
-7.010E-06,0.040
-7.000E-06,0.080
-6.990E-06,0.020
-6.980E-06,0.000
-6.970E-06,0.080
-6.960E-06,0.040
-6.950E-06,0.040
-6.940E-06,0.040
-6.930E-06,0.040
-6.920E-06,0.040
-6.910E-06,0.040
-6.900E-06,0.060
-6.890E-06,0.020
-6.880E-06,0.040
-6.870E-06,0.020
-6.860E-06,0.040
-6.850E-06,0.040
-6.840E-06,0.020
-6.830E-06,0.080
-6.820E-06,0.060
-6.810E-06,0.020
-6.800E-06,0.040
-6.790E-06,0.080
-6.780E-06,0.060
-6.770E-06,0.040
-6.760E-06,0.080
-6.750E-06,0.020
-6.740E-06,0.040
-6.730E-06,0.060
-6.720E-06,0.000
-6.710E-06,0.040
-6.700E-06,0.040
-6.690E-06,0.060
-6.680E-06,0.060
-6.670E-06,0.020
-6.660E-06,0.040
-6.650E-06,0.080
-6.640E-06,0.060
-6.630E-06,0.040
-6.620E-06,0.060
-6.610E-06,0.060
-6.600E-06,0.040
-6.590E-06,0.020
-6.580E-06,0.040
-6.570E-06,0.060
-6.560E-06,0.040
-6.550E-06,0.040
-6.540E-06,0.060
-6.530E-06,0.060
-6.520E-06,0.060
-6.510E-06,0.040
-6.500E-06,0.060
-6.490E-06,0.060
-6.480E-06,0.040
-6.470E-06,0.060
-6.460E-06,0.060
-6.450E-06,0.060
-6.440E-06,0.040
-6.430E-06,0.040
-6.420E-06,0.060
-6.410E-06,0.060
-6.400E-06,0.040
-6.390E-06,0.060
-6.380E-06,0.060
-6.370E-06,0.060
-6.360E-06,0.060
-6.350E-06,0.060
-6.340E-06,0.020
-6.330E-06,0.020
-6.320E-06,0.060
-6.310E-06,0.080
-6.300E-06,0.080
-6.290E-06,0.060
-6.280E-06,0.060
-6.270E-06,0.080
-6.260E-06,0.080
-6.250E-06,0.080
-6.240E-06,0.060
-6.230E-06,0.080
-6.220E-06,0.080
-6.210E-06,0.020
-6.200E-06,0.060
-6.190E-06,0.060
-6.180E-06,0.060
-6.170E-06,0.020
-6.160E-06,0.060
-6.150E-06,0.040
-6.140E-06,0.060
-6.130E-06,0.040
-6.120E-06,0.040
-6.110E-06,0.060
-6.100E-06,0.080
-6.090E-06,0.020
-6.080E-06,0.060
-6.070E-06,0.040
-6.060E-06,0.060
-6.050E-06,0.060
-6.040E-06,0.080
-6.030E-06,0.060
-6.020E-06,0.060
-6.010E-06,0.040
-6.000E-06,0.040
-5.990E-06,0.060
-5.980E-06,0.060
-5.970E-06,0.040
-5.960E-06,0.020
-5.950E-06,0.040
-5.940E-06,0.060
-5.930E-06,0.040
-5.920E-06,0.060
-5.910E-06,0.040
-5.900E-06,0.060
-5.890E-06,0.060
-5.880E-06,0.060
-5.870E-06,0.060
-5.860E-06,0.040
-5.850E-06,0.060
-5.840E-06,0.060
-5.830E-06,0.040
-5.820E-06,0.040
-5.810E-06,0.040
-5.800E-06,0.040
-5.790E-06,0.060
-5.780E-06,0.060
-5.770E-06,0.060
-5.760E-06,0.060
-5.750E-06,0.000
-5.740E-06,0.060
-5.730E-06,0.080
-5.720E-06,0.020
-5.710E-06,0.060
-5.700E-06,0.020
-5.690E-06,0.060
-5.680E-06,0.060
-5.670E-06,0.080
-5.660E-06,0.040
-5.650E-06,0.040
-5.640E-06,0.040
-5.630E-06,0.040
-5.620E-06,0.020
-5.610E-06,0.080
-5.600E-06,0.040
-5.590E-06,0.040
-5.580E-06,0.060
-5.570E-06,0.060
-5.560E-06,0.080
-5.550E-06,0.020
-5.540E-06,0.040
-5.530E-06,0.060
-5.520E-06,0.020
-5.510E-06,0.020
-5.500E-06,0.080
-5.490E-06,0.040
-5.480E-06,0.040
-5.470E-06,0.040
-5.460E-06,0.020
-5.450E-06,0.040
-5.440E-06,0.020
-5.430E-06,0.020
-5.420E-06,0.060
-5.410E-06,0.040
-5.400E-06,0.040
-5.390E-06,0.040
-5.380E-06,0.040
-5.370E-06,0.060
-5.360E-06,0.060
-5.350E-06,0.040
-5.340E-06,0.060
-5.330E-06,0.060
-5.320E-06,0.040
-5.310E-06,0.040
-5.300E-06,0.040
-5.290E-06,0.080
-5.280E-06,0.060
-5.270E-06,0.060
-5.260E-06,0.080
-5.250E-06,0.060
-5.240E-06,0.080
-5.230E-06,0.040
-5.220E-06,0.020
-5.210E-06,0.040
-5.200E-06,0.020
-5.190E-06,0.020
-5.180E-06,0.040
-5.170E-06,0.040
-5.160E-06,0.040
-5.150E-06,0.060
-5.140E-06,0.040
-5.130E-06,0.000
-5.120E-06,0.020
-5.110E-06,0.020
-5.100E-06,0.060
-5.090E-06,0.080
-5.080E-06,0.040
-5.070E-06,0.040
-5.060E-06,0.040
-5.050E-06,0.040
-5.040E-06,0.060
-5.030E-06,0.060
-5.020E-06,0.060
-5.010E-06,0.060
-5.000E-06,0.080
-4.990E-06,0.020
-4.980E-06,0.040
-4.970E-06,0.040
-4.960E-06,0.040
-4.950E-06,0.060
-4.940E-06,0.080
-4.930E-06,0.020
-4.920E-06,0.020
-4.910E-06,0.040
-4.900E-06,0.060
-4.890E-06,0.020
-4.880E-06,0.060
-4.870E-06,0.020
-4.860E-06,0.060
-4.850E-06,0.060
-4.840E-06,0.060
-4.830E-06,0.020
-4.820E-06,0.020
-4.810E-06,0.060
-4.800E-06,0.000
-4.790E-06,0.040
-4.780E-06,0.020
-4.770E-06,0.060
-4.760E-06,0.040
-4.750E-06,0.060
-4.740E-06,0.060
-4.730E-06,-0.020
-4.720E-06,0.040
-4.710E-06,0.040
-4.700E-06,0.040
-4.690E-06,0.020
-4.680E-06,0.080
-4.670E-06,0.060
-4.660E-06,0.020
-4.650E-06,0.060
-4.640E-06,0.040
-4.630E-06,0.060
-4.620E-06,0.060
-4.610E-06,0.020
-4.600E-06,0.060
-4.590E-06,0.060
-4.580E-06,0.080
-4.570E-06,0.060
-4.560E-06,0.020
-4.550E-06,0.040
-4.540E-06,0.060
-4.530E-06,0.080
-4.520E-06,0.080
-4.510E-06,0.040
-4.500E-06,0.020
-4.490E-06,0.060
-4.480E-06,0.080
-4.470E-06,0.080
-4.460E-06,0.040
-4.450E-06,0.040
-4.440E-06,0.040
-4.430E-06,0.040
-4.420E-06,0.040
-4.410E-06,0.060
-4.400E-06,0.060
-4.390E-06,0.040
-4.380E-06,0.020
-4.370E-06,0.060
-4.360E-06,0.000
-4.350E-06,0.040
-4.340E-06,0.040
-4.330E-06,0.060
-4.320E-06,0.060
-4.310E-06,0.060
-4.300E-06,0.060
-4.290E-06,0.040
-4.280E-06,0.020
-4.270E-06,0.060
-4.260E-06,0.020
-4.250E-06,0.040
-4.240E-06,0.080
-4.230E-06,0.060
-4.220E-06,0.080
-4.210E-06,0.060
-4.200E-06,0.020
-4.190E-06,0.020
-4.180E-06,0.040
-4.170E-06,0.040
-4.160E-06,0.040
-4.150E-06,0.060
-4.140E-06,0.040
-4.130E-06,0.020
-4.120E-06,0.060
-4.110E-06,0.060
-4.100E-06,0.040
-4.090E-06,0.040
-4.080E-06,0.060
-4.070E-06,0.060
-4.060E-06,0.040
-4.050E-06,0.060
-4.040E-06,0.060
-4.030E-06,0.040
-4.020E-06,0.040
-4.010E-06,0.060
-4.000E-06,0.020
-3.990E-06,0.060
-3.980E-06,0.060
-3.970E-06,0.040
-3.960E-06,0.060
-3.950E-06,0.040
-3.940E-06,0.060
-3.930E-06,0.060
-3.920E-06,0.040
-3.910E-06,0.060
-3.900E-06,0.060
-3.890E-06,0.060
-3.880E-06,0.020
-3.870E-06,0.060
-3.860E-06,0.080
-3.850E-06,0.040
-3.840E-06,0.080
-3.830E-06,0.020
-3.820E-06,0.040
-3.810E-06,0.060
-3.800E-06,0.040
-3.790E-06,0.020
-3.780E-06,0.020
-3.770E-06,0.040
-3.760E-06,0.040
-3.750E-06,0.020
-3.740E-06,-0.200
-3.730E-06,-0.800
-3.720E-06,-1.800
-3.710E-06,-2.740
-3.700E-06,-3.340
-3.690E-06,-2.560
-3.680E-06,-2.420
-3.670E-06,-1.780
-3.660E-06,0.100
-3.650E-06,1.360
-3.640E-06,2.080
-3.630E-06,2.080
-3.620E-06,2.080
-3.610E-06,2.060
-3.600E-06,2.080
-3.590E-06,2.100
-3.580E-06,2.100
-3.570E-06,1.420
-3.560E-06,0.760
-3.550E-06,-0.060
-3.540E-06,-0.660
-3.530E-06,-0.840
-3.520E-06,-0.640
-3.510E-06,-0.400
-3.500E-06,-0.240
-3.490E-06,-0.160
-3.480E-06,-0.200
-3.470E-06,-0.520
-3.460E-06,-0.940
-3.450E-06,-1.380
-3.440E-06,-1.780
-3.430E-06,-2.020
-3.420E-06,-2.020
-3.410E-06,-1.860
-3.400E-06,-1.560
-3.390E-06,-1.040
-3.380E-06,-0.440
-3.370E-06,0.260
-3.360E-06,0.880
-3.350E-06,1.420
-3.340E-06,1.700
-3.330E-06,1.820
-3.320E-06,1.760
-3.310E-06,1.480
-3.300E-06,1.040
-3.290E-06,0.580
-3.280E-06,0.060
-3.270E-06,-0.320
-3.260E-06,-0.640
-3.250E-06,-0.840
-3.240E-06,-0.940
-3.230E-06,-0.900
-3.220E-06,-0.820
-3.210E-06,-0.700
-3.200E-06,-0.560
-3.190E-06,-0.420
-3.180E-06,-0.260
-3.170E-06,-0.080
-3.160E-06,0.140
-3.150E-06,0.360
-3.140E-06,0.560
-3.130E-06,0.740
-3.120E-06,0.860
-3.110E-06,0.960
-3.100E-06,0.980
-3.090E-06,0.940
-3.080E-06,0.840
-3.070E-06,0.720
-3.060E-06,0.540
-3.050E-06,0.380
-3.040E-06,0.240
-3.030E-06,0.020
-3.020E-06,-0.100
-3.010E-06,-0.220
-3.000E-06,-0.340
-2.990E-06,-0.400
-2.980E-06,-0.480
-2.970E-06,-0.540
-2.960E-06,-0.640
-2.950E-06,-0.640
-2.940E-06,-0.580
-2.930E-06,-0.520
-2.920E-06,-0.380
-2.910E-06,-0.200
-2.900E-06,0.020
-2.890E-06,0.300
-2.880E-06,0.520
-2.870E-06,0.660
-2.860E-06,0.840
-2.850E-06,0.920
-2.840E-06,0.880
-2.830E-06,0.760
-2.820E-06,0.600
-2.810E-06,0.420
-2.800E-06,0.200
-2.790E-06,-0.060
-2.780E-06,-0.260
-2.770E-06,-0.440
-2.760E-06,-0.520
-2.750E-06,-0.560
-2.740E-06,-0.560
-2.730E-06,-0.480
-2.720E-06,-0.340
-2.710E-06,-0.260
-2.700E-06,-0.140
-2.690E-06,-0.040
-2.680E-06,0.040
-2.670E-06,0.100
-2.660E-06,0.100
-2.650E-06,0.120
-2.640E-06,0.120
-2.630E-06,0.140
-2.620E-06,0.140
-2.610E-06,0.160
-2.600E-06,0.160
-2.590E-06,0.180
-2.580E-06,0.200
-2.570E-06,0.180
-2.560E-06,0.220
-2.550E-06,0.140
-2.540E-06,0.120
-2.530E-06,0.120
-2.520E-06,0.120
-2.510E-06,-0.040
-2.500E-06,-0.040
-2.490E-06,-0.120
-2.480E-06,-0.160
-2.470E-06,-0.180
-2.460E-06,-0.220
-2.450E-06,-0.140
-2.440E-06,-0.180
-2.430E-06,-0.140
-2.420E-06,-0.020
-2.410E-06,-0.080
-2.400E-06,-0.100
-2.390E-06,0.040
-2.380E-06,-0.160
-2.370E-06,0.080
-2.360E-06,-0.180
-2.350E-06,0.040
-2.340E-06,-0.200
-2.330E-06,0.020
-2.320E-06,-0.100
-2.310E-06,0.060
-2.300E-06,-0.020
-2.290E-06,0.020
-2.280E-06,0.040
-2.270E-06,0.000
-2.260E-06,-0.080
-2.250E-06,-0.040
-2.240E-06,-0.040
-2.230E-06,-0.040
-2.220E-06,-0.020
-2.210E-06,-0.040
-2.200E-06,-0.040
-2.190E-06,-0.140
-2.180E-06,-0.100
-2.170E-06,-0.100
-2.160E-06,-0.140
-2.150E-06,-0.140
-2.140E-06,-0.120
-2.130E-06,-0.120
-2.120E-06,-0.140
-2.110E-06,-0.160
-2.100E-06,-0.180
-2.090E-06,-0.080
-2.080E-06,-0.100
-2.070E-06,-0.100
-2.060E-06,-0.040
-2.050E-06,0.020
-2.040E-06,0.020
-2.030E-06,0.120
-2.020E-06,0.000
-2.010E-06,0.100
-2.000E-06,0.080
-1.990E-06,0.020
-1.980E-06,0.160
-1.970E-06,0.000
-1.960E-06,0.140
-1.950E-06,-0.060
-1.940E-06,-0.180
-1.930E-06,-0.180
-1.920E-06,-0.260
-1.910E-06,-0.260
-1.900E-06,-0.240
-1.890E-06,-0.300
-1.880E-06,-0.260
-1.870E-06,-0.180
-1.860E-06,-0.060
-1.850E-06,0.380
-1.840E-06,0.940
-1.830E-06,1.540
-1.820E-06,1.700
-1.810E-06,1.720
-1.800E-06,1.320
-1.790E-06,0.700
-1.780E-06,0.220
-1.770E-06,-0.680
-1.760E-06,-1.040
-1.750E-06,-1.680
-1.740E-06,-1.680
-1.730E-06,-1.760
-1.720E-06,-1.700
-1.710E-06,-1.460
-1.700E-06,-1.240
-1.690E-06,-0.920
-1.680E-06,-0.760
-1.670E-06,-0.680
-1.660E-06,-0.500
-1.650E-06,-0.580
-1.640E-06,-0.460
-1.630E-06,-0.620
-1.620E-06,-0.620
-1.610E-06,-0.680
-1.600E-06,-0.680
-1.590E-06,-0.340
-1.580E-06,-0.180
-1.570E-06,0.320
-1.560E-06,0.480
-1.550E-06,0.900
-1.540E-06,1.020
-1.530E-06,0.960
-1.520E-06,0.560
-1.510E-06,0.220
-1.500E-06,0.120
-1.490E-06,-0.120
-1.480E-06,-0.420
-1.470E-06,-0.920
-1.460E-06,-1.240
-1.450E-06,-1.580
-1.440E-06,-1.700
-1.430E-06,-1.980
-1.420E-06,-1.700
-1.410E-06,-1.280
-1.400E-06,-0.960
-1.390E-06,-0.160
-1.380E-06,0.120
-1.370E-06,0.500
-1.360E-06,0.520
-1.350E-06,0.660
-1.340E-06,0.400
-1.330E-06,0.080
-1.320E-06,-0.280
-1.310E-06,-0.660
-1.300E-06,-0.880
-1.290E-06,-1.180
-1.280E-06,-1.020
-1.270E-06,-1.060
-1.260E-06,-0.960
-1.250E-06,-1.060
-1.240E-06,-0.680
-1.230E-06,-0.700
-1.220E-06,-0.540
-1.210E-06,-0.420
-1.200E-06,-0.500
-1.190E-06,-0.440
-1.180E-06,-0.680
-1.170E-06,-0.700
-1.160E-06,-0.840
-1.150E-06,-0.800
-1.140E-06,-0.920
-1.130E-06,-0.760
-1.120E-06,-0.640
-1.110E-06,-0.500
-1.100E-06,-0.200
-1.090E-06,0.080
-1.080E-06,0.360
-1.070E-06,0.380
-1.060E-06,0.620
-1.050E-06,0.500
-1.040E-06,0.600
-1.030E-06,0.280
-1.020E-06,0.380
-1.010E-06,-0.240
-1.000E-06,-0.180
-9.900E-07,-0.720
-9.800E-07,-0.640
-9.700E-07,-0.860
-9.600E-07,-0.980
-9.500E-07,-0.900
-9.400E-07,-0.960
-9.300E-07,-0.880
-9.200E-07,-0.780
-9.100E-07,-0.740
-9.000E-07,-0.700
-8.900E-07,-0.740
-8.800E-07,-0.560
-8.700E-07,-0.580
-8.600E-07,-0.420
-8.500E-07,-0.700
-8.400E-07,-0.480
-8.300E-07,-0.520
-8.200E-07,-0.520
-8.100E-07,-0.600
-8.000E-07,-0.600
-7.900E-07,-0.560
-7.800E-07,-0.480
-7.700E-07,-0.360
-7.600E-07,-0.360
-7.500E-07,-0.020
-7.400E-07,-0.160
-7.300E-07,0.000
-7.200E-07,-0.320
-7.100E-07,-0.360
-7.000E-07,-0.620
-6.900E-07,-0.800
-6.800E-07,-0.860
-6.700E-07,-1.060
-6.600E-07,-0.980
-6.500E-07,-0.980
-6.400E-07,-0.840
-6.300E-07,-0.540
-6.200E-07,-0.520
-6.100E-07,-0.340
-6.000E-07,-0.280
-5.900E-07,-0.380
-5.800E-07,-0.360
-5.700E-07,-0.620
-5.600E-07,-0.660
-5.500E-07,-0.840
-5.400E-07,-0.860
-5.300E-07,-0.920
-5.200E-07,-0.840
-5.100E-07,-1.000
-5.000E-07,-0.800
-4.900E-07,-0.980
-4.800E-07,-0.920
-4.700E-07,-1.020
-4.600E-07,-1.060
-4.500E-07,-1.100
-4.400E-07,-1.120
-4.300E-07,-1.060
-4.200E-07,-1.060
-4.100E-07,-1.060
-4.000E-07,-1.100
-3.900E-07,-1.080
-3.800E-07,-1.120
-3.700E-07,-1.100
-3.600E-07,-1.100
-3.500E-07,-1.100
-3.400E-07,-1.060
-3.300E-07,-0.920
-3.200E-07,-0.840
-3.100E-07,-0.800
-3.000E-07,-0.660
-2.900E-07,-0.580
-2.800E-07,-0.500
-2.700E-07,-0.520
-2.600E-07,-0.580
-2.500E-07,-0.580
-2.400E-07,-0.600
-2.300E-07,-0.660
-2.200E-07,-0.660
-2.100E-07,-0.660
-2.000E-07,-0.700
-1.900E-07,-0.660
-1.800E-07,-0.580
-1.700E-07,-0.680
-1.600E-07,-0.640
-1.500E-07,-0.760
-1.400E-07,-0.500
-1.300E-07,-0.360
-1.200E-07,-0.420
-1.100E-07,-0.520
-1.000E-07,-0.800
-9.000E-08,-1.060
-8.000E-08,-1.340
-7.000E-08,-1.520
-6.000E-08,-1.500
-5.000E-08,-1.520
-4.000E-08,-1.560
-3.000E-08,-1.480
-2.000E-08,-1.440
-1.000E-08,-1.360
0.000E+00,-1.320
1.000E-08,-1.300
2.000E-08,-1.100
3.000E-08,-0.980
4.000E-08,-0.820
5.000E-08,-0.760
6.000E-08,-0.840
7.000E-08,-0.860
8.000E-08,-0.880
9.000E-08,-0.940
1.000E-07,-0.920
1.100E-07,-0.880
1.200E-07,-0.840
1.300E-07,-0.740
1.400E-07,-0.740
1.500E-07,-0.700
1.600E-07,-0.680
1.700E-07,-0.640
1.800E-07,-0.620
1.900E-07,-0.600
2.000E-07,-0.520
2.100E-07,-0.460
2.200E-07,-0.420
2.300E-07,-0.320
2.400E-07,-0.260
2.500E-07,-0.260
2.600E-07,-0.320
2.700E-07,-0.320
2.800E-07,-0.340
2.900E-07,-0.300
3.000E-07,-0.380
3.100E-07,-0.400
3.200E-07,-0.440
3.300E-07,-0.440
3.400E-07,-0.420
3.500E-07,-0.360
3.600E-07,-0.380
3.700E-07,-0.340
3.800E-07,-0.500
3.900E-07,-0.560
4.000E-07,-0.660
4.100E-07,-0.780
4.200E-07,-1.000
4.300E-07,-1.100
4.400E-07,-1.220
4.500E-07,-1.320
4.600E-07,-1.400
4.700E-07,-1.440
4.800E-07,-1.560
4.900E-07,-1.600
5.000E-07,-1.700
5.100E-07,-1.740
5.200E-07,-1.880
5.300E-07,-1.960
5.400E-07,-2.100
5.500E-07,-2.200
5.600E-07,-2.380
5.700E-07,-2.440
5.800E-07,-2.520
5.900E-07,-2.620
6.000E-07,-2.640
6.100E-07,-2.720
6.200E-07,-2.680
6.300E-07,-2.780
6.400E-07,-2.840
6.500E-07,-2.860
6.600E-07,-2.880
6.700E-07,-2.920
6.800E-07,-2.940
6.900E-07,-2.980
7.000E-07,-2.940
7.100E-07,-2.880
7.200E-07,-2.920
7.300E-07,-3.000
7.400E-07,-3.040
7.500E-07,-3.060
7.600E-07,-3.040
7.700E-07,-2.980
7.800E-07,-2.900
7.900E-07,-2.860
8.000E-07,-2.780
8.100E-07,-2.800
8.200E-07,-2.780
8.300E-07,-2.740
8.400E-07,-2.600
8.500E-07,-2.520
8.600E-07,-2.400
8.700E-07,-2.340
8.800E-07,-2.080
8.900E-07,-1.860
9.000E-07,-1.660
9.100E-07,-1.420
9.200E-07,-1.360
9.300E-07,-1.260
9.400E-07,-1.180
9.500E-07,-1.040
9.600E-07,-0.940
9.700E-07,-0.900
9.800E-07,-0.780
9.900E-07,-0.680
1.000E-06,-0.680
1.010E-06,-0.580
1.020E-06,-0.540
1.030E-06,-0.520
1.040E-06,-0.440
1.050E-06,-0.380
1.060E-06,-0.220
1.070E-06,-0.180
1.080E-06,-0.100
1.090E-06,-0.020
1.100E-06,0.040
1.110E-06,0.040
1.120E-06,0.020
1.130E-06,0.000
1.140E-06,-0.020
1.150E-06,0.000
1.160E-06,-0.020
1.170E-06,-0.060
1.180E-06,-0.060
1.190E-06,-0.100
1.200E-06,-0.200
1.210E-06,-0.320
1.220E-06,-0.400
1.230E-06,-0.480
1.240E-06,-0.520
1.250E-06,-0.580
1.260E-06,-0.560
1.270E-06,-0.560
1.280E-06,-0.580
1.290E-06,-0.620
1.300E-06,-0.680
1.310E-06,-0.680
1.320E-06,-0.660
1.330E-06,-0.560
1.340E-06,-0.540
1.350E-06,-0.680
1.360E-06,-0.740
1.370E-06,-0.600
1.380E-06,-0.520
1.390E-06,-0.480
1.400E-06,-0.520
1.410E-06,-0.420
1.420E-06,-0.440
1.430E-06,-0.440
1.440E-06,-0.400
1.450E-06,-0.420
1.460E-06,-0.460
1.470E-06,-0.540
1.480E-06,-0.620
1.490E-06,-0.620
1.500E-06,-0.640
1.510E-06,-0.540
1.520E-06,-0.420
1.530E-06,-0.280
1.540E-06,-0.180
1.550E-06,-0.020
1.560E-06,0.060
1.570E-06,0.080
1.580E-06,0.220
1.590E-06,0.260
1.600E-06,0.240
1.610E-06,0.240
1.620E-06,0.200
1.630E-06,0.220
1.640E-06,0.200
1.650E-06,0.160
1.660E-06,0.220
1.670E-06,0.140
1.680E-06,0.100
1.690E-06,0.100
1.700E-06,0.060
1.710E-06,0.040
1.720E-06,0.000
1.730E-06,-0.040
1.740E-06,-0.040
1.750E-06,-0.100
1.760E-06,-0.140
1.770E-06,-0.140
1.780E-06,-0.120
1.790E-06,-0.080
1.800E-06,-0.060
1.810E-06,-0.080
1.820E-06,-0.140
1.830E-06,-0.260
1.840E-06,-0.260
1.850E-06,-0.280
1.860E-06,-0.180
1.870E-06,-0.200
1.880E-06,-0.220
1.890E-06,-0.160
1.900E-06,-0.140
1.910E-06,-0.060
1.920E-06,-0.020
1.930E-06,0.080
1.940E-06,0.160
1.950E-06,0.220
1.960E-06,0.280
1.970E-06,0.300
1.980E-06,0.320
1.990E-06,0.260
2.000E-06,0.280
2.010E-06,0.240
2.020E-06,0.220
2.030E-06,0.080
2.040E-06,-0.040
2.050E-06,-0.160
2.060E-06,-0.200
2.070E-06,-0.240
2.080E-06,-0.320
2.090E-06,-0.400
2.100E-06,-0.440
2.110E-06,-0.480
2.120E-06,-0.500
2.130E-06,-0.500
2.140E-06,-0.480
2.150E-06,-0.380
2.160E-06,-0.480
2.170E-06,-0.500
2.180E-06,-0.440
2.190E-06,-0.320
2.200E-06,-0.200
2.210E-06,-0.180
2.220E-06,-0.160
2.230E-06,-0.080
2.240E-06,-0.080
2.250E-06,-0.080
2.260E-06,0.020
2.270E-06,0.060
2.280E-06,0.120
2.290E-06,0.240
2.300E-06,0.360
2.310E-06,0.500
2.320E-06,0.540
2.330E-06,0.560
2.340E-06,0.500
2.350E-06,0.420
2.360E-06,0.320
2.370E-06,0.240
2.380E-06,0.120
2.390E-06,0.080
2.400E-06,0.080
2.410E-06,0.040
2.420E-06,0.060
2.430E-06,0.120
2.440E-06,0.140
2.450E-06,0.180
2.460E-06,0.240
2.470E-06,0.260
2.480E-06,0.320
2.490E-06,0.360
2.500E-06,0.420
2.510E-06,0.400
2.520E-06,0.360
2.530E-06,0.360
2.540E-06,0.400
2.550E-06,0.440
2.560E-06,0.340
2.570E-06,0.320
2.580E-06,0.260
2.590E-06,0.200
2.600E-06,0.100
2.610E-06,-0.040
2.620E-06,-0.120
2.630E-06,-0.220
2.640E-06,-0.380
2.650E-06,-0.440
2.660E-06,-0.500
2.670E-06,-0.520
2.680E-06,-0.480
2.690E-06,-0.520
2.700E-06,-0.500
2.710E-06,-0.380
2.720E-06,-0.220
2.730E-06,-0.080
2.740E-06,-0.060
2.750E-06,-0.080
2.760E-06,-0.120
2.770E-06,-0.200
2.780E-06,-0.380
2.790E-06,-0.520
2.800E-06,-0.660
2.810E-06,-0.780
2.820E-06,-0.860
2.830E-06,-0.920
2.840E-06,-0.960
2.850E-06,-0.980
2.860E-06,-0.940
2.870E-06,-1.020
2.880E-06,-1.020
2.890E-06,-1.060
2.900E-06,-1.000
2.910E-06,-1.020
2.920E-06,-0.960
2.930E-06,-0.920
2.940E-06,-0.860
2.950E-06,-0.800
2.960E-06,-0.740
2.970E-06,-0.660
2.980E-06,-0.620
2.990E-06,-0.540
3.000E-06,-0.560
3.010E-06,-0.640
3.020E-06,-0.740
3.030E-06,-0.600
3.040E-06,-0.440
3.050E-06,-0.360
3.060E-06,-0.360
3.070E-06,-0.320
3.080E-06,-0.280
3.090E-06,-0.280
3.100E-06,-0.260
3.110E-06,-0.320
3.120E-06,-0.340
3.130E-06,-0.360
3.140E-06,-0.420
3.150E-06,-0.540
3.160E-06,-0.640
3.170E-06,-0.760
3.180E-06,-0.840
3.190E-06,-0.880
3.200E-06,-0.920
3.210E-06,-0.900
3.220E-06,-0.820
3.230E-06,-0.740
3.240E-06,-0.600
3.250E-06,-0.420
